TITLE	
DATA TYPE	ULTRAVIOLET SPECTRUM
ORIGIN	JASCO
OWNER	
DATE	22/04/27
TIME	18:40:54
SPECTROMETER/DATA SYSTEM	
LOCALE	1031
RESOLUTION	
DELTAX	-0,2
XUNITS	NANOMETERS
YUNITS	ABSORBANCE
FIRSTX	  800,0000
LASTX	  375,0000
NPOINTS	    2126
FIRSTY	    -0,00321
MAXY	     0,34146
MINY	    -0,01256
XYDATA
800,0000	-0,00321279
799,8000	-0,00324682
799,6000	-0,00328353
799,4000	-0,00326526
799,2000	-0,00324927
799,0000	-0,00326127
798,8000	-0,00325345
798,6000	-0,00324324
798,4000	-0,00325894
798,2000	-0,0032624
798,0000	-0,003267
797,8000	-0,00326628
797,6000	-0,0032747
797,4000	-0,00326771
797,2000	-0,00325362
797,0000	-0,00326109
796,8000	-0,00324628
796,6000	-0,0032587
796,4000	-0,00326497
796,2000	-0,00323715
796,0000	-0,00325559
795,8000	-0,00327529
795,6000	-0,00326365
795,4000	-0,00327159
795,2000	-0,00327356
795,0000	-0,00327929
794,8000	-0,00326097
794,6000	-0,0032421
794,4000	-0,00324885
794,2000	-0,00326377
794,0000	-0,00327691
793,8000	-0,00326127
793,6000	-0,00324258
793,4000	-0,00324372
793,2000	-0,00325655
793,0000	-0,00323637
792,8000	-0,00321118
792,6000	-0,00323052
792,4000	-0,00325661
792,2000	-0,00324945
792,0000	-0,00326264
791,8000	-0,00328013
791,6000	-0,00325888
791,4000	-0,00326144
791,2000	-0,00327285
791,0000	-0,00325864
790,8000	-0,00323309
790,6000	-0,00322939
790,4000	-0,00325536
790,2000	-0,00326341
790,0000	-0,00326383
789,8000	-0,00324837
789,6000	-0,00325333
789,4000	-0,00327291
789,2000	-0,00327774
789,0000	-0,0032787
788,8000	-0,00325864
788,6000	-0,00326497
788,4000	-0,00325715
788,2000	-0,00326097
788,0000	-0,00328287
787,8000	-0,0032575
787,6000	-0,00324145
787,4000	-0,00324324
787,2000	-0,00324831
787,0000	-0,00326503
786,8000	-0,00326138
786,6000	-0,00324395
786,4000	-0,00327422
786,2000	-0,00331272
786,0000	-0,00328096
785,8000	-0,00326359
785,6000	-0,00326043
785,4000	-0,00324754
785,2000	-0,00323924
785,0000	-0,00325918
784,8000	-0,00326467
784,6000	-0,00324712
784,4000	-0,00325583
784,2000	-0,00322605
784,0000	-0,00321369
783,8000	-0,00323721
783,6000	-0,00324598
783,4000	-0,00324401
783,2000	-0,0032544
783,0000	-0,00324998
782,8000	-0,00323387
782,6000	-0,00324145
782,4000	-0,00325404
782,2000	-0,00324157
782,0000	-0,00325709
781,8000	-0,00327219
781,6000	-0,00325613
781,4000	-0,00324545
781,2000	-0,00323369
781,0000	-0,00322133
780,8000	-0,00323804
780,6000	-0,00326306
780,4000	-0,00325494
780,2000	-0,0032464
780,0000	-0,003239
779,8000	-0,00326413
779,6000	-0,00327398
779,4000	-0,0032661
779,2000	-0,00326318
779,0000	-0,00325339
778,8000	-0,00324712
778,6000	-0,00325894
778,4000	-0,00326264
778,2000	-0,00325124
778,0000	-0,00326252
777,8000	-0,00327607
777,6000	-0,00328825
777,4000	-0,00329726
777,2000	-0,00328556
777,0000	-0,00327404
776,8000	-0,00330317
776,6000	-0,00330777
776,4000	-0,00328502
776,2000	-0,00328198
776,0000	-0,0032898
775,8000	-0,00330257
775,6000	-0,00331672
775,4000	-0,00330729
775,2000	-0,00331057
775,0000	-0,003336
774,8000	-0,00334979
774,6000	-0,00335391
774,4000	-0,00335033
774,2000	-0,00334096
774,0000	-0,00332269
773,8000	-0,00332562
773,6000	-0,00332603
773,4000	-0,00330813
773,2000	-0,00332227
773,0000	-0,00335218
772,8000	-0,00335451
772,6000	-0,00334687
772,4000	-0,00334215
772,2000	-0,00335296
772,0000	-0,00337409
771,8000	-0,00338268
771,6000	-0,00336185
771,4000	-0,00334096
771,2000	-0,00335409
771,0000	-0,00335904
770,8000	-0,00332908
770,6000	-0,00333702
770,4000	-0,00338304
770,2000	-0,00339056
770,0000	-0,0033825
769,8000	-0,0033871
769,6000	-0,00336889
769,4000	-0,00337898
769,2000	-0,00341211
769,0000	-0,00337815
768,8000	-0,00334358
768,6000	-0,00336812
768,4000	-0,00337289
768,2000	-0,00336776
768,0000	-0,0033489
767,8000	-0,00334137
767,6000	-0,00336477
767,4000	-0,00337307
767,2000	-0,00338053
767,0000	-0,00339946
766,8000	-0,00340298
766,6000	-0,00338758
766,4000	-0,00340071
766,2000	-0,0033785
766,0000	-0,00336931
765,8000	-0,00338973
765,6000	-0,00336901
765,4000	-0,00336668
765,2000	-0,00339844
765,0000	-0,00342471
764,8000	-0,00341611
764,6000	-0,0034154
764,4000	-0,00339528
764,2000	-0,00335719
764,0000	-0,00336931
763,8000	-0,00336364
763,6000	-0,00335606
763,4000	-0,00337546
763,2000	-0,00335642
763,0000	-0,00336674
762,8000	-0,00340925
762,6000	-0,00338668
762,4000	-0,00336179
762,2000	-0,00335719
762,0000	-0,00335284
761,8000	-0,00331648
761,6000	-0,00329517
761,4000	-0,00333863
761,2000	-0,00336782
761,0000	-0,00336036
760,8000	-0,0033477
760,6000	-0,00333015
760,4000	-0,00333529
760,2000	-0,00335081
760,0000	-0,00333678
759,8000	-0,00331195
759,6000	-0,00329147
759,4000	-0,00331242
759,2000	-0,00333332
759,0000	-0,00331839
758,8000	-0,00330514
758,6000	-0,00329129
758,4000	-0,00327738
758,2000	-0,00329935
758,0000	-0,00330126
757,8000	-0,00326246
757,6000	-0,00326282
757,4000	-0,00328216
757,2000	-0,00325118
757,0000	-0,00324198
756,8000	-0,00324246
756,6000	-0,00323655
756,4000	-0,00321572
756,2000	-0,00318802
756,0000	-0,00322742
755,8000	-0,0032344
755,6000	-0,00320856
755,4000	-0,00320056
755,2000	-0,00320497
755,0000	-0,00318498
754,8000	-0,00319315
754,6000	-0,00321142
754,4000	-0,00319065
754,2000	-0,00318754
754,0000	-0,00317877
753,8000	-0,00318886
753,6000	-0,00319978
753,4000	-0,00319602
753,2000	-0,0031965
753,0000	-0,00318915
752,8000	-0,0031891
752,6000	-0,00322509
752,4000	-0,00325619
752,2000	-0,00324085
752,0000	-0,0032264
751,8000	-0,00324509
751,6000	-0,0032667
751,4000	-0,00326246
751,2000	-0,00325965
751,0000	-0,00328819
750,8000	-0,00329362
750,6000	-0,00328079
750,4000	-0,0032978
750,2000	-0,00333075
750,0000	-0,00335881
749,8000	-0,00334209
749,6000	-0,00333743
749,4000	-0,00334591
749,2000	-0,00335886
749,0000	-0,00336352
748,8000	-0,00334609
748,6000	-0,00334519
748,4000	-0,00334776
748,2000	-0,00336442
748,0000	-0,00337833
747,8000	-0,00337606
747,6000	-0,00338907
747,4000	-0,00339062
747,2000	-0,00338065
747,0000	-0,00337618
746,8000	-0,00338179
746,6000	-0,00339826
746,4000	-0,00340274
746,2000	-0,00339534
746,0000	-0,00340405
745,8000	-0,00341957
745,6000	-0,00343086
745,4000	-0,00346231
745,2000	-0,00347557
745,0000	-0,00346781
744,8000	-0,00348679
744,6000	-0,00347616
744,4000	-0,00344632
744,2000	-0,00342769
744,0000	-0,00341462
743,8000	-0,003433
743,6000	-0,00343324
743,4000	-0,00344656
743,2000	-0,00347407
743,0000	-0,00347216
742,8000	-0,00348028
742,6000	-0,0034607
742,4000	-0,00343826
742,2000	-0,00345891
742,0000	-0,00345981
741,8000	-0,00345981
741,6000	-0,00345002
741,4000	-0,00343963
741,2000	-0,0034505
741,0000	-0,00345605
740,8000	-0,00347986
740,6000	-0,00348357
740,4000	-0,0034533
740,2000	-0,00346596
740,0000	-0,00349061
739,8000	-0,00347837
739,6000	-0,00347127
739,4000	-0,003481
739,2000	-0,00346876
739,0000	-0,00348577
738,8000	-0,00351329
738,6000	-0,00350565
738,4000	-0,00350553
738,2000	-0,00351496
738,0000	-0,00352834
737,8000	-0,00352643
737,6000	-0,00350971
737,4000	-0,00349849
737,2000	-0,00348201
737,0000	-0,00351311
736,8000	-0,00352255
736,6000	-0,0035161
736,4000	-0,00351819
736,2000	-0,00349336
736,0000	-0,00349073
735,8000	-0,00348285
735,6000	-0,00349527
735,4000	-0,00353246
735,2000	-0,00353926
735,0000	-0,00352714
734,8000	-0,00351311
734,6000	-0,00349294
734,4000	-0,00349437
734,2000	-0,00351658
734,0000	-0,00351216
733,8000	-0,00352249
733,6000	-0,00355114
733,4000	-0,00353317
733,2000	-0,00351658
733,0000	-0,00352666
732,8000	-0,00354684
732,6000	-0,00353347
732,4000	-0,00353186
732,2000	-0,00355108
732,0000	-0,00354481
731,8000	-0,0035315
731,6000	-0,00352559
731,4000	-0,00355568
731,2000	-0,00354344
731,0000	-0,00351234
730,8000	-0,00352505
730,6000	-0,00356206
730,4000	-0,00356344
730,2000	-0,00352959
730,0000	-0,00354332
729,8000	-0,00357627
729,6000	-0,00360069
729,4000	-0,00360636
729,2000	-0,00359227
729,0000	-0,00354087
728,8000	-0,00354762
728,6000	-0,00360636
728,4000	-0,0035983
728,2000	-0,00354529
728,0000	-0,00351031
727,8000	-0,00349873
727,6000	-0,00349491
727,4000	-0,00351162
727,2000	-0,00350989
727,0000	-0,00352219
726,8000	-0,00352099
726,6000	-0,00346775
726,4000	-0,00345533
726,2000	-0,00348625
726,0000	-0,0034995
725,8000	-0,00353323
725,6000	-0,00353299
725,4000	-0,00352147
725,2000	-0,00354404
725,0000	-0,00354147
724,8000	-0,00356887
724,6000	-0,00355365
724,4000	-0,0035364
724,2000	-0,00355597
724,0000	-0,00357496
723,8000	-0,00357072
723,6000	-0,00356451
723,4000	-0,0035869
723,2000	-0,00360301
723,0000	-0,00359495
722,8000	-0,00357388
722,6000	-0,00358033
722,4000	-0,00360874
722,2000	-0,00359072
722,0000	-0,0035943
721,8000	-0,00362331
721,6000	-0,00360391
721,4000	-0,00360982
721,2000	-0,00362068
721,0000	-0,00359185
720,8000	-0,0035703
720,6000	-0,00355794
720,4000	-0,00353257
720,2000	-0,00352093
720,0000	-0,00352583
719,8000	-0,00353604
719,6000	-0,00354571
719,4000	-0,00352929
719,2000	-0,00354069
719,0000	-0,00353383
718,8000	-0,00349932
718,6000	-0,00354648
718,4000	-0,00354523
718,2000	-0,0035349
718,0000	-0,00354881
717,8000	-0,00353825
717,6000	-0,00357173
717,4000	-0,00356105
717,2000	-0,00349097
717,0000	-0,00347718
716,8000	-0,00348106
716,6000	-0,00348733
716,4000	-0,0034964
716,2000	-0,00346011
716,0000	-0,00347885
715,8000	-0,00349765
715,6000	-0,00344524
715,4000	-0,00345748
715,2000	-0,00347336
715,0000	-0,0034533
714,8000	-0,00346214
714,6000	-0,00345903
714,4000	-0,00343909
714,2000	-0,00343008
714,0000	-0,0034308
713,8000	-0,00341593
713,6000	-0,00339498
713,4000	-0,00338585
713,2000	-0,00338459
713,0000	-0,00338573
712,8000	-0,00341181
712,6000	-0,00341766
712,4000	-0,00340525
712,2000	-0,00338298
712,0000	-0,00336961
711,8000	-0,00340286
711,6000	-0,0034154
711,4000	-0,00340465
711,2000	-0,00339898
711,0000	-0,00341026
710,8000	-0,00342423
710,6000	-0,00342184
710,4000	-0,00345091
710,2000	-0,00351138
710,0000	-0,00350571
709,8000	-0,00350147
709,6000	-0,0035121
709,4000	-0,003501
709,2000	-0,00349467
709,0000	-0,00353735
708,8000	-0,00354684
708,6000	-0,00351001
708,4000	-0,00352058
708,2000	-0,00355586
708,0000	-0,00356714
707,8000	-0,00352589
707,6000	-0,0035352
707,4000	-0,00356409
707,2000	-0,00357579
707,0000	-0,0036008
706,8000	-0,00361083
706,6000	-0,00360671
706,4000	-0,00359107
706,2000	-0,0035549
706,0000	-0,00353848
705,8000	-0,00356206
705,6000	-0,00360409
705,4000	-0,00361985
705,2000	-0,00360892
705,0000	-0,00359448
704,8000	-0,00358964
704,6000	-0,00362271
704,4000	-0,00362743
704,2000	-0,00360361
704,0000	-0,00358827
703,8000	-0,00359925
703,6000	-0,00361806
703,4000	-0,00361101
703,2000	-0,00361561
703,0000	-0,00362904
702,8000	-0,00364098
702,6000	-0,00365644
702,4000	-0,00367769
702,2000	-0,00366241
702,0000	-0,00365883
701,8000	-0,00367638
701,6000	-0,00366892
701,4000	-0,00364987
701,2000	-0,00364438
701,0000	-0,00367918
700,8000	-0,00371315
700,6000	-0,00371601
700,4000	-0,0037033
700,2000	-0,00370527
700,0000	-0,00372861
699,8000	-0,00372473
699,6000	-0,0037073
699,4000	-0,00368223
699,2000	-0,00364701
699,0000	-0,00367656
698,8000	-0,00370622
698,6000	-0,00369799
698,4000	-0,00372533
698,2000	-0,00375105
698,0000	-0,00370109
697,8000	-0,00368539
697,6000	-0,00372163
697,4000	-0,00370031
697,2000	-0,00372192
697,0000	-0,00375422
696,8000	-0,00371781
696,6000	-0,00370945
696,4000	-0,00372748
696,2000	-0,00371631
696,0000	-0,0037569
695,8000	-0,00377434
695,6000	-0,00374061
695,4000	-0,00375714
695,2000	-0,00372306
695,0000	-0,00370049
694,8000	-0,00372192
694,6000	-0,00374162
694,4000	-0,00376849
694,2000	-0,00375876
694,0000	-0,00374115
693,8000	-0,00375356
693,6000	-0,00374735
693,4000	-0,00374926
693,2000	-0,00375201
693,0000	-0,00373959
692,8000	-0,00377063
692,6000	-0,00379827
692,4000	-0,00377249
692,2000	-0,00374622
692,0000	-0,00374144
691,8000	-0,00374455
691,6000	-0,0037581
691,4000	-0,00378395
691,2000	-0,00379941
691,0000	-0,00381141
690,8000	-0,00381278
690,6000	-0,00381015
690,4000	-0,00381749
690,2000	-0,00383367
690,0000	-0,00387211
689,8000	-0,00385385
689,6000	-0,00384657
689,4000	-0,00384406
689,2000	-0,00385253
689,0000	-0,0038902
688,8000	-0,00385821
688,6000	-0,00386609
688,4000	-0,00385844
688,2000	-0,00387749
688,0000	-0,00392835
687,8000	-0,00392017
687,6000	-0,0039185
687,4000	-0,00390584
687,2000	-0,00392321
687,0000	-0,00393032
686,8000	-0,00395306
686,6000	-0,00398989
686,4000	-0,00399359
686,2000	-0,00400046
686,0000	-0,00399228
685,8000	-0,00398691
685,6000	-0,00399437
685,4000	-0,00402887
685,2000	-0,00404535
685,0000	-0,00404302
684,8000	-0,004054
684,6000	-0,00406397
684,4000	-0,0040583
684,2000	-0,00407328
684,0000	-0,00410468
683,8000	-0,00408862
683,6000	-0,00408092
683,4000	-0,00412522
683,2000	-0,00414116
683,0000	-0,00410564
682,8000	-0,00410779
682,6000	-0,00415781
682,4000	-0,00417082
682,2000	-0,0041667
682,0000	-0,00420151
681,8000	-0,00417005
681,6000	-0,00415244
681,4000	-0,00419595
681,2000	-0,00421918
681,0000	-0,00424801
680,8000	-0,00426908
680,6000	-0,00426287
680,4000	-0,00425445
680,2000	-0,00429845
680,0000	-0,00431188
679,8000	-0,00427003
679,6000	-0,00427057
679,4000	-0,0043
679,2000	-0,0043385
679,0000	-0,00438321
678,8000	-0,00439683
678,6000	-0,00438805
678,4000	-0,00438865
678,2000	-0,00441414
678,0000	-0,00442154
677,8000	-0,00444148
677,6000	-0,00443264
677,4000	-0,00441563
677,2000	-0,00443986
677,0000	-0,00447825
676,8000	-0,00449854
676,6000	-0,0045026
676,4000	-0,00452517
676,2000	-0,00454236
676,0000	-0,00454737
675,8000	-0,00453185
675,6000	-0,00457471
675,4000	-0,00463429
675,2000	-0,00461226
675,0000	-0,00461614
674,8000	-0,00466348
674,6000	-0,00466539
674,4000	-0,00469631
674,2000	-0,00474221
674,0000	-0,00474293
673,8000	-0,00469153
673,6000	-0,00469774
673,4000	-0,00473451
673,2000	-0,00476042
673,0000	-0,00477433
672,8000	-0,00477737
672,6000	-0,00479481
672,4000	-0,00481504
672,2000	-0,00483283
672,0000	-0,00485408
671,8000	-0,00490763
671,6000	-0,00492267
671,4000	-0,00489682
671,2000	-0,00490219
671,0000	-0,00493765
670,8000	-0,00495592
670,6000	-0,00497628
670,4000	-0,00498517
670,2000	-0,00501478
670,0000	-0,00504319
669,8000	-0,00504504
669,6000	-0,00509948
669,4000	-0,00512169
669,2000	-0,00510032
669,0000	-0,00512694
668,8000	-0,0051661
668,6000	-0,00517816
668,4000	-0,00520586
668,2000	-0,0052166
668,0000	-0,0052286
667,8000	-0,0052803
667,6000	-0,00530388
667,4000	-0,00527857
667,2000	-0,00529027
667,0000	-0,00534668
666,8000	-0,00537366
666,6000	-0,00537921
666,4000	-0,0054053
666,2000	-0,0054478
666,0000	-0,00547436
665,8000	-0,00549705
665,6000	-0,00549663
665,4000	-0,00551704
665,2000	-0,00552164
665,0000	-0,00550087
664,8000	-0,00554414
664,6000	-0,0055802
664,4000	-0,0055953
664,2000	-0,00561978
664,0000	-0,00562551
663,8000	-0,00561864
663,6000	-0,00568663
663,4000	-0,0057489
663,2000	-0,00574699
663,0000	-0,00576298
662,8000	-0,00577815
662,6000	-0,00581307
662,4000	-0,00584912
662,2000	-0,00586416
662,0000	-0,00587348
661,8000	-0,00588398
661,6000	-0,00592744
661,4000	-0,00599991
661,2000	-0,00606611
661,0000	-0,00604557
660,8000	-0,00603161
660,6000	-0,00610587
660,4000	-0,00610288
660,2000	-0,00609255
660,0000	-0,00614879
659,8000	-0,00619069
659,6000	-0,00620842
659,4000	-0,00621403
659,2000	-0,00627934
659,0000	-0,00632488
658,8000	-0,00629754
658,6000	-0,00632554
658,4000	-0,00639228
658,2000	-0,00643705
658,0000	-0,00643227
657,8000	-0,00648271
657,6000	-0,00653513
657,4000	-0,00653256
657,2000	-0,00656569
657,0000	-0,00658497
656,8000	-0,00660359
656,6000	-0,00663667
656,4000	-0,00665959
656,2000	-0,00670131
656,0000	-0,00673056
655,8000	-0,00676405
655,6000	-0,00681808
655,4000	-0,00683192
655,2000	-0,00684936
655,0000	-0,00688917
654,8000	-0,00693597
654,6000	-0,00699889
654,4000	-0,00704378
654,2000	-0,00705506
654,0000	-0,00704658
653,8000	-0,00707858
653,6000	-0,00713648
653,4000	-0,00717373
653,2000	-0,00718621
653,0000	-0,00720692
652,8000	-0,00725605
652,6000	-0,00725498
652,4000	-0,00728643
652,2000	-0,00736451
652,0000	-0,00737425
651,8000	-0,00740475
651,6000	-0,0074651
651,4000	-0,00747692
651,2000	-0,00746707
651,0000	-0,00751435
650,8000	-0,00757995
650,6000	-0,00763433
650,4000	-0,00769349
650,2000	-0,00770889
650,0000	-0,00772274
649,8000	-0,00773336
649,6000	-0,00775282
649,4000	-0,00781664
649,2000	-0,00784631
649,0000	-0,00787138
648,8000	-0,00791095
648,6000	-0,00795292
648,4000	-0,00802061
648,2000	-0,00805547
648,0000	-0,00810478
647,8000	-0,00811714
647,6000	-0,00814478
647,4000	-0,00819749
647,2000	-0,00824733
647,0000	-0,0082995
646,8000	-0,00830488
646,6000	-0,00832398
646,4000	-0,00835281
646,2000	-0,00838427
646,0000	-0,00842755
645,8000	-0,00848055
645,6000	-0,00852658
645,4000	-0,00854317
645,2000	-0,0085695
645,0000	-0,00861051
644,8000	-0,00866035
644,6000	-0,008725
644,4000	-0,0087727
644,2000	-0,00880028
644,0000	-0,00885155
643,8000	-0,0088857
643,6000	-0,0088934
643,4000	-0,00893733
643,2000	-0,00898927
643,0000	-0,00903034
642,8000	-0,00908144
642,6000	-0,00912686
642,4000	-0,00914823
642,2000	-0,00919891
642,0000	-0,00924213
641,8000	-0,00924906
641,6000	-0,0092869
641,4000	-0,00936462
641,2000	-0,00943339
641,0000	-0,00943488
640,8000	-0,00947327
640,6000	-0,00953165
640,4000	-0,0095646
640,2000	-0,00960412
640,0000	-0,00962
639,8000	-0,00964333
639,6000	-0,00965486
639,4000	-0,00971652
639,2000	-0,00979215
639,0000	-0,00982785
638,8000	-0,00986122
638,6000	-0,00988426
638,4000	-0,00992163
638,2000	-0,00997135
638,0000	-0,00998902
637,8000	-0,0100407
637,6000	-0,0101038
637,4000	-0,0101219
637,2000	-0,0101571
637,0000	-0,0102048
636,8000	-0,0102266
636,6000	-0,0102403
636,4000	-0,0102849
636,2000	-0,0103248
636,0000	-0,0103677
635,8000	-0,0104388
635,6000	-0,0104754
635,4000	-0,0105113
635,2000	-0,0105636
635,0000	-0,010578
634,8000	-0,0105687
634,6000	-0,0105978
634,4000	-0,0106485
634,2000	-0,0107103
634,0000	-0,0107851
633,8000	-0,0107911
633,6000	-0,0108049
633,4000	-0,0108421
633,2000	-0,0108405
633,0000	-0,0108855
632,8000	-0,0109561
632,6000	-0,0109956
632,4000	-0,011013
632,2000	-0,0110371
632,0000	-0,0110761
631,8000	-0,0111079
631,6000	-0,0111665
631,4000	-0,0112059
631,2000	-0,0112102
631,0000	-0,0112206
630,8000	-0,0112552
630,6000	-0,0113126
630,4000	-0,0113234
630,2000	-0,011361
630,0000	-0,0114077
629,8000	-0,0113801
629,6000	-0,0114137
629,4000	-0,0114974
629,2000	-0,0115183
629,0000	-0,0115314
628,8000	-0,0115651
628,6000	-0,0115647
628,4000	-0,0116144
628,2000	-0,0116418
628,0000	-0,0116369
627,8000	-0,011699
627,6000	-0,0117264
627,4000	-0,0117172
627,2000	-0,0117391
627,0000	-0,0118043
626,8000	-0,0118324
626,6000	-0,0118535
626,4000	-0,0119027
626,2000	-0,0119349
626,0000	-0,0119193
625,8000	-0,01191
625,6000	-0,0119483
625,4000	-0,0119869
625,2000	-0,0120475
625,0000	-0,0120584
624,8000	-0,0120318
624,6000	-0,0120735
624,4000	-0,0121083
624,2000	-0,0121311
624,0000	-0,0121548
623,8000	-0,0121434
623,6000	-0,0121525
623,4000	-0,0121712
623,2000	-0,012196
623,0000	-0,012223
622,8000	-0,0122243
622,6000	-0,0122754
622,4000	-0,0123203
622,2000	-0,0123317
622,0000	-0,0123435
621,8000	-0,0123324
621,6000	-0,0123236
621,4000	-0,0123221
621,2000	-0,0123527
621,0000	-0,0123774
620,8000	-0,0123862
620,6000	-0,0123798
620,4000	-0,0123836
620,2000	-0,0124071
620,0000	-0,012407
619,8000	-0,0124431
619,6000	-0,0124464
619,4000	-0,0124342
619,2000	-0,012481
619,0000	-0,0124983
618,8000	-0,0124635
618,6000	-0,0124715
618,4000	-0,0125057
618,2000	-0,0124892
618,0000	-0,0124978
617,8000	-0,0124993
617,6000	-0,0125089
617,4000	-0,012535
617,2000	-0,0125214
617,0000	-0,0125237
616,8000	-0,0125307
616,6000	-0,0125254
616,4000	-0,0125417
616,2000	-0,012532
616,0000	-0,0125225
615,8000	-0,0125576
615,6000	-0,0125211
615,4000	-0,01249
615,2000	-0,0125219
615,0000	-0,0125346
614,8000	-0,0125334
614,6000	-0,0125362
614,4000	-0,01253
614,2000	-0,0125135
614,0000	-0,0125275
613,8000	-0,0125251
613,6000	-0,0125216
613,4000	-0,0125103
613,2000	-0,0124812
613,0000	-0,0124824
612,8000	-0,012511
612,6000	-0,0125171
612,4000	-0,0125298
612,2000	-0,0124941
612,0000	-0,0124486
611,8000	-0,0124596
611,6000	-0,012462
611,4000	-0,0124761
611,2000	-0,0124875
611,0000	-0,0124644
610,8000	-0,012436
610,6000	-0,012439
610,4000	-0,0124358
610,2000	-0,0124189
610,0000	-0,012443
609,8000	-0,0124759
609,6000	-0,0124284
609,4000	-0,0123897
609,2000	-0,0124168
609,0000	-0,0124208
608,8000	-0,0124247
608,6000	-0,0124445
608,4000	-0,0124652
608,2000	-0,0124746
608,0000	-0,0124298
607,8000	-0,0124207
607,6000	-0,0124331
607,4000	-0,0124518
607,2000	-0,0124549
607,0000	-0,0124303
606,8000	-0,012411
606,6000	-0,0123752
606,4000	-0,0124023
606,2000	-0,0124316
606,0000	-0,0124213
605,8000	-0,0124053
605,6000	-0,0123783
605,4000	-0,0123676
605,2000	-0,0123722
605,0000	-0,0123321
604,8000	-0,0122968
604,6000	-0,0123266
604,4000	-0,0123388
604,2000	-0,0123055
604,0000	-0,0123012
603,8000	-0,0123126
603,6000	-0,0122737
603,4000	-0,012266
603,2000	-0,0122504
603,0000	-0,0122584
602,8000	-0,0122715
602,6000	-0,0122435
602,4000	-0,012215
602,2000	-0,012192
602,0000	-0,0121934
601,8000	-0,0121747
601,6000	-0,0121514
601,4000	-0,0121513
601,2000	-0,0121576
601,0000	-0,012119
600,8000	-0,0120957
600,6000	-0,0121169
600,4000	-0,0120794
600,2000	-0,0120405
600,0000	-0,0120237
599,8000	-0,0120073
599,6000	-0,0119872
599,4000	-0,0119762
599,2000	-0,0119938
599,0000	-0,0119375
598,8000	-0,011889
598,6000	-0,011876
598,4000	-0,0118373
598,2000	-0,0118197
598,0000	-0,0117697
597,8000	-0,0117775
597,6000	-0,0117883
597,4000	-0,0117055
597,2000	-0,0116963
597,0000	-0,0116952
596,8000	-0,0116644
596,6000	-0,0116686
596,4000	-0,0116576
596,2000	-0,0116113
596,0000	-0,0115416
595,8000	-0,0115291
595,6000	-0,011495
595,4000	-0,0114217
595,2000	-0,0113926
595,0000	-0,0113518
594,8000	-0,0113529
594,6000	-0,011313
594,4000	-0,0112348
594,2000	-0,011188
594,0000	-0,0111432
593,8000	-0,0110968
593,6000	-0,0110614
593,4000	-0,0110226
593,2000	-0,0109421
593,0000	-0,0109115
592,8000	-0,0108943
592,6000	-0,0108128
592,4000	-0,0107258
592,2000	-0,0106491
592,0000	-0,0105911
591,8000	-0,0105672
591,6000	-0,0105115
591,4000	-0,0104548
591,2000	-0,0103933
591,0000	-0,0103001
590,8000	-0,0102445
590,6000	-0,0101829
590,4000	-0,0100934
590,2000	-0,010051
590,0000	-0,00997661
589,8000	-0,00984259
589,6000	-0,00973944
589,4000	-0,00969909
589,2000	-0,00964817
589,0000	-0,00950789
588,8000	-0,00938773
588,6000	-0,00929675
588,4000	-0,00924344
588,2000	-0,00916817
588,0000	-0,00901541
587,8000	-0,00890056
587,6000	-0,0087878
587,4000	-0,0086582
587,2000	-0,008523
587,0000	-0,00839985
586,8000	-0,00825222
586,6000	-0,00809153
586,4000	-0,00802163
586,2000	-0,00791
586,0000	-0,00772149
585,8000	-0,00754843
585,6000	-0,00739735
585,4000	-0,00725539
585,2000	-0,00711171
585,0000	-0,00692433
584,8000	-0,0067111
584,6000	-0,00653716
584,4000	-0,00637371
584,2000	-0,00618257
584,0000	-0,00598696
583,8000	-0,00578525
583,6000	-0,0055691
583,4000	-0,00532716
583,2000	-0,00508755
583,0000	-0,00486453
582,8000	-0,00463477
582,6000	-0,0043468
582,4000	-0,00407382
582,2000	-0,00385618
582,0000	-0,00359961
581,8000	-0,00330162
581,6000	-0,00297348
581,4000	-0,00264624
581,2000	-0,00230562
581,0000	-0,00197032
580,8000	-0,0016497
580,6000	-0,00131619
580,4000	-0,000966984
580,2000	-0,000579928
580,0000	-0,000189767
579,8000	0,00018929
579,6000	0,000588106
579,4000	0,00101504
579,2000	0,00144842
579,0000	0,00188812
578,8000	0,00235529
578,6000	0,00288645
578,4000	0,00339432
578,2000	0,00382931
578,0000	0,00433624
577,8000	0,00491807
577,6000	0,00546738
577,4000	0,00603274
577,2000	0,00663756
577,0000	0,00723611
576,8000	0,00785914
576,6000	0,00848223
576,4000	0,00913212
576,2000	0,00982672
576,0000	0,0105529
575,8000	0,0112728
575,6000	0,0120069
575,4000	0,0127515
575,2000	0,0135049
575,0000	0,0142899
574,8000	0,015128
574,6000	0,0160016
574,4000	0,0168512
574,2000	0,0177277
574,0000	0,0186918
573,8000	0,019662
573,6000	0,020606
573,4000	0,0215831
573,2000	0,0225609
573,0000	0,0235894
572,8000	0,0246658
572,6000	0,0257425
572,4000	0,0268425
572,2000	0,0279455
572,0000	0,0291088
571,8000	0,0303295
571,6000	0,031526
571,4000	0,0327229
571,2000	0,0340063
571,0000	0,0353536
570,8000	0,0366821
570,6000	0,0380284
570,4000	0,0394107
570,2000	0,0408512
570,0000	0,0423167
569,8000	0,0437642
569,6000	0,0453029
569,4000	0,0469193
569,2000	0,0485256
569,0000	0,0500884
568,8000	0,0517054
568,6000	0,0534448
568,4000	0,05516
568,2000	0,0568958
568,0000	0,0587246
567,8000	0,0605773
567,6000	0,0624581
567,4000	0,0643852
567,2000	0,0663702
567,0000	0,0684394
566,8000	0,0705356
566,6000	0,0726581
566,4000	0,0748338
566,2000	0,0770519
566,0000	0,0793125
565,8000	0,0815795
565,6000	0,0838951
565,4000	0,08624
565,2000	0,0886492
565,0000	0,0911454
564,8000	0,0936092
564,6000	0,0961032
564,4000	0,0986921
564,2000	0,101347
564,0000	0,10401
563,8000	0,106719
563,6000	0,10948
563,4000	0,112263
563,2000	0,115089
563,0000	0,117947
562,8000	0,120832
562,6000	0,123789
562,4000	0,126739
562,2000	0,129644
562,0000	0,132621
561,8000	0,135671
561,6000	0,138707
561,4000	0,141744
561,2000	0,144821
561,0000	0,14792
560,8000	0,151059
560,6000	0,154225
560,4000	0,157362
560,2000	0,160558
560,0000	0,163739
559,8000	0,166941
559,6000	0,170257
559,4000	0,173514
559,2000	0,176764
559,0000	0,180071
558,8000	0,183354
558,6000	0,18661
558,4000	0,189913
558,2000	0,193242
558,0000	0,196591
557,8000	0,199935
557,6000	0,20329
557,4000	0,206681
557,2000	0,210004
557,0000	0,213305
556,8000	0,216654
556,6000	0,219979
556,4000	0,223262
556,2000	0,22651
556,0000	0,229755
555,8000	0,233053
555,6000	0,236337
555,4000	0,239479
555,2000	0,24261
555,0000	0,245815
554,8000	0,248974
554,6000	0,252083
554,4000	0,255181
554,2000	0,258292
554,0000	0,261401
553,8000	0,264452
553,6000	0,267489
553,4000	0,270491
553,2000	0,273391
553,0000	0,276285
552,8000	0,279183
552,6000	0,282075
552,4000	0,284894
552,2000	0,287635
552,0000	0,290313
551,8000	0,292934
551,6000	0,295506
551,4000	0,297985
551,2000	0,300461
551,0000	0,302917
550,8000	0,30524
550,6000	0,307472
550,4000	0,309671
550,2000	0,311829
550,0000	0,313893
549,8000	0,315864
549,6000	0,31784
549,4000	0,319736
549,2000	0,321535
549,0000	0,32327
548,8000	0,324938
548,6000	0,326525
548,4000	0,327976
548,2000	0,32938
548,0000	0,330734
547,8000	0,33199
547,6000	0,333214
547,4000	0,334316
547,2000	0,335306
547,0000	0,336249
546,8000	0,337115
546,6000	0,337937
546,4000	0,338667
546,2000	0,339267
546,0000	0,339806
545,8000	0,340272
545,6000	0,34064
545,4000	0,340957
545,2000	0,341195
545,0000	0,341352
544,8000	0,341459
544,6000	0,341421
544,4000	0,341318
544,2000	0,341159
544,0000	0,340955
543,8000	0,340669
543,6000	0,340282
543,4000	0,339856
543,2000	0,339336
543,0000	0,338707
542,8000	0,337968
542,6000	0,337252
542,4000	0,33644
542,2000	0,335558
542,0000	0,33469
541,8000	0,333684
541,6000	0,332598
541,4000	0,331468
541,2000	0,330257
541,0000	0,328964
540,8000	0,327673
540,6000	0,326308
540,4000	0,324886
540,2000	0,323413
540,0000	0,321797
539,8000	0,320231
539,6000	0,318656
539,4000	0,316935
539,2000	0,315232
539,0000	0,313497
538,8000	0,311688
538,6000	0,309832
538,4000	0,307874
538,2000	0,305928
538,0000	0,303964
537,8000	0,301982
537,6000	0,300015
537,4000	0,297904
537,2000	0,295683
537,0000	0,293522
536,8000	0,291369
536,6000	0,289123
536,4000	0,286839
536,2000	0,284533
536,0000	0,282243
535,8000	0,27988
535,6000	0,27751
535,4000	0,275149
535,2000	0,2727
535,0000	0,270308
534,8000	0,267909
534,6000	0,265444
534,4000	0,263033
534,2000	0,260619
534,0000	0,258141
533,8000	0,255676
533,6000	0,253253
533,4000	0,250844
533,2000	0,248433
533,0000	0,246013
532,8000	0,243576
532,6000	0,241184
532,4000	0,238866
532,2000	0,236583
532,0000	0,234223
531,8000	0,231837
531,6000	0,229592
531,4000	0,227415
531,2000	0,225152
531,0000	0,222886
530,8000	0,220655
530,6000	0,218467
530,4000	0,216283
530,2000	0,214069
530,0000	0,21188
529,8000	0,209739
529,6000	0,207633
529,4000	0,205525
529,2000	0,203459
529,0000	0,201431
528,8000	0,199461
528,6000	0,197456
528,4000	0,195405
528,2000	0,193471
528,0000	0,19156
527,8000	0,189643
527,6000	0,187812
527,4000	0,185938
527,2000	0,184128
527,0000	0,1823
526,8000	0,18044
526,6000	0,178724
526,4000	0,177041
526,2000	0,175285
526,0000	0,173575
525,8000	0,171955
525,6000	0,170302
525,4000	0,168679
525,2000	0,167143
525,0000	0,165641
524,8000	0,164106
524,6000	0,162613
524,4000	0,161185
524,2000	0,159799
524,0000	0,158398
523,8000	0,156958
523,6000	0,155642
523,4000	0,154343
523,2000	0,153003
523,0000	0,151709
522,8000	0,150421
522,6000	0,149154
522,4000	0,14795
522,2000	0,146762
522,0000	0,145578
521,8000	0,14446
521,6000	0,143417
521,4000	0,142412
521,2000	0,141327
521,0000	0,14026
520,8000	0,139295
520,6000	0,138352
520,4000	0,137439
520,2000	0,136511
520,0000	0,135601
519,8000	0,134715
519,6000	0,13383
519,4000	0,133051
519,2000	0,132303
519,0000	0,131515
518,8000	0,130789
518,6000	0,130044
518,4000	0,129296
518,2000	0,128659
518,0000	0,127999
517,8000	0,127314
517,6000	0,126655
517,4000	0,125969
517,2000	0,125341
517,0000	0,124818
516,8000	0,124225
516,6000	0,123625
516,4000	0,123128
516,2000	0,122613
516,0000	0,122071
515,8000	0,121536
515,6000	0,121043
515,4000	0,120586
515,2000	0,120128
515,0000	0,119652
514,8000	0,119182
514,6000	0,118785
514,4000	0,118364
514,2000	0,117916
514,0000	0,117484
513,8000	0,117062
513,6000	0,116645
513,4000	0,116247
513,2000	0,11583
513,0000	0,115367
512,8000	0,115013
512,6000	0,114716
512,4000	0,11429
512,2000	0,11386
512,0000	0,113484
511,8000	0,113084
511,6000	0,112701
511,4000	0,112289
511,2000	0,111833
511,0000	0,111443
510,8000	0,111078
510,6000	0,110686
510,4000	0,110314
510,2000	0,109883
510,0000	0,109488
509,8000	0,109103
509,6000	0,108626
509,4000	0,108176
509,2000	0,10776
509,0000	0,107296
508,8000	0,106842
508,6000	0,106463
508,4000	0,106026
508,2000	0,105504
508,0000	0,105033
507,8000	0,104561
507,6000	0,104087
507,4000	0,10363
507,2000	0,103092
507,0000	0,102573
506,8000	0,102031
506,6000	0,101483
506,4000	0,100982
506,2000	0,100468
506,0000	0,0998994
505,8000	0,0993117
505,6000	0,0987488
505,4000	0,0981613
505,2000	0,0976055
505,0000	0,096971
504,8000	0,0963169
504,6000	0,0957654
504,4000	0,0951864
504,2000	0,0945101
504,0000	0,0938687
503,8000	0,0932695
503,6000	0,0926233
503,4000	0,0919287
503,2000	0,0912176
503,0000	0,0905912
502,8000	0,0899552
502,6000	0,0893222
502,4000	0,0886787
502,2000	0,0879282
502,0000	0,0871945
501,8000	0,0865351
501,6000	0,0858928
501,4000	0,0851648
501,2000	0,0844143
501,0000	0,083704
500,8000	0,0829431
500,6000	0,0821932
500,4000	0,0815156
500,2000	0,0808197
500,0000	0,0805695
499,8000	0,0796549
499,6000	0,0790881
499,4000	0,0783404
499,2000	0,0774401
499,0000	0,0767231
498,8000	0,0759219
498,6000	0,0752647
498,4000	0,0745984
498,2000	0,0737072
498,0000	0,0728266
497,8000	0,0721698
497,6000	0,0714152
497,4000	0,0705204
497,2000	0,0697327
497,0000	0,0691011
496,8000	0,0684137
496,6000	0,0675474
496,4000	0,0668713
496,2000	0,0662886
496,0000	0,0656409
495,8000	0,0647686
495,6000	0,0639874
495,4000	0,0634339
495,2000	0,0626925
495,0000	0,0618561
494,8000	0,0610713
494,6000	0,0603978
494,4000	0,0598575
494,2000	0,0592036
494,0000	0,0584636
493,8000	0,0577857
493,6000	0,0570386
493,4000	0,0562867
493,2000	0,0556513
493,0000	0,0549967
492,8000	0,0543456
492,6000	0,0537151
492,4000	0,0531543
492,2000	0,0525351
492,0000	0,0518953
491,8000	0,0513565
491,6000	0,0507132
491,4000	0,0500849
491,2000	0,0494974
491,0000	0,0490384
490,8000	0,0484321
490,6000	0,0477659
490,4000	0,0470977
490,2000	0,0464824
490,0000	0,0460945
489,8000	0,0456635
489,6000	0,045186
489,4000	0,044619
489,2000	0,0440579
489,0000	0,0436067
488,8000	0,0431551
488,6000	0,0425387
488,4000	0,0419659
488,2000	0,041538
488,0000	0,0410623
487,8000	0,0406579
487,6000	0,0402124
487,4000	0,0397149
487,2000	0,0393658
487,0000	0,038899
486,8000	0,0384637
486,6000	0,0381532
486,4000	0,0378225
486,2000	0,0374326
486,0000	0,0370016
485,8000	0,0365692
485,6000	0,0362296
485,4000	0,0359371
485,2000	0,0355563
485,0000	0,0352107
484,8000	0,0348868
484,6000	0,0345452
484,4000	0,0341424
484,2000	0,0337406
484,0000	0,0334353
483,8000	0,0331476
483,6000	0,0328511
483,4000	0,0325658
483,2000	0,0323273
483,0000	0,0320439
482,8000	0,031722
482,6000	0,0313822
482,4000	0,0311203
482,2000	0,0308539
482,0000	0,0305669
481,8000	0,0302981
481,6000	0,0299946
481,4000	0,0298159
481,2000	0,0295686
481,0000	0,0292544
480,8000	0,028961
480,6000	0,0288157
480,4000	0,028646
480,2000	0,0283318
480,0000	0,0280464
479,8000	0,0278762
479,6000	0,0277621
479,4000	0,0275873
479,2000	0,0273676
479,0000	0,0270857
478,8000	0,0267974
478,6000	0,0265348
478,4000	0,0263584
478,2000	0,0261577
478,0000	0,025954
477,8000	0,0258387
477,6000	0,0257081
477,4000	0,0254196
477,2000	0,0251836
477,0000	0,0250778
476,8000	0,0249177
476,6000	0,024704
476,4000	0,0245153
476,2000	0,0242746
476,0000	0,0240797
475,8000	0,0240099
475,6000	0,0238567
475,4000	0,023718
475,2000	0,0235147
475,0000	0,0233101
474,8000	0,023159
474,6000	0,0229312
474,4000	0,022836
474,2000	0,0227249
474,0000	0,0224308
473,8000	0,0222644
473,6000	0,0221803
473,4000	0,0220709
473,2000	0,0219225
473,0000	0,0217204
472,8000	0,0215031
472,6000	0,0213638
472,4000	0,0212937
472,2000	0,0212064
472,0000	0,0210152
471,8000	0,0207994
471,6000	0,0206176
471,4000	0,0204804
471,2000	0,0204123
471,0000	0,0203125
470,8000	0,0201591
470,6000	0,0199465
470,4000	0,0197785
470,2000	0,0196879
470,0000	0,0194915
469,8000	0,0193352
469,6000	0,0191977
469,4000	0,0190484
469,2000	0,01892
469,0000	0,0187632
468,8000	0,0186422
468,6000	0,0185443
468,4000	0,0184118
468,2000	0,0182262
468,0000	0,0180766
467,8000	0,0178594
467,6000	0,017746
467,4000	0,0176562
467,2000	0,0175167
467,0000	0,0174911
466,8000	0,0173211
466,6000	0,0170988
466,4000	0,0169686
466,2000	0,0167939
466,0000	0,0167109
465,8000	0,0166388
465,6000	0,0164816
465,4000	0,0163107
465,2000	0,0162167
465,0000	0,0160785
464,8000	0,0159498
464,6000	0,015799
464,4000	0,0157077
464,2000	0,0157001
464,0000	0,0155375
463,8000	0,0153566
463,6000	0,0152497
463,4000	0,0151145
463,2000	0,0149884
463,0000	0,0149987
462,8000	0,0149097
462,6000	0,0147919
462,4000	0,0146966
462,2000	0,0145182
462,0000	0,0144193
461,8000	0,0143311
461,6000	0,0142473
461,4000	0,0141564
461,2000	0,0139591
461,0000	0,0138688
460,8000	0,0137988
460,6000	0,0137469
460,4000	0,0137
460,2000	0,0136063
460,0000	0,0135288
459,8000	0,013375
459,6000	0,0132851
459,4000	0,0132228
459,2000	0,0131058
459,0000	0,0129927
458,8000	0,0129429
458,6000	0,0128974
458,4000	0,0127892
458,2000	0,0126842
458,0000	0,0126165
457,8000	0,0125845
457,6000	0,0125596
457,4000	0,0124879
457,2000	0,0124211
457,0000	0,0123214
456,8000	0,0121919
456,6000	0,0121735
456,4000	0,0121292
456,2000	0,0120031
456,0000	0,0119641
455,8000	0,0119155
455,6000	0,0118674
455,4000	0,0118395
455,2000	0,011815
455,0000	0,0117785
454,8000	0,0116355
454,6000	0,0115957
454,4000	0,0115789
454,2000	0,0115023
454,0000	0,0114441
453,8000	0,0113791
453,6000	0,0113672
453,4000	0,0113565
453,2000	0,0112636
453,0000	0,0112208
452,8000	0,0111831
452,6000	0,0111471
452,4000	0,0111186
452,2000	0,0110975
452,0000	0,0110838
451,8000	0,0111077
451,6000	0,0110655
451,4000	0,0110022
451,2000	0,0109265
451,0000	0,0108446
450,8000	0,010902
450,6000	0,0109732
450,4000	0,0109396
450,2000	0,0108525
450,0000	0,0108287
449,8000	0,0108439
449,6000	0,0108528
449,4000	0,0108589
449,2000	0,010794
449,0000	0,0106879
448,8000	0,0107312
448,6000	0,0107512
448,4000	0,0107096
448,2000	0,0106889
448,0000	0,0106089
447,8000	0,0105624
447,6000	0,0106137
447,4000	0,0106205
447,2000	0,0106242
447,0000	0,0106527
446,8000	0,0105857
446,6000	0,0105776
446,4000	0,0107105
446,2000	0,0107363
446,0000	0,0106588
445,8000	0,0106307
445,6000	0,010667
445,4000	0,0106338
445,2000	0,0105872
445,0000	0,0105815
444,8000	0,0105464
444,6000	0,0106762
444,4000	0,0107516
444,2000	0,0106848
444,0000	0,0107163
443,8000	0,010715
443,6000	0,0107166
443,4000	0,0107476
443,2000	0,0107348
443,0000	0,0106897
442,8000	0,0107514
442,6000	0,0108243
442,4000	0,0108401
442,2000	0,0108501
442,0000	0,0107439
441,8000	0,0107529
441,6000	0,0108361
441,4000	0,0108478
441,2000	0,0108546
441,0000	0,0108806
440,8000	0,0109983
440,6000	0,0110467
440,4000	0,0110269
440,2000	0,0110396
440,0000	0,0110995
439,8000	0,011179
439,6000	0,0111401
439,4000	0,011116
439,2000	0,0111471
439,0000	0,0111099
438,8000	0,0111757
438,6000	0,0112712
438,4000	0,0113291
438,2000	0,0114287
438,0000	0,0114946
437,8000	0,0115596
437,6000	0,0115679
437,4000	0,0116147
437,2000	0,0116286
437,0000	0,0116187
436,8000	0,0117638
436,6000	0,0119177
436,4000	0,0118952
436,2000	0,0118734
436,0000	0,0118788
435,8000	0,0119253
435,6000	0,0120808
435,4000	0,0121566
435,2000	0,0121778
435,0000	0,012175
434,8000	0,0122233
434,6000	0,012317
434,4000	0,0123916
434,2000	0,0124783
434,0000	0,0125658
433,8000	0,0125762
433,6000	0,0126091
433,4000	0,0126711
433,2000	0,0128167
433,0000	0,0128983
432,8000	0,0128811
432,6000	0,0129876
432,4000	0,0131157
432,2000	0,0132255
432,0000	0,0133056
431,8000	0,0133683
431,6000	0,013397
431,4000	0,0134845
431,2000	0,013669
431,0000	0,0137723
430,8000	0,0138334
430,6000	0,0138448
430,4000	0,0138819
430,2000	0,0139779
430,0000	0,0140571
429,8000	0,0141452
429,6000	0,0141912
429,4000	0,0143283
429,2000	0,0144248
429,0000	0,0145114
428,8000	0,0145917
428,6000	0,0147233
428,4000	0,0148448
428,2000	0,0148505
428,0000	0,0149777
427,8000	0,0151039
427,6000	0,0151573
427,4000	0,0152498
427,2000	0,0153145
427,0000	0,0153922
426,8000	0,0154818
426,6000	0,0155947
426,4000	0,0157639
426,2000	0,0158032
426,0000	0,0158943
425,8000	0,016017
425,6000	0,0160587
425,4000	0,0160942
425,2000	0,0162029
425,0000	0,0163477
424,8000	0,0164595
424,6000	0,0166529
424,4000	0,0166957
424,2000	0,0166573
424,0000	0,0168067
423,8000	0,0169957
423,6000	0,0170541
423,4000	0,0170179
423,2000	0,0170367
423,0000	0,0171293
422,8000	0,0172844
422,6000	0,0174065
422,4000	0,017526
422,2000	0,0176115
422,0000	0,0176013
421,8000	0,0176488
421,6000	0,017767
421,4000	0,0198742
421,2000	0,0199141
421,0000	0,0179427
420,8000	0,0179841
420,6000	0,0181433
420,4000	0,0182282
420,2000	0,0182716
420,0000	0,0183888
419,8000	0,01842
419,6000	0,0184754
419,4000	0,0185228
419,2000	0,0185256
419,0000	0,0186086
418,8000	0,0187364
418,6000	0,0188228
418,4000	0,0187583
418,2000	0,0188137
418,0000	0,0189481
417,8000	0,0188583
417,6000	0,0189633
417,4000	0,0192221
417,2000	0,0193003
417,0000	0,0191886
416,8000	0,0192006
416,6000	0,0193126
416,4000	0,0193668
416,2000	0,0193753
416,0000	0,0194776
415,8000	0,0194501
415,6000	0,0194213
415,4000	0,0195584
415,2000	0,0195082
415,0000	0,0196236
414,8000	0,0197305
414,6000	0,0197312
414,4000	0,0197608
414,2000	0,0197689
414,0000	0,01979
413,8000	0,0198699
413,6000	0,0199341
413,4000	0,0199941
413,2000	0,020135
413,0000	0,0200429
412,8000	0,0200214
412,6000	0,0201494
412,4000	0,0202796
412,2000	0,0203414
412,0000	0,0202845
411,8000	0,0202901
411,6000	0,020396
411,4000	0,0204007
411,2000	0,0203922
411,0000	0,0205257
410,8000	0,0205654
410,6000	0,0205918
410,4000	0,0205696
410,2000	0,0205468
410,0000	0,0206204
409,8000	0,0206358
409,6000	0,0208072
409,4000	0,0208064
409,2000	0,0206828
409,0000	0,0207221
408,8000	0,0207163
408,6000	0,0207839
408,4000	0,0209261
408,2000	0,0210011
408,0000	0,020912
407,8000	0,0210419
407,6000	0,0211405
407,4000	0,0210939
407,2000	0,0210428
407,0000	0,0211372
406,8000	0,0212756
406,6000	0,0211873
406,4000	0,0210774
406,2000	0,0211393
406,0000	0,0212932
405,8000	0,0213438
405,6000	0,0214294
405,4000	0,021352
405,2000	0,021446
405,0000	0,0215487
404,8000	0,0214802
404,6000	0,0215814
404,4000	0,0217178
404,2000	0,021885
404,0000	0,0218323
403,8000	0,0218015
403,6000	0,02184
403,4000	0,0217553
403,2000	0,0218212
403,0000	0,0220787
402,8000	0,0221395
402,6000	0,0219315
402,4000	0,0218362
402,2000	0,0220103
402,0000	0,0220922
401,8000	0,02215
401,6000	0,0222904
401,4000	0,0223468
401,2000	0,0223465
401,0000	0,0222716
400,8000	0,0223092
400,6000	0,0223321
400,4000	0,0224186
400,2000	0,0224996
400,0000	0,0235404
399,8000	0,0235103
399,6000	0,0237003
399,4000	0,0235803
399,2000	0,0234174
399,0000	0,0235045
398,8000	0,023555
398,6000	0,0236924
398,4000	0,0237609
398,2000	0,0237455
398,0000	0,0238143
397,8000	0,0238509
397,6000	0,0237596
397,4000	0,0238106
397,2000	0,0239082
397,0000	0,0238811
396,8000	0,0238099
396,6000	0,023822
396,4000	0,0239637
396,2000	0,0239974
396,0000	0,0238128
395,8000	0,0239614
395,6000	0,024251
395,4000	0,0242025
395,2000	0,0239583
395,0000	0,0239666
394,8000	0,0242464
394,6000	0,024171
394,4000	0,0241349
394,2000	0,0240719
394,0000	0,0238867
393,8000	0,0239085
393,6000	0,0240483
393,4000	0,0240526
393,2000	0,024024
393,0000	0,0240517
392,8000	0,024122
392,6000	0,0240722
392,4000	0,0239175
392,2000	0,0239685
392,0000	0,0241958
391,8000	0,0241293
391,6000	0,0236924
391,4000	0,0236405
391,2000	0,0239897
391,0000	0,0238478
390,8000	0,0234745
390,6000	0,0235033
390,4000	0,0238472
390,2000	0,0239808
390,0000	0,0237733
389,8000	0,0236805
389,6000	0,0233693
389,4000	0,0230894
389,2000	0,0234065
389,0000	0,0233882
388,8000	0,0231614
388,6000	0,0233741
388,4000	0,0232972
388,2000	0,0231094
388,0000	0,0232031
387,8000	0,0231682
387,6000	0,0229494
387,4000	0,0227766
387,2000	0,0228339
387,0000	0,0228677
386,8000	0,0226552
386,6000	0,0225106
386,4000	0,0226439
386,2000	0,0226968
386,0000	0,0224805
385,8000	0,0224049
385,6000	0,0224121
385,4000	0,0222465
385,2000	0,0222768
385,0000	0,0222804
384,8000	0,0223169
384,6000	0,0222955
384,4000	0,021781
384,2000	0,0217803
384,0000	0,021879
383,8000	0,0216274
383,6000	0,0217028
383,4000	0,021862
383,2000	0,0218759
383,0000	0,0214649
382,8000	0,0211161
382,6000	0,0212029
382,4000	0,0211856
382,2000	0,021174
382,0000	0,021336
381,8000	0,0214311
381,6000	0,021069
381,4000	0,0207577
381,2000	0,0209137
381,0000	0,0209373
380,8000	0,0209431
380,6000	0,0210458
380,4000	0,0209489
380,2000	0,0207816
380,0000	0,0208416
379,8000	0,0208227
379,6000	0,0207655
379,4000	0,0206755
379,2000	0,0204983
379,0000	0,0206529
378,8000	0,0206516
378,6000	0,0206445
378,4000	0,0206789
378,2000	0,0205336
378,0000	0,0205235
377,8000	0,0206336
377,6000	0,0208618
377,4000	0,0209961
377,2000	0,0209253
377,0000	0,0209351
376,8000	0,021012
376,6000	0,0209671
376,4000	0,0209456
376,2000	0,0209121
376,0000	0,0213908
375,8000	0,0217111
375,6000	0,021378
375,4000	0,0215853
375,2000	0,021828
375,0000	0,0217165