﻿File Path	chrom://desktop-j124fjf/ChromeleonLocal/Instrument Data/U3000/Sequence2022Spring/Gruppe M14/2022exp2.seq/815.smp/UV_VIS_1.channel
Channel	UV_VIS_1

Injection Information:
Data Vault	ChromeleonLocal
Injection	Analyte
Injection Number	12
Position	RA5
Comment	
Processing Method	
Instrument Method	EXP1_ACN50_1
Type	Unknown
Status	Finished
Injection Date	23/05/2022
Injection Time	16:37:51
Injection Volume (µl)	20.000
Dilution Factor	1.0000
Weight	1.0000

Raw Data Information:
Time Min. (min)	0.000000
Time Max. (min)	6.000000
Data Points	1801
Detector	UV
Generating Data System	Chromeleon 7.2.9.11323
Exporting Data System	Chromeleon 7.2.9.0
Operator	Instrument Controller
Signal Quantity	Absorbance
Signal Unit	mAU
Signal Min.	-0.024498
Signal Max.	94.027724
Channel	UV_VIS_1
Driver Name	DAD3000.dll
Channel Type	Evaluation
Min. Step (s)	0.2
Max. Step (s)	0.2
Average Step (s)	0.2

Signal Parameter Information:
Signal Info	WVL:250 nm

Raw Data:
Time (min)	Step (s)	Value (mAU)
0.000000	n.a.	0.000000
0.003333	0.2	-0.000358
0.006667	0.2	-0.002415
0.010000	0.2	-0.007542
0.013333	0.2	-0.014797
0.016667	0.2	-0.020989
0.020000	0.2	-0.023520
0.023333	0.2	-0.022143
0.026667	0.2	-0.018241
0.030000	0.2	-0.013442
0.033333	0.2	-0.008940
0.036667	0.2	-0.005325
0.040000	0.2	-0.002690
0.043333	0.2	-0.000948
0.046667	0.2	-0.000023
0.050000	0.2	0.000134
0.053333	0.2	-0.000381
0.056667	0.2	-0.001232
0.060000	0.2	-0.001829
0.063333	0.2	-0.001769
0.066667	0.2	-0.001096
0.070000	0.2	-0.000092
0.073333	0.2	0.000678
0.076667	0.2	0.000392
0.080000	0.2	-0.001319
0.083333	0.2	-0.003869
0.086667	0.2	-0.006367
0.090000	0.2	-0.008323
0.093333	0.2	-0.009403
0.096667	0.2	-0.009231
0.100000	0.2	-0.007770
0.103333	0.2	-0.005421
0.106667	0.2	-0.002749
0.110000	0.2	-0.000298
0.113333	0.2	0.001614
0.116667	0.2	0.003044
0.120000	0.2	0.004097
0.123333	0.2	0.004488
0.126667	0.2	0.003999
0.130000	0.2	0.003140
0.133333	0.2	0.002658
0.136667	0.2	0.002688
0.140000	0.2	0.002736
0.143333	0.2	0.002096
0.146667	0.2	0.000251
0.150000	0.2	-0.002636
0.153333	0.2	-0.005451
0.156667	0.2	-0.006826
0.160000	0.2	-0.006348
0.163333	0.2	-0.004827
0.166667	0.2	-0.003537
0.170000	0.2	-0.003423
0.173333	0.2	-0.004635
0.176667	0.2	-0.006685
0.180000	0.2	-0.008946
0.183333	0.2	-0.010758
0.186667	0.2	-0.011563
0.190000	0.2	-0.011216
0.193333	0.2	-0.009868
0.196667	0.2	-0.007859
0.200000	0.2	-0.005879
0.203333	0.2	-0.004555
0.206667	0.2	-0.003978
0.210000	0.2	-0.003998
0.213333	0.2	-0.004442
0.216667	0.2	-0.005078
0.220000	0.2	-0.005814
0.223333	0.2	-0.006681
0.226667	0.2	-0.007617
0.230000	0.2	-0.008518
0.233333	0.2	-0.009422
0.236667	0.2	-0.010449
0.240000	0.2	-0.011578
0.243333	0.2	-0.012616
0.246667	0.2	-0.013378
0.250000	0.2	-0.013749
0.253333	0.2	-0.013514
0.256667	0.2	-0.012440
0.260000	0.2	-0.010649
0.263333	0.2	-0.008535
0.266667	0.2	-0.006356
0.270000	0.2	-0.004199
0.273333	0.2	-0.002095
0.276667	0.2	-0.000118
0.280000	0.2	0.001480
0.283333	0.2	0.002274
0.286667	0.2	0.001840
0.290000	0.2	0.000021
0.293333	0.2	-0.002920
0.296667	0.2	-0.006317
0.300000	0.2	-0.009332
0.303333	0.2	-0.011310
0.306667	0.2	-0.012062
0.310000	0.2	-0.011869
0.313333	0.2	-0.011243
0.316667	0.2	-0.010498
0.320000	0.2	-0.009632
0.323333	0.2	-0.008620
0.326667	0.2	-0.007621
0.330000	0.2	-0.006865
0.333333	0.2	-0.006410
0.336667	0.2	-0.006196
0.340000	0.2	-0.006290
0.343333	0.2	-0.006589
0.346667	0.2	-0.006714
0.350000	0.2	-0.006581
0.353333	0.2	-0.006544
0.356667	0.2	-0.007024
0.360000	0.2	-0.008304
0.363333	0.2	-0.010282
0.366667	0.2	-0.012318
0.370000	0.2	-0.013688
0.373333	0.2	-0.014264
0.376667	0.2	-0.014554
0.380000	0.2	-0.014979
0.383333	0.2	-0.015171
0.386667	0.2	-0.014311
0.390000	0.2	-0.012252
0.393333	0.2	-0.009804
0.396667	0.2	-0.007800
0.400000	0.2	-0.006445
0.403333	0.2	-0.005532
0.406667	0.2	-0.004841
0.410000	0.2	-0.004453
0.413333	0.2	-0.004760
0.416667	0.2	-0.005869
0.420000	0.2	-0.007222
0.423333	0.2	-0.008014
0.426667	0.2	-0.007779
0.430000	0.2	-0.006661
0.433333	0.2	-0.005236
0.436667	0.2	-0.004113
0.440000	0.2	-0.003771
0.443333	0.2	-0.004305
0.446667	0.2	-0.005127
0.450000	0.2	-0.005380
0.453333	0.2	-0.004613
0.456667	0.2	-0.003058
0.460000	0.2	-0.001387
0.463333	0.2	-0.000064
0.466667	0.2	0.000917
0.470000	0.2	0.001470
0.473333	0.2	0.001290
0.476667	0.2	0.000479
0.480000	0.2	-0.000440
0.483333	0.2	-0.000981
0.486667	0.2	-0.000770
0.490000	0.2	0.000293
0.493333	0.2	0.001851
0.496667	0.2	0.003512
0.500000	0.2	0.005503
0.503333	0.2	0.008710
0.506667	0.2	0.013981
0.510000	0.2	0.021413
0.513333	0.2	0.030245
0.516667	0.2	0.039071
0.520000	0.2	0.046433
0.523333	0.2	0.051749
0.526667	0.2	0.055525
0.530000	0.2	0.058709
0.533333	0.2	0.062060
0.536667	0.2	0.065798
0.540000	0.2	0.069758
0.543333	0.2	0.073956
0.546667	0.2	0.078778
0.550000	0.2	0.084751
0.553333	0.2	0.092145
0.556667	0.2	0.100340
0.560000	0.2	0.107656
0.563333	0.2	0.112217
0.566667	0.2	0.112733
0.570000	0.2	0.108579
0.573333	0.2	0.100255
0.576667	0.2	0.089736
0.580000	0.2	0.079385
0.583333	0.2	0.070536
0.586667	0.2	0.063213
0.590000	0.2	0.056740
0.593333	0.2	0.050576
0.596667	0.2	0.044777
0.600000	0.2	0.039725
0.603333	0.2	0.035594
0.606667	0.2	0.032127
0.610000	0.2	0.028816
0.613333	0.2	0.025264
0.616667	0.2	0.021323
0.620000	0.2	0.017129
0.623333	0.2	0.013229
0.626667	0.2	0.010361
0.630000	0.2	0.008837
0.633333	0.2	0.008346
0.636667	0.2	0.008312
0.640000	0.2	0.008320
0.643333	0.2	0.008498
0.646667	0.2	0.009487
0.650000	0.2	0.011571
0.653333	0.2	0.014034
0.656667	0.2	0.015931
0.660000	0.2	0.017159
0.663333	0.2	0.018279
0.666667	0.2	0.019787
0.670000	0.2	0.021917
0.673333	0.2	0.024617
0.676667	0.2	0.027433
0.680000	0.2	0.029707
0.683333	0.2	0.030915
0.686667	0.2	0.030566
0.690000	0.2	0.028190
0.693333	0.2	0.023881
0.696667	0.2	0.018665
0.700000	0.2	0.014137
0.703333	0.2	0.011347
0.706667	0.2	0.009783
0.710000	0.2	0.007878
0.713333	0.2	0.004533
0.716667	0.2	0.000014
0.720000	0.2	-0.004264
0.723333	0.2	-0.006834
0.726667	0.2	-0.007202
0.730000	0.2	-0.005984
0.733333	0.2	-0.004355
0.736667	0.2	-0.003243
0.740000	0.2	-0.002687
0.743333	0.2	-0.001962
0.746667	0.2	-0.000492
0.750000	0.2	0.001397
0.753333	0.2	0.002857
0.756667	0.2	0.003408
0.760000	0.2	0.003229
0.763333	0.2	0.002819
0.766667	0.2	0.002471
0.770000	0.2	0.001910
0.773333	0.2	0.000804
0.776667	0.2	-0.000374
0.780000	0.2	-0.000696
0.783333	0.2	-0.000119
0.786667	0.2	0.000293
0.790000	0.2	-0.000396
0.793333	0.2	-0.002147
0.796667	0.2	-0.004408
0.800000	0.2	-0.006759
0.803333	0.2	-0.008831
0.806667	0.2	-0.010409
0.810000	0.2	-0.011728
0.813333	0.2	-0.012924
0.816667	0.2	-0.013631
0.820000	0.2	-0.013459
0.823333	0.2	-0.012266
0.826667	0.2	-0.010020
0.830000	0.2	-0.006973
0.833333	0.2	-0.003854
0.836667	0.2	-0.001363
0.840000	0.2	0.000296
0.843333	0.2	0.001230
0.846667	0.2	0.001627
0.850000	0.2	0.001567
0.853333	0.2	0.000798
0.856667	0.2	-0.001029
0.860000	0.2	-0.003719
0.863333	0.2	-0.006310
0.866667	0.2	-0.007689
0.870000	0.2	-0.007445
0.873333	0.2	-0.006084
0.876667	0.2	-0.004658
0.880000	0.2	-0.004124
0.883333	0.2	-0.004677
0.886667	0.2	-0.005816
0.890000	0.2	-0.006994
0.893333	0.2	-0.007819
0.896667	0.2	-0.007996
0.900000	0.2	-0.007423
0.903333	0.2	-0.006195
0.906667	0.2	-0.004403
0.910000	0.2	-0.002156
0.913333	0.2	0.000117
0.916667	0.2	0.001868
0.920000	0.2	0.002928
0.923333	0.2	0.003446
0.926667	0.2	0.003585
0.930000	0.2	0.003360
0.933333	0.2	0.002610
0.936667	0.2	0.001331
0.940000	0.2	0.000008
0.943333	0.2	-0.000745
0.946667	0.2	-0.001018
0.950000	0.2	-0.001614
0.953333	0.2	-0.002972
0.956667	0.2	-0.004607
0.960000	0.2	-0.005847
0.963333	0.2	-0.006567
0.966667	0.2	-0.006949
0.970000	0.2	-0.006778
0.973333	0.2	-0.005331
0.976667	0.2	-0.002205
0.980000	0.2	0.001925
0.983333	0.2	0.005934
0.986667	0.2	0.009446
0.990000	0.2	0.012625
0.993333	0.2	0.015142
0.996667	0.2	0.016253
1.000000	0.2	0.015556
1.003333	0.2	0.013163
1.006667	0.2	0.009532
1.010000	0.2	0.005458
1.013333	0.2	0.001868
1.016667	0.2	-0.000631
1.020000	0.2	-0.001922
1.023333	0.2	-0.002197
1.026667	0.2	-0.001772
1.030000	0.2	-0.000967
1.033333	0.2	-0.000221
1.036667	0.2	-0.000080
1.040000	0.2	-0.000861
1.043333	0.2	-0.002450
1.046667	0.2	-0.004277
1.050000	0.2	-0.005440
1.053333	0.2	-0.005061
1.056667	0.2	-0.002613
1.060000	0.2	0.001725
1.063333	0.2	0.006837
1.066667	0.2	0.011144
1.070000	0.2	0.013527
1.073333	0.2	0.013915
1.076667	0.2	0.013073
1.080000	0.2	0.011954
1.083333	0.2	0.011072
1.086667	0.2	0.010305
1.090000	0.2	0.009258
1.093333	0.2	0.007650
1.096667	0.2	0.005636
1.100000	0.2	0.004020
1.103333	0.2	0.003576
1.106667	0.2	0.004111
1.110000	0.2	0.004670
1.113333	0.2	0.004542
1.116667	0.2	0.003701
1.120000	0.2	0.002316
1.123333	0.2	0.000407
1.126667	0.2	-0.001710
1.130000	0.2	-0.003055
1.133333	0.2	-0.002659
1.136667	0.2	-0.000608
1.140000	0.2	0.001924
1.143333	0.2	0.003794
1.146667	0.2	0.004738
1.150000	0.2	0.005184
1.153333	0.2	0.005853
1.156667	0.2	0.007428
1.160000	0.2	0.010142
1.163333	0.2	0.013952
1.166667	0.2	0.019030
1.170000	0.2	0.025569
1.173333	0.2	0.033420
1.176667	0.2	0.042372
1.180000	0.2	0.052457
1.183333	0.2	0.064105
1.186667	0.2	0.078509
1.190000	0.2	0.097627
1.193333	0.2	0.123677
1.196667	0.2	0.158569
1.200000	0.2	0.203802
1.203333	0.2	0.260830
1.206667	0.2	0.331099
1.210000	0.2	0.415558
1.213333	0.2	0.513899
1.216667	0.2	0.623692
1.220000	0.2	0.740265
1.223333	0.2	0.857321
1.226667	0.2	0.967413
1.230000	0.2	1.062591
1.233333	0.2	1.135568
1.236667	0.2	1.180820
1.240000	0.2	1.195450
1.243333	0.2	1.179703
1.246667	0.2	1.136768
1.250000	0.2	1.072000
1.253333	0.2	0.991697
1.256667	0.2	0.901826
1.260000	0.2	0.807370
1.263333	0.2	0.712408
1.266667	0.2	0.620392
1.270000	0.2	0.534147
1.273333	0.2	0.455780
1.276667	0.2	0.386577
1.280000	0.2	0.326908
1.283333	0.2	0.276400
1.286667	0.2	0.234393
1.290000	0.2	0.200430
1.293333	0.2	0.174117
1.296667	0.2	0.154470
1.300000	0.2	0.140033
1.303333	0.2	0.129881
1.306667	0.2	0.124026
1.310000	0.2	0.122697
1.313333	0.2	0.125690
1.316667	0.2	0.132383
1.320000	0.2	0.141777
1.323333	0.2	0.152243
1.326667	0.2	0.161519
1.330000	0.2	0.167429
1.333333	0.2	0.168704
1.336667	0.2	0.165154
1.340000	0.2	0.157391
1.343333	0.2	0.146528
1.346667	0.2	0.133880
1.350000	0.2	0.120720
1.353333	0.2	0.107970
1.356667	0.2	0.095962
1.360000	0.2	0.084609
1.363333	0.2	0.073843
1.366667	0.2	0.063700
1.370000	0.2	0.054176
1.373333	0.2	0.045498
1.376667	0.2	0.038203
1.380000	0.2	0.032492
1.383333	0.2	0.027941
1.386667	0.2	0.024019
1.390000	0.2	0.020607
1.393333	0.2	0.017958
1.396667	0.2	0.016134
1.400000	0.2	0.014573
1.403333	0.2	0.012399
1.406667	0.2	0.009097
1.410000	0.2	0.004844
1.413333	0.2	0.000371
1.416667	0.2	-0.003528
1.420000	0.2	-0.006357
1.423333	0.2	-0.007890
1.426667	0.2	-0.008087
1.430000	0.2	-0.007150
1.433333	0.2	-0.005600
1.436667	0.2	-0.003952
1.440000	0.2	-0.002261
1.443333	0.2	-0.000537
1.446667	0.2	0.000885
1.450000	0.2	0.001997
1.453333	0.2	0.003408
1.456667	0.2	0.005531
1.460000	0.2	0.007920
1.463333	0.2	0.009634
1.466667	0.2	0.009899
1.470000	0.2	0.008533
1.473333	0.2	0.006099
1.476667	0.2	0.003459
1.480000	0.2	0.001262
1.483333	0.2	-0.000004
1.486667	0.2	-0.000090
1.490000	0.2	0.000699
1.493333	0.2	0.001858
1.496667	0.2	0.003137
1.500000	0.2	0.004217
1.503333	0.2	0.004524
1.506667	0.2	0.003662
1.510000	0.2	0.001777
1.513333	0.2	-0.000489
1.516667	0.2	-0.002333
1.520000	0.2	-0.003253
1.523333	0.2	-0.003316
1.526667	0.2	-0.002769
1.530000	0.2	-0.001535
1.533333	0.2	0.000493
1.536667	0.2	0.003047
1.540000	0.2	0.005689
1.543333	0.2	0.007953
1.546667	0.2	0.009354
1.550000	0.2	0.009733
1.553333	0.2	0.009480
1.556667	0.2	0.009145
1.560000	0.2	0.009002
1.563333	0.2	0.009237
1.566667	0.2	0.010283
1.570000	0.2	0.012428
1.573333	0.2	0.015114
1.576667	0.2	0.017260
1.580000	0.2	0.018395
1.583333	0.2	0.018940
1.586667	0.2	0.019385
1.590000	0.2	0.019589
1.593333	0.2	0.018948
1.596667	0.2	0.017186
1.600000	0.2	0.014823
1.603333	0.2	0.012797
1.606667	0.2	0.011753
1.610000	0.2	0.011642
1.613333	0.2	0.011879
1.616667	0.2	0.011827
1.620000	0.2	0.011139
1.623333	0.2	0.009805
1.626667	0.2	0.008087
1.630000	0.2	0.006277
1.633333	0.2	0.004453
1.636667	0.2	0.002725
1.640000	0.2	0.001366
1.643333	0.2	0.000357
1.646667	0.2	-0.000668
1.650000	0.2	-0.001865
1.653333	0.2	-0.002872
1.656667	0.2	-0.003072
1.660000	0.2	-0.002066
1.663333	0.2	0.000025
1.666667	0.2	0.002504
1.670000	0.2	0.004367
1.673333	0.2	0.004974
1.676667	0.2	0.004501
1.680000	0.2	0.003496
1.683333	0.2	0.002311
1.686667	0.2	0.001089
1.690000	0.2	0.000061
1.693333	0.2	-0.000179
1.696667	0.2	0.000989
1.700000	0.2	0.003236
1.703333	0.2	0.005158
1.706667	0.2	0.005455
1.710000	0.2	0.003931
1.713333	0.2	0.001488
1.716667	0.2	-0.000580
1.720000	0.2	-0.001418
1.723333	0.2	-0.000805
1.726667	0.2	0.000951
1.730000	0.2	0.002997
1.733333	0.2	0.004527
1.736667	0.2	0.005492
1.740000	0.2	0.006251
1.743333	0.2	0.007079
1.746667	0.2	0.008292
1.750000	0.2	0.010153
1.753333	0.2	0.012577
1.756667	0.2	0.015401
1.760000	0.2	0.018883
1.763333	0.2	0.023570
1.766667	0.2	0.029740
1.770000	0.2	0.037162
1.773333	0.2	0.045265
1.776667	0.2	0.053535
1.780000	0.2	0.061767
1.783333	0.2	0.069720
1.786667	0.2	0.076900
1.790000	0.2	0.082830
1.793333	0.2	0.087234
1.796667	0.2	0.090080
1.800000	0.2	0.091488
1.803333	0.2	0.091302
1.806667	0.2	0.089046
1.810000	0.2	0.084533
1.813333	0.2	0.078376
1.816667	0.2	0.071740
1.820000	0.2	0.065409
1.823333	0.2	0.059254
1.826667	0.2	0.052944
1.830000	0.2	0.046639
1.833333	0.2	0.040712
1.836667	0.2	0.035467
1.840000	0.2	0.031169
1.843333	0.2	0.027925
1.846667	0.2	0.025811
1.850000	0.2	0.025208
1.853333	0.2	0.026344
1.856667	0.2	0.028515
1.860000	0.2	0.030441
1.863333	0.2	0.031499
1.866667	0.2	0.032036
1.870000	0.2	0.032622
1.873333	0.2	0.033430
1.876667	0.2	0.034024
1.880000	0.2	0.033722
1.883333	0.2	0.032187
1.886667	0.2	0.029423
1.890000	0.2	0.025728
1.893333	0.2	0.021962
1.896667	0.2	0.019121
1.900000	0.2	0.017514
1.903333	0.2	0.016725
1.906667	0.2	0.015955
1.910000	0.2	0.014288
1.913333	0.2	0.011558
1.916667	0.2	0.008893
1.920000	0.2	0.007478
1.923333	0.2	0.007263
1.926667	0.2	0.007436
1.930000	0.2	0.007468
1.933333	0.2	0.007173
1.936667	0.2	0.006391
1.940000	0.2	0.005020
1.943333	0.2	0.003128
1.946667	0.2	0.000977
1.950000	0.2	-0.001146
1.953333	0.2	-0.003226
1.956667	0.2	-0.005393
1.960000	0.2	-0.007423
1.963333	0.2	-0.008698
1.966667	0.2	-0.008879
1.970000	0.2	-0.008470
1.973333	0.2	-0.008493
1.976667	0.2	-0.009526
1.980000	0.2	-0.011160
1.983333	0.2	-0.012579
1.986667	0.2	-0.013458
1.990000	0.2	-0.014072
1.993333	0.2	-0.014626
1.996667	0.2	-0.014724
2.000000	0.2	-0.013702
2.003333	0.2	-0.011519
2.006667	0.2	-0.008968
2.010000	0.2	-0.006778
2.013333	0.2	-0.005059
2.016667	0.2	-0.003849
2.020000	0.2	-0.003407
2.023333	0.2	-0.003694
2.026667	0.2	-0.004272
2.030000	0.2	-0.004964
2.033333	0.2	-0.006012
2.036667	0.2	-0.007404
2.040000	0.2	-0.008551
2.043333	0.2	-0.008725
2.046667	0.2	-0.007735
2.050000	0.2	-0.006273
2.053333	0.2	-0.005472
2.056667	0.2	-0.006028
2.060000	0.2	-0.007784
2.063333	0.2	-0.010151
2.066667	0.2	-0.012502
2.070000	0.2	-0.014060
2.073333	0.2	-0.014174
2.076667	0.2	-0.012985
2.080000	0.2	-0.011251
2.083333	0.2	-0.009552
2.086667	0.2	-0.007978
2.090000	0.2	-0.006470
2.093333	0.2	-0.005068
2.096667	0.2	-0.003846
2.100000	0.2	-0.002873
2.103333	0.2	-0.002312
2.106667	0.2	-0.002369
2.110000	0.2	-0.002990
2.113333	0.2	-0.003842
2.116667	0.2	-0.004735
2.120000	0.2	-0.005685
2.123333	0.2	-0.006564
2.126667	0.2	-0.007084
2.130000	0.2	-0.007135
2.133333	0.2	-0.006956
2.136667	0.2	-0.006912
2.140000	0.2	-0.007153
2.143333	0.2	-0.007594
2.146667	0.2	-0.007974
2.150000	0.2	-0.007800
2.153333	0.2	-0.006809
2.156667	0.2	-0.005451
2.160000	0.2	-0.004343
2.163333	0.2	-0.003618
2.166667	0.2	-0.003210
2.170000	0.2	-0.003167
2.173333	0.2	-0.003457
2.176667	0.2	-0.003971
2.180000	0.2	-0.004628
2.183333	0.2	-0.005289
2.186667	0.2	-0.005968
2.190000	0.2	-0.006918
2.193333	0.2	-0.008175
2.196667	0.2	-0.009431
2.200000	0.2	-0.010550
2.203333	0.2	-0.011699
2.206667	0.2	-0.012935
2.210000	0.2	-0.014096
2.213333	0.2	-0.014976
2.216667	0.2	-0.015292
2.220000	0.2	-0.014900
2.223333	0.2	-0.014084
2.226667	0.2	-0.013236
2.230000	0.2	-0.012453
2.233333	0.2	-0.011713
2.236667	0.2	-0.011051
2.240000	0.2	-0.010372
2.243333	0.2	-0.009465
2.246667	0.2	-0.008280
2.250000	0.2	-0.006944
2.253333	0.2	-0.005760
2.256667	0.2	-0.005204
2.260000	0.2	-0.005523
2.263333	0.2	-0.006620
2.266667	0.2	-0.008492
2.270000	0.2	-0.011052
2.273333	0.2	-0.013599
2.276667	0.2	-0.015240
2.280000	0.2	-0.015783
2.283333	0.2	-0.015987
2.286667	0.2	-0.016858
2.290000	0.2	-0.018509
2.293333	0.2	-0.019885
2.296667	0.2	-0.019918
2.300000	0.2	-0.018646
2.303333	0.2	-0.016942
2.306667	0.2	-0.015606
2.310000	0.2	-0.014926
2.313333	0.2	-0.014707
2.316667	0.2	-0.014509
2.320000	0.2	-0.013994
2.323333	0.2	-0.013191
2.326667	0.2	-0.012284
2.330000	0.2	-0.011286
2.333333	0.2	-0.010202
2.336667	0.2	-0.009266
2.340000	0.2	-0.008788
2.343333	0.2	-0.008865
2.346667	0.2	-0.009282
2.350000	0.2	-0.009597
2.353333	0.2	-0.009386
2.356667	0.2	-0.008533
2.360000	0.2	-0.007272
2.363333	0.2	-0.005980
2.366667	0.2	-0.004869
2.370000	0.2	-0.003741
2.373333	0.2	-0.002179
2.376667	0.2	0.000032
2.380000	0.2	0.002836
2.383333	0.2	0.006102
2.386667	0.2	0.009754
2.390000	0.2	0.013761
2.393333	0.2	0.018157
2.396667	0.2	0.023140
2.400000	0.2	0.028980
2.403333	0.2	0.035891
2.406667	0.2	0.044162
2.410000	0.2	0.054095
2.413333	0.2	0.065810
2.416667	0.2	0.079278
2.420000	0.2	0.094275
2.423333	0.2	0.110501
2.426667	0.2	0.128160
2.430000	0.2	0.148188
2.433333	0.2	0.171746
2.436667	0.2	0.199678
2.440000	0.2	0.232624
2.443333	0.2	0.271373
2.446667	0.2	0.316768
2.450000	0.2	0.369535
2.453333	0.2	0.430261
2.456667	0.2	0.499367
2.460000	0.2	0.577337
2.463333	0.2	0.665169
2.466667	0.2	0.764538
2.470000	0.2	0.877632
2.473333	0.2	1.006822
2.476667	0.2	1.154349
2.480000	0.2	1.322345
2.483333	0.2	1.513105
2.486667	0.2	1.729569
2.490000	0.2	1.975638
2.493333	0.2	2.256340
2.496667	0.2	2.578291
2.500000	0.2	2.950112
2.503333	0.2	3.382442
2.506667	0.2	3.888486
2.510000	0.2	4.485443
2.513333	0.2	5.195360
2.516667	0.2	6.044630
2.520000	0.2	7.063378
2.523333	0.2	8.285736
2.526667	0.2	9.750198
2.530000	0.2	11.498861
2.533333	0.2	13.575375
2.536667	0.2	16.022234
2.540000	0.2	18.877710
2.543333	0.2	22.172020
2.546667	0.2	25.923049
2.550000	0.2	30.132434
2.553333	0.2	34.781287
2.556667	0.2	39.825425
2.560000	0.2	45.192248
2.563333	0.2	50.780901
2.566667	0.2	56.465249
2.570000	0.2	62.098390
2.573333	0.2	67.518679
2.576667	0.2	72.557892
2.580000	0.2	77.050900
2.583333	0.2	80.845914
2.586667	0.2	83.814195
2.590000	0.2	85.857592
2.593333	0.2	86.913682
2.596667	0.2	86.958698
2.600000	0.2	86.007698
2.603333	0.2	84.112586
2.606667	0.2	81.358191
2.610000	0.2	77.856128
2.613333	0.2	73.737329
2.616667	0.2	69.143812
2.620000	0.2	64.220274
2.623333	0.2	59.107113
2.626667	0.2	53.935100
2.630000	0.2	48.820952
2.633333	0.2	43.863859
2.636667	0.2	39.143302
2.640000	0.2	34.718269
2.643333	0.2	30.627950
2.646667	0.2	26.893697
2.650000	0.2	23.522115
2.653333	0.2	20.508416
2.656667	0.2	17.838689
2.660000	0.2	15.491630
2.663333	0.2	13.440988
2.666667	0.2	11.658030
2.670000	0.2	10.113327
2.673333	0.2	8.778315
2.676667	0.2	7.626405
2.680000	0.2	6.633382
2.683333	0.2	5.777448
2.686667	0.2	5.039091
2.690000	0.2	4.401045
2.693333	0.2	3.848616
2.696667	0.2	3.370147
2.700000	0.2	2.956509
2.703333	0.2	2.599487
2.706667	0.2	2.290904
2.710000	0.2	2.023282
2.713333	0.2	1.790564
2.716667	0.2	1.587993
2.720000	0.2	1.411659
2.723333	0.2	1.258211
2.726667	0.2	1.124658
2.730000	0.2	1.008326
2.733333	0.2	0.906792
2.736667	0.2	0.817718
2.740000	0.2	0.739215
2.743333	0.2	0.670266
2.746667	0.2	0.610154
2.750000	0.2	0.557705
2.753333	0.2	0.511549
2.756667	0.2	0.470891
2.760000	0.2	0.435578
2.763333	0.2	0.405273
2.766667	0.2	0.378844
2.770000	0.2	0.354890
2.773333	0.2	0.332699
2.776667	0.2	0.312482
2.780000	0.2	0.294705
2.783333	0.2	0.279358
2.786667	0.2	0.265907
2.790000	0.2	0.253682
2.793333	0.2	0.242160
2.796667	0.2	0.231066
2.800000	0.2	0.220349
2.803333	0.2	0.210174
2.806667	0.2	0.200790
2.810000	0.2	0.192249
2.813333	0.2	0.184359
2.816667	0.2	0.176758
2.820000	0.2	0.169130
2.823333	0.2	0.161526
2.826667	0.2	0.154283
2.830000	0.2	0.147624
2.833333	0.2	0.141531
2.836667	0.2	0.135946
2.840000	0.2	0.130898
2.843333	0.2	0.126385
2.846667	0.2	0.122196
2.850000	0.2	0.117858
2.853333	0.2	0.112981
2.856667	0.2	0.107673
2.860000	0.2	0.102514
2.863333	0.2	0.098165
2.866667	0.2	0.094818
2.870000	0.2	0.091990
2.873333	0.2	0.089142
2.876667	0.2	0.086359
2.880000	0.2	0.084229
2.883333	0.2	0.083169
2.886667	0.2	0.082887
2.890000	0.2	0.082700
2.893333	0.2	0.082191
2.896667	0.2	0.081062
2.900000	0.2	0.078860
2.903333	0.2	0.075503
2.906667	0.2	0.071680
2.910000	0.2	0.068381
2.913333	0.2	0.066221
2.916667	0.2	0.065213
2.920000	0.2	0.064953
2.923333	0.2	0.064866
2.926667	0.2	0.064438
2.930000	0.2	0.063477
2.933333	0.2	0.062076
2.936667	0.2	0.060449
2.940000	0.2	0.058805
2.943333	0.2	0.057155
2.946667	0.2	0.055410
2.950000	0.2	0.053769
2.953333	0.2	0.052661
2.956667	0.2	0.052321
2.960000	0.2	0.052625
2.963333	0.2	0.053089
2.966667	0.2	0.053016
2.970000	0.2	0.051767
2.973333	0.2	0.049035
2.976667	0.2	0.045202
2.980000	0.2	0.041381
2.983333	0.2	0.038859
2.986667	0.2	0.038197
2.990000	0.2	0.038724
2.993333	0.2	0.039119
2.996667	0.2	0.038471
3.000000	0.2	0.036734
3.003333	0.2	0.034528
3.006667	0.2	0.032506
3.010000	0.2	0.030782
3.013333	0.2	0.029139
3.016667	0.2	0.027596
3.020000	0.2	0.026609
3.023333	0.2	0.026828
3.026667	0.2	0.028439
3.030000	0.2	0.030728
3.033333	0.2	0.032749
3.036667	0.2	0.034132
3.040000	0.2	0.034780
3.043333	0.2	0.034408
3.046667	0.2	0.032800
3.050000	0.2	0.030137
3.053333	0.2	0.026919
3.056667	0.2	0.023587
3.060000	0.2	0.020486
3.063333	0.2	0.018228
3.066667	0.2	0.017421
3.070000	0.2	0.017859
3.073333	0.2	0.018603
3.076667	0.2	0.018880
3.080000	0.2	0.018482
3.083333	0.2	0.017429
3.086667	0.2	0.015731
3.090000	0.2	0.013775
3.093333	0.2	0.012633
3.096667	0.2	0.013232
3.100000	0.2	0.015346
3.103333	0.2	0.017853
3.106667	0.2	0.019673
3.110000	0.2	0.020404
3.113333	0.2	0.020377
3.116667	0.2	0.020208
3.120000	0.2	0.020309
3.123333	0.2	0.020660
3.126667	0.2	0.020813
3.130000	0.2	0.020287
3.133333	0.2	0.018989
3.136667	0.2	0.017192
3.140000	0.2	0.015302
3.143333	0.2	0.013592
3.146667	0.2	0.011928
3.150000	0.2	0.010014
3.153333	0.2	0.008066
3.156667	0.2	0.006838
3.160000	0.2	0.006976
3.163333	0.2	0.008528
3.166667	0.2	0.010954
3.170000	0.2	0.013630
3.173333	0.2	0.016078
3.176667	0.2	0.017826
3.180000	0.2	0.018562
3.183333	0.2	0.018377
3.186667	0.2	0.017636
3.190000	0.2	0.016701
3.193333	0.2	0.015747
3.196667	0.2	0.014771
3.200000	0.2	0.013743
3.203333	0.2	0.012819
3.206667	0.2	0.012315
3.210000	0.2	0.012230
3.213333	0.2	0.012073
3.216667	0.2	0.011408
3.220000	0.2	0.010310
3.223333	0.2	0.009256
3.226667	0.2	0.008595
3.230000	0.2	0.008093
3.233333	0.2	0.007255
3.236667	0.2	0.006024
3.240000	0.2	0.004902
3.243333	0.2	0.004599
3.246667	0.2	0.005541
3.250000	0.2	0.007418
3.253333	0.2	0.009420
3.256667	0.2	0.011093
3.260000	0.2	0.012608
3.263333	0.2	0.014251
3.266667	0.2	0.016087
3.270000	0.2	0.018100
3.273333	0.2	0.020377
3.276667	0.2	0.023059
3.280000	0.2	0.026102
3.283333	0.2	0.029102
3.286667	0.2	0.031382
3.290000	0.2	0.032370
3.293333	0.2	0.031965
3.296667	0.2	0.030612
3.300000	0.2	0.028873
3.303333	0.2	0.026890
3.306667	0.2	0.024425
3.310000	0.2	0.021422
3.313333	0.2	0.018185
3.316667	0.2	0.015187
3.320000	0.2	0.012977
3.323333	0.2	0.011932
3.326667	0.2	0.011881
3.330000	0.2	0.012301
3.333333	0.2	0.012918
3.336667	0.2	0.013817
3.340000	0.2	0.014958
3.343333	0.2	0.016018
3.346667	0.2	0.016640
3.350000	0.2	0.016624
3.353333	0.2	0.016142
3.356667	0.2	0.015634
3.360000	0.2	0.015276
3.363333	0.2	0.014895
3.366667	0.2	0.014156
3.370000	0.2	0.012628
3.373333	0.2	0.010124
3.376667	0.2	0.006945
3.380000	0.2	0.003621
3.383333	0.2	0.000613
3.386667	0.2	-0.001742
3.390000	0.2	-0.003310
3.393333	0.2	-0.004206
3.396667	0.2	-0.004567
3.400000	0.2	-0.004237
3.403333	0.2	-0.002909
3.406667	0.2	-0.000708
3.410000	0.2	0.001647
3.413333	0.2	0.003481
3.416667	0.2	0.004622
3.420000	0.2	0.005284
3.423333	0.2	0.005851
3.426667	0.2	0.006600
3.430000	0.2	0.007369
3.433333	0.2	0.007668
3.436667	0.2	0.007154
3.440000	0.2	0.005954
3.443333	0.2	0.004576
3.446667	0.2	0.003572
3.450000	0.2	0.003327
3.453333	0.2	0.004051
3.456667	0.2	0.005602
3.460000	0.2	0.007272
3.463333	0.2	0.008085
3.466667	0.2	0.007509
3.470000	0.2	0.005784
3.473333	0.2	0.003727
3.476667	0.2	0.002364
3.480000	0.2	0.002442
3.483333	0.2	0.004058
3.486667	0.2	0.006936
3.490000	0.2	0.010924
3.493333	0.2	0.016080
3.496667	0.2	0.022362
3.500000	0.2	0.029258
3.503333	0.2	0.036024
3.506667	0.2	0.042347
3.510000	0.2	0.048469
3.513333	0.2	0.054735
3.516667	0.2	0.061314
3.520000	0.2	0.068308
3.523333	0.2	0.075846
3.526667	0.2	0.084136
3.530000	0.2	0.093590
3.533333	0.2	0.104650
3.536667	0.2	0.117574
3.540000	0.2	0.132708
3.543333	0.2	0.150676
3.546667	0.2	0.171740
3.550000	0.2	0.195230
3.553333	0.2	0.220113
3.556667	0.2	0.246040
3.560000	0.2	0.273631
3.563333	0.2	0.303945
3.566667	0.2	0.337776
3.570000	0.2	0.375425
3.573333	0.2	0.417233
3.576667	0.2	0.464021
3.580000	0.2	0.516617
3.583333	0.2	0.575091
3.586667	0.2	0.638814
3.590000	0.2	0.707554
3.593333	0.2	0.782143
3.596667	0.2	0.863744
3.600000	0.2	0.953069
3.603333	0.2	1.050648
3.606667	0.2	1.157291
3.610000	0.2	1.274105
3.613333	0.2	1.402311
3.616667	0.2	1.542974
3.620000	0.2	1.696796
3.623333	0.2	1.864372
3.626667	0.2	2.046734
3.630000	0.2	2.245487
3.633333	0.2	2.462536
3.636667	0.2	2.699983
3.640000	0.2	2.960219
3.643333	0.2	3.245962
3.646667	0.2	3.560467
3.650000	0.2	3.907863
3.653333	0.2	4.293155
3.656667	0.2	4.721959
3.660000	0.2	5.200366
3.663333	0.2	5.735212
3.666667	0.2	6.334462
3.670000	0.2	7.007130
3.673333	0.2	7.763283
3.676667	0.2	8.614690
3.680000	0.2	9.575101
3.683333	0.2	10.659342
3.686667	0.2	11.882192
3.690000	0.2	13.258225
3.693333	0.2	14.802197
3.696667	0.2	16.529079
3.700000	0.2	18.453716
3.703333	0.2	20.590177
3.706667	0.2	22.950618
3.710000	0.2	25.544205
3.713333	0.2	28.376510
3.716667	0.2	31.448761
3.720000	0.2	34.756503
3.723333	0.2	38.288809
3.726667	0.2	42.028539
3.730000	0.2	45.952391
3.733333	0.2	50.030351
3.736667	0.2	54.225058
3.740000	0.2	58.491208
3.743333	0.2	62.776075
3.746667	0.2	67.021543
3.750000	0.2	71.165816
3.753333	0.2	75.144293
3.756667	0.2	78.891303
3.760000	0.2	82.342802
3.763333	0.2	85.438471
3.766667	0.2	88.123282
3.770000	0.2	90.349397
3.773333	0.2	92.077679
3.776667	0.2	93.278306
3.780000	0.2	93.931355
3.783333	0.2	94.027724
3.786667	0.2	93.569646
3.790000	0.2	92.570337
3.793333	0.2	91.053151
3.796667	0.2	89.050555
3.800000	0.2	86.602853
3.803333	0.2	83.756611
3.806667	0.2	80.563104
3.810000	0.2	77.077041
3.813333	0.2	73.355210
3.816667	0.2	69.455037
3.820000	0.2	65.433672
3.823333	0.2	61.347018
3.826667	0.2	57.248046
3.830000	0.2	53.185388
3.833333	0.2	49.202516
3.836667	0.2	45.336937
3.840000	0.2	41.619905
3.843333	0.2	38.076534
3.846667	0.2	34.725680
3.850000	0.2	31.579815
3.853333	0.2	28.645299
3.856667	0.2	25.923513
3.860000	0.2	23.412653
3.863333	0.2	21.108588
3.866667	0.2	19.004563
3.870000	0.2	17.091104
3.873333	0.2	15.356611
3.876667	0.2	13.788246
3.880000	0.2	12.372874
3.883333	0.2	11.097947
3.886667	0.2	9.952117
3.890000	0.2	8.925037
3.893333	0.2	8.006380
3.896667	0.2	7.185226
3.900000	0.2	6.450632
3.903333	0.2	5.792824
3.906667	0.2	5.203764
3.910000	0.2	4.676791
3.913333	0.2	4.205817
3.916667	0.2	3.784637
3.920000	0.2	3.407220
3.923333	0.2	3.068595
3.926667	0.2	2.764987
3.930000	0.2	2.493314
3.933333	0.2	2.250764
3.936667	0.2	2.034404
3.940000	0.2	1.841038
3.943333	0.2	1.667658
3.946667	0.2	1.511947
3.950000	0.2	1.372299
3.953333	0.2	1.247416
3.956667	0.2	1.135907
3.960000	0.2	1.036220
3.963333	0.2	0.946869
3.966667	0.2	0.866803
3.970000	0.2	0.795442
3.973333	0.2	0.732063
3.976667	0.2	0.675311
3.980000	0.2	0.623646
3.983333	0.2	0.576050
3.986667	0.2	0.532041
3.990000	0.2	0.491461
3.993333	0.2	0.454373
3.996667	0.2	0.420786
4.000000	0.2	0.390596
4.003333	0.2	0.363685
4.006667	0.2	0.339773
4.010000	0.2	0.318419
4.013333	0.2	0.299197
4.016667	0.2	0.281849
4.020000	0.2	0.266218
4.023333	0.2	0.252076
4.026667	0.2	0.239298
4.030000	0.2	0.227951
4.033333	0.2	0.217872
4.036667	0.2	0.208412
4.040000	0.2	0.198910
4.043333	0.2	0.189505
4.046667	0.2	0.181189
4.050000	0.2	0.174789
4.053333	0.2	0.170176
4.056667	0.2	0.166433
4.060000	0.2	0.162500
4.063333	0.2	0.157974
4.066667	0.2	0.153292
4.070000	0.2	0.148978
4.073333	0.2	0.145009
4.076667	0.2	0.140926
4.080000	0.2	0.136168
4.083333	0.2	0.130284
4.086667	0.2	0.123351
4.090000	0.2	0.116237
4.093333	0.2	0.109888
4.096667	0.2	0.104714
4.100000	0.2	0.100847
4.103333	0.2	0.098190
4.106667	0.2	0.096347
4.110000	0.2	0.094818
4.113333	0.2	0.093045
4.116667	0.2	0.090612
4.120000	0.2	0.087659
4.123333	0.2	0.084725
4.126667	0.2	0.082164
4.130000	0.2	0.080025
4.133333	0.2	0.078307
4.136667	0.2	0.077037
4.140000	0.2	0.076241
4.143333	0.2	0.075815
4.146667	0.2	0.075387
4.150000	0.2	0.074344
4.153333	0.2	0.072014
4.156667	0.2	0.068188
4.160000	0.2	0.063626
4.163333	0.2	0.059618
4.166667	0.2	0.056826
4.170000	0.2	0.054923
4.173333	0.2	0.053282
4.176667	0.2	0.051535
4.180000	0.2	0.049644
4.183333	0.2	0.047856
4.186667	0.2	0.046400
4.190000	0.2	0.045112
4.193333	0.2	0.043576
4.196667	0.2	0.041742
4.200000	0.2	0.040288
4.203333	0.2	0.039978
4.206667	0.2	0.040635
4.210000	0.2	0.041328
4.213333	0.2	0.041573
4.216667	0.2	0.041711
4.220000	0.2	0.042152
4.223333	0.2	0.042760
4.226667	0.2	0.043065
4.230000	0.2	0.042746
4.233333	0.2	0.041773
4.236667	0.2	0.040274
4.240000	0.2	0.038638
4.243333	0.2	0.037487
4.246667	0.2	0.037090
4.250000	0.2	0.036943
4.253333	0.2	0.036204
4.256667	0.2	0.034291
4.260000	0.2	0.031207
4.263333	0.2	0.027568
4.266667	0.2	0.024176
4.270000	0.2	0.021562
4.273333	0.2	0.019977
4.276667	0.2	0.019454
4.280000	0.2	0.019841
4.283333	0.2	0.021012
4.286667	0.2	0.022927
4.290000	0.2	0.025412
4.293333	0.2	0.027998
4.296667	0.2	0.029961
4.300000	0.2	0.030774
4.303333	0.2	0.030610
4.306667	0.2	0.029891
4.310000	0.2	0.028555
4.313333	0.2	0.026261
4.316667	0.2	0.023202
4.320000	0.2	0.020308
4.323333	0.2	0.018504
4.326667	0.2	0.017952
4.330000	0.2	0.018090
4.333333	0.2	0.018138
4.336667	0.2	0.017562
4.340000	0.2	0.016434
4.343333	0.2	0.015419
4.346667	0.2	0.015186
4.350000	0.2	0.015829
4.353333	0.2	0.016751
4.356667	0.2	0.017288
4.360000	0.2	0.017413
4.363333	0.2	0.017478
4.366667	0.2	0.017542
4.370000	0.2	0.017292
4.373333	0.2	0.016396
4.376667	0.2	0.014785
4.380000	0.2	0.012643
4.383333	0.2	0.010375
4.386667	0.2	0.008579
4.390000	0.2	0.007873
4.393333	0.2	0.008572
4.396667	0.2	0.010270
4.400000	0.2	0.011872
4.403333	0.2	0.012380
4.406667	0.2	0.011733
4.410000	0.2	0.010787
4.413333	0.2	0.010290
4.416667	0.2	0.010063
4.420000	0.2	0.009578
4.423333	0.2	0.008896
4.426667	0.2	0.008475
4.430000	0.2	0.008613
4.433333	0.2	0.009495
4.436667	0.2	0.011162
4.440000	0.2	0.013191
4.443333	0.2	0.014827
4.446667	0.2	0.015473
4.450000	0.2	0.014999
4.453333	0.2	0.013870
4.456667	0.2	0.012891
4.460000	0.2	0.012576
4.463333	0.2	0.012592
4.466667	0.2	0.011899
4.470000	0.2	0.009776
4.473333	0.2	0.006605
4.476667	0.2	0.003384
4.480000	0.2	0.000886
4.483333	0.2	-0.000592
4.486667	0.2	-0.001143
4.490000	0.2	-0.001090
4.493333	0.2	-0.000783
4.496667	0.2	-0.000494
4.500000	0.2	-0.000373
4.503333	0.2	-0.000349
4.506667	0.2	-0.000139
4.510000	0.2	0.000440
4.513333	0.2	0.001240
4.516667	0.2	0.002145
4.520000	0.2	0.003275
4.523333	0.2	0.004517
4.526667	0.2	0.005481
4.530000	0.2	0.006036
4.533333	0.2	0.006380
4.536667	0.2	0.006578
4.540000	0.2	0.006439
4.543333	0.2	0.005847
4.546667	0.2	0.004982
4.550000	0.2	0.004177
4.553333	0.2	0.003547
4.556667	0.2	0.002917
4.560000	0.2	0.002067
4.563333	0.2	0.000822
4.566667	0.2	-0.000752
4.570000	0.2	-0.002197
4.573333	0.2	-0.003265
4.576667	0.2	-0.004315
4.580000	0.2	-0.005612
4.583333	0.2	-0.006673
4.586667	0.2	-0.006594
4.590000	0.2	-0.004839
4.593333	0.2	-0.001865
4.596667	0.2	0.000904
4.600000	0.2	0.002105
4.603333	0.2	0.001758
4.606667	0.2	0.001113
4.610000	0.2	0.001288
4.613333	0.2	0.002422
4.616667	0.2	0.003809
4.620000	0.2	0.004649
4.623333	0.2	0.004771
4.626667	0.2	0.004480
4.630000	0.2	0.003818
4.633333	0.2	0.002357
4.636667	0.2	-0.000059
4.640000	0.2	-0.002616
4.643333	0.2	-0.004091
4.646667	0.2	-0.004184
4.650000	0.2	-0.003791
4.653333	0.2	-0.003924
4.656667	0.2	-0.004867
4.660000	0.2	-0.006170
4.663333	0.2	-0.007054
4.666667	0.2	-0.006999
4.670000	0.2	-0.006038
4.673333	0.2	-0.004458
4.676667	0.2	-0.002575
4.680000	0.2	-0.000843
4.683333	0.2	0.000329
4.686667	0.2	0.000821
4.690000	0.2	0.000504
4.693333	0.2	-0.000696
4.696667	0.2	-0.002177
4.700000	0.2	-0.002902
4.703333	0.2	-0.002360
4.706667	0.2	-0.000860
4.710000	0.2	0.000945
4.713333	0.2	0.002480
4.716667	0.2	0.003364
4.720000	0.2	0.003473
4.723333	0.2	0.002935
4.726667	0.2	0.001988
4.730000	0.2	0.000860
4.733333	0.2	-0.000198
4.736667	0.2	-0.001032
4.740000	0.2	-0.001838
4.743333	0.2	-0.002883
4.746667	0.2	-0.004051
4.750000	0.2	-0.004983
4.753333	0.2	-0.005318
4.756667	0.2	-0.004539
4.760000	0.2	-0.002124
4.763333	0.2	0.001601
4.766667	0.2	0.005137
4.770000	0.2	0.006884
4.773333	0.2	0.006428
4.776667	0.2	0.004593
4.780000	0.2	0.002500
4.783333	0.2	0.000785
4.786667	0.2	-0.000468
4.790000	0.2	-0.001332
4.793333	0.2	-0.001663
4.796667	0.2	-0.001267
4.800000	0.2	-0.000347
4.803333	0.2	0.000577
4.806667	0.2	0.001261
4.810000	0.2	0.001887
4.813333	0.2	0.002553
4.816667	0.2	0.003077
4.820000	0.2	0.003472
4.823333	0.2	0.004188
4.826667	0.2	0.005653
4.830000	0.2	0.007787
4.833333	0.2	0.009916
4.836667	0.2	0.011230
4.840000	0.2	0.011579
4.843333	0.2	0.011579
4.846667	0.2	0.011763
4.850000	0.2	0.011880
4.853333	0.2	0.011263
4.856667	0.2	0.009737
4.860000	0.2	0.007761
4.863333	0.2	0.005824
4.866667	0.2	0.004281
4.870000	0.2	0.003536
4.873333	0.2	0.003790
4.876667	0.2	0.004756
4.880000	0.2	0.005897
4.883333	0.2	0.006761
4.886667	0.2	0.007109
4.890000	0.2	0.006958
4.893333	0.2	0.006482
4.896667	0.2	0.005997
4.900000	0.2	0.005934
4.903333	0.2	0.006558
4.906667	0.2	0.007853
4.910000	0.2	0.009623
4.913333	0.2	0.011384
4.916667	0.2	0.012471
4.920000	0.2	0.012554
4.923333	0.2	0.011859
4.926667	0.2	0.010729
4.930000	0.2	0.009251
4.933333	0.2	0.007429
4.936667	0.2	0.005424
4.940000	0.2	0.003575
4.943333	0.2	0.002228
4.946667	0.2	0.001430
4.950000	0.2	0.000911
4.953333	0.2	0.000261
4.956667	0.2	-0.000951
4.960000	0.2	-0.002640
4.963333	0.2	-0.003929
4.966667	0.2	-0.004027
4.970000	0.2	-0.003220
4.973333	0.2	-0.002643
4.976667	0.2	-0.003113
4.980000	0.2	-0.004286
4.983333	0.2	-0.005074
4.986667	0.2	-0.004746
4.990000	0.2	-0.003386
4.993333	0.2	-0.001543
4.996667	0.2	0.000314
5.000000	0.2	0.002093
5.003333	0.2	0.003853
5.006667	0.2	0.005366
5.010000	0.2	0.006125
5.013333	0.2	0.005882
5.016667	0.2	0.005050
5.020000	0.2	0.004397
5.023333	0.2	0.004286
5.026667	0.2	0.004426
5.030000	0.2	0.004416
5.033333	0.2	0.004240
5.036667	0.2	0.004213
5.040000	0.2	0.004735
5.043333	0.2	0.006077
5.046667	0.2	0.008180
5.050000	0.2	0.010531
5.053333	0.2	0.012274
5.056667	0.2	0.012846
5.060000	0.2	0.012763
5.063333	0.2	0.013223
5.066667	0.2	0.014750
5.070000	0.2	0.016991
5.073333	0.2	0.019675
5.076667	0.2	0.023015
5.080000	0.2	0.027106
5.083333	0.2	0.031270
5.086667	0.2	0.034512
5.090000	0.2	0.036546
5.093333	0.2	0.037717
5.096667	0.2	0.038239
5.100000	0.2	0.038077
5.103333	0.2	0.037424
5.106667	0.2	0.036908
5.110000	0.2	0.037332
5.113333	0.2	0.039136
5.116667	0.2	0.041995
5.120000	0.2	0.044998
5.123333	0.2	0.047322
5.126667	0.2	0.048755
5.130000	0.2	0.049601
5.133333	0.2	0.050169
5.136667	0.2	0.050560
5.140000	0.2	0.050856
5.143333	0.2	0.051218
5.146667	0.2	0.051918
5.150000	0.2	0.053266
5.153333	0.2	0.055161
5.156667	0.2	0.056983
5.160000	0.2	0.058216
5.163333	0.2	0.058801
5.166667	0.2	0.058677
5.170000	0.2	0.057503
5.173333	0.2	0.055141
5.176667	0.2	0.051985
5.180000	0.2	0.048597
5.183333	0.2	0.045309
5.186667	0.2	0.042335
5.190000	0.2	0.039819
5.193333	0.2	0.037575
5.196667	0.2	0.035210
5.200000	0.2	0.032697
5.203333	0.2	0.030463
5.206667	0.2	0.028866
5.210000	0.2	0.027995
5.213333	0.2	0.027760
5.216667	0.2	0.027777
5.220000	0.2	0.027492
5.223333	0.2	0.026597
5.226667	0.2	0.024999
5.230000	0.2	0.022555
5.233333	0.2	0.019322
5.236667	0.2	0.015866
5.240000	0.2	0.012890
5.243333	0.2	0.010875
5.246667	0.2	0.010009
5.250000	0.2	0.009842
5.253333	0.2	0.009386
5.256667	0.2	0.007996
5.260000	0.2	0.005782
5.263333	0.2	0.003224
5.266667	0.2	0.000706
5.270000	0.2	-0.001753
5.273333	0.2	-0.004459
5.276667	0.2	-0.007520
5.280000	0.2	-0.010369
5.283333	0.2	-0.012078
5.286667	0.2	-0.012002
5.290000	0.2	-0.010103
5.293333	0.2	-0.007081
5.296667	0.2	-0.004144
5.300000	0.2	-0.002334
5.303333	0.2	-0.002043
5.306667	0.2	-0.002964
5.310000	0.2	-0.004292
5.313333	0.2	-0.005240
5.316667	0.2	-0.005645
5.320000	0.2	-0.005960
5.323333	0.2	-0.006498
5.326667	0.2	-0.007020
5.330000	0.2	-0.007109
5.333333	0.2	-0.006603
5.336667	0.2	-0.005730
5.340000	0.2	-0.005081
5.343333	0.2	-0.005304
5.346667	0.2	-0.006543
5.350000	0.2	-0.008251
5.353333	0.2	-0.009658
5.356667	0.2	-0.010332
5.360000	0.2	-0.010331
5.363333	0.2	-0.010013
5.366667	0.2	-0.009753
5.370000	0.2	-0.009632
5.373333	0.2	-0.009311
5.376667	0.2	-0.008388
5.380000	0.2	-0.006841
5.383333	0.2	-0.005044
5.386667	0.2	-0.003445
5.390000	0.2	-0.002244
5.393333	0.2	-0.001283
5.396667	0.2	-0.000308
5.400000	0.2	0.000559
5.403333	0.2	0.000913
5.406667	0.2	0.000629
5.410000	0.2	-0.000076
5.413333	0.2	-0.000915
5.416667	0.2	-0.001671
5.420000	0.2	-0.002389
5.423333	0.2	-0.003343
5.426667	0.2	-0.004550
5.430000	0.2	-0.005682
5.433333	0.2	-0.006495
5.436667	0.2	-0.006910
5.440000	0.2	-0.006963
5.443333	0.2	-0.007020
5.446667	0.2	-0.007542
5.450000	0.2	-0.008516
5.453333	0.2	-0.009437
5.456667	0.2	-0.009755
5.460000	0.2	-0.009209
5.463333	0.2	-0.007741
5.466667	0.2	-0.005295
5.470000	0.2	-0.002125
5.473333	0.2	0.000889
5.476667	0.2	0.002686
5.480000	0.2	0.002647
5.483333	0.2	0.000721
5.486667	0.2	-0.002647
5.490000	0.2	-0.006708
5.493333	0.2	-0.010691
5.496667	0.2	-0.013982
5.500000	0.2	-0.016202
5.503333	0.2	-0.017110
5.506667	0.2	-0.016478
5.510000	0.2	-0.014347
5.513333	0.2	-0.011369
5.516667	0.2	-0.008659
5.520000	0.2	-0.007292
5.523333	0.2	-0.007854
5.526667	0.2	-0.010222
5.530000	0.2	-0.013592
5.533333	0.2	-0.016709
5.536667	0.2	-0.018335
5.540000	0.2	-0.017803
5.543333	0.2	-0.015292
5.546667	0.2	-0.011743
5.550000	0.2	-0.008473
5.553333	0.2	-0.006434
5.556667	0.2	-0.005647
5.560000	0.2	-0.005532
5.563333	0.2	-0.005586
5.566667	0.2	-0.005641
5.570000	0.2	-0.005926
5.573333	0.2	-0.006956
5.576667	0.2	-0.008901
5.580000	0.2	-0.011075
5.583333	0.2	-0.012443
5.586667	0.2	-0.012684
5.590000	0.2	-0.012526
5.593333	0.2	-0.012840
5.596667	0.2	-0.013576
5.600000	0.2	-0.014087
5.603333	0.2	-0.014108
5.606667	0.2	-0.013753
5.610000	0.2	-0.013106
5.613333	0.2	-0.012273
5.616667	0.2	-0.011413
5.620000	0.2	-0.010630
5.623333	0.2	-0.010253
5.626667	0.2	-0.010956
5.630000	0.2	-0.013131
5.633333	0.2	-0.016278
5.636667	0.2	-0.019136
5.640000	0.2	-0.020473
5.643333	0.2	-0.019932
5.646667	0.2	-0.018125
5.650000	0.2	-0.016014
5.653333	0.2	-0.014293
5.656667	0.2	-0.013203
5.660000	0.2	-0.012818
5.663333	0.2	-0.013358
5.666667	0.2	-0.014859
5.670000	0.2	-0.016471
5.673333	0.2	-0.016954
5.676667	0.2	-0.016016
5.680000	0.2	-0.014425
5.683333	0.2	-0.013103
5.686667	0.2	-0.012671
5.690000	0.2	-0.013257
5.693333	0.2	-0.014255
5.696667	0.2	-0.014723
5.700000	0.2	-0.014172
5.703333	0.2	-0.012793
5.706667	0.2	-0.011186
5.710000	0.2	-0.010056
5.713333	0.2	-0.009971
5.716667	0.2	-0.010979
5.720000	0.2	-0.012359
5.723333	0.2	-0.013167
5.726667	0.2	-0.013204
5.730000	0.2	-0.013220
5.733333	0.2	-0.014075
5.736667	0.2	-0.015879
5.740000	0.2	-0.018035
5.743333	0.2	-0.020051
5.746667	0.2	-0.021918
5.750000	0.2	-0.023562
5.753333	0.2	-0.024498
5.756667	0.2	-0.024394
5.760000	0.2	-0.023569
5.763333	0.2	-0.022631
5.766667	0.2	-0.021823
5.770000	0.2	-0.020872
5.773333	0.2	-0.019259
5.776667	0.2	-0.016663
5.780000	0.2	-0.013489
5.783333	0.2	-0.010805
5.786667	0.2	-0.009441
5.790000	0.2	-0.009358
5.793333	0.2	-0.009984
5.796667	0.2	-0.010871
5.800000	0.2	-0.011933
5.803333	0.2	-0.013126
5.806667	0.2	-0.014139
5.810000	0.2	-0.014577
5.813333	0.2	-0.014278
5.816667	0.2	-0.013557
5.820000	0.2	-0.013167
5.823333	0.2	-0.013585
5.826667	0.2	-0.014495
5.830000	0.2	-0.015412
5.833333	0.2	-0.016324
5.836667	0.2	-0.017296
5.840000	0.2	-0.017982
5.843333	0.2	-0.017951
5.846667	0.2	-0.017337
5.850000	0.2	-0.016760
5.853333	0.2	-0.016559
5.856667	0.2	-0.016461
5.860000	0.2	-0.016041
5.863333	0.2	-0.015202
5.866667	0.2	-0.014230
5.870000	0.2	-0.013605
5.873333	0.2	-0.013668
5.876667	0.2	-0.014399
5.880000	0.2	-0.015606
5.883333	0.2	-0.017110
5.886667	0.2	-0.018589
5.890000	0.2	-0.019529
5.893333	0.2	-0.019690
5.896667	0.2	-0.019461
5.900000	0.2	-0.019504
5.903333	0.2	-0.020131
5.906667	0.2	-0.021027
5.910000	0.2	-0.021562
5.913333	0.2	-0.021388
5.916667	0.2	-0.020605
5.920000	0.2	-0.019588
5.923333	0.2	-0.018988
5.926667	0.2	-0.019529
5.930000	0.2	-0.021192
5.933333	0.2	-0.022863
5.936667	0.2	-0.023270
5.940000	0.2	-0.021944
5.943333	0.2	-0.019276
5.946667	0.2	-0.016141
5.950000	0.2	-0.013491
5.953333	0.2	-0.011978
5.956667	0.2	-0.011668
5.960000	0.2	-0.012210
5.963333	0.2	-0.013338
5.966667	0.2	-0.014971
5.970000	0.2	-0.016905
5.973333	0.2	-0.018658
5.976667	0.2	-0.019663
5.980000	0.2	-0.019749
5.983333	0.2	-0.019429
5.986667	0.2	-0.019363
5.990000	0.2	-0.019571
5.993333	0.2	-0.019590
5.996667	0.2	-0.019364
6.000000	0.2	-0.019494
