﻿
******************************************************
GDUSB FastView (x64) V1.02 CSV-Export
******************************************************
0.300 mm
20.8 C******************************************************
Cycletime: 00:00:00.0100000
correzione offset: 0
correzione scala: 0
Duration of measuring (within trigger range): 00:00:26.1100000
******************************************************
File Name
C:\Users\student\Desktop\Daten\moscato-saporito\triton-6-1\380 01524.csv
******************************************************

Index;Tempo;Value;Error;Comment
1;44656.5712342477;86.4;;""
2;44656.5712343634;85.5;;""
3;44656.5712344792;84.7;;""
4;44656.5712345949;84.1;;""
5;44656.5712347106;83.3;;""
6;44656.5712348264;82.5;;""
7;44656.5712349421;81.9;;""
8;44656.5712350579;81.1;;""
9;44656.5712351736;80.5;;""
10;44656.5712352894;79.9;;""
11;44656.5712354051;79.6;;""
12;44656.5712355208;79.1;;""
13;44656.5712356366;78.5;;""
14;44656.5712357523;78;;""
15;44656.5712358681;77.7;;""
16;44656.5712359838;77.2;;""
17;44656.5712360995;76.9;;""
18;44656.5712362153;76.4;;""
19;44656.571236331;76;;""
20;44656.5712364468;75.8;;""
21;44656.5712365625;75.2;;""
22;44656.5712366782;74.9;;""
23;44656.571236794;74.7;;""
24;44656.5712369097;74.4;;""
25;44656.5712370255;74.1;;""
26;44656.5712371412;73.8;;""
27;44656.5712372569;73.5;;""
28;44656.5712373727;73.3;;""
29;44656.5712374884;73;;""
30;44656.5712376042;72.7;;""
31;44656.5712377199;72.4;;""
32;44656.5712378356;72.2;;""
33;44656.5712379514;71.9;;""
34;44656.5712380671;71.8;;""
35;44656.5712381829;71.6;;""
36;44656.5712382986;71.3;;""
37;44656.5712384144;70.9;;""
38;44656.5712385301;70.9;;""
39;44656.5712386458;70.6;;""
40;44656.5712387616;70.5;;""
41;44656.5712388773;70.3;;""
42;44656.5712389931;70;;""
43;44656.5712391088;69.9;;""
44;44656.5712392245;69.7;;""
45;44656.5712393403;69.6;;""
46;44656.571239456;69.3;;""
47;44656.5712395718;69.1;;""
48;44656.5712396875;69;;""
49;44656.5712398032;68.7;;""
50;44656.571239919;68.7;;""
51;44656.5712400347;68.4;;""
52;44656.5712401505;68.4;;""
53;44656.5712402662;68.1;;""
54;44656.5712403819;68;;""
55;44656.5712404977;67.7;;""
56;44656.5712406134;67.7;;""
57;44656.5712407292;67.4;;""
58;44656.5712408449;67.4;;""
59;44656.5712409606;67.3;;""
60;44656.5712410764;67;;""
61;44656.5712411921;67;;""
62;44656.5712413079;66.7;;""
63;44656.5712414236;66.7;;""
64;44656.5712415394;66.4;;""
65;44656.5712416551;66.4;;""
66;44656.5712417708;66.4;;""
67;44656.5712418866;66.1;;""
68;44656.5712420023;66.1;;""
69;44656.5712421181;65.8;;""
70;44656.5712422338;65.7;;""
71;44656.5712423495;65.7;;""
72;44656.5712424653;65.4;;""
73;44656.571242581;65.4;;""
74;44656.5712426968;65.3;;""
75;44656.5712428125;65;;""
76;44656.5712429282;65;;""
77;44656.571243044;65;;""
78;44656.5712431597;64.9;;""
79;44656.5712432755;64.7;;""
80;44656.5712433912;64.7;;""
81;44656.5712435069;64.4;;""
82;44656.5712436227;64.4;;""
83;44656.5712437384;64.3;;""
84;44656.5712438542;64.3;;""
85;44656.5712439699;64;;""
86;44656.5712440857;64;;""
87;44656.5712442014;63.9;;""
88;44656.5712443171;63.6;;""
89;44656.5712444329;63.6;;""
90;44656.5712445486;63.6;;""
91;44656.5712446644;63.3;;""
92;44656.5712447801;63.3;;""
93;44656.5712448958;63.3;;""
94;44656.5712450116;63;;""
95;44656.5712451273;63;;""
96;44656.5712452431;62.7;;""
97;44656.5712453588;62.6;;""
98;44656.5712454745;62.3;;""
99;44656.5712455903;62;;""
100;44656.571245706;61.7;;""
101;44656.5712458218;61.5;;""
102;44656.5712459375;60.9;;""
103;44656.5712460532;60.6;;""
104;44656.571246169;60.6;;""
105;44656.5712462847;60.2;;""
106;44656.5712464005;60;;""
107;44656.5712465162;59.7;;""
108;44656.5712466319;59.7;;""
109;44656.5712467477;59.6;;""
110;44656.5712468634;59.4;;""
111;44656.5712469792;59.3;;""
112;44656.5712470949;59;;""
113;44656.5712472106;59;;""
114;44656.5712473264;59;;""
115;44656.5712474421;58.7;;""
116;44656.5712475579;58.7;;""
117;44656.5712476736;58.4;;""
118;44656.5712477894;58.4;;""
119;44656.5712479051;58.1;;""
120;44656.5712480208;58.1;;""
121;44656.5712481366;57.8;;""
122;44656.5712482523;57.8;;""
123;44656.5712483681;57.5;;""
124;44656.5712484838;57.5;;""
125;44656.5712485995;57.2;;""
126;44656.5712487153;57.2;;""
127;44656.571248831;57.1;;""
128;44656.5712489468;56.9;;""
129;44656.5712490625;56.8;;""
130;44656.5712491782;56.8;;""
131;44656.571249294;56.5;;""
132;44656.5712494097;56.4;;""
133;44656.5712495255;56.1;;""
134;44656.5712496412;56.1;;""
135;44656.5712497569;56.1;;""
136;44656.5712498727;55.8;;""
137;44656.5712499884;55.7;;""
138;44656.5712501042;55.5;;""
139;44656.5712502199;55.5;;""
140;44656.5712503356;55.4;;""
141;44656.5712504514;55.1;;""
142;44656.5712505671;55.1;;""
143;44656.5712506829;54.8;;""
144;44656.5712507986;54.8;;""
145;44656.5712509143;54.5;;""
146;44656.5712510301;54.5;;""
147;44656.5712511458;54.2;;""
148;44656.5712512616;53.9;;""
149;44656.5712513773;53.6;;""
150;44656.5712514931;53;;""
151;44656.5712516088;52.2;;""
152;44656.5712517245;51.1;;""
153;44656.5712518403;50.8;;""
154;44656.571251956;50.3;;""
155;44656.5712520718;47.8;;""
156;44656.5712521875;55.8;;""
157;44656.5712523032;64.5;;""
158;44656.571252419;67.8;;""
159;44656.5712525347;67.4;;""
160;44656.5712526505;67;;""
161;44656.5712527662;67.1;;""
162;44656.5712528819;67.6;;""
163;44656.5712529977;68.2;;""
164;44656.5712531134;68.7;;""
165;44656.5712532292;69.6;;""
166;44656.5712533449;70.2;;""
167;44656.5712534607;70.8;;""
168;44656.5712535764;71.6;;""
169;44656.5712536921;72.1;;""
170;44656.5712538079;72.7;;""
171;44656.5712539236;73.3;;""
172;44656.5712540394;73.8;;""
173;44656.5712541551;74.1;;""
174;44656.5712542708;74.6;;""
175;44656.5712543866;75.2;;""
176;44656.5712545023;75.5;;""
177;44656.5712546181;76.3;;""
178;44656.5712547338;76.6;;""
179;44656.5712548495;77.2;;""
180;44656.5712549653;77.7;;""
181;44656.571255081;78;;""
182;44656.5712551968;78.6;;""
183;44656.5712553125;79.1;;""
184;44656.5712554282;79.4;;""
185;44656.571255544;79.7;;""
186;44656.5712556597;80.3;;""
187;44656.5712557755;80.8;;""
188;44656.5712558912;81.3;;""
189;44656.5712560069;81.6;;""
190;44656.5712561227;82.2;;""
191;44656.5712562384;82.5;;""
192;44656.5712563542;83.1;;""
193;44656.5712564699;83.4;;""
194;44656.5712565856;83.7;;""
195;44656.5712567014;84.3;;""
196;44656.5712568171;84.6;;""
197;44656.5712569329;85.1;;""
198;44656.5712570486;85.5;;""
199;44656.5712571644;86;;""
200;44656.5712572801;86.3;;""
201;44656.5712573958;86.6;;""
202;44656.5712575116;87.2;;""
203;44656.5712576273;87.5;;""
204;44656.5712577431;88;;""
205;44656.5712578588;88.3;;""
206;44656.5712579745;88.9;;""
207;44656.5712580903;89.1;;""
208;44656.571258206;89.5;;""
209;44656.5712583218;90;;""
210;44656.5712584375;90.3;;""
211;44656.5712585532;90.8;;""
212;44656.571258669;91.1;;""
213;44656.5712587847;91.6;;""
214;44656.5712589005;91.9;;""
215;44656.5712590162;92.2;;""
216;44656.5712591319;92.8;;""
217;44656.5712592477;93.1;;""
218;44656.5712593634;93.4;;""
219;44656.5712594792;93.9;;""
220;44656.5712595949;94.2;;""
221;44656.5712597106;94.7;;""
222;44656.5712598264;95;;""
223;44656.5712599421;95.3;;""
224;44656.5712600579;95.8;;""
225;44656.5712601736;96.1;;""
226;44656.5712602894;96.4;;""
227;44656.5712604051;96.9;;""
228;44656.5712605208;97.2;;""
229;44656.5712606366;97.5;;""
230;44656.5712607523;97.9;;""
231;44656.5712608681;98.1;;""
232;44656.5712609838;98.7;;""
233;44656.5712610995;99;;""
234;44656.5712612153;99.2;;""
235;44656.571261331;99.8;;""
236;44656.5712614468;100.1;;""
237;44656.5712615625;100.4;;""
238;44656.5712616782;100.7;;""
239;44656.571261794;101;;""
240;44656.5712619097;101.5;;""
241;44656.5712620255;101.8;;""
242;44656.5712621412;102.1;;""
243;44656.5712622569;102.4;;""
244;44656.5712623727;102.7;;""
245;44656.5712624884;103;;""
246;44656.5712626042;103;;""
247;44656.5712627199;103;;""
248;44656.5712628356;103.1;;""
249;44656.5712629514;103.1;;""
250;44656.5712630671;103.1;;""
251;44656.5712631829;102.5;;""
252;44656.5712632986;102.2;;""
253;44656.5712634143;101.6;;""
254;44656.5712635301;100.8;;""
255;44656.5712636458;100;;""
256;44656.5712637616;98.8;;""
257;44656.5712638773;97.7;;""
258;44656.5712639931;96.4;;""
259;44656.5712641088;95.3;;""
260;44656.5712642245;94.2;;""
261;44656.5712643403;92.9;;""
262;44656.571264456;91.8;;""
263;44656.5712645718;90.4;;""
264;44656.5712646875;89.5;;""
265;44656.5712648032;88.4;;""
266;44656.571264919;87.3;;""
267;44656.5712650347;86.4;;""
268;44656.5712651505;85.5;;""
269;44656.5712652662;84.6;;""
270;44656.5712653819;83.8;;""
271;44656.5712654977;83.1;;""
272;44656.5712656134;82.3;;""
273;44656.5712657292;81.7;;""
274;44656.5712658449;81.1;;""
275;44656.5712659607;80.5;;""
276;44656.5712660764;79.9;;""
277;44656.5712661921;79.3;;""
278;44656.5712663079;79;;""
279;44656.5712664236;78.5;;""
280;44656.5712665394;77.9;;""
281;44656.5712666551;77.6;;""
282;44656.5712667708;77.1;;""
283;44656.5712668866;76.8;;""
284;44656.5712670023;76.3;;""
285;44656.5712671181;76;;""
286;44656.5712672338;75.7;;""
287;44656.5712673495;75.2;;""
288;44656.5712674653;74.9;;""
289;44656.571267581;74.6;;""
290;44656.5712676968;74.3;;""
291;44656.5712678125;74;;""
292;44656.5712679282;73.7;;""
293;44656.571268044;73.4;;""
294;44656.5712681597;73.1;;""
295;44656.5712682755;72.8;;""
296;44656.5712683912;72.5;;""
297;44656.5712685069;72.5;;""
298;44656.5712686227;72.2;;""
299;44656.5712687384;71.9;;""
300;44656.5712688542;71.6;;""
301;44656.5712689699;71.3;;""
302;44656.5712690856;71.1;;""
303;44656.5712692014;71;;""
304;44656.5712693171;70.7;;""
305;44656.5712694329;70.4;;""
306;44656.5712695486;70.4;;""
307;44656.5712696644;70.1;;""
308;44656.5712697801;69.8;;""
309;44656.5712698958;69.8;;""
310;44656.5712700116;69.5;;""
311;44656.5712701273;69.5;;""
312;44656.5712702431;69.2;;""
313;44656.5712703588;68.9;;""
314;44656.5712704745;68.9;;""
315;44656.5712705903;68.6;;""
316;44656.571270706;68.5;;""
317;44656.5712708218;68.3;;""
318;44656.5712709375;68.2;;""
319;44656.5712710532;68;;""
320;44656.571271169;67.7;;""
321;44656.5712712847;67.7;;""
322;44656.5712714005;67.6;;""
323;44656.5712715162;67.3;;""
324;44656.5712716319;67.3;;""
325;44656.5712717477;67;;""
326;44656.5712718634;67;;""
327;44656.5712719792;66.7;;""
328;44656.5712720949;66.7;;""
329;44656.5712722106;66.4;;""
330;44656.5712723264;66.4;;""
331;44656.5712724421;66.1;;""
332;44656.5712725579;66;;""
333;44656.5712726736;65.8;;""
334;44656.5712727894;65.7;;""
335;44656.5712729051;65.7;;""
336;44656.5712730208;65.4;;""
337;44656.5712731366;65.3;;""
338;44656.5712732523;65.1;;""
339;44656.5712733681;65;;""
340;44656.5712734838;64.7;;""
341;44656.5712735995;64.7;;""
342;44656.5712737153;64.4;;""
343;44656.571273831;64.3;;""
344;44656.5712739468;64.1;;""
345;44656.5712740625;63.8;;""
346;44656.5712741782;63.5;;""
347;44656.571274294;63.2;;""
348;44656.5712744097;62.9;;""
349;44656.5712745255;62.4;;""
350;44656.5712746412;61.8;;""
351;44656.5712747569;61;;""
352;44656.5712748727;59.9;;""
353;44656.5712749884;58.9;;""
354;44656.5712751042;57.8;;""
355;44656.5712752199;57;;""
356;44656.5712753356;56.1;;""
357;44656.5712754514;55.8;;""
358;44656.5712755671;55.3;;""
359;44656.5712756829;54.7;;""
360;44656.5712757986;54.2;;""
361;44656.5712759144;53.9;;""
362;44656.5712760301;53.4;;""
363;44656.5712761458;52.5;;""
364;44656.5712762616;57.6;;""
365;44656.5712763773;64.9;;""
366;44656.5712764931;68.6;;""
367;44656.5712766088;69.2;;""
368;44656.5712767245;69.2;;""
369;44656.5712768403;69.8;;""
370;44656.571276956;70.6;;""
371;44656.5712770718;71.3;;""
372;44656.5712771875;71.8;;""
373;44656.5712773032;72.7;;""
374;44656.571277419;73.3;;""
375;44656.5712775347;73.8;;""
376;44656.5712776505;74.4;;""
377;44656.5712777662;74.9;;""
378;44656.5712778819;75.5;;""
379;44656.5712779977;76.2;;""
380;44656.5712781134;76.6;;""
381;44656.5712782292;77.1;;""
382;44656.5712783449;77.7;;""
383;44656.5712784607;78;;""
384;44656.5712785764;78.5;;""
385;44656.5712786921;79.1;;""
386;44656.5712788079;79.7;;""
387;44656.5712789236;80.2;;""
388;44656.5712790394;80.5;;""
389;44656.5712791551;81.1;;""
390;44656.5712792708;81.3;;""
391;44656.5712793866;81.6;;""
392;44656.5712795023;82.2;;""
393;44656.5712796181;82.8;;""
394;44656.5712797338;83.1;;""
395;44656.5712798495;83.6;;""
396;44656.5712799653;83.9;;""
397;44656.571280081;84.5;;""
398;44656.5712801968;84.8;;""
399;44656.5712803125;85.3;;""
400;44656.5712804282;85.6;;""
401;44656.571280544;86.2;;""
402;44656.5712806597;86.5;;""
403;44656.5712807755;86.8;;""
404;44656.5712808912;87.4;;""
405;44656.5712810069;87.9;;""
406;44656.5712811227;88.2;;""
407;44656.5712812384;88.4;;""
408;44656.5712813542;89;;""
409;44656.5712814699;89.3;;""
410;44656.5712815856;89.6;;""
411;44656.5712817014;90.1;;""
412;44656.5712818171;90.6;;""
413;44656.5712819329;90.9;;""
414;44656.5712820486;91.2;;""
415;44656.5712821644;91.8;;""
416;44656.5712822801;92;;""
417;44656.5712823958;92.3;;""
418;44656.5712825116;92.9;;""
419;44656.5712826273;93.1;;""
420;44656.5712827431;93.4;;""
421;44656.5712828588;94;;""
422;44656.5712829745;94.3;;""
423;44656.5712830903;94.6;;""
424;44656.571283206;95.1;;""
425;44656.5712833218;95.4;;""
426;44656.5712834375;95.7;;""
427;44656.5712835532;96.1;;""
428;44656.571283669;96.6;;""
429;44656.5712837847;96.9;;""
430;44656.5712839005;97.2;;""
431;44656.5712840162;97.8;;""
432;44656.5712841319;98;;""
433;44656.5712842477;98.3;;""
434;44656.5712843634;98.6;;""
435;44656.5712844792;98.9;;""
436;44656.5712845949;99.5;;""
437;44656.5712847106;99.8;;""
438;44656.5712848264;100.1;;""
439;44656.5712849421;100.6;;""
440;44656.5712850579;100.9;;""
441;44656.5712851736;101.2;;""
442;44656.5712852893;101.5;;""
443;44656.5712854051;101.8;;""
444;44656.5712855208;102.1;;""
445;44656.5712856366;102.6;;""
446;44656.5712857523;102.9;;""
447;44656.5712858681;103.2;;""
448;44656.5712859838;103.4;;""
449;44656.5712860995;103.7;;""
450;44656.5712862153;104;;""
451;44656.571286331;104.1;;""
452;44656.5712864468;104.3;;""
453;44656.5712865625;104.3;;""
454;44656.5712866782;104.3;;""
455;44656.571286794;104;;""
456;44656.5712869097;103.4;;""
457;44656.5712870255;102.9;;""
458;44656.5712871412;102.3;;""
459;44656.5712872569;101.5;;""
460;44656.5712873727;100.4;;""
461;44656.5712874884;99.6;;""
462;44656.5712876042;98.1;;""
463;44656.5712877199;96.8;;""
464;44656.5712878357;95.6;;""
465;44656.5712879514;94.2;;""
466;44656.5712880671;93.1;;""
467;44656.5712881829;91.7;;""
468;44656.5712882986;90.5;;""
469;44656.5712884144;89.4;;""
470;44656.5712885301;88.3;;""
471;44656.5712886458;87.4;;""
472;44656.5712887616;86.3;;""
473;44656.5712888773;85.4;;""
474;44656.5712889931;84.6;;""
475;44656.5712891088;83.8;;""
476;44656.5712892245;83.1;;""
477;44656.5712893403;82.5;;""
478;44656.571289456;81.7;;""
479;44656.5712895718;81.1;;""
480;44656.5712896875;80.5;;""
481;44656.5712898032;79.8;;""
482;44656.571289919;79.3;;""
483;44656.5712900347;78.7;;""
484;44656.5712901505;78.5;;""
485;44656.5712902662;77.9;;""
486;44656.5712903819;77.6;;""
487;44656.5712904977;77.1;;""
488;44656.5712906134;76.7;;""
489;44656.5712907292;76.2;;""
490;44656.5712908449;75.9;;""
491;44656.5712909606;75.6;;""
492;44656.5712910764;75.1;;""
493;44656.5712911921;74.8;;""
494;44656.5712913079;74.5;;""
495;44656.5712914236;74.2;;""
496;44656.5712915394;73.8;;""
497;44656.5712916551;73.6;;""
498;44656.5712917708;73.3;;""
499;44656.5712918866;73;;""
500;44656.5712920023;73;;""
501;44656.5712921181;72.6;;""
502;44656.5712922338;72.3;;""
503;44656.5712923495;72.1;;""
504;44656.5712924653;72;;""
505;44656.571292581;71.7;;""
506;44656.5712926968;71.5;;""
507;44656.5712928125;71.1;;""
508;44656.5712929282;70.8;;""
509;44656.571293044;70.8;;""
510;44656.5712931597;70.4;;""
511;44656.5712932755;70.2;;""
512;44656.5712933912;70.2;;""
513;44656.5712935069;69.8;;""
514;44656.5712936227;69.8;;""
515;44656.5712937384;69.5;;""
516;44656.5712938542;69.4;;""
517;44656.5712939699;69.1;;""
518;44656.5712940856;68.9;;""
519;44656.5712942014;68.9;;""
520;44656.5712943171;68.6;;""
521;44656.5712944329;68.5;;""
522;44656.5712945486;68.5;;""
523;44656.5712946644;68.2;;""
524;44656.5712947801;68;;""
525;44656.5712948958;67.9;;""
526;44656.5712950116;67.6;;""
527;44656.5712951273;67.6;;""
528;44656.5712952431;67.3;;""
529;44656.5712953588;67;;""
530;44656.5712954745;67;;""
531;44656.5712955903;66.7;;""
532;44656.571295706;66.7;;""
533;44656.5712958218;66.4;;""
534;44656.5712959375;66.4;;""
535;44656.5712960532;66.1;;""
536;44656.571296169;66;;""
537;44656.5712962847;66;;""
538;44656.5712964005;65.8;;""
539;44656.5712965162;65.7;;""
540;44656.5712966319;65.6;;""
541;44656.5712967477;65.4;;""
542;44656.5712968634;65.1;;""
543;44656.5712969792;65.1;;""
544;44656.5712970949;64.8;;""
545;44656.5712972106;64.4;;""
546;44656.5712973264;64.4;;""
547;44656.5712974421;64.1;;""
548;44656.5712975579;63.9;;""
549;44656.5712976736;63.6;;""
550;44656.5712977893;63.3;;""
551;44656.5712979051;62.8;;""
552;44656.5712980208;62.2;;""
553;44656.5712981366;61.2;;""
554;44656.5712982523;60;;""
555;44656.5712983681;58.6;;""
556;44656.5712984838;57.3;;""
557;44656.5712985995;55.8;;""
558;44656.5712987153;54.3;;""
559;44656.571298831;53;;""
560;44656.5712989468;56.5;;""
561;44656.5712990625;64.2;;""
562;44656.5712991782;68.9;;""
563;44656.571299294;69.9;;""
564;44656.5712994097;70.2;;""
565;44656.5712995255;70.4;;""
566;44656.5712996412;71.3;;""
567;44656.5712997569;71.8;;""
568;44656.5712998727;72.6;;""
569;44656.5712999884;73.2;;""
570;44656.5713001042;73.7;;""
571;44656.5713002199;74.5;;""
572;44656.5713003357;75.1;;""
573;44656.5713004514;75.9;;""
574;44656.5713005671;76.2;;""
575;44656.5713006829;76.8;;""
576;44656.5713007986;77.4;;""
577;44656.5713009144;77.9;;""
578;44656.5713010301;78.5;;""
579;44656.5713011458;79;;""
580;44656.5713012616;79.3;;""
581;44656.5713013773;80.1;;""
582;44656.5713014931;80.3;;""
583;44656.5713016088;80.9;;""
584;44656.5713017245;81.2;;""
585;44656.5713018403;81.8;;""
586;44656.571301956;82.3;;""
587;44656.5713020718;82.6;;""
588;44656.5713021875;83.2;;""
589;44656.5713023032;83.7;;""
590;44656.571302419;84;;""
591;44656.5713025347;84.5;;""
592;44656.5713026505;84.8;;""
593;44656.5713027662;85.4;;""
594;44656.5713028819;85.9;;""
595;44656.5713029977;86.2;;""
596;44656.5713031134;86.7;;""
597;44656.5713032292;87;;""
598;44656.5713033449;87.6;;""
599;44656.5713034606;87.9;;""
600;44656.5713035764;88.4;;""
601;44656.5713036921;88.7;;""
602;44656.5713038079;89;;""
603;44656.5713039236;89.6;;""
604;44656.5713040394;89.9;;""
605;44656.5713041551;90.4;;""
606;44656.5713042708;90.9;;""
607;44656.5713043866;91.2;;""
608;44656.5713045023;91.6;;""
609;44656.5713046181;91.9;;""
610;44656.5713047338;92.4;;""
611;44656.5713048495;92.7;;""
612;44656.5713049653;93.3;;""
613;44656.571305081;93.6;;""
614;44656.5713051968;93.9;;""
615;44656.5713053125;94.4;;""
616;44656.5713054282;94.7;;""
617;44656.571305544;95;;""
618;44656.5713056597;95.3;;""
619;44656.5713057755;95.9;;""
620;44656.5713058912;96.2;;""
621;44656.5713060069;96.7;;""
622;44656.5713061227;97;;""
623;44656.5713062384;97.3;;""
624;44656.5713063542;97.6;;""
625;44656.5713064699;98.1;;""
626;44656.5713065856;98.2;;""
627;44656.5713067014;98.7;;""
628;44656.5713068171;99;;""
629;44656.5713069329;99.3;;""
630;44656.5713070486;99.8;;""
631;44656.5713071644;100.1;;""
632;44656.5713072801;100.4;;""
633;44656.5713073958;100.6;;""
634;44656.5713075116;101.2;;""
635;44656.5713076273;101.5;;""
636;44656.5713077431;101.8;;""
637;44656.5713078588;102.1;;""
638;44656.5713079745;102.4;;""
639;44656.5713080903;102.7;;""
640;44656.571308206;103.2;;""
641;44656.5713083218;103.5;;""
642;44656.5713084375;103.5;;""
643;44656.5713085532;103.8;;""
644;44656.571308669;104.1;;""
645;44656.5713087847;104.2;;""
646;44656.5713089005;104.5;;""
647;44656.5713090162;104.5;;""
648;44656.5713091319;104.4;;""
649;44656.5713092477;104.1;;""
650;44656.5713093634;103.9;;""
651;44656.5713094792;103.3;;""
652;44656.5713095949;102.5;;""
653;44656.5713097106;101.9;;""
654;44656.5713098264;101;;""
655;44656.5713099421;99.8;;""
656;44656.5713100579;98.7;;""
657;44656.5713101736;97.4;;""
658;44656.5713102894;96.3;;""
659;44656.5713104051;94.9;;""
660;44656.5713105208;93.8;;""
661;44656.5713106366;92.4;;""
662;44656.5713107523;91.3;;""
663;44656.5713108681;90;;""
664;44656.5713109838;88.8;;""
665;44656.5713110995;88;;""
666;44656.5713112153;87.1;;""
667;44656.571311331;86;;""
668;44656.5713114468;85.1;;""
669;44656.5713115625;84.3;;""
670;44656.5713116782;83.7;;""
671;44656.571311794;82.8;;""
672;44656.5713119097;82;;""
673;44656.5713120255;81.5;;""
674;44656.5713121412;80.9;;""
675;44656.5713122569;80.4;;""
676;44656.5713123727;79.8;;""
677;44656.5713124884;79.2;;""
678;44656.5713126042;78.7;;""
679;44656.5713127199;78.2;;""
680;44656.5713128357;77.9;;""
681;44656.5713129514;77.3;;""
682;44656.5713130671;76.9;;""
683;44656.5713131829;76.6;;""
684;44656.5713132986;76.3;;""
685;44656.5713134144;76;;""
686;44656.5713135301;75.4;;""
687;44656.5713136458;75.1;;""
688;44656.5713137616;74.8;;""
689;44656.5713138773;74.6;;""
690;44656.5713139931;74.3;;""
691;44656.5713141088;74;;""
692;44656.5713142245;73.7;;""
693;44656.5713143403;73.3;;""
694;44656.571314456;73.1;;""
695;44656.5713145718;72.8;;""
696;44656.5713146875;72.5;;""
697;44656.5713148032;72.2;;""
698;44656.571314919;71.9;;""
699;44656.5713150347;71.9;;""
700;44656.5713151505;71.6;;""
701;44656.5713152662;71.3;;""
702;44656.5713153819;71;;""
703;44656.5713154977;71;;""
704;44656.5713156134;70.7;;""
705;44656.5713157292;70.7;;""
706;44656.5713158449;70.4;;""
707;44656.5713159606;70.1;;""
708;44656.5713160764;70.1;;""
709;44656.5713161921;69.8;;""
710;44656.5713163079;69.5;;""
711;44656.5713164236;69.4;;""
712;44656.5713165394;69.2;;""
713;44656.5713166551;69.1;;""
714;44656.5713167708;68.8;;""
715;44656.5713168866;68.8;;""
716;44656.5713170023;68.5;;""
717;44656.5713171181;68.5;;""
718;44656.5713172338;68.2;;""
719;44656.5713173495;68.2;;""
720;44656.5713174653;68.1;;""
721;44656.571317581;67.8;;""
722;44656.5713176968;67.8;;""
723;44656.5713178125;67.5;;""
724;44656.5713179282;67.4;;""
725;44656.571318044;67.1;;""
726;44656.5713181597;67.1;;""
727;44656.5713182755;66.8;;""
728;44656.5713183912;66.8;;""
729;44656.5713185069;66.6;;""
730;44656.5713186227;66.6;;""
731;44656.5713187384;66.5;;""
732;44656.5713188542;66.2;;""
733;44656.5713189699;66.2;;""
734;44656.5713190856;66.1;;""
735;44656.5713192014;65.8;;""
736;44656.5713193171;65.8;;""
737;44656.5713194329;65.5;;""
738;44656.5713195486;65.5;;""
739;44656.5713196643;65.5;;""
740;44656.5713197801;65.4;;""
741;44656.5713198958;65.2;;""
742;44656.5713200116;65.1;;""
743;44656.5713201273;64.8;;""
744;44656.5713202431;64.6;;""
745;44656.5713203588;64.6;;""
746;44656.5713204745;64.6;;""
747;44656.5713205903;64.1;;""
748;44656.571320706;64.4;;""
749;44656.5713208218;64.4;;""
750;44656.5713209375;63.8;;""
751;44656.5713210532;63.8;;""
752;44656.571321169;63.8;;""
753;44656.5713212847;63.5;;""
754;44656.5713214005;63.5;;""
755;44656.5713215162;63.2;;""
756;44656.5713216319;62.9;;""
757;44656.5713217477;62.9;;""
758;44656.5713218634;62.6;;""
759;44656.5713219792;62;;""
760;44656.5713220949;61.5;;""
761;44656.5713222107;61;;""
762;44656.5713223264;60.1;;""
763;44656.5713224421;58.8;;""
764;44656.5713225579;57.8;;""
765;44656.5713226736;56.5;;""
766;44656.5713227894;55.4;;""
767;44656.5713229051;54.5;;""
768;44656.5713230208;53.1;;""
769;44656.5713231366;61;;""
770;44656.5713232523;68.6;;""
771;44656.5713233681;70.5;;""
772;44656.5713234838;70.1;;""
773;44656.5713235995;70.7;;""
774;44656.5713237153;71.2;;""
775;44656.571323831;72;;""
776;44656.5713239468;72.6;;""
777;44656.5713240625;73.5;;""
778;44656.5713241782;74;;""
779;44656.571324294;74.7;;""
780;44656.5713244097;75.3;;""
781;44656.5713245255;75.8;;""
782;44656.5713246412;76.6;;""
783;44656.5713247569;77.2;;""
784;44656.5713248727;77.7;;""
785;44656.5713249884;78.3;;""
786;44656.5713251042;78.8;;""
787;44656.5713252199;79.4;;""
788;44656.5713253357;79.7;;""
789;44656.5713254514;80.2;;""
790;44656.5713255671;80.5;;""
791;44656.5713256829;81.1;;""
792;44656.5713257986;81.6;;""
793;44656.5713259144;82.3;;""
794;44656.5713260301;82.5;;""
795;44656.5713261458;82.9;;""
796;44656.5713262616;83.4;;""
797;44656.5713263773;83.7;;""
798;44656.5713264931;84.2;;""
799;44656.5713266088;84.8;;""
800;44656.5713267245;85.1;;""
801;44656.5713268403;85.6;;""
802;44656.571326956;85.9;;""
803;44656.5713270718;86.2;;""
804;44656.5713271875;86.8;;""
805;44656.5713273032;87.1;;""
806;44656.571327419;87.6;;""
807;44656.5713275347;87.9;;""
808;44656.5713276505;88.3;;""
809;44656.5713277662;88.8;;""
810;44656.5713278819;89.1;;""
811;44656.5713279977;89.7;;""
812;44656.5713281134;90;;""
813;44656.5713282292;90.5;;""
814;44656.5713283449;90.8;;""
815;44656.5713284606;91.2;;""
816;44656.5713285764;91.4;;""
817;44656.5713286921;92;;""
818;44656.5713288079;92.3;;""
819;44656.5713289236;92.6;;""
820;44656.5713290394;93.2;;""
821;44656.5713291551;93.5;;""
822;44656.5713292708;93.8;;""
823;44656.5713293866;94.3;;""
824;44656.5713295023;94.6;;""
825;44656.5713296181;95.2;;""
826;44656.5713297338;95.5;;""
827;44656.5713298495;95.8;;""
828;44656.5713299653;96.1;;""
829;44656.571330081;96.4;;""
830;44656.5713301968;96.7;;""
831;44656.5713303125;97.3;;""
832;44656.5713304282;97.8;;""
833;44656.571330544;97.9;;""
834;44656.5713306597;98.4;;""
835;44656.5713307755;98.7;;""
836;44656.5713308912;99;;""
837;44656.5713310069;99.5;;""
838;44656.5713311227;99.8;;""
839;44656.5713312384;100.1;;""
840;44656.5713313542;100.5;;""
841;44656.5713314699;100.8;;""
842;44656.5713315856;101.1;;""
843;44656.5713317014;101.6;;""
844;44656.5713318171;101.9;;""
845;44656.5713319329;102.1;;""
846;44656.5713320486;102.7;;""
847;44656.5713321643;102.9;;""
848;44656.5713322801;103.2;;""
849;44656.5713323958;103.5;;""
850;44656.5713325116;103.8;;""
851;44656.5713326273;104.1;;""
852;44656.5713327431;104.1;;""
853;44656.5713328588;104.2;;""
854;44656.5713329745;104.2;;""
855;44656.5713330903;104.3;;""
856;44656.571333206;104.2;;""
857;44656.5713333218;103.9;;""
858;44656.5713334375;103.4;;""
859;44656.5713335532;102.8;;""
860;44656.571333669;102.1;;""
861;44656.5713337847;101.2;;""
862;44656.5713339005;100.1;;""
863;44656.5713340162;99;;""
864;44656.5713341319;97.9;;""
865;44656.5713342477;96.5;;""
866;44656.5713343634;95.2;;""
867;44656.5713344792;94.1;;""
868;44656.5713345949;92.7;;""
869;44656.5713347107;91.6;;""
870;44656.5713348264;90.2;;""
871;44656.5713349421;89.1;;""
872;44656.5713350579;88.3;;""
873;44656.5713351736;87.1;;""
874;44656.5713352894;86.3;;""
875;44656.5713354051;85.3;;""
876;44656.5713355208;84.5;;""
877;44656.5713356366;83.7;;""
878;44656.5713357523;83.1;;""
879;44656.5713358681;82.3;;""
880;44656.5713359838;81.6;;""
881;44656.5713360995;81;;""
882;44656.5713362153;80.5;;""
883;44656.571336331;80;;""
884;44656.5713364468;79.2;;""
885;44656.5713365625;78.9;;""
886;44656.5713366782;78.3;;""
887;44656.571336794;78;;""
888;44656.5713369097;77.4;;""
889;44656.5713370255;77.1;;""
890;44656.5713371412;76.6;;""
891;44656.5713372569;76.3;;""
892;44656.5713373727;76;;""
893;44656.5713374884;75.6;;""
894;44656.5713376042;75.1;;""
895;44656.5713377199;74.8;;""
896;44656.5713378356;74.5;;""
897;44656.5713379514;74.2;;""
898;44656.5713380671;73.9;;""
899;44656.5713381829;73.6;;""
900;44656.5713382986;73.3;;""
901;44656.5713384144;73.1;;""
902;44656.5713385301;72.8;;""
903;44656.5713386458;72.7;;""
904;44656.5713387616;72.4;;""
905;44656.5713388773;72.1;;""
906;44656.5713389931;71.8;;""
907;44656.5713391088;71.6;;""
908;44656.5713392245;71.5;;""
909;44656.5713393403;71.2;;""
910;44656.571339456;70.9;;""
911;44656.5713395718;70.6;;""
912;44656.5713396875;70.6;;""
913;44656.5713398032;70.3;;""
914;44656.571339919;70.3;;""
915;44656.5713400347;70;;""
916;44656.5713401505;69.7;;""
917;44656.5713402662;69.6;;""
918;44656.5713403819;69.4;;""
919;44656.5713404977;69.1;;""
920;44656.5713406134;69.1;;""
921;44656.5713407292;68.8;;""
922;44656.5713408449;68.7;;""
923;44656.5713409606;68.5;;""
924;44656.5713410764;68.4;;""
925;44656.5713411921;68.2;;""
926;44656.5713413079;68.1;;""
927;44656.5713414236;67.8;;""
928;44656.5713415394;67.5;;""
929;44656.5713416551;67.5;;""
930;44656.5713417708;67.5;;""
931;44656.5713418866;67.2;;""
932;44656.5713420023;67.2;;""
933;44656.5713421181;67.1;;""
934;44656.5713422338;66.8;;""
935;44656.5713423495;66.5;;""
936;44656.5713424653;66.5;;""
937;44656.571342581;66.2;;""
938;44656.5713426968;66.2;;""
939;44656.5713428125;66.2;;""
940;44656.5713429282;66;;""
941;44656.571343044;65.9;;""
942;44656.5713431597;65.4;;""
943;44656.5713432755;65.2;;""
944;44656.5713433912;65.2;;""
945;44656.5713435069;65.2;;""
946;44656.5713436227;64.9;;""
947;44656.5713437384;64.8;;""
948;44656.5713438542;64.8;;""
949;44656.5713439699;64.2;;""
950;44656.5713440856;64.2;;""
951;44656.5713442014;64.2;;""
952;44656.5713443171;63.9;;""
953;44656.5713444329;63.7;;""
954;44656.5713445486;63.6;;""
955;44656.5713446643;63.3;;""
956;44656.5713447801;63;;""
957;44656.5713448958;63;;""
958;44656.5713450116;62.7;;""
959;44656.5713451273;62.4;;""
960;44656.5713452431;62.4;;""
961;44656.5713453588;62.1;;""
962;44656.5713454745;62.1;;""
963;44656.5713455903;61.8;;""
964;44656.571345706;61.7;;""
965;44656.5713458218;61.5;;""
966;44656.5713459375;61.2;;""
967;44656.5713460532;60.9;;""
968;44656.571346169;60.8;;""
969;44656.5713462847;60.5;;""
970;44656.5713464005;60.3;;""
971;44656.5713465162;60;;""
972;44656.5713466319;59.7;;""
973;44656.5713467477;59.4;;""
974;44656.5713468634;59.3;;""
975;44656.5713469792;59.1;;""
976;44656.5713470949;58.8;;""
977;44656.5713472107;58.5;;""
978;44656.5713473264;58.2;;""
979;44656.5713474421;58.1;;""
980;44656.5713475579;57.8;;""
981;44656.5713476736;57.6;;""
982;44656.5713477894;57.3;;""
983;44656.5713479051;57;;""
984;44656.5713480208;56.7;;""
985;44656.5713481366;56.6;;""
986;44656.5713482523;56.1;;""
987;44656.5713483681;56;;""
988;44656.5713484838;55.5;;""
989;44656.5713485995;55.2;;""
990;44656.5713487153;54.9;;""
991;44656.571348831;54.4;;""
992;44656.5713489468;53.8;;""
993;44656.5713490625;52.7;;""
994;44656.5713491782;50.8;;""
995;44656.571349294;48.2;;""
996;44656.5713494097;55.6;;""
997;44656.5713495255;64.5;;""
998;44656.5713496412;68.6;;""
999;44656.5713497569;68.7;;""
1000;44656.5713498727;68.2;;""
1001;44656.5713499884;68.2;;""
1002;44656.5713501042;69;;""
1003;44656.5713502199;69.6;;""
1004;44656.5713503356;70.2;;""
1005;44656.5713504514;70.8;;""
1006;44656.5713505671;71.6;;""
1007;44656.5713506829;72.1;;""
1008;44656.5713507986;72.7;;""
1009;44656.5713509144;73.5;;""
1010;44656.5713510301;74.1;;""
1011;44656.5713511458;74.7;;""
1012;44656.5713512616;75;;""
1013;44656.5713513773;75.6;;""
1014;44656.5713514931;76.2;;""
1015;44656.5713516088;76.5;;""
1016;44656.5713517245;77.1;;""
1017;44656.5713518403;77.8;;""
1018;44656.571351956;78.1;;""
1019;44656.5713520718;78.7;;""
1020;44656.5713521875;79;;""
1021;44656.5713523032;79.5;;""
1022;44656.571352419;80.1;;""
1023;44656.5713525347;80.4;;""
1024;44656.5713526505;81;;""
1025;44656.5713527662;81.3;;""
1026;44656.5713528819;81.8;;""
1027;44656.5713529977;82.1;;""
1028;44656.5713531134;82.6;;""
1029;44656.5713532292;83.2;;""
1030;44656.5713533449;83.5;;""
1031;44656.5713534606;84;;""
1032;44656.5713535764;84.3;;""
1033;44656.5713536921;84.9;;""
1034;44656.5713538079;85.2;;""
1035;44656.5713539236;85.7;;""
1036;44656.5713540394;86;;""
1037;44656.5713541551;86.5;;""
1038;44656.5713542708;86.8;;""
1039;44656.5713543866;87.4;;""
1040;44656.5713545023;87.7;;""
1041;44656.5713546181;88.3;;""
1042;44656.5713547338;88.5;;""
1043;44656.5713548495;89.1;;""
1044;44656.5713549653;89.4;;""
1045;44656.571355081;89.7;;""
1046;44656.5713551968;90.1;;""
1047;44656.5713553125;90.6;;""
1048;44656.5713554282;90.9;;""
1049;44656.571355544;91.2;;""
1050;44656.5713556597;91.8;;""
1051;44656.5713557755;92.1;;""
1052;44656.5713558912;92.6;;""
1053;44656.5713560069;92.9;;""
1054;44656.5713561227;93.2;;""
1055;44656.5713562384;93.5;;""
1056;44656.5713563542;94;;""
1057;44656.5713564699;94.3;;""
1058;44656.5713565856;94.9;;""
1059;44656.5713567014;95.1;;""
1060;44656.5713568171;95.7;;""
1061;44656.5713569329;95.9;;""
1062;44656.5713570486;96.2;;""
1063;44656.5713571644;96.8;;""
1064;44656.5713572801;97.1;;""
1065;44656.5713573958;97.3;;""
1066;44656.5713575116;97.6;;""
1067;44656.5713576273;97.9;;""
1068;44656.5713577431;98.5;;""
1069;44656.5713578588;98.8;;""
1070;44656.5713579745;99.1;;""
1071;44656.5713580903;99.6;;""
1072;44656.571358206;99.9;;""
1073;44656.5713583218;100.2;;""
1074;44656.5713584375;100.5;;""
1075;44656.5713585532;100.7;;""
1076;44656.571358669;101.3;;""
1077;44656.5713587847;101.5;;""
1078;44656.5713589005;101.9;;""
1079;44656.5713590162;102.2;;""
1080;44656.5713591319;102.5;;""
1081;44656.5713592477;102.7;;""
1082;44656.5713593634;103;;""
1083;44656.5713594792;103.3;;""
1084;44656.5713595949;103.6;;""
1085;44656.5713597107;103.6;;""
1086;44656.5713598264;103.6;;""
1087;44656.5713599421;103.6;;""
1088;44656.5713600579;103.5;;""
1089;44656.5713601736;103;;""
1090;44656.5713602894;102.5;;""
1091;44656.5713604051;101.9;;""
1092;44656.5713605208;101.3;;""
1093;44656.5713606366;100.2;;""
1094;44656.5713607523;99.4;;""
1095;44656.5713608681;98.3;;""
1096;44656.5713609838;96.9;;""
1097;44656.5713610995;95.8;;""
1098;44656.5713612153;94.5;;""
1099;44656.571361331;93.2;;""
1100;44656.5713614468;92;;""
1101;44656.5713615625;91;;""
1102;44656.5713616782;89.7;;""
1103;44656.571361794;88.6;;""
1104;44656.5713619097;87.7;;""
1105;44656.5713620255;86.6;;""
1106;44656.5713621412;85.8;;""
1107;44656.5713622569;85;;""
1108;44656.5713623727;84.1;;""
1109;44656.5713624884;83.3;;""
1110;44656.5713626042;82.7;;""
1111;44656.5713627199;81.9;;""
1112;44656.5713628356;81.3;;""
1113;44656.5713629514;80.7;;""
1114;44656.5713630671;80.2;;""
1115;44656.5713631829;79.6;;""
1116;44656.5713632986;79.1;;""
1117;44656.5713634144;78.5;;""
1118;44656.5713635301;78.2;;""
1119;44656.5713636458;77.7;;""
1120;44656.5713637616;77.4;;""
1121;44656.5713638773;76.9;;""
1122;44656.5713639931;76.6;;""
1123;44656.5713641088;76.2;;""
1124;44656.5713642245;75.7;;""
1125;44656.5713643403;75.4;;""
1126;44656.571364456;75.1;;""
1127;44656.5713645718;74.8;;""
1128;44656.5713646875;74.5;;""
1129;44656.5713648032;74.2;;""
1130;44656.571364919;73.7;;""
1131;44656.5713650347;73.7;;""
1132;44656.5713651505;73.4;;""
1133;44656.5713652662;73.1;;""
1134;44656.5713653819;72.8;;""
1135;44656.5713654977;72.5;;""
1136;44656.5713656134;72.2;;""
1137;44656.5713657292;72;;""
1138;44656.5713658449;71.7;;""
1139;44656.5713659606;71.7;;""
1140;44656.5713660764;71.4;;""
1141;44656.5713661921;71.1;;""
1142;44656.5713663079;70.8;;""
1143;44656.5713664236;70.8;;""
1144;44656.5713665393;70.5;;""
1145;44656.5713666551;70.2;;""
1146;44656.5713667708;70.2;;""
1147;44656.5713668866;69.9;;""
1148;44656.5713670023;69.8;;""
1149;44656.5713671181;69.5;;""
1150;44656.5713672338;69.2;;""
1151;44656.5713673495;69.2;;""
1152;44656.5713674653;68.9;;""
1153;44656.571367581;68.9;;""
1154;44656.5713676968;68.6;;""
1155;44656.5713678125;68.5;;""
1156;44656.5713679282;68.2;;""
1157;44656.571368044;68;;""
1158;44656.5713681597;68;;""
1159;44656.5713682755;67.9;;""
1160;44656.5713683912;67.6;;""
1161;44656.5713685069;67.4;;""
1162;44656.5713686227;67.3;;""
1163;44656.5713687384;67.1;;""
1164;44656.5713688542;67;;""
1165;44656.5713689699;66.8;;""
1166;44656.5713690857;66.8;;""
1167;44656.5713692014;66.7;;""
1168;44656.5713693171;66.4;;""
1169;44656.5713694329;66.4;;""
1170;44656.5713695486;66.1;;""
1171;44656.5713696644;66.1;;""
1172;44656.5713697801;65.8;;""
1173;44656.5713698958;65.8;;""
1174;44656.5713700116;65.7;;""
1175;44656.5713701273;65.5;;""
1176;44656.5713702431;65.4;;""
1177;44656.5713703588;65.1;;""
1178;44656.5713704745;65.1;;""
1179;44656.5713705903;64.8;;""
1180;44656.571370706;64.5;;""
1181;44656.5713708218;64.2;;""
1182;44656.5713709375;63.9;;""
1183;44656.5713710532;63.3;;""
1184;44656.571371169;62.5;;""
1185;44656.5713712847;61.7;;""
1186;44656.5713714005;60.3;;""
1187;44656.5713715162;59.1;;""
1188;44656.5713716319;57.6;;""
1189;44656.5713717477;56.2;;""
1190;44656.5713718634;55.3;;""
1191;44656.5713719792;54.5;;""
1192;44656.5713720949;53.9;;""
1193;44656.5713722106;61;;""
1194;44656.5713723264;67.7;;""
1195;44656.5713724421;69.9;;""
1196;44656.5713725579;69.7;;""
1197;44656.5713726736;70.2;;""
1198;44656.5713727894;71;;""
1199;44656.5713729051;71.9;;""
1200;44656.5713730208;72.7;;""
1201;44656.5713731366;73.2;;""
1202;44656.5713732523;73.8;;""
1203;44656.5713733681;74.4;;""
1204;44656.5713734838;75.2;;""
1205;44656.5713735995;75.8;;""
1206;44656.5713737153;76.4;;""
1207;44656.571373831;76.9;;""
1208;44656.5713739468;77.5;;""
1209;44656.5713740625;77.8;;""
1210;44656.5713741782;78.4;;""
1211;44656.571374294;78.9;;""
1212;44656.5713744097;79.4;;""
1213;44656.5713745255;80;;""
1214;44656.5713746412;80.3;;""
1215;44656.5713747569;80.9;;""
1216;44656.5713748727;81.2;;""
1217;44656.5713749884;81.8;;""
1218;44656.5713751042;82.4;;""
1219;44656.5713752199;82.7;;""
1220;44656.5713753356;83.2;;""
1221;44656.5713754514;83.8;;""
1222;44656.5713755671;84.1;;""
1223;44656.5713756829;84.7;;""
1224;44656.5713757986;85;;""
1225;44656.5713759144;85.2;;""
1226;44656.5713760301;85.8;;""
1227;44656.5713761458;86.1;;""
1228;44656.5713762616;86.7;;""
1229;44656.5713763773;87;;""
1230;44656.5713764931;87.3;;""
1231;44656.5713766088;87.8;;""
1232;44656.5713767245;88.2;;""
1233;44656.5713768403;88.4;;""
1234;44656.571376956;89;;""
1235;44656.5713770718;89.3;;""
1236;44656.5713771875;89.8;;""
1237;44656.5713773032;90.1;;""
1238;44656.571377419;90.4;;""
1239;44656.5713775347;90.9;;""
1240;44656.5713776505;91.2;;""
1241;44656.5713777662;91.8;;""
1242;44656.5713778819;92.1;;""
1243;44656.5713779977;92.4;;""
1244;44656.5713781134;92.9;;""
1245;44656.5713782292;93.2;;""
1246;44656.5713783449;93.5;;""
1247;44656.5713784606;94;;""
1248;44656.5713785764;94.3;;""
1249;44656.5713786921;94.6;;""
1250;44656.5713788079;95.2;;""
1251;44656.5713789236;95.5;;""
1252;44656.5713790393;95.8;;""
1253;44656.5713791551;96.1;;""
1254;44656.5713792708;96.4;;""
1255;44656.5713793866;97;;""
1256;44656.5713795023;97.3;;""
1257;44656.5713796181;97.6;;""
1258;44656.5713797338;97.9;;""
1259;44656.5713798495;98.5;;""
1260;44656.5713799653;98.7;;""
1261;44656.571380081;99;;""
1262;44656.5713801968;99.3;;""
1263;44656.5713803125;99.8;;""
1264;44656.5713804282;100.1;;""
1265;44656.571380544;100.4;;""
1266;44656.5713806597;100.7;;""
1267;44656.5713807755;101;;""
1268;44656.5713808912;101.5;;""
1269;44656.5713810069;101.8;;""
1270;44656.5713811227;102.1;;""
1271;44656.5713812384;102.3;;""
1272;44656.5713813542;102.6;;""
1273;44656.5713814699;103;;""
1274;44656.5713815857;103.3;;""
1275;44656.5713817014;103.6;;""
1276;44656.5713818171;103.9;;""
1277;44656.5713819329;104.1;;""
1278;44656.5713820486;104.2;;""
1279;44656.5713821644;104.2;;""
1280;44656.5713822801;104.3;;""
1281;44656.5713823958;104.3;;""
1282;44656.5713825116;104;;""
1283;44656.5713826273;103.4;;""
1284;44656.5713827431;102.9;;""
1285;44656.5713828588;102.3;;""
1286;44656.5713829745;101.4;;""
1287;44656.5713830903;100.4;;""
1288;44656.571383206;99.3;;""
1289;44656.5713833218;98.1;;""
1290;44656.5713834375;96.8;;""
1291;44656.5713835532;95.4;;""
1292;44656.571383669;94.3;;""
1293;44656.5713837847;92.8;;""
1294;44656.5713839005;91.7;;""
1295;44656.5713840162;90.4;;""
1296;44656.5713841319;89.3;;""
1297;44656.5713842477;88.3;;""
1298;44656.5713843634;87.2;;""
1299;44656.5713844792;86.4;;""
1300;44656.5713845949;85.3;;""
1301;44656.5713847106;84.5;;""
1302;44656.5713848264;83.7;;""
1303;44656.5713849421;83.1;;""
1304;44656.5713850579;82.3;;""
1305;44656.5713851736;81.7;;""
1306;44656.5713852894;81;;""
1307;44656.5713854051;80.4;;""
1308;44656.5713855208;79.9;;""
1309;44656.5713856366;79.3;;""
1310;44656.5713857523;78.8;;""
1311;44656.5713858681;78.2;;""
1312;44656.5713859838;77.7;;""
1313;44656.5713860995;77.4;;""
1314;44656.5713862153;76.8;;""
1315;44656.571386331;76.5;;""
1316;44656.5713864468;76.2;;""
1317;44656.5713865625;75.9;;""
1318;44656.5713866782;75.4;;""
1319;44656.571386794;75.1;;""
1320;44656.5713869097;74.8;;""
1321;44656.5713870255;74.5;;""
1322;44656.5713871412;74.2;;""
1323;44656.5713872569;73.6;;""
1324;44656.5713873727;73.4;;""
1325;44656.5713874884;73.3;;""
1326;44656.5713876042;73.1;;""
1327;44656.5713877199;72.8;;""
1328;44656.5713878356;72.5;;""
1329;44656.5713879514;72.2;;""
1330;44656.5713880671;71.9;;""
1331;44656.5713881829;71.6;;""
1332;44656.5713882986;71.3;;""
1333;44656.5713884144;71.3;;""
1334;44656.5713885301;71;;""
1335;44656.5713886458;70.8;;""
1336;44656.5713887616;70.5;;""
1337;44656.5713888773;70.4;;""
1338;44656.5713889931;70.2;;""
1339;44656.5713891088;69.8;;""
1340;44656.5713892245;69.8;;""
1341;44656.5713893403;69.5;;""
1342;44656.571389456;69.5;;""
1343;44656.5713895718;69.2;;""
1344;44656.5713896875;68.9;;""
1345;44656.5713898032;68.9;;""
1346;44656.571389919;68.6;;""
1347;44656.5713900347;68.6;;""
1348;44656.5713901505;68.3;;""
1349;44656.5713902662;68.3;;""
1350;44656.5713903819;68;;""
1351;44656.5713904977;67.9;;""
1352;44656.5713906134;67.7;;""
1353;44656.5713907292;67.6;;""
1354;44656.5713908449;67.3;;""
1355;44656.5713909606;67.3;;""
1356;44656.5713910764;67.2;;""
1357;44656.5713911921;67;;""
1358;44656.5713913079;66.9;;""
1359;44656.5713914236;66.6;;""
1360;44656.5713915394;66.6;;""
1361;44656.5713916551;66.3;;""
1362;44656.5713917708;66.3;;""
1363;44656.5713918866;66;;""
1364;44656.5713920023;66;;""
1365;44656.5713921181;65.7;;""
1366;44656.5713922338;65.7;;""
1367;44656.5713923495;65.4;;""
1368;44656.5713924653;65.4;;""
1369;44656.571392581;65.4;;""
1370;44656.5713926968;65.1;;""
1371;44656.5713928125;65;;""
1372;44656.5713929282;64.7;;""
1373;44656.571393044;64.4;;""
1374;44656.5713931597;64.2;;""
1375;44656.5713932755;63.6;;""
1376;44656.5713933912;63;;""
1377;44656.5713935069;62;;""
1378;44656.5713936227;60.9;;""
1379;44656.5713937384;59.4;;""
1380;44656.5713938542;58;;""
1381;44656.5713939699;56.4;;""
1382;44656.5713940857;55.2;;""
1383;44656.5713942014;54.2;;""
1384;44656.5713943171;54.5;;""
1385;44656.5713944329;63.5;;""
1386;44656.5713945486;69.4;;""
1387;44656.5713946644;70.5;;""
1388;44656.5713947801;70.7;;""
1389;44656.5713948958;71.3;;""
1390;44656.5713950116;72.1;;""
1391;44656.5713951273;72.7;;""
1392;44656.5713952431;73.2;;""
1393;44656.5713953588;74.1;;""
1394;44656.5713954745;74.6;;""
1395;44656.5713955903;75.4;;""
1396;44656.571395706;75.9;;""
1397;44656.5713958218;76.6;;""
1398;44656.5713959375;77.2;;""
1399;44656.5713960532;77.7;;""
1400;44656.571396169;78.2;;""
1401;44656.5713962847;78.8;;""
1402;44656.5713964005;79.3;;""
1403;44656.5713965162;79.7;;""
1404;44656.5713966319;80.2;;""
1405;44656.5713967477;80.8;;""
1406;44656.5713968634;81.3;;""
1407;44656.5713969792;81.6;;""
1408;44656.5713970949;82.1;;""
1409;44656.5713972106;82.4;;""
1410;44656.5713973264;82.9;;""
1411;44656.5713974421;83.5;;""
1412;44656.5713975579;83.8;;""
1413;44656.5713976736;84.1;;""
1414;44656.5713977894;84.7;;""
1415;44656.5713979051;85;;""
1416;44656.5713980208;85.5;;""
1417;44656.5713981366;86;;""
1418;44656.5713982523;86.3;;""
1419;44656.5713983681;86.9;;""
1420;44656.5713984838;87.1;;""
1421;44656.5713985995;87.7;;""
1422;44656.5713987153;88;;""
1423;44656.571398831;88.3;;""
1424;44656.5713989468;88.8;;""
1425;44656.5713990625;89.1;;""
1426;44656.5713991782;89.7;;""
1427;44656.571399294;90;;""
1428;44656.5713994097;90.5;;""
1429;44656.5713995255;90.8;;""
1430;44656.5713996412;91.1;;""
1431;44656.5713997569;91.6;;""
1432;44656.5713998727;91.9;;""
1433;44656.5713999884;92.2;;""
1434;44656.5714001042;92.8;;""
1435;44656.5714002199;93.1;;""
1436;44656.5714003356;93.4;;""
1437;44656.5714004514;93.9;;""
1438;44656.5714005671;94.2;;""
1439;44656.5714006829;94.7;;""
1440;44656.5714007986;95;;""
1441;44656.5714009143;95.3;;""
1442;44656.5714010301;95.6;;""
1443;44656.5714011458;96.1;;""
1444;44656.5714012616;96.4;;""
1445;44656.5714013773;96.7;;""
1446;44656.5714014931;97.2;;""
1447;44656.5714016088;97.5;;""
1448;44656.5714017245;97.9;;""
1449;44656.5714018403;98.4;;""
1450;44656.571401956;98.7;;""
1451;44656.5714020718;99;;""
1452;44656.5714021875;99.3;;""
1453;44656.5714023032;99.9;;""
1454;44656.571402419;100.1;;""
1455;44656.5714025347;100.7;;""
1456;44656.5714026505;100.9;;""
1457;44656.5714027662;101.2;;""
1458;44656.5714028819;101.5;;""
1459;44656.5714029977;101.8;;""
1460;44656.5714031134;102.4;;""
1461;44656.5714032292;102.7;;""
1462;44656.5714033449;102.9;;""
1463;44656.5714034607;103.3;;""
1464;44656.5714035764;103.6;;""
1465;44656.5714036921;103.8;;""
1466;44656.5714038079;104.1;;""
1467;44656.5714039236;104.4;;""
1468;44656.5714040394;104.4;;""
1469;44656.5714041551;104.5;;""
1470;44656.5714042708;104.5;;""
1471;44656.5714043866;104.6;;""
1472;44656.5714045023;104.3;;""
1473;44656.5714046181;104;;""
1474;44656.5714047338;103.4;;""
1475;44656.5714048495;102.6;;""
1476;44656.5714049653;101.8;;""
1477;44656.571405081;100.7;;""
1478;44656.5714051968;99.6;;""
1479;44656.5714053125;98.5;;""
1480;44656.5714054282;97.2;;""
1481;44656.571405544;95.9;;""
1482;44656.5714056597;94.6;;""
1483;44656.5714057755;93.3;;""
1484;44656.5714058912;92;;""
1485;44656.5714060069;90.9;;""
1486;44656.5714061227;89.6;;""
1487;44656.5714062384;88.3;;""
1488;44656.5714063542;87.4;;""
1489;44656.5714064699;86.6;;""
1490;44656.5714065856;85.7;;""
1491;44656.5714067014;84.8;;""
1492;44656.5714068171;84;;""
1493;44656.5714069329;83.2;;""
1494;44656.5714070486;82.6;;""
1495;44656.5714071644;81.7;;""
1496;44656.5714072801;81.2;;""
1497;44656.5714073958;80.7;;""
1498;44656.5714075116;80.1;;""
1499;44656.5714076273;79.6;;""
1500;44656.5714077431;79;;""
1501;44656.5714078588;78.5;;""
1502;44656.5714079745;77.9;;""
1503;44656.5714080903;77.6;;""
1504;44656.571408206;77.1;;""
1505;44656.5714083218;76.8;;""
1506;44656.5714084375;76.5;;""
1507;44656.5714085532;76;;""
1508;44656.571408669;75.7;;""
1509;44656.5714087847;75.4;;""
1510;44656.5714089005;75.1;;""
1511;44656.5714090162;74.6;;""
1512;44656.5714091319;74.5;;""
1513;44656.5714092477;74.2;;""
1514;44656.5714093634;73.7;;""
1515;44656.5714094792;73.6;;""
1516;44656.5714095949;73.1;;""
1517;44656.5714097106;72.8;;""
1518;44656.5714098264;72.8;;""
1519;44656.5714099421;72.5;;""
1520;44656.5714100579;72.2;;""
1521;44656.5714101736;71.9;;""
1522;44656.5714102894;71.6;;""
1523;44656.5714104051;71.6;;""
1524;44656.5714105208;71.3;;""
1525;44656.5714106366;71;;""
1526;44656.5714107523;70.7;;""
1527;44656.5714108681;70.7;;""
1528;44656.5714109838;70.4;;""
1529;44656.5714110995;70.1;;""
1530;44656.5714112153;70.1;;""
1531;44656.571411331;69.8;;""
1532;44656.5714114468;69.6;;""
1533;44656.5714115625;69.5;;""
1534;44656.5714116782;69.2;;""
1535;44656.571411794;68.9;;""
1536;44656.5714119097;68.9;;""
1537;44656.5714120255;68.6;;""
1538;44656.5714121412;68.5;;""
1539;44656.5714122569;68.5;;""
1540;44656.5714123727;68.2;;""
1541;44656.5714124884;67.9;;""
1542;44656.5714126042;67.9;;""
1543;44656.5714127199;67.7;;""
1544;44656.5714128356;67.6;;""
1545;44656.5714129514;67.3;;""
1546;44656.5714130671;67.3;;""
1547;44656.5714131829;67.2;;""
1548;44656.5714132986;66.9;;""
1549;44656.5714134143;66.9;;""
1550;44656.5714135301;66.6;;""
1551;44656.5714136458;66.3;;""
1552;44656.5714137616;66.3;;""
1553;44656.5714138773;66;;""
1554;44656.5714139931;66;;""
1555;44656.5714141088;66;;""
1556;44656.5714142245;65.7;;""
1557;44656.5714143403;65.6;;""
1558;44656.571414456;65.3;;""
1559;44656.5714145718;65.3;;""
1560;44656.5714146875;65;;""
1561;44656.5714148032;65;;""
1562;44656.571414919;64.9;;""
1563;44656.5714150347;64.6;;""
1564;44656.5714151505;64.6;;""
1565;44656.5714152662;64.3;;""
1566;44656.5714153819;64.2;;""
1567;44656.5714154977;64;;""
1568;44656.5714156134;63.7;;""
1569;44656.5714157292;63.1;;""
1570;44656.5714158449;62;;""
1571;44656.5714159607;60.3;;""
1572;44656.5714160764;57.1;;""
1573;44656.5714161921;53;;""
1574;44656.5714163079;60.5;;""
1575;44656.5714164236;68.7;;""
1576;44656.5714165394;71.8;;""
1577;44656.5714166551;71.6;;""
1578;44656.5714167708;71.3;;""
1579;44656.5714168866;71.5;;""
1580;44656.5714170023;72.4;;""
1581;44656.5714171181;73;;""
1582;44656.5714172338;73.8;;""
1583;44656.5714173495;74.4;;""
1584;44656.5714174653;74.9;;""
1585;44656.571417581;75.8;;""
1586;44656.5714176968;76.3;;""
1587;44656.5714178125;76.9;;""
1588;44656.5714179282;77.4;;""
1589;44656.571418044;78;;""
1590;44656.5714181597;78.5;;""
1591;44656.5714182755;78.8;;""
1592;44656.5714183912;79.4;;""
1593;44656.5714185069;79.9;;""
1594;44656.5714186227;80.5;;""
1595;44656.5714187384;81;;""
1596;44656.5714188542;81.6;;""
1597;44656.5714189699;82.1;;""
1598;44656.5714190856;82.4;;""
1599;44656.5714192014;82.7;;""
1600;44656.5714193171;83.3;;""
1601;44656.5714194329;83.8;;""
1602;44656.5714195486;84.1;;""
1603;44656.5714196644;84.7;;""
1604;44656.5714197801;85;;""
1605;44656.5714198958;85.5;;""
1606;44656.5714200116;86;;""
1607;44656.5714201273;86.4;;""
1608;44656.5714202431;86.7;;""
1609;44656.5714203588;87.2;;""
1610;44656.5714204745;87.5;;""
1611;44656.5714205903;88;;""
1612;44656.571420706;88.3;;""
1613;44656.5714208218;88.8;;""
1614;44656.5714209375;89.4;;""
1615;44656.5714210532;89.7;;""
1616;44656.571421169;90;;""
1617;44656.5714212847;90.5;;""
1618;44656.5714214005;90.8;;""
1619;44656.5714215162;91.1;;""
1620;44656.5714216319;91.7;;""
1621;44656.5714217477;92;;""
1622;44656.5714218634;92.5;;""
1623;44656.5714219792;93;;""
1624;44656.5714220949;93.4;;""
1625;44656.5714222106;93.6;;""
1626;44656.5714223264;94;;""
1627;44656.5714224421;94.3;;""
1628;44656.5714225579;94.9;;""
1629;44656.5714226736;95.1;;""
1630;44656.5714227894;95.7;;""
1631;44656.5714229051;96;;""
1632;44656.5714230208;96.3;;""
1633;44656.5714231366;96.8;;""
1634;44656.5714232523;97.1;;""
1635;44656.5714233681;97.4;;""
1636;44656.5714234838;97.9;;""
1637;44656.5714235995;98.2;;""
1638;44656.5714237153;98.5;;""
1639;44656.571423831;99.1;;""
1640;44656.5714239468;99.4;;""
1641;44656.5714240625;99.7;;""
1642;44656.5714241782;100.2;;""
1643;44656.571424294;100.5;;""
1644;44656.5714244097;100.8;;""
1645;44656.5714245255;101.1;;""
1646;44656.5714246412;101.7;;""
1647;44656.5714247569;101.9;;""
1648;44656.5714248727;102.2;;""
1649;44656.5714249884;102.5;;""
1650;44656.5714251042;102.9;;""
1651;44656.5714252199;103.1;;""
1652;44656.5714253356;103.4;;""
1653;44656.5714254514;103.7;;""
1654;44656.5714255671;104;;""
1655;44656.5714256829;104.3;;""
1656;44656.5714257986;104.4;;""
1657;44656.5714259144;104.4;;""
1658;44656.5714260301;104.4;;""
1659;44656.5714261458;104.5;;""
1660;44656.5714262616;104.2;;""
1661;44656.5714263773;103.6;;""
1662;44656.5714264931;103.4;;""
1663;44656.5714266088;102.5;;""
1664;44656.5714267245;101.7;;""
1665;44656.5714268403;100.6;;""
1666;44656.571426956;99.7;;""
1667;44656.5714270718;98.5;;""
1668;44656.5714271875;97.1;;""
1669;44656.5714273032;96;;""
1670;44656.571427419;94.6;;""
1671;44656.5714275347;93.5;;""
1672;44656.5714276505;92.2;;""
1673;44656.5714277662;91.1;;""
1674;44656.5714278819;89.7;;""
1675;44656.5714279977;88.6;;""
1676;44656.5714281134;87.6;;""
1677;44656.5714282292;86.7;;""
1678;44656.5714283449;85.9;;""
1679;44656.5714284607;85.1;;""
1680;44656.5714285764;84;;""
1681;44656.5714286921;83.5;;""
1682;44656.5714288079;82.5;;""
1683;44656.5714289236;81.9;;""
1684;44656.5714290394;81.4;;""
1685;44656.5714291551;80.8;;""
1686;44656.5714292708;80.3;;""
1687;44656.5714293866;79.7;;""
1688;44656.5714295023;79.2;;""
1689;44656.5714296181;78.7;;""
1690;44656.5714297338;78.3;;""
1691;44656.5714298495;77.8;;""
1692;44656.5714299653;77.2;;""
1693;44656.571430081;77;;""
1694;44656.5714301968;76.4;;""
1695;44656.5714303125;76.1;;""
1696;44656.5714304282;75.8;;""
1697;44656.571430544;75.5;;""
1698;44656.5714306597;75;;""
1699;44656.5714307755;74.7;;""
1700;44656.5714308912;74.4;;""
1701;44656.5714310069;74.2;;""
1702;44656.5714311227;73.9;;""
1703;44656.5714312384;73.6;;""
1704;44656.5714313542;73.3;;""
1705;44656.5714314699;73;;""
1706;44656.5714315856;72.7;;""
1707;44656.5714317014;72.7;;""
1708;44656.5714318171;72.4;;""
1709;44656.5714319329;72.1;;""
1710;44656.5714320486;71.8;;""
1711;44656.5714321644;71.7;;""
1712;44656.5714322801;71.5;;""
1713;44656.5714323958;71.2;;""
1714;44656.5714325116;70.9;;""
1715;44656.5714326273;70.8;;""
1716;44656.5714327431;70.6;;""
1717;44656.5714328588;70.5;;""
1718;44656.5714329745;70.2;;""
1719;44656.5714330903;69.9;;""
1720;44656.571433206;69.9;;""
1721;44656.5714333218;69.6;;""
1722;44656.5714334375;69.3;;""
1723;44656.5714335532;69.3;;""
1724;44656.571433669;69.1;;""
1725;44656.5714337847;69;;""
1726;44656.5714339005;68.7;;""
1727;44656.5714340162;68.4;;""
1728;44656.5714341319;68.4;;""
1729;44656.5714342477;68.1;;""
1730;44656.5714343634;68.1;;""
1731;44656.5714344792;67.8;;""
1732;44656.5714345949;67.8;;""
1733;44656.5714347106;67.5;;""
1734;44656.5714348264;67.5;;""
1735;44656.5714349421;67.2;;""
1736;44656.5714350579;67.2;;""
1737;44656.5714351736;66.9;;""
1738;44656.5714352893;66.9;;""
1739;44656.5714354051;66.8;;""
1740;44656.5714355208;66.5;;""
1741;44656.5714356366;66.5;;""
1742;44656.5714357523;66.2;;""
1743;44656.5714358681;66.2;;""
1744;44656.5714359838;66.1;;""
1745;44656.5714360995;65.8;;""
1746;44656.5714362153;65.8;;""
1747;44656.571436331;65.5;;""
1748;44656.5714364468;65.5;;""
1749;44656.5714365625;65.5;;""
1750;44656.5714366782;65.2;;""
1751;44656.571436794;65.2;;""
1752;44656.5714369097;65.1;;""
1753;44656.5714370255;65.1;;""
1754;44656.5714371412;64.8;;""
1755;44656.5714372569;64.8;;""
1756;44656.5714373727;64.7;;""
1757;44656.5714374884;64.4;;""
1758;44656.5714376042;64.4;;""
1759;44656.5714377199;64.4;;""
1760;44656.5714378357;64.1;;""
1761;44656.5714379514;64.1;;""
1762;44656.5714380671;64;;""
1763;44656.5714381829;63.9;;""
1764;44656.5714382986;63.7;;""
1765;44656.5714384144;63.7;;""
1766;44656.5714385301;63.6;;""
1767;44656.5714386458;63.3;;""
1768;44656.5714387616;63.3;;""
1769;44656.5714388773;63.3;;""
1770;44656.5714389931;63.2;;""
1771;44656.5714391088;62.9;;""
1772;44656.5714392245;62.9;;""
1773;44656.5714393403;62.9;;""
1774;44656.571439456;62.8;;""
1775;44656.5714395718;62.5;;""
1776;44656.5714396875;62.5;;""
1777;44656.5714398032;62.5;;""
1778;44656.571439919;62.2;;""
1779;44656.5714400347;62.2;;""
1780;44656.5714401505;62.1;;""
1781;44656.5714402662;61.9;;""
1782;44656.5714403819;61.8;;""
1783;44656.5714404977;61.8;;""
1784;44656.5714406134;61.5;;""
1785;44656.5714407292;61.5;;""
1786;44656.5714408449;61.4;;""
1787;44656.5714409607;61.2;;""
1788;44656.5714410764;61.1;;""
1789;44656.5714411921;61.1;;""
1790;44656.5714413079;60.8;;""
1791;44656.5714414236;60.8;;""
1792;44656.5714415394;60.4;;""
1793;44656.5714416551;60.4;;""
1794;44656.5714417708;60.1;;""
1795;44656.5714418866;60.1;;""
1796;44656.5714420023;59.8;;""
1797;44656.5714421181;59.8;;""
1798;44656.5714422338;59.5;;""
1799;44656.5714423495;59.4;;""
1800;44656.5714424653;59.1;;""
1801;44656.571442581;59.1;;""
1802;44656.5714426968;58.8;;""
1803;44656.5714428125;58.8;;""
1804;44656.5714429282;58.5;;""
1805;44656.571443044;58.4;;""
1806;44656.5714431597;58.2;;""
1807;44656.5714432755;58.1;;""
1808;44656.5714433912;57.8;;""
1809;44656.5714435069;57.8;;""
1810;44656.5714436227;57.5;;""
1811;44656.5714437384;57.2;;""
1812;44656.5714438542;57.2;;""
1813;44656.5714439699;56.9;;""
1814;44656.5714440856;56.6;;""
1815;44656.5714442014;56.6;;""
1816;44656.5714443171;56.3;;""
1817;44656.5714444329;56;;""
1818;44656.5714445486;56;;""
1819;44656.5714446644;55.7;;""
1820;44656.5714447801;55.4;;""
1821;44656.5714448958;55.4;;""
1822;44656.5714450116;55.1;;""
1823;44656.5714451273;54.8;;""
1824;44656.5714452431;54.5;;""
1825;44656.5714453588;54.2;;""
1826;44656.5714454745;53.6;;""
1827;44656.5714455903;53;;""
1828;44656.571445706;52.1;;""
1829;44656.5714458218;51.6;;""
1830;44656.5714459375;51;;""
1831;44656.5714460532;50.3;;""
1832;44656.571446169;49.1;;""
1833;44656.5714462847;52.1;;""
1834;44656.5714464005;61;;""
1835;44656.5714465162;66.8;;""
1836;44656.5714466319;67.9;;""
1837;44656.5714467477;67.4;;""
1838;44656.5714468634;67.7;;""
1839;44656.5714469792;68.2;;""
1840;44656.5714470949;68.8;;""
1841;44656.5714472106;69.6;;""
1842;44656.5714473264;70.4;;""
1843;44656.5714474421;71.1;;""
1844;44656.5714475579;71.4;;""
1845;44656.5714476736;72;;""
1846;44656.5714477893;72.6;;""
1847;44656.5714479051;73.5;;""
1848;44656.5714480208;74;;""
1849;44656.5714481366;74.5;;""
1850;44656.5714482523;74.8;;""
1851;44656.5714483681;75.4;;""
1852;44656.5714484838;75.9;;""
1853;44656.5714485995;76.5;;""
1854;44656.5714487153;77.1;;""
1855;44656.571448831;77.3;;""
1856;44656.5714489468;77.9;;""
1857;44656.5714490625;78.4;;""
1858;44656.5714491782;78.7;;""
1859;44656.571449294;79.3;;""
1860;44656.5714494097;79.8;;""
1861;44656.5714495255;80.1;;""
1862;44656.5714496412;80.6;;""
1863;44656.5714497569;81.2;;""
1864;44656.5714498727;81.5;;""
1865;44656.5714499884;82;;""
1866;44656.5714501042;82.3;;""
1867;44656.5714502199;82.8;;""
1868;44656.5714503357;83.1;;""
1869;44656.5714504514;83.6;;""
1870;44656.5714505671;84;;""
1871;44656.5714506829;84.5;;""
1872;44656.5714507986;84.8;;""
1873;44656.5714509144;85.3;;""
1874;44656.5714510301;85.6;;""
1875;44656.5714511458;86.1;;""
1876;44656.5714512616;86.4;;""
1877;44656.5714513773;87;;""
1878;44656.5714514931;87.2;;""
1879;44656.5714516088;87.5;;""
1880;44656.5714517245;88.1;;""
1881;44656.5714518403;88.4;;""
1882;44656.571451956;88.7;;""
1883;44656.5714520718;89.2;;""
1884;44656.5714521875;89.5;;""
1885;44656.5714523032;90.1;;""
1886;44656.571452419;90.4;;""
1887;44656.5714525347;90.7;;""
1888;44656.5714526505;91.2;;""
1889;44656.5714527662;91.5;;""
1890;44656.5714528819;92;;""
1891;44656.5714529977;92.3;;""
1892;44656.5714531134;92.6;;""
1893;44656.5714532292;93.1;;""
1894;44656.5714533449;93.4;;""
1895;44656.5714534606;93.7;;""
1896;44656.5714535764;94.2;;""
1897;44656.5714536921;94.5;;""
1898;44656.5714538079;94.8;;""
1899;44656.5714539236;95.3;;""
1900;44656.5714540394;95.6;;""
1901;44656.5714541551;95.9;;""
1902;44656.5714542708;96.5;;""
1903;44656.5714543866;96.8;;""
1904;44656.5714545023;97;;""
1905;44656.5714546181;97.6;;""
1906;44656.5714547338;97.9;;""
1907;44656.5714548495;98.2;;""
1908;44656.5714549653;98.7;;""
1909;44656.571455081;99;;""
1910;44656.5714551968;99.3;;""
1911;44656.5714553125;99.6;;""
1912;44656.5714554282;100.1;;""
1913;44656.571455544;100.4;;""
1914;44656.5714556597;100.7;;""
1915;44656.5714557755;101;;""
1916;44656.5714558912;101.3;;""
1917;44656.5714560069;101.6;;""
1918;44656.5714561227;101.8;;""
1919;44656.5714562384;102.4;;""
1920;44656.5714563542;102.4;;""
1921;44656.5714564699;102.7;;""
1922;44656.5714565856;103;;""
1923;44656.5714567014;103;;""
1924;44656.5714568171;103.3;;""
1925;44656.5714569329;103.3;;""
1926;44656.5714570486;103.2;;""
1927;44656.5714571644;102.9;;""
1928;44656.5714572801;102.7;;""
1929;44656.5714573958;102.1;;""
1930;44656.5714575116;101.5;;""
1931;44656.5714576273;100.7;;""
1932;44656.5714577431;99.6;;""
1933;44656.5714578588;98.8;;""
1934;44656.5714579745;97.7;;""
1935;44656.5714580903;96.3;;""
1936;44656.571458206;95.1;;""
1937;44656.5714583218;93.9;;""
1938;44656.5714584375;92.9;;""
1939;44656.5714585532;91.5;;""
1940;44656.571458669;90.4;;""
1941;44656.5714587847;89.3;;""
1942;44656.5714589005;88.5;;""
1943;44656.5714590162;87.4;;""
1944;44656.5714591319;86.5;;""
1945;44656.5714592477;85.6;;""
1946;44656.5714593634;84.8;;""
1947;44656.5714594792;83.9;;""
1948;44656.5714595949;83.1;;""
1949;44656.5714597106;82.6;;""
1950;44656.5714598264;81.9;;""
1951;44656.5714599421;81.1;;""
1952;44656.5714600579;80.5;;""
1953;44656.5714601736;80;;""
1954;44656.5714602893;79.4;;""
1955;44656.5714604051;79.1;;""
1956;44656.5714605208;78.5;;""
1957;44656.5714606366;78;;""
1958;44656.5714607523;77.7;;""
1959;44656.5714608681;77.1;;""
1960;44656.5714609838;76.8;;""
1961;44656.5714610995;76.5;;""
1962;44656.5714612153;76;;""
1963;44656.571461331;75.6;;""
1964;44656.5714614468;75.4;;""
1965;44656.5714615625;75.1;;""
1966;44656.5714616782;74.8;;""
1967;44656.571461794;74.5;;""
1968;44656.5714619097;74.2;;""
1969;44656.5714620255;73.9;;""
1970;44656.5714621412;73.6;;""
1971;44656.5714622569;73.3;;""
1972;44656.5714623727;73;;""
1973;44656.5714624884;72.7;;""
1974;44656.5714626042;72.4;;""
1975;44656.5714627199;72.1;;""
1976;44656.5714628357;71.8;;""
1977;44656.5714629514;71.8;;""
1978;44656.5714630671;71.5;;""
1979;44656.5714631829;71.2;;""
1980;44656.5714632986;71.2;;""
1981;44656.5714634144;70.9;;""
1982;44656.5714635301;70.6;;""
1983;44656.5714636458;70.3;;""
1984;44656.5714637616;70.3;;""
1985;44656.5714638773;70;;""
1986;44656.5714639931;69.8;;""
1987;44656.5714641088;69.7;;""
1988;44656.5714642245;69.5;;""
1989;44656.5714643403;69.4;;""
1990;44656.571464456;69.1;;""
1991;44656.5714645718;69.1;;""
1992;44656.5714646875;68.8;;""
1993;44656.5714648032;68.5;;""
1994;44656.571464919;68.5;;""
1995;44656.5714650347;68.2;;""
1996;44656.5714651505;68.1;;""
1997;44656.5714652662;67.9;;""
1998;44656.5714653819;67.8;;""
1999;44656.5714654977;67.5;;""
2000;44656.5714656134;67.5;;""
2001;44656.5714657292;67.5;;""
2002;44656.5714658449;67.2;;""
2003;44656.5714659606;67.1;;""
2004;44656.5714660764;66.8;;""
2005;44656.5714661921;66.8;;""
2006;44656.5714663079;66.7;;""
2007;44656.5714664236;66.5;;""
2008;44656.5714665394;66.4;;""
2009;44656.5714666551;66.2;;""
2010;44656.5714667708;65.9;;""
2011;44656.5714668866;65.9;;""
2012;44656.5714670023;65.8;;""
2013;44656.5714671181;65.6;;""
2014;44656.5714672338;65.5;;""
2015;44656.5714673495;65.5;;""
2016;44656.5714674653;65.2;;""
2017;44656.571467581;65.2;;""
2018;44656.5714676968;65.1;;""
2019;44656.5714678125;64.8;;""
2020;44656.5714679282;64.8;;""
2021;44656.571468044;64.5;;""
2022;44656.5714681597;64.5;;""
2023;44656.5714682755;64.2;;""
2024;44656.5714683912;64.2;;""
2025;44656.5714685069;64.2;;""
2026;44656.5714686227;64.1;;""
2027;44656.5714687384;63.9;;""
2028;44656.5714688542;63.8;;""
2029;44656.5714689699;63.5;;""
2030;44656.5714690856;63.5;;""
2031;44656.5714692014;63.5;;""
2032;44656.5714693171;63.4;;""
2033;44656.5714694329;63.1;;""
2034;44656.5714695486;63.1;;""
2035;44656.5714696644;63;;""
2036;44656.5714697801;62.8;;""
2037;44656.5714698958;62.8;;""
2038;44656.5714700116;62.7;;""
2039;44656.5714701273;62.4;;""
2040;44656.5714702431;62.4;;""
2041;44656.5714703588;62.1;;""
2042;44656.5714704745;62.1;;""
2043;44656.5714705903;62;;""
2044;44656.571470706;61.8;;""
2045;44656.5714708218;61.7;;""
2046;44656.5714709375;61.7;;""
2047;44656.5714710532;61.4;;""
2048;44656.571471169;61.3;;""
2049;44656.5714712847;61.1;;""
2050;44656.5714714005;61;;""
2051;44656.5714715162;60.7;;""
2052;44656.5714716319;60.7;;""
2053;44656.5714717477;60.4;;""
2054;44656.5714718634;60.4;;""
2055;44656.5714719792;60.1;;""
2056;44656.5714720949;60;;""
2057;44656.5714722107;59.8;;""
2058;44656.5714723264;59.5;;""
2059;44656.5714724421;59.4;;""
2060;44656.5714725579;59.2;;""
2061;44656.5714726736;59.1;;""
2062;44656.5714727894;58.8;;""
2063;44656.5714729051;58.6;;""
2064;44656.5714730208;58.5;;""
2065;44656.5714731366;58.3;;""
2066;44656.5714732523;58.2;;""
2067;44656.5714733681;57.9;;""
2068;44656.5714734838;57.9;;""
2069;44656.5714735995;57.6;;""
2070;44656.5714737153;57.5;;""
2071;44656.571473831;57.2;;""
2072;44656.5714739468;56.9;;""
2073;44656.5714740625;56.9;;""
2074;44656.5714741782;56.6;;""
2075;44656.571474294;56.6;;""
2076;44656.5714744097;56.3;;""
2077;44656.5714745255;56.2;;""
2078;44656.5714746412;56;;""
2079;44656.5714747569;55.7;;""
2080;44656.5714748727;55.7;;""
2081;44656.5714749884;55.4;;""
2082;44656.5714751042;55.3;;""
2083;44656.5714752199;55.1;;""
2084;44656.5714753357;54.8;;""
2085;44656.5714754514;54.7;;""
2086;44656.5714755671;54.5;;""
2087;44656.5714756829;54.2;;""
2088;44656.5714757986;53.9;;""
2089;44656.5714759144;53.6;;""
2090;44656.5714760301;53.3;;""
2091;44656.5714761458;53.1;;""
2092;44656.5714762616;52.8;;""
2093;44656.5714763773;52.3;;""
2094;44656.5714764931;51.7;;""
2095;44656.5714766088;50.6;;""
2096;44656.5714767245;48.6;;""
2097;44656.5714768403;47;;""
2098;44656.571476956;56.2;;""
2099;44656.5714770718;65.5;;""
2100;44656.5714771875;68.4;;""
2101;44656.5714773032;67.9;;""
2102;44656.571477419;67.3;;""
2103;44656.5714775347;67.3;;""
2104;44656.5714776505;68.1;;""
2105;44656.5714777662;68.7;;""
2106;44656.5714778819;69.2;;""
2107;44656.5714779977;70.1;;""
2108;44656.5714781134;70.6;;""
2109;44656.5714782292;71.2;;""
2110;44656.5714783449;71.9;;""
2111;44656.5714784606;72.4;;""
2112;44656.5714785764;73.2;;""
2113;44656.5714786921;73.7;;""
2114;44656.5714788079;74.3;;""
2115;44656.5714789236;74.5;;""
2116;44656.5714790394;75.1;;""
2117;44656.5714791551;75.6;;""
2118;44656.5714792708;76.1;;""
2119;44656.5714793866;76.4;;""
2120;44656.5714795023;77;;""
2121;44656.5714796181;77.5;;""
2122;44656.5714797338;78.1;;""
2123;44656.5714798495;78.6;;""
2124;44656.5714799653;78.9;;""
2125;44656.571480081;79.2;;""
2126;44656.5714801968;79.7;;""
2127;44656.5714803125;80.3;;""
2128;44656.5714804282;80.6;;""
2129;44656.571480544;81.1;;""
2130;44656.5714806597;81.4;;""
2131;44656.5714807755;82;;""
2132;44656.5714808912;82.3;;""
2133;44656.5714810069;82.6;;""
2134;44656.5714811227;83.1;;""
2135;44656.5714812384;83.7;;""
2136;44656.5714813542;84;;""
2137;44656.5714814699;84.3;;""
2138;44656.5714815856;84.9;;""
2139;44656.5714817014;85.2;;""
2140;44656.5714818171;85.5;;""
2141;44656.5714819329;86.1;;""
2142;44656.5714820486;86.4;;""
2143;44656.5714821643;86.9;;""
2144;44656.5714822801;87.3;;""
2145;44656.5714823958;87.6;;""
2146;44656.5714825116;87.9;;""
2147;44656.5714826273;88.4;;""
2148;44656.5714827431;88.7;;""
2149;44656.5714828588;89;;""
2150;44656.5714829745;89.5;;""
2151;44656.5714830903;90.1;;""
2152;44656.571483206;90.3;;""
2153;44656.5714833218;90.7;;""
2154;44656.5714834375;90.9;;""
2155;44656.5714835532;91.5;;""
2156;44656.571483669;91.8;;""
2157;44656.5714837847;92.1;;""
2158;44656.5714839005;92.4;;""
2159;44656.5714840162;92.9;;""
2160;44656.5714841319;93.2;;""
2161;44656.5714842477;93.5;;""
2162;44656.5714843634;93.8;;""
2163;44656.5714844792;94.4;;""
2164;44656.5714845949;94.7;;""
2165;44656.5714847107;95;;""
2166;44656.5714848264;95.5;;""
2167;44656.5714849421;95.8;;""
2168;44656.5714850579;96.1;;""
2169;44656.5714851736;96.7;;""
2170;44656.5714852894;97;;""
2171;44656.5714854051;97.3;;""
2172;44656.5714855208;97.6;;""
2173;44656.5714856366;97.9;;""
2174;44656.5714857523;98.5;;""
2175;44656.5714858681;98.7;;""
2176;44656.5714859838;99;;""
2177;44656.5714860995;99.4;;""
2178;44656.5714862153;100;;""
2179;44656.571486331;100.3;;""
2180;44656.5714864468;100.6;;""
2181;44656.5714865625;100.9;;""
2182;44656.5714866782;101.2;;""
2183;44656.571486794;101.5;;""
2184;44656.5714869097;101.8;;""
2185;44656.5714870255;102.1;;""
2186;44656.5714871412;102.4;;""
2187;44656.5714872569;102.7;;""
2188;44656.5714873727;102.7;;""
2189;44656.5714874884;102.7;;""
2190;44656.5714876042;102.8;;""
2191;44656.5714877199;102.7;;""
2192;44656.5714878356;102.4;;""
2193;44656.5714879514;101.9;;""
2194;44656.5714880671;101.3;;""
2195;44656.5714881829;100.6;;""
2196;44656.5714882986;99.8;;""
2197;44656.5714884144;98.7;;""
2198;44656.5714885301;97.9;;""
2199;44656.5714886458;96.8;;""
2200;44656.5714887616;95.4;;""
2201;44656.5714888773;94.3;;""
2202;44656.5714889931;92.9;;""
2203;44656.5714891088;91.7;;""
2204;44656.5714892245;90.7;;""
2205;44656.5714893403;89.6;;""
2206;44656.571489456;88.4;;""
2207;44656.5714895718;87.3;;""
2208;44656.5714896875;86.5;;""
2209;44656.5714898032;85.6;;""
2210;44656.571489919;84.7;;""
2211;44656.5714900347;83.8;;""
2212;44656.5714901505;83.3;;""
2213;44656.5714902662;82.4;;""
2214;44656.5714903819;81.9;;""
2215;44656.5714904977;81.3;;""
2216;44656.5714906134;80.5;;""
2217;44656.5714907292;79.9;;""
2218;44656.5714908449;79.6;;""
2219;44656.5714909606;79;;""
2220;44656.5714910764;78.5;;""
2221;44656.5714911921;78.2;;""
2222;44656.5714913079;77.6;;""
2223;44656.5714914236;77.1;;""
2224;44656.5714915394;76.8;;""
2225;44656.5714916551;76.5;;""
2226;44656.5714917708;75.9;;""
2227;44656.5714918866;75.6;;""
2228;44656.5714920023;75.4;;""
2229;44656.5714921181;75;;""
2230;44656.5714922338;74.7;;""
2231;44656.5714923495;74.2;;""
2232;44656.5714924653;74.2;;""
2233;44656.571492581;73.9;;""
2234;44656.5714926968;73.6;;""
2235;44656.5714928125;73.3;;""
2236;44656.5714929282;73;;""
2237;44656.571493044;72.7;;""
2238;44656.5714931597;72.4;;""
2239;44656.5714932755;72.1;;""
2240;44656.5714933912;71.9;;""
2241;44656.5714935069;71.8;;""
2242;44656.5714936227;71.5;;""
2243;44656.5714937384;71.2;;""
2244;44656.5714938542;71.2;;""
2245;44656.5714939699;70.9;;""
2246;44656.5714940856;70.6;;""
2247;44656.5714942014;70.5;;""
2248;44656.5714943171;70.3;;""
2249;44656.5714944329;70;;""
2250;44656.5714945486;69.9;;""
2251;44656.5714946643;69.7;;""
2252;44656.5714947801;69.6;;""
2253;44656.5714948958;69.3;;""
2254;44656.5714950116;69.1;;""
2255;44656.5714951273;69;;""
2256;44656.5714952431;68.7;;""
2257;44656.5714953588;68.7;;""
2258;44656.5714954745;68.4;;""
2259;44656.5714955903;68.3;;""
2260;44656.571495706;68;;""
2261;44656.5714958218;68;;""
2262;44656.5714959375;68;;""
2263;44656.5714960532;67.7;;""
2264;44656.571496169;67.4;;""
2265;44656.5714962847;67.4;;""
2266;44656.5714964005;67.3;;""
2267;44656.5714965162;67.1;;""
2268;44656.5714966319;67;;""
2269;44656.5714967477;66.7;;""
2270;44656.5714968634;66.7;;""
2271;44656.5714969792;66.4;;""
2272;44656.5714970949;66.4;;""
2273;44656.5714972107;66.4;;""
2274;44656.5714973264;66.1;;""
2275;44656.5714974421;66;;""
2276;44656.5714975579;65.7;;""
2277;44656.5714976736;65.7;;""
2278;44656.5714977894;65.7;;""
2279;44656.5714979051;65.4;;""
2280;44656.5714980208;65.4;;""
2281;44656.5714981366;65.1;;""
2282;44656.5714982523;65;;""
2283;44656.5714983681;65;;""
2284;44656.5714984838;64.7;;""
2285;44656.5714985995;64.7;;""
2286;44656.5714987153;64.6;;""
2287;44656.571498831;64.4;;""
2288;44656.5714989468;64.3;;""
2289;44656.5714990625;64;;""
2290;44656.5714991782;64;;""
2291;44656.571499294;63.9;;""
2292;44656.5714994097;63.7;;""
2293;44656.5714995255;63.6;;""
2294;44656.5714996412;63.6;;""
2295;44656.5714997569;63.3;;""
2296;44656.5714998727;63.2;;""
2297;44656.5714999884;63;;""
2298;44656.5715001042;63;;""
2299;44656.5715002199;62.9;;""
2300;44656.5715003356;62.6;;""
2301;44656.5715004514;62.6;;""
2302;44656.5715005671;62.5;;""
2303;44656.5715006829;62.3;;""
2304;44656.5715007986;62.2;;""
2305;44656.5715009144;62;;""
2306;44656.5715010301;61.9;;""
2307;44656.5715011458;61.6;;""
2308;44656.5715012616;61.6;;""
2309;44656.5715013773;61.3;;""
2310;44656.5715014931;61.3;;""
2311;44656.5715016088;61;;""
2312;44656.5715017245;61;;""
2313;44656.5715018403;60.6;;""
2314;44656.571501956;60.6;;""
2315;44656.5715020718;60.6;;""
2316;44656.5715021875;60.3;;""
2317;44656.5715023032;60;;""
2318;44656.571502419;60;;""
2319;44656.5715025347;59.7;;""
2320;44656.5715026505;59.6;;""
2321;44656.5715027662;59.4;;""
2322;44656.5715028819;59.3;;""
2323;44656.5715029977;59;;""
2324;44656.5715031134;58.7;;""
2325;44656.5715032292;58.7;;""
2326;44656.5715033449;58.7;;""
2327;44656.5715034606;58.4;;""
2328;44656.5715035764;58.3;;""
2329;44656.5715036921;58;;""
2330;44656.5715038079;57.7;;""
2331;44656.5715039236;57.7;;""
2332;44656.5715040394;57.4;;""
2333;44656.5715041551;57.4;;""
2334;44656.5715042708;57.1;;""
2335;44656.5715043866;56.8;;""
2336;44656.5715045023;56.8;;""
2337;44656.5715046181;56.5;;""
2338;44656.5715047338;56.5;;""
2339;44656.5715048495;56.2;;""
2340;44656.5715049653;56.2;;""
2341;44656.571505081;55.9;;""
2342;44656.5715051968;55.6;;""
2343;44656.5715053125;55.6;;""
2344;44656.5715054282;55.3;;""
2345;44656.571505544;55.2;;""
2346;44656.5715056597;54.9;;""
2347;44656.5715057755;54.6;;""
2348;44656.5715058912;54.3;;""
2349;44656.5715060069;54.1;;""
2350;44656.5715061227;53.8;;""
2351;44656.5715062384;53.2;;""
2352;44656.5715063542;52.7;;""
2353;44656.5715064699;51.8;;""
2354;44656.5715065856;50.5;;""
2355;44656.5715067014;48.7;;""
2356;44656.5715068171;46.9;;""
2357;44656.5715069329;55.8;;""
2358;44656.5715070486;66.4;;""
2359;44656.5715071644;68.7;;""
2360;44656.5715072801;67.9;;""
2361;44656.5715073958;67.6;;""
2362;44656.5715075116;67.8;;""
2363;44656.5715076273;68.4;;""
2364;44656.5715077431;69;;""
2365;44656.5715078588;69.8;;""
2366;44656.5715079745;70.4;;""
2367;44656.5715080903;70.9;;""
2368;44656.571508206;71.5;;""
2369;44656.5715083218;72.4;;""
2370;44656.5715084375;73;;""
2371;44656.5715085532;73.5;;""
2372;44656.571508669;74;;""
2373;44656.5715087847;74.6;;""
2374;44656.5715089005;75.1;;""
2375;44656.5715090162;75.7;;""
2376;44656.5715091319;75.9;;""
2377;44656.5715092477;76.5;;""
2378;44656.5715093634;77;;""
2379;44656.5715094792;77.6;;""
2380;44656.5715095949;78.1;;""
2381;44656.5715097107;78.5;;""
2382;44656.5715098264;79;;""
2383;44656.5715099421;79.3;;""
2384;44656.5715100579;79.8;;""
2385;44656.5715101736;80.4;;""
2386;44656.5715102894;80.7;;""
2387;44656.5715104051;81.2;;""
2388;44656.5715105208;81.5;;""
2389;44656.5715106366;82.1;;""
2390;44656.5715107523;82.6;;""
2391;44656.5715108681;82.9;;""
2392;44656.5715109838;83.5;;""
2393;44656.5715110995;83.8;;""
2394;44656.5715112153;84;;""
2395;44656.571511331;84.4;;""
2396;44656.5715114468;84.9;;""
2397;44656.5715115625;85.2;;""
2398;44656.5715116782;85.7;;""
2399;44656.571511794;86;;""
2400;44656.5715119097;86.6;;""
2401;44656.5715120255;86.8;;""
2402;44656.5715121412;87.1;;""
2403;44656.5715122569;87.7;;""
2404;44656.5715123727;88;;""
2405;44656.5715124884;88.6;;""
2406;44656.5715126042;88.8;;""
2407;44656.5715127199;89.1;;""
2408;44656.5715128356;89.7;;""
2409;44656.5715129514;90;;""
2410;44656.5715130671;90.5;;""
2411;44656.5715131829;90.8;;""
2412;44656.5715132986;91.1;;""
2413;44656.5715134144;91.6;;""
2414;44656.5715135301;91.9;;""
2415;44656.5715136458;92.2;;""
2416;44656.5715137616;92.5;;""
2417;44656.5715138773;93.1;;""
2418;44656.5715139931;93.4;;""
2419;44656.5715141088;93.7;;""
2420;44656.5715142245;94;;""
2421;44656.5715143403;94.6;;""
2422;44656.571514456;94.9;;""
2423;44656.5715145718;95.2;;""
2424;44656.5715146875;95.5;;""
2425;44656.5715148032;96;;""
2426;44656.571514919;96.3;;""
2427;44656.5715150347;96.6;;""
2428;44656.5715151505;97.1;;""
2429;44656.5715152662;97.4;;""
2430;44656.5715153819;97.7;;""
2431;44656.5715154977;98;;""
2432;44656.5715156134;98.5;;""
2433;44656.5715157292;98.8;;""
2434;44656.5715158449;99.1;;""
2435;44656.5715159606;99.6;;""
2436;44656.5715160764;100;;""
2437;44656.5715161921;100.3;;""
2438;44656.5715163079;100.5;;""
2439;44656.5715164236;100.8;;""
2440;44656.5715165393;101.4;;""
2441;44656.5715166551;101.6;;""
2442;44656.5715167708;101.9;;""
2443;44656.5715168866;102.2;;""
2444;44656.5715170023;102.3;;""
2445;44656.5715171181;102.5;;""
2446;44656.5715172338;102.6;;""
2447;44656.5715173495;102.6;;""
2448;44656.5715174653;102.6;;""
2449;44656.571517581;102.6;;""
2450;44656.5715176968;102.3;;""
2451;44656.5715178125;101.8;;""
2452;44656.5715179282;101.2;;""
2453;44656.571518044;100.4;;""
2454;44656.5715181597;99.4;;""
2455;44656.5715182755;98.4;;""
2456;44656.5715183912;97.5;;""
2457;44656.5715185069;96.2;;""
2458;44656.5715186227;95.1;;""
2459;44656.5715187384;93.7;;""
2460;44656.5715188542;92.5;;""
2461;44656.5715189699;91.4;;""
2462;44656.5715190857;90.2;;""
2463;44656.5715192014;89.1;;""
2464;44656.5715193171;88;;""
2465;44656.5715194329;86.9;;""
2466;44656.5715195486;85.9;;""
2467;44656.5715196644;85.1;;""
2468;44656.5715197801;84.2;;""
2469;44656.5715198958;83.4;;""
2470;44656.5715200116;82.8;;""
2471;44656.5715201273;81.9;;""
2472;44656.5715202431;81.3;;""
2473;44656.5715203588;80.5;;""
2474;44656.5715204745;79.9;;""
2475;44656.5715205903;79.4;;""
2476;44656.571520706;79.1;;""
2477;44656.5715208218;78.5;;""
2478;44656.5715209375;78;;""
2479;44656.5715210532;77.5;;""
2480;44656.571521169;76.9;;""
2481;44656.5715212847;76.6;;""
2482;44656.5715214005;76.3;;""
2483;44656.5715215162;75.7;;""
2484;44656.5715216319;75.5;;""
2485;44656.5715217477;75.2;;""
2486;44656.5715218634;74.9;;""
2487;44656.5715219792;74.6;;""
2488;44656.5715220949;74.3;;""
2489;44656.5715222106;73.9;;""
2490;44656.5715223264;73.6;;""
2491;44656.5715224421;73.4;;""
2492;44656.5715225579;72.8;;""
2493;44656.5715226736;72.8;;""
2494;44656.5715227894;72.5;;""
2495;44656.5715229051;72.1;;""
2496;44656.5715230208;71.8;;""
2497;44656.5715231366;71.5;;""
2498;44656.5715232523;71.5;;""
2499;44656.5715233681;71.2;;""
2500;44656.5715234838;71.1;;""
2501;44656.5715235995;70.9;;""
2502;44656.5715237153;70.6;;""
2503;44656.571523831;70.5;;""
2504;44656.5715239468;70;;""
2505;44656.5715240625;70;;""
2506;44656.5715241782;69.9;;""
2507;44656.571524294;69.6;;""
2508;44656.5715244097;69.3;;""
2509;44656.5715245255;69.3;;""
2510;44656.5715246412;69;;""
2511;44656.5715247569;69;;""
2512;44656.5715248727;68.7;;""
2513;44656.5715249884;68.4;;""
2514;44656.5715251042;68.4;;""
2515;44656.5715252199;68.1;;""
2516;44656.5715253356;68;;""
2517;44656.5715254514;67.8;;""
2518;44656.5715255671;67.8;;""
2519;44656.5715256829;67.5;;""
2520;44656.5715257986;67.4;;""
2521;44656.5715259144;67.1;;""
2522;44656.5715260301;67.1;;""
2523;44656.5715261458;67;;""
2524;44656.5715262616;66.8;;""
2525;44656.5715263773;66.7;;""
2526;44656.5715264931;66.5;;""
2527;44656.5715266088;66.4;;""
2528;44656.5715267245;66.1;;""
2529;44656.5715268403;66.1;;""
2530;44656.571526956;65.8;;""
2531;44656.5715270718;65.8;;""
2532;44656.5715271875;65.8;;""
2533;44656.5715273032;65.5;;""
2534;44656.571527419;65.4;;""
2535;44656.5715275347;65.1;;""
2536;44656.5715276505;65.1;;""
2537;44656.5715277662;65.1;;""
2538;44656.5715278819;64.8;;""
2539;44656.5715279977;64.5;;""
2540;44656.5715281134;64.5;;""
2541;44656.5715282292;64.2;;""
2542;44656.5715283449;64.2;;""
2543;44656.5715284606;64.1;;""
2544;44656.5715285764;63.8;;""
2545;44656.5715286921;63.8;;""
2546;44656.5715288079;63.7;;""
2547;44656.5715289236;63.5;;""
2548;44656.5715290393;63.4;;""
2549;44656.5715291551;63.1;;""
2550;44656.5715292708;63.1;;""
2551;44656.5715293866;63.1;;""
2552;44656.5715295023;62.8;;""
2553;44656.5715296181;62.8;;""
2554;44656.5715297338;62.7;;""
2555;44656.5715298495;62.5;;""
2556;44656.5715299653;62.4;;""
2557;44656.571530081;62.2;;""
2558;44656.5715301968;62.1;;""
2559;44656.5715303125;61.8;;""
2560;44656.5715304282;61.5;;""
2561;44656.571530544;61.5;;""
2562;44656.5715306597;61.2;;""
2563;44656.5715307755;61.2;;""
2564;44656.5715308912;60.9;;""
2565;44656.5715310069;60.9;;""
2566;44656.5715311227;60.6;;""
2567;44656.5715312384;60.3;;""
2568;44656.5715313542;60.3;;""
2569;44656.5715314699;60;;""
2570;44656.5715315857;60;;""
2571;44656.5715317014;59.7;;""
2572;44656.5715318171;59.6;;""
2573;44656.5715319329;59.4;;""
2574;44656.5715320486;59.1;;""
2575;44656.5715321644;58.8;;""
2576;44656.5715322801;58.8;;""
2577;44656.5715323958;58.5;;""
2578;44656.5715325116;58.2;;""
2579;44656.5715326273;58.2;;""
2580;44656.5715327431;57.9;;""
2581;44656.5715328588;57.6;;""
2582;44656.5715329745;57.6;;""
2583;44656.5715330903;57.3;;""
2584;44656.571533206;57.2;;""
2585;44656.5715333218;57;;""
2586;44656.5715334375;56.7;;""
2587;44656.5715335532;56.6;;""
2588;44656.571533669;56.4;;""
2589;44656.5715337847;56.1;;""
2590;44656.5715339005;56;;""
2591;44656.5715340162;55.7;;""
2592;44656.5715341319;55.4;;""
2593;44656.5715342477;55.4;;""
2594;44656.5715343634;55.1;;""
2595;44656.5715344792;54.8;;""
2596;44656.5715345949;54.5;;""
2597;44656.5715347106;54.2;;""
2598;44656.5715348264;53.7;;""
2599;44656.5715349421;53.1;;""
2600;44656.5715350579;52.8;;""
2601;44656.5715351736;52.3;;""
2602;44656.5715352894;52;;""
2603;44656.5715354051;51.7;;""
2604;44656.5715355208;51.2;;""
2605;44656.5715356366;50.9;;""
2606;44656.5715357523;50.6;;""
2607;44656.5715358681;50.1;;""
2608;44656.5715359838;49.8;;""
2609;44656.5715360995;58.6;;""
2610;44656.5715362153;65.6;;""
2611;44656.571536331;67.3;;""
2612;44656.5715364468;67;;""
