﻿
******************************************************
GDUSB FastView (x64) V1.02 CSV-Export
******************************************************
0.300 mm
20.4 C******************************************************
Cycletime: 00:00:00.0100000
correzione offset: 0
correzione scala: 0
Duration of measuring (within trigger range): 00:00:27.3600000
******************************************************
File Name
C:\Users\student\Desktop\Daten\moscato-saporito\triton-3-1\380 01524.csv
******************************************************

Index;Tempo;Value;Error;Comment
1;44656.561141713;162.8;;""
2;44656.5611418287;161.1;;""
3;44656.5611419444;158.2;;""
4;44656.5611420602;153.7;;""
5;44656.5611421759;147.7;;""
6;44656.5611422917;141.9;;""
7;44656.5611424074;137.1;;""
8;44656.5611425231;134.2;;""
9;44656.5611426389;132.1;;""
10;44656.5611427546;130.1;;""
11;44656.5611428704;128.4;;""
12;44656.5611429861;126.5;;""
13;44656.5611431019;125.3;;""
14;44656.5611432176;124.2;;""
15;44656.5611433333;122.8;;""
16;44656.5611434491;121.9;;""
17;44656.5611435648;120.9;;""
18;44656.5611436806;119.9;;""
19;44656.5611437963;119.3;;""
20;44656.561143912;118.5;;""
21;44656.5611440278;117.6;;""
22;44656.5611441435;116.6;;""
23;44656.5611442593;116.1;;""
24;44656.561144375;115.8;;""
25;44656.5611444907;114.6;;""
26;44656.5611446065;114;;""
27;44656.5611447222;113.8;;""
28;44656.561144838;113;;""
29;44656.5611449537;112.4;;""
30;44656.5611450694;112.2;;""
31;44656.5611451852;111.3;;""
32;44656.5611453009;110.7;;""
33;44656.5611454167;110.5;;""
34;44656.5611455324;109.9;;""
35;44656.5611456481;109.7;;""
36;44656.5611457639;109.1;;""
37;44656.5611458796;108.5;;""
38;44656.5611459954;108.2;;""
39;44656.5611461111;108.3;;""
40;44656.5611462269;107.5;;""
41;44656.5611463426;106.6;;""
42;44656.5611464583;106.9;;""
43;44656.5611465741;107;;""
44;44656.5611466898;105.7;;""
45;44656.5611468056;105.9;;""
46;44656.5611469213;105.9;;""
47;44656.561147037;104.9;;""
48;44656.5611471528;104.9;;""
49;44656.5611472685;104.7;;""
50;44656.5611473843;103.8;;""
51;44656.5611475;103.9;;""
52;44656.5611476157;103.6;;""
53;44656.5611477315;103.3;;""
54;44656.5611478472;103.3;;""
55;44656.561147963;102.7;;""
56;44656.5611480787;102.4;;""
57;44656.5611481944;102.7;;""
58;44656.5611483102;101.6;;""
59;44656.5611484259;101.3;;""
60;44656.5611485417;102.1;;""
61;44656.5611486574;100.8;;""
62;44656.5611487732;100.5;;""
63;44656.5611488889;101.2;;""
64;44656.5611490046;100.3;;""
65;44656.5611491204;99.8;;""
66;44656.5611492361;100.6;;""
67;44656.5611493519;99.8;;""
68;44656.5611494676;99.2;;""
69;44656.5611495833;99.6;;""
70;44656.5611496991;99;;""
71;44656.5611498148;98.7;;""
72;44656.5611499306;98.8;;""
73;44656.5611500463;98.7;;""
74;44656.561150162;98.5;;""
75;44656.5611502778;97.9;;""
76;44656.5611503935;97.8;;""
77;44656.5611505093;97.9;;""
78;44656.561150625;97.3;;""
79;44656.5611507407;97.3;;""
80;44656.5611508565;97.3;;""
81;44656.5611509722;96.7;;""
82;44656.561151088;96.7;;""
83;44656.5611512037;96.7;;""
84;44656.5611513194;96.1;;""
85;44656.5611514352;96.1;;""
86;44656.5611515509;96.1;;""
87;44656.5611516667;95.8;;""
88;44656.5611517824;95.8;;""
89;44656.5611518981;95.5;;""
90;44656.5611520139;95.2;;""
91;44656.5611521296;95.2;;""
92;44656.5611522454;94.9;;""
93;44656.5611523611;94.6;;""
94;44656.5611524769;94.6;;""
95;44656.5611525926;94.6;;""
96;44656.5611527083;94.3;;""
97;44656.5611528241;93.8;;""
98;44656.5611529398;94;;""
99;44656.5611530556;93.7;;""
100;44656.5611531713;93.4;;""
101;44656.561153287;93.4;;""
102;44656.5611534028;93.2;;""
103;44656.5611535185;93.1;;""
104;44656.5611536343;93.1;;""
105;44656.56115375;92.8;;""
106;44656.5611538657;92.7;;""
107;44656.5611539815;92.4;;""
108;44656.5611540972;92.1;;""
109;44656.561154213;92.1;;""
110;44656.5611543287;91.8;;""
111;44656.5611544444;91.5;;""
112;44656.5611545602;91.4;;""
113;44656.5611546759;90.8;;""
114;44656.5611547917;90.9;;""
115;44656.5611549074;90.6;;""
116;44656.5611550231;88.7;;""
117;44656.5611551389;88.2;;""
118;44656.5611552546;86.4;;""
119;44656.5611553704;81.5;;""
120;44656.5611554861;77.8;;""
121;44656.5611556018;76.9;;""
122;44656.5611557176;91.2;;""
123;44656.5611558333;102.8;;""
124;44656.5611559491;103.9;;""
125;44656.5611560648;104.1;;""
126;44656.5611561806;105.2;;""
127;44656.5611562963;106.3;;""
128;44656.561156412;107.1;;""
129;44656.5611565278;108;;""
130;44656.5611566435;108.9;;""
131;44656.5611567593;109.5;;""
132;44656.561156875;110.1;;""
133;44656.5611569907;111.1;;""
134;44656.5611571065;111.6;;""
135;44656.5611572222;112.4;;""
136;44656.561157338;113.2;;""
137;44656.5611574537;113.5;;""
138;44656.5611575694;114.1;;""
139;44656.5611576852;114.9;;""
140;44656.5611578009;115.5;;""
141;44656.5611579167;116;;""
142;44656.5611580324;116.6;;""
143;44656.5611581482;117.1;;""
144;44656.5611582639;117.7;;""
145;44656.5611583796;118.3;;""
146;44656.5611584954;118.9;;""
147;44656.5611586111;119.2;;""
148;44656.5611587269;119.7;;""
149;44656.5611588426;120.1;;""
150;44656.5611589583;120.4;;""
151;44656.5611590741;121.5;;""
152;44656.5611591898;121.8;;""
153;44656.5611593056;122.1;;""
154;44656.5611594213;122.9;;""
155;44656.561159537;123.2;;""
156;44656.5611596528;123.8;;""
157;44656.5611597685;124.3;;""
158;44656.5611598843;124.6;;""
159;44656.56116;125.2;;""
160;44656.5611601157;125.5;;""
161;44656.5611602315;126;;""
162;44656.5611603472;126.6;;""
163;44656.561160463;127.1;;""
164;44656.5611605787;127.7;;""
165;44656.5611606944;128;;""
166;44656.5611608102;128.5;;""
167;44656.5611609259;129.1;;""
168;44656.5611610417;129.4;;""
169;44656.5611611574;129.7;;""
170;44656.5611612731;130.3;;""
171;44656.5611613889;130.9;;""
172;44656.5611615046;131.1;;""
173;44656.5611616204;131.8;;""
174;44656.5611617361;132.3;;""
175;44656.5611618519;132.6;;""
176;44656.5611619676;133.2;;""
177;44656.5611620833;133.4;;""
178;44656.5611621991;134;;""
179;44656.5611623148;134.6;;""
180;44656.5611624306;134.9;;""
181;44656.5611625463;135.5;;""
182;44656.561162662;135.8;;""
183;44656.5611627778;136.1;;""
184;44656.5611628935;136.7;;""
185;44656.5611630093;137;;""
186;44656.561163125;137.5;;""
187;44656.5611632407;138.1;;""
188;44656.5611633565;138.5;;""
189;44656.5611634722;138.8;;""
190;44656.561163588;139.4;;""
191;44656.5611637037;139.6;;""
192;44656.5611638194;140.2;;""
193;44656.5611639352;140.5;;""
194;44656.5611640509;141;;""
195;44656.5611641667;141.3;;""
196;44656.5611642824;141.9;;""
197;44656.5611643981;142.2;;""
198;44656.5611645139;142.8;;""
199;44656.5611646296;143.1;;""
200;44656.5611647454;143.4;;""
201;44656.5611648611;143.9;;""
202;44656.5611649769;144.2;;""
203;44656.5611650926;144.8;;""
204;44656.5611652083;145.1;;""
205;44656.5611653241;145.4;;""
206;44656.5611654398;146;;""
207;44656.5611655556;146.3;;""
208;44656.5611656713;146.8;;""
209;44656.561165787;147.1;;""
210;44656.5611659028;147.4;;""
211;44656.5611660185;148;;""
212;44656.5611661343;148.2;;""
213;44656.56116625;148.8;;""
214;44656.5611663657;149.3;;""
215;44656.5611664815;149.6;;""
216;44656.5611665972;149.9;;""
217;44656.561166713;150.5;;""
218;44656.5611668287;150.8;;""
219;44656.5611669444;151.1;;""
220;44656.5611670602;151.4;;""
221;44656.5611671759;152;;""
222;44656.5611672917;152.3;;""
223;44656.5611674074;152.5;;""
224;44656.5611675231;153.1;;""
225;44656.5611676389;153.4;;""
226;44656.5611677546;153.7;;""
227;44656.5611678704;154.2;;""
228;44656.5611679861;154.5;;""
229;44656.5611681018;154.8;;""
230;44656.5611682176;155.4;;""
231;44656.5611683333;155.7;;""
232;44656.5611684491;156;;""
233;44656.5611685648;156.5;;""
234;44656.5611686806;156.8;;""
235;44656.5611687963;157.1;;""
236;44656.561168912;157.7;;""
237;44656.5611690278;157.9;;""
238;44656.5611691435;158.2;;""
239;44656.5611692593;158.8;;""
240;44656.561169375;159.1;;""
241;44656.5611694907;159.4;;""
242;44656.5611696065;159.7;;""
243;44656.5611697222;160.1;;""
244;44656.561169838;160.6;;""
245;44656.5611699537;160.9;;""
246;44656.5611700694;161.2;;""
247;44656.5611701852;161.5;;""
248;44656.5611703009;161.8;;""
249;44656.5611704167;162.3;;""
250;44656.5611705324;162.6;;""
251;44656.5611706482;162.9;;""
252;44656.5611707639;163.2;;""
253;44656.5611708796;163.5;;""
254;44656.5611709954;163.5;;""
255;44656.5611711111;163.5;;""
256;44656.5611712269;163.2;;""
257;44656.5611713426;162.1;;""
258;44656.5611714583;160.6;;""
259;44656.5611715741;157.6;;""
260;44656.5611716898;153.4;;""
261;44656.5611718056;147.5;;""
262;44656.5611719213;141.7;;""
263;44656.561172037;137.5;;""
264;44656.5611721528;134.7;;""
265;44656.5611722685;132.4;;""
266;44656.5611723843;130.2;;""
267;44656.5611725;128.8;;""
268;44656.5611726157;127.1;;""
269;44656.5611727315;125.7;;""
270;44656.5611728472;124.3;;""
271;44656.561172963;123.1;;""
272;44656.5611730787;122.3;;""
273;44656.5611731944;121.1;;""
274;44656.5611733102;120.2;;""
275;44656.5611734259;119.4;;""
276;44656.5611735417;118.3;;""
277;44656.5611736574;117.8;;""
278;44656.5611737731;117;;""
279;44656.5611738889;116.4;;""
280;44656.5611740046;115.8;;""
281;44656.5611741204;115;;""
282;44656.5611742361;114.4;;""
283;44656.5611743519;113.8;;""
284;44656.5611744676;113.3;;""
285;44656.5611745833;112.8;;""
286;44656.5611746991;112.4;;""
287;44656.5611748148;111.7;;""
288;44656.5611749306;111.1;;""
289;44656.5611750463;110.9;;""
290;44656.561175162;110.3;;""
291;44656.5611752778;110;;""
292;44656.5611753935;109.5;;""
293;44656.5611755093;108.9;;""
294;44656.561175625;108.6;;""
295;44656.5611757407;108.4;;""
296;44656.5611758565;107.8;;""
297;44656.5611759722;107.5;;""
298;44656.561176088;107.2;;""
299;44656.5611762037;106.7;;""
300;44656.5611763194;106.4;;""
301;44656.5611764352;106.1;;""
302;44656.5611765509;105.8;;""
303;44656.5611766667;105.6;;""
304;44656.5611767824;105.2;;""
305;44656.5611768981;104.7;;""
306;44656.5611770139;104.4;;""
307;44656.5611771296;104.4;;""
308;44656.5611772454;103.8;;""
309;44656.5611773611;103.7;;""
310;44656.5611774769;103.5;;""
311;44656.5611775926;103.1;;""
312;44656.5611777083;102.9;;""
313;44656.5611778241;102.6;;""
314;44656.5611779398;102.3;;""
315;44656.5611780556;102;;""
316;44656.5611781713;101.8;;""
317;44656.561178287;101.5;;""
318;44656.5611784028;101.2;;""
319;44656.5611785185;101.1;;""
320;44656.5611786343;100.9;;""
321;44656.56117875;100.6;;""
322;44656.5611788657;100.3;;""
323;44656.5611789815;100;;""
324;44656.5611790972;99.7;;""
325;44656.561179213;99.7;;""
326;44656.5611793287;99.4;;""
327;44656.5611794444;99.1;;""
328;44656.5611795602;99.1;;""
329;44656.5611796759;98.8;;""
330;44656.5611797917;98.5;;""
331;44656.5611799074;98.4;;""
332;44656.5611800231;98.2;;""
333;44656.5611801389;97.9;;""
334;44656.5611802546;97.8;;""
335;44656.5611803704;97.5;;""
336;44656.5611804861;97.2;;""
337;44656.5611806019;97.2;;""
338;44656.5611807176;96.9;;""
339;44656.5611808333;96.6;;""
340;44656.5611809491;96.6;;""
341;44656.5611810648;96.3;;""
342;44656.5611811806;96.3;;""
343;44656.5611812963;96;;""
344;44656.561181412;95.7;;""
345;44656.5611815278;95.7;;""
346;44656.5611816435;95.4;;""
347;44656.5611817593;95.1;;""
348;44656.561181875;95.1;;""
349;44656.5611819907;94.8;;""
350;44656.5611821065;94.5;;""
351;44656.5611822222;94.5;;""
352;44656.561182338;94.2;;""
353;44656.5611824537;94.2;;""
354;44656.5611825694;93.9;;""
355;44656.5611826852;93.9;;""
356;44656.5611828009;93.6;;""
357;44656.5611829167;93.5;;""
358;44656.5611830324;93.2;;""
359;44656.5611831482;93.2;;""
360;44656.5611832639;92.9;;""
361;44656.5611833796;92.8;;""
362;44656.5611834954;92.6;;""
363;44656.5611836111;92.5;;""
364;44656.5611837269;92.2;;""
365;44656.5611838426;92.2;;""
366;44656.5611839583;91.9;;""
367;44656.5611840741;91.6;;""
368;44656.5611841898;92.1;;""
369;44656.5611843056;71.5;;""
370;44656.5611844213;48.1;;""
371;44656.561184537;60.6;;""
372;44656.5611846528;76.9;;""
373;44656.5611847685;80.7;;""
374;44656.5611848843;81.5;;""
375;44656.561185;82.8;;""
376;44656.5611851157;84.2;;""
377;44656.5611852315;85.2;;""
378;44656.5611853472;86.1;;""
379;44656.561185463;86.7;;""
380;44656.5611855787;87.6;;""
381;44656.5611856944;88.4;;""
382;44656.5611858102;89.2;;""
383;44656.5611859259;90;;""
384;44656.5611860417;90.8;;""
385;44656.5611861574;91.7;;""
386;44656.5611862731;92.3;;""
387;44656.5611863889;93.1;;""
388;44656.5611865046;93.7;;""
389;44656.5611866204;94.3;;""
390;44656.5611867361;94.9;;""
391;44656.5611868519;95.5;;""
392;44656.5611869676;96.3;;""
393;44656.5611870833;96.8;;""
394;44656.5611871991;97.4;;""
395;44656.5611873148;98.2;;""
396;44656.5611874306;98.7;;""
397;44656.5611875463;99.6;;""
398;44656.561187662;99.8;;""
399;44656.5611877778;100.4;;""
400;44656.5611878935;100.9;;""
401;44656.5611880093;101.5;;""
402;44656.561188125;102.1;;""
403;44656.5611882407;102.7;;""
404;44656.5611883565;103.3;;""
405;44656.5611884722;103.9;;""
406;44656.561188588;104.2;;""
407;44656.5611887037;104.8;;""
408;44656.5611888194;105.4;;""
409;44656.5611889352;105.7;;""
410;44656.5611890509;106.5;;""
411;44656.5611891667;106.8;;""
412;44656.5611892824;107.4;;""
413;44656.5611893981;108;;""
414;44656.5611895139;108.6;;""
415;44656.5611896296;109.1;;""
416;44656.5611897454;109.7;;""
417;44656.5611898611;110;;""
418;44656.5611899768;110.5;;""
419;44656.5611900926;111.1;;""
420;44656.5611902083;111.6;;""
421;44656.5611903241;112.2;;""
422;44656.5611904398;112.5;;""
423;44656.5611905556;113.3;;""
424;44656.5611906713;113.6;;""
425;44656.561190787;114.1;;""
426;44656.5611909028;114.7;;""
427;44656.5611910185;115.2;;""
428;44656.5611911343;115.6;;""
429;44656.56119125;116.1;;""
430;44656.5611913657;116.7;;""
431;44656.5611914815;117.2;;""
432;44656.5611915972;117.5;;""
433;44656.561191713;118.3;;""
434;44656.5611918287;118.5;;""
435;44656.5611919444;119.1;;""
436;44656.5611920602;119.7;;""
437;44656.5611921759;120;;""
438;44656.5611922917;120.5;;""
439;44656.5611924074;120.8;;""
440;44656.5611925232;121.4;;""
441;44656.5611926389;122.1;;""
442;44656.5611927546;122.3;;""
443;44656.5611928704;122.9;;""
444;44656.5611929861;123.2;;""
445;44656.5611931019;123.7;;""
446;44656.5611932176;124.2;;""
447;44656.5611933333;124.8;;""
448;44656.5611934491;125;;""
449;44656.5611935648;125.6;;""
450;44656.5611936806;126.2;;""
451;44656.5611937963;126.5;;""
452;44656.561193912;127.1;;""
453;44656.5611940278;127.6;;""
454;44656.5611941435;127.9;;""
455;44656.5611942593;128.5;;""
456;44656.561194375;129;;""
457;44656.5611944907;129.3;;""
458;44656.5611946065;129.8;;""
459;44656.5611947222;130.4;;""
460;44656.561194838;130.6;;""
461;44656.5611949537;131.2;;""
462;44656.5611950694;131.5;;""
463;44656.5611951852;132.1;;""
464;44656.5611953009;132.6;;""
465;44656.5611954167;133;;""
466;44656.5611955324;133.5;;""
467;44656.5611956482;133.8;;""
468;44656.5611957639;134.4;;""
469;44656.5611958796;134.7;;""
470;44656.5611959954;135.2;;""
471;44656.5611961111;135.7;;""
472;44656.5611962269;136;;""
473;44656.5611963426;136.5;;""
474;44656.5611964583;136.9;;""
475;44656.5611965741;137.4;;""
476;44656.5611966898;137.9;;""
477;44656.5611968056;138.2;;""
478;44656.5611969213;138.8;;""
479;44656.561197037;139.1;;""
480;44656.5611971528;139.4;;""
481;44656.5611972685;139.9;;""
482;44656.5611973843;140.2;;""
483;44656.5611975;140.8;;""
484;44656.5611976157;141.1;;""
485;44656.5611977315;141.7;;""
486;44656.5611978472;142;;""
487;44656.561197963;142.5;;""
488;44656.5611980787;142.8;;""
489;44656.5611981944;143.3;;""
490;44656.5611983102;143.6;;""
491;44656.5611984259;144.1;;""
492;44656.5611985417;144.4;;""
493;44656.5611986574;145;;""
494;44656.5611987731;145.2;;""
495;44656.5611988889;145.8;;""
496;44656.5611990046;146.2;;""
497;44656.5611991204;146.7;;""
498;44656.5611992361;147;;""
499;44656.5611993519;147.5;;""
500;44656.5611994676;147.9;;""
501;44656.5611995833;148.2;;""
502;44656.5611996991;148.7;;""
503;44656.5611998148;149;;""
504;44656.5611999306;149.5;;""
505;44656.5612000463;149.8;;""
506;44656.561200162;150.1;;""
507;44656.5612002778;150.6;;""
508;44656.5612003935;151;;""
509;44656.5612005093;151.6;;""
510;44656.561200625;151.8;;""
511;44656.5612007407;152.1;;""
512;44656.5612008565;152.6;;""
513;44656.5612009722;153.2;;""
514;44656.561201088;153.4;;""
515;44656.5612012037;153.8;;""
516;44656.5612013194;154.1;;""
517;44656.5612014352;154.6;;""
518;44656.5612015509;154.9;;""
519;44656.5612016667;155.2;;""
520;44656.5612017824;155.8;;""
521;44656.5612018981;156.1;;""
522;44656.5612020139;156.3;;""
523;44656.5612021296;156.7;;""
524;44656.5612022454;157.3;;""
525;44656.5612023611;157.5;;""
526;44656.5612024768;157.9;;""
527;44656.5612025926;158.2;;""
528;44656.5612027083;158.5;;""
529;44656.5612028241;159;;""
530;44656.5612029398;159.3;;""
531;44656.5612030556;159.8;;""
532;44656.5612031713;159.9;;""
533;44656.561203287;160.4;;""
534;44656.5612034028;160.7;;""
535;44656.5612035185;161;;""
536;44656.5612036343;161.3;;""
537;44656.56120375;161.6;;""
538;44656.5612038657;161.6;;""
539;44656.5612039815;161.6;;""
540;44656.5612040972;161.3;;""
541;44656.561204213;160.5;;""
542;44656.5612043287;158.8;;""
543;44656.5612044444;156.3;;""
544;44656.5612045602;152.5;;""
545;44656.5612046759;147.6;;""
546;44656.5612047917;142.3;;""
547;44656.5612049074;138.3;;""
548;44656.5612050232;135.1;;""
549;44656.5612051389;132.9;;""
550;44656.5612052546;130.7;;""
551;44656.5612053704;128.9;;""
552;44656.5612054861;127.1;;""
553;44656.5612056019;125.9;;""
554;44656.5612057176;124.6;;""
555;44656.5612058333;123.2;;""
556;44656.5612059491;122.1;;""
557;44656.5612060648;121.2;;""
558;44656.5612061806;120.1;;""
559;44656.5612062963;119.3;;""
560;44656.561206412;118.5;;""
561;44656.5612065278;117.6;;""
562;44656.5612066435;117;;""
563;44656.5612067593;116.2;;""
564;44656.561206875;115.6;;""
565;44656.5612069907;114.8;;""
566;44656.5612071065;114.2;;""
567;44656.5612072222;113.6;;""
568;44656.561207338;113;;""
569;44656.5612074537;112.7;;""
570;44656.5612075694;111.9;;""
571;44656.5612076852;111.6;;""
572;44656.5612078009;111;;""
573;44656.5612079167;110.4;;""
574;44656.5612080324;110.1;;""
575;44656.5612081481;109.6;;""
576;44656.5612082639;109.3;;""
577;44656.5612083796;108.7;;""
578;44656.5612084954;108.4;;""
579;44656.5612086111;107.9;;""
580;44656.5612087269;107.6;;""
581;44656.5612088426;107;;""
582;44656.5612089583;106.7;;""
583;44656.5612090741;106.5;;""
584;44656.5612091898;106.2;;""
585;44656.5612093056;105.9;;""
586;44656.5612094213;105.6;;""
587;44656.561209537;105.3;;""
588;44656.5612096528;104.9;;""
589;44656.5612097685;104.4;;""
590;44656.5612098843;104.1;;""
591;44656.56121;103.9;;""
592;44656.5612101157;103.5;;""
593;44656.5612102315;103.3;;""
594;44656.5612103472;103;;""
595;44656.561210463;102.7;;""
596;44656.5612105787;102.4;;""
597;44656.5612106944;102.1;;""
598;44656.5612108102;101.8;;""
599;44656.5612109259;101.5;;""
600;44656.5612110417;101.5;;""
601;44656.5612111574;101.2;;""
602;44656.5612112731;101;;""
603;44656.5612113889;100.7;;""
604;44656.5612115046;100.4;;""
605;44656.5612116204;100.4;;""
606;44656.5612117361;100.1;;""
607;44656.5612118519;99.8;;""
608;44656.5612119676;99.5;;""
609;44656.5612120833;99.3;;""
610;44656.5612121991;98.9;;""
611;44656.5612123148;98.9;;""
612;44656.5612124306;98.7;;""
613;44656.5612125463;98.6;;""
614;44656.561212662;98.3;;""
615;44656.5612127778;98;;""
616;44656.5612128935;98;;""
617;44656.5612130093;97.7;;""
618;44656.561213125;97.4;;""
619;44656.5612132407;97.4;;""
620;44656.5612133565;97.1;;""
621;44656.5612134722;97;;""
622;44656.561213588;96.7;;""
623;44656.5612137037;96.4;;""
624;44656.5612138194;96.4;;""
625;44656.5612139352;96.1;;""
626;44656.5612140509;95.8;;""
627;44656.5612141667;95.8;;""
628;44656.5612142824;95.5;;""
629;44656.5612143981;95.5;;""
630;44656.5612145139;95.2;;""
631;44656.5612146296;95.2;;""
632;44656.5612147454;94.9;;""
633;44656.5612148611;94.8;;""
634;44656.5612149768;94.5;;""
635;44656.5612150926;94.5;;""
636;44656.5612152083;94.2;;""
637;44656.5612153241;94.1;;""
638;44656.5612154398;93.8;;""
639;44656.5612155556;93.8;;""
640;44656.5612156713;93.5;;""
641;44656.561215787;93.5;;""
642;44656.5612159028;93.2;;""
643;44656.5612160185;93.1;;""
644;44656.5612161343;92.8;;""
645;44656.56121625;92.8;;""
646;44656.5612163657;92.5;;""
647;44656.5612164815;92.2;;""
648;44656.5612165972;92.1;;""
649;44656.561216713;91.9;;""
650;44656.5612168287;91.6;;""
651;44656.5612169444;91.3;;""
652;44656.5612170602;91;;""
653;44656.5612171759;90.5;;""
654;44656.5612172917;89.9;;""
655;44656.5612174074;88.8;;""
656;44656.5612175232;86.6;;""
657;44656.5612176389;82.5;;""
658;44656.5612177546;77;;""
659;44656.5612178704;75.4;;""
660;44656.5612179861;90.4;;""
661;44656.5612181019;99.2;;""
662;44656.5612182176;101.1;;""
663;44656.5612183333;102.8;;""
664;44656.5612184491;104.5;;""
665;44656.5612185648;105.3;;""
666;44656.5612186806;106.2;;""
667;44656.5612187963;107;;""
668;44656.561218912;107.8;;""
669;44656.5612190278;108.6;;""
670;44656.5612191435;109.2;;""
671;44656.5612192593;110;;""
672;44656.561219375;110.9;;""
673;44656.5612194907;111.4;;""
674;44656.5612196065;112;;""
675;44656.5612197222;112.5;;""
676;44656.561219838;113.1;;""
677;44656.5612199537;113.9;;""
678;44656.5612200694;114.2;;""
679;44656.5612201852;114.8;;""
680;44656.5612203009;115.4;;""
681;44656.5612204167;116.2;;""
682;44656.5612205324;116.7;;""
683;44656.5612206481;117.1;;""
684;44656.5612207639;117.9;;""
685;44656.5612208796;118.2;;""
686;44656.5612209954;118.7;;""
687;44656.5612211111;119.1;;""
688;44656.5612212269;119.6;;""
689;44656.5612213426;120.2;;""
690;44656.5612214583;120.8;;""
691;44656.5612215741;121.3;;""
692;44656.5612216898;121.8;;""
693;44656.5612218056;122.1;;""
694;44656.5612219213;122.7;;""
695;44656.561222037;123.3;;""
696;44656.5612221528;123.6;;""
697;44656.5612222685;124.2;;""
698;44656.5612223843;124.7;;""
699;44656.5612225;125;;""
700;44656.5612226157;125.6;;""
701;44656.5612227315;126.1;;""
702;44656.5612228472;126.7;;""
703;44656.561222963;126.9;;""
704;44656.5612230787;127.5;;""
705;44656.5612231944;127.9;;""
706;44656.5612233102;128.4;;""
707;44656.5612234259;128.7;;""
708;44656.5612235417;129.3;;""
709;44656.5612236574;129.8;;""
710;44656.5612237731;130.1;;""
711;44656.5612238889;130.7;;""
712;44656.5612240046;131;;""
713;44656.5612241204;131.5;;""
714;44656.5612242361;131.8;;""
715;44656.5612243519;132.4;;""
716;44656.5612244676;132.9;;""
717;44656.5612245833;133.2;;""
718;44656.5612246991;133.8;;""
719;44656.5612248148;134.1;;""
720;44656.5612249306;134.6;;""
721;44656.5612250463;135;;""
722;44656.561225162;135.5;;""
723;44656.5612252778;135.8;;""
724;44656.5612253935;136.4;;""
725;44656.5612255093;136.7;;""
726;44656.561225625;137.2;;""
727;44656.5612257407;137.7;;""
728;44656.5612258565;138;;""
729;44656.5612259722;138.6;;""
730;44656.561226088;138.9;;""
731;44656.5612262037;139.2;;""
732;44656.5612263194;139.8;;""
733;44656.5612264352;140.1;;""
734;44656.5612265509;140.6;;""
735;44656.5612266667;141;;""
736;44656.5612267824;141.3;;""
737;44656.5612268981;141.8;;""
738;44656.5612270139;142.1;;""
739;44656.5612271296;142.7;;""
740;44656.5612272454;143.2;;""
741;44656.5612273611;143.5;;""
742;44656.5612274769;143.8;;""
743;44656.5612275926;144.3;;""
744;44656.5612277083;144.6;;""
745;44656.5612278241;145.1;;""
746;44656.5612279398;145.5;;""
747;44656.5612280556;146;;""
748;44656.5612281713;146.3;;""
749;44656.561228287;146.6;;""
750;44656.5612284028;147;;""
751;44656.5612285185;147.5;;""
752;44656.5612286343;147.8;;""
753;44656.56122875;148.3;;""
754;44656.5612288657;148.6;;""
755;44656.5612289815;149.1;;""
756;44656.5612290972;149.5;;""
757;44656.561229213;149.8;;""
758;44656.5612293287;150.3;;""
759;44656.5612294444;150.6;;""
760;44656.5612295602;151.2;;""
761;44656.5612296759;151.5;;""
762;44656.5612297917;151.8;;""
763;44656.5612299074;152.4;;""
764;44656.5612300232;152.7;;""
765;44656.5612301389;153.2;;""
766;44656.5612302546;153.5;;""
767;44656.5612303704;153.8;;""
768;44656.5612304861;154.3;;""
769;44656.5612306019;154.6;;""
770;44656.5612307176;154.9;;""
771;44656.5612308333;155.4;;""
772;44656.5612309491;155.7;;""
773;44656.5612310648;156.3;;""
774;44656.5612311806;156.5;;""
775;44656.5612312963;156.8;;""
776;44656.561231412;157.4;;""
777;44656.5612315278;157.7;;""
778;44656.5612316435;158;;""
779;44656.5612317593;158.5;;""
780;44656.561231875;158.8;;""
781;44656.5612319907;159.4;;""
782;44656.5612321065;159.4;;""
783;44656.5612322222;159.9;;""
784;44656.561232338;160.2;;""
785;44656.5612324537;160.7;;""
786;44656.5612325694;161.1;;""
787;44656.5612326852;161.4;;""
788;44656.5612328009;161.7;;""
789;44656.5612329167;162;;""
790;44656.5612330324;162.2;;""
791;44656.5612331481;162.5;;""
792;44656.5612332639;162.6;;""
793;44656.5612333796;162.6;;""
794;44656.5612334954;162.3;;""
795;44656.5612336111;161.5;;""
796;44656.5612337269;160.2;;""
797;44656.5612338426;157.7;;""
798;44656.5612339583;153.8;;""
799;44656.5612340741;148.6;;""
800;44656.5612341898;143;;""
801;44656.5612343056;138.6;;""
802;44656.5612344213;135.3;;""
803;44656.561234537;132.9;;""
804;44656.5612346528;130.7;;""
805;44656.5612347685;128.7;;""
806;44656.5612348843;127.3;;""
807;44656.561235;125.9;;""
808;44656.5612351157;124.6;;""
809;44656.5612352315;123.4;;""
810;44656.5612353472;122.3;;""
811;44656.561235463;121.1;;""
812;44656.5612355787;120.1;;""
813;44656.5612356944;119.2;;""
814;44656.5612358102;118.4;;""
815;44656.5612359259;117.6;;""
816;44656.5612360417;116.8;;""
817;44656.5612361574;116.1;;""
818;44656.5612362731;115.5;;""
819;44656.5612363889;114.9;;""
820;44656.5612365046;114.1;;""
821;44656.5612366204;113.5;;""
822;44656.5612367361;113;;""
823;44656.5612368518;112.4;;""
824;44656.5612369676;111.8;;""
825;44656.5612370833;111.5;;""
826;44656.5612371991;111;;""
827;44656.5612373148;110.5;;""
828;44656.5612374306;109.9;;""
829;44656.5612375463;109.6;;""
830;44656.561237662;109.1;;""
831;44656.5612377778;108.5;;""
832;44656.5612378935;108.2;;""
833;44656.5612380093;107.9;;""
834;44656.561238125;107.4;;""
835;44656.5612382407;107.1;;""
836;44656.5612383565;106.8;;""
837;44656.5612384722;106.3;;""
838;44656.561238588;106;;""
839;44656.5612387037;105.7;;""
840;44656.5612388194;105.4;;""
841;44656.5612389352;105.1;;""
842;44656.5612390509;104.5;;""
843;44656.5612391667;104.5;;""
844;44656.5612392824;104;;""
845;44656.5612393982;103.7;;""
846;44656.5612395139;103.7;;""
847;44656.5612396296;103.1;;""
848;44656.5612397454;102.8;;""
849;44656.5612398611;102.8;;""
850;44656.5612399769;102.3;;""
851;44656.5612400926;101.9;;""
852;44656.5612402083;101.9;;""
853;44656.5612403241;101.4;;""
854;44656.5612404398;101.4;;""
855;44656.5612405556;101.1;;""
856;44656.5612406713;100.8;;""
857;44656.561240787;100.5;;""
858;44656.5612409028;100.2;;""
859;44656.5612410185;99.9;;""
860;44656.5612411343;99.9;;""
861;44656.56124125;99.6;;""
862;44656.5612413657;99.3;;""
863;44656.5612414815;99.3;;""
864;44656.5612415972;99;;""
865;44656.561241713;98.7;;""
866;44656.5612418287;98.7;;""
867;44656.5612419444;98.4;;""
868;44656.5612420602;98.1;;""
869;44656.5612421759;98;;""
870;44656.5612422917;97.8;;""
871;44656.5612424074;97.4;;""
872;44656.5612425231;97.4;;""
873;44656.5612426389;97.1;;""
874;44656.5612427546;96.8;;""
875;44656.5612428704;96.8;;""
876;44656.5612429861;96.6;;""
877;44656.5612431019;96.5;;""
878;44656.5612432176;96.2;;""
879;44656.5612433333;95.9;;""
880;44656.5612434491;95.9;;""
881;44656.5612435648;95.6;;""
882;44656.5612436806;95.6;;""
883;44656.5612437963;95.3;;""
884;44656.561243912;95.2;;""
885;44656.5612440278;94.9;;""
886;44656.5612441435;94.9;;""
887;44656.5612442593;94.6;;""
888;44656.561244375;94.3;;""
889;44656.5612444907;94.3;;""
890;44656.5612446065;94;;""
891;44656.5612447222;94;;""
892;44656.561244838;93.7;;""
893;44656.5612449537;93.7;;""
894;44656.5612450694;93.4;;""
895;44656.5612451852;93.1;;""
896;44656.5612453009;93.1;;""
897;44656.5612454167;92.8;;""
898;44656.5612455324;92.7;;""
899;44656.5612456481;92.5;;""
900;44656.5612457639;92.2;;""
901;44656.5612458796;92.1;;""
902;44656.5612459954;91.9;;""
903;44656.5612461111;91.6;;""
904;44656.5612462269;91.3;;""
905;44656.5612463426;91;;""
906;44656.5612464583;90.5;;""
907;44656.5612465741;89.9;;""
908;44656.5612466898;88.8;;""
909;44656.5612468056;86.6;;""
910;44656.5612469213;82.8;;""
911;44656.561247037;77.1;;""
912;44656.5612471528;76.9;;""
913;44656.5612472685;91.2;;""
914;44656.5612473843;98.8;;""
915;44656.5612475;100.9;;""
916;44656.5612476157;102.8;;""
917;44656.5612477315;104.4;;""
918;44656.5612478472;105.4;;""
919;44656.561247963;106.3;;""
920;44656.5612480787;107;;""
921;44656.5612481944;107.9;;""
922;44656.5612483102;108.8;;""
923;44656.5612484259;109.3;;""
924;44656.5612485417;109.9;;""
925;44656.5612486574;110.8;;""
926;44656.5612487731;111.6;;""
927;44656.5612488889;112.1;;""
928;44656.5612490046;112.5;;""
929;44656.5612491204;113;;""
930;44656.5612492361;114.2;;""
931;44656.5612493518;114.4;;""
932;44656.5612494676;115.3;;""
933;44656.5612495833;115.6;;""
934;44656.5612496991;116.4;;""
935;44656.5612498148;116.7;;""
936;44656.5612499306;117.6;;""
937;44656.5612500463;118.2;;""
938;44656.561250162;118.5;;""
939;44656.5612502778;119;;""
940;44656.5612503935;119.5;;""
941;44656.5612505093;120.4;;""
942;44656.561250625;120.6;;""
943;44656.5612507407;120.6;;""
944;44656.5612508565;122;;""
945;44656.5612509722;122;;""
946;44656.561251088;122.6;;""
947;44656.5612512037;123.3;;""
948;44656.5612513194;123.4;;""
949;44656.5612514352;124.2;;""
950;44656.5612515509;124.7;;""
951;44656.5612516667;125;;""
952;44656.5612517824;125.6;;""
953;44656.5612518982;126.1;;""
954;44656.5612520139;126.5;;""
955;44656.5612521296;127.1;;""
956;44656.5612522454;127.4;;""
957;44656.5612523611;127.9;;""
958;44656.5612524769;128.5;;""
959;44656.5612525926;128.8;;""
960;44656.5612527083;129.4;;""
961;44656.5612528241;129.9;;""
962;44656.5612529398;130.4;;""
963;44656.5612530556;130.7;;""
964;44656.5612531713;131.3;;""
965;44656.561253287;131.8;;""
966;44656.5612534028;132.1;;""
967;44656.5612535185;132.7;;""
968;44656.5612536343;133;;""
969;44656.56125375;133.5;;""
970;44656.5612538657;133.8;;""
971;44656.5612539815;134.3;;""
972;44656.5612540972;134.9;;""
973;44656.561254213;135.2;;""
974;44656.5612543287;135.7;;""
975;44656.5612544444;136;;""
976;44656.5612545602;136.6;;""
977;44656.5612546759;137.1;;""
978;44656.5612547917;137.4;;""
979;44656.5612549074;138;;""
980;44656.5612550231;138.3;;""
981;44656.5612551389;138.8;;""
982;44656.5612552546;139.4;;""
983;44656.5612553704;139.6;;""
984;44656.5612554861;140.2;;""
985;44656.5612556019;140.5;;""
986;44656.5612557176;140.8;;""
987;44656.5612558333;141.4;;""
988;44656.5612559491;141.9;;""
989;44656.5612560648;142.2;;""
990;44656.5612561806;142.6;;""
991;44656.5612562963;143.1;;""
992;44656.561256412;143.6;;""
993;44656.5612565278;143.9;;""
994;44656.5612566435;144.2;;""
995;44656.5612567593;144.8;;""
996;44656.561256875;145.1;;""
997;44656.5612569907;145.6;;""
998;44656.5612571065;146.2;;""
999;44656.5612572222;146.5;;""
1000;44656.561257338;146.8;;""
1001;44656.5612574537;147.1;;""
1002;44656.5612575694;147.6;;""
1003;44656.5612576852;147.9;;""
1004;44656.5612578009;148.7;;""
1005;44656.5612579167;149;;""
1006;44656.5612580324;149.6;;""
1007;44656.5612581481;149.9;;""
1008;44656.5612582639;150.2;;""
1009;44656.5612583796;150.5;;""
1010;44656.5612584954;151;;""
1011;44656.5612586111;151.3;;""
1012;44656.5612587269;151.9;;""
1013;44656.5612588426;152.2;;""
1014;44656.5612589583;152.7;;""
1015;44656.5612590741;153;;""
1016;44656.5612591898;153.5;;""
1017;44656.5612593056;153.8;;""
1018;44656.5612594213;154.1;;""
1019;44656.561259537;154.7;;""
1020;44656.5612596528;155.2;;""
1021;44656.5612597685;155.5;;""
1022;44656.5612598843;155.8;;""
1023;44656.56126;156.1;;""
1024;44656.5612601157;156.7;;""
1025;44656.5612602315;157;;""
1026;44656.5612603472;157.2;;""
1027;44656.561260463;157.8;;""
1028;44656.5612605787;158.1;;""
1029;44656.5612606944;158.6;;""
1030;44656.5612608102;158.9;;""
1031;44656.5612609259;159.2;;""
1032;44656.5612610417;159.5;;""
1033;44656.5612611574;160;;""
1034;44656.5612612731;160.4;;""
1035;44656.5612613889;160.7;;""
1036;44656.5612615046;161;;""
1037;44656.5612616204;161.3;;""
1038;44656.5612617361;161.8;;""
1039;44656.5612618519;162.1;;""
1040;44656.5612619676;162.4;;""
1041;44656.5612620833;162.7;;""
1042;44656.5612621991;162.7;;""
1043;44656.5612623148;163.1;;""
1044;44656.5612624306;163;;""
1045;44656.5612625463;162.7;;""
1046;44656.561262662;161.7;;""
1047;44656.5612627778;160.1;;""
1048;44656.5612628935;157.5;;""
1049;44656.5612630093;153;;""
1050;44656.561263125;147.4;;""
1051;44656.5612632407;141.8;;""
1052;44656.5612633565;137.8;;""
1053;44656.5612634722;134.8;;""
1054;44656.561263588;132.3;;""
1055;44656.5612637037;130.4;;""
1056;44656.5612638194;128.4;;""
1057;44656.5612639352;126.9;;""
1058;44656.5612640509;125.6;;""
1059;44656.5612641667;124.4;;""
1060;44656.5612642824;122.9;;""
1061;44656.5612643982;122.1;;""
1062;44656.5612645139;121;;""
1063;44656.5612646296;120.2;;""
1064;44656.5612647454;119.3;;""
1065;44656.5612648611;118.4;;""
1066;44656.5612649769;117.5;;""
1067;44656.5612650926;116.7;;""
1068;44656.5612652083;116.2;;""
1069;44656.5612653241;115.6;;""
1070;44656.5612654398;114.8;;""
1071;44656.5612655556;114.2;;""
1072;44656.5612656713;113.7;;""
1073;44656.561265787;113.1;;""
1074;44656.5612659028;112.6;;""
1075;44656.5612660185;112;;""
1076;44656.5612661343;111.5;;""
1077;44656.56126625;110.9;;""
1078;44656.5612663657;110.4;;""
1079;44656.5612664815;110.1;;""
1080;44656.5612665972;109.5;;""
1081;44656.561266713;109;;""
1082;44656.5612668287;108.7;;""
1083;44656.5612669444;108.2;;""
1084;44656.5612670602;107.9;;""
1085;44656.5612671759;107.6;;""
1086;44656.5612672917;107.1;;""
1087;44656.5612674074;106.8;;""
1088;44656.5612675231;106.5;;""
1089;44656.5612676389;106;;""
1090;44656.5612677546;105.6;;""
1091;44656.5612678704;105.3;;""
1092;44656.5612679861;105;;""
1093;44656.5612681019;104.8;;""
1094;44656.5612682176;104.4;;""
1095;44656.5612683333;104.2;;""
1096;44656.5612684491;103.9;;""
1097;44656.5612685648;103.6;;""
1098;44656.5612686806;103.3;;""
1099;44656.5612687963;102.8;;""
1100;44656.561268912;102.7;;""
1101;44656.5612690278;102.5;;""
1102;44656.5612691435;102.2;;""
1103;44656.5612692593;101.9;;""
1104;44656.561269375;101.6;;""
1105;44656.5612694907;101.3;;""
1106;44656.5612696065;101;;""
1107;44656.5612697222;100.7;;""
1108;44656.561269838;100.7;;""
1109;44656.5612699537;100.4;;""
1110;44656.5612700694;100.1;;""
1111;44656.5612701852;99.8;;""
1112;44656.5612703009;99.8;;""
1113;44656.5612704167;99.5;;""
1114;44656.5612705324;99.2;;""
1115;44656.5612706481;98.9;;""
1116;44656.5612707639;98.9;;""
1117;44656.5612708796;98.6;;""
1118;44656.5612709954;98.3;;""
1119;44656.5612711111;98.1;;""
1120;44656.5612712268;98;;""
1121;44656.5612713426;97.7;;""
1122;44656.5612714583;97.5;;""
1123;44656.5612715741;97.4;;""
1124;44656.5612716898;97.1;;""
1125;44656.5612718056;97.1;;""
1126;44656.5612719213;96.8;;""
1127;44656.561272037;96.5;;""
1128;44656.5612721528;96.5;;""
1129;44656.5612722685;96.2;;""
1130;44656.5612723843;96.2;;""
1131;44656.5612725;95.9;;""
1132;44656.5612726157;95.5;;""
1133;44656.5612727315;95.5;;""
1134;44656.5612728472;95.2;;""
1135;44656.561272963;95.2;;""
1136;44656.5612730787;94.9;;""
1137;44656.5612731944;94.9;;""
1138;44656.5612733102;94.6;;""
1139;44656.5612734259;94.6;;""
1140;44656.5612735417;94.2;;""
1141;44656.5612736574;94.2;;""
1142;44656.5612737732;93.9;;""
1143;44656.5612738889;93.6;;""
1144;44656.5612740046;93.6;;""
1145;44656.5612741204;93.6;;""
1146;44656.5612742361;93.2;;""
1147;44656.5612743519;92.9;;""
1148;44656.5612744676;92.9;;""
1149;44656.5612745833;92.6;;""
1150;44656.5612746991;92.6;;""
1151;44656.5612748148;92.3;;""
1152;44656.5612749306;92.3;;""
1153;44656.5612750463;92;;""
1154;44656.561275162;91.7;;""
1155;44656.5612752778;91.4;;""
1156;44656.5612753935;91.1;;""
1157;44656.5612755093;90.5;;""
1158;44656.561275625;90;;""
1159;44656.5612757407;89.2;;""
1160;44656.5612758565;87;;""
1161;44656.5612759722;83.8;;""
1162;44656.561276088;78.4;;""
1163;44656.5612762037;75.7;;""
1164;44656.5612763194;89.9;;""
1165;44656.5612764352;101.8;;""
1166;44656.5612765509;102.9;;""
1167;44656.5612766667;103.6;;""
1168;44656.5612767824;104.5;;""
1169;44656.5612768981;105.7;;""
1170;44656.5612770139;106.5;;""
1171;44656.5612771296;107.5;;""
1172;44656.5612772454;108.3;;""
1173;44656.5612773611;109.1;;""
1174;44656.5612774769;109.7;;""
1175;44656.5612775926;110.5;;""
1176;44656.5612777083;111.1;;""
1177;44656.5612778241;111.9;;""
1178;44656.5612779398;112.4;;""
1179;44656.5612780556;113;;""
1180;44656.5612781713;113.6;;""
1181;44656.561278287;114.2;;""
1182;44656.5612784028;115;;""
1183;44656.5612785185;115.6;;""
1184;44656.5612786343;116.1;;""
1185;44656.56127875;116.6;;""
1186;44656.5612788657;117.2;;""
1187;44656.5612789815;117.8;;""
1188;44656.5612790972;118.3;;""
1189;44656.561279213;118.6;;""
1190;44656.5612793287;119.2;;""
1191;44656.5612794444;119.7;;""
1192;44656.5612795602;120.3;;""
1193;44656.5612796759;120.8;;""
1194;44656.5612797917;121.3;;""
1195;44656.5612799074;121.6;;""
1196;44656.5612800231;122.1;;""
1197;44656.5612801389;122.6;;""
1198;44656.5612802546;123.2;;""
1199;44656.5612803704;123.7;;""
1200;44656.5612804861;124;;""
1201;44656.5612806019;124.5;;""
1202;44656.5612807176;125.1;;""
1203;44656.5612808333;125.6;;""
1204;44656.5612809491;125.9;;""
1205;44656.5612810648;126.5;;""
1206;44656.5612811806;127;;""
1207;44656.5612812963;127.3;;""
1208;44656.561281412;127.8;;""
1209;44656.5612815278;128.2;;""
1210;44656.5612816435;128.7;;""
1211;44656.5612817593;129.3;;""
1212;44656.561281875;129.6;;""
1213;44656.5612819907;130.1;;""
1214;44656.5612821065;130.4;;""
1215;44656.5612822222;131;;""
1216;44656.561282338;131.3;;""
1217;44656.5612824537;131.9;;""
1218;44656.5612825694;132.2;;""
1219;44656.5612826852;132.6;;""
1220;44656.5612828009;133.1;;""
1221;44656.5612829167;133.4;;""
1222;44656.5612830324;134;;""
1223;44656.5612831481;134.6;;""
1224;44656.5612832639;135.1;;""
1225;44656.5612833796;135.7;;""
1226;44656.5612834954;136;;""
1227;44656.5612836111;136.3;;""
1228;44656.5612837268;136.8;;""
1229;44656.5612838426;137.1;;""
1230;44656.5612839583;137.4;;""
1231;44656.5612840741;137.9;;""
1232;44656.5612841898;138.5;;""
1233;44656.5612843056;139.1;;""
1234;44656.5612844213;139.3;;""
1235;44656.561284537;139.9;;""
1236;44656.5612846528;140.2;;""
1237;44656.5612847685;140.5;;""
1238;44656.5612848843;141;;""
1239;44656.561285;141.4;;""
1240;44656.5612851157;141.9;;""
1241;44656.5612852315;142.2;;""
1242;44656.5612853472;142.6;;""
1243;44656.561285463;143.1;;""
1244;44656.5612855787;143.7;;""
1245;44656.5612856944;143.9;;""
1246;44656.5612858102;144.5;;""
1247;44656.5612859259;144.8;;""
1248;44656.5612860417;145.1;;""
1249;44656.5612861574;145.7;;""
1250;44656.5612862732;146;;""
1251;44656.5612863889;146.3;;""
1252;44656.5612865046;146.9;;""
1253;44656.5612866204;147.2;;""
1254;44656.5612867361;147.5;;""
1255;44656.5612868519;148.1;;""
1256;44656.5612869676;148.4;;""
1257;44656.5612870833;148.7;;""
1258;44656.5612871991;149.2;;""
1259;44656.5612873148;149.5;;""
1260;44656.5612874306;149.8;;""
1261;44656.5612875463;150.4;;""
1262;44656.561287662;150.7;;""
1263;44656.5612877778;151.2;;""
1264;44656.5612878935;151.6;;""
1265;44656.5612880093;151.8;;""
1266;44656.561288125;152.1;;""
1267;44656.5612882407;152.7;;""
1268;44656.5612883565;153;;""
1269;44656.5612884722;153.5;;""
1270;44656.561288588;153.8;;""
1271;44656.5612887037;154.1;;""
1272;44656.5612888194;154.4;;""
1273;44656.5612889352;155;;""
1274;44656.5612890509;155.3;;""
1275;44656.5612891667;155.8;;""
1276;44656.5612892824;156.1;;""
1277;44656.5612893981;156.4;;""
1278;44656.5612895139;157;;""
1279;44656.5612896296;157.2;;""
1280;44656.5612897454;157.5;;""
1281;44656.5612898611;157.8;;""
1282;44656.5612899769;158.4;;""
1283;44656.5612900926;158.7;;""
1284;44656.5612902083;159.2;;""
1285;44656.5612903241;159.4;;""
1286;44656.5612904398;159.8;;""
1287;44656.5612905556;160.3;;""
1288;44656.5612906713;160.6;;""
1289;44656.561290787;160.9;;""
1290;44656.5612909028;161.2;;""
1291;44656.5612910185;161.5;;""
1292;44656.5612911343;162;;""
1293;44656.56129125;162.1;;""
1294;44656.5612913657;162.6;;""
1295;44656.5612914815;162.7;;""
1296;44656.5612915972;163;;""
1297;44656.561291713;163;;""
1298;44656.5612918287;163;;""
1299;44656.5612919444;162.4;;""
1300;44656.5612920602;161.6;;""
1301;44656.5612921759;159.8;;""
1302;44656.5612922917;156.8;;""
1303;44656.5612924074;152.3;;""
1304;44656.5612925231;146.4;;""
1305;44656.5612926389;141;;""
1306;44656.5612927546;137;;""
1307;44656.5612928704;134;;""
1308;44656.5612929861;131.9;;""
1309;44656.5612931019;130.1;;""
1310;44656.5612932176;128.2;;""
1311;44656.5612933333;126.6;;""
1312;44656.5612934491;125.2;;""
1313;44656.5612935648;124.1;;""
1314;44656.5612936806;122.7;;""
1315;44656.5612937963;121.7;;""
1316;44656.561293912;120.8;;""
1317;44656.5612940278;119.7;;""
1318;44656.5612941435;118.8;;""
1319;44656.5612942593;118;;""
1320;44656.561294375;117.2;;""
1321;44656.5612944907;116.6;;""
1322;44656.5612946065;116.1;;""
1323;44656.5612947222;115.2;;""
1324;44656.561294838;114.6;;""
1325;44656.5612949537;114;;""
1326;44656.5612950694;113.5;;""
1327;44656.5612951852;112.9;;""
1328;44656.5612953009;112.4;;""
1329;44656.5612954167;111.8;;""
1330;44656.5612955324;111.3;;""
1331;44656.5612956481;110.8;;""
1332;44656.5612957639;110.4;;""
1333;44656.5612958796;109.9;;""
1334;44656.5612959954;109.3;;""
1335;44656.5612961111;109;;""
1336;44656.5612962269;108.7;;""
1337;44656.5612963426;108.1;;""
1338;44656.5612964583;107.8;;""
1339;44656.5612965741;107.3;;""
1340;44656.5612966898;107;;""
1341;44656.5612968056;106.7;;""
1342;44656.5612969213;106.1;;""
1343;44656.561297037;105.8;;""
1344;44656.5612971528;105.6;;""
1345;44656.5612972685;105.3;;""
1346;44656.5612973843;104.9;;""
1347;44656.5612975;104.6;;""
1348;44656.5612976157;104.3;;""
1349;44656.5612977315;104;;""
1350;44656.5612978472;103.7;;""
1351;44656.561297963;103.4;;""
1352;44656.5612980787;103.2;;""
1353;44656.5612981944;102.9;;""
1354;44656.5612983102;102.6;;""
1355;44656.5612984259;102.3;;""
1356;44656.5612985417;102;;""
1357;44656.5612986574;101.6;;""
1358;44656.5612987732;101.6;;""
1359;44656.5612988889;101.3;;""
1360;44656.5612990046;101;;""
1361;44656.5612991204;100.8;;""
1362;44656.5612992361;100.5;;""
1363;44656.5612993519;100.2;;""
1364;44656.5612994676;100.1;;""
1365;44656.5612995833;99.8;;""
1366;44656.5612996991;99.5;;""
1367;44656.5612998148;99.2;;""
1368;44656.5612999306;99.2;;""
1369;44656.5613000463;98.9;;""
1370;44656.561300162;98.6;;""
1371;44656.5613002778;98.6;;""
1372;44656.5613003935;98.3;;""
1373;44656.5613005093;98.1;;""
1374;44656.561300625;98;;""
1375;44656.5613007407;97.7;;""
1376;44656.5613008565;97.5;;""
1377;44656.5613009722;97.4;;""
1378;44656.561301088;97.1;;""
1379;44656.5613012037;96.9;;""
1380;44656.5613013194;96.8;;""
1381;44656.5613014352;96.5;;""
1382;44656.5613015509;96.5;;""
1383;44656.5613016667;96.2;;""
1384;44656.5613017824;95.8;;""
1385;44656.5613018981;95.8;;""
1386;44656.5613020139;95.8;;""
1387;44656.5613021296;95.5;;""
1388;44656.5613022454;95.2;;""
1389;44656.5613023611;95.1;;""
1390;44656.5613024769;94.9;;""
1391;44656.5613025926;94.6;;""
1392;44656.5613027083;94.6;;""
1393;44656.5613028241;94.3;;""
1394;44656.5613029398;94.3;;""
1395;44656.5613030556;94;;""
1396;44656.5613031713;94;;""
1397;44656.561303287;93.7;;""
1398;44656.5613034028;93.4;;""
1399;44656.5613035185;93.4;;""
1400;44656.5613036343;93.1;;""
1401;44656.56130375;93;;""
1402;44656.5613038657;92.8;;""
1403;44656.5613039815;92.7;;""
1404;44656.5613040972;92.4;;""
1405;44656.561304213;92.2;;""
1406;44656.5613043287;91.9;;""
1407;44656.5613044444;91.6;;""
1408;44656.5613045602;91.3;;""
1409;44656.5613046759;91.1;;""
1410;44656.5613047917;90.5;;""
1411;44656.5613049074;89.9;;""
1412;44656.5613050231;88.8;;""
1413;44656.5613051389;86.9;;""
1414;44656.5613052546;82.7;;""
1415;44656.5613053704;77.2;;""
1416;44656.5613054861;75.3;;""
1417;44656.5613056018;90.4;;""
1418;44656.5613057176;99.2;;""
1419;44656.5613058333;101.5;;""
1420;44656.5613059491;103.3;;""
1421;44656.5613060648;104.8;;""
1422;44656.5613061806;105.9;;""
1423;44656.5613062963;106.8;;""
1424;44656.561306412;107.6;;""
1425;44656.5613065278;108.1;;""
1426;44656.5613066435;109;;""
1427;44656.5613067593;109.8;;""
1428;44656.561306875;110.6;;""
1429;44656.5613069907;111.1;;""
1430;44656.5613071065;111.7;;""
1431;44656.5613072222;112.5;;""
1432;44656.561307338;113.1;;""
1433;44656.5613074537;113.7;;""
1434;44656.5613075694;114.3;;""
1435;44656.5613076852;114.9;;""
1436;44656.5613078009;115.5;;""
1437;44656.5613079167;116;;""
1438;44656.5613080324;116.6;;""
1439;44656.5613081482;117.1;;""
1440;44656.5613082639;117.7;;""
1441;44656.5613083796;118.3;;""
1442;44656.5613084954;118.8;;""
1443;44656.5613086111;119.4;;""
1444;44656.5613087269;119.7;;""
1445;44656.5613088426;120.3;;""
1446;44656.5613089583;120.9;;""
1447;44656.5613090741;121.4;;""
1448;44656.5613091898;121.9;;""
1449;44656.5613093056;122.2;;""
1450;44656.5613094213;122.8;;""
1451;44656.561309537;123.3;;""
1452;44656.5613096528;123.9;;""
1453;44656.5613097685;124.2;;""
1454;44656.5613098843;124.7;;""
1455;44656.56131;125.2;;""
1456;44656.5613101157;125.5;;""
1457;44656.5613102315;126.1;;""
1458;44656.5613103472;126.5;;""
1459;44656.561310463;127;;""
1460;44656.5613105787;127.6;;""
1461;44656.5613106944;127.9;;""
1462;44656.5613108102;128.5;;""
1463;44656.5613109259;128.8;;""
1464;44656.5613110417;129.3;;""
1465;44656.5613111574;129.7;;""
1466;44656.5613112732;130.3;;""
1467;44656.5613113889;130.6;;""
1468;44656.5613115046;131.2;;""
1469;44656.5613116204;131.7;;""
1470;44656.5613117361;132;;""
1471;44656.5613118519;132.5;;""
1472;44656.5613119676;132.9;;""
1473;44656.5613120833;133.4;;""
1474;44656.5613121991;133.7;;""
1475;44656.5613123148;134.3;;""
1476;44656.5613124306;134.6;;""
1477;44656.5613125463;135.1;;""
1478;44656.561312662;135.4;;""
1479;44656.5613127778;135.9;;""
1480;44656.5613128935;136.5;;""
1481;44656.5613130093;136.7;;""
1482;44656.561313125;137.3;;""
1483;44656.5613132407;137.6;;""
1484;44656.5613133565;138.2;;""
1485;44656.5613134722;138.4;;""
1486;44656.561313588;139;;""
1487;44656.5613137037;139.3;;""
1488;44656.5613138194;139.8;;""
1489;44656.5613139352;140.1;;""
1490;44656.5613140509;140.4;;""
1491;44656.5613141667;140.9;;""
1492;44656.5613142824;141.5;;""
1493;44656.5613143981;141.8;;""
1494;44656.5613145139;142.1;;""
1495;44656.5613146296;142.7;;""
1496;44656.5613147454;143;;""
1497;44656.5613148611;143.3;;""
1498;44656.5613149769;143.8;;""
1499;44656.5613150926;144.1;;""
1500;44656.5613152083;144.7;;""
1501;44656.5613153241;145;;""
1502;44656.5613154398;145.3;;""
1503;44656.5613155556;145.9;;""
1504;44656.5613156713;146.2;;""
1505;44656.561315787;146.5;;""
1506;44656.5613159028;147.1;;""
1507;44656.5613160185;147.4;;""
1508;44656.5613161343;147.7;;""
1509;44656.56131625;148.3;;""
1510;44656.5613163657;148.6;;""
1511;44656.5613164815;149.1;;""
1512;44656.5613165972;149.4;;""
1513;44656.561316713;149.7;;""
1514;44656.5613168287;150.3;;""
1515;44656.5613169444;150.6;;""
1516;44656.5613170602;150.9;;""
1517;44656.5613171759;151.5;;""
1518;44656.5613172917;151.8;;""
1519;44656.5613174074;152.1;;""
1520;44656.5613175231;152.5;;""
1521;44656.5613176389;153;;""
1522;44656.5613177546;153.3;;""
1523;44656.5613178704;153.6;;""
1524;44656.5613179861;154.1;;""
1525;44656.5613181018;154.4;;""
1526;44656.5613182176;155;;""
1527;44656.5613183333;155.3;;""
1528;44656.5613184491;155.6;;""
1529;44656.5613185648;156.1;;""
1530;44656.5613186806;156.4;;""
1531;44656.5613187963;156.8;;""
1532;44656.561318912;157.1;;""
1533;44656.5613190278;157.3;;""
1534;44656.5613191435;157.9;;""
1535;44656.5613192593;158.2;;""
1536;44656.561319375;158.7;;""
1537;44656.5613194907;159;;""
1538;44656.5613196065;159.3;;""
1539;44656.5613197222;159.6;;""
1540;44656.561319838;160.1;;""
1541;44656.5613199537;160.4;;""
1542;44656.5613200694;160.7;;""
1543;44656.5613201852;161.2;;""
1544;44656.5613203009;161.5;;""
1545;44656.5613204167;161.8;;""
1546;44656.5613205324;162.1;;""
1547;44656.5613206482;162.4;;""
1548;44656.5613207639;162.7;;""
1549;44656.5613208796;163;;""
1550;44656.5613209954;163;;""
1551;44656.5613211111;163;;""
1552;44656.5613212269;162.7;;""
1553;44656.5613213426;161.5;;""
1554;44656.5613214583;159.8;;""
1555;44656.5613215741;156.7;;""
1556;44656.5613216898;152;;""
1557;44656.5613218056;146.2;;""
1558;44656.5613219213;140.9;;""
1559;44656.561322037;137;;""
1560;44656.5613221528;134;;""
1561;44656.5613222685;132;;""
1562;44656.5613223843;129.9;;""
1563;44656.5613225;128.1;;""
1564;44656.5613226157;126.7;;""
1565;44656.5613227315;125;;""
1566;44656.5613228472;123.9;;""
1567;44656.561322963;122.8;;""
1568;44656.5613230787;121.7;;""
1569;44656.5613231944;120.8;;""
1570;44656.5613233102;119.7;;""
1571;44656.5613234259;118.9;;""
1572;44656.5613235417;118;;""
1573;44656.5613236574;117.2;;""
1574;44656.5613237731;116.6;;""
1575;44656.5613238889;115.8;;""
1576;44656.5613240046;115.2;;""
1577;44656.5613241204;114.4;;""
1578;44656.5613242361;113.8;;""
1579;44656.5613243519;113.3;;""
1580;44656.5613244676;112.7;;""
1581;44656.5613245833;112.2;;""
1582;44656.5613246991;111.6;;""
1583;44656.5613248148;111.3;;""
1584;44656.5613249306;110.7;;""
1585;44656.5613250463;110.1;;""
1586;44656.561325162;109.8;;""
1587;44656.5613252778;109.3;;""
1588;44656.5613253935;108.7;;""
1589;44656.5613255093;108.4;;""
1590;44656.561325625;108.2;;""
1591;44656.5613257407;107.6;;""
1592;44656.5613258565;107.3;;""
1593;44656.5613259722;106.8;;""
1594;44656.561326088;106.5;;""
1595;44656.5613262037;106.2;;""
1596;44656.5613263194;105.7;;""
1597;44656.5613264352;105.4;;""
1598;44656.5613265509;105.1;;""
1599;44656.5613266667;104.8;;""
1600;44656.5613267824;104.5;;""
1601;44656.5613268981;104.2;;""
1602;44656.5613270139;103.9;;""
1603;44656.5613271296;103.7;;""
1604;44656.5613272454;103.4;;""
1605;44656.5613273611;103.1;;""
1606;44656.5613274769;102.8;;""
1607;44656.5613275926;102.5;;""
1608;44656.5613277083;102.2;;""
1609;44656.5613278241;101.9;;""
1610;44656.5613279398;101.6;;""
1611;44656.5613280556;101.3;;""
1612;44656.5613281713;101;;""
1613;44656.561328287;101;;""
1614;44656.5613284028;100.7;;""
1615;44656.5613285185;100.4;;""
1616;44656.5613286343;100.1;;""
1617;44656.56132875;99.8;;""
1618;44656.5613288657;99.5;;""
1619;44656.5613289815;99.5;;""
1620;44656.5613290972;99.2;;""
1621;44656.561329213;99;;""
1622;44656.5613293287;98.7;;""
1623;44656.5613294444;98.6;;""
1624;44656.5613295602;98.3;;""
1625;44656.5613296759;98.3;;""
1626;44656.5613297917;98;;""
1627;44656.5613299074;97.7;;""
1628;44656.5613300231;97.4;;""
1629;44656.5613301389;97.4;;""
1630;44656.5613302546;97.1;;""
1631;44656.5613303704;97;;""
1632;44656.5613304861;96.8;;""
1633;44656.5613306018;96.5;;""
1634;44656.5613307176;96.4;;""
1635;44656.5613308333;96.2;;""
1636;44656.5613309491;96.1;;""
1637;44656.5613310648;95.8;;""
1638;44656.5613311806;95.5;;""
1639;44656.5613312963;95.5;;""
1640;44656.561331412;95.2;;""
1641;44656.5613315278;94.9;;""
1642;44656.5613316435;94.9;;""
1643;44656.5613317593;94.9;;""
1644;44656.561331875;94.6;;""
1645;44656.5613319907;94.3;;""
1646;44656.5613321065;94.3;;""
1647;44656.5613322222;94;;""
1648;44656.561332338;94;;""
1649;44656.5613324537;93.7;;""
1650;44656.5613325694;93.6;;""
1651;44656.5613326852;93.3;;""
1652;44656.5613328009;93.3;;""
1653;44656.5613329167;92.9;;""
1654;44656.5613330324;92.6;;""
1655;44656.5613331482;92.6;;""
1656;44656.5613332639;92.3;;""
1657;44656.5613333796;92.1;;""
1658;44656.5613334954;91.8;;""
1659;44656.5613336111;91.5;;""
1660;44656.5613337269;91.2;;""
1661;44656.5613338426;90.9;;""
1662;44656.5613339583;90.2;;""
1663;44656.5613340741;89.1;;""
1664;44656.5613341898;87.1;;""
1665;44656.5613343056;84;;""
1666;44656.5613344213;78.9;;""
1667;44656.561334537;76.5;;""
1668;44656.5613346528;85.5;;""
1669;44656.5613347685;97;;""
1670;44656.5613348843;101.6;;""
1671;44656.561335;103.3;;""
1672;44656.5613351157;105.3;;""
1673;44656.5613352315;106.6;;""
1674;44656.5613353472;107.2;;""
1675;44656.561335463;107.8;;""
1676;44656.5613355787;108.9;;""
1677;44656.5613356944;109.7;;""
1678;44656.5613358102;110.5;;""
1679;44656.5613359259;111.3;;""
1680;44656.5613360417;111.9;;""
1681;44656.5613361574;112.5;;""
1682;44656.5613362731;113.3;;""
1683;44656.5613363889;113.9;;""
1684;44656.5613365046;114.4;;""
1685;44656.5613366204;115;;""
1686;44656.5613367361;115.5;;""
1687;44656.5613368519;116.1;;""
1688;44656.5613369676;116.6;;""
1689;44656.5613370833;117.3;;""
1690;44656.5613371991;118.2;;""
1691;44656.5613373148;118.7;;""
1692;44656.5613374306;119.3;;""
1693;44656.5613375463;119.6;;""
1694;44656.561337662;120.1;;""
1695;44656.5613377778;120.4;;""
1696;44656.5613378935;121;;""
1697;44656.5613380093;121.5;;""
1698;44656.561338125;122.1;;""
1699;44656.5613382407;122.6;;""
1700;44656.5613383565;123.1;;""
1701;44656.5613384722;123.7;;""
1702;44656.561338588;124;;""
1703;44656.5613387037;124.5;;""
1704;44656.5613388194;124.8;;""
1705;44656.5613389352;125.4;;""
1706;44656.5613390509;125.7;;""
1707;44656.5613391667;126.2;;""
1708;44656.5613392824;126.8;;""
1709;44656.5613393981;127.4;;""
1710;44656.5613395139;127.7;;""
1711;44656.5613396296;128.3;;""
1712;44656.5613397454;128.6;;""
1713;44656.5613398611;129.1;;""
1714;44656.5613399769;129.4;;""
1715;44656.5613400926;130;;""
1716;44656.5613402083;130.4;;""
1717;44656.5613403241;130.9;;""
1718;44656.5613404398;131.2;;""
1719;44656.5613405556;131.8;;""
1720;44656.5613406713;132.1;;""
1721;44656.561340787;132.7;;""
1722;44656.5613409028;133;;""
1723;44656.5613410185;133.6;;""
1724;44656.5613411343;133.9;;""
1725;44656.56134125;134.4;;""
1726;44656.5613413657;134.9;;""
1727;44656.5613414815;135.2;;""
1728;44656.5613415972;135.8;;""
1729;44656.561341713;136;;""
1730;44656.5613418287;136.6;;""
1731;44656.5613419444;136.9;;""
1732;44656.5613420602;137.2;;""
1733;44656.5613421759;137.8;;""
1734;44656.5613422917;138.4;;""
1735;44656.5613424074;138.6;;""
1736;44656.5613425232;138.9;;""
1737;44656.5613426389;139.5;;""
1738;44656.5613427546;140;;""
1739;44656.5613428704;140.3;;""
1740;44656.5613429861;140.9;;""
1741;44656.5613431019;141.2;;""
1742;44656.5613432176;141.5;;""
1743;44656.5613433333;142;;""
1744;44656.5613434491;142.3;;""
1745;44656.5613435648;142.9;;""
1746;44656.5613436806;143.1;;""
1747;44656.5613437963;143.7;;""
1748;44656.561343912;144;;""
1749;44656.5613440278;144.6;;""
1750;44656.5613441435;144.8;;""
1751;44656.5613442593;145.2;;""
1752;44656.561344375;145.7;;""
1753;44656.5613444907;146;;""
1754;44656.5613446065;146.6;;""
1755;44656.5613447222;146.9;;""
1756;44656.561344838;147.4;;""
1757;44656.5613449537;147.7;;""
1758;44656.5613450694;148;;""
1759;44656.5613451852;148.6;;""
1760;44656.5613453009;148.9;;""
1761;44656.5613454167;149.2;;""
1762;44656.5613455324;149.6;;""
1763;44656.5613456482;150.2;;""
1764;44656.5613457639;150.5;;""
1765;44656.5613458796;151;;""
1766;44656.5613459954;151.4;;""
1767;44656.5613461111;151.7;;""
1768;44656.5613462269;152;;""
1769;44656.5613463426;152.6;;""
1770;44656.5613464583;152.8;;""
1771;44656.5613465741;153.1;;""
1772;44656.5613466898;153.6;;""
1773;44656.5613468056;154;;""
1774;44656.5613469213;154.3;;""
1775;44656.561347037;154.8;;""
1776;44656.5613471528;155.1;;""
1777;44656.5613472685;155.7;;""
1778;44656.5613473843;156;;""
1779;44656.5613475;156.2;;""
1780;44656.5613476157;156.5;;""
1781;44656.5613477315;157.1;;""
1782;44656.5613478472;157.3;;""
1783;44656.561347963;157.9;;""
1784;44656.5613480787;158.2;;""
1785;44656.5613481944;158.4;;""
1786;44656.5613483102;158.7;;""
1787;44656.5613484259;159.1;;""
1788;44656.5613485417;159.7;;""
1789;44656.5613486574;159.9;;""
1790;44656.5613487731;160.2;;""
1791;44656.5613488889;160.5;;""
1792;44656.5613490046;161.1;;""
1793;44656.5613491204;161.4;;""
1794;44656.5613492361;161.7;;""
1795;44656.5613493519;162;;""
1796;44656.5613494676;162.3;;""
1797;44656.5613495833;162.9;;""
1798;44656.5613496991;163.2;;""
1799;44656.5613498148;163.2;;""
1800;44656.5613499306;163.5;;""
1801;44656.5613500463;163.5;;""
1802;44656.561350162;163.1;;""
1803;44656.5613502778;162.3;;""
1804;44656.5613503935;161;;""
1805;44656.5613505093;158.1;;""
1806;44656.561350625;154.2;;""
1807;44656.5613507407;148.5;;""
1808;44656.5613508565;142.6;;""
1809;44656.5613509722;137.9;;""
1810;44656.561351088;135;;""
1811;44656.5613512037;132.6;;""
1812;44656.5613513194;130.5;;""
1813;44656.5613514352;128.6;;""
1814;44656.5613515509;127;;""
1815;44656.5613516667;125.6;;""
1816;44656.5613517824;124.5;;""
1817;44656.5613518981;123.3;;""
1818;44656.5613520139;122.2;;""
1819;44656.5613521296;121.1;;""
1820;44656.5613522454;120.2;;""
1821;44656.5613523611;119.3;;""
1822;44656.5613524768;118.4;;""
1823;44656.5613525926;117.6;;""
1824;44656.5613527083;117;;""
1825;44656.5613528241;116.4;;""
1826;44656.5613529398;115.6;;""
1827;44656.5613530556;115;;""
1828;44656.5613531713;114.5;;""
1829;44656.561353287;113.9;;""
1830;44656.5613534028;113.3;;""
1831;44656.5613535185;112.7;;""
1832;44656.5613536343;112.1;;""
1833;44656.56135375;111.6;;""
1834;44656.5613538657;111;;""
1835;44656.5613539815;110.7;;""
1836;44656.5613540972;110.2;;""
1837;44656.561354213;109.6;;""
1838;44656.5613543287;109.3;;""
1839;44656.5613544444;109;;""
1840;44656.5613545602;108.4;;""
1841;44656.5613546759;108.1;;""
1842;44656.5613547917;107.7;;""
1843;44656.5613549074;107.2;;""
1844;44656.5613550232;106.9;;""
1845;44656.5613551389;106.5;;""
1846;44656.5613552546;106.3;;""
1847;44656.5613553704;105.7;;""
1848;44656.5613554861;105.4;;""
1849;44656.5613556019;104.9;;""
1850;44656.5613557176;104.6;;""
1851;44656.5613558333;104.3;;""
1852;44656.5613559491;104;;""
1853;44656.5613560648;103.8;;""
1854;44656.5613561806;103.5;;""
1855;44656.5613562963;103;;""
1856;44656.561356412;102.7;;""
1857;44656.5613565278;102.4;;""
1858;44656.5613566435;102.1;;""
1859;44656.5613567593;101.8;;""
1860;44656.561356875;101.5;;""
1861;44656.5613569907;101.2;;""
1862;44656.5613571065;58.5;;""
1863;44656.5613572222;49.6;;""
1864;44656.561357338;68.4;;""
1865;44656.5613574537;77.8;;""
1866;44656.5613575694;80.1;;""
1867;44656.5613576852;81.4;;""
1868;44656.5613578009;83.1;;""
1869;44656.5613579167;84.3;;""
1870;44656.5613580324;85.2;;""
1871;44656.5613581481;86.1;;""
1872;44656.5613582639;86.7;;""
1873;44656.5613583796;87.5;;""
1874;44656.5613584954;88;;""
1875;44656.5613586111;89.1;;""
1876;44656.5613587269;90.1;;""
1877;44656.5613588426;90.9;;""
1878;44656.5613589583;91.4;;""
1879;44656.5613590741;92.2;;""
1880;44656.5613591898;92.7;;""
1881;44656.5613593056;93.3;;""
1882;44656.5613594213;93.8;;""
1883;44656.561359537;94.6;;""
1884;44656.5613596528;95.2;;""
1885;44656.5613597685;95.8;;""
1886;44656.5613598843;96.6;;""
1887;44656.56136;97.1;;""
1888;44656.5613601157;97.7;;""
1889;44656.5613602315;98.3;;""
1890;44656.5613603472;98.8;;""
1891;44656.561360463;99.4;;""
1892;44656.5613605787;100;;""
1893;44656.5613606944;100.3;;""
1894;44656.5613608102;100.8;;""
1895;44656.5613609259;101.4;;""
1896;44656.5613610417;102.1;;""
1897;44656.5613611574;102.7;;""
1898;44656.5613612731;103.2;;""
1899;44656.5613613889;103.8;;""
1900;44656.5613615046;104.3;;""
1901;44656.5613616204;104.7;;""
1902;44656.5613617361;105.2;;""
1903;44656.5613618519;105.8;;""
1904;44656.5613619676;106.3;;""
1905;44656.5613620833;106.8;;""
1906;44656.5613621991;107.4;;""
1907;44656.5613623148;107.9;;""
1908;44656.5613624306;108.5;;""
1909;44656.5613625463;108.8;;""
1910;44656.561362662;109.3;;""
1911;44656.5613627778;109.8;;""
1912;44656.5613628935;110.4;;""
1913;44656.5613630093;111;;""
1914;44656.561363125;111.3;;""
1915;44656.5613632407;111.9;;""
1916;44656.5613633565;112.5;;""
1917;44656.5613634722;112.7;;""
1918;44656.561363588;113.3;;""
1919;44656.5613637037;113.8;;""
1920;44656.5613638194;114.2;;""
1921;44656.5613639352;114.7;;""
1922;44656.5613640509;115.3;;""
1923;44656.5613641667;115.9;;""
1924;44656.5613642824;116.1;;""
1925;44656.5613643981;116.7;;""
1926;44656.5613645139;117.2;;""
1927;44656.5613646296;117.5;;""
1928;44656.5613647454;118.1;;""
1929;44656.5613648611;118.6;;""
1930;44656.5613649768;118.9;;""
1931;44656.5613650926;119.5;;""
1932;44656.5613652083;120;;""
1933;44656.5613653241;120.4;;""
1934;44656.5613654398;120.9;;""
1935;44656.5613655556;121.2;;""
1936;44656.5613656713;121.8;;""
1937;44656.561365787;122.1;;""
1938;44656.5613659028;122.7;;""
1939;44656.5613660185;123;;""
1940;44656.5613661343;123.6;;""
1941;44656.56136625;123.9;;""
1942;44656.5613663657;124.4;;""
1943;44656.5613664815;124.8;;""
1944;44656.5613665972;125.4;;""
1945;44656.561366713;125.9;;""
1946;44656.5613668287;126.2;;""
1947;44656.5613669444;126.8;;""
1948;44656.5613670602;127;;""
1949;44656.5613671759;127.6;;""
1950;44656.5613672917;128.2;;""
1951;44656.5613674074;128.4;;""
1952;44656.5613675232;129;;""
1953;44656.5613676389;129.3;;""
1954;44656.5613677546;129.8;;""
1955;44656.5613678704;130.1;;""
1956;44656.5613679861;130.6;;""
1957;44656.5613681019;131.2;;""
1958;44656.5613682176;131.5;;""
1959;44656.5613683333;132;;""
1960;44656.5613684491;132.3;;""
1961;44656.5613685648;132.9;;""
1962;44656.5613686806;133.2;;""
1963;44656.5613687963;133.5;;""
1964;44656.561368912;134;;""
1965;44656.5613690278;134.6;;""
1966;44656.5613691435;134.9;;""
1967;44656.5613692593;135.1;;""
1968;44656.561369375;135.7;;""
1969;44656.5613694907;136.2;;""
1970;44656.5613696065;136.5;;""
1971;44656.5613697222;136.8;;""
1972;44656.561369838;137.3;;""
1973;44656.5613699537;137.6;;""
1974;44656.5613700694;138.2;;""
1975;44656.5613701852;138.5;;""
1976;44656.5613703009;139.1;;""
1977;44656.5613704167;139.4;;""
1978;44656.5613705324;139.7;;""
1979;44656.5613706481;140.2;;""
1980;44656.5613707639;140.5;;""
1981;44656.5613708796;141.1;;""
1982;44656.5613709954;141.4;;""
1983;44656.5613711111;141.7;;""
1984;44656.5613712269;142.2;;""
1985;44656.5613713426;142.5;;""
1986;44656.5613714583;142.8;;""
1987;44656.5613715741;143.4;;""
1988;44656.5613716898;143.7;;""
1989;44656.5613718056;144;;""
1990;44656.5613719213;144.3;;""
1991;44656.561372037;144.9;;""
1992;44656.5613721528;145.2;;""
1993;44656.5613722685;145.5;;""
1994;44656.5613723843;146.1;;""
1995;44656.5613725;146.4;;""
1996;44656.5613726157;146.7;;""
1997;44656.5613727315;147.2;;""
1998;44656.5613728472;147.5;;""
1999;44656.561372963;148;;""
2000;44656.5613730787;148.3;;""
2001;44656.5613731944;148.6;;""
2002;44656.5613733102;149.1;;""
2003;44656.5613734259;149.4;;""
2004;44656.5613735417;150;;""
2005;44656.5613736574;150.3;;""
2006;44656.5613737731;150.6;;""
2007;44656.5613738889;150.9;;""
2008;44656.5613740046;151.5;;""
2009;44656.5613741204;151.8;;""
2010;44656.5613742361;152;;""
2011;44656.5613743519;152.6;;""
2012;44656.5613744676;152.9;;""
2013;44656.5613745833;153.4;;""
2014;44656.5613746991;153.8;;""
2015;44656.5613748148;154;;""
2016;44656.5613749306;154.4;;""
2017;44656.5613750463;154.9;;""
2018;44656.561375162;155.2;;""
2019;44656.5613752778;155.5;;""
2020;44656.5613753935;156.1;;""
2021;44656.5613755093;156.4;;""
2022;44656.561375625;156.7;;""
2023;44656.5613757407;157;;""
2024;44656.5613758565;157.5;;""
2025;44656.5613759722;157.8;;""
2026;44656.561376088;158.4;;""
2027;44656.5613762037;158.7;;""
2028;44656.5613763194;159;;""
2029;44656.5613764352;159.5;;""
2030;44656.5613765509;159.8;;""
2031;44656.5613766667;160.1;;""
2032;44656.5613767824;160.4;;""
2033;44656.5613768981;160.9;;""
2034;44656.5613770139;161.2;;""
2035;44656.5613771296;161.3;;""
2036;44656.5613772454;161.5;;""
2037;44656.5613773611;161.5;;""
2038;44656.5613774769;161.2;;""
2039;44656.5613775926;160.6;;""
2040;44656.5613777083;159.2;;""
2041;44656.5613778241;156.6;;""
2042;44656.5613779398;153;;""
2043;44656.5613780556;148.1;;""
2044;44656.5613781713;143.1;;""
2045;44656.561378287;138.6;;""
2046;44656.5613784028;135.2;;""
2047;44656.5613785185;132.7;;""
2048;44656.5613786343;130.5;;""
2049;44656.56137875;128.7;;""
2050;44656.5613788657;127;;""
2051;44656.5613789815;125.8;;""
2052;44656.5613790972;124.4;;""
2053;44656.561379213;123.1;;""
2054;44656.5613793287;122.1;;""
2055;44656.5613794444;121;;""
2056;44656.5613795602;120.1;;""
2057;44656.5613796759;119;;""
2058;44656.5613797917;118.1;;""
2059;44656.5613799074;117.5;;""
2060;44656.5613800232;116.7;;""
2061;44656.5613801389;115.9;;""
2062;44656.5613802546;115.3;;""
2063;44656.5613803704;114.8;;""
2064;44656.5613804861;114.2;;""
2065;44656.5613806019;113.4;;""
2066;44656.5613807176;112.8;;""
2067;44656.5613808333;112.3;;""
2068;44656.5613809491;111.7;;""
2069;44656.5613810648;111.2;;""
2070;44656.5613811806;110.9;;""
2071;44656.5613812963;110.4;;""
2072;44656.561381412;109.8;;""
2073;44656.5613815278;109.6;;""
2074;44656.5613816435;109;;""
2075;44656.5613817593;108.7;;""
2076;44656.561381875;108.1;;""
2077;44656.5613819907;107.8;;""
2078;44656.5613821065;107.5;;""
2079;44656.5613822222;107;;""
2080;44656.561382338;106.7;;""
2081;44656.5613824537;106.4;;""
2082;44656.5613825694;106;;""
2083;44656.5613826852;105.7;;""
2084;44656.5613828009;105.4;;""
2085;44656.5613829167;104.8;;""
2086;44656.5613830324;104.6;;""
2087;44656.5613831481;104.3;;""
2088;44656.5613832639;103.9;;""
2089;44656.5613833796;103.7;;""
2090;44656.5613834954;103.4;;""
2091;44656.5613836111;103.1;;""
2092;44656.5613837269;102.8;;""
2093;44656.5613838426;102.5;;""
2094;44656.5613839583;102.2;;""
2095;44656.5613840741;101.9;;""
2096;44656.5613841898;101.6;;""
2097;44656.5613843056;101.5;;""
2098;44656.5613844213;101;;""
2099;44656.561384537;100.9;;""
2100;44656.5613846528;100.6;;""
2101;44656.5613847685;100.4;;""
2102;44656.5613848843;100.1;;""
2103;44656.561385;99.8;;""
2104;44656.5613851157;99.5;;""
2105;44656.5613852315;99.5;;""
2106;44656.5613853472;99.2;;""
2107;44656.561385463;98.9;;""
2108;44656.5613855787;98.6;;""
2109;44656.5613856944;98.3;;""
2110;44656.5613858102;98.3;;""
2111;44656.5613859259;98;;""
2112;44656.5613860417;97.7;;""
2113;44656.5613861574;97.4;;""
2114;44656.5613862731;97.4;;""
2115;44656.5613863889;97.1;;""
2116;44656.5613865046;96.8;;""
2117;44656.5613866204;96.6;;""
2118;44656.5613867361;96.5;;""
2119;44656.5613868518;96.2;;""
2120;44656.5613869676;95.9;;""
2121;44656.5613870833;95.7;;""
2122;44656.5613871991;95.4;;""
2123;44656.5613873148;95.4;;""
2124;44656.5613874306;95.1;;""
2125;44656.5613875463;94.8;;""
2126;44656.561387662;94.5;;""
2127;44656.5613877778;94.5;;""
2128;44656.5613878935;59.9;;""
2129;44656.5613880093;37.9;;""
2130;44656.561388125;51.2;;""
2131;44656.5613882407;69.5;;""
2132;44656.5613883565;74.6;;""
2133;44656.5613884722;75.2;;""
2134;44656.561388588;75.5;;""
2135;44656.5613887037;76.9;;""
2136;44656.5613888194;78.3;;""
2137;44656.5613889352;79.1;;""
2138;44656.5613890509;79.6;;""
2139;44656.5613891667;80.4;;""
2140;44656.5613892824;81;;""
2141;44656.5613893982;81.9;;""
2142;44656.5613895139;82.8;;""
2143;44656.5613896296;83.6;;""
2144;44656.5613897454;84.5;;""
2145;44656.5613898611;85;;""
2146;44656.5613899769;85.3;;""
2147;44656.5613900926;86.1;;""
2148;44656.5613902083;86.9;;""
2149;44656.5613903241;87.5;;""
2150;44656.5613904398;88.1;;""
2151;44656.5613905556;88.7;;""
2152;44656.5613906713;89.2;;""
2153;44656.561390787;90;;""
2154;44656.5613909028;90.6;;""
2155;44656.5613910185;91.1;;""
2156;44656.5613911343;91.7;;""
2157;44656.56139125;92.2;;""
2158;44656.5613913657;92.9;;""
2159;44656.5613914815;93.5;;""
2160;44656.5613915972;94;;""
2161;44656.561391713;94.6;;""
2162;44656.5613918287;95.2;;""
2163;44656.5613919444;95.7;;""
2164;44656.5613920602;96.3;;""
2165;44656.5613921759;96.9;;""
2166;44656.5613922917;97.2;;""
2167;44656.5613924074;97.7;;""
2168;44656.5613925231;98.2;;""
2169;44656.5613926389;98.8;;""
2170;44656.5613927546;99.4;;""
2171;44656.5613928704;99.9;;""
2172;44656.5613929861;100.5;;""
2173;44656.5613931019;101;;""
2174;44656.5613932176;101.6;;""
2175;44656.5613933333;101.9;;""
2176;44656.5613934491;102.5;;""
2177;44656.5613935648;103.1;;""
2178;44656.5613936806;103.6;;""
2179;44656.5613937963;104.1;;""
2180;44656.561393912;104.7;;""
2181;44656.5613940278;105.2;;""
2182;44656.5613941435;105.8;;""
2183;44656.5613942593;106.1;;""
2184;44656.561394375;106.6;;""
2185;44656.5613944907;107.1;;""
2186;44656.5613946065;107.7;;""
2187;44656.5613947222;108.2;;""
2188;44656.561394838;108.5;;""
2189;44656.5613949537;109.1;;""
2190;44656.5613950694;109.6;;""
2191;44656.5613951852;110.1;;""
2192;44656.5613953009;110.7;;""
2193;44656.5613954167;111;;""
2194;44656.5613955324;111.5;;""
2195;44656.5613956481;112.1;;""
2196;44656.5613957639;112.6;;""
2197;44656.5613958796;112.9;;""
2198;44656.5613959954;113.5;;""
2199;44656.5613961111;114;;""
2200;44656.5613962269;114.6;;""
2201;44656.5613963426;114.9;;""
2202;44656.5613964583;115.5;;""
2203;44656.5613965741;115.8;;""
2204;44656.5613966898;116.3;;""
2205;44656.5613968056;116.9;;""
2206;44656.5613969213;117.4;;""
2207;44656.561397037;117.7;;""
2208;44656.5613971528;118.3;;""
2209;44656.5613972685;118.8;;""
2210;44656.5613973843;119.1;;""
2211;44656.5613975;119.6;;""
2212;44656.5613976157;120.2;;""
2213;44656.5613977315;120.5;;""
2214;44656.5613978472;121;;""
2215;44656.561397963;121.5;;""
2216;44656.5613980787;121.8;;""
2217;44656.5613981944;122.4;;""
2218;44656.5613983102;122.9;;""
2219;44656.5613984259;123.2;;""
2220;44656.5613985417;123.8;;""
2221;44656.5613986574;124.1;;""
2222;44656.5613987731;124.7;;""
2223;44656.5613988889;125.2;;""
2224;44656.5613990046;125.5;;""
2225;44656.5613991204;126;;""
2226;44656.5613992361;126.3;;""
2227;44656.5613993518;126.8;;""
2228;44656.5613994676;127.2;;""
2229;44656.5613995833;127.7;;""
2230;44656.5613996991;128.2;;""
2231;44656.5613998148;128.6;;""
2232;44656.5613999306;129.1;;""
2233;44656.5614000463;129.4;;""
2234;44656.561400162;130;;""
2235;44656.5614002778;130.3;;""
2236;44656.5614003935;130.9;;""
2237;44656.5614005093;131.2;;""
2238;44656.561400625;131.7;;""
2239;44656.5614007407;132;;""
2240;44656.5614008565;132.6;;""
2241;44656.5614009722;132.9;;""
2242;44656.561401088;133.4;;""
2243;44656.5614012037;133.9;;""
2244;44656.5614013194;134.2;;""
2245;44656.5614014352;134.7;;""
2246;44656.5614015509;135.1;;""
2247;44656.5614016667;135.6;;""
2248;44656.5614017824;135.9;;""
2249;44656.5614018982;136.5;;""
2250;44656.5614020139;136.7;;""
2251;44656.5614021296;137.1;;""
2252;44656.5614022454;137.6;;""
2253;44656.5614023611;137.9;;""
2254;44656.5614024769;138.5;;""
2255;44656.5614025926;138.8;;""
2256;44656.5614027083;139.1;;""
2257;44656.5614028241;139.6;;""
2258;44656.5614029398;139.9;;""
2259;44656.5614030556;140.5;;""
2260;44656.5614031713;140.8;;""
2261;44656.561403287;141.4;;""
2262;44656.5614034028;141.7;;""
2263;44656.5614035185;142;;""
2264;44656.5614036343;142.5;;""
2265;44656.56140375;142.9;;""
2266;44656.5614038657;143.2;;""
2267;44656.5614039815;143.7;;""
2268;44656.5614040972;144;;""
2269;44656.561404213;144.6;;""
2270;44656.5614043287;144.8;;""
2271;44656.5614044444;145.4;;""
2272;44656.5614045602;145.7;;""
2273;44656.5614046759;146.2;;""
2274;44656.5614047917;146.5;;""
2275;44656.5614049074;146.9;;""
2276;44656.5614050231;147.2;;""
2277;44656.5614051389;147.8;;""
2278;44656.5614052546;148.1;;""
2279;44656.5614053704;148.6;;""
2280;44656.5614054861;148.9;;""
2281;44656.5614056019;149.2;;""
2282;44656.5614057176;149.8;;""
2283;44656.5614058333;150.1;;""
2284;44656.5614059491;150.4;;""
2285;44656.5614060648;150.9;;""
2286;44656.5614061806;151.3;;""
2287;44656.5614062963;151.8;;""
2288;44656.561406412;152.1;;""
2289;44656.5614065278;152.4;;""
2290;44656.5614066435;152.7;;""
2291;44656.5614067593;153.3;;""
2292;44656.561406875;153.6;;""
2293;44656.5614069907;153.8;;""
2294;44656.5614071065;154.4;;""
2295;44656.5614072222;154.7;;""
2296;44656.561407338;155;;""
2297;44656.5614074537;155.5;;""
2298;44656.5614075694;155.8;;""
2299;44656.5614076852;156.1;;""
2300;44656.5614078009;156.4;;""
2301;44656.5614079167;157;;""
2302;44656.5614080324;157.3;;""
2303;44656.5614081481;157.6;;""
2304;44656.5614082639;157.9;;""
2305;44656.5614083796;158.2;;""
2306;44656.5614084954;158.5;;""
2307;44656.5614086111;159;;""
2308;44656.5614087269;159.3;;""
2309;44656.5614088426;159.3;;""
2310;44656.5614089583;159.4;;""
2311;44656.5614090741;159.4;;""
2312;44656.5614091898;159.1;;""
2313;44656.5614093056;158.2;;""
2314;44656.5614094213;157.1;;""
2315;44656.561409537;154.5;;""
2316;44656.5614096528;151.2;;""
2317;44656.5614097685;147.1;;""
2318;44656.5614098843;142.2;;""
2319;44656.56141;138.4;;""
2320;44656.5614101157;135.2;;""
2321;44656.5614102315;132.8;;""
2322;44656.5614103472;130.7;;""
2323;44656.561410463;128.7;;""
2324;44656.5614105787;127.1;;""
2325;44656.5614106944;125.5;;""
2326;44656.5614108102;124.3;;""
2327;44656.5614109259;123.1;;""
2328;44656.5614110417;122;;""
2329;44656.5614111574;121;;""
2330;44656.5614112731;119.9;;""
2331;44656.5614113889;119.1;;""
2332;44656.5614115046;117.9;;""
2333;44656.5614116204;117.4;;""
2334;44656.5614117361;116.5;;""
2335;44656.5614118519;115.9;;""
2336;44656.5614119676;115.1;;""
2337;44656.5614120833;114.5;;""
2338;44656.5614121991;114;;""
2339;44656.5614123148;113.4;;""
2340;44656.5614124306;112.6;;""
2341;44656.5614125463;112;;""
2342;44656.561412662;111.7;;""
2343;44656.5614127778;111.1;;""
2344;44656.5614128935;110.6;;""
2345;44656.5614130093;110.1;;""
2346;44656.561413125;109.7;;""
2347;44656.5614132407;109.2;;""
2348;44656.5614133565;108.9;;""
2349;44656.5614134722;108.4;;""
2350;44656.561413588;107.8;;""
2351;44656.5614137037;107.5;;""
2352;44656.5614138194;107.2;;""
2353;44656.5614139352;106.7;;""
2354;44656.5614140509;106.4;;""
2355;44656.5614141667;106.1;;""
2356;44656.5614142824;105.6;;""
2357;44656.5614143982;105.3;;""
2358;44656.5614145139;105;;""
2359;44656.5614146296;104.7;;""
2360;44656.5614147454;104.4;;""
2361;44656.5614148611;104.1;;""
2362;44656.5614149769;103.8;;""
2363;44656.5614150926;103.5;;""
2364;44656.5614152083;103.2;;""
2365;44656.5614153241;102.9;;""
2366;44656.5614154398;102.6;;""
2367;44656.5614155556;102.3;;""
2368;44656.5614156713;102;;""
2369;44656.561415787;101.7;;""
2370;44656.5614159028;101.5;;""
2371;44656.5614160185;101.1;;""
2372;44656.5614161343;101.1;;""
2373;44656.56141625;100.8;;""
2374;44656.5614163657;100.5;;""
2375;44656.5614164815;100.2;;""
2376;44656.5614165972;99.9;;""
2377;44656.561416713;99.6;;""
2378;44656.5614168287;99.6;;""
2379;44656.5614169444;99.3;;""
2380;44656.5614170602;99;;""
2381;44656.5614171759;99;;""
2382;44656.5614172917;98.7;;""
2383;44656.5614174074;98.4;;""
2384;44656.5614175231;98.1;;""
2385;44656.5614176389;98.1;;""
2386;44656.5614177546;97.8;;""
2387;44656.5614178704;97.5;;""
2388;44656.5614179861;97.5;;""
2389;44656.5614181019;97.2;;""
2390;44656.5614182176;96.9;;""
2391;44656.5614183333;96.9;;""
2392;44656.5614184491;96.8;;""
2393;44656.5614185648;96.5;;""
2394;44656.5614186806;96.2;;""
2395;44656.5614187963;96.2;;""
2396;44656.561418912;95.9;;""
2397;44656.5614190278;95.6;;""
2398;44656.5614191435;95.6;;""
2399;44656.5614192593;95.3;;""
2400;44656.561419375;95.2;;""
2401;44656.5614194907;95;;""
2402;44656.5614196065;94.9;;""
2403;44656.5614197222;94.6;;""
2404;44656.561419838;94.6;;""
2405;44656.5614199537;94.3;;""
2406;44656.5614200694;94.3;;""
2407;44656.5614201852;94;;""
2408;44656.5614203009;93.7;;""
2409;44656.5614204167;93.7;;""
2410;44656.5614205324;93.4;;""
2411;44656.5614206481;93.4;;""
2412;44656.5614207639;93.1;;""
2413;44656.5614208796;93.1;;""
2414;44656.5614209954;92.8;;""
2415;44656.5614211111;92.7;;""
2416;44656.5614212268;92.4;;""
2417;44656.5614213426;92.4;;""
2418;44656.5614214583;92.1;;""
2419;44656.5614215741;91.8;;""
2420;44656.5614216898;91.7;;""
2421;44656.5614218056;91.5;;""
2422;44656.5614219213;91.2;;""
2423;44656.561422037;90.9;;""
2424;44656.5614221528;90.6;;""
2425;44656.5614222685;90.3;;""
2426;44656.5614223843;89.7;;""
2427;44656.5614225;88.9;;""
2428;44656.5614226157;87.2;;""
2429;44656.5614227315;84.3;;""
2430;44656.5614228472;79.9;;""
2431;44656.561422963;76.5;;""
2432;44656.5614230787;87.4;;""
2433;44656.5614231944;97.5;;""
2434;44656.5614233102;100.1;;""
2435;44656.5614234259;101.1;;""
2436;44656.5614235417;103.1;;""
2437;44656.5614236574;104.2;;""
2438;44656.5614237732;105.3;;""
2439;44656.5614238889;106.2;;""
2440;44656.5614240046;107;;""
2441;44656.5614241204;107.8;;""
2442;44656.5614242361;108.6;;""
2443;44656.5614243519;109.2;;""
2444;44656.5614244676;110;;""
2445;44656.5614245833;110.6;;""
2446;44656.5614246991;111.4;;""
2447;44656.5614248148;112;;""
2448;44656.5614249306;112.6;;""
2449;44656.5614250463;113.1;;""
2450;44656.561425162;113.7;;""
2451;44656.5614252778;114.2;;""
2452;44656.5614253935;115;;""
2453;44656.5614255093;115.3;;""
2454;44656.561425625;116.2;;""
2455;44656.5614257407;116.7;;""
2456;44656.5614258565;117;;""
2457;44656.5614259722;117.5;;""
2458;44656.561426088;118.1;;""
2459;44656.5614262037;118.7;;""
2460;44656.5614263194;119;;""
2461;44656.5614264352;119.8;;""
2462;44656.5614265509;120.1;;""
2463;44656.5614266667;120.6;;""
2464;44656.5614267824;121.1;;""
2465;44656.5614268982;121.7;;""
2466;44656.5614270139;121.9;;""
2467;44656.5614271296;122.7;;""
2468;44656.5614272454;123;;""
2469;44656.5614273611;123.6;;""
2470;44656.5614274769;124.1;;""
2471;44656.5614275926;124.6;;""
2472;44656.5614277083;124.9;;""
2473;44656.5614278241;125.5;;""
2474;44656.5614279398;126.1;;""
2475;44656.5614280556;126.4;;""
2476;44656.5614281713;127;;""
2477;44656.561428287;127.3;;""
2478;44656.5614284028;127.8;;""
2479;44656.5614285185;128.4;;""
2480;44656.5614286343;128.7;;""
2481;44656.56142875;129.3;;""
2482;44656.5614288657;129.8;;""
2483;44656.5614289815;130.1;;""
2484;44656.5614290972;130.6;;""
2485;44656.561429213;131.2;;""
2486;44656.5614293287;131.5;;""
2487;44656.5614294444;132;;""
2488;44656.5614295602;132.5;;""
2489;44656.5614296759;132.8;;""
2490;44656.5614297917;133.4;;""
2491;44656.5614299074;133.7;;""
2492;44656.5614300231;134.2;;""
2493;44656.5614301389;134.8;;""
2494;44656.5614302546;135;;""
2495;44656.5614303704;135.6;;""
2496;44656.5614304861;135.9;;""
2497;44656.5614306019;136.2;;""
2498;44656.5614307176;136.8;;""
2499;44656.5614308333;137.3;;""
2500;44656.5614309491;137.7;;""
2501;44656.5614310648;138.2;;""
2502;44656.5614311806;138.5;;""
2503;44656.5614312963;139;;""
2504;44656.561431412;139.3;;""
2505;44656.5614315278;139.9;;""
2506;44656.5614316435;140.2;;""
2507;44656.5614317593;140.7;;""
2508;44656.561431875;141.1;;""
2509;44656.5614319907;141.6;;""
2510;44656.5614321065;141.9;;""
2511;44656.5614322222;142.5;;""
2512;44656.561432338;142.8;;""
2513;44656.5614324537;143.4;;""
2514;44656.5614325694;143.7;;""
2515;44656.5614326852;144.2;;""
2516;44656.5614328009;144.5;;""
2517;44656.5614329167;144.9;;""
2518;44656.5614330324;145.5;;""
2519;44656.5614331481;145.7;;""
2520;44656.5614332639;146;;""
2521;44656.5614333796;146.6;;""
2522;44656.5614334954;146.9;;""
2523;44656.5614336111;147.4;;""
2524;44656.5614337268;147.8;;""
2525;44656.5614338426;148.3;;""
2526;44656.5614339583;148.6;;""
2527;44656.5614340741;148.9;;""
2528;44656.5614341898;149.4;;""
2529;44656.5614343056;149.7;;""
2530;44656.5614344213;150.2;;""
2531;44656.561434537;150.8;;""
2532;44656.5614346528;151.1;;""
2533;44656.5614347685;151.4;;""
2534;44656.5614348843;152;;""
2535;44656.561435;152.3;;""
2536;44656.5614351157;152.6;;""
2537;44656.5614352315;153.1;;""
2538;44656.5614353472;153.4;;""
2539;44656.561435463;153.7;;""
2540;44656.5614355787;154.3;;""
2541;44656.5614356944;154.6;;""
2542;44656.5614358102;154.9;;""
2543;44656.5614359259;155.4;;""
2544;44656.5614360417;155.7;;""
2545;44656.5614361574;156.3;;""
2546;44656.5614362732;156.5;;""
2547;44656.5614363889;156.8;;""
2548;44656.5614365046;157.4;;""
2549;44656.5614366204;157.7;;""
2550;44656.5614367361;158;;""
2551;44656.5614368519;158.3;;""
2552;44656.5614369676;158.6;;""
2553;44656.5614370833;159.2;;""
2554;44656.5614371991;159.5;;""
2555;44656.5614373148;159.8;;""
2556;44656.5614374306;160.1;;""
2557;44656.5614375463;160.4;;""
2558;44656.561437662;160.9;;""
2559;44656.5614377778;161.2;;""
2560;44656.5614378935;161.5;;""
2561;44656.5614380093;161.5;;""
2562;44656.561438125;161.8;;""
2563;44656.5614382407;161.8;;""
2564;44656.5614383565;161.9;;""
2565;44656.5614384722;161.3;;""
2566;44656.561438588;160.4;;""
2567;44656.5614387037;158.7;;""
2568;44656.5614388194;155.6;;""
2569;44656.5614389352;151.4;;""
2570;44656.5614390509;146.5;;""
2571;44656.5614391667;141.1;;""
2572;44656.5614392824;137.3;;""
2573;44656.5614393981;134.3;;""
2574;44656.5614395139;132;;""
2575;44656.5614396296;129.9;;""
2576;44656.5614397454;128.2;;""
2577;44656.5614398611;126.6;;""
2578;44656.5614399769;125.3;;""
2579;44656.5614400926;124.2;;""
2580;44656.5614402083;122.8;;""
2581;44656.5614403241;121.9;;""
2582;44656.5614404398;120.7;;""
2583;44656.5614405556;119.9;;""
2584;44656.5614406713;119.2;;""
2585;44656.561440787;118.3;;""
2586;44656.5614409028;117.4;;""
2587;44656.5614410185;116.9;;""
2588;44656.5614411343;116;;""
2589;44656.56144125;115.4;;""
2590;44656.5614413657;114.8;;""
2591;44656.5614414815;114;;""
2592;44656.5614415972;113.6;;""
2593;44656.561441713;112.8;;""
2594;44656.5614418287;112.4;;""
2595;44656.5614419444;111.9;;""
2596;44656.5614420602;111.3;;""
2597;44656.5614421759;110.7;;""
2598;44656.5614422917;110.4;;""
2599;44656.5614424074;109.9;;""
2600;44656.5614425231;109.6;;""
2601;44656.5614426389;108.9;;""
2602;44656.5614427546;108.7;;""
2603;44656.5614428704;108.4;;""
2604;44656.5614429861;107.8;;""
2605;44656.5614431019;107.5;;""
2606;44656.5614432176;107;;""
2607;44656.5614433333;106.7;;""
2608;44656.5614434491;106.4;;""
2609;44656.5614435648;105.8;;""
2610;44656.5614436806;105.6;;""
2611;44656.5614437963;105.3;;""
2612;44656.561443912;105;;""
2613;44656.5614440278;104.7;;""
2614;44656.5614441435;104.4;;""
2615;44656.5614442593;104.1;;""
2616;44656.561444375;103.8;;""
2617;44656.5614444907;103.5;;""
2618;44656.5614446065;103.2;;""
2619;44656.5614447222;102.9;;""
2620;44656.561444838;102.6;;""
2621;44656.5614449537;102.3;;""
2622;44656.5614450694;102;;""
2623;44656.5614451852;101.8;;""
2624;44656.5614453009;101.5;;""
2625;44656.5614454167;101.2;;""
2626;44656.5614455324;101.2;;""
2627;44656.5614456481;100.9;;""
2628;44656.5614457639;100.6;;""
2629;44656.5614458796;100.3;;""
2630;44656.5614459954;100;;""
2631;44656.5614461111;100;;""
2632;44656.5614462269;99.7;;""
2633;44656.5614463426;99.4;;""
2634;44656.5614464583;99.1;;""
2635;44656.5614465741;98.8;;""
2636;44656.5614466898;98.8;;""
2637;44656.5614468056;98.5;;""
2638;44656.5614469213;98.4;;""
2639;44656.561447037;98.1;;""
2640;44656.5614471528;97.9;;""
2641;44656.5614472685;97.6;;""
2642;44656.5614473843;97.6;;""
2643;44656.5614475;97.3;;""
2644;44656.5614476157;97;;""
2645;44656.5614477315;97;;""
2646;44656.5614478472;96.7;;""
2647;44656.561447963;96.7;;""
2648;44656.5614480787;96.4;;""
2649;44656.5614481944;96.1;;""
2650;44656.5614483102;96;;""
2651;44656.5614484259;95.8;;""
2652;44656.5614485417;95.7;;""
2653;44656.5614486574;95.5;;""
2654;44656.5614487732;95.2;;""
2655;44656.5614488889;95.1;;""
2656;44656.5614490046;94.9;;""
2657;44656.5614491204;94.8;;""
2658;44656.5614492361;94.5;;""
2659;44656.5614493519;94.5;;""
2660;44656.5614494676;94.2;;""
2661;44656.5614495833;94.2;;""
2662;44656.5614496991;93.9;;""
2663;44656.5614498148;93.8;;""
2664;44656.5614499306;93.6;;""
2665;44656.5614500463;93.5;;""
2666;44656.561450162;93.2;;""
2667;44656.5614502778;93.2;;""
2668;44656.5614503935;92.9;;""
2669;44656.5614505093;92.6;;""
2670;44656.561450625;92.6;;""
2671;44656.5614507407;92.4;;""
2672;44656.5614508565;92.3;;""
2673;44656.5614509722;92;;""
2674;44656.561451088;91.8;;""
2675;44656.5614512037;91.7;;""
2676;44656.5614513194;91.4;;""
2677;44656.5614514352;91.1;;""
2678;44656.5614515509;90.8;;""
2679;44656.5614516667;90.6;;""
2680;44656.5614517824;90;;""
2681;44656.5614518981;89.1;;""
2682;44656.5614520139;87.8;;""
2683;44656.5614521296;84.9;;""
2684;44656.5614522454;80.4;;""
2685;44656.5614523611;76.5;;""
2686;44656.5614524769;87.4;;""
2687;44656.5614525926;97.7;;""
2688;44656.5614527083;100;;""
2689;44656.5614528241;101.4;;""
2690;44656.5614529398;103.2;;""
2691;44656.5614530556;104.6;;""
2692;44656.5614531713;105.7;;""
2693;44656.561453287;106.8;;""
2694;44656.5614534028;107.6;;""
2695;44656.5614535185;108.4;;""
2696;44656.5614536343;109;;""
2697;44656.56145375;109.8;;""
2698;44656.5614538657;110.4;;""
2699;44656.5614539815;111.2;;""
2700;44656.5614540972;111.8;;""
2701;44656.561454213;112.6;;""
2702;44656.5614543287;113.2;;""
2703;44656.5614544444;113.7;;""
2704;44656.5614545602;114.2;;""
2705;44656.5614546759;114.8;;""
2706;44656.5614547917;115.6;;""
2707;44656.5614549074;116.2;;""
2708;44656.5614550231;116.8;;""
2709;44656.5614551389;117.3;;""
2710;44656.5614552546;117.9;;""
2711;44656.5614553704;118.4;;""
2712;44656.5614554861;118.7;;""
2713;44656.5614556019;119;;""
2714;44656.5614557176;119.6;;""
2715;44656.5614558333;120.2;;""
2716;44656.5614559491;120.7;;""
2717;44656.5614560648;121.3;;""
2718;44656.5614561806;121.8;;""
2719;44656.5614562963;122.4;;""
2720;44656.561456412;122.7;;""
2721;44656.5614565278;123.2;;""
2722;44656.5614566435;123.5;;""
2723;44656.5614567593;124.1;;""
2724;44656.561456875;124.6;;""
2725;44656.5614569907;125.2;;""
2726;44656.5614571065;125.7;;""
2727;44656.5614572222;126;;""
2728;44656.561457338;126.6;;""
2729;44656.5614574537;127.1;;""
2730;44656.5614575694;127.4;;""
2731;44656.5614576852;128;;""
2732;44656.5614578009;128.3;;""
2733;44656.5614579167;128.8;;""
2734;44656.5614580324;129.1;;""
2735;44656.5614581482;129.7;;""
2736;44656.5614582639;130;;""
2737;44656.5614583796;132.9;;""
