﻿
******************************************************
GDUSB FastView (x64) V1.02 CSV-Export
******************************************************
13.520 mm
20.9 C******************************************************
Cycletime: 00:00:00.0100000
correzione offset: 0
correzione scala: 0
Duration of measuring (within trigger range): 00:00:31.5900000
******************************************************
File Name
C:\Users\student\Desktop\Daten\moscato-saporito\triton-6-2\380 01524.csv
******************************************************

Index;Tempo;Value;Error;Comment
1;44656.5724957755;213.6;;""
2;44656.5724958912;213.9;;""
3;44656.5724960069;214.2;;""
4;44656.5724961227;214.7;;""
5;44656.5724962384;215;;""
6;44656.5724963542;215.3;;""
7;44656.5724964699;215.9;;""
8;44656.5724965857;216.2;;""
9;44656.5724967014;216.8;;""
10;44656.5724968171;217.1;;""
11;44656.5724969329;217.4;;""
12;44656.5724970486;217.9;;""
13;44656.5724971644;218.3;;""
14;44656.5724972801;218.6;;""
15;44656.5724973958;219.1;;""
16;44656.5724975116;219.4;;""
17;44656.5724976273;219.7;;""
18;44656.5724977431;220.3;;""
19;44656.5724978588;220.5;;""
20;44656.5724979745;220.8;;""
21;44656.5724980903;221.4;;""
22;44656.572498206;221.7;;""
23;44656.5724983218;222.2;;""
24;44656.5724984375;222.5;;""
25;44656.5724985532;222.8;;""
26;44656.572498669;223.1;;""
27;44656.5724987847;223.4;;""
28;44656.5724989005;223.8;;""
29;44656.5724990162;224.3;;""
30;44656.5724991319;224.6;;""
31;44656.5724992477;224.9;;""
32;44656.5724993634;225.5;;""
33;44656.5724994792;225.8;;""
34;44656.5724995949;226.1;;""
35;44656.5724997107;226.4;;""
36;44656.5724998264;226.9;;""
37;44656.5724999421;227.2;;""
38;44656.5725000579;227.5;;""
39;44656.5725001736;228;;""
40;44656.5725002894;228.3;;""
41;44656.5725004051;228.6;;""
42;44656.5725005208;228.9;;""
43;44656.5725006366;229.2;;""
44;44656.5725007523;229.7;;""
45;44656.5725008681;230;;""
46;44656.5725009838;230.3;;""
47;44656.5725010995;230.6;;""
48;44656.5725012153;231;;""
49;44656.572501331;231.3;;""
50;44656.5725014468;231.6;;""
51;44656.5725015625;232.1;;""
52;44656.5725016782;232.4;;""
53;44656.572501794;232.7;;""
54;44656.5725019097;232.7;;""
55;44656.5725020255;233.3;;""
56;44656.5725021412;233.5;;""
57;44656.5725022569;233.6;;""
58;44656.5725023727;233.9;;""
59;44656.5725024884;234.1;;""
60;44656.5725026042;234.1;;""
61;44656.5725027199;234.2;;""
62;44656.5725028356;234.2;;""
63;44656.5725029514;234.1;;""
64;44656.5725030671;233.8;;""
65;44656.5725031829;233.2;;""
66;44656.5725032986;232.6;;""
67;44656.5725034144;231.8;;""
68;44656.5725035301;231.2;;""
69;44656.5725036458;230;;""
70;44656.5725037616;228.8;;""
71;44656.5725038773;227.7;;""
72;44656.5725039931;226.5;;""
73;44656.5725041088;225.3;;""
74;44656.5725042245;224;;""
75;44656.5725043403;222.9;;""
76;44656.572504456;221.5;;""
77;44656.5725045718;220.6;;""
78;44656.5725046875;219.4;;""
79;44656.5725048032;218.3;;""
80;44656.572504919;217.4;;""
81;44656.5725050347;216.5;;""
82;44656.5725051505;215.7;;""
83;44656.5725052662;214.8;;""
84;44656.5725053819;214;;""
85;44656.5725054977;213.2;;""
86;44656.5725056134;212.6;;""
87;44656.5725057292;212;;""
88;44656.5725058449;211.4;;""
89;44656.5725059606;210.9;;""
90;44656.5725060764;210.3;;""
91;44656.5725061921;209.7;;""
92;44656.5725063079;209.2;;""
93;44656.5725064236;208.9;;""
94;44656.5725065393;208.3;;""
95;44656.5725066551;208;;""
96;44656.5725067708;207.5;;""
97;44656.5725068866;207.2;;""
98;44656.5725070023;206.9;;""
99;44656.5725071181;206.4;;""
100;44656.5725072338;206.1;;""
101;44656.5725073495;205.8;;""
102;44656.5725074653;205.5;;""
103;44656.572507581;205.2;;""
104;44656.5725076968;204.9;;""
105;44656.5725078125;204.4;;""
106;44656.5725079282;204.4;;""
107;44656.572508044;204.1;;""
108;44656.5725081597;203.8;;""
109;44656.5725082755;203.5;;""
110;44656.5725083912;203.2;;""
111;44656.5725085069;202.9;;""
112;44656.5725086227;202.6;;""
113;44656.5725087384;202.6;;""
114;44656.5725088542;202.3;;""
115;44656.5725089699;201.9;;""
116;44656.5725090857;201.9;;""
117;44656.5725092014;201.6;;""
118;44656.5725093171;201.3;;""
119;44656.5725094329;201.3;;""
120;44656.5725095486;201;;""
121;44656.5725096644;200.9;;""
122;44656.5725097801;200.7;;""
123;44656.5725098958;200.4;;""
124;44656.5725100116;200.3;;""
125;44656.5725101273;200;;""
126;44656.5725102431;200;;""
127;44656.5725103588;199.7;;""
128;44656.5725104745;199.4;;""
129;44656.5725105903;199.4;;""
130;44656.572510706;199.1;;""
131;44656.5725108218;199.1;;""
132;44656.5725109375;199;;""
133;44656.5725110532;198.8;;""
134;44656.572511169;198.5;;""
135;44656.5725112847;198.4;;""
136;44656.5725114005;198.4;;""
137;44656.5725115162;198.1;;""
138;44656.5725116319;198.1;;""
139;44656.5725117477;197.8;;""
140;44656.5725118634;197.7;;""
141;44656.5725119792;197.5;;""
142;44656.5725120949;197.4;;""
143;44656.5725122106;197.1;;""
144;44656.5725123264;197.1;;""
145;44656.5725124421;196.8;;""
146;44656.5725125579;196.7;;""
147;44656.5725126736;196.4;;""
148;44656.5725127894;196.4;;""
149;44656.5725129051;196.1;;""
150;44656.5725130208;196.1;;""
151;44656.5725131366;195.8;;""
152;44656.5725132523;195.5;;""
153;44656.5725133681;195.2;;""
154;44656.5725134838;194.9;;""
155;44656.5725135995;194.1;;""
156;44656.5725137153;192.8;;""
157;44656.572513831;190.1;;""
158;44656.5725139468;183.6;;""
159;44656.5725140625;188.7;;""
160;44656.5725141782;196.1;;""
161;44656.572514294;200.1;;""
162;44656.5725144097;199.9;;""
163;44656.5725145255;199.4;;""
164;44656.5725146412;200;;""
165;44656.5725147569;200.8;;""
166;44656.5725148727;201.6;;""
167;44656.5725149884;202.2;;""
168;44656.5725151042;202.7;;""
169;44656.5725152199;203.3;;""
170;44656.5725153356;204.1;;""
171;44656.5725154514;204.7;;""
172;44656.5725155671;205;;""
173;44656.5725156829;205.6;;""
174;44656.5725157986;206.2;;""
175;44656.5725159144;206.8;;""
176;44656.5725160301;207.3;;""
177;44656.5725161458;207.8;;""
178;44656.5725162616;208.4;;""
179;44656.5725163773;209;;""
180;44656.5725164931;209.3;;""
181;44656.5725166088;209.9;;""
182;44656.5725167245;210.2;;""
183;44656.5725168403;210.7;;""
184;44656.572516956;211;;""
185;44656.5725170718;211.6;;""
186;44656.5725171875;212.1;;""
187;44656.5725173032;212.4;;""
188;44656.572517419;212.8;;""
189;44656.5725175347;213.3;;""
190;44656.5725176505;213.6;;""
191;44656.5725177662;214.2;;""
192;44656.5725178819;214.5;;""
193;44656.5725179977;215;;""
194;44656.5725181134;215.3;;""
195;44656.5725182292;215.9;;""
196;44656.5725183449;216.2;;""
197;44656.5725184606;216.5;;""
198;44656.5725185764;217;;""
199;44656.5725186921;217.4;;""
200;44656.5725188079;217.7;;""
201;44656.5725189236;218.2;;""
202;44656.5725190394;218.5;;""
203;44656.5725191551;218.8;;""
204;44656.5725192708;219.4;;""
205;44656.5725193866;219.7;;""
206;44656.5725195023;220;;""
207;44656.5725196181;220.3;;""
208;44656.5725197338;220.6;;""
209;44656.5725198495;221.2;;""
210;44656.5725199653;221.5;;""
211;44656.572520081;221.9;;""
212;44656.5725201968;222.2;;""
213;44656.5725203125;222.7;;""
214;44656.5725204282;223;;""
215;44656.572520544;223.3;;""
216;44656.5725206597;223.8;;""
217;44656.5725207755;224.1;;""
218;44656.5725208912;224.4;;""
219;44656.5725210069;224.7;;""
220;44656.5725211227;225;;""
221;44656.5725212384;225.6;;""
222;44656.5725213542;225.9;;""
223;44656.5725214699;226.2;;""
224;44656.5725215857;226.5;;""
225;44656.5725217014;227.1;;""
226;44656.5725218171;227.4;;""
227;44656.5725219329;227.6;;""
228;44656.5725220486;227.9;;""
229;44656.5725221644;228.5;;""
230;44656.5725222801;228.8;;""
231;44656.5725223958;229.1;;""
232;44656.5725225116;229.4;;""
233;44656.5725226273;229.7;;""
234;44656.5725227431;230.2;;""
235;44656.5725228588;230.5;;""
236;44656.5725229745;230.8;;""
237;44656.5725230903;231.1;;""
238;44656.572523206;231.6;;""
239;44656.5725233218;231.9;;""
240;44656.5725234375;232.2;;""
241;44656.5725235532;232.5;;""
242;44656.572523669;232.8;;""
243;44656.5725237847;233.1;;""
244;44656.5725239005;233.3;;""
245;44656.5725240162;233.6;;""
246;44656.5725241319;233.9;;""
247;44656.5725242477;233.9;;""
248;44656.5725243634;234.2;;""
249;44656.5725244792;234.2;;""
250;44656.5725245949;234.2;;""
251;44656.5725247106;234.2;;""
252;44656.5725248264;233.9;;""
253;44656.5725249421;233.3;;""
254;44656.5725250579;233;;""
255;44656.5725251736;232.2;;""
256;44656.5725252894;231.4;;""
257;44656.5725254051;230.6;;""
258;44656.5725255208;229.4;;""
259;44656.5725256366;228.6;;""
260;44656.5725257523;227.2;;""
261;44656.5725258681;226.1;;""
262;44656.5725259838;224.7;;""
263;44656.5725260995;223.6;;""
264;44656.5725262153;222.2;;""
265;44656.572526331;221.3;;""
266;44656.5725264468;220.1;;""
267;44656.5725265625;219;;""
268;44656.5725266782;218.2;;""
269;44656.572526794;217;;""
270;44656.5725269097;216.1;;""
271;44656.5725270255;215.3;;""
272;44656.5725271412;214.5;;""
273;44656.5725272569;213.7;;""
274;44656.5725273727;213.2;;""
275;44656.5725274884;212.3;;""
276;44656.5725276042;211.8;;""
277;44656.5725277199;211.2;;""
278;44656.5725278356;210.7;;""
279;44656.5725279514;210.1;;""
280;44656.5725280671;209.5;;""
281;44656.5725281829;209.2;;""
282;44656.5725282986;208.6;;""
283;44656.5725284144;208.1;;""
284;44656.5725285301;207.8;;""
285;44656.5725286458;207.5;;""
286;44656.5725287616;207.2;;""
287;44656.5725288773;206.9;;""
288;44656.5725289931;206.3;;""
289;44656.5725291088;206;;""
290;44656.5725292245;205.7;;""
291;44656.5725293403;205.4;;""
292;44656.572529456;205.1;;""
293;44656.5725295718;204.8;;""
294;44656.5725296875;204.5;;""
295;44656.5725298032;204.2;;""
296;44656.572529919;203.9;;""
297;44656.5725300347;203.6;;""
298;44656.5725301505;203.3;;""
299;44656.5725302662;203.3;;""
300;44656.5725303819;203;;""
301;44656.5725304977;202.7;;""
302;44656.5725306134;202.4;;""
303;44656.5725307292;202.1;;""
304;44656.5725308449;201.8;;""
305;44656.5725309607;201.8;;""
306;44656.5725310764;201.5;;""
307;44656.5725311921;201.5;;""
308;44656.5725313079;201.2;;""
309;44656.5725314236;200.9;;""
310;44656.5725315394;200.8;;""
311;44656.5725316551;200.5;;""
312;44656.5725317708;200.3;;""
313;44656.5725318866;200.2;;""
314;44656.5725320023;200;;""
315;44656.5725321181;199.9;;""
316;44656.5725322338;199.6;;""
317;44656.5725323495;199.4;;""
318;44656.5725324653;199.3;;""
319;44656.572532581;199;;""
320;44656.5725326968;199;;""
321;44656.5725328125;198.7;;""
322;44656.5725329282;198.7;;""
323;44656.572533044;198.4;;""
324;44656.5725331597;198.4;;""
325;44656.5725332755;198.1;;""
326;44656.5725333912;198;;""
327;44656.5725335069;197.8;;""
328;44656.5725336227;197.7;;""
329;44656.5725337384;197.5;;""
330;44656.5725338542;197.4;;""
331;44656.5725339699;197.1;;""
332;44656.5725340857;197.1;;""
333;44656.5725342014;196.8;;""
334;44656.5725343171;196.8;;""
335;44656.5725344329;196.7;;""
336;44656.5725345486;196.4;;""
337;44656.5725346644;196.4;;""
338;44656.5725347801;196.1;;""
339;44656.5725348958;196;;""
340;44656.5725350116;195.8;;""
341;44656.5725351273;195.5;;""
342;44656.5725352431;195.2;;""
343;44656.5725353588;194.6;;""
344;44656.5725354745;194;;""
345;44656.5725355903;192.6;;""
346;44656.572535706;189.2;;""
347;44656.5725358218;182.2;;""
348;44656.5725359375;189.7;;""
349;44656.5725360532;198.7;;""
350;44656.572536169;200.8;;""
351;44656.5725362847;199.9;;""
352;44656.5725364005;199.3;;""
353;44656.5725365162;199.9;;""
354;44656.5725366319;200.8;;""
355;44656.5725367477;201.6;;""
356;44656.5725368634;202.2;;""
357;44656.5725369792;202.8;;""
358;44656.5725370949;203.4;;""
359;44656.5725372106;204;;""
360;44656.5725373264;204.5;;""
361;44656.5725374421;205.3;;""
362;44656.5725375579;205.6;;""
363;44656.5725376736;206.2;;""
364;44656.5725377894;206.8;;""
365;44656.5725379051;207.3;;""
366;44656.5725380208;207.9;;""
367;44656.5725381366;208.2;;""
368;44656.5725382523;208.7;;""
369;44656.5725383681;209.3;;""
370;44656.5725384838;209.9;;""
371;44656.5725385995;210.1;;""
372;44656.5725387153;210.7;;""
373;44656.572538831;211.1;;""
374;44656.5725389468;211.7;;""
375;44656.5725390625;212;;""
376;44656.5725391782;212.5;;""
377;44656.572539294;212.8;;""
378;44656.5725394097;213.4;;""
379;44656.5725395255;214;;""
380;44656.5725396412;214.2;;""
381;44656.5725397569;214.5;;""
382;44656.5725398727;215.1;;""
383;44656.5725399884;215.4;;""
384;44656.5725401042;216;;""
385;44656.5725402199;216.3;;""
386;44656.5725403356;216.8;;""
387;44656.5725404514;217.1;;""
388;44656.5725405671;217.6;;""
389;44656.5725406829;217.9;;""
390;44656.5725407986;218.2;;""
391;44656.5725409143;218.8;;""
392;44656.5725410301;219.3;;""
393;44656.5725411458;219.7;;""
394;44656.5725412616;220;;""
395;44656.5725413773;220.3;;""
396;44656.5725414931;220.8;;""
397;44656.5725416088;221.1;;""
398;44656.5725417245;221.4;;""
399;44656.5725418403;222;;""
400;44656.572541956;222.3;;""
401;44656.5725420718;222.6;;""
402;44656.5725421875;222.9;;""
403;44656.5725423032;223.4;;""
404;44656.572542419;223.7;;""
405;44656.5725425347;224;;""
406;44656.5725426505;224.6;;""
407;44656.5725427662;224.8;;""
408;44656.5725428819;225.1;;""
409;44656.5725429977;225.7;;""
410;44656.5725431134;226;;""
411;44656.5725432292;226.3;;""
412;44656.5725433449;226.6;;""
413;44656.5725434607;226.9;;""
414;44656.5725435764;227.4;;""
415;44656.5725436921;227.7;;""
416;44656.5725438079;228;;""
417;44656.5725439236;228.3;;""
418;44656.5725440394;228.6;;""
419;44656.5725441551;229;;""
420;44656.5725442708;229.3;;""
421;44656.5725443866;229.6;;""
422;44656.5725445023;229.9;;""
423;44656.5725446181;230.4;;""
424;44656.5725447338;230.7;;""
425;44656.5725448495;231;;""
426;44656.5725449653;231.3;;""
427;44656.572545081;231.6;;""
428;44656.5725451968;231.9;;""
429;44656.5725453125;232.2;;""
430;44656.5725454282;232.5;;""
431;44656.572545544;233;;""
432;44656.5725456597;233.3;;""
433;44656.5725457755;233.4;;""
434;44656.5725458912;233.7;;""
435;44656.5725460069;233.9;;""
436;44656.5725461227;234;;""
437;44656.5725462384;234.1;;""
438;44656.5725463542;234.1;;""
439;44656.5725464699;234.1;;""
440;44656.5725465856;233.8;;""
441;44656.5725467014;233.5;;""
442;44656.5725468171;233;;""
443;44656.5725469329;232.4;;""
444;44656.5725470486;231.6;;""
445;44656.5725471644;230.7;;""
446;44656.5725472801;229.6;;""
447;44656.5725473958;228.5;;""
448;44656.5725475116;227.4;;""
449;44656.5725476273;226;;""
450;44656.5725477431;224.9;;""
451;44656.5725478588;223.5;;""
452;44656.5725479745;222.4;;""
453;44656.5725480903;221.3;;""
454;44656.572548206;220.2;;""
455;44656.5725483218;219.1;;""
456;44656.5725484375;218.1;;""
457;44656.5725485532;217.2;;""
458;44656.572548669;216.1;;""
459;44656.5725487847;215.5;;""
460;44656.5725489005;214.6;;""
461;44656.5725490162;213.7;;""
462;44656.5725491319;213.1;;""
463;44656.5725492477;212.5;;""
464;44656.5725493634;211.7;;""
465;44656.5725494792;211.1;;""
466;44656.5725495949;210.5;;""
467;44656.5725497106;210.2;;""
468;44656.5725498264;209.6;;""
469;44656.5725499421;209.1;;""
470;44656.5725500579;208.8;;""
471;44656.5725501736;208.2;;""
472;44656.5725502894;207.7;;""
473;44656.5725504051;207.4;;""
474;44656.5725505208;207.1;;""
475;44656.5725506366;206.5;;""
476;44656.5725507523;206.2;;""
477;44656.5725508681;206;;""
478;44656.5725509838;205.7;;""
479;44656.5725510995;205.4;;""
480;44656.5725512153;205.1;;""
481;44656.572551331;204.8;;""
482;44656.5725514468;204.5;;""
483;44656.5725515625;204.2;;""
484;44656.5725516782;203.9;;""
485;44656.572551794;203.6;;""
486;44656.5725519097;203.3;;""
487;44656.5725520255;203;;""
488;44656.5725521412;202.7;;""
489;44656.5725522569;202.7;;""
490;44656.5725523727;202.4;;""
491;44656.5725524884;202.1;;""
492;44656.5725526042;202.1;;""
493;44656.5725527199;201.8;;""
494;44656.5725528356;201.5;;""
495;44656.5725529514;201.2;;""
496;44656.5725530671;201.2;;""
497;44656.5725531829;200.9;;""
498;44656.5725532986;200.8;;""
499;44656.5725534143;200.6;;""
500;44656.5725535301;200.3;;""
501;44656.5725536458;200.2;;""
502;44656.5725537616;199.9;;""
503;44656.5725538773;199.9;;""
504;44656.5725539931;199.6;;""
505;44656.5725541088;199.6;;""
506;44656.5725542245;199.3;;""
507;44656.5725543403;199;;""
508;44656.572554456;199;;""
509;44656.5725545718;198.9;;""
510;44656.5725546875;198.6;;""
511;44656.5725548032;198.6;;""
512;44656.572554919;198.3;;""
513;44656.5725550347;198.3;;""
514;44656.5725551505;198;;""
515;44656.5725552662;197.9;;""
516;44656.5725553819;197.6;;""
517;44656.5725554977;197.6;;""
518;44656.5725556134;197.3;;""
519;44656.5725557292;197.3;;""
520;44656.5725558449;197.2;;""
521;44656.5725559607;196.9;;""
522;44656.5725560764;196.7;;""
523;44656.5725561921;196.7;;""
524;44656.5725563079;196.4;;""
525;44656.5725564236;196.4;;""
526;44656.5725565394;196.1;;""
527;44656.5725566551;196;;""
528;44656.5725567708;195.8;;""
529;44656.5725568866;195.5;;""
530;44656.5725570023;195.2;;""
531;44656.5725571181;194.9;;""
532;44656.5725572338;194;;""
533;44656.5725573495;193;;""
534;44656.5725574653;190.5;;""
535;44656.572557581;184.8;;""
536;44656.5725576968;183.6;;""
537;44656.5725578125;191.8;;""
538;44656.5725579282;198.8;;""
539;44656.572558044;199.8;;""
540;44656.5725581597;199.4;;""
541;44656.5725582755;199.7;;""
542;44656.5725583912;200.8;;""
543;44656.5725585069;201.6;;""
544;44656.5725586227;202.2;;""
545;44656.5725587384;202.7;;""
546;44656.5725588542;203.3;;""
547;44656.5725589699;203.9;;""
548;44656.5725590856;204.4;;""
549;44656.5725592014;205;;""
550;44656.5725593171;205.6;;""
551;44656.5725594329;206.1;;""
552;44656.5725595486;206.4;;""
553;44656.5725596644;207;;""
554;44656.5725597801;207.5;;""
555;44656.5725598958;208.1;;""
556;44656.5725600116;208.7;;""
557;44656.5725601273;209;;""
558;44656.5725602431;209.5;;""
559;44656.5725603588;210.1;;""
560;44656.5725604745;210.4;;""
561;44656.5725605903;210.9;;""
562;44656.572560706;211.2;;""
563;44656.5725608218;211.7;;""
564;44656.5725609375;212;;""
565;44656.5725610532;212.6;;""
566;44656.572561169;212.9;;""
567;44656.5725612847;213.4;;""
568;44656.5725614005;214;;""
569;44656.5725615162;214.3;;""
570;44656.5725616319;214.6;;""
571;44656.5725617477;215.2;;""
572;44656.5725618634;215.5;;""
573;44656.5725619792;215.8;;""
574;44656.5725620949;216.3;;""
575;44656.5725622106;216.6;;""
576;44656.5725623264;216.9;;""
577;44656.5725624421;217.3;;""
578;44656.5725625579;217.8;;""
579;44656.5725626736;218.1;;""
580;44656.5725627894;218.7;;""
581;44656.5725629051;219;;""
582;44656.5725630208;219.3;;""
583;44656.5725631366;219.9;;""
584;44656.5725632523;220.2;;""
585;44656.5725633681;220.5;;""
586;44656.5725634838;221;;""
587;44656.5725635995;221.3;;""
588;44656.5725637153;221.6;;""
589;44656.572563831;221.9;;""
590;44656.5725639468;222.5;;""
591;44656.5725640625;222.8;;""
592;44656.5725641782;223.1;;""
593;44656.572564294;223.7;;""
594;44656.5725644097;223.9;;""
595;44656.5725645255;224.2;;""
596;44656.5725646412;224.8;;""
597;44656.5725647569;225.1;;""
598;44656.5725648727;225.3;;""
599;44656.5725649884;225.9;;""
600;44656.5725651042;226.2;;""
601;44656.5725652199;226.5;;""
602;44656.5725653356;227;;""
603;44656.5725654514;227.3;;""
604;44656.5725655671;227.8;;""
605;44656.5725656829;228.1;;""
606;44656.5725657986;228.4;;""
607;44656.5725659144;228.7;;""
608;44656.5725660301;229;;""
609;44656.5725661458;229.5;;""
610;44656.5725662616;229.8;;""
611;44656.5725663773;230.1;;""
612;44656.5725664931;230.7;;""
613;44656.5725666088;230.9;;""
614;44656.5725667245;231.2;;""
615;44656.5725668403;231.8;;""
616;44656.572566956;232.1;;""
617;44656.5725670718;232.4;;""
618;44656.5725671875;232.6;;""
619;44656.5725673032;232.9;;""
620;44656.572567419;233.2;;""
621;44656.5725675347;233.5;;""
622;44656.5725676505;233.8;;""
623;44656.5725677662;234.1;;""
624;44656.5725678819;234.1;;""
625;44656.5725679977;234.4;;""
626;44656.5725681134;234.4;;""
627;44656.5725682292;234.4;;""
628;44656.5725683449;234.1;;""
629;44656.5725684607;233.8;;""
630;44656.5725685764;233.2;;""
631;44656.5725686921;232.7;;""
632;44656.5725688079;231.8;;""
633;44656.5725689236;230.9;;""
634;44656.5725690394;229.8;;""
635;44656.5725691551;228.7;;""
636;44656.5725692708;227.5;;""
637;44656.5725693866;226.3;;""
638;44656.5725695023;224.9;;""
639;44656.5725696181;223.7;;""
640;44656.5725697338;222.5;;""
641;44656.5725698495;221.1;;""
642;44656.5725699653;219.9;;""
643;44656.572570081;219.1;;""
644;44656.5725701968;218;;""
645;44656.5725703125;216.9;;""
646;44656.5725704282;216;;""
647;44656.572570544;215.2;;""
648;44656.5725706597;214.4;;""
649;44656.5725707755;213.5;;""
650;44656.5725708912;213;;""
651;44656.5725710069;212.1;;""
652;44656.5725711227;211.5;;""
653;44656.5725712384;211.2;;""
654;44656.5725713542;210.4;;""
655;44656.5725714699;209.8;;""
656;44656.5725715856;209.3;;""
657;44656.5725717014;209;;""
658;44656.5725718171;208.4;;""
659;44656.5725719329;208.2;;""
660;44656.5725720486;207.6;;""
661;44656.5725721644;207.3;;""
662;44656.5725722801;206.8;;""
663;44656.5725723958;206.5;;""
664;44656.5725725116;206.2;;""
665;44656.5725726273;205.9;;""
666;44656.5725727431;205.3;;""
667;44656.5725728588;205.3;;""
668;44656.5725729745;205;;""
669;44656.5725730903;204.5;;""
670;44656.572573206;204.2;;""
671;44656.5725733218;203.9;;""
672;44656.5725734375;203.6;;""
673;44656.5725735532;203.6;;""
674;44656.572573669;203.3;;""
675;44656.5725737847;203;;""
676;44656.5725739005;202.7;;""
677;44656.5725740162;202.4;;""
678;44656.5725741319;202.4;;""
679;44656.5725742477;202.1;;""
680;44656.5725743634;201.8;;""
681;44656.5725744792;201.5;;""
682;44656.5725745949;201.5;;""
683;44656.5725747106;201.2;;""
684;44656.5725748264;200.9;;""
685;44656.5725749421;200.9;;""
686;44656.5725750579;200.6;;""
687;44656.5725751736;200.6;;""
688;44656.5725752893;200.3;;""
689;44656.5725754051;200;;""
690;44656.5725755208;200;;""
691;44656.5725756366;199.7;;""
692;44656.5725757523;199.6;;""
693;44656.5725758681;199.3;;""
694;44656.5725759838;199.3;;""
695;44656.5725760995;199;;""
696;44656.5725762153;198.7;;""
697;44656.572576331;198.7;;""
698;44656.5725764468;198.4;;""
699;44656.5725765625;198.4;;""
700;44656.5725766782;198.1;;""
701;44656.572576794;198.1;;""
702;44656.5725769097;197.8;;""
703;44656.5725770255;197.8;;""
704;44656.5725771412;197.5;;""
705;44656.5725772569;197.5;;""
706;44656.5725773727;197.2;;""
707;44656.5725774884;197.1;;""
708;44656.5725776042;197.1;;""
709;44656.5725777199;196.8;;""
710;44656.5725778357;196.8;;""
711;44656.5725779514;196.4;;""
712;44656.5725780671;196.4;;""
713;44656.5725781829;196.1;;""
714;44656.5725782986;196.1;;""
715;44656.5725784144;195.8;;""
716;44656.5725785301;195.5;;""
717;44656.5725786458;195.5;;""
718;44656.5725787616;194.9;;""
719;44656.5725788773;194.6;;""
720;44656.5725789931;194;;""
721;44656.5725791088;192.6;;""
722;44656.5725792245;189.5;;""
723;44656.5725793403;182.9;;""
724;44656.572579456;189;;""
725;44656.5725795718;197.4;;""
726;44656.5725796875;200.5;;""
727;44656.5725798032;199.8;;""
728;44656.572579919;199.3;;""
729;44656.5725800347;199.6;;""
730;44656.5725801505;200.7;;""
731;44656.5725802662;201.5;;""
732;44656.5725803819;202.1;;""
733;44656.5725804977;202.6;;""
734;44656.5725806134;203.2;;""
735;44656.5725807292;203.8;;""
736;44656.5725808449;204.4;;""
737;44656.5725809606;204.9;;""
738;44656.5725810764;205.6;;""
739;44656.5725811921;206.1;;""
740;44656.5725813079;206.5;;""
741;44656.5725814236;207.3;;""
742;44656.5725815394;207.6;;""
743;44656.5725816551;208.2;;""
744;44656.5725817708;208.4;;""
745;44656.5725818866;209;;""
746;44656.5725820023;209.5;;""
747;44656.5725821181;210;;""
748;44656.5725822338;210.3;;""
749;44656.5725823495;210.9;;""
750;44656.5725824653;211.2;;""
751;44656.572582581;211.7;;""
752;44656.5725826968;212.3;;""
753;44656.5725828125;212.6;;""
754;44656.5725829282;213;;""
755;44656.572583044;213.5;;""
756;44656.5725831597;213.8;;""
757;44656.5725832755;214.1;;""
758;44656.5725833912;214.7;;""
759;44656.5725835069;215;;""
760;44656.5725836227;215.6;;""
761;44656.5725837384;216.1;;""
762;44656.5725838542;216.4;;""
763;44656.5725839699;216.7;;""
764;44656.5725840856;217;;""
765;44656.5725842014;217.5;;""
766;44656.5725843171;217.8;;""
767;44656.5725844329;218.3;;""
768;44656.5725845486;218.6;;""
769;44656.5725846644;218.9;;""
770;44656.5725847801;219.2;;""
771;44656.5725848958;219.8;;""
772;44656.5725850116;220.1;;""
773;44656.5725851273;220.3;;""
774;44656.5725852431;220.9;;""
775;44656.5725853588;221.2;;""
776;44656.5725854745;221.6;;""
777;44656.5725855903;221.9;;""
778;44656.572585706;222.2;;""
779;44656.5725858218;222.5;;""
780;44656.5725859375;223.1;;""
781;44656.5725860532;223.4;;""
782;44656.572586169;223.6;;""
783;44656.5725862847;224;;""
784;44656.5725864005;224.5;;""
785;44656.5725865162;224.8;;""
786;44656.5725866319;225.1;;""
787;44656.5725867477;225.4;;""
788;44656.5725868634;225.7;;""
789;44656.5725869792;226.2;;""
790;44656.5725870949;226.5;;""
791;44656.5725872106;227;;""
792;44656.5725873264;227.3;;""
793;44656.5725874421;227.6;;""
794;44656.5725875579;227.9;;""
795;44656.5725876736;228.2;;""
796;44656.5725877893;228.7;;""
797;44656.5725879051;229;;""
798;44656.5725880208;229.4;;""
799;44656.5725881366;229.6;;""
800;44656.5725882523;229.9;;""
801;44656.5725883681;230.2;;""
802;44656.5725884838;230.5;;""
803;44656.5725885995;231.1;;""
804;44656.5725887153;231.3;;""
805;44656.572588831;231.6;;""
806;44656.5725889468;231.9;;""
807;44656.5725890625;232.4;;""
808;44656.5725891782;232.5;;""
809;44656.572589294;232.7;;""
810;44656.5725894097;233.3;;""
811;44656.5725895255;233.3;;""
812;44656.5725896412;233.6;;""
813;44656.5725897569;233.9;;""
814;44656.5725898727;234;;""
815;44656.5725899884;234.2;;""
816;44656.5725901042;234.2;;""
817;44656.5725902199;234.2;;""
818;44656.5725903357;233.9;;""
819;44656.5725904514;233.6;;""
820;44656.5725905671;233;;""
821;44656.5725906829;232.5;;""
822;44656.5725907986;231.6;;""
823;44656.5725909144;230.8;;""
824;44656.5725910301;229.7;;""
825;44656.5725911458;228.5;;""
826;44656.5725912616;227.4;;""
827;44656.5725913773;226.3;;""
828;44656.5725914931;224.9;;""
829;44656.5725916088;223.8;;""
830;44656.5725917245;222.5;;""
831;44656.5725918403;221.2;;""
832;44656.572591956;220.3;;""
833;44656.5725920718;219.2;;""
834;44656.5725921875;218.1;;""
835;44656.5725923032;217.2;;""
836;44656.572592419;216.2;;""
837;44656.5725925347;215.4;;""
838;44656.5725926505;214.5;;""
839;44656.5725927662;213.9;;""
840;44656.5725928819;213;;""
841;44656.5725929977;212.4;;""
842;44656.5725931134;211.8;;""
843;44656.5725932292;211.2;;""
844;44656.5725933449;210.7;;""
845;44656.5725934606;210.1;;""
846;44656.5725935764;209.5;;""
847;44656.5725936921;209.3;;""
848;44656.5725938079;208.7;;""
849;44656.5725939236;208.2;;""
850;44656.5725940394;207.9;;""
851;44656.5725941551;207.3;;""
852;44656.5725942708;207;;""
853;44656.5725943866;206.7;;""
854;44656.5725945023;206.2;;""
855;44656.5725946181;205.9;;""
856;44656.5725947338;205.6;;""
857;44656.5725948495;205.3;;""
858;44656.5725949653;205;;""
859;44656.572595081;204.7;;""
860;44656.5725951968;204.4;;""
861;44656.5725953125;204.1;;""
862;44656.5725954282;203.9;;""
863;44656.572595544;203.6;;""
864;44656.5725956597;203.3;;""
865;44656.5725957755;203.2;;""
866;44656.5725958912;202.9;;""
867;44656.5725960069;202.6;;""
868;44656.5725961227;202.4;;""
869;44656.5725962384;202.1;;""
870;44656.5725963542;201.8;;""
871;44656.5725964699;201.8;;""
872;44656.5725965856;201.5;;""
873;44656.5725967014;201.1;;""
874;44656.5725968171;200.9;;""
875;44656.5725969329;200.9;;""
876;44656.5725970486;200.8;;""
877;44656.5725971644;200.5;;""
878;44656.5725972801;200.3;;""
879;44656.5725973958;200.2;;""
880;44656.5725975116;199.9;;""
881;44656.5725976273;199.9;;""
882;44656.5725977431;199.6;;""
883;44656.5725978588;199.3;;""
884;44656.5725979745;199.3;;""
885;44656.5725980903;199;;""
886;44656.572598206;199;;""
887;44656.5725983218;198.7;;""
888;44656.5725984375;198.6;;""
889;44656.5725985532;198.3;;""
890;44656.572598669;198.3;;""
891;44656.5725987847;198;;""
892;44656.5725989005;198;;""
893;44656.5725990162;197.7;;""
894;44656.5725991319;197.7;;""
895;44656.5725992477;197.4;;""
896;44656.5725993634;197.4;;""
897;44656.5725994792;197.1;;""
898;44656.5725995949;197;;""
899;44656.5725997106;197;;""
900;44656.5725998264;196.7;;""
901;44656.5725999421;196.4;;""
902;44656.5726000579;196.4;;""
903;44656.5726001736;196.3;;""
904;44656.5726002894;196;;""
905;44656.5726004051;195.7;;""
906;44656.5726005208;195.7;;""
907;44656.5726006366;195.4;;""
908;44656.5726007523;195.1;;""
909;44656.5726008681;194.5;;""
910;44656.5726009838;193.7;;""
911;44656.5726010995;191.8;;""
912;44656.5726012153;187.6;;""
913;44656.572601331;179.2;;""
914;44656.5726014468;186.5;;""
915;44656.5726015625;199.1;;""
916;44656.5726016782;201.7;;""
917;44656.572601794;200.2;;""
918;44656.5726019097;199.6;;""
919;44656.5726020255;200.1;;""
920;44656.5726021412;201;;""
921;44656.5726022569;201.6;;""
922;44656.5726023727;202.4;;""
923;44656.5726024884;203;;""
924;44656.5726026042;203.5;;""
925;44656.5726027199;204.1;;""
926;44656.5726028357;204.7;;""
927;44656.5726029514;205.2;;""
928;44656.5726030671;205.8;;""
929;44656.5726031829;206.3;;""
930;44656.5726032986;206.8;;""
931;44656.5726034144;207.2;;""
932;44656.5726035301;207.7;;""
933;44656.5726036458;208.2;;""
934;44656.5726037616;208.8;;""
935;44656.5726038773;209.3;;""
936;44656.5726039931;209.7;;""
937;44656.5726041088;210.2;;""
938;44656.5726042245;210.5;;""
939;44656.5726043403;211.1;;""
940;44656.572604456;211.6;;""
941;44656.5726045718;211.9;;""
942;44656.5726046875;212.2;;""
943;44656.5726048032;212.8;;""
944;44656.572604919;213.3;;""
945;44656.5726050347;213.6;;""
946;44656.5726051505;213.9;;""
947;44656.5726052662;214.4;;""
948;44656.5726053819;214.7;;""
949;44656.5726054977;215.2;;""
950;44656.5726056134;215.6;;""
951;44656.5726057292;216.1;;""
952;44656.5726058449;216.4;;""
953;44656.5726059606;217;;""
954;44656.5726060764;217.3;;""
955;44656.5726061921;217.5;;""
956;44656.5726063079;218.1;;""
957;44656.5726064236;218.4;;""
958;44656.5726065394;218.7;;""
959;44656.5726066551;219.2;;""
960;44656.5726067708;219.5;;""
961;44656.5726068866;220;;""
962;44656.5726070023;220.3;;""
963;44656.5726071181;220.6;;""
964;44656.5726072338;221.2;;""
965;44656.5726073495;221.5;;""
966;44656.5726074653;221.8;;""
967;44656.572607581;222.3;;""
968;44656.5726076968;222.6;;""
969;44656.5726078125;222.9;;""
970;44656.5726079282;223.2;;""
971;44656.572608044;223.5;;""
972;44656.5726081597;224.1;;""
973;44656.5726082755;224.5;;""
974;44656.5726083912;224.8;;""
975;44656.5726085069;225.1;;""
976;44656.5726086227;225.6;;""
977;44656.5726087384;225.9;;""
978;44656.5726088542;226.4;;""
979;44656.5726089699;226.7;;""
980;44656.5726090856;227;;""
981;44656.5726092014;227.3;;""
982;44656.5726093171;227.8;;""
983;44656.5726094329;228.1;;""
984;44656.5726095486;228.4;;""
985;44656.5726096643;228.9;;""
986;44656.5726097801;229.2;;""
987;44656.5726098958;229.5;;""
988;44656.5726100116;229.8;;""
989;44656.5726101273;230.3;;""
990;44656.5726102431;230.4;;""
991;44656.5726103588;230.9;;""
992;44656.5726104745;231.2;;""
993;44656.5726105903;231.5;;""
994;44656.572610706;231.8;;""
995;44656.5726108218;232.1;;""
996;44656.5726109375;232.4;;""
997;44656.5726110532;232.9;;""
998;44656.572611169;233.2;;""
999;44656.5726112847;233.3;;""
1000;44656.5726114005;233.6;;""
1001;44656.5726115162;233.9;;""
1002;44656.5726116319;234.2;;""
1003;44656.5726117477;234.2;;""
1004;44656.5726118634;234.2;;""
1005;44656.5726119792;234.2;;""
1006;44656.5726120949;233.9;;""
1007;44656.5726122107;233.6;;""
1008;44656.5726123264;233.3;;""
1009;44656.5726124421;232.7;;""
1010;44656.5726125579;231.9;;""
1011;44656.5726126736;231;;""
1012;44656.5726127894;229.9;;""
1013;44656.5726129051;228.8;;""
1014;44656.5726130208;227.7;;""
1015;44656.5726131366;226.7;;""
1016;44656.5726132523;225.2;;""
1017;44656.5726133681;224.1;;""
1018;44656.5726134838;222.7;;""
1019;44656.5726135995;221.6;;""
1020;44656.5726137153;220.5;;""
1021;44656.572613831;219.4;;""
1022;44656.5726139468;218.5;;""
1023;44656.5726140625;217.4;;""
1024;44656.5726141782;216.6;;""
1025;44656.572614294;215.7;;""
1026;44656.5726144097;214.9;;""
1027;44656.5726145255;214.3;;""
1028;44656.5726146412;213.4;;""
1029;44656.5726147569;212.9;;""
1030;44656.5726148727;212;;""
1031;44656.5726149884;211.4;;""
1032;44656.5726151042;210.8;;""
1033;44656.5726152199;210.3;;""
1034;44656.5726153356;209.9;;""
1035;44656.5726154514;209.4;;""
1036;44656.5726155671;208.8;;""
1037;44656.5726156829;208.5;;""
1038;44656.5726157986;207.9;;""
1039;44656.5726159144;207.6;;""
1040;44656.5726160301;207.4;;""
1041;44656.5726161458;207;;""
1042;44656.5726162616;206.5;;""
1043;44656.5726163773;206.2;;""
1044;44656.5726164931;205.8;;""
1045;44656.5726166088;205.5;;""
1046;44656.5726167245;205.2;;""
1047;44656.5726168403;205;;""
1048;44656.572616956;204.7;;""
1049;44656.5726170718;204.4;;""
1050;44656.5726171875;204.1;;""
1051;44656.5726173032;203.8;;""
1052;44656.572617419;203.5;;""
1053;44656.5726175347;203.2;;""
1054;44656.5726176505;202.9;;""
1055;44656.5726177662;202.9;;""
1056;44656.5726178819;202.6;;""
1057;44656.5726179977;202.3;;""
1058;44656.5726181134;202.2;;""
1059;44656.5726182292;202;;""
1060;44656.5726183449;201.7;;""
1061;44656.5726184606;201.4;;""
1062;44656.5726185764;201.4;;""
1063;44656.5726186921;201.1;;""
1064;44656.5726188079;200.8;;""
1065;44656.5726189236;200.8;;""
1066;44656.5726190394;200.5;;""
1067;44656.5726191551;200.4;;""
1068;44656.5726192708;200.2;;""
1069;44656.5726193866;200.1;;""
1070;44656.5726195023;199.8;;""
1071;44656.5726196181;199.5;;""
1072;44656.5726197338;199.5;;""
1073;44656.5726198495;199.2;;""
1074;44656.5726199653;199.2;;""
1075;44656.572620081;198.9;;""
1076;44656.5726201968;198.8;;""
1077;44656.5726203125;198.6;;""
1078;44656.5726204282;198.5;;""
1079;44656.572620544;198.2;;""
1080;44656.5726206597;198.2;;""
1081;44656.5726207755;197.9;;""
1082;44656.5726208912;197.9;;""
1083;44656.5726210069;197.8;;""
1084;44656.5726211227;197.6;;""
1085;44656.5726212384;197.2;;""
1086;44656.5726213542;197.2;;""
1087;44656.5726214699;196.9;;""
1088;44656.5726215856;196.9;;""
1089;44656.5726217014;196.9;;""
1090;44656.5726218171;196.6;;""
1091;44656.5726219329;196.6;;""
1092;44656.5726220486;196.3;;""
1093;44656.5726221643;196.2;;""
1094;44656.5726222801;196;;""
1095;44656.5726223958;195.9;;""
1096;44656.5726225116;195.6;;""
1097;44656.5726226273;195.4;;""
1098;44656.5726227431;195;;""
1099;44656.5726228588;194.5;;""
1100;44656.5726229745;193.6;;""
1101;44656.5726230903;191.5;;""
1102;44656.572623206;187.1;;""
1103;44656.5726233218;178.5;;""
1104;44656.5726234375;185.8;;""
1105;44656.5726235532;198.6;;""
1106;44656.572623669;201.2;;""
1107;44656.5726237847;200.2;;""
1108;44656.5726239005;199.7;;""
1109;44656.5726240162;200.3;;""
1110;44656.5726241319;201.1;;""
1111;44656.5726242477;201.7;;""
1112;44656.5726243634;202.3;;""
1113;44656.5726244792;202.9;;""
1114;44656.5726245949;203.5;;""
1115;44656.5726247107;204.3;;""
1116;44656.5726248264;204.6;;""
1117;44656.5726249421;205.4;;""
1118;44656.5726250579;205.9;;""
1119;44656.5726251736;206.5;;""
1120;44656.5726252894;206.8;;""
1121;44656.5726254051;207.3;;""
1122;44656.5726255208;207.9;;""
1123;44656.5726256366;208.5;;""
1124;44656.5726257523;208.8;;""
1125;44656.5726258681;209.3;;""
1126;44656.5726259838;209.9;;""
1127;44656.5726260995;210.4;;""
1128;44656.5726262153;210.7;;""
1129;44656.572626331;211.3;;""
1130;44656.5726264468;211.6;;""
1131;44656.5726265625;212.2;;""
1132;44656.5726266782;212.5;;""
1133;44656.572626794;213.1;;""
1134;44656.5726269097;213.4;;""
1135;44656.5726270255;213.7;;""
1136;44656.5726271412;214.3;;""
1137;44656.5726272569;214.8;;""
1138;44656.5726273727;215.1;;""
1139;44656.5726274884;215.4;;""
1140;44656.5726276042;215.9;;""
1141;44656.5726277199;216.2;;""
1142;44656.5726278356;216.7;;""
1143;44656.5726279514;217;;""
1144;44656.5726280671;217.6;;""
1145;44656.5726281829;217.9;;""
1146;44656.5726282986;218.2;;""
1147;44656.5726284144;218.8;;""
1148;44656.5726285301;219.1;;""
1149;44656.5726286458;219.4;;""
1150;44656.5726287616;219.9;;""
1151;44656.5726288773;220.2;;""
1152;44656.5726289931;220.5;;""
1153;44656.5726291088;221.1;;""
1154;44656.5726292245;221.4;;""
1155;44656.5726293403;221.7;;""
1156;44656.572629456;222;;""
1157;44656.5726295718;222.5;;""
1158;44656.5726296875;222.8;;""
1159;44656.5726298032;223.1;;""
1160;44656.572629919;223.7;;""
1161;44656.5726300347;223.9;;""
1162;44656.5726301505;224.2;;""
1163;44656.5726302662;224.6;;""
1164;44656.5726303819;224.9;;""
1165;44656.5726304977;225.4;;""
1166;44656.5726306134;225.7;;""
1167;44656.5726307292;226;;""
1168;44656.5726308449;226.3;;""
1169;44656.5726309606;226.6;;""
1170;44656.5726310764;227.2;;""
1171;44656.5726311921;227.4;;""
1172;44656.5726313079;227.7;;""
1173;44656.5726314236;228;;""
1174;44656.5726315394;228.3;;""
1175;44656.5726316551;228.6;;""
1176;44656.5726317708;229.2;;""
1177;44656.5726318866;229.4;;""
1178;44656.5726320023;229.5;;""
1179;44656.5726321181;230.1;;""
1180;44656.5726322338;230.4;;""
1181;44656.5726323495;230.7;;""
1182;44656.5726324653;231;;""
1183;44656.572632581;231.3;;""
1184;44656.5726326968;231.6;;""
1185;44656.5726328125;231.9;;""
1186;44656.5726329282;232.2;;""
1187;44656.572633044;232.7;;""
1188;44656.5726331597;232.8;;""
1189;44656.5726332755;233.1;;""
1190;44656.5726333912;233.4;;""
1191;44656.5726335069;233.7;;""
1192;44656.5726336227;233.7;;""
1193;44656.5726337384;234;;""
1194;44656.5726338542;234;;""
1195;44656.5726339699;234;;""
1196;44656.5726340856;234;;""
1197;44656.5726342014;233.7;;""
1198;44656.5726343171;233.4;;""
1199;44656.5726344329;232.8;;""
1200;44656.5726345486;232.2;;""
1201;44656.5726346644;231.6;;""
1202;44656.5726347801;230.5;;""
1203;44656.5726348958;229.7;;""
1204;44656.5726350116;228.6;;""
1205;44656.5726351273;227.4;;""
1206;44656.5726352431;226.3;;""
1207;44656.5726353588;224.8;;""
1208;44656.5726354745;223.7;;""
1209;44656.5726355903;222.6;;""
1210;44656.572635706;221.5;;""
1211;44656.5726358218;220.4;;""
1212;44656.5726359375;219.2;;""
1213;44656.5726360532;218.2;;""
1214;44656.572636169;217.3;;""
1215;44656.5726362847;216.5;;""
1216;44656.5726364005;215.3;;""
1217;44656.5726365162;214.8;;""
1218;44656.5726366319;213.9;;""
1219;44656.5726367477;213.2;;""
1220;44656.5726368634;212.7;;""
1221;44656.5726369792;212.1;;""
1222;44656.5726370949;211.5;;""
1223;44656.5726372107;211;;""
1224;44656.5726373264;210.1;;""
1225;44656.5726374421;209.8;;""
1226;44656.5726375579;209.3;;""
1227;44656.5726376736;208.7;;""
1228;44656.5726377894;208.4;;""
1229;44656.5726379051;207.8;;""
1230;44656.5726380208;207.6;;""
1231;44656.5726381366;207;;""
1232;44656.5726382523;206.8;;""
1233;44656.5726383681;206.4;;""
1234;44656.5726384838;206.1;;""
1235;44656.5726385995;205.8;;""
1236;44656.5726387153;205.5;;""
1237;44656.572638831;205;;""
1238;44656.5726389468;204.7;;""
1239;44656.5726390625;204.4;;""
1240;44656.5726391782;204.1;;""
1241;44656.572639294;203.8;;""
1242;44656.5726394097;203.8;;""
1243;44656.5726395255;203.5;;""
1244;44656.5726396412;203.2;;""
1245;44656.5726397569;202.9;;""
1246;44656.5726398727;202.6;;""
1247;44656.5726399884;202.6;;""
1248;44656.5726401042;202.3;;""
1249;44656.5726402199;202;;""
1250;44656.5726403356;201.7;;""
1251;44656.5726404514;201.6;;""
1252;44656.5726405671;201.4;;""
1253;44656.5726406829;201.1;;""
1254;44656.5726407986;201;;""
1255;44656.5726409144;200.8;;""
1256;44656.5726410301;200.5;;""
1257;44656.5726411458;200.5;;""
1258;44656.5726412616;200.2;;""
1259;44656.5726413773;199.9;;""
1260;44656.5726414931;199.9;;""
1261;44656.5726416088;199.6;;""
1262;44656.5726417245;199.3;;""
1263;44656.5726418403;199.3;;""
1264;44656.572641956;199.2;;""
1265;44656.5726420718;198.9;;""
1266;44656.5726421875;198.8;;""
1267;44656.5726423032;198.6;;""
1268;44656.572642419;198.3;;""
1269;44656.5726425347;198.3;;""
1270;44656.5726426505;198.2;;""
1271;44656.5726427662;198;;""
1272;44656.5726428819;197.9;;""
1273;44656.5726429977;197.6;;""
1274;44656.5726431134;197.6;;""
1275;44656.5726432292;197.3;;""
1276;44656.5726433449;197.3;;""
1277;44656.5726434606;197;;""
1278;44656.5726435764;197;;""
1279;44656.5726436921;196.7;;""
1280;44656.5726438079;196.7;;""
1281;44656.5726439236;196.4;;""
1282;44656.5726440393;196.4;;""
1283;44656.5726441551;196.1;;""
1284;44656.5726442708;196;;""
1285;44656.5726443866;195.7;;""
1286;44656.5726445023;195.4;;""
1287;44656.5726446181;195.1;;""
1288;44656.5726447338;194.6;;""
1289;44656.5726448495;193.7;;""
1290;44656.5726449653;192.1;;""
1291;44656.572645081;188.3;;""
1292;44656.5726451968;180.4;;""
1293;44656.5726453125;188.4;;""
1294;44656.5726454282;199.6;;""
1295;44656.572645544;201.7;;""
1296;44656.5726456597;200.3;;""
1297;44656.5726457755;199.4;;""
1298;44656.5726458912;200.3;;""
1299;44656.5726460069;201.2;;""
1300;44656.5726461227;202;;""
1301;44656.5726462384;202.5;;""
1302;44656.5726463542;202.9;;""
1303;44656.5726464699;203.5;;""
1304;44656.5726465857;204.1;;""
1305;44656.5726467014;204.9;;""
1306;44656.5726468171;205.5;;""
1307;44656.5726469329;206;;""
1308;44656.5726470486;206.3;;""
1309;44656.5726471644;206.9;;""
1310;44656.5726472801;207.5;;""
1311;44656.5726473958;208.1;;""
1312;44656.5726475116;208.6;;""
1313;44656.5726476273;208.9;;""
1314;44656.5726477431;209.5;;""
1315;44656.5726478588;210;;""
1316;44656.5726479745;210.3;;""
1317;44656.5726480903;210.9;;""
1318;44656.572648206;211.2;;""
1319;44656.5726483218;211.8;;""
1320;44656.5726484375;212.1;;""
1321;44656.5726485532;212.6;;""
1322;44656.572648669;212.9;;""
1323;44656.5726487847;213.5;;""
1324;44656.5726489005;213.8;;""
1325;44656.5726490162;214.3;;""
1326;44656.5726491319;214.6;;""
1327;44656.5726492477;215.2;;""
1328;44656.5726493634;215.5;;""
1329;44656.5726494792;215.8;;""
1330;44656.5726495949;216.3;;""
1331;44656.5726497107;216.6;;""
1332;44656.5726498264;216.9;;""
1333;44656.5726499421;217.5;;""
1334;44656.5726500579;217.8;;""
1335;44656.5726501736;218.1;;""
1336;44656.5726502894;218.4;;""
1337;44656.5726504051;219;;""
1338;44656.5726505208;219.3;;""
1339;44656.5726506366;219.5;;""
1340;44656.5726507523;220.1;;""
1341;44656.5726508681;220.4;;""
1342;44656.5726509838;220.7;;""
1343;44656.5726510995;221.2;;""
1344;44656.5726512153;221.5;;""
1345;44656.572651331;221.8;;""
1346;44656.5726514468;222.3;;""
1347;44656.5726515625;222.6;;""
1348;44656.5726516782;222.9;;""
1349;44656.572651794;223.3;;""
1350;44656.5726519097;223.8;;""
1351;44656.5726520255;224.1;;""
1352;44656.5726521412;224.4;;""
1353;44656.5726522569;224.9;;""
1354;44656.5726523727;225.2;;""
1355;44656.5726524884;225.5;;""
1356;44656.5726526042;226.1;;""
1357;44656.5726527199;226.4;;""
1358;44656.5726528356;226.7;;""
1359;44656.5726529514;226.9;;""
1360;44656.5726530671;227.5;;""
1361;44656.5726531829;227.8;;""
1362;44656.5726532986;228;;""
1363;44656.5726534144;228.6;;""
1364;44656.5726535301;228.9;;""
1365;44656.5726536458;229.1;;""
1366;44656.5726537616;229.4;;""
1367;44656.5726538773;229.7;;""
1368;44656.5726539931;230;;""
1369;44656.5726541088;230.4;;""
1370;44656.5726542245;230.6;;""
1371;44656.5726543403;231.2;;""
1372;44656.572654456;231.5;;""
1373;44656.5726545718;231.8;;""
1374;44656.5726546875;232;;""
1375;44656.5726548032;232.3;;""
1376;44656.572654919;232.6;;""
1377;44656.5726550347;232.9;;""
1378;44656.5726551505;233.2;;""
1379;44656.5726552662;233.5;;""
1380;44656.5726553819;233.8;;""
1381;44656.5726554977;234;;""
1382;44656.5726556134;234.1;;""
1383;44656.5726557292;234.1;;""
1384;44656.5726558449;234.1;;""
1385;44656.5726559606;234.1;;""
1386;44656.5726560764;233.8;;""
1387;44656.5726561921;233.5;;""
1388;44656.5726563079;232.9;;""
1389;44656.5726564236;232.3;;""
1390;44656.5726565393;231.5;;""
1391;44656.5726566551;230.7;;""
1392;44656.5726567708;229.5;;""
1393;44656.5726568866;228.4;;""
1394;44656.5726570023;227.3;;""
1395;44656.5726571181;226.1;;""
1396;44656.5726572338;224.7;;""
1397;44656.5726573495;223.5;;""
1398;44656.5726574653;222.4;;""
1399;44656.572657581;221.2;;""
1400;44656.5726576968;220.3;;""
1401;44656.5726578125;219.2;;""
1402;44656.5726579282;218.1;;""
1403;44656.572658044;216.9;;""
1404;44656.5726581597;216.1;;""
1405;44656.5726582755;215.3;;""
1406;44656.5726583912;214.7;;""
1407;44656.5726585069;213.9;;""
1408;44656.5726586227;213;;""
1409;44656.5726587384;212.5;;""
1410;44656.5726588542;211.9;;""
1411;44656.5726589699;211.3;;""
1412;44656.5726590857;210.8;;""
1413;44656.5726592014;210.2;;""
1414;44656.5726593171;209.6;;""
1415;44656.5726594329;209;;""
1416;44656.5726595486;208.8;;""
1417;44656.5726596644;208.2;;""
1418;44656.5726597801;207.9;;""
1419;44656.5726598958;207.4;;""
1420;44656.5726600116;207.1;;""
1421;44656.5726601273;206.8;;""
1422;44656.5726602431;206.2;;""
1423;44656.5726603588;206;;""
1424;44656.5726604745;205.7;;""
1425;44656.5726605903;205.3;;""
1426;44656.572660706;205.1;;""
1427;44656.5726608218;204.8;;""
1428;44656.5726609375;204.4;;""
1429;44656.5726610532;204.2;;""
1430;44656.572661169;203.8;;""
1431;44656.5726612847;203.8;;""
1432;44656.5726614005;203.5;;""
1433;44656.5726615162;203.2;;""
1434;44656.5726616319;202.9;;""
1435;44656.5726617477;202.7;;""
1436;44656.5726618634;202.4;;""
1437;44656.5726619792;202.1;;""
1438;44656.5726620949;202.1;;""
1439;44656.5726622106;201.8;;""
1440;44656.5726623264;201.5;;""
1441;44656.5726624421;201.5;;""
1442;44656.5726625579;201.2;;""
1443;44656.5726626736;200.9;;""
1444;44656.5726627894;200.9;;""
1445;44656.5726629051;200.6;;""
1446;44656.5726630208;200.5;;""
1447;44656.5726631366;200.3;;""
1448;44656.5726632523;200;;""
1449;44656.5726633681;199.9;;""
1450;44656.5726634838;199.7;;""
1451;44656.5726635995;199.6;;""
1452;44656.5726637153;199.3;;""
1453;44656.572663831;199.3;;""
1454;44656.5726639468;199;;""
1455;44656.5726640625;198.9;;""
1456;44656.5726641782;198.7;;""
1457;44656.572664294;198.6;;""
1458;44656.5726644097;198.3;;""
1459;44656.5726645255;198.3;;""
1460;44656.5726646412;198;;""
1461;44656.5726647569;198;;""
1462;44656.5726648727;197.7;;""
1463;44656.5726649884;197.7;;""
1464;44656.5726651042;197.4;;""
1465;44656.5726652199;197.4;;""
1466;44656.5726653356;197.1;;""
1467;44656.5726654514;197.1;;""
1468;44656.5726655671;196.8;;""
1469;44656.5726656829;196.8;;""
1470;44656.5726657986;196.5;;""
1471;44656.5726659144;196.5;;""
1472;44656.5726660301;196.2;;""
1473;44656.5726661458;196.2;;""
1474;44656.5726662616;195.8;;""
1475;44656.5726663773;195.8;;""
1476;44656.5726664931;195.5;;""
1477;44656.5726666088;195.2;;""
1478;44656.5726667245;194.6;;""
1479;44656.5726668403;194.1;;""
1480;44656.572666956;193;;""
1481;44656.5726670718;190;;""
1482;44656.5726671875;183.5;;""
1483;44656.5726673032;188.3;;""
1484;44656.572667419;195.7;;""
1485;44656.5726675347;199.9;;""
1486;44656.5726676505;199.9;;""
1487;44656.5726677662;199.4;;""
1488;44656.5726678819;199.8;;""
1489;44656.5726679977;200.9;;""
1490;44656.5726681134;201.6;;""
1491;44656.5726682292;202.1;;""
1492;44656.5726683449;202.7;;""
1493;44656.5726684606;203.3;;""
1494;44656.5726685764;203.8;;""
1495;44656.5726686921;204.4;;""
1496;44656.5726688079;205.2;;""
1497;44656.5726689236;205.8;;""
1498;44656.5726690393;206.1;;""
1499;44656.5726691551;206.7;;""
1500;44656.5726692708;207.2;;""
1501;44656.5726693866;207.8;;""
1502;44656.5726695023;208.1;;""
1503;44656.5726696181;208.7;;""
1504;44656.5726697338;209.3;;""
1505;44656.5726698495;209.8;;""
1506;44656.5726699653;210.1;;""
1507;44656.572670081;210.6;;""
1508;44656.5726701968;211.2;;""
1509;44656.5726703125;211.5;;""
1510;44656.5726704282;212.1;;""
1511;44656.572670544;212.3;;""
1512;44656.5726706597;212.9;;""
1513;44656.5726707755;213.2;;""
1514;44656.5726708912;213.7;;""
1515;44656.5726710069;214;;""
1516;44656.5726711227;214.6;;""
1517;44656.5726712384;214.8;;""
1518;44656.5726713542;215.4;;""
1519;44656.5726714699;215.7;;""
1520;44656.5726715857;216;;""
1521;44656.5726717014;216.5;;""
1522;44656.5726718171;216.8;;""
1523;44656.5726719329;217.1;;""
1524;44656.5726720486;217.7;;""
1525;44656.5726721644;218;;""
1526;44656.5726722801;218.3;;""
1527;44656.5726723958;218.8;;""
1528;44656.5726725116;219.1;;""
1529;44656.5726726273;219.6;;""
1530;44656.5726727431;219.9;;""
1531;44656.5726728588;220.2;;""
1532;44656.5726729745;220.8;;""
1533;44656.5726730903;221.1;;""
1534;44656.572673206;221.4;;""
1535;44656.5726733218;221.9;;""
1536;44656.5726734375;222.2;;""
1537;44656.5726735532;222.7;;""
1538;44656.572673669;223;;""
1539;44656.5726737847;223.3;;""
1540;44656.5726739005;223.6;;""
1541;44656.5726740162;224.1;;""
1542;44656.5726741319;224.4;;""
1543;44656.5726742477;224.7;;""
1544;44656.5726743634;225;;""
1545;44656.5726744792;225.6;;""
1546;44656.5726745949;225.9;;""
1547;44656.5726747106;226.2;;""
1548;44656.5726748264;226.5;;""
1549;44656.5726749421;227;;""
1550;44656.5726750579;227.4;;""
1551;44656.5726751736;227.7;;""
1552;44656.5726752894;228;;""
1553;44656.5726754051;228.3;;""
1554;44656.5726755208;228.8;;""
1555;44656.5726756366;229.1;;""
1556;44656.5726757523;229.4;;""
1557;44656.5726758681;229.7;;""
1558;44656.5726759838;230;;""
1559;44656.5726760995;230.3;;""
1560;44656.5726762153;230.6;;""
1561;44656.572676331;230.9;;""
1562;44656.5726764468;231.5;;""
1563;44656.5726765625;231.8;;""
1564;44656.5726766782;232.1;;""
1565;44656.572676794;232.4;;""
1566;44656.5726769097;232.7;;""
1567;44656.5726770255;233;;""
1568;44656.5726771412;233.2;;""
1569;44656.5726772569;233.5;;""
1570;44656.5726773727;233.6;;""
1571;44656.5726774884;233.9;;""
1572;44656.5726776042;233.9;;""
1573;44656.5726777199;234.2;;""
1574;44656.5726778356;234.2;;""
1575;44656.5726779514;234.2;;""
1576;44656.5726780671;233.9;;""
1577;44656.5726781829;233.3;;""
1578;44656.5726782986;233;;""
1579;44656.5726784144;232.2;;""
1580;44656.5726785301;231.3;;""
1581;44656.5726786458;230.4;;""
1582;44656.5726787616;229.5;;""
1583;44656.5726788773;228.4;;""
1584;44656.5726789931;227;;""
1585;44656.5726791088;225.9;;""
1586;44656.5726792245;224.7;;""
1587;44656.5726793403;223.5;;""
1588;44656.572679456;222.1;;""
1589;44656.5726795718;221.1;;""
1590;44656.5726796875;219.8;;""
1591;44656.5726798032;219;;""
1592;44656.572679919;217.9;;""
1593;44656.5726800347;217.1;;""
1594;44656.5726801505;215.9;;""
1595;44656.5726802662;215.3;;""
1596;44656.5726803819;214.3;;""
1597;44656.5726804977;213.7;;""
1598;44656.5726806134;212.9;;""
1599;44656.5726807292;212.3;;""
1600;44656.5726808449;211.7;;""
1601;44656.5726809606;211.1;;""
1602;44656.5726810764;210.6;;""
1603;44656.5726811921;210;;""
1604;44656.5726813079;209.5;;""
1605;44656.5726814236;209.2;;""
1606;44656.5726815394;208.6;;""
1607;44656.5726816551;208.3;;""
1608;44656.5726817708;207.7;;""
1609;44656.5726818866;207.4;;""
1610;44656.5726820023;206.9;;""
1611;44656.5726821181;206.6;;""
1612;44656.5726822338;206.3;;""
1613;44656.5726823495;206;;""
1614;44656.5726824653;205.7;;""
1615;44656.572682581;205.4;;""
1616;44656.5726826968;205.1;;""
1617;44656.5726828125;204.6;;""
1618;44656.5726829282;204.5;;""
1619;44656.572683044;204.2;;""
1620;44656.5726831597;203.7;;""
1621;44656.5726832755;203.7;;""
1622;44656.5726833912;203.3;;""
1623;44656.5726835069;203.1;;""
1624;44656.5726836227;202.7;;""
1625;44656.5726837384;202.7;;""
1626;44656.5726838542;202.4;;""
1627;44656.5726839699;202.1;;""
1628;44656.5726840857;202.1;;""
1629;44656.5726842014;201.8;;""
1630;44656.5726843171;201.5;;""
1631;44656.5726844329;201.2;;""
1632;44656.5726845486;201.2;;""
1633;44656.5726846644;200.9;;""
1634;44656.5726847801;200.8;;""
1635;44656.5726848958;200.6;;""
1636;44656.5726850116;200.5;;""
1637;44656.5726851273;200.2;;""
1638;44656.5726852431;199.9;;""
1639;44656.5726853588;199.9;;""
1640;44656.5726854745;199.6;;""
1641;44656.5726855903;199.3;;""
1642;44656.572685706;199.3;;""
1643;44656.5726858218;199.2;;""
1644;44656.5726859375;199;;""
1645;44656.5726860532;198.7;;""
1646;44656.572686169;198.7;;""
1647;44656.5726862847;198.6;;""
1648;44656.5726864005;198.3;;""
1649;44656.5726865162;198.3;;""
1650;44656.5726866319;198;;""
1651;44656.5726867477;197.9;;""
1652;44656.5726868634;197.6;;""
1653;44656.5726869792;197.6;;""
1654;44656.5726870949;197.6;;""
1655;44656.5726872106;197.3;;""
1656;44656.5726873264;197.2;;""
1657;44656.5726874421;197;;""
1658;44656.5726875579;196.9;;""
1659;44656.5726876736;196.6;;""
1660;44656.5726877894;196.6;;""
1661;44656.5726879051;196.3;;""
1662;44656.5726880208;196.3;;""
1663;44656.5726881366;196;;""
1664;44656.5726882523;195.9;;""
1665;44656.5726883681;195.7;;""
1666;44656.5726884838;195.4;;""
1667;44656.5726885995;195.1;;""
1668;44656.5726887153;194.5;;""
1669;44656.572688831;193.7;;""
1670;44656.5726889468;192.2;;""
1671;44656.5726890625;188.6;;""
1672;44656.5726891782;180.9;;""
1673;44656.572689294;189;;""
1674;44656.5726894097;199.9;;""
1675;44656.5726895255;201.6;;""
1676;44656.5726896412;200;;""
1677;44656.5726897569;199.3;;""
1678;44656.5726898727;200;;""
1679;44656.5726899884;200.9;;""
1680;44656.5726901042;201.8;;""
1681;44656.5726902199;202.3;;""
1682;44656.5726903356;202.9;;""
1683;44656.5726904514;203.5;;""
1684;44656.5726905671;204.1;;""
1685;44656.5726906829;204.6;;""
1686;44656.5726907986;205.2;;""
1687;44656.5726909143;205.8;;""
1688;44656.5726910301;206.3;;""
1689;44656.5726911458;206.9;;""
1690;44656.5726912616;207.5;;""
1691;44656.5726913773;207.8;;""
1692;44656.5726914931;208.3;;""
1693;44656.5726916088;208.9;;""
1694;44656.5726917245;209.5;;""
1695;44656.5726918403;210.1;;""
1696;44656.572691956;210.4;;""
1697;44656.5726920718;210.9;;""
1698;44656.5726921875;211.2;;""
1699;44656.5726923032;211.7;;""
1700;44656.572692419;212.2;;""
1701;44656.5726925347;212.5;;""
1702;44656.5726926505;213.1;;""
1703;44656.5726927662;213.4;;""
1704;44656.5726928819;213.9;;""
1705;44656.5726929977;214.2;;""
1706;44656.5726931134;214.8;;""
1707;44656.5726932292;215.1;;""
1708;44656.5726933449;215.6;;""
1709;44656.5726934607;215.9;;""
1710;44656.5726935764;216.5;;""
1711;44656.5726936921;216.7;;""
1712;44656.5726938079;217.1;;""
1713;44656.5726939236;217.6;;""
1714;44656.5726940394;217.9;;""
1715;44656.5726941551;218.2;;""
1716;44656.5726942708;218.7;;""
1717;44656.5726943866;219.1;;""
1718;44656.5726945023;219.3;;""
1719;44656.5726946181;219.9;;""
1720;44656.5726947338;220.2;;""
1721;44656.5726948495;220.7;;""
1722;44656.5726949653;221;;""
1723;44656.572695081;221.2;;""
1724;44656.5726951968;221.6;;""
1725;44656.5726953125;222.1;;""
1726;44656.5726954282;222.4;;""
1727;44656.572695544;223;;""
1728;44656.5726956597;223.3;;""
1729;44656.5726957755;223.6;;""
1730;44656.5726958912;223.8;;""
1731;44656.5726960069;224.4;;""
1732;44656.5726961227;224.7;;""
1733;44656.5726962384;224.9;;""
1734;44656.5726963542;225.5;;""
1735;44656.5726964699;225.8;;""
1736;44656.5726965856;226.1;;""
1737;44656.5726967014;226.4;;""
1738;44656.5726968171;226.7;;""
1739;44656.5726969329;227.1;;""
1740;44656.5726970486;227.6;;""
1741;44656.5726971644;227.9;;""
1742;44656.5726972801;228.2;;""
1743;44656.5726973958;228.5;;""
1744;44656.5726975116;228.8;;""
1745;44656.5726976273;229.4;;""
1746;44656.5726977431;229.7;;""
1747;44656.5726978588;230;;""
1748;44656.5726979745;230.3;;""
1749;44656.5726980903;230.6;;""
1750;44656.572698206;230.9;;""
1751;44656.5726983218;231.2;;""
1752;44656.5726984375;231.5;;""
1753;44656.5726985532;232;;""
1754;44656.572698669;232.1;;""
1755;44656.5726987847;232.6;;""
1756;44656.5726989005;232.6;;""
1757;44656.5726990162;233.2;;""
1758;44656.5726991319;233.3;;""
1759;44656.5726992477;233.8;;""
1760;44656.5726993634;233.8;;""
1761;44656.5726994792;234.1;;""
1762;44656.5726995949;234.1;;""
1763;44656.5726997106;234.1;;""
1764;44656.5726998264;234.1;;""
1765;44656.5726999421;233.8;;""
1766;44656.5727000579;233.5;;""
1767;44656.5727001736;233.2;;""
1768;44656.5727002894;232.7;;""
1769;44656.5727004051;231.9;;""
1770;44656.5727005208;230.9;;""
1771;44656.5727006366;230.1;;""
1772;44656.5727007523;229;;""
1773;44656.5727008681;227.9;;""
1774;44656.5727009838;226.4;;""
1775;44656.5727010995;225.3;;""
1776;44656.5727012153;224;;""
1777;44656.572701331;223;;""
1778;44656.5727014468;221.8;;""
1779;44656.5727015625;220.5;;""
1780;44656.5727016782;219.6;;""
1781;44656.572701794;218.5;;""
1782;44656.5727019097;217.4;;""
1783;44656.5727020255;216.5;;""
1784;44656.5727021412;215.7;;""
1785;44656.5727022569;214.9;;""
1786;44656.5727023727;214.2;;""
1787;44656.5727024884;213.4;;""
1788;44656.5727026042;212.8;;""
1789;44656.5727027199;211.9;;""
1790;44656.5727028356;211.6;;""
1791;44656.5727029514;210.8;;""
1792;44656.5727030671;210.5;;""
1793;44656.5727031829;209.9;;""
1794;44656.5727032986;209.4;;""
1795;44656.5727034143;208.8;;""
1796;44656.5727035301;208.5;;""
1797;44656.5727036458;208;;""
1798;44656.5727037616;207.7;;""
1799;44656.5727038773;207.4;;""
1800;44656.5727039931;206.8;;""
1801;44656.5727041088;206.5;;""
1802;44656.5727042245;206.1;;""
1803;44656.5727043403;205.9;;""
1804;44656.572704456;205.6;;""
1805;44656.5727045718;205.3;;""
1806;44656.5727046875;205;;""
1807;44656.5727048032;204.7;;""
1808;44656.572704919;204.4;;""
1809;44656.5727050347;204.1;;""
1810;44656.5727051505;203.8;;""
1811;44656.5727052662;203.5;;""
1812;44656.5727053819;203.2;;""
1813;44656.5727054977;202.9;;""
1814;44656.5727056134;202.6;;""
1815;44656.5727057292;202.6;;""
1816;44656.5727058449;202.3;;""
1817;44656.5727059607;202;;""
1818;44656.5727060764;201.9;;""
1819;44656.5727061921;201.7;;""
1820;44656.5727063079;201.4;;""
1821;44656.5727064236;201.3;;""
1822;44656.5727065394;201.1;;""
1823;44656.5727066551;200.8;;""
1824;44656.5727067708;200.7;;""
1825;44656.5727068866;200.5;;""
1826;44656.5727070023;200.1;;""
1827;44656.5727071181;200.1;;""
1828;44656.5727072338;200.1;;""
1829;44656.5727073495;199.8;;""
1830;44656.5727074653;199.5;;""
1831;44656.572707581;199.5;;""
1832;44656.5727076968;199.2;;""
1833;44656.5727078125;199.2;;""
1834;44656.5727079282;198.9;;""
1835;44656.572708044;198.8;;""
1836;44656.5727081597;198.5;;""
1837;44656.5727082755;198.5;;""
1838;44656.5727083912;198.4;;""
1839;44656.5727085069;198.1;;""
1840;44656.5727086227;198.1;;""
1841;44656.5727087384;197.8;;""
1842;44656.5727088542;197.8;;""
1843;44656.5727089699;197.5;;""
1844;44656.5727090856;197.4;;""
1845;44656.5727092014;197.4;;""
1846;44656.5727093171;197.1;;""
1847;44656.5727094329;197;;""
1848;44656.5727095486;196.7;;""
1849;44656.5727096644;196.7;;""
1850;44656.5727097801;196.6;;""
1851;44656.5727098958;196.3;;""
1852;44656.5727100116;196;;""
1853;44656.5727101273;196;;""
1854;44656.5727102431;195.7;;""
1855;44656.5727103588;195.7;;""
1856;44656.5727104745;195.1;;""
1857;44656.5727105903;194.8;;""
1858;44656.572710706;194.2;;""
1859;44656.5727108218;192.9;;""
1860;44656.5727109375;190.1;;""
1861;44656.5727110532;184.1;;""
1862;44656.572711169;186.2;;""
1863;44656.5727112847;193.6;;""
1864;44656.5727114005;199.2;;""
1865;44656.5727115162;199.9;;""
1866;44656.5727116319;199.3;;""
1867;44656.5727117477;199.8;;""
1868;44656.5727118634;200.7;;""
1869;44656.5727119792;201.5;;""
1870;44656.5727120949;202.1;;""
1871;44656.5727122106;202.6;;""
1872;44656.5727123264;203.2;;""
1873;44656.5727124421;203.8;;""
1874;44656.5727125579;204.4;;""
1875;44656.5727126736;204.9;;""
1876;44656.5727127894;205.5;;""
1877;44656.5727129051;206.1;;""
1878;44656.5727130208;206.7;;""
1879;44656.5727131366;207;;""
1880;44656.5727132523;207.6;;""
1881;44656.5727133681;208.2;;""
1882;44656.5727134838;208.5;;""
1883;44656.5727135995;209;;""
1884;44656.5727137153;209.6;;""
1885;44656.572713831;210.2;;""
1886;44656.5727139468;210.4;;""
1887;44656.5727140625;211;;""
1888;44656.5727141782;211.3;;""
1889;44656.572714294;211.8;;""
1890;44656.5727144097;212.1;;""
1891;44656.5727145255;212.7;;""
1892;44656.5727146412;212.9;;""
1893;44656.5727147569;213.5;;""
1894;44656.5727148727;214;;""
1895;44656.5727149884;214.3;;""
1896;44656.5727151042;214.9;;""
1897;44656.5727152199;215.1;;""
1898;44656.5727153356;215.7;;""
1899;44656.5727154514;215.9;;""
1900;44656.5727155671;216.2;;""
1901;44656.5727156829;216.8;;""
1902;44656.5727157986;217.1;;""
1903;44656.5727159144;217.7;;""
1904;44656.5727160301;218;;""
1905;44656.5727161458;218.3;;""
1906;44656.5727162616;218.6;;""
1907;44656.5727163773;219.2;;""
1908;44656.5727164931;219.5;;""
1909;44656.5727166088;220;;""
1910;44656.5727167245;220.3;;""
1911;44656.5727168403;220.6;;""
1912;44656.572716956;221.1;;""
1913;44656.5727170718;221.4;;""
1914;44656.5727171875;221.7;;""
1915;44656.5727173032;222.2;;""
1916;44656.572717419;222.5;;""
1917;44656.5727175347;222.8;;""
1918;44656.5727176505;223.1;;""
1919;44656.5727177662;223.7;;""
1920;44656.5727178819;224;;""
1921;44656.5727179977;224.2;;""
1922;44656.5727181134;224.6;;""
1923;44656.5727182292;225.1;;""
1924;44656.5727183449;225.4;;""
1925;44656.5727184607;225.7;;""
1926;44656.5727185764;226.3;;""
1927;44656.5727186921;226.5;;""
1928;44656.5727188079;226.8;;""
1929;44656.5727189236;227.1;;""
1930;44656.5727190394;227.7;;""
1931;44656.5727191551;228;;""
1932;44656.5727192708;228.3;;""
1933;44656.5727193866;228.6;;""
1934;44656.5727195023;228.8;;""
1935;44656.5727196181;229.4;;""
1936;44656.5727197338;229.7;;""
1937;44656.5727198495;230;;""
1938;44656.5727199653;230.5;;""
1939;44656.572720081;230.8;;""
1940;44656.5727201968;231.1;;""
1941;44656.5727203125;231.4;;""
1942;44656.5727204282;231.6;;""
1943;44656.572720544;231.9;;""
1944;44656.5727206597;232.2;;""
1945;44656.5727207755;232.8;;""
1946;44656.5727208912;233.1;;""
1947;44656.5727210069;233.4;;""
1948;44656.5727211227;233.4;;""
1949;44656.5727212384;233.9;;""
1950;44656.5727213542;234;;""
1951;44656.5727214699;234.2;;""
1952;44656.5727215856;234.3;;""
1953;44656.5727217014;234.3;;""
1954;44656.5727218171;234.3;;""
1955;44656.5727219329;234;;""
1956;44656.5727220486;233.7;;""
1957;44656.5727221644;233.1;;""
1958;44656.5727222801;232.6;;""
1959;44656.5727223958;231.7;;""
1960;44656.5727225116;230.8;;""
1961;44656.5727226273;229.7;;""
1962;44656.5727227431;228.6;;""
1963;44656.5727228588;227.5;;""
1964;44656.5727229745;226.1;;""
1965;44656.5727230903;224.8;;""
1966;44656.572723206;223.7;;""
1967;44656.5727233218;222.4;;""
1968;44656.5727234375;221;;""
1969;44656.5727235532;219.9;;""
1970;44656.572723669;219;;""
1971;44656.5727237847;217.9;;""
1972;44656.5727239005;217.1;;""
1973;44656.5727240162;216.2;;""
1974;44656.5727241319;215.4;;""
1975;44656.5727242477;214.5;;""
1976;44656.5727243634;213.5;;""
1977;44656.5727244792;213;;""
1978;44656.5727245949;212.4;;""
1979;44656.5727247106;211.6;;""
1980;44656.5727248264;211;;""
1981;44656.5727249421;210.4;;""
1982;44656.5727250579;209.9;;""
1983;44656.5727251736;209.6;;""
1984;44656.5727252893;209;;""
1985;44656.5727254051;208.7;;""
1986;44656.5727255208;208.2;;""
1987;44656.5727256366;207.6;;""
1988;44656.5727257523;207.3;;""
1989;44656.5727258681;207;;""
1990;44656.5727259838;206.7;;""
1991;44656.5727260995;206.4;;""
1992;44656.5727262153;206.1;;""
1993;44656.572726331;205.7;;""
1994;44656.5727264468;205.2;;""
1995;44656.5727265625;204.9;;""
1996;44656.5727266782;204.6;;""
1997;44656.572726794;204.3;;""
1998;44656.5727269097;204;;""
1999;44656.5727270255;203.7;;""
2000;44656.5727271412;203.5;;""
2001;44656.5727272569;203.4;;""
2002;44656.5727273727;203.1;;""
2003;44656.5727274884;202.9;;""
2004;44656.5727276042;202.6;;""
2005;44656.5727277199;202.5;;""
2006;44656.5727278357;202.2;;""
2007;44656.5727279514;201.9;;""
2008;44656.5727280671;201.6;;""
2009;44656.5727281829;201.6;;""
2010;44656.5727282986;201.3;;""
2011;44656.5727284144;200.9;;""
2012;44656.5727285301;200.9;;""
2013;44656.5727286458;200.6;;""
2014;44656.5727287616;200.6;;""
2015;44656.5727288773;200.3;;""
2016;44656.5727289931;200;;""
2017;44656.5727291088;200;;""
2018;44656.5727292245;199.7;;""
2019;44656.5727293403;199.7;;""
2020;44656.572729456;199.4;;""
2021;44656.5727295718;199.3;;""
2022;44656.5727296875;199;;""
2023;44656.5727298032;199;;""
2024;44656.572729919;198.7;;""
2025;44656.5727300347;198.4;;""
2026;44656.5727301505;198.4;;""
2027;44656.5727302662;198.4;;""
2028;44656.5727303819;198.1;;""
2029;44656.5727304977;198.1;;""
2030;44656.5727306134;197.8;;""
2031;44656.5727307292;197.7;;""
2032;44656.5727308449;197.4;;""
2033;44656.5727309606;197.4;;""
2034;44656.5727310764;197.1;;""
2035;44656.5727311921;197.1;;""
2036;44656.5727313079;196.8;;""
2037;44656.5727314236;196.8;;""
2038;44656.5727315394;196.5;;""
2039;44656.5727316551;196.4;;""
2040;44656.5727317708;196.2;;""
2041;44656.5727318866;196.1;;""
2042;44656.5727320023;195.8;;""
2043;44656.5727321181;195.8;;""
2044;44656.5727322338;195.5;;""
2045;44656.5727323495;195;;""
2046;44656.5727324653;194.4;;""
2047;44656.572732581;193.5;;""
2048;44656.5727326968;191.4;;""
2049;44656.5727328125;186.5;;""
2050;44656.5727329282;177.6;;""
2051;44656.572733044;186.2;;""
2052;44656.5727331597;198.2;;""
2053;44656.5727332755;200.8;;""
2054;44656.5727333912;200.3;;""
2055;44656.5727335069;199.8;;""
2056;44656.5727336227;200.6;;""
2057;44656.5727337384;201.2;;""
2058;44656.5727338542;202.1;;""
2059;44656.5727339699;202.6;;""
2060;44656.5727340856;203.2;;""
2061;44656.5727342014;203.7;;""
2062;44656.5727343171;204.3;;""
2063;44656.5727344329;204.9;;""
2064;44656.5727345486;205.5;;""
2065;44656.5727346644;206.1;;""
2066;44656.5727347801;206.4;;""
2067;44656.5727348958;207;;""
2068;44656.5727350116;207.5;;""
2069;44656.5727351273;208;;""
2070;44656.5727352431;208.6;;""
2071;44656.5727353588;209.1;;""
2072;44656.5727354745;209.4;;""
2073;44656.5727355903;210;;""
2074;44656.572735706;210.3;;""
2075;44656.5727358218;210.9;;""
2076;44656.5727359375;211.2;;""
2077;44656.5727360532;211.8;;""
2078;44656.572736169;212.1;;""
2079;44656.5727362847;212.6;;""
2080;44656.5727364005;213;;""
2081;44656.5727365162;213.5;;""
2082;44656.5727366319;213.8;;""
2083;44656.5727367477;214.3;;""
2084;44656.5727368634;214.6;;""
2085;44656.5727369792;215.2;;""
2086;44656.5727370949;215.5;;""
2087;44656.5727372106;216;;""
2088;44656.5727373264;216.3;;""
2089;44656.5727374421;216.9;;""
2090;44656.5727375579;217.1;;""
2091;44656.5727376736;217.5;;""
2092;44656.5727377893;218;;""
2093;44656.5727379051;218.3;;""
2094;44656.5727380208;218.9;;""
2095;44656.5727381366;219.2;;""
2096;44656.5727382523;219.5;;""
2097;44656.5727383681;219.8;;""
2098;44656.5727384838;220.1;;""
2099;44656.5727385995;220.6;;""
2100;44656.5727387153;220.9;;""
2101;44656.572738831;221.3;;""
2102;44656.5727389468;221.8;;""
2103;44656.5727390625;222.1;;""
2104;44656.5727391782;222.5;;""
2105;44656.572739294;222.8;;""
2106;44656.5727394097;223.4;;""
2107;44656.5727395255;223.6;;""
2108;44656.5727396412;224;;""
2109;44656.5727397569;224.2;;""
2110;44656.5727398727;224.6;;""
2111;44656.5727399884;225.1;;""
2112;44656.5727401042;225.4;;""
2113;44656.5727402199;225.7;;""
2114;44656.5727403357;226;;""
2115;44656.5727404514;226.6;;""
2116;44656.5727405671;226.8;;""
2117;44656.5727406829;227.1;;""
2118;44656.5727407986;227.4;;""
2119;44656.5727409144;228;;""
2120;44656.5727410301;228.3;;""
2121;44656.5727411458;228.6;;""
2122;44656.5727412616;228.9;;""
2123;44656.5727413773;229.2;;""
2124;44656.5727414931;229.5;;""
2125;44656.5727416088;230;;""
2126;44656.5727417245;230.3;;""
2127;44656.5727418403;230.6;;""
2128;44656.572741956;230.9;;""
2129;44656.5727420718;231.2;;""
2130;44656.5727421875;231.7;;""
2131;44656.5727423032;232;;""
2132;44656.572742419;232.3;;""
2133;44656.5727425347;232.6;;""
2134;44656.5727426505;232.9;;""
2135;44656.5727427662;233.2;;""
2136;44656.5727428819;233.5;;""
2137;44656.5727429977;233.8;;""
2138;44656.5727431134;233.8;;""
2139;44656.5727432292;234.1;;""
2140;44656.5727433449;234.2;;""
2141;44656.5727434606;234.2;;""
2142;44656.5727435764;234.2;;""
2143;44656.5727436921;234.1;;""
2144;44656.5727438079;233.6;;""
2145;44656.5727439236;233.3;;""
2146;44656.5727440394;232.7;;""
2147;44656.5727441551;231.8;;""
2148;44656.5727442708;231.3;;""
2149;44656.5727443866;230.2;;""
2150;44656.5727445023;229;;""
2151;44656.5727446181;227.9;;""
2152;44656.5727447338;226.7;;""
2153;44656.5727448495;225.5;;""
2154;44656.5727449653;224.4;;""
2155;44656.572745081;223;;""
2156;44656.5727451968;221.7;;""
2157;44656.5727453125;220.9;;""
2158;44656.5727454282;219.5;;""
2159;44656.572745544;218.7;;""
2160;44656.5727456597;217.6;;""
2161;44656.5727457755;216.8;;""
2162;44656.5727458912;215.9;;""
2163;44656.5727460069;214.9;;""
2164;44656.5727461227;214.4;;""
2165;44656.5727462384;213.5;;""
2166;44656.5727463542;212.9;;""
2167;44656.5727464699;211.9;;""
2168;44656.5727465856;211.5;;""
2169;44656.5727467014;210.9;;""
2170;44656.5727468171;210.4;;""
2171;44656.5727469329;209.9;;""
2172;44656.5727470486;209.3;;""
2173;44656.5727471644;208.9;;""
2174;44656.5727472801;208.4;;""
2175;44656.5727473958;208.1;;""
2176;44656.5727475116;207.6;;""
2177;44656.5727476273;207.3;;""
2178;44656.5727477431;207;;""
2179;44656.5727478588;206.4;;""
2180;44656.5727479745;206.1;;""
2181;44656.5727480903;205.8;;""
2182;44656.572748206;205.5;;""
2183;44656.5727483218;205.3;;""
2184;44656.5727484375;205;;""
2185;44656.5727485532;204.7;;""
2186;44656.572748669;204.4;;""
2187;44656.5727487847;204.1;;""
2188;44656.5727489005;203.8;;""
2189;44656.5727490162;203.5;;""
2190;44656.5727491319;203.2;;""
2191;44656.5727492477;203.2;;""
2192;44656.5727493634;202.9;;""
2193;44656.5727494792;202.6;;""
2194;44656.5727495949;202.3;;""
2195;44656.5727497106;202;;""
2196;44656.5727498264;202;;""
2197;44656.5727499421;201.7;;""
2198;44656.5727500579;201.4;;""
2199;44656.5727501736;201.3;;""
2200;44656.5727502894;201;;""
2201;44656.5727504051;200.8;;""
2202;44656.5727505208;200.7;;""
2203;44656.5727506366;200.5;;""
2204;44656.5727507523;200.2;;""
2205;44656.5727508681;200.2;;""
2206;44656.5727509838;199.9;;""
2207;44656.5727510995;199.8;;""
2208;44656.5727512153;199.6;;""
2209;44656.572751331;199.5;;""
2210;44656.5727514468;199.2;;""
2211;44656.5727515625;199.2;;""
2212;44656.5727516782;198.9;;""
2213;44656.572751794;198.9;;""
2214;44656.5727519097;198.6;;""
2215;44656.5727520255;198.5;;""
2216;44656.5727521412;198.2;;""
2217;44656.5727522569;198.2;;""
2218;44656.5727523727;197.9;;""
2219;44656.5727524884;197.9;;""
2220;44656.5727526042;197.5;;""
2221;44656.5727527199;197.5;;""
2222;44656.5727528357;197.2;;""
2223;44656.5727529514;197.2;;""
2224;44656.5727530671;196.9;;""
2225;44656.5727531829;196.9;;""
2226;44656.5727532986;196.8;;""
2227;44656.5727534144;196.5;;""
2228;44656.5727535301;196.5;;""
2229;44656.5727536458;196.2;;""
2230;44656.5727537616;196.2;;""
2231;44656.5727538773;195.9;;""
2232;44656.5727539931;195.6;;""
2233;44656.5727541088;195.6;;""
2234;44656.5727542245;195.3;;""
2235;44656.5727543403;194.7;;""
2236;44656.572754456;194.1;;""
2237;44656.5727545718;193;;""
2238;44656.5727546875;190;;""
2239;44656.5727548032;183.8;;""
2240;44656.572754919;187.9;;""
2241;44656.5727550347;195.4;;""
2242;44656.5727551505;199.8;;""
2243;44656.5727552662;199.9;;""
2244;44656.5727553819;199.3;;""
2245;44656.5727554977;199.9;;""
2246;44656.5727556134;200.7;;""
2247;44656.5727557292;201.7;;""
2248;44656.5727558449;202.2;;""
2249;44656.5727559606;202.8;;""
2250;44656.5727560764;203.3;;""
2251;44656.5727561921;203.9;;""
2252;44656.5727563079;204.5;;""
2253;44656.5727564236;205;;""
2254;44656.5727565394;205.6;;""
2255;44656.5727566551;206.1;;""
2256;44656.5727567708;206.7;;""
2257;44656.5727568866;207;;""
2258;44656.5727570023;207.6;;""
2259;44656.5727571181;208.1;;""
2260;44656.5727572338;208.7;;""
2261;44656.5727573495;208.9;;""
2262;44656.5727574653;209.5;;""
2263;44656.572757581;210;;""
2264;44656.5727576968;210.4;;""
2265;44656.5727578125;210.9;;""
2266;44656.5727579282;211.5;;""
2267;44656.572758044;211.8;;""
2268;44656.5727581597;212.1;;""
2269;44656.5727582755;212.6;;""
2270;44656.5727583912;213;;""
2271;44656.5727585069;213.5;;""
2272;44656.5727586227;214.1;;""
2273;44656.5727587384;214.4;;""
2274;44656.5727588542;214.7;;""
2275;44656.5727589699;215.2;;""
2276;44656.5727590856;215.5;;""
2277;44656.5727592014;216.1;;""
2278;44656.5727593171;216.4;;""
2279;44656.5727594329;216.7;;""
2280;44656.5727595486;217.2;;""
2281;44656.5727596643;217.5;;""
2282;44656.5727597801;218.1;;""
2283;44656.5727598958;218.4;;""
2284;44656.5727600116;218.6;;""
2285;44656.5727601273;219.2;;""
2286;44656.5727602431;219.5;;""
2287;44656.5727603588;220;;""
2288;44656.5727604745;220.3;;""
2289;44656.5727605903;220.6;;""
2290;44656.572760706;221.1;;""
2291;44656.5727608218;221.4;;""
2292;44656.5727609375;221.7;;""
2293;44656.5727610532;222;;""
2294;44656.572761169;222.4;;""
2295;44656.5727612847;223;;""
2296;44656.5727614005;223.3;;""
2297;44656.5727615162;223.6;;""
2298;44656.5727616319;223.9;;""
2299;44656.5727617477;224.4;;""
2300;44656.5727618634;224.7;;""
2301;44656.5727619792;225;;""
2302;44656.5727620949;225.3;;""
2303;44656.5727622107;225.9;;""
2304;44656.5727623264;226.2;;""
2305;44656.5727624421;226.5;;""
2306;44656.5727625579;226.8;;""
2307;44656.5727626736;227.1;;""
2308;44656.5727627894;227.7;;""
2309;44656.5727629051;227.9;;""
2310;44656.5727630208;228.2;;""
2311;44656.5727631366;228.5;;""
2312;44656.5727632523;228.8;;""
2313;44656.5727633681;229.4;;""
2314;44656.5727634838;229.7;;""
2315;44656.5727635995;230.1;;""
2316;44656.5727637153;230.4;;""
2317;44656.572763831;230.7;;""
2318;44656.5727639468;230.9;;""
2319;44656.5727640625;231.3;;""
2320;44656.5727641782;231.8;;""
2321;44656.572764294;231.8;;""
2322;44656.5727644097;232.4;;""
2323;44656.5727645255;232.7;;""
2324;44656.5727646412;232.8;;""
2325;44656.5727647569;233.3;;""
2326;44656.5727648727;233.6;;""
2327;44656.5727649884;233.9;;""
2328;44656.5727651042;233.9;;""
2329;44656.5727652199;233.9;;""
2330;44656.5727653357;234.2;;""
2331;44656.5727654514;234.2;;""
2332;44656.5727655671;234.2;;""
2333;44656.5727656829;233.9;;""
2334;44656.5727657986;233.6;;""
2335;44656.5727659144;233.1;;""
2336;44656.5727660301;232.5;;""
2337;44656.5727661458;231.7;;""
2338;44656.5727662616;230.8;;""
2339;44656.5727663773;229.7;;""
2340;44656.5727664931;228.7;;""
2341;44656.5727666088;227.6;;""
2342;44656.5727667245;226.2;;""
2343;44656.5727668403;224.9;;""
2344;44656.572766956;223.7;;""
2345;44656.5727670718;222.5;;""
2346;44656.5727671875;221.3;;""
2347;44656.5727673032;220.2;;""
2348;44656.572767419;219.2;;""
2349;44656.5727675347;218.1;;""
2350;44656.5727676505;217.3;;""
2351;44656.5727677662;216.4;;""
2352;44656.5727678819;215.4;;""
2353;44656.5727679977;214.6;;""
2354;44656.5727681134;214;;""
2355;44656.5727682292;213.1;;""
2356;44656.5727683449;212.5;;""
2357;44656.5727684606;211.9;;""
2358;44656.5727685764;211.3;;""
2359;44656.5727686921;210.8;;""
2360;44656.5727688079;210.2;;""
2361;44656.5727689236;209.7;;""
2362;44656.5727690394;209.1;;""
2363;44656.5727691551;208.8;;""
2364;44656.5727692708;208.3;;""
2365;44656.5727693866;208;;""
2366;44656.5727695023;207.4;;""
2367;44656.5727696181;207.2;;""
2368;44656.5727697338;206.6;;""
2369;44656.5727698495;206.3;;""
2370;44656.5727699653;206.1;;""
2371;44656.572770081;205.8;;""
2372;44656.5727701968;205.5;;""
2373;44656.5727703125;205.2;;""
2374;44656.5727704282;204.9;;""
2375;44656.572770544;204.6;;""
2376;44656.5727706597;204.3;;""
2377;44656.5727707755;204;;""
2378;44656.5727708912;203.7;;""
2379;44656.5727710069;203.4;;""
2380;44656.5727711227;203.1;;""
2381;44656.5727712384;202.8;;""
2382;44656.5727713542;202.8;;""
2383;44656.5727714699;202.5;;""
2384;44656.5727715856;202.2;;""
2385;44656.5727717014;202.1;;""
2386;44656.5727718171;201.8;;""
2387;44656.5727719329;201.6;;""
2388;44656.5727720486;201.3;;""
2389;44656.5727721643;201.2;;""
2390;44656.5727722801;200.9;;""
2391;44656.5727723958;200.9;;""
2392;44656.5727725116;200.6;;""
2393;44656.5727726273;200.6;;""
2394;44656.5727727431;200.3;;""
2395;44656.5727728588;200;;""
2396;44656.5727729745;200;;""
2397;44656.5727730903;199.6;;""
2398;44656.572773206;199.6;;""
2399;44656.5727733218;199.3;;""
2400;44656.5727734375;199.3;;""
2401;44656.5727735532;199;;""
2402;44656.572773669;199;;""
2403;44656.5727737847;198.7;;""
2404;44656.5727739005;198.6;;""
2405;44656.5727740162;198.3;;""
2406;44656.5727741319;198.3;;""
2407;44656.5727742477;198;;""
2408;44656.5727743634;198;;""
2409;44656.5727744792;197.6;;""
2410;44656.5727745949;197.6;;""
2411;44656.5727747107;197.3;;""
2412;44656.5727748264;197.3;;""
2413;44656.5727749421;197.3;;""
2414;44656.5727750579;197;;""
2415;44656.5727751736;196.9;;""
2416;44656.5727752894;196.7;;""
2417;44656.5727754051;196.6;;""
2418;44656.5727755208;196.4;;""
2419;44656.5727756366;196.3;;""
2420;44656.5727757523;196;;""
2421;44656.5727758681;195.7;;""
2422;44656.5727759838;195.7;;""
2423;44656.5727760995;195.4;;""
2424;44656.5727762153;195.1;;""
2425;44656.572776331;194.6;;""
2426;44656.5727764468;193.4;;""
2427;44656.5727765625;191.6;;""
2428;44656.5727766782;186.9;;""
2429;44656.572776794;177.7;;""
2430;44656.5727769097;186.1;;""
2431;44656.5727770255;198.4;;""
2432;44656.5727771412;201;;""
2433;44656.5727772569;200.1;;""
2434;44656.5727773727;199.9;;""
2435;44656.5727774884;200.5;;""
2436;44656.5727776042;201.3;;""
2437;44656.5727777199;201.9;;""
2438;44656.5727778356;202.4;;""
2439;44656.5727779514;203;;""
2440;44656.5727780671;203.8;;""
2441;44656.5727781829;204.4;;""
2442;44656.5727782986;204.9;;""
2443;44656.5727784144;205.5;;""
2444;44656.5727785301;206;;""
2445;44656.5727786458;206.3;;""
2446;44656.5727787616;206.9;;""
2447;44656.5727788773;207.5;;""
2448;44656.5727789931;208;;""
2449;44656.5727791088;208.6;;""
2450;44656.5727792245;208.8;;""
2451;44656.5727793403;209.4;;""
2452;44656.572779456;209.9;;""
2453;44656.5727795718;210.3;;""
2454;44656.5727796875;210.8;;""
2455;44656.5727798032;211.4;;""
2456;44656.572779919;211.7;;""
2457;44656.5727800347;212.2;;""
2458;44656.5727801505;212.5;;""
2459;44656.5727802662;213;;""
2460;44656.5727803819;213.5;;""
2461;44656.5727804977;213.9;;""
2462;44656.5727806134;214.1;;""
2463;44656.5727807292;214.7;;""
2464;44656.5727808449;215;;""
2465;44656.5727809606;215.3;;""
2466;44656.5727810764;215.9;;""
2467;44656.5727811921;216.5;;""
2468;44656.5727813079;216.7;;""
2469;44656.5727814236;217;;""
2470;44656.5727815394;217.3;;""
2471;44656.5727816551;217.9;;""
2472;44656.5727817708;218.2;;""
2473;44656.5727818866;218.7;;""
2474;44656.5727820023;219;;""
2475;44656.5727821181;219.3;;""
2476;44656.5727822338;219.7;;""
2477;44656.5727823495;220.2;;""
2478;44656.5727824653;220.5;;""
2479;44656.572782581;220.8;;""
2480;44656.5727826968;221.4;;""
2481;44656.5727828125;221.6;;""
2482;44656.5727829282;221.9;;""
2483;44656.572783044;222.3;;""
2484;44656.5727831597;222.9;;""
2485;44656.5727832755;223.1;;""
2486;44656.5727833912;223.4;;""
2487;44656.5727835069;223.8;;""
2488;44656.5727836227;224.1;;""
2489;44656.5727837384;224.7;;""
2490;44656.5727838542;225;;""
2491;44656.5727839699;225.2;;""
2492;44656.5727840856;225.5;;""
2493;44656.5727842014;226.1;;""
2494;44656.5727843171;226.1;;""
2495;44656.5727844329;226.7;;""
2496;44656.5727845486;226.9;;""
2497;44656.5727846643;227.5;;""
2498;44656.5727847801;227.8;;""
2499;44656.5727848958;228.1;;""
2500;44656.5727850116;228.4;;""
2501;44656.5727851273;228.7;;""
2502;44656.5727852431;229;;""
2503;44656.5727853588;229.3;;""
2504;44656.5727854745;229.8;;""
2505;44656.5727855903;230.1;;""
2506;44656.572785706;230.4;;""
2507;44656.5727858218;230.7;;""
2508;44656.5727859375;231;;""
2509;44656.5727860532;231.6;;""
2510;44656.572786169;231.8;;""
2511;44656.5727862847;232.1;;""
2512;44656.5727864005;232.4;;""
2513;44656.5727865162;232.7;;""
2514;44656.5727866319;233;;""
2515;44656.5727867477;233.3;;""
2516;44656.5727868634;233.5;;""
2517;44656.5727869792;233.8;;""
2518;44656.5727870949;234.1;;""
2519;44656.5727872107;234.1;;""
2520;44656.5727873264;234.1;;""
2521;44656.5727874421;234.2;;""
2522;44656.5727875579;234.1;;""
2523;44656.5727876736;233.9;;""
2524;44656.5727877894;233.3;;""
2525;44656.5727879051;233;;""
2526;44656.5727880208;232.1;;""
2527;44656.5727881366;231.5;;""
2528;44656.5727882523;230.6;;""
2529;44656.5727883681;229.5;;""
2530;44656.5727884838;228.5;;""
2531;44656.5727885995;227.3;;""
2532;44656.5727887153;226.1;;""
2533;44656.572788831;224.7;;""
2534;44656.5727889468;223.6;;""
2535;44656.5727890625;222.4;;""
2536;44656.5727891782;221.1;;""
2537;44656.572789294;219.9;;""
2538;44656.5727894097;219;;""
2539;44656.5727895255;217.9;;""
2540;44656.5727896412;217.1;;""
2541;44656.5727897569;216;;""
2542;44656.5727898727;215.2;;""
2543;44656.5727899884;214.6;;""
2544;44656.5727901042;213.8;;""
2545;44656.5727902199;213.2;;""
2546;44656.5727903356;212.4;;""
2547;44656.5727904514;211.8;;""
2548;44656.5727905671;211.3;;""
2549;44656.5727906829;210.7;;""
2550;44656.5727907986;210.1;;""
2551;44656.5727909144;209.5;;""
2552;44656.5727910301;209;;""
2553;44656.5727911458;208.7;;""
2554;44656.5727912616;208.4;;""
2555;44656.5727913773;207.8;;""
2556;44656.5727914931;207.5;;""
2557;44656.5727916088;207;;""
2558;44656.5727917245;206.6;;""
2559;44656.5727918403;206.4;;""
2560;44656.572791956;206.1;;""
2561;44656.5727920718;205.8;;""
2562;44656.5727921875;205.5;;""
2563;44656.5727923032;205.2;;""
2564;44656.572792419;204.6;;""
2565;44656.5727925347;204.6;;""
2566;44656.5727926505;204.2;;""
2567;44656.5727927662;203.9;;""
2568;44656.5727928819;203.7;;""
2569;44656.5727929977;203.4;;""
2570;44656.5727931134;203.1;;""
2571;44656.5727932292;202.8;;""
2572;44656.5727933449;202.7;;""
2573;44656.5727934606;202.5;;""
2574;44656.5727935764;202.2;;""
2575;44656.5727936921;201.9;;""
2576;44656.5727938079;201.8;;""
2577;44656.5727939236;201.6;;""
2578;44656.5727940394;201.2;;""
2579;44656.5727941551;201.2;;""
2580;44656.5727942708;200.9;;""
2581;44656.5727943866;200.6;;""
2582;44656.5727945023;200.6;;""
2583;44656.5727946181;200.3;;""
2584;44656.5727947338;200.3;;""
2585;44656.5727948495;200;;""
2586;44656.5727949653;199.9;;""
2587;44656.572795081;199.7;;""
2588;44656.5727951968;199.6;;""
2589;44656.5727953125;199.4;;""
2590;44656.5727954282;199.1;;""
2591;44656.572795544;199.1;;""
2592;44656.5727956597;199;;""
2593;44656.5727957755;198.7;;""
2594;44656.5727958912;198.4;;""
2595;44656.5727960069;198.4;;""
2596;44656.5727961227;198.1;;""
2597;44656.5727962384;198.1;;""
2598;44656.5727963542;197.8;;""
2599;44656.5727964699;197.8;;""
2600;44656.5727965856;197.7;;""
2601;44656.5727967014;197.4;;""
2602;44656.5727968171;197.4;;""
2603;44656.5727969329;197.1;;""
2604;44656.5727970486;197.1;;""
2605;44656.5727971644;196.8;;""
2606;44656.5727972801;196.8;;""
2607;44656.5727973958;196.5;;""
2608;44656.5727975116;196.5;;""
2609;44656.5727976273;196.2;;""
2610;44656.5727977431;195.9;;""
2611;44656.5727978588;195.9;;""
2612;44656.5727979745;195.6;;""
2613;44656.5727980903;195.3;;""
2614;44656.572798206;194.9;;""
2615;44656.5727983218;194.4;;""
2616;44656.5727984375;193.8;;""
2617;44656.5727985532;191.9;;""
2618;44656.572798669;187.9;;""
2619;44656.5727987847;179.4;;""
2620;44656.5727989005;186.7;;""
2621;44656.5727990162;199.2;;""
2622;44656.5727991319;201.8;;""
2623;44656.5727992477;200.2;;""
2624;44656.5727993634;199.6;;""
2625;44656.5727994792;200.2;;""
2626;44656.5727995949;201.3;;""
2627;44656.5727997107;201.8;;""
2628;44656.5727998264;202.4;;""
2629;44656.5727999421;202.9;;""
2630;44656.5728000579;203.5;;""
2631;44656.5728001736;204.1;;""
2632;44656.5728002894;204.6;;""
2633;44656.5728004051;205.2;;""
2634;44656.5728005208;205.7;;""
2635;44656.5728006366;206.3;;""
2636;44656.5728007523;206.9;;""
2637;44656.5728008681;207.4;;""
2638;44656.5728009838;208;;""
2639;44656.5728010995;208.2;;""
2640;44656.5728012153;208.8;;""
2641;44656.572801331;209.4;;""
2642;44656.5728014468;209.7;;""
2643;44656.5728015625;210.3;;""
2644;44656.5728016782;210.6;;""
2645;44656.572801794;211.1;;""
2646;44656.5728019097;211.4;;""
2647;44656.5728020255;212;;""
2648;44656.5728021412;212.6;;""
2649;44656.5728022569;212.9;;""
2650;44656.5728023727;213.2;;""
2651;44656.5728024884;213.7;;""
2652;44656.5728026042;214.2;;""
2653;44656.5728027199;214.5;;""
2654;44656.5728028356;215.1;;""
2655;44656.5728029514;215.4;;""
2656;44656.5728030671;215.7;;""
2657;44656.5728031829;216.3;;""
2658;44656.5728032986;216.5;;""
2659;44656.5728034144;217.1;;""
2660;44656.5728035301;217.4;;""
2661;44656.5728036458;217.9;;""
2662;44656.5728037616;218.2;;""
2663;44656.5728038773;218.5;;""
2664;44656.5728039931;218.8;;""
2665;44656.5728041088;219.4;;""
2666;44656.5728042245;219.7;;""
2667;44656.5728043403;220.2;;""
2668;44656.572804456;220.5;;""
2669;44656.5728045718;220.8;;""
2670;44656.5728046875;221.1;;""
2671;44656.5728048032;221.7;;""
2672;44656.572804919;222;;""
2673;44656.5728050347;222.3;;""
2674;44656.5728051505;222.8;;""
2675;44656.5728052662;223.1;;""
2676;44656.5728053819;223.4;;""
2677;44656.5728054977;223.7;;""
2678;44656.5728056134;224;;""
2679;44656.5728057292;224.6;;""
2680;44656.5728058449;224.9;;""
2681;44656.5728059606;225.2;;""
2682;44656.5728060764;225.5;;""
2683;44656.5728061921;226;;""
2684;44656.5728063079;226.4;;""
2685;44656.5728064236;226.6;;""
2686;44656.5728065393;227;;""
2687;44656.5728066551;227.3;;""
2688;44656.5728067708;227.6;;""
2689;44656.5728068866;227.9;;""
2690;44656.5728070023;228.5;;""
2691;44656.5728071181;228.7;;""
2692;44656.5728072338;229;;""
2693;44656.5728073495;229.3;;""
2694;44656.5728074653;229.9;;""
2695;44656.572807581;230.2;;""
2696;44656.5728076968;230.4;;""
2697;44656.5728078125;230.7;;""
2698;44656.5728079282;231;;""
2699;44656.572808044;231.6;;""
2700;44656.5728081597;231.6;;""
2701;44656.5728082755;232.1;;""
2702;44656.5728083912;232.4;;""
2703;44656.5728085069;232.7;;""
2704;44656.5728086227;233;;""
2705;44656.5728087384;233.3;;""
2706;44656.5728088542;233.4;;""
2707;44656.5728089699;233.7;;""
2708;44656.5728090857;233.9;;""
2709;44656.5728092014;234;;""
2710;44656.5728093171;234;;""
2711;44656.5728094329;234.1;;""
2712;44656.5728095486;234.1;;""
2713;44656.5728096644;233.8;;""
2714;44656.5728097801;233.5;;""
2715;44656.5728098958;232.9;;""
2716;44656.5728100116;232.3;;""
2717;44656.5728101273;231.5;;""
2718;44656.5728102431;230.6;;""
2719;44656.5728103588;229.7;;""
2720;44656.5728104745;228.4;;""
2721;44656.5728105903;227.4;;""
2722;44656.572810706;226.2;;""
2723;44656.5728108218;224.8;;""
2724;44656.5728109375;223.6;;""
2725;44656.5728110532;222.4;;""
2726;44656.572811169;221.2;;""
2727;44656.5728112847;220.2;;""
2728;44656.5728114005;219;;""
2729;44656.5728115162;218.2;;""
2730;44656.5728116319;217;;""
2731;44656.5728117477;216.2;;""
2732;44656.5728118634;215.4;;""
2733;44656.5728119792;214.6;;""
2734;44656.5728120949;213.7;;""
2735;44656.5728122106;213.2;;""
2736;44656.5728123264;212.6;;""
2737;44656.5728124421;211.7;;""
2738;44656.5728125579;211.3;;""
2739;44656.5728126736;210.8;;""
2740;44656.5728127894;210.3;;""
2741;44656.5728129051;209.7;;""
2742;44656.5728130208;209.2;;""
2743;44656.5728131366;208.9;;""
2744;44656.5728132523;208.3;;""
2745;44656.5728133681;208;;""
2746;44656.5728134838;207.4;;""
2747;44656.5728135995;207.2;;""
2748;44656.5728137153;206.6;;""
2749;44656.572813831;206.3;;""
2750;44656.5728139468;206.1;;""
2751;44656.5728140625;205.7;;""
2752;44656.5728141782;205.4;;""
2753;44656.572814294;205.2;;""
2754;44656.5728144097;204.6;;""
2755;44656.5728145255;204.6;;""
2756;44656.5728146412;204;;""
2757;44656.5728147569;204;;""
2758;44656.5728148727;203.7;;""
2759;44656.5728149884;203.4;;""
2760;44656.5728151042;203.1;;""
2761;44656.5728152199;202.8;;""
2762;44656.5728153356;202.7;;""
2763;44656.5728154514;202.4;;""
2764;44656.5728155671;202.1;;""
2765;44656.5728156829;202.1;;""
2766;44656.5728157986;201.8;;""
2767;44656.5728159144;201.4;;""
2768;44656.5728160301;201.4;;""
2769;44656.5728161458;201.1;;""
2770;44656.5728162616;200.9;;""
2771;44656.5728163773;200.8;;""
2772;44656.5728164931;200.5;;""
2773;44656.5728166088;200.5;;""
2774;44656.5728167245;200.2;;""
2775;44656.5728168403;200.2;;""
2776;44656.572816956;199.9;;""
2777;44656.5728170718;199.5;;""
2778;44656.5728171875;199.5;;""
2779;44656.5728173032;199.4;;""
2780;44656.572817419;199.2;;""
2781;44656.5728175347;198.9;;""
2782;44656.5728176505;198.9;;""
2783;44656.5728177662;198.8;;""
2784;44656.5728178819;198.5;;""
2785;44656.5728179977;198.2;;""
2786;44656.5728181134;198.2;;""
2787;44656.5728182292;198.1;;""
2788;44656.5728183449;197.9;;""
2789;44656.5728184606;197.8;;""
2790;44656.5728185764;197.5;;""
2791;44656.5728186921;197.5;;""
2792;44656.5728188079;197.2;;""
2793;44656.5728189236;197.2;;""
2794;44656.5728190393;196.9;;""
2795;44656.5728191551;196.8;;""
2796;44656.5728192708;196.6;;""
2797;44656.5728193866;196.5;;""
2798;44656.5728195023;196.2;;""
2799;44656.5728196181;196.2;;""
2800;44656.5728197338;196.2;;""
2801;44656.5728198495;195.9;;""
2802;44656.5728199653;195.6;;""
2803;44656.572820081;195.3;;""
2804;44656.5728201968;195;;""
2805;44656.5728203125;194.4;;""
2806;44656.5728204282;193.2;;""
2807;44656.572820544;190.8;;""
2808;44656.5728206597;185.5;;""
2809;44656.5728207755;180;;""
2810;44656.5728208912;189.2;;""
2811;44656.5728210069;198.2;;""
2812;44656.5728211227;200.3;;""
2813;44656.5728212384;199.6;;""
2814;44656.5728213542;199.9;;""
2815;44656.5728214699;200.7;;""
2816;44656.5728215857;201.6;;""
2817;44656.5728217014;202.1;;""
2818;44656.5728218171;202.7;;""
2819;44656.5728219329;203.2;;""
2820;44656.5728220486;203.8;;""
2821;44656.5728221644;204.4;;""
2822;44656.5728222801;204.9;;""
2823;44656.5728223958;205.4;;""
2824;44656.5728225116;206;;""
2825;44656.5728226273;206.6;;""
2826;44656.5728227431;207.2;;""
2827;44656.5728228588;207.7;;""
2828;44656.5728229745;208;;""
2829;44656.5728230903;208.6;;""
2830;44656.572823206;209.1;;""
2831;44656.5728233218;209.7;;""
2832;44656.5728234375;210;;""
2833;44656.5728235532;210.6;;""
2834;44656.572823669;210.9;;""
2835;44656.5728237847;211.5;;""
2836;44656.5728239005;211.8;;""
2837;44656.5728240162;212.4;;""
2838;44656.5728241319;212.9;;""
2839;44656.5728242477;213.2;;""
2840;44656.5728243634;213.7;;""
2841;44656.5728244792;214;;""
2842;44656.5728245949;214.6;;""
2843;44656.5728247106;214.9;;""
2844;44656.5728248264;215.4;;""
2845;44656.5728249421;215.7;;""
2846;44656.5728250579;216.3;;""
2847;44656.5728251736;216.5;;""
2848;44656.5728252894;217.1;;""
2849;44656.5728254051;217.4;;""
2850;44656.5728255208;217.7;;""
2851;44656.5728256366;218.2;;""
2852;44656.5728257523;218.5;;""
2853;44656.5728258681;218.8;;""
2854;44656.5728259838;219.3;;""
2855;44656.5728260995;219.7;;""
2856;44656.5728262153;220;;""
2857;44656.572826331;220.5;;""
2858;44656.5728264468;220.8;;""
2859;44656.5728265625;221.1;;""
2860;44656.5728266782;221.6;;""
2861;44656.572826794;221.9;;""
2862;44656.5728269097;222.2;;""
2863;44656.5728270255;222.8;;""
2864;44656.5728271412;223;;""
2865;44656.5728272569;223.3;;""
2866;44656.5728273727;223.6;;""
2867;44656.5728274884;224;;""
2868;44656.5728276042;224.3;;""
2869;44656.5728277199;224.8;;""
2870;44656.5728278356;225.1;;""
2871;44656.5728279514;225.5;;""
2872;44656.5728280671;225.7;;""
2873;44656.5728281829;226.3;;""
2874;44656.5728282986;226.6;;""
2875;44656.5728284144;226.9;;""
2876;44656.5728285301;227.3;;""
2877;44656.5728286458;227.5;;""
2878;44656.5728287616;227.8;;""
2879;44656.5728288773;228.2;;""
2880;44656.5728289931;228.5;;""
2881;44656.5728291088;229;;""
2882;44656.5728292245;229.4;;""
2883;44656.5728293403;229.7;;""
2884;44656.572829456;230;;""
2885;44656.5728295718;230.3;;""
2886;44656.5728296875;230.6;;""
2887;44656.5728298032;230.9;;""
2888;44656.572829919;231.4;;""
2889;44656.5728300347;231.7;;""
2890;44656.5728301505;232;;""
2891;44656.5728302662;232.3;;""
2892;44656.5728303819;232.6;;""
2893;44656.5728304977;232.9;;""
2894;44656.5728306134;233.2;;""
2895;44656.5728307292;233.5;;""
2896;44656.5728308449;233.8;;""
2897;44656.5728309606;233.8;;""
2898;44656.5728310764;233.9;;""
2899;44656.5728311921;234.1;;""
2900;44656.5728313079;234.2;;""
2901;44656.5728314236;234.2;;""
2902;44656.5728315394;233.9;;""
2903;44656.5728316551;233.6;;""
2904;44656.5728317708;233.1;;""
2905;44656.5728318866;232.5;;""
2906;44656.5728320023;232;;""
2907;44656.5728321181;231;;""
2908;44656.5728322338;230.2;;""
2909;44656.5728323495;229;;""
2910;44656.5728324653;227.9;;""
2911;44656.572832581;226.8;;""
2912;44656.5728326968;225.4;;""
2913;44656.5728328125;224.2;;""
2914;44656.5728329282;223.1;;""
2915;44656.572833044;221.9;;""
2916;44656.5728331597;220.9;;""
2917;44656.5728332755;219.6;;""
2918;44656.5728333912;218.7;;""
2919;44656.5728335069;217.6;;""
2920;44656.5728336227;216.7;;""
2921;44656.5728337384;215.9;;""
2922;44656.5728338542;215;;""
2923;44656.5728339699;214.4;;""
2924;44656.5728340857;213.5;;""
2925;44656.5728342014;213;;""
2926;44656.5728343171;212.1;;""
2927;44656.5728344329;211.7;;""
2928;44656.5728345486;211.1;;""
2929;44656.5728346644;210.6;;""
2930;44656.5728347801;210.1;;""
2931;44656.5728348958;209.5;;""
2932;44656.5728350116;209;;""
2933;44656.5728351273;208.7;;""
2934;44656.5728352431;208.3;;""
2935;44656.5728353588;207.8;;""
2936;44656.5728354745;207.5;;""
2937;44656.5728355903;207.2;;""
2938;44656.572835706;206.6;;""
2939;44656.5728358218;206.3;;""
2940;44656.5728359375;206;;""
2941;44656.5728360532;205.6;;""
2942;44656.572836169;205.3;;""
2943;44656.5728362847;205;;""
2944;44656.5728364005;204.8;;""
2945;44656.5728365162;204.7;;""
2946;44656.5728366319;204.1;;""
2947;44656.5728367477;204.1;;""
2948;44656.5728368634;203.8;;""
2949;44656.5728369792;203.5;;""
2950;44656.5728370949;203.2;;""
2951;44656.5728372106;203.2;;""
2952;44656.5728373264;202.7;;""
2953;44656.5728374421;202.6;;""
2954;44656.5728375579;202.4;;""
2955;44656.5728376736;202;;""
2956;44656.5728377894;202;;""
2957;44656.5728379051;201.7;;""
2958;44656.5728380208;201.5;;""
2959;44656.5728381366;201.4;;""
2960;44656.5728382523;201.2;;""
2961;44656.5728383681;200.9;;""
2962;44656.5728384838;200.8;;""
2963;44656.5728385995;200.6;;""
2964;44656.5728387153;200.5;;""
2965;44656.572838831;200.2;;""
2966;44656.5728389468;199.9;;""
2967;44656.5728390625;199.9;;""
2968;44656.5728391782;199.5;;""
2969;44656.572839294;199.5;;""
2970;44656.5728394097;199.5;;""
2971;44656.5728395255;199.2;;""
2972;44656.5728396412;198.9;;""
2973;44656.5728397569;198.9;;""
2974;44656.5728398727;198.6;;""
2975;44656.5728399884;198.6;;""
2976;44656.5728401042;198.5;;""
2977;44656.5728402199;198.3;;""
2978;44656.5728403356;198.2;;""
2979;44656.5728404514;197.9;;""
2980;44656.5728405671;197.9;;""
2981;44656.5728406829;197.6;;""
2982;44656.5728407986;197.6;;""
2983;44656.5728409143;197.3;;""
2984;44656.5728410301;197.3;;""
2985;44656.5728411458;197.2;;""
2986;44656.5728412616;196.9;;""
2987;44656.5728413773;196.9;;""
2988;44656.5728414931;196.6;;""
2989;44656.5728416088;196.6;;""
2990;44656.5728417245;196.5;;""
2991;44656.5728418403;196.2;;""
2992;44656.572841956;196;;""
2993;44656.5728420718;195.9;;""
2994;44656.5728421875;195.6;;""
2995;44656.5728423032;195.6;;""
2996;44656.572842419;195.1;;""
2997;44656.5728425347;194.7;;""
2998;44656.5728426505;193.9;;""
2999;44656.5728427662;192.5;;""
3000;44656.5728428819;189.4;;""
3001;44656.5728429977;182.3;;""
3002;44656.5728431134;189.6;;""
3003;44656.5728432292;198.2;;""
3004;44656.5728433449;201;;""
3005;44656.5728434607;199.8;;""
3006;44656.5728435764;199.4;;""
3007;44656.5728436921;199.8;;""
3008;44656.5728438079;200.6;;""
3009;44656.5728439236;201.5;;""
3010;44656.5728440394;202;;""
3011;44656.5728441551;202.6;;""
3012;44656.5728442708;203.1;;""
3013;44656.5728443866;203.7;;""
3014;44656.5728445023;204.3;;""
3015;44656.5728446181;204.9;;""
3016;44656.5728447338;205.4;;""
3017;44656.5728448495;206;;""
3018;44656.5728449653;206.6;;""
3019;44656.572845081;206.9;;""
3020;44656.5728451968;207.4;;""
3021;44656.5728453125;208;;""
3022;44656.5728454282;208.5;;""
3023;44656.572845544;209.1;;""
3024;44656.5728456597;209.4;;""
3025;44656.5728457755;210;;""
3026;44656.5728458912;210.3;;""
3027;44656.5728460069;210.8;;""
3028;44656.5728461227;211.4;;""
3029;44656.5728462384;211.7;;""
3030;44656.5728463542;212.2;;""
3031;44656.5728464699;212.5;;""
3032;44656.5728465856;213.1;;""
3033;44656.5728467014;213.4;;""
3034;44656.5728468171;214;;""
3035;44656.5728469329;214.3;;""
3036;44656.5728470486;214.8;;""
3037;44656.5728471644;215.1;;""
3038;44656.5728472801;215.4;;""
3039;44656.5728473958;216;;""
3040;44656.5728475116;216.3;;""
3041;44656.5728476273;216.7;;""
3042;44656.5728477431;217.2;;""
3043;44656.5728478588;217.5;;""
3044;44656.5728479745;218;;""
3045;44656.5728480903;218.3;;""
3046;44656.572848206;218.6;;""
3047;44656.5728483218;219.1;;""
3048;44656.5728484375;219.4;;""
3049;44656.5728485532;219.7;;""
3050;44656.572848669;220.3;;""
3051;44656.5728487847;220.6;;""
3052;44656.5728489005;220.9;;""
3053;44656.5728490162;221.4;;""
3054;44656.5728491319;221.7;;""
3055;44656.5728492477;222.3;;""
3056;44656.5728493634;222.5;;""
3057;44656.5728494792;222.9;;""
3058;44656.5728495949;223.2;;""
3059;44656.5728497106;223.5;;""
3060;44656.5728498264;224;;""
3061;44656.5728499421;224.3;;""
3062;44656.5728500579;224.6;;""
3063;44656.5728501736;224.9;;""
3064;44656.5728502894;225.5;;""
3065;44656.5728504051;225.8;;""
3066;44656.5728505208;226.1;;""
3067;44656.5728506366;226.4;;""
3068;44656.5728507523;226.7;;""
3069;44656.5728508681;227.2;;""
3070;44656.5728509838;227.5;;""
3071;44656.5728510995;227.9;;""
3072;44656.5728512153;228.2;;""
3073;44656.572851331;228.8;;""
3074;44656.5728514468;228.8;;""
3075;44656.5728515625;229.3;;""
3076;44656.5728516782;229.6;;""
3077;44656.572851794;229.9;;""
3078;44656.5728519097;230.2;;""
3079;44656.5728520255;230.5;;""
3080;44656.5728521412;230.9;;""
3081;44656.5728522569;231.4;;""
3082;44656.5728523727;232;;""
3083;44656.5728524884;232.1;;""
3084;44656.5728526042;232.3;;""
3085;44656.5728527199;232.6;;""
3086;44656.5728528356;232.9;;""
3087;44656.5728529514;233.2;;""
3088;44656.5728530671;233.4;;""
3089;44656.5728531829;233.8;;""
3090;44656.5728532986;233.8;;""
3091;44656.5728534143;234.1;;""
3092;44656.5728535301;234.1;;""
3093;44656.5728536458;234.1;;""
3094;44656.5728537616;234.1;;""
3095;44656.5728538773;233.9;;""
3096;44656.5728539931;233.6;;""
3097;44656.5728541088;233;;""
3098;44656.5728542245;232.4;;""
3099;44656.5728543403;231.8;;""
3100;44656.572854456;230.7;;""
3101;44656.5728545718;229.9;;""
3102;44656.5728546875;228.6;;""
3103;44656.5728548032;227.4;;""
3104;44656.572854919;226.3;;""
3105;44656.5728550347;225.2;;""
3106;44656.5728551505;223.8;;""
3107;44656.5728552662;222.5;;""
3108;44656.5728553819;221.4;;""
3109;44656.5728554977;220.2;;""
3110;44656.5728556134;219.3;;""
3111;44656.5728557292;218.3;;""
3112;44656.5728558449;217.4;;""
3113;44656.5728559607;216.3;;""
3114;44656.5728560764;215.4;;""
3115;44656.5728561921;214.6;;""
3116;44656.5728563079;214.1;;""
3117;44656.5728564236;213.2;;""
3118;44656.5728565394;212.6;;""
3119;44656.5728566551;212.1;;""
3120;44656.5728567708;211.2;;""
3121;44656.5728568866;209;;""
3122;44656.5728570023;212.7;;""
3123;44656.5728571181;214.8;;""
3124;44656.5728572338;207.1;;""
3125;44656.5728573495;206.4;;""
3126;44656.5728574653;211;;""
3127;44656.572857581;205.8;;""
3128;44656.5728576968;207.2;;""
3129;44656.5728578125;209.2;;""
3130;44656.5728579282;204.9;;""
3131;44656.572858044;204;;""
3132;44656.5728581597;209.8;;""
3133;44656.5728582755;208.2;;""
3134;44656.5728583912;201.1;;""
3135;44656.5728585069;204.3;;""
3136;44656.5728586227;207.6;;""
3137;44656.5728587384;202.8;;""
3138;44656.5728588542;203.5;;""
3139;44656.5728589699;205.5;;""
3140;44656.5728590856;202.7;;""
3141;44656.5728592014;202.7;;""
3142;44656.5728593171;204.5;;""
3143;44656.5728594329;203.1;;""
3144;44656.5728595486;201.8;;""
3145;44656.5728596644;202.7;;""
3146;44656.5728597801;202.5;;""
3147;44656.5728598958;201.7;;""
3148;44656.5728600116;201.7;;""
3149;44656.5728601273;202;;""
3150;44656.5728602431;201.4;;""
3151;44656.5728603588;201.1;;""
3152;44656.5728604745;201.1;;""
3153;44656.5728605903;200.8;;""
3154;44656.572860706;200.5;;""
3155;44656.5728608218;200.5;;""
3156;44656.5728609375;200.2;;""
3157;44656.5728610532;199.9;;""
3158;44656.572861169;199.9;;""
3159;44656.5728612847;199.6;;""
3160;44656.5728614005;199.4;;""
