﻿
******************************************************
GDUSB FastView (x64) V1.02 CSV-Export
******************************************************
0.300 mm
20.7 C******************************************************
Cycletime: 00:00:00.0100000
correzione offset: 0
correzione scala: 0
Duration of measuring (within trigger range): 00:00:29.6700000
******************************************************
File Name
C:\Users\student\Desktop\Daten\moscato-saporito\triton-4-1\380 01524.csv
******************************************************

Index;Tempo;Value;Error;Comment
1;44656.564417037;110.9;;""
2;44656.5644171528;110.6;;""
3;44656.5644172685;110.3;;""
4;44656.5644173843;110.3;;""
5;44656.5644175;110;;""
6;44656.5644176157;109.7;;""
7;44656.5644177315;109.4;;""
8;44656.5644178472;109.4;;""
9;44656.564417963;109.1;;""
10;44656.5644180787;108.8;;""
11;44656.5644181944;108.8;;""
12;44656.5644183102;108.5;;""
13;44656.5644184259;108.5;;""
14;44656.5644185417;108.2;;""
15;44656.5644186574;107.9;;""
16;44656.5644187731;107.9;;""
17;44656.5644188889;107.6;;""
18;44656.5644190046;107.5;;""
19;44656.5644191204;107.3;;""
20;44656.5644192361;107;;""
21;44656.5644193519;106.9;;""
22;44656.5644194676;106.9;;""
23;44656.5644195833;106.6;;""
24;44656.5644196991;106.3;;""
25;44656.5644198148;106.3;;""
26;44656.5644199306;106;;""
27;44656.5644200463;106;;""
28;44656.564420162;105.7;;""
29;44656.5644202778;105.4;;""
30;44656.5644203935;105.4;;""
31;44656.5644205093;105.4;;""
32;44656.564420625;105.1;;""
33;44656.5644207407;105;;""
34;44656.5644208565;104.7;;""
35;44656.5644209722;104.7;;""
36;44656.564421088;104.4;;""
37;44656.5644212037;104.4;;""
38;44656.5644213194;104.1;;""
39;44656.5644214352;104.1;;""
40;44656.5644215509;103.8;;""
41;44656.5644216667;103.8;;""
42;44656.5644217824;103.5;;""
43;44656.5644218981;103.5;;""
44;44656.5644220139;103.2;;""
45;44656.5644221296;103.2;;""
46;44656.5644222454;102.9;;""
47;44656.5644223611;102.9;;""
48;44656.5644224769;102.8;;""
49;44656.5644225926;102.5;;""
50;44656.5644227083;102.5;;""
51;44656.5644228241;102.4;;""
52;44656.5644229398;102.1;;""
53;44656.5644230556;102.1;;""
54;44656.5644231713;101.8;;""
55;44656.564423287;101.8;;""
56;44656.5644234028;101.5;;""
57;44656.5644235185;101.5;;""
58;44656.5644236343;101.4;;""
59;44656.56442375;101.1;;""
60;44656.5644238657;101;;""
61;44656.5644239815;101;;""
62;44656.5644240972;100.7;;""
63;44656.564424213;100.6;;""
64;44656.5644243287;100.4;;""
65;44656.5644244444;100.3;;""
66;44656.5644245602;100;;""
67;44656.5644246759;99.8;;""
68;44656.5644247917;99.5;;""
69;44656.5644249074;99.2;;""
70;44656.5644250231;98.9;;""
71;44656.5644251389;98.6;;""
72;44656.5644252546;97.7;;""
73;44656.5644253704;96.6;;""
74;44656.5644254861;93.9;;""
75;44656.5644256019;89.4;;""
76;44656.5644257176;85.1;;""
77;44656.5644258333;84.1;;""
78;44656.5644259491;99.9;;""
79;44656.5644260648;116.7;;""
80;44656.5644261806;123.5;;""
81;44656.5644262963;122.9;;""
82;44656.564426412;121.7;;""
83;44656.5644265278;122.5;;""
84;44656.5644266435;124.3;;""
85;44656.5644267593;125.1;;""
86;44656.564426875;125.4;;""
87;44656.5644269907;126;;""
88;44656.5644271065;126.9;;""
89;44656.5644272222;127.4;;""
90;44656.564427338;128.2;;""
91;44656.5644274537;128.8;;""
92;44656.5644275694;129.4;;""
93;44656.5644276852;129.9;;""
94;44656.5644278009;130.5;;""
95;44656.5644279167;131;;""
96;44656.5644280324;131.7;;""
97;44656.5644281482;132.2;;""
98;44656.5644282639;132.5;;""
99;44656.5644283796;133.1;;""
100;44656.5644284954;133.7;;""
101;44656.5644286111;134.2;;""
102;44656.5644287269;134.8;;""
103;44656.5644288426;135.4;;""
104;44656.5644289583;135.7;;""
105;44656.5644290741;136;;""
106;44656.5644291898;136.5;;""
107;44656.5644293056;137.1;;""
108;44656.5644294213;137.7;;""
109;44656.564429537;138;;""
110;44656.5644296528;137.7;;""
111;44656.5644297685;137.9;;""
112;44656.5644298843;139.2;;""
113;44656.56443;140.3;;""
114;44656.5644301157;140.8;;""
115;44656.5644302315;140.8;;""
116;44656.5644303472;141.1;;""
117;44656.564430463;141.7;;""
118;44656.5644305787;142;;""
119;44656.5644306944;142.5;;""
120;44656.5644308102;143.1;;""
121;44656.5644309259;143.7;;""
122;44656.5644310417;144.2;;""
123;44656.5644311574;144.5;;""
124;44656.5644312731;144.5;;""
125;44656.5644313889;145.1;;""
126;44656.5644315046;145.6;;""
127;44656.5644316204;146.2;;""
128;44656.5644317361;146.5;;""
129;44656.5644318519;147.1;;""
130;44656.5644319676;147.4;;""
131;44656.5644320833;147.7;;""
132;44656.5644321991;148.3;;""
133;44656.5644323148;148.6;;""
134;44656.5644324306;149.2;;""
135;44656.5644325463;149.7;;""
136;44656.564432662;150;;""
137;44656.5644327778;150.3;;""
138;44656.5644328935;150.8;;""
139;44656.5644330093;151.2;;""
140;44656.564433125;151.4;;""
141;44656.5644332407;152;;""
142;44656.5644333565;152.5;;""
143;44656.5644334722;152.9;;""
144;44656.564433588;153.1;;""
145;44656.5644337037;153.4;;""
146;44656.5644338194;153.8;;""
147;44656.5644339352;154.4;;""
148;44656.5644340509;154.7;;""
149;44656.5644341667;155.2;;""
150;44656.5644342824;155.5;;""
151;44656.5644343981;156;;""
152;44656.5644345139;156.3;;""
153;44656.5644346296;156.6;;""
154;44656.5644347454;157.2;;""
155;44656.5644348611;157.5;;""
156;44656.5644349769;157.8;;""
157;44656.5644350926;158.3;;""
158;44656.5644352083;158.6;;""
159;44656.5644353241;158.9;;""
160;44656.5644354398;159.5;;""
161;44656.5644355556;159.8;;""
162;44656.5644356713;160.3;;""
163;44656.564435787;160.6;;""
164;44656.5644359028;160.9;;""
165;44656.5644360185;161.5;;""
166;44656.5644361343;161.8;;""
167;44656.56443625;162.1;;""
168;44656.5644363657;162.4;;""
169;44656.5644364815;162.9;;""
170;44656.5644365972;163.2;;""
171;44656.564436713;163.5;;""
172;44656.5644368287;164;;""
173;44656.5644369444;164.3;;""
174;44656.5644370602;164.6;;""
175;44656.5644371759;164.9;;""
176;44656.5644372917;165.5;;""
177;44656.5644374074;165.8;;""
178;44656.5644375232;166;;""
179;44656.5644376389;166.6;;""
180;44656.5644377546;166.9;;""
181;44656.5644378704;167.2;;""
182;44656.5644379861;167.5;;""
183;44656.5644381019;168;;""
184;44656.5644382176;168.3;;""
185;44656.5644383333;168.6;;""
186;44656.5644384491;168.9;;""
187;44656.5644385648;169.4;;""
188;44656.5644386806;169.7;;""
189;44656.5644387963;170.3;;""
190;44656.564438912;170.3;;""
191;44656.5644390278;170.9;;""
192;44656.5644391435;171.2;;""
193;44656.5644392593;171.5;;""
194;44656.564439375;171.8;;""
195;44656.5644394907;172.1;;""
196;44656.5644396065;172.7;;""
197;44656.5644397222;173;;""
198;44656.564439838;173.3;;""
199;44656.5644399537;173.8;;""
200;44656.5644400694;174.1;;""
201;44656.5644401852;174.4;;""
202;44656.5644403009;174.7;;""
203;44656.5644404167;175.3;;""
204;44656.5644405324;175.5;;""
205;44656.5644406482;175.8;;""
206;44656.5644407639;176.1;;""
207;44656.5644408796;176.4;;""
208;44656.5644409954;176.7;;""
209;44656.5644411111;177.3;;""
210;44656.5644412269;177.6;;""
211;44656.5644413426;177.9;;""
212;44656.5644414583;178.2;;""
213;44656.5644415741;178.5;;""
214;44656.5644416898;178.8;;""
215;44656.5644418056;179.1;;""
216;44656.5644419213;179.7;;""
217;44656.564442037;180;;""
218;44656.5644421528;180.2;;""
219;44656.5644422685;180.5;;""
220;44656.5644423843;180.8;;""
221;44656.5644425;181.1;;""
222;44656.5644426157;181.4;;""
223;44656.5644427315;181.9;;""
224;44656.5644428472;182.3;;""
225;44656.564442963;182.6;;""
226;44656.5644430787;182.8;;""
227;44656.5644431944;183.2;;""
228;44656.5644433102;183.4;;""
229;44656.5644434259;183.5;;""
230;44656.5644435417;183.8;;""
231;44656.5644436574;183.8;;""
232;44656.5644437731;183.6;;""
233;44656.5644438889;182.4;;""
234;44656.5644440046;177.9;;""
235;44656.5644441204;162.6;;""
236;44656.5644442361;136.7;;""
237;44656.5644443519;122.8;;""
238;44656.5644444676;125;;""
239;44656.5644445833;127.5;;""
240;44656.5644446991;124.8;;""
241;44656.5644448148;123;;""
242;44656.5644449306;122.8;;""
243;44656.5644450463;122.8;;""
244;44656.564445162;122;;""
245;44656.5644452778;121.4;;""
246;44656.5644453935;120.8;;""
247;44656.5644455093;120.6;;""
248;44656.564445625;119.8;;""
249;44656.5644457407;119.5;;""
250;44656.5644458565;119.2;;""
251;44656.5644459722;118.6;;""
252;44656.564446088;118.3;;""
253;44656.5644462037;118;;""
254;44656.5644463194;117.7;;""
255;44656.5644464352;117.2;;""
256;44656.5644465509;116.9;;""
257;44656.5644466667;116.3;;""
258;44656.5644467824;116.1;;""
259;44656.5644468981;115.8;;""
260;44656.5644470139;115.5;;""
261;44656.5644471296;115.2;;""
262;44656.5644472454;114.9;;""
263;44656.5644473611;114.6;;""
264;44656.5644474768;114.3;;""
265;44656.5644475926;114.1;;""
266;44656.5644477083;113.8;;""
267;44656.5644478241;113.5;;""
268;44656.5644479398;113.2;;""
269;44656.5644480556;112.8;;""
270;44656.5644481713;112.6;;""
271;44656.564448287;112.5;;""
272;44656.5644484028;112.3;;""
273;44656.5644485185;112;;""
274;44656.5644486343;111.7;;""
275;44656.56444875;111.4;;""
276;44656.5644488657;111.4;;""
277;44656.5644489815;111.1;;""
278;44656.5644490972;110.8;;""
279;44656.564449213;110.8;;""
280;44656.5644493287;110.5;;""
281;44656.5644494444;110.2;;""
282;44656.5644495602;109.9;;""
283;44656.5644496759;109.9;;""
284;44656.5644497917;109.6;;""
285;44656.5644499074;109.2;;""
286;44656.5644500232;109.2;;""
287;44656.5644501389;108.9;;""
288;44656.5644502546;108.8;;""
289;44656.5644503704;108.5;;""
290;44656.5644504861;108.5;;""
291;44656.5644506019;108.2;;""
292;44656.5644507176;108.2;;""
293;44656.5644508333;107.9;;""
294;44656.5644509491;107.6;;""
295;44656.5644510648;107.6;;""
296;44656.5644511806;107.3;;""
297;44656.5644512963;107.3;;""
298;44656.564451412;107;;""
299;44656.5644515278;106.9;;""
300;44656.5644516435;106.6;;""
301;44656.5644517593;106.6;;""
302;44656.564451875;106.3;;""
303;44656.5644519907;106.2;;""
304;44656.5644521065;105.9;;""
305;44656.5644522222;105.9;;""
306;44656.564452338;105.6;;""
307;44656.5644524537;105.6;;""
308;44656.5644525694;105.3;;""
309;44656.5644526852;105.3;;""
310;44656.5644528009;105;;""
311;44656.5644529167;104.9;;""
312;44656.5644530324;104.7;;""
313;44656.5644531481;104.7;;""
314;44656.5644532639;104.4;;""
315;44656.5644533796;104.3;;""
316;44656.5644534954;104.3;;""
317;44656.5644536111;104;;""
318;44656.5644537269;103.9;;""
319;44656.5644538426;103.7;;""
320;44656.5644539583;103.7;;""
321;44656.5644540741;103.4;;""
322;44656.5644541898;103.3;;""
323;44656.5644543056;103.3;;""
324;44656.5644544213;103;;""
325;44656.564454537;102.9;;""
326;44656.5644546528;102.7;;""
327;44656.5644547685;102.6;;""
328;44656.5644548843;102.4;;""
329;44656.564455;102.3;;""
330;44656.5644551157;102.3;;""
331;44656.5644552315;102;;""
332;44656.5644553472;102;;""
333;44656.564455463;101.9;;""
334;44656.5644555787;101.6;;""
335;44656.5644556944;101.6;;""
336;44656.5644558102;101.3;;""
337;44656.5644559259;101.3;;""
338;44656.5644560417;101;;""
339;44656.5644561574;101;;""
340;44656.5644562731;100.7;;""
341;44656.5644563889;100.6;;""
342;44656.5644565046;100.4;;""
343;44656.5644566204;100.3;;""
344;44656.5644567361;100;;""
345;44656.5644568519;100;;""
346;44656.5644569676;99.7;;""
347;44656.5644570833;99.4;;""
348;44656.5644571991;99.1;;""
349;44656.5644573148;98.6;;""
350;44656.5644574306;98.1;;""
351;44656.5644575463;97.2;;""
352;44656.564457662;95.5;;""
353;44656.5644577778;91.8;;""
354;44656.5644578935;86.9;;""
355;44656.5644580093;84.5;;""
356;44656.564458125;83.9;;""
357;44656.5644582407;103.2;;""
358;44656.5644583565;121.9;;""
359;44656.5644584722;124.9;;""
360;44656.564458588;122.8;;""
361;44656.5644587037;122.2;;""
362;44656.5644588194;123.5;;""
363;44656.5644589352;124.7;;""
364;44656.5644590509;125.3;;""
365;44656.5644591667;125.6;;""
366;44656.5644592824;126.3;;""
367;44656.5644593981;127.2;;""
368;44656.5644595139;128;;""
369;44656.5644596296;128.6;;""
370;44656.5644597454;129.1;;""
371;44656.5644598611;129.7;;""
372;44656.5644599768;130.3;;""
373;44656.5644600926;130.9;;""
374;44656.5644602083;131.5;;""
375;44656.5644603241;131.8;;""
376;44656.5644604398;132.4;;""
377;44656.5644605556;132.9;;""
378;44656.5644606713;133.5;;""
379;44656.564460787;134;;""
380;44656.5644609028;134.5;;""
381;44656.5644610185;135.1;;""
382;44656.5644611343;135.4;;""
383;44656.56446125;135.9;;""
384;44656.5644613657;136.5;;""
385;44656.5644614815;136.8;;""
386;44656.5644615972;137.3;;""
387;44656.564461713;137.9;;""
388;44656.5644618287;138.5;;""
389;44656.5644619444;138.7;;""
390;44656.5644620602;139.3;;""
391;44656.5644621759;139.6;;""
392;44656.5644622917;140.2;;""
393;44656.5644624074;140.7;;""
394;44656.5644625232;141;;""
395;44656.5644626389;141.6;;""
396;44656.5644627546;141.9;;""
397;44656.5644628704;142.4;;""
398;44656.5644629861;142.7;;""
399;44656.5644631019;143.3;;""
400;44656.5644632176;143.6;;""
401;44656.5644633333;144.2;;""
402;44656.5644634491;144.5;;""
403;44656.5644635648;145;;""
404;44656.5644636806;145.3;;""
405;44656.5644637963;145.8;;""
406;44656.564463912;146.4;;""
407;44656.5644640278;146.7;;""
408;44656.5644641435;147.3;;""
409;44656.5644642593;147.6;;""
410;44656.564464375;147.9;;""
411;44656.5644644907;148.4;;""
412;44656.5644646065;148.7;;""
413;44656.5644647222;148.6;;""
414;44656.564464838;148.8;;""
415;44656.5644649537;149.9;;""
416;44656.5644650694;151;;""
417;44656.5644651852;151.3;;""
418;44656.5644653009;151.3;;""
419;44656.5644654167;151.6;;""
420;44656.5644655324;152.1;;""
421;44656.5644656481;152.2;;""
422;44656.5644657639;152.7;;""
423;44656.5644658796;153.3;;""
424;44656.5644659954;153.8;;""
425;44656.5644661111;154.1;;""
426;44656.5644662269;154.4;;""
427;44656.5644663426;154.7;;""
428;44656.5644664583;155;;""
429;44656.5644665741;155.6;;""
430;44656.5644666898;156.1;;""
431;44656.5644668056;156.4;;""
432;44656.5644669213;156.7;;""
433;44656.564467037;157.3;;""
434;44656.5644671528;157.3;;""
435;44656.5644672685;157.9;;""
436;44656.5644673843;158.2;;""
437;44656.5644675;158.8;;""
438;44656.5644676157;159;;""
439;44656.5644677315;159.6;;""
440;44656.5644678472;159.6;;""
441;44656.564467963;160.2;;""
442;44656.5644680787;160.5;;""
443;44656.5644681944;160.8;;""
444;44656.5644683102;161.3;;""
445;44656.5644684259;161.6;;""
446;44656.5644685417;162.2;;""
447;44656.5644686574;162.5;;""
448;44656.5644687731;162.8;;""
449;44656.5644688889;163.1;;""
450;44656.5644690046;163.7;;""
451;44656.5644691204;163.9;;""
452;44656.5644692361;164.3;;""
453;44656.5644693519;164.8;;""
454;44656.5644694676;165.1;;""
455;44656.5644695833;165.4;;""
456;44656.5644696991;165.9;;""
457;44656.5644698148;166.2;;""
458;44656.5644699306;166.5;;""
459;44656.5644700463;166.8;;""
460;44656.564470162;167.1;;""
461;44656.5644702778;167.7;;""
462;44656.5644703935;168;;""
463;44656.5644705093;168.2;;""
464;44656.564470625;168.8;;""
465;44656.5644707407;169.1;;""
466;44656.5644708565;169.4;;""
467;44656.5644709722;169.6;;""
468;44656.564471088;170.2;;""
469;44656.5644712037;170.5;;""
470;44656.5644713194;170.8;;""
471;44656.5644714352;171.3;;""
472;44656.5644715509;171.6;;""
473;44656.5644716667;171.9;;""
474;44656.5644717824;172.2;;""
475;44656.5644718981;172.8;;""
476;44656.5644720139;173;;""
477;44656.5644721296;173.3;;""
478;44656.5644722454;173.7;;""
479;44656.5644723611;174;;""
480;44656.5644724769;174.3;;""
481;44656.5644725926;174.8;;""
482;44656.5644727083;175.1;;""
483;44656.5644728241;175.4;;""
484;44656.5644729398;175.7;;""
485;44656.5644730556;176.3;;""
486;44656.5644731713;176.6;;""
487;44656.564473287;176.9;;""
488;44656.5644734028;177.2;;""
489;44656.5644735185;177.5;;""
490;44656.5644736343;177.8;;""
491;44656.56447375;178.1;;""
492;44656.5644738657;178.7;;""
493;44656.5644739815;179;;""
494;44656.5644740972;179.3;;""
495;44656.564474213;179.6;;""
496;44656.5644743287;180;;""
497;44656.5644744444;180.2;;""
498;44656.5644745602;180.8;;""
499;44656.5644746759;181;;""
500;44656.5644747917;181.3;;""
501;44656.5644749074;181.6;;""
502;44656.5644750232;181.9;;""
503;44656.5644751389;182.2;;""
504;44656.5644752546;182.5;;""
505;44656.5644753704;182.8;;""
506;44656.5644754861;183.1;;""
507;44656.5644756019;183.4;;""
508;44656.5644757176;183.7;;""
509;44656.5644758333;183.7;;""
510;44656.5644759491;183.8;;""
511;44656.5644760648;183.2;;""
512;44656.5644761806;180.3;;""
513;44656.5644762963;170.7;;""
514;44656.564476412;147.3;;""
515;44656.5644765278;125.6;;""
516;44656.5644766435;122.7;;""
517;44656.5644767593;127.1;;""
518;44656.564476875;126.2;;""
519;44656.5644769907;123.4;;""
520;44656.5644771065;122.8;;""
521;44656.5644772222;122.8;;""
522;44656.564477338;122.3;;""
523;44656.5644774537;121.5;;""
524;44656.5644775694;121.2;;""
525;44656.5644776852;120.6;;""
526;44656.5644778009;120.1;;""
527;44656.5644779167;119.5;;""
528;44656.5644780324;119.2;;""
529;44656.5644781481;118.9;;""
530;44656.5644782639;118.4;;""
531;44656.5644783796;118.1;;""
532;44656.5644784954;117.8;;""
533;44656.5644786111;117.5;;""
534;44656.5644787269;116.9;;""
535;44656.5644788426;116.6;;""
536;44656.5644789583;116.3;;""
537;44656.5644790741;116;;""
538;44656.5644791898;115.5;;""
539;44656.5644793056;115.4;;""
540;44656.5644794213;115.2;;""
541;44656.564479537;114.9;;""
542;44656.5644796528;114.6;;""
543;44656.5644797685;114.3;;""
544;44656.5644798843;114;;""
545;44656.56448;113.7;;""
546;44656.5644801157;113.4;;""
547;44656.5644802315;113.1;;""
548;44656.5644803472;112.8;;""
549;44656.564480463;112.6;;""
550;44656.5644805787;112.3;;""
551;44656.5644806944;112;;""
552;44656.5644808102;112;;""
553;44656.5644809259;111.7;;""
554;44656.5644810417;111.4;;""
555;44656.5644811574;111.1;;""
556;44656.5644812731;111;;""
557;44656.5644813889;110.8;;""
558;44656.5644815046;110.4;;""
559;44656.5644816204;110.4;;""
560;44656.5644817361;110.1;;""
561;44656.5644818518;109.8;;""
562;44656.5644819676;109.5;;""
563;44656.5644820833;109.5;;""
564;44656.5644821991;109.2;;""
565;44656.5644823148;108.9;;""
566;44656.5644824306;108.9;;""
567;44656.5644825463;108.6;;""
568;44656.564482662;108.3;;""
569;44656.5644827778;108.3;;""
570;44656.5644828935;108;;""
571;44656.5644830093;108;;""
572;44656.564483125;107.7;;""
573;44656.5644832407;107.4;;""
574;44656.5644833565;107.4;;""
575;44656.5644834722;107.1;;""
576;44656.564483588;107.1;;""
577;44656.5644837037;106.8;;""
578;44656.5644838194;106.8;;""
579;44656.5644839352;106.5;;""
580;44656.5644840509;106.4;;""
581;44656.5644841667;106.2;;""
582;44656.5644842824;106.1;;""
583;44656.5644843982;105.8;;""
584;44656.5644845139;105.8;;""
585;44656.5644846296;105.5;;""
586;44656.5644847454;105.5;;""
587;44656.5644848611;105.2;;""
588;44656.5644849769;105.1;;""
589;44656.5644850926;104.8;;""
590;44656.5644852083;104.8;;""
591;44656.5644853241;104.8;;""
592;44656.5644854398;104.5;;""
593;44656.5644855556;104.4;;""
594;44656.5644856713;104.2;;""
595;44656.564485787;104.1;;""
596;44656.5644859028;103.8;;""
597;44656.5644860185;103.8;;""
598;44656.5644861343;103.5;;""
599;44656.56448625;103.5;;""
600;44656.5644863657;103.4;;""
601;44656.5644864815;103.1;;""
602;44656.5644865972;103.1;;""
603;44656.564486713;102.8;;""
604;44656.5644868287;102.8;;""
605;44656.5644869444;102.8;;""
606;44656.5644870602;102.5;;""
607;44656.5644871759;102.4;;""
608;44656.5644872917;102.2;;""
609;44656.5644874074;102.1;;""
610;44656.5644875231;101.8;;""
611;44656.5644876389;101.8;;""
612;44656.5644877546;101.5;;""
613;44656.5644878704;101.5;;""
614;44656.5644879861;101.5;;""
615;44656.5644881019;101.2;;""
616;44656.5644882176;101.2;;""
617;44656.5644883333;100.9;;""
618;44656.5644884491;100.9;;""
619;44656.5644885648;100.8;;""
620;44656.5644886806;100.5;;""
621;44656.5644887963;100.2;;""
622;44656.564488912;100.2;;""
623;44656.5644890278;99.9;;""
624;44656.5644891435;99.9;;""
625;44656.5644892593;99.6;;""
626;44656.564489375;99.3;;""
627;44656.5644894907;99;;""
628;44656.5644896065;98.4;;""
629;44656.5644897222;97.6;;""
630;44656.564489838;96.5;;""
631;44656.5644899537;94.1;;""
632;44656.5644900694;89.7;;""
633;44656.5644901852;85.4;;""
634;44656.5644903009;79.1;;""
635;44656.5644904167;85.7;;""
636;44656.5644905324;114.5;;""
637;44656.5644906481;116.2;;""
638;44656.5644907639;111.3;;""
639;44656.5644908796;109;;""
640;44656.5644909954;109.9;;""
641;44656.5644911111;111.5;;""
642;44656.5644912269;112.3;;""
643;44656.5644913426;112.3;;""
644;44656.5644914583;113.2;;""
645;44656.5644915741;114.3;;""
646;44656.5644916898;115.1;;""
647;44656.5644918056;115.9;;""
648;44656.5644919213;116.2;;""
649;44656.564492037;117;;""
650;44656.5644921528;117.9;;""
651;44656.5644922685;118.5;;""
652;44656.5644923843;119;;""
653;44656.5644925;119.6;;""
654;44656.5644926157;120.1;;""
655;44656.5644927315;120.6;;""
656;44656.5644928472;121.2;;""
657;44656.564492963;121.7;;""
658;44656.5644930787;122.6;;""
659;44656.5644931944;123.1;;""
660;44656.5644933102;123.6;;""
661;44656.5644934259;123.9;;""
662;44656.5644935417;124.2;;""
663;44656.5644936574;124.8;;""
664;44656.5644937731;125.4;;""
665;44656.5644938889;126;;""
666;44656.5644940046;126.5;;""
667;44656.5644941204;127.1;;""
668;44656.5644942361;127.4;;""
669;44656.5644943518;128;;""
670;44656.5644944676;128.3;;""
671;44656.5644945833;128.9;;""
672;44656.5644946991;129.4;;""
673;44656.5644948148;129.8;;""
674;44656.5644949306;130.3;;""
675;44656.5644950463;130.9;;""
676;44656.564495162;131.3;;""
677;44656.5644952778;131.8;;""
678;44656.5644953935;132.1;;""
679;44656.5644955093;132.6;;""
680;44656.564495625;133.2;;""
681;44656.5644957407;133.5;;""
682;44656.5644958565;134;;""
683;44656.5644959722;134.6;;""
684;44656.564496088;134.8;;""
685;44656.5644962037;135.4;;""
686;44656.5644963194;135.9;;""
687;44656.5644964352;136.2;;""
688;44656.5644965509;136.7;;""
689;44656.5644966667;137.1;;""
690;44656.5644967824;137.6;;""
691;44656.5644968982;137.9;;""
692;44656.5644970139;138.5;;""
693;44656.5644971296;138.8;;""
694;44656.5644972454;139.4;;""
695;44656.5644973611;140;;""
696;44656.5644974769;140.2;;""
697;44656.5644975926;140.8;;""
698;44656.5644977083;141.1;;""
699;44656.5644978241;141.6;;""
700;44656.5644979398;141.9;;""
701;44656.5644980556;142.5;;""
702;44656.5644981713;142.8;;""
703;44656.564498287;143.3;;""
704;44656.5644984028;143.7;;""
705;44656.5644985185;144.3;;""
706;44656.5644986343;144.5;;""
707;44656.56449875;145.1;;""
708;44656.5644988657;145.4;;""
709;44656.5644989815;145.9;;""
710;44656.5644990972;146.2;;""
711;44656.564499213;146.7;;""
712;44656.5644993287;147;;""
713;44656.5644994444;147.6;;""
714;44656.5644995602;147.9;;""
715;44656.5644996759;148.4;;""
716;44656.5644997917;148.7;;""
717;44656.5644999074;149;;""
718;44656.5645000231;149.6;;""
719;44656.5645001389;149.9;;""
720;44656.5645002546;150.2;;""
721;44656.5645003704;150.7;;""
722;44656.5645004861;151;;""
723;44656.5645006019;151.6;;""
724;44656.5645007176;151.9;;""
725;44656.5645008333;152.2;;""
726;44656.5645009491;152.8;;""
727;44656.5645010648;153.1;;""
728;44656.5645011806;153.4;;""
729;44656.5645012963;153.9;;""
730;44656.564501412;154.2;;""
731;44656.5645015278;154.8;;""
732;44656.5645016435;155.1;;""
733;44656.5645017593;155.4;;""
734;44656.564501875;155.9;;""
735;44656.5645019907;156.2;;""
736;44656.5645021065;156.5;;""
737;44656.5645022222;157.1;;""
738;44656.564502338;157.4;;""
739;44656.5645024537;157.7;;""
740;44656.5645025694;158.3;;""
741;44656.5645026852;158.6;;""
742;44656.5645028009;158.9;;""
743;44656.5645029167;159.2;;""
744;44656.5645030324;159.8;;""
745;44656.5645031481;160.1;;""
746;44656.5645032639;160.4;;""
747;44656.5645033796;160.9;;""
748;44656.5645034954;161.2;;""
749;44656.5645036111;161.5;;""
750;44656.5645037269;162;;""
751;44656.5645038426;162.3;;""
752;44656.5645039583;162.6;;""
753;44656.5645040741;163.1;;""
754;44656.5645041898;163.4;;""
755;44656.5645043056;163.7;;""
756;44656.5645044213;164.3;;""
757;44656.564504537;164.6;;""
758;44656.5645046528;164.9;;""
759;44656.5645047685;165.2;;""
760;44656.5645048843;165.7;;""
761;44656.564505;166.1;;""
762;44656.5645051157;166.3;;""
763;44656.5645052315;166.6;;""
764;44656.5645053472;167.2;;""
765;44656.564505463;167.5;;""
766;44656.5645055787;167.8;;""
767;44656.5645056944;168.3;;""
768;44656.5645058102;168.6;;""
769;44656.5645059259;168.9;;""
770;44656.5645060417;169.2;;""
771;44656.5645061574;169.7;;""
772;44656.5645062731;170;;""
773;44656.5645063889;170.3;;""
774;44656.5645065046;170.8;;""
775;44656.5645066204;171.1;;""
776;44656.5645067361;171.4;;""
777;44656.5645068519;171.7;;""
778;44656.5645069676;172.3;;""
779;44656.5645070833;172.5;;""
780;44656.5645071991;172.8;;""
781;44656.5645073148;173.1;;""
782;44656.5645074306;173.4;;""
783;44656.5645075463;173.7;;""
784;44656.564507662;174.3;;""
785;44656.5645077778;174.6;;""
786;44656.5645078935;174.9;;""
787;44656.5645080093;175.2;;""
788;44656.564508125;175.8;;""
789;44656.5645082407;176.1;;""
790;44656.5645083565;176.4;;""
791;44656.5645084722;176.6;;""
792;44656.564508588;177.2;;""
793;44656.5645087037;177.5;;""
794;44656.5645088194;177.8;;""
795;44656.5645089352;178.1;;""
796;44656.5645090509;178.4;;""
797;44656.5645091667;178.7;;""
798;44656.5645092824;179;;""
799;44656.5645093982;179.6;;""
800;44656.5645095139;179.9;;""
801;44656.5645096296;180.2;;""
802;44656.5645097454;180.5;;""
803;44656.5645098611;180.8;;""
804;44656.5645099769;181.1;;""
805;44656.5645100926;181.4;;""
806;44656.5645102083;181.7;;""
807;44656.5645103241;182.3;;""
808;44656.5645104398;182.5;;""
809;44656.5645105556;182.6;;""
810;44656.5645106713;182.9;;""
811;44656.564510787;182.9;;""
812;44656.5645109028;183;;""
813;44656.5645110185;181.8;;""
814;44656.5645111343;178.6;;""
815;44656.56451125;166.8;;""
816;44656.5645113657;142.8;;""
817;44656.5645114815;124.6;;""
818;44656.5645115972;124.2;;""
819;44656.564511713;127.6;;""
820;44656.5645118287;126;;""
821;44656.5645119444;123.5;;""
822;44656.5645120602;123.1;;""
823;44656.5645121759;123.1;;""
824;44656.5645122917;122.4;;""
825;44656.5645124074;121.8;;""
826;44656.5645125231;121.4;;""
827;44656.5645126389;120.9;;""
828;44656.5645127546;120.3;;""
829;44656.5645128704;119.7;;""
830;44656.5645129861;119.4;;""
831;44656.5645131019;118.9;;""
832;44656.5645132176;118.6;;""
833;44656.5645133333;118.3;;""
834;44656.5645134491;118;;""
835;44656.5645135648;117.4;;""
836;44656.5645136806;117.2;;""
837;44656.5645137963;116.8;;""
838;44656.564513912;116.3;;""
839;44656.5645140278;116;;""
840;44656.5645141435;115.7;;""
841;44656.5645142593;115.4;;""
842;44656.564514375;115.1;;""
843;44656.5645144907;114.9;;""
844;44656.5645146065;114.5;;""
845;44656.5645147222;114.2;;""
846;44656.564514838;113.9;;""
847;44656.5645149537;113.7;;""
848;44656.5645150694;113.4;;""
849;44656.5645151852;113.1;;""
850;44656.5645153009;112.8;;""
851;44656.5645154167;112.5;;""
852;44656.5645155324;112.5;;""
853;44656.5645156481;112.2;;""
854;44656.5645157639;111.9;;""
855;44656.5645158796;111.6;;""
856;44656.5645159954;111.3;;""
857;44656.5645161111;111.1;;""
858;44656.5645162268;111;;""
859;44656.5645163426;110.7;;""
860;44656.5645164583;110.4;;""
861;44656.5645165741;110.4;;""
862;44656.5645166898;110.1;;""
863;44656.5645168056;110;;""
864;44656.5645169213;109.8;;""
865;44656.564517037;109.5;;""
866;44656.5645171528;109.2;;""
867;44656.5645172685;109.2;;""
868;44656.5645173843;108.9;;""
869;44656.5645175;108.6;;""
870;44656.5645176157;108.6;;""
871;44656.5645177315;108.3;;""
872;44656.5645178472;108.2;;""
873;44656.564517963;107.9;;""
874;44656.5645180787;107.6;;""
875;44656.5645181944;107.6;;""
876;44656.5645183102;107.3;;""
877;44656.5645184259;107.3;;""
878;44656.5645185417;107;;""
879;44656.5645186574;107;;""
880;44656.5645187732;106.7;;""
881;44656.5645188889;106.3;;""
882;44656.5645190046;106.3;;""
883;44656.5645191204;106;;""
884;44656.5645192361;106;;""
885;44656.5645193519;106;;""
886;44656.5645194676;105.7;;""
887;44656.5645195833;105.4;;""
888;44656.5645196991;105.4;;""
889;44656.5645198148;105.3;;""
890;44656.5645199306;105.1;;""
891;44656.5645200463;104.8;;""
892;44656.564520162;104.8;;""
893;44656.5645202778;104.5;;""
894;44656.5645203935;104.5;;""
895;44656.5645205093;104.4;;""
896;44656.564520625;104.1;;""
897;44656.5645207407;104.1;;""
898;44656.5645208565;103.8;;""
899;44656.5645209722;103.8;;""
900;44656.564521088;103.5;;""
901;44656.5645212037;103.5;;""
902;44656.5645213194;103.2;;""
903;44656.5645214352;103.2;;""
904;44656.5645215509;102.9;;""
905;44656.5645216667;102.9;;""
906;44656.5645217824;102.8;;""
907;44656.5645218982;102.5;;""
908;44656.5645220139;102.5;;""
909;44656.5645221296;102.2;;""
910;44656.5645222454;102.2;;""
911;44656.5645223611;102.1;;""
912;44656.5645224769;101.9;;""
913;44656.5645225926;101.8;;""
914;44656.5645227083;101.5;;""
915;44656.5645228241;101.5;;""
916;44656.5645229398;101.4;;""
917;44656.5645230556;101.1;;""
918;44656.5645231713;101.1;;""
919;44656.564523287;100.8;;""
920;44656.5645234028;100.8;;""
921;44656.5645235185;100.5;;""
922;44656.5645236343;100.5;;""
923;44656.56452375;100.2;;""
924;44656.5645238657;100.1;;""
925;44656.5645239815;99.9;;""
926;44656.5645240972;99.6;;""
927;44656.564524213;99.5;;""
928;44656.5645243287;99;;""
929;44656.5645244444;98.7;;""
930;44656.5645245602;98.4;;""
931;44656.5645246759;97.6;;""
932;44656.5645247917;96.3;;""
933;44656.5645249074;93.7;;""
934;44656.5645250231;89.5;;""
935;44656.5645251389;85.2;;""
936;44656.5645252546;84.1;;""
937;44656.5645253704;97.6;;""
938;44656.5645254861;114.2;;""
939;44656.5645256019;122.4;;""
940;44656.5645257176;122.4;;""
941;44656.5645258333;121.4;;""
942;44656.5645259491;122;;""
943;44656.5645260648;123.7;;""
944;44656.5645261806;124.5;;""
945;44656.5645262963;124.8;;""
946;44656.564526412;125.4;;""
947;44656.5645265278;126.2;;""
948;44656.5645266435;127;;""
949;44656.5645267593;127.6;;""
950;44656.564526875;128.1;;""
951;44656.5645269907;129;;""
952;44656.5645271065;129.5;;""
953;44656.5645272222;130.1;;""
954;44656.564527338;130.7;;""
955;44656.5645274537;131;;""
956;44656.5645275694;131.5;;""
957;44656.5645276852;132.1;;""
958;44656.5645278009;132.7;;""
959;44656.5645279167;133.3;;""
960;44656.5645280324;133.8;;""
961;44656.5645281481;134.3;;""
962;44656.5645282639;134.6;;""
963;44656.5645283796;135.2;;""
964;44656.5645284954;135.8;;""
965;44656.5645286111;136.1;;""
966;44656.5645287268;136.6;;""
967;44656.5645288426;136.9;;""
968;44656.5645289583;137.7;;""
969;44656.5645290741;138;;""
970;44656.5645291898;138.6;;""
971;44656.5645293056;138.9;;""
972;44656.5645294213;139.4;;""
973;44656.564529537;139.9;;""
974;44656.5645296528;140.5;;""
975;44656.5645297685;140.8;;""
976;44656.5645298843;141.4;;""
977;44656.56453;141.7;;""
978;44656.5645301157;142.2;;""
979;44656.5645302315;142.5;;""
980;44656.5645303472;143.1;;""
981;44656.564530463;143.6;;""
982;44656.5645305787;143.9;;""
983;44656.5645306944;144.5;;""
984;44656.5645308102;144.8;;""
985;44656.5645309259;145.3;;""
986;44656.5645310417;145.9;;""
987;44656.5645311574;146.2;;""
988;44656.5645312732;146.5;;""
989;44656.5645313889;147;;""
990;44656.5645315046;147.6;;""
991;44656.5645316204;146.8;;""
992;44656.5645317361;147.3;;""
993;44656.5645318519;148.7;;""
994;44656.5645319676;149.9;;""
995;44656.5645320833;150.1;;""
996;44656.5645321991;150.1;;""
997;44656.5645323148;150.1;;""
998;44656.5645324306;150.7;;""
999;44656.5645325463;151;;""
1000;44656.564532662;151.3;;""
1001;44656.5645327778;151.8;;""
1002;44656.5645328935;152.4;;""
1003;44656.5645330093;152.9;;""
1004;44656.564533125;153.2;;""
1005;44656.5645332407;153.5;;""
1006;44656.5645333565;153.8;;""
1007;44656.5645334722;154.4;;""
1008;44656.564533588;155;;""
1009;44656.5645337037;155.3;;""
1010;44656.5645338194;155.6;;""
1011;44656.5645339352;155.8;;""
1012;44656.5645340509;156.2;;""
1013;44656.5645341667;156.7;;""
1014;44656.5645342824;157;;""
1015;44656.5645343981;157.6;;""
1016;44656.5645345139;157.9;;""
1017;44656.5645346296;158.4;;""
1018;44656.5645347454;158.7;;""
1019;44656.5645348611;159;;""
1020;44656.5645349769;159.5;;""
1021;44656.5645350926;159.8;;""
1022;44656.5645352083;160.1;;""
1023;44656.5645353241;160.7;;""
1024;44656.5645354398;161;;""
1025;44656.5645355556;161.3;;""
1026;44656.5645356713;161.8;;""
1027;44656.564535787;162.1;;""
1028;44656.5645359028;162.5;;""
1029;44656.5645360185;163;;""
1030;44656.5645361343;163.3;;""
1031;44656.56453625;163.6;;""
1032;44656.5645363657;163.9;;""
1033;44656.5645364815;164.2;;""
1034;44656.5645365972;164.8;;""
1035;44656.564536713;165;;""
1036;44656.5645368287;165.3;;""
1037;44656.5645369444;165.9;;""
1038;44656.5645370602;166.2;;""
1039;44656.5645371759;166.5;;""
1040;44656.5645372917;166.8;;""
1041;44656.5645374074;167.3;;""
1042;44656.5645375231;167.6;;""
1043;44656.5645376389;167.9;;""
1044;44656.5645377546;168.2;;""
1045;44656.5645378704;168.6;;""
1046;44656.5645379861;169.2;;""
1047;44656.5645381019;169.2;;""
1048;44656.5645382176;169.8;;""
1049;44656.5645383333;170.1;;""
1050;44656.5645384491;170.5;;""
1051;44656.5645385648;170.7;;""
1052;44656.5645386806;171.3;;""
1053;44656.5645387963;171.5;;""
1054;44656.564538912;171.9;;""
1055;44656.5645390278;172.1;;""
1056;44656.5645391435;172.4;;""
1057;44656.5645392593;173;;""
1058;44656.564539375;173.3;;""
1059;44656.5645394907;173.6;;""
1060;44656.5645396065;174.1;;""
1061;44656.5645397222;174.4;;""
1062;44656.564539838;174.6;;""
1063;44656.5645399537;174.9;;""
1064;44656.5645400694;175.2;;""
1065;44656.5645401852;175.8;;""
1066;44656.5645403009;176.1;;""
1067;44656.5645404167;176.3;;""
1068;44656.5645405324;176.7;;""
1069;44656.5645406481;177.2;;""
1070;44656.5645407639;177.5;;""
1071;44656.5645408796;177.8;;""
1072;44656.5645409954;178.1;;""
1073;44656.5645411111;178.4;;""
1074;44656.5645412269;178.7;;""
1075;44656.5645413426;179;;""
1076;44656.5645414583;179.6;;""
1077;44656.5645415741;179.8;;""
1078;44656.5645416898;180.1;;""
1079;44656.5645418056;180.4;;""
1080;44656.5645419213;180.7;;""
1081;44656.564542037;181;;""
1082;44656.5645421528;181.6;;""
1083;44656.5645422685;181.9;;""
1084;44656.5645423843;181.9;;""
1085;44656.5645425;182.5;;""
1086;44656.5645426157;182.8;;""
1087;44656.5645427315;183;;""
1088;44656.5645428472;183.3;;""
1089;44656.564542963;183.4;;""
1090;44656.5645430787;183.4;;""
1091;44656.5645431944;182.8;;""
1092;44656.5645433102;180.7;;""
1093;44656.5645434259;173;;""
1094;44656.5645435417;152.5;;""
1095;44656.5645436574;128.7;;""
1096;44656.5645437732;122.5;;""
1097;44656.5645438889;126.6;;""
1098;44656.5645440046;126.9;;""
1099;44656.5645441204;123.8;;""
1100;44656.5645442361;122.9;;""
1101;44656.5645443519;123;;""
1102;44656.5645444676;122.7;;""
1103;44656.5645445833;121.8;;""
1104;44656.5645446991;121.6;;""
1105;44656.5645448148;121;;""
1106;44656.5645449306;120.4;;""
1107;44656.5645450463;119.9;;""
1108;44656.564545162;119.3;;""
1109;44656.5645452778;119;;""
1110;44656.5645453935;118.7;;""
1111;44656.5645455093;118.4;;""
1112;44656.564545625;117.9;;""
1113;44656.5645457407;117.6;;""
1114;44656.5645458565;117;;""
1115;44656.5645459722;116.8;;""
1116;44656.564546088;116.5;;""
1117;44656.5645462037;116.2;;""
1118;44656.5645463194;115.9;;""
1119;44656.5645464352;115.4;;""
1120;44656.5645465509;115.1;;""
1121;44656.5645466667;115.1;;""
1122;44656.5645467824;114.8;;""
1123;44656.5645468981;114.4;;""
1124;44656.5645470139;114.2;;""
1125;44656.5645471296;113.9;;""
1126;44656.5645472454;113.6;;""
1127;44656.5645473611;113.3;;""
1128;44656.5645474769;113;;""
1129;44656.5645475926;112.7;;""
1130;44656.5645477083;112.5;;""
1131;44656.5645478241;112.1;;""
1132;44656.5645479398;112.1;;""
1133;44656.5645480556;111.8;;""
1134;44656.5645481713;111.5;;""
1135;44656.564548287;111.2;;""
1136;44656.5645484028;110.9;;""
1137;44656.5645485185;110.9;;""
1138;44656.5645486343;110.6;;""
1139;44656.56454875;110.4;;""
1140;44656.5645488657;110.3;;""
1141;44656.5645489815;110.1;;""
1142;44656.5645490972;109.7;;""
1143;44656.564549213;109.7;;""
1144;44656.5645493287;109.4;;""
1145;44656.5645494444;109.1;;""
1146;44656.5645495602;108.9;;""
1147;44656.5645496759;108.9;;""
1148;44656.5645497917;108.6;;""
1149;44656.5645499074;108.5;;""
1150;44656.5645500231;108.3;;""
1151;44656.5645501389;108;;""
1152;44656.5645502546;107.9;;""
1153;44656.5645503704;107.7;;""
1154;44656.5645504861;107.6;;""
1155;44656.5645506019;107.3;;""
1156;44656.5645507176;107.3;;""
1157;44656.5645508333;107;;""
1158;44656.5645509491;106.9;;""
1159;44656.5645510648;106.6;;""
1160;44656.5645511806;106.6;;""
1161;44656.5645512963;106.3;;""
1162;44656.564551412;106.2;;""
1163;44656.5645515278;105.9;;""
1164;44656.5645516435;105.9;;""
1165;44656.5645517593;105.6;;""
1166;44656.564551875;105.6;;""
1167;44656.5645519907;105.3;;""
1168;44656.5645521065;105.3;;""
1169;44656.5645522222;105;;""
1170;44656.564552338;104.9;;""
1171;44656.5645524537;104.6;;""
1172;44656.5645525694;104.6;;""
1173;44656.5645526852;104.6;;""
1174;44656.5645528009;104.3;;""
1175;44656.5645529167;104.2;;""
1176;44656.5645530324;103.9;;""
1177;44656.5645531482;103.9;;""
1178;44656.5645532639;103.9;;""
1179;44656.5645533796;103.6;;""
1180;44656.5645534954;103.6;;""
1181;44656.5645536111;103.3;;""
1182;44656.5645537269;103.2;;""
1183;44656.5645538426;103;;""
1184;44656.5645539583;102.9;;""
1185;44656.5645540741;102.6;;""
1186;44656.5645541898;102.6;;""
1187;44656.5645543056;102.6;;""
1188;44656.5645544213;102.3;;""
1189;44656.564554537;102.3;;""
1190;44656.5645546528;102.2;;""
1191;44656.5645547685;101.9;;""
1192;44656.5645548843;101.9;;""
1193;44656.564555;101.6;;""
1194;44656.5645551157;101.6;;""
1195;44656.5645552315;101.5;;""
1196;44656.5645553472;101.3;;""
1197;44656.564555463;101.2;;""
1198;44656.5645555787;100.9;;""
1199;44656.5645556944;100.9;;""
1200;44656.5645558102;100.8;;""
1201;44656.5645559259;100.5;;""
1202;44656.5645560417;100.5;;""
1203;44656.5645561574;100.2;;""
1204;44656.5645562732;99.9;;""
1205;44656.5645563889;99.9;;""
1206;44656.5645565046;99.6;;""
1207;44656.5645566204;99.3;;""
1208;44656.5645567361;99;;""
1209;44656.5645568519;98.7;;""
1210;44656.5645569676;98.2;;""
1211;44656.5645570833;97.3;;""
1212;44656.5645571991;95.5;;""
1213;44656.5645573148;92.6;;""
1214;44656.5645574306;87.7;;""
1215;44656.5645575463;84.5;;""
1216;44656.564557662;83.8;;""
1217;44656.5645577778;103.2;;""
1218;44656.5645578935;121.4;;""
1219;44656.5645580093;125.1;;""
1220;44656.564558125;122.8;;""
1221;44656.5645582407;121.8;;""
1222;44656.5645583565;122.9;;""
1223;44656.5645584722;124.5;;""
1224;44656.564558588;125.1;;""
1225;44656.5645587037;125.4;;""
1226;44656.5645588194;126;;""
1227;44656.5645589352;126.9;;""
1228;44656.5645590509;127.5;;""
1229;44656.5645591667;128.3;;""
1230;44656.5645592824;128.9;;""
1231;44656.5645593981;129.4;;""
1232;44656.5645595139;130;;""
1233;44656.5645596296;130.5;;""
1234;44656.5645597454;131.1;;""
1235;44656.5645598611;131.4;;""
1236;44656.5645599769;132;;""
1237;44656.5645600926;132.6;;""
1238;44656.5645602083;133.2;;""
1239;44656.5645603241;133.7;;""
1240;44656.5645604398;134.3;;""
1241;44656.5645605556;134.6;;""
1242;44656.5645606713;135.1;;""
1243;44656.564560787;135.4;;""
1244;44656.5645609028;136;;""
1245;44656.5645610185;136.6;;""
1246;44656.5645611343;137.1;;""
1247;44656.56456125;137.7;;""
1248;44656.5645613657;138;;""
1249;44656.5645614815;138.5;;""
1250;44656.5645615972;138.8;;""
1251;44656.564561713;139.4;;""
1252;44656.5645618287;139.9;;""
1253;44656.5645619444;140.2;;""
1254;44656.5645620602;140.8;;""
1255;44656.5645621759;141.3;;""
1256;44656.5645622917;141.6;;""
1257;44656.5645624074;142.1;;""
1258;44656.5645625231;142.4;;""
1259;44656.5645626389;143;;""
1260;44656.5645627546;143.3;;""
1261;44656.5645628704;143.6;;""
1262;44656.5645629861;144.2;;""
1263;44656.5645631018;144.7;;""
1264;44656.5645632176;145;;""
1265;44656.5645633333;145.6;;""
1266;44656.5645634491;145.8;;""
1267;44656.5645635648;146.4;;""
1268;44656.5645636806;146.7;;""
1269;44656.5645637963;147;;""
1270;44656.564563912;147.6;;""
1271;44656.5645640278;147.9;;""
1272;44656.5645641435;148.4;;""
1273;44656.5645642593;148.7;;""
1274;44656.564564375;149.3;;""
1275;44656.5645644907;149.6;;""
1276;44656.5645646065;149.9;;""
1277;44656.5645647222;150.4;;""
1278;44656.564564838;150.7;;""
1279;44656.5645649537;151;;""
1280;44656.5645650694;151.6;;""
1281;44656.5645651852;151.8;;""
1282;44656.5645653009;152.4;;""
1283;44656.5645654167;152.7;;""
1284;44656.5645655324;153;;""
1285;44656.5645656482;153.6;;""
1286;44656.5645657639;153.9;;""
1287;44656.5645658796;154.1;;""
1288;44656.5645659954;154.4;;""
1289;44656.5645661111;155;;""
1290;44656.5645662269;155.5;;""
1291;44656.5645663426;155.8;;""
1292;44656.5645664583;156.1;;""
1293;44656.5645665741;156.6;;""
1294;44656.5645666898;156.9;;""
1295;44656.5645668056;157.2;;""
1296;44656.5645669213;157.8;;""
1297;44656.564567037;158.1;;""
1298;44656.5645671528;158.4;;""
1299;44656.5645672685;158.9;;""
1300;44656.5645673843;159.2;;""
1301;44656.5645675;159.5;;""
1302;44656.5645676157;160;;""
1303;44656.5645677315;160.3;;""
1304;44656.5645678472;160.8;;""
1305;44656.564567963;161.1;;""
1306;44656.5645680787;161.4;;""
1307;44656.5645681944;162;;""
1308;44656.5645683102;162.2;;""
1309;44656.5645684259;162.5;;""
1310;44656.5645685417;163;;""
1311;44656.5645686574;163.3;;""
1312;44656.5645687731;163.9;;""
1313;44656.5645688889;163.9;;""
1314;44656.5645690046;164.5;;""
1315;44656.5645691204;164.8;;""
1316;44656.5645692361;165.3;;""
1317;44656.5645693519;165.6;;""
1318;44656.5645694676;165.9;;""
1319;44656.5645695833;166.4;;""
1320;44656.5645696991;166.7;;""
1321;44656.5645698148;167;;""
1322;44656.5645699306;167.6;;""
1323;44656.5645700463;167.8;;""
1324;44656.564570162;168.1;;""
1325;44656.5645702778;168.7;;""
1326;44656.5645703935;168.9;;""
1327;44656.5645705093;169.2;;""
1328;44656.564570625;169.5;;""
1329;44656.5645707407;170.1;;""
1330;44656.5645708565;170.4;;""
1331;44656.5645709722;170.7;;""
1332;44656.564571088;170.9;;""
1333;44656.5645712037;171.5;;""
1334;44656.5645713194;171.8;;""
1335;44656.5645714352;172.1;;""
1336;44656.5645715509;172.4;;""
1337;44656.5645716667;172.7;;""
1338;44656.5645717824;173.3;;""
1339;44656.5645718981;173.6;;""
1340;44656.5645720139;173.9;;""
1341;44656.5645721296;174.1;;""
1342;44656.5645722454;174.7;;""
1343;44656.5645723611;175;;""
1344;44656.5645724769;175.2;;""
1345;44656.5645725926;175.5;;""
1346;44656.5645727083;176.1;;""
1347;44656.5645728241;176.3;;""
1348;44656.5645729398;176.6;;""
1349;44656.5645730556;176.9;;""
1350;44656.5645731713;177.5;;""
1351;44656.564573287;177.8;;""
1352;44656.5645734028;178.1;;""
1353;44656.5645735185;178.4;;""
1354;44656.5645736343;178.6;;""
1355;44656.56457375;178.9;;""
1356;44656.5645738657;179.5;;""
1357;44656.5645739815;179.8;;""
1358;44656.5645740972;180.1;;""
1359;44656.564574213;180.4;;""
1360;44656.5645743287;180.7;;""
1361;44656.5645744444;181;;""
1362;44656.5645745602;181.3;;""
1363;44656.5645746759;181.6;;""
1364;44656.5645747917;181.9;;""
1365;44656.5645749074;182.2;;""
1366;44656.5645750231;182.5;;""
1367;44656.5645751389;182.8;;""
1368;44656.5645752546;184.1;;""
1369;44656.5645753704;184.1;;""
1370;44656.5645754861;185.6;;""
1371;44656.5645756018;184.9;;""
1372;44656.5645757176;183.5;;""
1373;44656.5645758333;181.2;;""
1374;44656.5645759491;175.2;;""
1375;44656.5645760648;156.1;;""
1376;44656.5645761806;130.3;;""
1377;44656.5645762963;121.6;;""
1378;44656.564576412;126.3;;""
1379;44656.5645765278;127.5;;""
1380;44656.5645766435;124.1;;""
1381;44656.5645767593;122.9;;""
1382;44656.564576875;122.8;;""
1383;44656.5645769907;122.8;;""
1384;44656.5645771065;122;;""
1385;44656.5645772222;121.4;;""
1386;44656.564577338;120.9;;""
1387;44656.5645774537;120.3;;""
1388;44656.5645775694;119.7;;""
1389;44656.5645776852;118.9;;""
1390;44656.5645778009;118.9;;""
1391;44656.5645779167;118.6;;""
1392;44656.5645780324;118.6;;""
1393;44656.5645781482;118;;""
1394;44656.5645782639;117.7;;""
1395;44656.5645783796;117.2;;""
1396;44656.5645784954;116.6;;""
1397;44656.5645786111;116.4;;""
1398;44656.5645787269;116.1;;""
1399;44656.5645788426;115.5;;""
1400;44656.5645789583;115.5;;""
1401;44656.5645790741;115.2;;""
1402;44656.5645791898;114.9;;""
1403;44656.5645793056;114.7;;""
1404;44656.5645794213;114.4;;""
1405;44656.564579537;114.1;;""
1406;44656.5645796528;113.8;;""
1407;44656.5645797685;113.5;;""
1408;44656.5645798843;113.2;;""
1409;44656.56458;112.9;;""
1410;44656.5645801157;112.8;;""
1411;44656.5645802315;112.5;;""
1412;44656.5645803472;112.3;;""
1413;44656.564580463;112;;""
1414;44656.5645805787;111.7;;""
1415;44656.5645806944;111.4;;""
1416;44656.5645808102;111.4;;""
1417;44656.5645809259;111.1;;""
1418;44656.5645810417;110.8;;""
1419;44656.5645811574;110.5;;""
1420;44656.5645812731;110.4;;""
1421;44656.5645813889;110.2;;""
1422;44656.5645815046;109.9;;""
1423;44656.5645816204;109.6;;""
1424;44656.5645817361;109.6;;""
1425;44656.5645818519;109.3;;""
1426;44656.5645819676;109;;""
1427;44656.5645820833;109;;""
1428;44656.5645821991;108.7;;""
1429;44656.5645823148;108.7;;""
1430;44656.5645824306;108.4;;""
1431;44656.5645825463;108.1;;""
1432;44656.564582662;108.1;;""
1433;44656.5645827778;107.8;;""
1434;44656.5645828935;107.5;;""
1435;44656.5645830093;107.5;;""
1436;44656.564583125;107.2;;""
1437;44656.5645832407;107.2;;""
1438;44656.5645833565;106.9;;""
1439;44656.5645834722;106.6;;""
1440;44656.564583588;106.6;;""
1441;44656.5645837037;106.3;;""
1442;44656.5645838194;106.3;;""
1443;44656.5645839352;106;;""
1444;44656.5645840509;106;;""
1445;44656.5645841667;105.7;;""
1446;44656.5645842824;105.6;;""
1447;44656.5645843981;105.4;;""
1448;44656.5645845139;105.3;;""
1449;44656.5645846296;105;;""
1450;44656.5645847454;105;;""
1451;44656.5645848611;104.7;;""
1452;44656.5645849769;104.7;;""
1453;44656.5645850926;104.4;;""
1454;44656.5645852083;104.4;;""
1455;44656.5645853241;104.3;;""
1456;44656.5645854398;104;;""
1457;44656.5645855556;104;;""
1458;44656.5645856713;103.7;;""
1459;44656.564585787;103.6;;""
1460;44656.5645859028;103.4;;""
1461;44656.5645860185;103.3;;""
1462;44656.5645861343;103;;""
1463;44656.56458625;103;;""
1464;44656.5645863657;102.7;;""
1465;44656.5645864815;102.7;;""
1466;44656.5645865972;102.7;;""
1467;44656.564586713;102.3;;""
1468;44656.5645868287;102.3;;""
1469;44656.5645869444;102;;""
1470;44656.5645870602;102;;""
1471;44656.5645871759;102;;""
1472;44656.5645872917;101.7;;""
1473;44656.5645874074;101.7;;""
1474;44656.5645875231;101.6;;""
1475;44656.5645876389;101.3;;""
1476;44656.5645877546;101.3;;""
1477;44656.5645878704;101;;""
1478;44656.5645879861;101;;""
1479;44656.5645881019;100.7;;""
1480;44656.5645882176;100.4;;""
1481;44656.5645883333;100.4;;""
1482;44656.5645884491;100.1;;""
1483;44656.5645885648;100.1;;""
1484;44656.5645886806;100;;""
1485;44656.5645887963;99.7;;""
1486;44656.564588912;99.4;;""
1487;44656.5645890278;99.2;;""
1488;44656.5645891435;98.9;;""
1489;44656.5645892593;98.1;;""
1490;44656.564589375;97.5;;""
1491;44656.5645894907;95.9;;""
1492;44656.5645896065;92.9;;""
1493;44656.5645897222;88.3;;""
1494;44656.564589838;84.9;;""
1495;44656.5645899537;84;;""
1496;44656.5645900694;103.4;;""
1497;44656.5645901852;120.9;;""
1498;44656.5645903009;125;;""
1499;44656.5645904167;123.1;;""
1500;44656.5645905324;121.8;;""
1501;44656.5645906482;122.7;;""
1502;44656.5645907639;124.5;;""
1503;44656.5645908796;125.2;;""
1504;44656.5645909954;125.5;;""
1505;44656.5645911111;126.1;;""
1506;44656.5645912269;127;;""
1507;44656.5645913426;127.5;;""
1508;44656.5645914583;128.4;;""
1509;44656.5645915741;129;;""
1510;44656.5645916898;129.5;;""
1511;44656.5645918056;130.2;;""
1512;44656.5645919213;130.7;;""
1513;44656.564592037;131;;""
1514;44656.5645921528;131.5;;""
1515;44656.5645922685;132.2;;""
1516;44656.5645923843;132.7;;""
1517;44656.5645925;133.3;;""
1518;44656.5645926157;133.8;;""
1519;44656.5645927315;134.4;;""
1520;44656.5645928472;134.7;;""
1521;44656.564592963;135.3;;""
1522;44656.5645930787;135.6;;""
1523;44656.5645931944;136.1;;""
1524;44656.5645933102;136.7;;""
1525;44656.5645934259;137;;""
1526;44656.5645935417;137.5;;""
1527;44656.5645936574;138.1;;""
1528;44656.5645937731;138.6;;""
1529;44656.5645938889;139.2;;""
1530;44656.5645940046;139.5;;""
1531;44656.5645941204;140.1;;""
1532;44656.5645942361;140.4;;""
1533;44656.5645943519;140.9;;""
1534;44656.5645944676;141.4;;""
1535;44656.5645945833;141.7;;""
1536;44656.5645946991;142.3;;""
1537;44656.5645948148;142.8;;""
1538;44656.5645949306;143.1;;""
1539;44656.5645950463;143.7;;""
1540;44656.564595162;143.9;;""
1541;44656.5645952778;144.5;;""
1542;44656.5645953935;144.8;;""
1543;44656.5645955093;145.3;;""
1544;44656.564595625;145.8;;""
1545;44656.5645957407;146.1;;""
1546;44656.5645958565;146.6;;""
1547;44656.5645959722;146.9;;""
1548;44656.564596088;147.5;;""
1549;44656.5645962037;147.8;;""
1550;44656.5645963194;148.3;;""
1551;44656.5645964352;148.6;;""
1552;44656.5645965509;149.1;;""
1553;44656.5645966667;149.5;;""
1554;44656.5645967824;150;;""
1555;44656.5645968981;150.3;;""
1556;44656.5645970139;150.8;;""
1557;44656.5645971296;151.1;;""
1558;44656.5645972454;151.4;;""
1559;44656.5645973611;152;;""
1560;44656.5645974768;152.3;;""
1561;44656.5645975926;152.6;;""
1562;44656.5645977083;153.1;;""
1563;44656.5645978241;153.4;;""
1564;44656.5645979398;153.9;;""
1565;44656.5645980556;154.2;;""
1566;44656.5645981713;154.8;;""
1567;44656.564598287;155.1;;""
1568;44656.5645984028;155.4;;""
1569;44656.5645985185;155.9;;""
1570;44656.5645986343;156.2;;""
1571;44656.56459875;156.7;;""
1572;44656.5645988657;157;;""
1573;44656.5645989815;157.3;;""
1574;44656.5645990972;157.9;;""
1575;44656.564599213;158.2;;""
1576;44656.5645993287;158.5;;""
1577;44656.5645994444;159;;""
1578;44656.5645995602;159.3;;""
1579;44656.5645996759;159.6;;""
1580;44656.5645997917;160.2;;""
1581;44656.5645999074;160.5;;""
1582;44656.5646000232;161;;""
1583;44656.5646001389;161.3;;""
1584;44656.5646002546;161.6;;""
1585;44656.5646003704;162.2;;""
1586;44656.5646004861;162.4;;""
1587;44656.5646006019;162.8;;""
1588;44656.5646007176;163.1;;""
1589;44656.5646008333;163.6;;""
1590;44656.5646009491;163.9;;""
1591;44656.5646010648;164.2;;""
1592;44656.5646011806;164.5;;""
1593;44656.5646012963;165.1;;""
1594;44656.564601412;165.4;;""
1595;44656.5646015278;165.7;;""
1596;44656.5646016435;166;;""
1597;44656.5646017593;166.4;;""
1598;44656.564601875;166.9;;""
1599;44656.5646019907;167.2;;""
1600;44656.5646021065;167.5;;""
1601;44656.5646022222;168;;""
1602;44656.564602338;168.3;;""
1603;44656.5646024537;168.6;;""
1604;44656.5646025694;168.9;;""
1605;44656.5646026852;169.5;;""
1606;44656.5646028009;169.6;;""
1607;44656.5646029167;170.1;;""
1608;44656.5646030324;170.4;;""
1609;44656.5646031481;170.7;;""
1610;44656.5646032639;171.2;;""
1611;44656.5646033796;171.3;;""
1612;44656.5646034954;171.6;;""
1613;44656.5646036111;172.2;;""
1614;44656.5646037269;172.5;;""
1615;44656.5646038426;172.8;;""
1616;44656.5646039583;173;;""
1617;44656.5646040741;173.6;;""
1618;44656.5646041898;173.9;;""
1619;44656.5646043056;174.2;;""
1620;44656.5646044213;174.5;;""
1621;44656.564604537;174.8;;""
1622;44656.5646046528;175.4;;""
1623;44656.5646047685;175.7;;""
1624;44656.5646048843;175.9;;""
1625;44656.564605;176.2;;""
1626;44656.5646051157;176.5;;""
1627;44656.5646052315;177.1;;""
1628;44656.5646053472;177.4;;""
1629;44656.564605463;176.6;;""
1630;44656.5646055787;176.9;;""
1631;44656.5646056944;178.6;;""
1632;44656.5646058102;179.6;;""
1633;44656.5646059259;179.8;;""
1634;44656.5646060417;179.8;;""
1635;44656.5646061574;180.1;;""
1636;44656.5646062731;180.4;;""
1637;44656.5646063889;180.4;;""
1638;44656.5646065046;180.7;;""
1639;44656.5646066204;181.2;;""
1640;44656.5646067361;181.8;;""
1641;44656.5646068519;182.1;;""
1642;44656.5646069676;182.4;;""
1643;44656.5646070833;182.4;;""
1644;44656.5646071991;182.7;;""
1645;44656.5646073148;183.1;;""
1646;44656.5646074306;183.4;;""
1647;44656.5646075463;183.6;;""
1648;44656.564607662;183.7;;""
1649;44656.5646077778;183.7;;""
1650;44656.5646078935;182.3;;""
1651;44656.5646080093;177.6;;""
1652;44656.564608125;161.9;;""
1653;44656.5646082407;136.3;;""
1654;44656.5646083565;123.2;;""
1655;44656.5646084722;125.5;;""
1656;44656.564608588;127.4;;""
1657;44656.5646087037;124.6;;""
1658;44656.5646088194;122.6;;""
1659;44656.5646089352;122.6;;""
1660;44656.5646090509;122.7;;""
1661;44656.5646091667;122.1;;""
1662;44656.5646092824;121.5;;""
1663;44656.5646093981;121;;""
1664;44656.5646095139;120.4;;""
1665;44656.5646096296;119.9;;""
1666;44656.5646097454;119.3;;""
1667;44656.5646098611;118.8;;""
1668;44656.5646099768;118.5;;""
1669;44656.5646100926;118.2;;""
1670;44656.5646102083;117.9;;""
1671;44656.5646103241;117.6;;""
1672;44656.5646104398;117.3;;""
1673;44656.5646105556;117;;""
1674;44656.5646106713;116.4;;""
1675;44656.564610787;115.9;;""
1676;44656.5646109028;115.6;;""
1677;44656.5646110185;115.3;;""
1678;44656.5646111343;115;;""
1679;44656.56461125;115;;""
1680;44656.5646113657;114.7;;""
1681;44656.5646114815;114.4;;""
1682;44656.5646115972;114.1;;""
1683;44656.564611713;113.8;;""
1684;44656.5646118287;113.5;;""
1685;44656.5646119444;113.2;;""
1686;44656.5646120602;112.9;;""
1687;44656.5646121759;112.7;;""
1688;44656.5646122917;112.4;;""
1689;44656.5646124074;112.3;;""
1690;44656.5646125232;112;;""
1691;44656.5646126389;111.7;;""
1692;44656.5646127546;111.4;;""
1693;44656.5646128704;111.1;;""
1694;44656.5646129861;110.9;;""
1695;44656.5646131019;110.8;;""
1696;44656.5646132176;110.6;;""
1697;44656.5646133333;110.3;;""
1698;44656.5646134491;110.2;;""
1699;44656.5646135648;110;;""
1700;44656.5646136806;109.7;;""
1701;44656.5646137963;109.6;;""
1702;44656.564613912;109.4;;""
1703;44656.5646140278;109.1;;""
1704;44656.5646141435;108.8;;""
1705;44656.5646142593;108.8;;""
1706;44656.564614375;108.5;;""
1707;44656.5646144907;108.2;;""
1708;44656.5646146065;108.2;;""
1709;44656.5646147222;107.9;;""
1710;44656.564614838;107.8;;""
1711;44656.5646149537;107.6;;""
1712;44656.5646150694;107.5;;""
1713;44656.5646151852;107.2;;""
1714;44656.5646153009;107.2;;""
1715;44656.5646154167;106.9;;""
1716;44656.5646155324;106.8;;""
1717;44656.5646156481;106.6;;""
1718;44656.5646157639;106.3;;""
1719;44656.5646158796;106.3;;""
1720;44656.5646159954;106;;""
1721;44656.5646161111;105.9;;""
1722;44656.5646162269;105.9;;""
1723;44656.5646163426;105.6;;""
1724;44656.5646164583;105.3;;""
1725;44656.5646165741;105.3;;""
1726;44656.5646166898;105.2;;""
1727;44656.5646168056;104.9;;""
1728;44656.5646169213;104.9;;""
1729;44656.564617037;104.6;;""
1730;44656.5646171528;104.6;;""
1731;44656.5646172685;104.5;;""
1732;44656.5646173843;104.2;;""
1733;44656.5646175;103.9;;""
1734;44656.5646176157;103.9;;""
1735;44656.5646177315;103.9;;""
1736;44656.5646178472;103.6;;""
1737;44656.564617963;103.6;;""
1738;44656.5646180787;103.2;;""
1739;44656.5646181944;103.2;;""
1740;44656.5646183102;103.2;;""
1741;44656.5646184259;102.9;;""
1742;44656.5646185417;102.9;;""
1743;44656.5646186574;102.6;;""
1744;44656.5646187731;102.5;;""
1745;44656.5646188889;102.2;;""
1746;44656.5646190046;102.2;;""
1747;44656.5646191204;102.2;;""
1748;44656.5646192361;101.9;;""
1749;44656.5646193519;101.9;;""
1750;44656.5646194676;101.6;;""
1751;44656.5646195833;101.6;;""
1752;44656.5646196991;101.3;;""
1753;44656.5646198148;101.3;;""
1754;44656.5646199306;101.2;;""
1755;44656.5646200463;100.9;;""
1756;44656.564620162;100.9;;""
1757;44656.5646202778;100.6;;""
1758;44656.5646203935;100.4;;""
1759;44656.5646205093;100.4;;""
1760;44656.564620625;100;;""
1761;44656.5646207407;100;;""
1762;44656.5646208565;99.7;;""
1763;44656.5646209722;99.4;;""
1764;44656.564621088;99.4;;""
1765;44656.5646212037;99.1;;""
1766;44656.5646213194;98.6;;""
1767;44656.5646214352;98;;""
1768;44656.5646215509;96.9;;""
1769;44656.5646216667;94.9;;""
1770;44656.5646217824;90.8;;""
1771;44656.5646218981;85.9;;""
1772;44656.5646220139;84.3;;""
1773;44656.5646221296;86.6;;""
1774;44656.5646222454;106.4;;""
1775;44656.5646223611;121.9;;""
1776;44656.5646224769;124.1;;""
1777;44656.5646225926;122.5;;""
1778;44656.5646227083;122.3;;""
1779;44656.5646228241;123.9;;""
1780;44656.5646229398;125;;""
1781;44656.5646230556;125.6;;""
1782;44656.5646231713;125.9;;""
1783;44656.564623287;126.5;;""
1784;44656.5646234028;127.4;;""
1785;44656.5646235185;128.2;;""
1786;44656.5646236343;128.7;;""
1787;44656.56462375;129.3;;""
1788;44656.5646238657;129.9;;""
1789;44656.5646239815;130.4;;""
1790;44656.5646240972;131;;""
1791;44656.564624213;131.5;;""
1792;44656.5646243287;132.1;;""
1793;44656.5646244444;132.7;;""
1794;44656.5646245602;133.3;;""
1795;44656.5646246759;133.6;;""
1796;44656.5646247917;134.4;;""
1797;44656.5646249074;134.7;;""
1798;44656.5646250232;135.3;;""
1799;44656.5646251389;135.6;;""
1800;44656.5646252546;136.1;;""
1801;44656.5646253704;136.5;;""
1802;44656.5646254861;137;;""
1803;44656.5646256019;137.6;;""
1804;44656.5646257176;137.9;;""
1805;44656.5646258333;138.7;;""
1806;44656.5646259491;139;;""
1807;44656.5646260648;139.5;;""
1808;44656.5646261806;139.8;;""
1809;44656.5646262963;140.4;;""
1810;44656.564626412;141;;""
1811;44656.5646265278;141.2;;""
1812;44656.5646266435;141.8;;""
1813;44656.5646267593;142.1;;""
1814;44656.564626875;142.7;;""
1815;44656.5646269907;143.2;;""
1816;44656.5646271065;143.5;;""
1817;44656.5646272222;144;;""
1818;44656.564627338;144.4;;""
1819;44656.5646274537;144.9;;""
1820;44656.5646275694;145.2;;""
1821;44656.5646276852;145.8;;""
1822;44656.5646278009;146.1;;""
1823;44656.5646279167;146.6;;""
1824;44656.5646280324;147.2;;""
1825;44656.5646281481;147.4;;""
1826;44656.5646282639;148;;""
1827;44656.5646283796;148.5;;""
1828;44656.5646284954;148.8;;""
1829;44656.5646286111;149.4;;""
1830;44656.5646287269;149.6;;""
1831;44656.5646288426;150.2;;""
1832;44656.5646289583;150.4;;""
1833;44656.5646290741;151;;""
1834;44656.5646291898;151.3;;""
1835;44656.5646293056;151.6;;""
1836;44656.5646294213;152.2;;""
1837;44656.564629537;152.5;;""
1838;44656.5646296528;152.8;;""
1839;44656.5646297685;153.4;;""
1840;44656.5646298843;153.7;;""
1841;44656.56463;154.2;;""
1842;44656.5646301157;154.5;;""
1843;44656.5646302315;155.1;;""
1844;44656.5646303472;155.3;;""
1845;44656.564630463;155.6;;""
1846;44656.5646305787;156.2;;""
1847;44656.5646306944;156.5;;""
1848;44656.5646308102;156.8;;""
1849;44656.5646309259;157.3;;""
1850;44656.5646310417;157.6;;""
1851;44656.5646311574;157.9;;""
1852;44656.5646312731;158.4;;""
1853;44656.5646313889;158.8;;""
1854;44656.5646315046;159.1;;""
1855;44656.5646316204;159.4;;""
1856;44656.5646317361;159.9;;""
1857;44656.5646318518;160.2;;""
1858;44656.5646319676;160.7;;""
1859;44656.5646320833;161;;""
1860;44656.5646321991;161.3;;""
1861;44656.5646323148;161.8;;""
1862;44656.5646324306;162.1;;""
1863;44656.5646325463;162.7;;""
1864;44656.564632662;162.9;;""
1865;44656.5646327778;163.3;;""
1866;44656.5646328935;163.5;;""
1867;44656.5646330093;164.1;;""
1868;44656.564633125;164.4;;""
1869;44656.5646332407;164.7;;""
1870;44656.5646333565;165;;""
1871;44656.5646334722;165.6;;""
1872;44656.564633588;165.9;;""
1873;44656.5646337037;166.2;;""
1874;44656.5646338194;166.5;;""
1875;44656.5646339352;166.8;;""
1876;44656.5646340509;167.1;;""
1877;44656.5646341667;167.7;;""
1878;44656.5646342824;168;;""
1879;44656.5646343982;168.3;;""
1880;44656.5646345139;168.6;;""
1881;44656.5646346296;169.1;;""
1882;44656.5646347454;169.4;;""
1883;44656.5646348611;169.7;;""
1884;44656.5646349769;170;;""
1885;44656.5646350926;171.7;;""
1886;44656.5646352083;171.6;;""
1887;44656.5646353241;172;;""
1888;44656.5646354398;172;;""
1889;44656.5646355556;172;;""
1890;44656.5646356713;172.3;;""
1891;44656.564635787;172.8;;""
1892;44656.5646359028;172.8;;""
1893;44656.5646360185;173.1;;""
1894;44656.5646361343;173.4;;""
1895;44656.56463625;174;;""
1896;44656.5646363657;174.6;;""
1897;44656.5646364815;174.6;;""
1898;44656.5646365972;174.9;;""
1899;44656.564636713;175.2;;""
1900;44656.5646368287;175.8;;""
1901;44656.5646369444;176.1;;""
1902;44656.5646370602;176.4;;""
1903;44656.5646371759;176.9;;""
1904;44656.5646372917;177.2;;""
1905;44656.5646374074;177.5;;""
1906;44656.5646375232;177.5;;""
1907;44656.5646376389;178.1;;""
1908;44656.5646377546;178.6;;""
1909;44656.5646378704;178.9;;""
1910;44656.5646379861;179.2;;""
1911;44656.5646381019;179.5;;""
1912;44656.5646382176;179.8;;""
1913;44656.5646383333;180.1;;""
1914;44656.5646384491;180.4;;""
1915;44656.5646385648;180.7;;""
1916;44656.5646386806;181.3;;""
1917;44656.5646387963;181.6;;""
1918;44656.564638912;181.9;;""
1919;44656.5646390278;182.2;;""
1920;44656.5646391435;182.5;;""
1921;44656.5646392593;182.8;;""
1922;44656.564639375;183;;""
1923;44656.5646394907;183.3;;""
1924;44656.5646396065;183.6;;""
1925;44656.5646397222;183.7;;""
1926;44656.564639838;183.7;;""
1927;44656.5646399537;183.4;;""
1928;44656.5646400694;181.4;;""
1929;44656.5646401852;174.7;;""
1930;44656.5646403009;155.2;;""
1931;44656.5646404167;130.2;;""
1932;44656.5646405324;122;;""
1933;44656.5646406481;126.4;;""
1934;44656.5646407639;127.1;;""
1935;44656.5646408796;123.9;;""
1936;44656.5646409954;122.8;;""
1937;44656.5646411111;122.8;;""
1938;44656.5646412269;122.6;;""
1939;44656.5646413426;121.7;;""
1940;44656.5646414583;121.2;;""
1941;44656.5646415741;120.6;;""
1942;44656.5646416898;120.1;;""
1943;44656.5646418056;119.8;;""
1944;44656.5646419213;119.2;;""
1945;44656.564642037;118.7;;""
1946;44656.5646421528;118.4;;""
1947;44656.5646422685;118.1;;""
1948;44656.5646423843;117.8;;""
1949;44656.5646425;117.3;;""
1950;44656.5646426157;117;;""
1951;44656.5646427315;116.7;;""
1952;44656.5646428472;116.2;;""
1953;44656.564642963;115.9;;""
1954;44656.5646430787;115.6;;""
1955;44656.5646431944;115.3;;""
1956;44656.5646433102;115;;""
1957;44656.5646434259;114.7;;""
1958;44656.5646435417;114.5;;""
1959;44656.5646436574;114.2;;""
1960;44656.5646437731;113.9;;""
1961;44656.5646438889;113.6;;""
1962;44656.5646440046;113.3;;""
1963;44656.5646441204;113;;""
1964;44656.5646442361;112.9;;""
1965;44656.5646443518;112.6;;""
1966;44656.5646444676;112.4;;""
1967;44656.5646445833;112;;""
1968;44656.5646446991;111.8;;""
1969;44656.5646448148;111.5;;""
1970;44656.5646449306;111.2;;""
1971;44656.5646450463;111.2;;""
1972;44656.564645162;110.9;;""
1973;44656.5646452778;110.6;;""
1974;44656.5646453935;110.6;;""
1975;44656.5646455093;110.3;;""
1976;44656.564645625;110;;""
1977;44656.5646457407;109.7;;""
1978;44656.5646458565;109.7;;""
1979;44656.5646459722;109.4;;""
1980;44656.564646088;109.1;;""
1981;44656.5646462037;109.1;;""
1982;44656.5646463194;108.8;;""
1983;44656.5646464352;108.5;;""
1984;44656.5646465509;108.5;;""
1985;44656.5646466667;108.2;;""
1986;44656.5646467824;107.9;;""
1987;44656.5646468982;107.9;;""
1988;44656.5646470139;107.8;;""
1989;44656.5646471296;107.5;;""
1990;44656.5646472454;107.3;;""
1991;44656.5646473611;107.2;;""
1992;44656.5646474769;106.9;;""
1993;44656.5646475926;106.6;;""
1994;44656.5646477083;106.6;;""
1995;44656.5646478241;106.3;;""
1996;44656.5646479398;106.3;;""
1997;44656.5646480556;106;;""
1998;44656.5646481713;106;;""
1999;44656.564648287;105.7;;""
2000;44656.5646484028;105.7;;""
2001;44656.5646485185;105.4;;""
2002;44656.5646486343;105.3;;""
2003;44656.56464875;105;;""
2004;44656.5646488657;105;;""
2005;44656.5646489815;104.7;;""
2006;44656.5646490972;104.7;;""
2007;44656.564649213;104.4;;""
2008;44656.5646493287;104.4;;""
2009;44656.5646494444;104.1;;""
2010;44656.5646495602;104.1;;""
2011;44656.5646496759;103.8;;""
2012;44656.5646497917;103.7;;""
2013;44656.5646499074;103.5;;""
2014;44656.5646500231;103.5;;""
2015;44656.5646501389;103.2;;""
2016;44656.5646502546;103.2;;""
2017;44656.5646503704;103.1;;""
2018;44656.5646504861;102.9;;""
2019;44656.5646506019;102.8;;""
2020;44656.5646507176;102.7;;""
2021;44656.5646508333;102.5;;""
2022;44656.5646509491;102.4;;""
2023;44656.5646510648;102.1;;""
2024;44656.5646511806;102.1;;""
2025;44656.5646512963;101.8;;""
2026;44656.564651412;101.8;;""
2027;44656.5646515278;101.5;;""
2028;44656.5646516435;101.5;;""
2029;44656.5646517593;101.4;;""
2030;44656.564651875;101.1;;""
2031;44656.5646519907;101.1;;""
2032;44656.5646521065;101;;""
2033;44656.5646522222;100.8;;""
2034;44656.564652338;100.5;;""
2035;44656.5646524537;100.4;;""
2036;44656.5646525694;100.4;;""
2037;44656.5646526852;100.1;;""
2038;44656.5646528009;99.8;;""
2039;44656.5646529167;99.8;;""
2040;44656.5646530324;99.2;;""
2041;44656.5646531481;99.2;;""
2042;44656.5646532639;98.7;;""
2043;44656.5646533796;98.1;;""
2044;44656.5646534954;97.2;;""
2045;44656.5646536111;95.5;;""
2046;44656.5646537269;92.2;;""
2047;44656.5646538426;87.5;;""
2048;44656.5646539583;84.5;;""
2049;44656.5646540741;83.8;;""
2050;44656.5646541898;102.9;;""
2051;44656.5646543056;122;;""
2052;44656.5646544213;125.6;;""
2053;44656.564654537;123.3;;""
2054;44656.5646546528;122.1;;""
2055;44656.5646547685;123.5;;""
2056;44656.5646548843;124.8;;""
2057;44656.564655;125.4;;""
2058;44656.5646551157;125.7;;""
2059;44656.5646552315;126.3;;""
2060;44656.5646553472;127.2;;""
2061;44656.564655463;128;;""
2062;44656.5646555787;128.6;;""
2063;44656.5646556944;129.1;;""
2064;44656.5646558102;129.7;;""
2065;44656.5646559259;130.3;;""
2066;44656.5646560417;130.9;;""
2067;44656.5646561574;131.4;;""
2068;44656.5646562731;132.1;;""
2069;44656.5646563889;132.4;;""
2070;44656.5646565046;133.2;;""
2071;44656.5646566204;133.7;;""
2072;44656.5646567361;134.3;;""
2073;44656.5646568519;134.6;;""
2074;44656.5646569676;135.1;;""
2075;44656.5646570833;135.7;;""
2076;44656.5646571991;136;;""
2077;44656.5646573148;136.5;;""
2078;44656.5646574306;137;;""
2079;44656.5646575463;137.6;;""
2080;44656.564657662;137.9;;""
2081;44656.5646577778;138.4;;""
2082;44656.5646578935;139;;""
2083;44656.5646580093;139.3;;""
2084;44656.564658125;139.9;;""
2085;44656.5646582407;140.1;;""
2086;44656.5646583565;140.8;;""
2087;44656.5646584722;141.1;;""
2088;44656.564658588;141.6;;""
2089;44656.5646587037;142;;""
2090;44656.5646588194;142.5;;""
2091;44656.5646589352;142.8;;""
2092;44656.5646590509;143.4;;""
2093;44656.5646591667;143.9;;""
2094;44656.5646592824;144.2;;""
2095;44656.5646593982;144.8;;""
2096;44656.5646595139;145.1;;""
2097;44656.5646596296;145.7;;""
2098;44656.5646597454;146;;""
2099;44656.5646598611;145.7;;""
2100;44656.5646599769;145.8;;""
2101;44656.5646600926;147.2;;""
2102;44656.5646602083;148.4;;""
2103;44656.5646603241;148.7;;""
2104;44656.5646604398;148.7;;""
2105;44656.5646605556;149;;""
2106;44656.5646606713;149.2;;""
2107;44656.564660787;149.6;;""
2108;44656.5646609028;149.9;;""
2109;44656.5646610185;150.4;;""
2110;44656.5646611343;151;;""
2111;44656.56466125;151.5;;""
2112;44656.5646613657;151.8;;""
2113;44656.5646614815;152.2;;""
2114;44656.5646615972;152.5;;""
2115;44656.564661713;153;;""
2116;44656.5646618287;153.6;;""
2117;44656.5646619444;153.8;;""
2118;44656.5646620602;154.1;;""
2119;44656.5646621759;154.7;;""
2120;44656.5646622917;155;;""
2121;44656.5646624074;155.2;;""
2122;44656.5646625231;155.8;;""
2123;44656.5646626389;156.4;;""
2124;44656.5646627546;156.7;;""
2125;44656.5646628704;157;;""
2126;44656.5646629861;157.3;;""
2127;44656.5646631019;157.6;;""
2128;44656.5646632176;157.9;;""
2129;44656.5646633333;158.5;;""
2130;44656.5646634491;158.8;;""
2131;44656.5646635648;159.3;;""
2132;44656.5646636806;159.6;;""
2133;44656.5646637963;159.9;;""
2134;44656.564663912;160.2;;""
2135;44656.5646640278;160.7;;""
2136;44656.5646641435;161;;""
2137;44656.5646642593;161.6;;""
2138;44656.564664375;161.8;;""
2139;44656.5646644907;162.1;;""
2140;44656.5646646065;162.7;;""
2141;44656.5646647222;163;;""
2142;44656.564664838;163.3;;""
2143;44656.5646649537;163.6;;""
2144;44656.5646650694;164.1;;""
2145;44656.5646651852;164.4;;""
2146;44656.5646653009;164.7;;""
2147;44656.5646654167;165.3;;""
2148;44656.5646655324;165.5;;""
2149;44656.5646656481;165.8;;""
2150;44656.5646657639;166.4;;""
2151;44656.5646658796;166.7;;""
2152;44656.5646659954;167;;""
2153;44656.5646661111;167.3;;""
2154;44656.5646662269;167.6;;""
2155;44656.5646663426;167.9;;""
2156;44656.5646664583;168.2;;""
2157;44656.5646665741;168.8;;""
2158;44656.5646666898;169.1;;""
2159;44656.5646668056;169.4;;""
2160;44656.5646669213;169.9;;""
2161;44656.564667037;170.2;;""
2162;44656.5646671528;170.5;;""
2163;44656.5646672685;171;;""
2164;44656.5646673843;171.3;;""
2165;44656.5646675;171.6;;""
2166;44656.5646676157;171.9;;""
2167;44656.5646677315;172.2;;""
2168;44656.5646678472;172.5;;""
2169;44656.564667963;173.1;;""
2170;44656.5646680787;173.4;;""
2171;44656.5646681944;173.7;;""
2172;44656.5646683102;173.9;;""
2173;44656.5646684259;174.5;;""
2174;44656.5646685417;174.8;;""
2175;44656.5646686574;175.1;;""
2176;44656.5646687732;175.4;;""
2177;44656.5646688889;175.9;;""
2178;44656.5646690046;176.2;;""
2179;44656.5646691204;176.5;;""
2180;44656.5646692361;177;;""
2181;44656.5646693519;177.3;;""
2182;44656.5646694676;177.6;;""
2183;44656.5646695833;177.9;;""
2184;44656.5646696991;178.5;;""
2185;44656.5646698148;178.7;;""
2186;44656.5646699306;179;;""
2187;44656.5646700463;179.3;;""
2188;44656.564670162;179.6;;""
2189;44656.5646702778;180.2;;""
2190;44656.5646703935;180.5;;""
2191;44656.5646705093;180.7;;""
2192;44656.564670625;181;;""
2193;44656.5646707407;181.3;;""
2194;44656.5646708565;181.6;;""
2195;44656.5646709722;181.9;;""
2196;44656.564671088;182.5;;""
2197;44656.5646712037;182.5;;""
2198;44656.5646713194;183.1;;""
2199;44656.5646714352;183.4;;""
2200;44656.5646715509;183.4;;""
2201;44656.5646716667;183.7;;""
2202;44656.5646717824;183.7;;""
2203;44656.5646718982;183.5;;""
2204;44656.5646720139;182.2;;""
2205;44656.5646721296;177.5;;""
2206;44656.5646722454;161.6;;""
2207;44656.5646723611;135.6;;""
2208;44656.5646724769;122.5;;""
2209;44656.5646725926;125.2;;""
2210;44656.5646727083;127.3;;""
2211;44656.5646728241;124.7;;""
2212;44656.5646729398;122.8;;""
2213;44656.5646730556;122.8;;""
2214;44656.5646731713;122.8;;""
2215;44656.564673287;122;;""
2216;44656.5646734028;121.4;;""
2217;44656.5646735185;120.9;;""
2218;44656.5646736343;120.3;;""
2219;44656.56467375;119.7;;""
2220;44656.5646738657;119.5;;""
2221;44656.5646739815;119.1;;""
2222;44656.5646740972;118.6;;""
2223;44656.564674213;118.3;;""
2224;44656.5646743287;118;;""
2225;44656.5646744444;117.7;;""
2226;44656.5646745602;117.2;;""
2227;44656.5646746759;116.9;;""
2228;44656.5646747917;116.3;;""
2229;44656.5646749074;116.1;;""
2230;44656.5646750231;115.8;;""
2231;44656.5646751389;115.5;;""
2232;44656.5646752546;115.2;;""
2233;44656.5646753704;114.9;;""
2234;44656.5646754861;114.7;;""
2235;44656.5646756019;114.4;;""
2236;44656.5646757176;114.1;;""
2237;44656.5646758333;113.8;;""
2238;44656.5646759491;113.5;;""
2239;44656.5646760648;113.3;;""
2240;44656.5646761806;113;;""
2241;44656.5646762963;112.9;;""
2242;44656.564676412;112.4;;""
2243;44656.5646765278;112.3;;""
2244;44656.5646766435;112.1;;""
2245;44656.5646767593;111.8;;""
2246;44656.564676875;111.5;;""
2247;44656.5646769907;111.2;;""
2248;44656.5646771065;111.1;;""
2249;44656.5646772222;110.9;;""
2250;44656.564677338;110.5;;""
2251;44656.5646774537;110.5;;""
2252;44656.5646775694;110.2;;""
2253;44656.5646776852;110;;""
2254;44656.5646778009;109.7;;""
2255;44656.5646779167;109.6;;""
2256;44656.5646780324;109.4;;""
2257;44656.5646781481;109.1;;""
2258;44656.5646782639;109;;""
2259;44656.5646783796;108.8;;""
2260;44656.5646784954;108.5;;""
2261;44656.5646786111;108.5;;""
2262;44656.5646787268;108.2;;""
2263;44656.5646788426;108.1;;""
2264;44656.5646789583;107.8;;""
2265;44656.5646790741;107.5;;""
2266;44656.5646791898;107.5;;""
2267;44656.5646793056;107.2;;""
2268;44656.5646794213;107.1;;""
2269;44656.564679537;106.9;;""
2270;44656.5646796528;106.6;;""
2271;44656.5646797685;106.6;;""
2272;44656.5646798843;106.5;;""
2273;44656.56468;106.2;;""
2274;44656.5646801157;106.1;;""
2275;44656.5646802315;105.9;;""
2276;44656.5646803472;105.8;;""
2277;44656.564680463;105.5;;""
2278;44656.5646805787;105.5;;""
2279;44656.5646806944;105.2;;""
2280;44656.5646808102;105.2;;""
2281;44656.5646809259;104.9;;""
2282;44656.5646810417;104.9;;""
2283;44656.5646811574;104.6;;""
2284;44656.5646812732;104.5;;""
2285;44656.5646813889;104.2;;""
2286;44656.5646815046;104.2;;""
2287;44656.5646816204;103.9;;""
2288;44656.5646817361;103.9;;""
2289;44656.5646818519;103.9;;""
2290;44656.5646819676;103.6;;""
2291;44656.5646820833;103.5;;""
2292;44656.5646821991;103.2;;""
2293;44656.5646823148;103.2;;""
2294;44656.5646824306;102.9;;""
2295;44656.5646825463;102.9;;""
2296;44656.564682662;102.8;;""
2297;44656.5646827778;102.6;;""
2298;44656.5646828935;102.5;;""
2299;44656.5646830093;102.2;;""
2300;44656.564683125;102.2;;""
2301;44656.5646832407;102.2;;""
2302;44656.5646833565;101.9;;""
2303;44656.5646834722;101.8;;""
2304;44656.564683588;101.5;;""
2305;44656.5646837037;101.5;;""
2306;44656.5646838194;101.2;;""
2307;44656.5646839352;101.2;;""
2308;44656.5646840509;101.2;;""
2309;44656.5646841667;100.9;;""
2310;44656.5646842824;100.9;;""
2311;44656.5646843981;100.5;;""
2312;44656.5646845139;100.5;;""
2313;44656.5646846296;100.5;;""
2314;44656.5646847454;100.2;;""
2315;44656.5646848611;99.9;;""
2316;44656.5646849769;99.9;;""
2317;44656.5646850926;99.6;;""
2318;44656.5646852083;99.3;;""
2319;44656.5646853241;99;;""
2320;44656.5646854398;98.7;;""
2321;44656.5646855556;97.8;;""
2322;44656.5646856713;96.9;;""
2323;44656.564685787;94.9;;""
2324;44656.5646859028;90.6;;""
2325;44656.5646860185;86;;""
2326;44656.5646861343;84.2;;""
2327;44656.56468625;85.5;;""
2328;44656.5646863657;106.7;;""
2329;44656.5646864815;121.9;;""
2330;44656.5646865972;124.1;;""
2331;44656.564686713;122.6;;""
2332;44656.5646868287;122.3;;""
2333;44656.5646869444;124;;""
2334;44656.5646870602;125;;""
2335;44656.5646871759;124.7;;""
2336;44656.5646872917;125;;""
2337;44656.5646874074;126.4;;""
2338;44656.5646875231;127.9;;""
2339;44656.5646876389;128.5;;""
2340;44656.5646877546;128.5;;""
2341;44656.5646878704;128.8;;""
2342;44656.5646879861;129.7;;""
2343;44656.5646881019;130.2;;""
2344;44656.5646882176;130.8;;""
2345;44656.5646883333;131.3;;""
2346;44656.5646884491;131.9;;""
2347;44656.5646885648;132.5;;""
2348;44656.5646886806;133.1;;""
2349;44656.5646887963;133.4;;""
2350;44656.564688912;134;;""
2351;44656.5646890278;134.5;;""
2352;44656.5646891435;135.1;;""
2353;44656.5646892593;135.4;;""
2354;44656.564689375;135.9;;""
2355;44656.5646894907;136.5;;""
2356;44656.5646896065;136.8;;""
2357;44656.5646897222;137.3;;""
2358;44656.564689838;137.9;;""
2359;44656.5646899537;138.5;;""
2360;44656.5646900694;139;;""
2361;44656.5646901852;139.3;;""
2362;44656.5646903009;139.6;;""
2363;44656.5646904167;140.2;;""
2364;44656.5646905324;140.5;;""
2365;44656.5646906481;141.1;;""
2366;44656.5646907639;141.7;;""
2367;44656.5646908796;141.9;;""
2368;44656.5646909954;142.5;;""
2369;44656.5646911111;143;;""
2370;44656.5646912268;143.3;;""
2371;44656.5646913426;143.6;;""
2372;44656.5646914583;144.1;;""
2373;44656.5646915741;144.7;;""
2374;44656.5646916898;145;;""
2375;44656.5646918056;145.6;;""
2376;44656.5646919213;146.1;;""
2377;44656.564692037;146.4;;""
2378;44656.5646921528;146.9;;""
2379;44656.5646922685;147.2;;""
2380;44656.5646923843;147.7;;""
2381;44656.5646925;148.3;;""
2382;44656.5646926157;148.6;;""
2383;44656.5646927315;148.9;;""
2384;44656.5646928472;149.5;;""
2385;44656.564692963;149.8;;""
2386;44656.5646930787;150.1;;""
2387;44656.5646931944;150.7;;""
2388;44656.5646933102;151;;""
2389;44656.5646934259;151.6;;""
2390;44656.5646935417;151.8;;""
2391;44656.5646936574;152.4;;""
2392;44656.5646937732;152.7;;""
2393;44656.5646938889;153.3;;""
2394;44656.5646940046;153.5;;""
2395;44656.5646941204;153.8;;""
2396;44656.5646942361;154.3;;""
2397;44656.5646943519;154.6;;""
2398;44656.5646944676;155.2;;""
2399;44656.5646945833;155.5;;""
2400;44656.5646946991;156;;""
2401;44656.5646948148;156.3;;""
2402;44656.5646949306;156.6;;""
2403;44656.5646950463;157.2;;""
2404;44656.564695162;157.5;;""
2405;44656.5646952778;157.7;;""
2406;44656.5646953935;158.3;;""
2407;44656.5646955093;158.6;;""
2408;44656.564695625;158.9;;""
2409;44656.5646957407;159.4;;""
2410;44656.5646958565;159.7;;""
2411;44656.5646959722;160;;""
2412;44656.564696088;160.6;;""
2413;44656.5646962037;160.9;;""
2414;44656.5646963194;161.4;;""
2415;44656.5646964352;161.7;;""
2416;44656.5646965509;162;;""
2417;44656.5646966667;162.6;;""
2418;44656.5646967824;162.6;;""
2419;44656.5646968981;163.2;;""
2420;44656.5646970139;163.6;;""
2421;44656.5646971296;164.1;;""
2422;44656.5646972454;164.4;;""
2423;44656.5646973611;164.7;;""
2424;44656.5646974769;165;;""
2425;44656.5646975926;165.5;;""
2426;44656.5646977083;165.8;;""
2427;44656.5646978241;166.1;;""
2428;44656.5646979398;166.7;;""
2429;44656.5646980556;167;;""
2430;44656.5646981713;167.3;;""
2431;44656.564698287;167.6;;""
2432;44656.5646984028;167.9;;""
2433;44656.5646985185;168.2;;""
2434;44656.5646986343;168.5;;""
2435;44656.56469875;169.1;;""
2436;44656.5646988657;169.4;;""
2437;44656.5646989815;169.7;;""
2438;44656.5646990972;170;;""
2439;44656.564699213;170.6;;""
2440;44656.5646993287;170.8;;""
2441;44656.5646994444;171.1;;""
2442;44656.5646995602;171.4;;""
2443;44656.5646996759;171.8;;""
2444;44656.5646997917;172.3;;""
2445;44656.5646999074;172.6;;""
2446;44656.5647000231;172.9;;""
2447;44656.5647001389;173.3;;""
2448;44656.5647002546;173.5;;""
2449;44656.5647003704;174.1;;""
2450;44656.5647004861;174.4;;""
2451;44656.5647006019;174.6;;""
2452;44656.5647007176;174.9;;""
2453;44656.5647008333;175.2;;""
2454;44656.5647009491;175.8;;""
2455;44656.5647010648;176.1;;""
2456;44656.5647011806;176.4;;""
2457;44656.5647012963;176.7;;""
2458;44656.564701412;177.2;;""
2459;44656.5647015278;177.5;;""
2460;44656.5647016435;177.8;;""
2461;44656.5647017593;178.1;;""
2462;44656.564701875;178.4;;""
2463;44656.5647019907;178.7;;""
2464;44656.5647021065;179;;""
2465;44656.5647022222;179.5;;""
2466;44656.564702338;179.9;;""
2467;44656.5647024537;180.2;;""
2468;44656.5647025694;180.4;;""
2469;44656.5647026852;180.7;;""
2470;44656.5647028009;181;;""
2471;44656.5647029167;181.4;;""
2472;44656.5647030324;181.7;;""
2473;44656.5647031481;182;;""
2474;44656.5647032639;182.3;;""
2475;44656.5647033796;182.6;;""
2476;44656.5647034954;182.9;;""
2477;44656.5647036111;183.2;;""
2478;44656.5647037269;183.5;;""
2479;44656.5647038426;183.8;;""
2480;44656.5647039583;183.8;;""
2481;44656.5647040741;183.5;;""
2482;44656.5647041898;181.7;;""
2483;44656.5647043056;175.4;;""
2484;44656.5647044213;156.7;;""
2485;44656.564704537;131.4;;""
2486;44656.5647046528;122.1;;""
2487;44656.5647047685;126.1;;""
2488;44656.5647048843;127.1;;""
2489;44656.564705;124;;""
2490;44656.5647051157;122.7;;""
2491;44656.5647052315;122.9;;""
2492;44656.5647053472;122.7;;""
2493;44656.564705463;121.8;;""
2494;44656.5647055787;121.3;;""
2495;44656.5647056944;120.7;;""
2496;44656.5647058102;120.2;;""
2497;44656.5647059259;119.7;;""
2498;44656.5647060417;119.4;;""
2499;44656.5647061574;118.8;;""
2500;44656.5647062732;118.5;;""
2501;44656.5647063889;118.2;;""
2502;44656.5647065046;117.7;;""
2503;44656.5647066204;117.4;;""
2504;44656.5647067361;117.1;;""
2505;44656.5647068519;116.8;;""
2506;44656.5647069676;116.2;;""
2507;44656.5647070833;115.9;;""
2508;44656.5647071991;115.6;;""
2509;44656.5647073148;115.3;;""
2510;44656.5647074306;115;;""
2511;44656.5647075463;114.7;;""
2512;44656.564707662;114.4;;""
2513;44656.5647077778;114.4;;""
2514;44656.5647078935;113.8;;""
2515;44656.5647080093;113.6;;""
2516;44656.564708125;113.3;;""
2517;44656.5647082407;113;;""
2518;44656.5647083565;112.7;;""
2519;44656.5647084722;112.4;;""
2520;44656.564708588;112.4;;""
2521;44656.5647087037;112.1;;""
2522;44656.5647088194;111.8;;""
2523;44656.5647089352;111.6;;""
2524;44656.5647090509;111.3;;""
2525;44656.5647091667;111;;""
2526;44656.5647092824;110.7;;""
2527;44656.5647093981;110.7;;""
2528;44656.5647095139;110.4;;""
2529;44656.5647096296;110.3;;""
2530;44656.5647097454;110;;""
2531;44656.5647098611;109.7;;""
2532;44656.5647099769;109.4;;""
2533;44656.5647100926;109.4;;""
2534;44656.5647102083;109.1;;""
2535;44656.5647103241;109.1;;""
2536;44656.5647104398;108.8;;""
2537;44656.5647105556;108.5;;""
2538;44656.5647106713;108.4;;""
2539;44656.564710787;108.2;;""
2540;44656.5647109028;108.1;;""
2541;44656.5647110185;107.8;;""
2542;44656.5647111343;107.6;;""
2543;44656.56471125;107.5;;""
2544;44656.5647113657;107.2;;""
2545;44656.5647114815;107.2;;""
2546;44656.5647115972;106.9;;""
2547;44656.564711713;106.6;;""
2548;44656.5647118287;106.6;;""
2549;44656.5647119444;106.5;;""
2550;44656.5647120602;106.3;;""
2551;44656.5647121759;105.9;;""
2552;44656.5647122917;105.9;;""
2553;44656.5647124074;105.6;;""
2554;44656.5647125231;105.6;;""
2555;44656.5647126389;105.3;;""
2556;44656.5647127546;105.3;;""
2557;44656.5647128704;105;;""
2558;44656.5647129861;105;;""
2559;44656.5647131018;104.7;;""
2560;44656.5647132176;104.7;;""
2561;44656.5647133333;104.4;;""
2562;44656.5647134491;104.4;;""
2563;44656.5647135648;104.1;;""
2564;44656.5647136806;104.1;;""
2565;44656.5647137963;103.7;;""
2566;44656.564713912;103.7;;""
2567;44656.5647140278;103.7;;""
2568;44656.5647141435;103.4;;""
2569;44656.5647142593;103.4;;""
2570;44656.564714375;103.3;;""
2571;44656.5647144907;103;;""
2572;44656.5647146065;103;;""
2573;44656.5647147222;102.6;;""
2574;44656.564714838;102.6;;""
2575;44656.5647149537;102.6;;""
2576;44656.5647150694;102.2;;""
2577;44656.5647151852;102.2;;""
2578;44656.5647153009;101.9;;""
2579;44656.5647154167;101.9;;""
2580;44656.5647155324;101.6;;""
2581;44656.5647156482;101.6;;""
2582;44656.5647157639;101.6;;""
2583;44656.5647158796;101.3;;""
2584;44656.5647159954;101.3;;""
2585;44656.5647161111;101;;""
2586;44656.5647162269;101;;""
2587;44656.5647163426;100.7;;""
2588;44656.5647164583;100.6;;""
2589;44656.5647165741;100.4;;""
2590;44656.5647166898;100.3;;""
2591;44656.5647168056;100.1;;""
2592;44656.5647169213;99.8;;""
2593;44656.564717037;99.8;;""
2594;44656.5647171528;99.5;;""
2595;44656.5647172685;99.2;;""
2596;44656.5647173843;98.9;;""
2597;44656.5647175;98.3;;""
2598;44656.5647176157;97.4;;""
2599;44656.5647177315;96;;""
2600;44656.5647178472;93.5;;""
2601;44656.564717963;88.7;;""
2602;44656.5647180787;84.9;;""
2603;44656.5647181944;84;;""
2604;44656.5647183102;101.7;;""
2605;44656.5647184259;119;;""
2606;44656.5647185417;124.7;;""
2607;44656.5647186574;123.5;;""
2608;44656.5647187731;122.2;;""
2609;44656.5647188889;122.7;;""
2610;44656.5647190046;124.5;;""
2611;44656.5647191204;125.3;;""
2612;44656.5647192361;125.6;;""
2613;44656.5647193519;126.1;;""
2614;44656.5647194676;127;;""
2615;44656.5647195833;127.8;;""
2616;44656.5647196991;128.4;;""
2617;44656.5647198148;128.9;;""
2618;44656.5647199306;129.5;;""
2619;44656.5647200463;130.2;;""
2620;44656.564720162;130.7;;""
2621;44656.5647202778;131.3;;""
2622;44656.5647203935;131.6;;""
2623;44656.5647205093;132.1;;""
2624;44656.564720625;132.7;;""
2625;44656.5647207407;133.3;;""
2626;44656.5647208565;133.8;;""
2627;44656.5647209722;134.4;;""
2628;44656.564721088;134.7;;""
2629;44656.5647212037;135.2;;""
2630;44656.5647213194;135.6;;""
2631;44656.5647214352;135.9;;""
2632;44656.5647215509;136.5;;""
2633;44656.5647216667;137;;""
2634;44656.5647217824;137.4;;""
2635;44656.5647218981;138.2;;""
2636;44656.5647220139;138.4;;""
2637;44656.5647221296;138.7;;""
2638;44656.5647222454;139.3;;""
2639;44656.5647223611;139.6;;""
2640;44656.5647224769;140.2;;""
2641;44656.5647225926;140.5;;""
2642;44656.5647227083;141;;""
2643;44656.5647228241;141.6;;""
2644;44656.5647229398;141.9;;""
2645;44656.5647230556;142.4;;""
2646;44656.5647231713;142.7;;""
2647;44656.564723287;143.3;;""
2648;44656.5647234028;143.6;;""
2649;44656.5647235185;144.1;;""
2650;44656.5647236343;144.4;;""
2651;44656.56472375;144.9;;""
2652;44656.5647238657;145.2;;""
2653;44656.5647239815;145.8;;""
2654;44656.5647240972;146.1;;""
2655;44656.564724213;146.6;;""
2656;44656.5647243287;147;;""
2657;44656.5647244444;147.5;;""
2658;44656.5647245602;147.8;;""
2659;44656.5647246759;148.3;;""
2660;44656.5647247917;148.9;;""
2661;44656.5647249074;149.2;;""
2662;44656.5647250231;149.7;;""
2663;44656.5647251389;150;;""
2664;44656.5647252546;150.3;;""
2665;44656.5647253704;150.8;;""
2666;44656.5647254861;151.1;;""
2667;44656.5647256018;151.6;;""
2668;44656.5647257176;151.9;;""
2669;44656.5647258333;152.5;;""
2670;44656.5647259491;152.8;;""
2671;44656.5647260648;153.1;;""
2672;44656.5647261806;153.6;;""
2673;44656.5647262963;153.9;;""
2674;44656.564726412;154.5;;""
2675;44656.5647265278;154.8;;""
2676;44656.5647266435;155.1;;""
2677;44656.5647267593;155.7;;""
2678;44656.564726875;155.9;;""
2679;44656.5647269907;156.3;;""
2680;44656.5647271065;156.8;;""
2681;44656.5647272222;157.1;;""
2682;44656.564727338;157.7;;""
2683;44656.5647274537;157.9;;""
2684;44656.5647275694;158.2;;""
2685;44656.5647276852;158.8;;""
2686;44656.5647278009;159.1;;""
2687;44656.5647279167;159.4;;""
2688;44656.5647280324;159.9;;""
2689;44656.5647281482;160.2;;""
2690;44656.5647282639;160.7;;""
2691;44656.5647283796;161;;""
2692;44656.5647284954;161.3;;""
2693;44656.5647286111;161.9;;""
2694;44656.5647287269;162.2;;""
2695;44656.5647288426;162.5;;""
2696;44656.5647289583;162.8;;""
2697;44656.5647290741;163.3;;""
2698;44656.5647291898;163.6;;""
2699;44656.5647293056;164.2;;""
2700;44656.5647294213;164.5;;""
2701;44656.564729537;164.8;;""
2702;44656.5647296528;165.1;;""
2703;44656.5647297685;165.6;;""
2704;44656.5647298843;165.9;;""
2705;44656.56473;166.2;;""
2706;44656.5647301157;166.8;;""
2707;44656.5647302315;167.1;;""
2708;44656.5647303472;167.3;;""
2709;44656.564730463;167.9;;""
2710;44656.5647305787;168.2;;""
2711;44656.5647306944;168.5;;""
2712;44656.5647308102;168.8;;""
2713;44656.5647309259;169.3;;""
2714;44656.5647310417;169.6;;""
2715;44656.5647311574;170;;""
2716;44656.5647312731;170.3;;""
2717;44656.5647313889;170.9;;""
2718;44656.5647315046;171.1;;""
2719;44656.5647316204;171.4;;""
2720;44656.5647317361;171.8;;""
2721;44656.5647318519;172;;""
2722;44656.5647319676;172.6;;""
2723;44656.5647320833;172.9;;""
2724;44656.5647321991;173.2;;""
2725;44656.5647323148;173.7;;""
2726;44656.5647324306;174;;""
2727;44656.5647325463;174.3;;""
2728;44656.564732662;174.6;;""
2729;44656.5647327778;174.9;;""
2730;44656.5647328935;175.4;;""
2731;44656.5647330093;175.7;;""
2732;44656.564733125;176;;""
2733;44656.5647332407;176.3;;""
2734;44656.5647333565;176.9;;""
2735;44656.5647334722;177.1;;""
2736;44656.564733588;177.4;;""
2737;44656.5647337037;178;;""
2738;44656.5647338194;178.2;;""
2739;44656.5647339352;178.5;;""
2740;44656.5647340509;178.8;;""
2741;44656.5647341667;179.1;;""
2742;44656.5647342824;179.4;;""
2743;44656.5647343981;180;;""
2744;44656.5647345139;180.3;;""
2745;44656.5647346296;180.5;;""
2746;44656.5647347454;180.8;;""
2747;44656.5647348611;181.1;;""
2748;44656.5647349769;181.4;;""
2749;44656.5647350926;182;;""
2750;44656.5647352083;182.3;;""
2751;44656.5647353241;182.6;;""
2752;44656.5647354398;182.8;;""
2753;44656.5647355556;183.1;;""
2754;44656.5647356713;183.4;;""
2755;44656.564735787;183.7;;""
2756;44656.5647359028;183.8;;""
2757;44656.5647360185;183.8;;""
2758;44656.5647361343;183.2;;""
2759;44656.56473625;180.8;;""
2760;44656.5647363657;172;;""
2761;44656.5647364815;149.7;;""
2762;44656.5647365972;127.1;;""
2763;44656.564736713;122.7;;""
2764;44656.5647368287;127.1;;""
2765;44656.5647369444;126.9;;""
2766;44656.5647370602;124;;""
2767;44656.5647371759;123.1;;""
2768;44656.5647372917;123.1;;""
2769;44656.5647374074;122.8;;""
2770;44656.5647375231;122;;""
2771;44656.5647376389;121.5;;""
2772;44656.5647377546;121.2;;""
2773;44656.5647378704;120.6;;""
2774;44656.5647379861;120;;""
2775;44656.5647381019;119.5;;""
2776;44656.5647382176;119.2;;""
2777;44656.5647383333;118.6;;""
2778;44656.5647384491;116.2;;""
2779;44656.5647385648;109.9;;""
2780;44656.5647386806;113.1;;""
2781;44656.5647387963;114.2;;""
2782;44656.564738912;115.7;;""
2783;44656.5647390278;115.2;;""
2784;44656.5647391435;115.2;;""
2785;44656.5647392593;115.2;;""
2786;44656.564739375;114.6;;""
2787;44656.5647394907;114.3;;""
2788;44656.5647396065;114.3;;""
2789;44656.5647397222;114.4;;""
2790;44656.564739838;114.4;;""
2791;44656.5647399537;113.8;;""
2792;44656.5647400694;113.3;;""
2793;44656.5647401852;113.2;;""
2794;44656.5647403009;113;;""
2795;44656.5647404167;112.7;;""
2796;44656.5647405324;112.6;;""
2797;44656.5647406482;112.3;;""
2798;44656.5647407639;112;;""
2799;44656.5647408796;111.7;;""
2800;44656.5647409954;111.2;;""
2801;44656.5647411111;111.2;;""
2802;44656.5647412269;111.1;;""
2803;44656.5647413426;111.1;;""
2804;44656.5647414583;110.8;;""
2805;44656.5647415741;110.5;;""
2806;44656.5647416898;110.2;;""
2807;44656.5647418056;110;;""
2808;44656.5647419213;109.7;;""
2809;44656.564742037;109.6;;""
2810;44656.5647421528;109.3;;""
2811;44656.5647422685;109.3;;""
2812;44656.5647423843;109;;""
2813;44656.5647425;108.7;;""
2814;44656.5647426157;108.5;;""
2815;44656.5647427315;108.4;;""
2816;44656.5647428472;108.1;;""
2817;44656.564742963;108.1;;""
2818;44656.5647430787;107.8;;""
2819;44656.5647431944;107.3;;""
2820;44656.5647433102;107.3;;""
2821;44656.5647434259;107.6;;""
2822;44656.5647435417;106.8;;""
2823;44656.5647436574;106.8;;""
2824;44656.5647437731;106.8;;""
2825;44656.5647438889;106.5;;""
2826;44656.5647440046;106.5;;""
2827;44656.5647441204;106.2;;""
2828;44656.5647442361;105.9;;""
2829;44656.5647443519;105.9;;""
2830;44656.5647444676;105.9;;""
2831;44656.5647445833;105.6;;""
2832;44656.5647446991;105.6;;""
2833;44656.5647448148;105.3;;""
2834;44656.5647449306;105;;""
2835;44656.5647450463;105;;""
2836;44656.564745162;104.7;;""
2837;44656.5647452778;104.7;;""
2838;44656.5647453935;104.4;;""
2839;44656.5647455093;104.4;;""
2840;44656.564745625;104.3;;""
2841;44656.5647457407;104;;""
2842;44656.5647458565;104;;""
2843;44656.5647459722;103.9;;""
2844;44656.564746088;103.7;;""
2845;44656.5647462037;103.6;;""
2846;44656.5647463194;103.3;;""
2847;44656.5647464352;103.3;;""
2848;44656.5647465509;103;;""
2849;44656.5647466667;103;;""
2850;44656.5647467824;102.7;;""
2851;44656.5647468981;102.7;;""
2852;44656.5647470139;102.6;;""
2853;44656.5647471296;102.4;;""
2854;44656.5647472454;102.3;;""
2855;44656.5647473611;102;;""
2856;44656.5647474768;102;;""
2857;44656.5647475926;102;;""
2858;44656.5647477083;101.7;;""
2859;44656.5647478241;101.6;;""
2860;44656.5647479398;101.3;;""
2861;44656.5647480556;101.3;;""
2862;44656.5647481713;101.3;;""
2863;44656.564748287;101;;""
2864;44656.5647484028;101;;""
2865;44656.5647485185;100.6;;""
2866;44656.5647486343;100.6;;""
2867;44656.56474875;100.3;;""
2868;44656.5647488657;100.1;;""
2869;44656.5647489815;100;;""
2870;44656.5647490972;100;;""
2871;44656.564749213;99.7;;""
2872;44656.5647493287;99.4;;""
2873;44656.5647494444;99.1;;""
2874;44656.5647495602;98.8;;""
2875;44656.5647496759;98.3;;""
2876;44656.5647497917;97.4;;""
2877;44656.5647499074;96;;""
2878;44656.5647500232;93.4;;""
2879;44656.5647501389;88.5;;""
2880;44656.5647502546;84.8;;""
2881;44656.5647503704;84;;""
2882;44656.5647504861;102.7;;""
2883;44656.5647506019;119.9;;""
2884;44656.5647507176;125.2;;""
2885;44656.5647508333;123.6;;""
2886;44656.5647509491;122.3;;""
2887;44656.5647510648;123.1;;""
2888;44656.5647511806;124.5;;""
2889;44656.5647512963;125.4;;""
2890;44656.564751412;125.7;;""
2891;44656.5647515278;126.3;;""
2892;44656.5647516435;127.1;;""
2893;44656.5647517593;127.9;;""
2894;44656.564751875;128.5;;""
2895;44656.5647519907;129;;""
2896;44656.5647521065;129.6;;""
2897;44656.5647522222;130.1;;""
2898;44656.564752338;130.7;;""
2899;44656.5647524537;131.3;;""
2900;44656.5647525694;131.5;;""
2901;44656.5647526852;132.1;;""
2902;44656.5647528009;132.7;;""
2903;44656.5647529167;133.2;;""
2904;44656.5647530324;133.8;;""
2905;44656.5647531481;134.1;;""
2906;44656.5647532639;134.6;;""
2907;44656.5647533796;135.2;;""
2908;44656.5647534954;135.5;;""
2909;44656.5647536111;136;;""
2910;44656.5647537269;136.3;;""
2911;44656.5647538426;136.9;;""
2912;44656.5647539583;137.4;;""
2913;44656.5647540741;137.7;;""
2914;44656.5647541898;138.3;;""
2915;44656.5647543056;138.6;;""
2916;44656.5647544213;138.9;;""
2917;44656.564754537;139.4;;""
2918;44656.5647546528;140;;""
2919;44656.5647547685;140.3;;""
2920;44656.5647548843;140.9;;""
2921;44656.564755;141.1;;""
2922;44656.5647551157;141.7;;""
2923;44656.5647552315;142;;""
2924;44656.5647553472;142.6;;""
2925;44656.564755463;142.8;;""
2926;44656.5647555787;143.4;;""
2927;44656.5647556944;143.7;;""
2928;44656.5647558102;144;;""
2929;44656.5647559259;144.5;;""
2930;44656.5647560417;145.1;;""
2931;44656.5647561574;145.4;;""
2932;44656.5647562731;145.6;;""
2933;44656.5647563889;146.2;;""
2934;44656.5647565046;146.7;;""
2935;44656.5647566204;147;;""
2936;44656.5647567361;147.3;;""
2937;44656.5647568519;147.6;;""
2938;44656.5647569676;148.2;;""
2939;44656.5647570833;148.5;;""
2940;44656.5647571991;149;;""
2941;44656.5647573148;149.3;;""
2942;44656.5647574306;149.6;;""
2943;44656.5647575463;150.1;;""
2944;44656.564757662;150.4;;""
2945;44656.5647577778;151;;""
2946;44656.5647578935;151.3;;""
2947;44656.5647580093;151.6;;""
2948;44656.564758125;152.2;;""
2949;44656.5647582407;152.5;;""
2950;44656.5647583565;152.8;;""
2951;44656.5647584722;153.4;;""
2952;44656.564758588;153.7;;""
2953;44656.5647587037;153.8;;""
2954;44656.5647588194;154.3;;""
2955;44656.5647589352;154.9;;""
2956;44656.5647590509;154.9;;""
2957;44656.5647591667;155.5;;""
2958;44656.5647592824;156;;""
2959;44656.5647593981;156.3;;""
2960;44656.5647595139;156.6;;""
2961;44656.5647596296;157.2;;""
2962;44656.5647597454;157.5;;""
2963;44656.5647598611;157.7;;""
2964;44656.5647599768;158.1;;""
2965;44656.5647600926;158.6;;""
2966;44656.5647602083;158.7;;""
2967;44656.5647603241;159.2;;""
2968;44656.5647604398;159.5;;""
