%!PS-Adobe-3.0 EPSF-3.0
%%DocumentNeededResources: font Helvetica
%%+ font Helvetica-Bold
%%+ font Helvetica-Oblique
%%+ font Helvetica-BoldOblique
%%+ font Symbol
%%Title: R Graphics Output
%%Creator: R Software
%%Pages: (atend)
%%BoundingBox: 0 0 540 540
%%EndComments
%%BeginProlog
/bp  { gs sRGB gs } def
% begin .ps.prolog
/gs  { gsave } bind def
/gr  { grestore } bind def
/ep  { showpage gr gr } bind def
/m   { moveto } bind def
/l  { rlineto } bind def
/np  { newpath } bind def
/cp  { closepath } bind def
/f   { fill } bind def
/o   { stroke } bind def
/c   { newpath 0 360 arc } bind def
/r   { 4 2 roll moveto 1 copy 3 -1 roll exch 0 exch rlineto 0 rlineto -1 mul 0 exch rlineto closepath } bind def
/p1  { stroke } bind def
/p2  { gsave bg fill grestore newpath } bind def
/p3  { gsave bg fill grestore stroke } bind def
/p6  { gsave bg eofill grestore newpath } bind def
/p7  { gsave bg eofill grestore stroke } bind def
/t   { 5 -2 roll moveto gsave rotate
       1 index stringwidth pop
       mul neg 0 rmoveto show grestore } bind def
/ta  { 4 -2 roll moveto gsave rotate show } bind def
/tb  { 2 -1 roll 0 rmoveto show } bind def
/cl  { grestore gsave newpath 3 index 3 index moveto 1 index
       4 -1 roll lineto  exch 1 index lineto lineto
       closepath clip newpath } bind def
/rgb { setrgbcolor } bind def
/s   { scalefont setfont } bind def
% end   .ps.prolog
/sRGB { [ /CIEBasedABC
          << /DecodeLMN
               [ { dup 0.03928 le
                        {12.92321 div}
                        {0.055 add 1.055 div 2.4 exp }
                     ifelse
                 } bind dup dup
               ]
             /MatrixLMN [0.412457 0.212673 0.019334
                         0.357576 0.715152 0.119192
                         0.180437 0.072175 0.950301]
             /WhitePoint [0.9505 1.0 1.0890]
           >>
         ] setcolorspace } bind def
/srgb { setcolor } bind def
% begin encoding
/WinAnsiEncoding [
 /.notdef /.notdef /.notdef /.notdef /.notdef /.notdef /.notdef /.notdef
 /.notdef /.notdef /.notdef /.notdef /.notdef /.notdef /.notdef /.notdef
 /.notdef /.notdef /.notdef /.notdef /.notdef /.notdef /.notdef /.notdef
 /.notdef /.notdef /.notdef /.notdef /.notdef /.notdef /.notdef /.notdef
 /space /exclam /quotedbl /numbersign /dollar /percent /ampersand /quoteright
 /parenleft /parenright /asterisk /plus /comma /minus /period /slash
 /zero /one /two /three /four /five /six /seven
 /eight /nine /colon /semicolon /less /equal /greater /question
 /at /A /B /C /D /E /F /G
 /H /I /J /K /L /M /N /O
 /P /Q /R /S /T /U /V /W
 /X /Y /Z /bracketleft /backslash /bracketright /asciicircum /underscore
 /grave /a /b /c /d /e /f /g
 /h /i /j /k /l /m /n /o
 /p /q /r /s /t /u /v /w
 /x /y /z /braceleft /bar /braceright /asciitilde /.notdef
 /Euro /.notdef /quotesinglbase /florin /quotedblbase /ellipsis /dagger /daggerdbl
 /circumflex /perthousand /Scaron /guilsinglleft /OE /.notdef /Zcaron /.notdef
 /.notdef /quoteleft /quoteright /quotedblleft /quotedblright /bullet /endash /emdash
 /tilde /trademark /scaron /guilsinglright /oe /.notdef /zcaron /Ydieresis
 /space /exclamdown /cent /sterling /currency /yen /brokenbar /section
 /dieresis /copyright /ordfeminine /guillemotleft /logicalnot /hyphen /registered /macron
 /degree /plusminus /twosuperior /threesuperior /acute /mu /paragraph /periodcentered
 /cedilla /onesuperior /ordmasculine /guillemotright /onequarter /onehalf /threequarters /questiondown
 /Agrave /Aacute /Acircumflex /Atilde /Adieresis /Aring /AE /Ccedilla
 /Egrave /Eacute /Ecircumflex /Edieresis /Igrave /Iacute /Icircumflex /Idieresis
 /Eth /Ntilde /Ograve /Oacute /Ocircumflex /Otilde /Odieresis /multiply
 /Oslash /Ugrave /Uacute /Ucircumflex /Udieresis /Yacute /Thorn /germandbls
 /agrave /aacute /acircumflex /atilde /adieresis /aring /ae /ccedilla
 /egrave /eacute /ecircumflex /edieresis /igrave /iacute /icircumflex /idieresis
 /eth /ntilde /ograve /oacute /ocircumflex /otilde /odieresis /divide
 /oslash /ugrave /uacute /ucircumflex /udieresis /yacute /thorn /ydieresis
]
 def
% end encoding
%%IncludeResource: font Helvetica
/Helvetica findfont
dup length dict begin
  {1 index /FID ne {def} {pop pop} ifelse} forall
  /Encoding WinAnsiEncoding def
  currentdict
  end
/Font1 exch definefont pop
%%IncludeResource: font Helvetica-Bold
/Helvetica-Bold findfont
dup length dict begin
  {1 index /FID ne {def} {pop pop} ifelse} forall
  /Encoding WinAnsiEncoding def
  currentdict
  end
/Font2 exch definefont pop
%%IncludeResource: font Helvetica-Oblique
/Helvetica-Oblique findfont
dup length dict begin
  {1 index /FID ne {def} {pop pop} ifelse} forall
  /Encoding WinAnsiEncoding def
  currentdict
  end
/Font3 exch definefont pop
%%IncludeResource: font Helvetica-BoldOblique
/Helvetica-BoldOblique findfont
dup length dict begin
  {1 index /FID ne {def} {pop pop} ifelse} forall
  /Encoding WinAnsiEncoding def
  currentdict
  end
/Font4 exch definefont pop
%%IncludeResource: font Symbol
/Symbol findfont
dup length dict begin
  {1 index /FID ne {def} {pop pop} ifelse} forall
  currentdict
  end
/Font5 exch definefont pop
%%EndProlog
%%Page: 1 1
bp
0.00 0.00 540.00 540.00 cl
0 0 0 srgb
0.75 setlinewidth
[] 0 setdash
1 setlinecap
1 setlinejoin
10.00 setmiterlimit
np
59.04 114.54 m
0 330.14 l
o
np
59.04 114.54 m
-7.20 0 l
o
np
59.04 169.56 m
-7.20 0 l
o
np
59.04 224.59 m
-7.20 0 l
o
np
59.04 279.61 m
-7.20 0 l
o
np
59.04 334.63 m
-7.20 0 l
o
np
59.04 389.65 m
-7.20 0 l
o
np
59.04 444.68 m
-7.20 0 l
o
/Font1 findfont 12 s
44.64 110.23 (0.2) 1 0 t
44.64 165.25 (0.3) 1 0 t
44.64 220.28 (0.4) 1 0 t
44.64 275.30 (0.5) 1 0 t
44.64 330.32 (0.6) 1 0 t
44.64 385.35 (0.7) 1 0 t
44.64 440.37 (0.8) 1 0 t
np
 59.04 73.44 m
450.72 0 l
0 407.52 l
-450.72 0 l
cp p1
0.00 0.00 540.00 540.00 cl
/Font1 findfont 12 s
0 0 0 srgb
269.81 21.40 (c) 0 0 t
0.75 setlinewidth
[] 0 setdash
1 setlinecap
1 setlinejoin
10.00 setmiterlimit
np
277.38 19.88 m
3.14 11.65 l
o
/Font5 findfont 12 s
282.08 21.40 (m) 0 0 t
/Font1 findfont 12 s
289.00 21.40 (M) 0 0 t
12.96 273.20 (A) 0 90 t
0.00 0.00 540.00 540.00 cl
0 0 0 srgb
0.75 setlinewidth
[] 0 setdash
1 setlinecap
1 setlinejoin
10.00 setmiterlimit
np
108.15 73.44 m
387.28 0 l
o
np
108.15 73.44 m
0 -7.20 l
o
np
172.70 73.44 m
0 -7.20 l
o
np
237.24 73.44 m
0 -7.20 l
o
np
301.79 73.44 m
0 -7.20 l
o
np
366.34 73.44 m
0 -7.20 l
o
np
430.89 73.44 m
0 -7.20 l
o
np
495.43 73.44 m
0 -7.20 l
o
/Font1 findfont 12 s
108.15 47.52 (2) .5 0 t
172.70 47.52 (3) .5 0 t
237.24 47.52 (4) .5 0 t
301.79 47.52 (5) .5 0 t
366.34 47.52 (6) .5 0 t
430.89 47.52 (7) .5 0 t
495.43 47.52 (8) .5 0 t
59.04 73.44 509.76 480.96 cl
0.8275 0.8275 0.8275 srgb
0.75 setlinewidth
[ 0.00 3.00] 0 setdash
1 setlinecap
1 setlinejoin
10.00 setmiterlimit
np
108.15 73.44 m
0 407.52 l
o
np
172.70 73.44 m
0 407.52 l
o
np
237.24 73.44 m
0 407.52 l
o
np
301.79 73.44 m
0 407.52 l
o
np
366.34 73.44 m
0 407.52 l
o
np
430.89 73.44 m
0 407.52 l
o
np
495.43 73.44 m
0 407.52 l
o
np
59.04 114.54 m
450.72 0 l
o
np
59.04 169.56 m
450.72 0 l
o
np
59.04 224.59 m
450.72 0 l
o
np
59.04 279.61 m
450.72 0 l
o
np
59.04 334.63 m
450.72 0 l
o
np
59.04 389.65 m
450.72 0 l
o
np
59.04 444.68 m
450.72 0 l
o
0 0 0 srgb
0.75 setlinewidth
[] 0 setdash
np
59.04 71.42 m
450.72 427.85 l
o
79.09 89.08 2.70 c p1
179.13 192.37 2.70 c p1
279.17 279.22 2.70 c p1
379.20 372.72 2.70 c p1
479.24 465.32 2.70 c p1
np
79.09 88.53 m
0 1.10 l
o
np
75.49 88.53 m
3.60 0 l
3.60 0 l
o
np
82.69 89.63 m
-3.60 0 l
-3.60 0 l
o
np
179.13 191.82 m
0 1.10 l
o
np
175.53 191.82 m
3.60 0 l
3.60 0 l
o
np
182.73 192.92 m
-3.60 0 l
-3.60 0 l
o
np
279.17 278.67 m
0 1.10 l
o
np
275.57 278.67 m
3.60 0 l
3.60 0 l
o
np
282.77 279.77 m
-3.60 0 l
-3.60 0 l
o
np
379.20 372.17 m
0 1.10 l
o
np
375.60 372.17 m
3.60 0 l
3.60 0 l
o
np
382.80 373.27 m
-3.60 0 l
-3.60 0 l
o
np
479.24 464.77 m
0 1.10 l
o
np
475.64 464.77 m
3.60 0 l
3.60 0 l
o
np
482.84 465.87 m
-3.60 0 l
-3.60 0 l
o
np
69.76 89.08 m
18.66 0 l
o
np
69.76 92.68 m
0 -3.60 l
0 -3.60 l
o
np
88.42 85.48 m
0 3.60 l
0 3.60 l
o
np
161.98 192.37 m
34.30 0 l
o
np
161.98 195.97 m
0 -3.60 l
0 -3.60 l
o
np
196.28 188.77 m
0 3.60 l
0 3.60 l
o
np
255.19 279.22 m
47.95 0 l
o
np
255.19 282.82 m
0 -3.60 l
0 -3.60 l
o
np
303.14 275.62 m
0 3.60 l
0 3.60 l
o
np
348.09 372.72 m
62.23 0 l
o
np
348.09 376.32 m
0 -3.60 l
0 -3.60 l
o
np
410.32 369.12 m
0 3.60 l
0 3.60 l
o
np
440.86 465.32 m
76.77 0 l
o
np
440.86 468.92 m
0 -3.60 l
0 -3.60 l
o
np
517.63 461.72 m
0 3.60 l
0 3.60 l
o
ep
%%Trailer
%%Pages: 1
%%EOF
