%!PS-Adobe-3.0 EPSF-3.0
%%DocumentNeededResources: font Helvetica
%%+ font Helvetica-Bold
%%+ font Helvetica-Oblique
%%+ font Helvetica-BoldOblique
%%+ font Symbol
%%Title: R Graphics Output
%%Creator: R Software
%%Pages: (atend)
%%BoundingBox: 0 0 432 576
%%EndComments
%%BeginProlog
/bp  { gs sRGB gs } def
% begin .ps.prolog
/gs  { gsave } bind def
/gr  { grestore } bind def
/ep  { showpage gr gr } bind def
/m   { moveto } bind def
/l  { rlineto } bind def
/np  { newpath } bind def
/cp  { closepath } bind def
/f   { fill } bind def
/o   { stroke } bind def
/c   { newpath 0 360 arc } bind def
/r   { 4 2 roll moveto 1 copy 3 -1 roll exch 0 exch rlineto 0 rlineto -1 mul 0 exch rlineto closepath } bind def
/p1  { stroke } bind def
/p2  { gsave bg fill grestore newpath } bind def
/p3  { gsave bg fill grestore stroke } bind def
/p6  { gsave bg eofill grestore newpath } bind def
/p7  { gsave bg eofill grestore stroke } bind def
/t   { 5 -2 roll moveto gsave rotate
       1 index stringwidth pop
       mul neg 0 rmoveto show grestore } bind def
/ta  { 4 -2 roll moveto gsave rotate show } bind def
/tb  { 2 -1 roll 0 rmoveto show } bind def
/cl  { grestore gsave newpath 3 index 3 index moveto 1 index
       4 -1 roll lineto  exch 1 index lineto lineto
       closepath clip newpath } bind def
/rgb { setrgbcolor } bind def
/s   { scalefont setfont } bind def
% end   .ps.prolog
/sRGB { [ /CIEBasedABC
          << /DecodeLMN
               [ { dup 0.03928 le
                        {12.92321 div}
                        {0.055 add 1.055 div 2.4 exp }
                     ifelse
                 } bind dup dup
               ]
             /MatrixLMN [0.412457 0.212673 0.019334
                         0.357576 0.715152 0.119192
                         0.180437 0.072175 0.950301]
             /WhitePoint [0.9505 1.0 1.0890]
           >>
         ] setcolorspace } bind def
/srgb { setcolor } bind def
% begin encoding
/WinAnsiEncoding [
 /.notdef /.notdef /.notdef /.notdef /.notdef /.notdef /.notdef /.notdef
 /.notdef /.notdef /.notdef /.notdef /.notdef /.notdef /.notdef /.notdef
 /.notdef /.notdef /.notdef /.notdef /.notdef /.notdef /.notdef /.notdef
 /.notdef /.notdef /.notdef /.notdef /.notdef /.notdef /.notdef /.notdef
 /space /exclam /quotedbl /numbersign /dollar /percent /ampersand /quoteright
 /parenleft /parenright /asterisk /plus /comma /minus /period /slash
 /zero /one /two /three /four /five /six /seven
 /eight /nine /colon /semicolon /less /equal /greater /question
 /at /A /B /C /D /E /F /G
 /H /I /J /K /L /M /N /O
 /P /Q /R /S /T /U /V /W
 /X /Y /Z /bracketleft /backslash /bracketright /asciicircum /underscore
 /grave /a /b /c /d /e /f /g
 /h /i /j /k /l /m /n /o
 /p /q /r /s /t /u /v /w
 /x /y /z /braceleft /bar /braceright /asciitilde /.notdef
 /Euro /.notdef /quotesinglbase /florin /quotedblbase /ellipsis /dagger /daggerdbl
 /circumflex /perthousand /Scaron /guilsinglleft /OE /.notdef /Zcaron /.notdef
 /.notdef /quoteleft /quoteright /quotedblleft /quotedblright /bullet /endash /emdash
 /tilde /trademark /scaron /guilsinglright /oe /.notdef /zcaron /Ydieresis
 /space /exclamdown /cent /sterling /currency /yen /brokenbar /section
 /dieresis /copyright /ordfeminine /guillemotleft /logicalnot /hyphen /registered /macron
 /degree /plusminus /twosuperior /threesuperior /acute /mu /paragraph /periodcentered
 /cedilla /onesuperior /ordmasculine /guillemotright /onequarter /onehalf /threequarters /questiondown
 /Agrave /Aacute /Acircumflex /Atilde /Adieresis /Aring /AE /Ccedilla
 /Egrave /Eacute /Ecircumflex /Edieresis /Igrave /Iacute /Icircumflex /Idieresis
 /Eth /Ntilde /Ograve /Oacute /Ocircumflex /Otilde /Odieresis /multiply
 /Oslash /Ugrave /Uacute /Ucircumflex /Udieresis /Yacute /Thorn /germandbls
 /agrave /aacute /acircumflex /atilde /adieresis /aring /ae /ccedilla
 /egrave /eacute /ecircumflex /edieresis /igrave /iacute /icircumflex /idieresis
 /eth /ntilde /ograve /oacute /ocircumflex /otilde /odieresis /divide
 /oslash /ugrave /uacute /ucircumflex /udieresis /yacute /thorn /ydieresis
]
 def
% end encoding
%%IncludeResource: font Helvetica
/Helvetica findfont
dup length dict begin
  {1 index /FID ne {def} {pop pop} ifelse} forall
  /Encoding WinAnsiEncoding def
  currentdict
  end
/Font1 exch definefont pop
%%IncludeResource: font Helvetica-Bold
/Helvetica-Bold findfont
dup length dict begin
  {1 index /FID ne {def} {pop pop} ifelse} forall
  /Encoding WinAnsiEncoding def
  currentdict
  end
/Font2 exch definefont pop
%%IncludeResource: font Helvetica-Oblique
/Helvetica-Oblique findfont
dup length dict begin
  {1 index /FID ne {def} {pop pop} ifelse} forall
  /Encoding WinAnsiEncoding def
  currentdict
  end
/Font3 exch definefont pop
%%IncludeResource: font Helvetica-BoldOblique
/Helvetica-BoldOblique findfont
dup length dict begin
  {1 index /FID ne {def} {pop pop} ifelse} forall
  /Encoding WinAnsiEncoding def
  currentdict
  end
/Font4 exch definefont pop
%%IncludeResource: font Symbol
/Symbol findfont
dup length dict begin
  {1 index /FID ne {def} {pop pop} ifelse} forall
  currentdict
  end
/Font5 exch definefont pop
%%EndProlog
%%Page: 1 1
bp
/bg { 1 1 1 srgb } def
0.00 0.00 432.00 576.00 r p2
0.00 0.00 432.00 576.00 cl
0.00 0.00 432.00 576.00 cl
0.00 0.00 432.00 576.00 cl
/Font1 findfont 12 s
0 0 0 srgb
48.00 508.72 (PCP-ETH) 0 0 t
48.00 494.89 (Flash light photolysis) 0 0 t
/Font1 findfont 9 s
48.00 457.54 (File: Solv) 0 ta
-0.225 (ent_debendence_sol2_1_MSLM.dat) tb gr
48.00 334.87 (Sat Mar 05 15:06:29 2022) 0 0 t
48.00 430.87 (Fit function:  a + b * e) 0 ta
-0.270 (xp\(-c * t\)) tb gr
48.00 420.50 (t-Inter) 0 ta
0.270 (v) tb
-0.225 (all: 180.000 ... 10788.000 ms) tb gr
48.00 410.14 (P) 0 ta
-0.360 (ar) tb
-0.090 (ameters \(Standard de) tb
-0.270 (viation\):) tb gr
48.00 399.77 (  a = -0.00008 \(0.00025\)) 0 0 t
48.00 389.40 (  b = 0.30093 \(0.00057\)) 0 0 t
48.00 379.03 (  c = 4.238e-01 \(1.740e-03\) s^-1) 0 0 t
48.00 368.66 (  tau = 2.360e+00 \(9.688e-03\) s) 0 0 t
216.00 345.60 388.80 518.40 cl
0 0 0 srgb
0.75 setlinewidth
[] 0 setdash
1 setlinecap
1 setlinejoin
10.00 setmiterlimit
np
222.40 510.67 m
0.15 -0.92 l
0.14 0.23 l
0.15 -0.91 l
0.14 0.91 l
0.15 -0.23 l
0.14 -0.23 l
0.15 -0.91 l
0.14 2.28 l
0.15 -1.60 l
0.15 0.46 l
0.14 0.69 l
0.15 -1.83 l
0.14 0.68 l
0.15 0.92 l
0.14 -0.46 l
0.15 0.23 l
0.14 -0.69 l
0.15 0.46 l
0.15 -0.46 l
0.14 0.46 l
0.15 0.23 l
0.14 -0.23 l
0.15 -1.14 l
0.14 0.91 l
0.15 0 l
0.15 -0.45 l
0.14 1.14 l
0.15 0 l
0.14 0.46 l
0.15 -0.69 l
0.14 -0.23 l
0.15 -0.91 l
0.14 2.05 l
0.15 0 l
0.15 -0.91 l
0.14 1.14 l
0.15 -2.74 l
0.14 1.83 l
0.15 0 l
0.14 -0.69 l
0.15 0.23 l
0.14 -0.23 l
0.15 1.37 l
0.15 -1.82 l
0.14 1.14 l
0.15 0 l
0.14 -0.23 l
0.15 -0.69 l
0.14 2.02 l
0.15 -2.47 l
0.14 2.47 l
0.15 -1.56 l
0.15 0.46 l
0.14 -0.23 l
0.15 0.46 l
0.14 0.23 l
0.15 0.45 l
0.14 0.19 l
0.15 -2.02 l
0.15 0.92 l
0.14 0.23 l
0.15 -0.46 l
0.14 -0.46 l
0.15 1.37 l
0.14 -1.82 l
0.15 0.91 l
0.14 0.23 l
0.15 0.46 l
0.15 -0.23 l
0.14 -1.83 l
0.15 1.60 l
0.14 -0.46 l
0.15 1.37 l
0.14 -0.68 l
0.15 -2.06 l
0.14 2.74 l
0.15 -1.60 l
0.15 0.23 l
0.14 2.25 l
0.15 -1.79 l
0.14 -0.69 l
0.15 0.46 l
0.14 0 l
0.15 -0.23 l
0.14 -1.14 l
0.15 1.83 l
0.15 -1.37 l
0.14 0.91 l
0.15 -0.46 l
0.14 0.23 l
0.15 0.69 l
0.14 -1.60 l
0.15 0.45 l
0.15 0.92 l
0.14 -1.37 l
0.15 1.14 l
0.14 -0.23 l
0.15 -0.91 l
0.14 2.47 l
236.96 430.90 lineto
0.14 1.31 l
0.15 0.93 l
0.15 -0.68 l
0.14 1.83 l
0.15 -0.92 l
0.14 0.46 l
0.15 -0.91 l
0.14 2.05 l
0.15 -1.37 l
0.14 2.29 l
0.15 -0.92 l
0.15 1.15 l
0.14 -1.83 l
0.15 2.06 l
0.14 -1.15 l
0.15 1.37 l
0.14 0 l
0.15 0.69 l
0.14 -0.23 l
0.15 0.23 l
0.15 0.65 l
0.14 -0.88 l
0.15 1.79 l
0.14 -0.91 l
0.15 1.14 l
0.14 -1.14 l
0.15 1.14 l
0.15 -0.23 l
0.14 1.37 l
0.15 -0.68 l
0.14 2.06 l
0.15 -1.83 l
0.14 2.74 l
0.15 -2.74 l
0.14 1.14 l
0.15 -0.91 l
0.15 2.28 l
0.14 -0.68 l
0.15 1.14 l
0.14 0 l
0.15 0.91 l
0.14 -1.14 l
0.15 0.92 l
0.14 -0.69 l
0.15 2.25 l
0.15 -1.56 l
0.14 1.10 l
0.15 0.23 l
0.14 0.69 l
0.15 -0.92 l
0.14 1.37 l
0.15 -1.14 l
0.14 0.69 l
0.15 0.68 l
0.15 0.23 l
0.14 -1.14 l
0.15 2.28 l
0.14 0 l
0.15 0.69 l
0.14 -1.37 l
0.15 0.91 l
0.15 -1.14 l
0.14 1.60 l
0.15 0.23 l
0.14 0 l
0.15 -0.92 l
0.14 1.38 l
0.15 0.45 l
0.14 0.23 l
0.15 0.23 l
0.15 1.11 l
0.14 -0.88 l
0.15 0.88 l
0.14 0.45 l
0.15 0.23 l
0.14 -1.56 l
0.15 2.25 l
0.14 -1.37 l
0.15 1.60 l
0.15 -0.23 l
0.14 0.91 l
0.15 -1.14 l
0.14 0.23 l
0.15 0.68 l
0.14 0 l
0.15 0.69 l
0.14 -0.23 l
0.15 -0.46 l
0.15 0.69 l
0.14 -0.69 l
0.15 1.61 l
0.14 -0.46 l
0.15 -0.46 l
0.14 1.60 l
0.15 -0.23 l
0.15 0.92 l
0.14 1.33 l
0.15 -1.33 l
0.14 0.65 l
251.52 456.13 lineto
0.14 0.87 l
0.15 -1.10 l
0.14 0.65 l
0.15 0.22 l
0.15 -0.22 l
0.14 0 l
0.15 0.45 l
0.14 1.60 l
0.15 0 l
0.14 -0.91 l
0.15 0.91 l
0.14 0 l
0.15 0 l
0.15 0.46 l
0.14 -0.69 l
0.15 0.69 l
0.14 0.46 l
0.15 -0.23 l
0.14 -0.23 l
0.15 2.06 l
0.14 -0.92 l
0.15 0.23 l
0.15 -0.23 l
0.14 -0.22 l
0.15 0.68 l
0.14 2.02 l
0.15 -2.02 l
0.14 0.23 l
0.15 1.14 l
0.14 -1.14 l
0.15 2.48 l
0.15 -0.46 l
0.14 0 l
0.15 0.46 l
0.14 -1.11 l
0.15 1.34 l
0.14 -0.23 l
0.15 0.46 l
0.15 0.91 l
0.14 -0.69 l
0.15 0 l
0.14 0.23 l
0.15 -0.68 l
0.14 2.28 l
0.15 -0.68 l
0.14 -0.23 l
0.15 0.91 l
0.15 0.23 l
0.14 -0.68 l
0.15 -0.23 l
0.14 -0.23 l
0.15 0.91 l
0.14 -0.23 l
0.15 0.69 l
0.14 1.60 l
0.15 -1.14 l
0.15 0.46 l
0.14 0.68 l
0.15 -1.14 l
0.14 0.91 l
0.15 0.46 l
0.14 -0.23 l
0.15 -0.68 l
0.14 0.22 l
0.15 1.34 l
0.15 0.68 l
0.14 -0.22 l
0.15 -0.92 l
0.14 1.60 l
0.15 -0.91 l
0.14 -0.23 l
0.15 1.37 l
0.15 0.69 l
0.14 -0.69 l
0.15 -0.23 l
0.14 0 l
0.15 2.06 l
0.14 -1.37 l
0.15 -0.69 l
0.14 1.14 l
0.15 0.69 l
0.15 -0.23 l
0.14 1.15 l
0.15 -1.38 l
0.14 0.46 l
0.15 0.46 l
0.14 -0.23 l
0.15 1.60 l
0.14 -0.91 l
0.15 -0.23 l
0.15 0.91 l
0.14 -0.46 l
0.15 0.92 l
0.14 0.46 l
0.15 -0.92 l
0.14 0.46 l
0.15 1.10 l
0.14 -0.87 l
0.15 1.79 l
266.08 474.50 lineto
0.14 0.45 l
0.15 -0.22 l
0.14 -0.23 l
0.15 0.68 l
0.14 -0.87 l
0.15 0.87 l
0.15 0.23 l
0.14 0.46 l
0.15 1.37 l
0.14 -1.83 l
0.15 0.23 l
0.14 0.69 l
0.15 -0.69 l
0.14 0.91 l
0.15 0.46 l
0.15 -0.23 l
0.14 0.46 l
0.15 -0.46 l
0.14 0.46 l
0.15 0 l
0.14 1.37 l
0.15 -1.37 l
0.14 0.69 l
0.15 -0.23 l
0.15 0.23 l
0.14 1.14 l
0.15 -0.69 l
0.14 1.15 l
0.15 -0.69 l
0.14 -0.23 l
0.15 0.23 l
0.14 0.69 l
0.15 -0.23 l
0.15 -0.46 l
0.14 1.37 l
0.15 -1.14 l
0.14 0.69 l
0.15 -0.92 l
0.14 1.14 l
0.15 0 l
0.15 1.57 l
0.14 -0.92 l
0.15 0 l
0.14 1.37 l
0.15 -0.91 l
0.14 0.23 l
0.15 -0.46 l
0.14 -0.42 l
0.15 2.02 l
0.15 -1.60 l
0.14 1.60 l
0.15 -0.91 l
0.14 0.23 l
0.15 0.68 l
0.14 -1.37 l
0.15 1.83 l
0.14 -1.37 l
0.15 0.91 l
0.15 0.69 l
0.14 0 l
0.15 1.14 l
0.14 -1.83 l
0.15 -0.23 l
0.14 1.83 l
0.15 -0.68 l
0.14 1.37 l
0.15 -2.29 l
0.15 0.69 l
0.14 0.91 l
0.15 -1.14 l
0.14 2.29 l
0.15 -0.69 l
0.14 -1.14 l
0.15 2.06 l
0.15 0.45 l
0.14 -0.68 l
0.15 0.68 l
0.14 -0.68 l
0.15 -0.69 l
0.14 0.92 l
0.15 0.91 l
0.14 -0.23 l
0.15 0 l
0.15 -0.23 l
0.14 0 l
0.15 0 l
0.14 0 l
0.15 -0.45 l
0.14 1.79 l
0.15 -0.88 l
0.14 1.11 l
0.15 -0.23 l
0.15 0.68 l
0.14 -0.68 l
0.15 0.45 l
0.14 0 l
0.15 -1.10 l
0.14 1.33 l
0.15 -0.91 l
280.63 487.46 lineto
0.15 1.14 l
0.15 -1.14 l
0.14 0.68 l
0.15 0.69 l
0.14 -1.37 l
0.15 2.05 l
0.14 -0.68 l
0.15 -0.46 l
0.15 0.46 l
0.14 -0.92 l
0.15 1.83 l
0.14 -1.60 l
0.15 0 l
0.14 1.83 l
0.15 -0.46 l
0.14 0.23 l
0.15 1.37 l
0.15 -1.83 l
0.14 0 l
0.15 0.23 l
0.14 0.23 l
0.15 0.23 l
0.14 -0.69 l
0.15 1.61 l
0.14 -0.69 l
0.15 1.14 l
0.15 -0.91 l
0.14 0.91 l
0.15 1.38 l
0.14 -2.52 l
0.15 1.37 l
0.14 -1.14 l
0.15 0.46 l
0.14 0.22 l
0.15 0.69 l
0.15 0.23 l
0.14 -1.83 l
0.15 1.14 l
0.14 0.92 l
0.15 -0.92 l
0.14 0 l
0.15 0.46 l
0.14 0.23 l
0.15 0.69 l
0.15 -0.92 l
0.14 0.69 l
0.15 0.42 l
0.14 0.68 l
0.15 0.46 l
0.14 -1.33 l
0.15 0.64 l
0.15 0.69 l
0.14 0.23 l
0.15 -1.15 l
0.14 -0.22 l
0.15 0.68 l
0.14 -0.46 l
0.15 0.46 l
0.14 -1.56 l
0.15 2.71 l
0.15 0.45 l
0.14 -1.83 l
0.15 1.15 l
0.14 -1.60 l
0.15 0.68 l
0.14 0.69 l
0.15 -0.46 l
0.14 0.92 l
0.15 -1.38 l
0.15 0.46 l
0.14 1.14 l
0.15 0 l
0.14 0 l
0.15 0.46 l
0.14 -1.14 l
0.15 0.68 l
0.14 0.69 l
0.15 -1.14 l
0.15 1.37 l
0.14 -1.14 l
0.15 1.14 l
0.14 -0.23 l
0.15 -0.69 l
0.14 1.15 l
0.15 -0.92 l
0.15 0.69 l
0.14 0.23 l
0.15 -0.46 l
0.14 1.83 l
0.15 -2.06 l
0.14 0.69 l
0.15 0.23 l
0.14 0 l
0.15 0.45 l
0.15 -0.68 l
0.14 2.06 l
0.15 -2.75 l
0.14 1.60 l
0.15 0.69 l
295.19 496.79 lineto
0.15 0.92 l
0.14 -1.15 l
0.15 0.23 l
0.15 0 l
0.14 1.60 l
0.15 -1.60 l
0.14 1.60 l
0.15 -1.60 l
0.14 1.83 l
0.15 -0.91 l
0.14 0.68 l
0.15 0.23 l
0.15 -0.45 l
0.14 0 l
0.15 0.68 l
0.14 -1.60 l
0.15 1.37 l
0.14 0.23 l
0.15 0 l
0.15 0 l
0.14 -1.14 l
0.15 1.56 l
0.14 -0.42 l
0.15 0.88 l
0.14 -0.69 l
0.15 -0.65 l
0.14 1.80 l
0.15 0.22 l
0.15 -2.47 l
0.14 2.47 l
0.15 -1.79 l
0.14 1.11 l
0.15 -1.34 l
0.14 1.11 l
0.15 0 l
0.14 1.14 l
0.15 -1.37 l
0.15 0.69 l
0.14 -0.69 l
0.15 -1.10 l
0.14 1.56 l
0.15 -0.46 l
0.14 0.92 l
0.15 0.45 l
0.14 -1.14 l
0.15 -0.23 l
0.15 1.60 l
0.14 0.46 l
0.15 -2.29 l
0.14 1.15 l
0.15 0.22 l
0.14 -0.91 l
0.15 2.29 l
0.15 -1.15 l
0.14 0 l
0.15 -0.45 l
0.14 -0.23 l
0.15 0.68 l
0.14 -0.45 l
0.15 -0.46 l
0.14 -0.46 l
0.15 0.92 l
0.15 0.91 l
0.14 0.46 l
0.15 -0.69 l
0.14 0.46 l
0.15 0.46 l
0.14 -0.46 l
0.15 -1.14 l
0.14 1.37 l
0.15 -0.69 l
0.15 0.69 l
0.14 0 l
0.15 -0.23 l
0.14 0 l
0.15 1.37 l
0.14 -2.06 l
0.15 0.69 l
0.14 0.23 l
0.15 0.91 l
0.15 -0.23 l
0.14 -1.37 l
0.15 1.83 l
0.14 -0.69 l
0.15 0.46 l
0.14 0.92 l
0.15 -1.15 l
0.15 -0.23 l
0.14 0 l
0.15 0.23 l
0.14 0.69 l
0.15 -0.69 l
0.14 0 l
0.15 -0.23 l
0.14 0 l
0.15 1.15 l
0.15 -0.46 l
0.14 -0.23 l
0.15 0.92 l
309.75 502.70 lineto
0.15 0.46 l
0.14 0.91 l
0.15 -2.51 l
0.14 2.74 l
0.15 -1.60 l
0.15 1.83 l
0.14 -1.83 l
0.15 -0.46 l
0.14 0.92 l
0.15 0.91 l
0.14 -0.45 l
0.15 0.22 l
0.14 -1.37 l
0.15 0.69 l
0.15 0.91 l
0.14 -1.37 l
0.15 1.14 l
0.14 -0.68 l
0.15 0.23 l
0.14 -0.23 l
0.15 0 l
0.15 0.91 l
0.14 0 l
0.15 -1.60 l
0.14 2.29 l
0.15 -0.92 l
0.14 -0.22 l
0.15 0.91 l
0.14 0 l
0.15 -0.69 l
0.15 0.23 l
0.14 -1.83 l
0.15 2.06 l
0.14 0.69 l
0.15 -1.15 l
0.14 -1.14 l
0.15 0.92 l
0.14 1.14 l
0.15 0 l
0.15 -0.23 l
0.14 0 l
0.15 0.23 l
0.14 -0.46 l
0.15 1.56 l
0.14 -0.68 l
0.15 -1.56 l
0.14 0.22 l
0.15 0.46 l
0.15 1.11 l
0.14 -0.88 l
0.15 -0.69 l
0.14 0 l
0.15 1.15 l
0.14 1.56 l
0.15 -1.56 l
0.15 0.87 l
0.14 -0.45 l
0.15 0.23 l
0.14 -0.23 l
0.15 -0.65 l
0.14 1.56 l
0.15 -1.79 l
0.14 -0.46 l
0.15 0.92 l
0.15 -0.23 l
0.14 0.42 l
0.15 -2.02 l
0.14 2.48 l
0.15 -0.46 l
0.14 0.23 l
0.15 -0.23 l
0.14 -0.65 l
0.15 0.46 l
0.15 -0.23 l
0.14 1.10 l
0.15 -1.10 l
0.14 0.23 l
0.15 -0.46 l
0.14 -0.23 l
0.15 1.79 l
0.14 -0.45 l
0.15 -1.34 l
0.15 1.11 l
0.14 -1.34 l
0.15 0.46 l
0.14 1.56 l
0.15 -1.10 l
0.14 0.87 l
0.15 -1.79 l
0.14 2.94 l
0.15 -1.37 l
0.15 0.45 l
0.14 0.69 l
0.15 -0.92 l
0.14 0.69 l
0.15 -0.91 l
0.14 0.45 l
0.15 -0.23 l
0.15 0 l
324.31 504.30 lineto
0.15 1.11 l
0.14 1.14 l
0.15 2.06 l
0.14 -2.97 l
0.15 -1.34 l
0.14 0.88 l
0.15 0.91 l
0.15 1.83 l
0.14 -0.23 l
0.15 -4.30 l
0.14 0 l
0.15 0.45 l
0.14 1.80 l
0.15 5.03 l
0.14 -4.12 l
0.15 -2.71 l
0.15 -0.91 l
0.14 2.48 l
0.15 2.51 l
0.14 2.75 l
0.15 -4.81 l
0.14 -2.70 l
0.15 1.60 l
0.14 1.56 l
0.15 1.14 l
0.15 0.23 l
0.14 -2.93 l
0.15 -0.69 l
0.14 2.71 l
0.15 -2.02 l
0.14 4.53 l
0.15 -3.20 l
0.15 -2.25 l
0.14 2.02 l
0.15 0.92 l
0.14 -0.69 l
0.15 1.60 l
0.14 -1.37 l
0.15 -1.79 l
0.14 2.48 l
0.15 0 l
0.15 -0.69 l
0.14 0.46 l
0.15 0.23 l
0.14 0.68 l
0.15 -0.91 l
0.14 -1.79 l
0.15 2.70 l
0.14 -0.68 l
0.15 -0.69 l
0.15 0.46 l
0.14 -2.02 l
0.15 1.79 l
0.14 -0.23 l
0.15 0.69 l
0.14 -0.46 l
0.15 -0.46 l
0.14 0.46 l
0.15 0.23 l
0.15 0.46 l
0.14 0 l
0.15 -0.46 l
0.14 0 l
0.15 0.23 l
0.14 -0.23 l
0.15 0.68 l
0.15 -2.28 l
0.14 1.14 l
0.15 0.23 l
0.14 0.23 l
0.15 0.68 l
0.14 -1.60 l
0.15 -0.87 l
0.14 2.02 l
0.15 -0.92 l
0.15 -0.23 l
0.14 0.69 l
0.15 0.23 l
0.14 -0.23 l
0.15 0.46 l
0.14 -0.23 l
0.15 -0.23 l
0.14 0.69 l
0.15 -1.83 l
0.15 0.45 l
0.14 0.69 l
0.15 -0.91 l
0.14 1.14 l
0.15 0.68 l
0.14 -1.60 l
0.15 2.29 l
0.14 -2.29 l
0.15 0.69 l
0.15 -0.69 l
0.14 -0.45 l
0.15 1.60 l
0.14 -0.69 l
0.15 -0.46 l
0.14 1.60 l
338.87 507.46 lineto
0.15 -1.14 l
0.14 0.69 l
0.15 -0.23 l
0.14 1.14 l
0.15 -1.83 l
0.14 1.15 l
0.15 0 l
0.14 -0.23 l
0.15 0.91 l
0.15 -1.83 l
0.14 0.69 l
0.15 -1.79 l
0.14 2.02 l
0.15 -0.46 l
0.14 -0.23 l
0.15 0 l
0.14 0.92 l
0.15 -0.69 l
0.15 0.69 l
0.14 0.91 l
0.15 -1.60 l
0.14 0.46 l
0.15 -0.23 l
0.14 -0.92 l
0.15 1.38 l
0.14 0 l
0.15 0.22 l
0.15 0 l
0.14 -1.14 l
0.15 -0.91 l
0.14 2.28 l
0.15 -0.68 l
0.14 0.68 l
0.15 -0.91 l
0.15 -0.46 l
0.14 1.83 l
0.15 -2.06 l
0.14 0.23 l
0.15 1.14 l
0.14 -0.91 l
0.15 0.23 l
0.14 -0.69 l
0.15 1.83 l
0.15 -0.46 l
0.14 0 l
0.15 -0.22 l
0.14 -0.23 l
0.15 -0.23 l
0.14 0 l
0.15 2.06 l
0.14 -1.15 l
0.15 -0.91 l
0.15 0.23 l
0.14 0.91 l
0.15 -0.91 l
0.14 0.23 l
0.15 -0.23 l
0.14 -0.23 l
0.15 -0.23 l
0.14 0.46 l
0.15 1.14 l
0.15 -0.69 l
0.14 -0.45 l
0.15 -1.37 l
0.14 1.37 l
0.15 -0.23 l
0.14 -0.23 l
0.15 0 l
0.15 -0.23 l
0.14 0.23 l
0.15 0.91 l
0.14 0.23 l
0.15 -0.23 l
0.14 1.15 l
0.15 -2.29 l
0.14 1.60 l
0.15 -0.91 l
0.15 1.37 l
0.14 -1.14 l
0.15 -0.23 l
0.14 0.68 l
0.15 0.46 l
0.14 0.69 l
0.15 -2.52 l
0.14 0 l
0.15 2.06 l
0.15 -1.37 l
0.14 1.60 l
0.15 -1.15 l
0.14 -1.37 l
0.15 2.29 l
0.14 -1.37 l
0.15 0.45 l
0.14 -0.22 l
0.15 -1.83 l
0.15 2.28 l
0.14 0.69 l
0.15 -1.14 l
0.14 0 l
353.43 505.86 lineto
0.14 1.60 l
0.15 0.69 l
0.14 -1.37 l
0.15 0.23 l
0.15 0.23 l
0.14 -1.83 l
0.15 1.37 l
0.14 1.14 l
0.15 0 l
0.14 -0.68 l
0.15 0.91 l
0.15 -1.37 l
0.14 0.91 l
0.15 0 l
0.14 -0.45 l
0.15 -0.23 l
0.14 -1.60 l
0.15 2.05 l
0.14 -0.91 l
0.15 0.46 l
0.15 0.91 l
0.14 -1.14 l
0.15 -0.23 l
0.14 -0.46 l
0.15 0.46 l
0.14 2.74 l
0.15 -1.37 l
0.14 -0.46 l
0.15 -0.91 l
0.15 -1.14 l
0.14 2.74 l
0.15 -1.83 l
0.14 1.60 l
0.15 -0.46 l
0.14 -0.91 l
0.15 0.46 l
0.14 0.91 l
0.15 0 l
0.15 0.46 l
0.14 -3.20 l
0.15 2.06 l
0.14 -0.69 l
0.15 1.14 l
0.14 1.38 l
0.15 -3.21 l
0.15 0 l
0.14 0.23 l
0.15 2.75 l
0.14 -1.38 l
0.15 -0.22 l
0.14 -0.23 l
0.15 -0.69 l
0.14 0.69 l
0.15 0 l
0.15 0.45 l
0.14 -1.37 l
0.15 0.92 l
0.14 1.14 l
0.15 -1.83 l
0.14 1.83 l
0.15 -0.46 l
0.14 -0.68 l
0.15 -0.23 l
0.15 0.23 l
0.14 -0.69 l
0.15 2.75 l
0.14 -2.29 l
0.15 0.23 l
0.14 1.60 l
0.15 -1.37 l
0.14 -0.92 l
0.15 0.92 l
0.15 -0.46 l
0.14 0.91 l
0.15 -1.14 l
0.14 0.46 l
0.15 0 l
0.14 0.23 l
0.15 -0.69 l
0.15 2.06 l
0.14 -1.37 l
0.15 -0.92 l
0.14 1.37 l
0.15 0 l
0.14 0.23 l
0.15 0 l
0.14 0.23 l
0.15 -1.14 l
0.15 0.23 l
0.14 1.14 l
0.15 -0.23 l
0.14 -1.60 l
0.15 0.69 l
0.14 -0.23 l
0.15 0 l
0.14 1.14 l
0.15 -1.14 l
0.15 0 l
0.14 0.23 l
currentpoint o m
367.99 505.86 lineto
0.14 2.52 l
0.15 -2.29 l
0.14 0.23 l
0.15 1.37 l
0.14 -1.60 l
0.15 1.60 l
0.15 -0.45 l
0.14 -0.69 l
0.15 -0.23 l
0.14 0.46 l
0.15 -0.69 l
0.14 0.92 l
0.15 1.60 l
0.15 -2.06 l
0.14 0.91 l
0.15 -1.60 l
0.14 0.69 l
0.15 0.46 l
0.14 1.14 l
0.15 -1.37 l
0.14 -0.69 l
0.15 0.92 l
0.15 0.91 l
0.14 -0.46 l
0.15 -0.22 l
0.14 -0.23 l
0.15 1.14 l
0.14 -0.46 l
0.15 0.23 l
0.14 -0.68 l
0.15 0.68 l
0.15 -0.46 l
0.14 0 l
0.15 0 l
0.14 -0.68 l
0.15 0 l
0.14 -0.46 l
0.15 0.46 l
0.14 0.68 l
0.15 -0.45 l
0.15 0 l
0.14 -0.23 l
0.15 -0.23 l
0.14 1.14 l
0.15 1.60 l
0.14 -1.14 l
0.15 -1.37 l
0.15 0 l
0.14 -0.23 l
0.15 0.69 l
0.14 0.45 l
0.15 -1.37 l
0.14 0 l
0.15 0.23 l
0.14 0.69 l
0.15 1.83 l
0.15 -1.83 l
0.14 0.22 l
0.15 0 l
0.14 -0.22 l
0.15 1.37 l
0.14 -1.60 l
0.15 0 l
0.14 -0.46 l
0.15 0 l
0.15 0.46 l
0.14 0.68 l
0.15 0 l
0.14 -0.91 l
0.15 -1.14 l
0.14 1.37 l
0.15 -0.46 l
0.14 1.14 l
0.15 -0.23 l
0.15 -0.22 l
0.14 -0.46 l
0.15 0.23 l
0.14 0.68 l
0.15 0.92 l
0.14 -2.06 l
0.15 1.60 l
0.15 -0.46 l
0.14 -0.91 l
0.15 0.68 l
0.14 0 l
0.15 -0.22 l
0.14 0 l
0.15 -0.69 l
0.14 0.69 l
0.15 0.22 l
0.15 -1.37 l
0.14 1.37 l
0.15 -0.45 l
0.14 0 l
0.15 1.60 l
0.14 -1.60 l
0.15 0 l
0.14 0 l
0.15 -0.69 l
o
/bg { 1 1 1 srgb } def
222.40 510.67 0.43 c p3
222.55 509.75 0.43 c p3
222.69 509.98 0.43 c p3
222.84 509.07 0.43 c p3
222.98 509.98 0.43 c p3
223.13 509.75 0.43 c p3
223.27 509.52 0.43 c p3
223.42 508.61 0.43 c p3
223.56 510.89 0.43 c p3
223.71 509.29 0.43 c p3
223.86 509.75 0.43 c p3
224.00 510.44 0.43 c p3
224.15 508.61 0.43 c p3
224.29 509.29 0.43 c p3
224.44 510.21 0.43 c p3
224.58 509.75 0.43 c p3
224.73 509.98 0.43 c p3
224.87 509.29 0.43 c p3
225.02 509.75 0.43 c p3
225.17 509.29 0.43 c p3
225.31 509.75 0.43 c p3
225.46 509.98 0.43 c p3
225.60 509.75 0.43 c p3
225.75 508.61 0.43 c p3
225.89 509.52 0.43 c p3
226.04 509.52 0.43 c p3
226.19 509.07 0.43 c p3
226.33 510.21 0.43 c p3
226.48 510.21 0.43 c p3
226.62 510.67 0.43 c p3
226.77 509.98 0.43 c p3
226.91 509.75 0.43 c p3
227.06 508.84 0.43 c p3
227.20 510.89 0.43 c p3
227.35 510.89 0.43 c p3
227.50 509.98 0.43 c p3
227.64 511.12 0.43 c p3
227.79 508.38 0.43 c p3
227.93 510.21 0.43 c p3
228.08 510.21 0.43 c p3
228.22 509.52 0.43 c p3
228.37 509.75 0.43 c p3
228.51 509.52 0.43 c p3
228.66 510.89 0.43 c p3
228.81 509.07 0.43 c p3
228.95 510.21 0.43 c p3
229.10 510.21 0.43 c p3
229.24 509.98 0.43 c p3
229.39 509.29 0.43 c p3
229.53 511.31 0.43 c p3
229.68 508.84 0.43 c p3
229.82 511.31 0.43 c p3
229.97 509.75 0.43 c p3
230.12 510.21 0.43 c p3
230.26 509.98 0.43 c p3
230.41 510.44 0.43 c p3
230.55 510.67 0.43 c p3
230.70 511.12 0.43 c p3
230.84 511.31 0.43 c p3
230.99 509.29 0.43 c p3
231.14 510.21 0.43 c p3
231.28 510.44 0.43 c p3
231.43 509.98 0.43 c p3
231.57 509.52 0.43 c p3
231.72 510.89 0.43 c p3
231.86 509.07 0.43 c p3
232.01 509.98 0.43 c p3
232.15 510.21 0.43 c p3
232.30 510.67 0.43 c p3
232.45 510.44 0.43 c p3
232.59 508.61 0.43 c p3
232.74 510.21 0.43 c p3
232.88 509.75 0.43 c p3
233.03 511.12 0.43 c p3
233.17 510.44 0.43 c p3
233.32 508.38 0.43 c p3
233.46 511.12 0.43 c p3
233.61 509.52 0.43 c p3
233.76 509.75 0.43 c p3
233.90 512.00 0.43 c p3
234.05 510.21 0.43 c p3
234.19 509.52 0.43 c p3
234.34 509.98 0.43 c p3
234.48 509.98 0.43 c p3
234.63 509.75 0.43 c p3
234.77 508.61 0.43 c p3
234.92 510.44 0.43 c p3
235.07 509.07 0.43 c p3
235.21 509.98 0.43 c p3
235.36 509.52 0.43 c p3
235.50 509.75 0.43 c p3
235.65 510.44 0.43 c p3
235.79 508.84 0.43 c p3
235.94 509.29 0.43 c p3
236.09 510.21 0.43 c p3
236.23 508.84 0.43 c p3
236.38 509.98 0.43 c p3
236.52 509.75 0.43 c p3
236.67 508.84 0.43 c p3
236.81 511.31 0.43 c p3
236.96 430.90 0.43 c p3
237.10 432.21 0.43 c p3
237.25 433.14 0.43 c p3
237.40 432.46 0.43 c p3
237.54 434.29 0.43 c p3
237.69 433.37 0.43 c p3
237.83 433.83 0.43 c p3
237.98 432.92 0.43 c p3
238.12 434.97 0.43 c p3
238.27 433.60 0.43 c p3
238.41 435.89 0.43 c p3
238.56 434.97 0.43 c p3
238.71 436.12 0.43 c p3
238.85 434.29 0.43 c p3
239.00 436.35 0.43 c p3
239.14 435.20 0.43 c p3
239.29 436.57 0.43 c p3
239.43 436.57 0.43 c p3
239.58 437.26 0.43 c p3
239.72 437.03 0.43 c p3
239.87 437.26 0.43 c p3
240.02 437.91 0.43 c p3
240.16 437.03 0.43 c p3
240.31 438.82 0.43 c p3
240.45 437.91 0.43 c p3
240.60 439.05 0.43 c p3
240.74 437.91 0.43 c p3
240.89 439.05 0.43 c p3
241.04 438.82 0.43 c p3
241.18 440.19 0.43 c p3
241.33 439.51 0.43 c p3
241.47 441.57 0.43 c p3
241.62 439.74 0.43 c p3
241.76 442.48 0.43 c p3
241.91 439.74 0.43 c p3
242.05 440.88 0.43 c p3
242.20 439.97 0.43 c p3
242.35 442.25 0.43 c p3
242.49 441.57 0.43 c p3
242.64 442.71 0.43 c p3
242.78 442.71 0.43 c p3
242.93 443.62 0.43 c p3
243.07 442.48 0.43 c p3
243.22 443.40 0.43 c p3
243.36 442.71 0.43 c p3
243.51 444.96 0.43 c p3
243.66 443.40 0.43 c p3
243.80 444.50 0.43 c p3
243.95 444.73 0.43 c p3
244.09 445.42 0.43 c p3
244.24 444.50 0.43 c p3
244.38 445.87 0.43 c p3
244.53 444.73 0.43 c p3
244.67 445.42 0.43 c p3
244.82 446.10 0.43 c p3
244.97 446.33 0.43 c p3
245.11 445.19 0.43 c p3
245.26 447.47 0.43 c p3
245.40 447.47 0.43 c p3
245.55 448.16 0.43 c p3
245.69 446.79 0.43 c p3
245.84 447.70 0.43 c p3
245.99 446.56 0.43 c p3
246.13 448.16 0.43 c p3
246.28 448.39 0.43 c p3
246.42 448.39 0.43 c p3
246.57 447.47 0.43 c p3
246.71 448.85 0.43 c p3
246.86 449.30 0.43 c p3
247.00 449.53 0.43 c p3
247.15 449.76 0.43 c p3
247.30 450.87 0.43 c p3
247.44 449.99 0.43 c p3
247.59 450.87 0.43 c p3
247.73 451.32 0.43 c p3
247.88 451.55 0.43 c p3
248.02 449.99 0.43 c p3
248.17 452.24 0.43 c p3
248.31 450.87 0.43 c p3
248.46 452.47 0.43 c p3
248.61 452.24 0.43 c p3
248.75 453.15 0.43 c p3
248.90 452.01 0.43 c p3
249.04 452.24 0.43 c p3
249.19 452.92 0.43 c p3
249.33 452.92 0.43 c p3
249.48 453.61 0.43 c p3
249.62 453.38 0.43 c p3
249.77 452.92 0.43 c p3
249.92 453.61 0.43 c p3
250.06 452.92 0.43 c p3
250.21 454.53 0.43 c p3
250.35 454.07 0.43 c p3
250.50 453.61 0.43 c p3
250.64 455.21 0.43 c p3
250.79 454.98 0.43 c p3
250.94 455.90 0.43 c p3
251.08 457.23 0.43 c p3
251.23 455.90 0.43 c p3
251.37 456.55 0.43 c p3
251.52 456.13 0.43 c p3
251.66 457.00 0.43 c p3
251.81 455.90 0.43 c p3
251.95 456.55 0.43 c p3
252.10 456.77 0.43 c p3
252.25 456.55 0.43 c p3
252.39 456.55 0.43 c p3
252.54 457.00 0.43 c p3
252.68 458.60 0.43 c p3
252.83 458.60 0.43 c p3
252.97 457.69 0.43 c p3
253.12 458.60 0.43 c p3
253.26 458.60 0.43 c p3
253.41 458.60 0.43 c p3
253.56 459.06 0.43 c p3
253.70 458.37 0.43 c p3
253.85 459.06 0.43 c p3
253.99 459.52 0.43 c p3
254.14 459.29 0.43 c p3
254.28 459.06 0.43 c p3
254.43 461.12 0.43 c p3
254.57 460.20 0.43 c p3
254.72 460.43 0.43 c p3
254.87 460.20 0.43 c p3
255.01 459.98 0.43 c p3
255.16 460.66 0.43 c p3
255.30 462.68 0.43 c p3
255.45 460.66 0.43 c p3
255.59 460.89 0.43 c p3
255.74 462.03 0.43 c p3
255.88 460.89 0.43 c p3
256.03 463.37 0.43 c p3
256.18 462.91 0.43 c p3
256.32 462.91 0.43 c p3
256.47 463.37 0.43 c p3
256.61 462.26 0.43 c p3
256.76 463.60 0.43 c p3
256.90 463.37 0.43 c p3
257.05 463.83 0.43 c p3
257.20 464.74 0.43 c p3
257.34 464.05 0.43 c p3
257.49 464.05 0.43 c p3
257.63 464.28 0.43 c p3
257.78 463.60 0.43 c p3
257.92 465.88 0.43 c p3
258.07 465.20 0.43 c p3
258.21 464.97 0.43 c p3
258.36 465.88 0.43 c p3
258.51 466.11 0.43 c p3
258.65 465.43 0.43 c p3
258.80 465.20 0.43 c p3
258.94 464.97 0.43 c p3
259.09 465.88 0.43 c p3
259.23 465.65 0.43 c p3
259.38 466.34 0.43 c p3
259.52 467.94 0.43 c p3
259.67 466.80 0.43 c p3
259.82 467.26 0.43 c p3
259.96 467.94 0.43 c p3
260.11 466.80 0.43 c p3
260.25 467.71 0.43 c p3
260.40 468.17 0.43 c p3
260.54 467.94 0.43 c p3
260.69 467.26 0.43 c p3
260.83 467.48 0.43 c p3
260.98 468.82 0.43 c p3
261.13 469.50 0.43 c p3
261.27 469.28 0.43 c p3
261.42 468.36 0.43 c p3
261.56 469.96 0.43 c p3
261.71 469.05 0.43 c p3
261.85 468.82 0.43 c p3
262.00 470.19 0.43 c p3
262.15 470.88 0.43 c p3
262.29 470.19 0.43 c p3
262.44 469.96 0.43 c p3
262.58 469.96 0.43 c p3
262.73 472.02 0.43 c p3
262.87 470.65 0.43 c p3
263.02 469.96 0.43 c p3
263.16 471.10 0.43 c p3
263.31 471.79 0.43 c p3
263.46 471.56 0.43 c p3
263.60 472.71 0.43 c p3
263.75 471.33 0.43 c p3
263.89 471.79 0.43 c p3
264.04 472.25 0.43 c p3
264.18 472.02 0.43 c p3
264.33 473.62 0.43 c p3
264.47 472.71 0.43 c p3
264.62 472.48 0.43 c p3
264.77 473.39 0.43 c p3
264.91 472.93 0.43 c p3
265.06 473.85 0.43 c p3
265.20 474.31 0.43 c p3
265.35 473.39 0.43 c p3
265.49 473.85 0.43 c p3
265.64 474.95 0.43 c p3
265.78 474.08 0.43 c p3
265.93 475.87 0.43 c p3
266.08 474.50 0.43 c p3
266.22 474.95 0.43 c p3
266.37 474.73 0.43 c p3
266.51 474.50 0.43 c p3
266.66 475.18 0.43 c p3
266.80 474.31 0.43 c p3
266.95 475.18 0.43 c p3
267.10 475.41 0.43 c p3
267.24 475.87 0.43 c p3
267.39 477.24 0.43 c p3
267.53 475.41 0.43 c p3
267.68 475.64 0.43 c p3
267.82 476.33 0.43 c p3
267.97 475.64 0.43 c p3
268.11 476.55 0.43 c p3
268.26 477.01 0.43 c p3
268.41 476.78 0.43 c p3
268.55 477.24 0.43 c p3
268.70 476.78 0.43 c p3
268.84 477.24 0.43 c p3
268.99 477.24 0.43 c p3
269.13 478.61 0.43 c p3
269.28 477.24 0.43 c p3
269.42 477.93 0.43 c p3
269.57 477.70 0.43 c p3
269.72 477.93 0.43 c p3
269.86 479.07 0.43 c p3
270.01 478.38 0.43 c p3
270.15 479.53 0.43 c p3
270.30 478.84 0.43 c p3
270.44 478.61 0.43 c p3
270.59 478.84 0.43 c p3
270.73 479.53 0.43 c p3
270.88 479.30 0.43 c p3
271.03 478.84 0.43 c p3
271.17 480.21 0.43 c p3
271.32 479.07 0.43 c p3
271.46 479.76 0.43 c p3
271.61 478.84 0.43 c p3
271.75 479.98 0.43 c p3
271.90 479.98 0.43 c p3
272.05 481.55 0.43 c p3
272.19 480.63 0.43 c p3
272.34 480.63 0.43 c p3
272.48 482.00 0.43 c p3
272.63 481.09 0.43 c p3
272.77 481.32 0.43 c p3
272.92 480.86 0.43 c p3
273.06 480.44 0.43 c p3
273.21 482.46 0.43 c p3
273.36 480.86 0.43 c p3
273.50 482.46 0.43 c p3
273.65 481.55 0.43 c p3
273.79 481.78 0.43 c p3
273.94 482.46 0.43 c p3
274.08 481.09 0.43 c p3
274.23 482.92 0.43 c p3
274.37 481.55 0.43 c p3
274.52 482.46 0.43 c p3
274.67 483.15 0.43 c p3
274.81 483.15 0.43 c p3
274.96 484.29 0.43 c p3
275.10 482.46 0.43 c p3
275.25 482.23 0.43 c p3
275.39 484.06 0.43 c p3
275.54 483.38 0.43 c p3
275.68 484.75 0.43 c p3
275.83 482.46 0.43 c p3
275.98 483.15 0.43 c p3
276.12 484.06 0.43 c p3
276.27 482.92 0.43 c p3
276.41 485.21 0.43 c p3
276.56 484.52 0.43 c p3
276.70 483.38 0.43 c p3
276.85 485.44 0.43 c p3
277.00 485.89 0.43 c p3
277.14 485.21 0.43 c p3
277.29 485.89 0.43 c p3
277.43 485.21 0.43 c p3
277.58 484.52 0.43 c p3
277.72 485.44 0.43 c p3
277.87 486.35 0.43 c p3
278.01 486.12 0.43 c p3
278.16 486.12 0.43 c p3
278.31 485.89 0.43 c p3
278.45 485.89 0.43 c p3
278.60 485.89 0.43 c p3
278.74 485.89 0.43 c p3
278.89 485.44 0.43 c p3
279.03 487.23 0.43 c p3
279.18 486.35 0.43 c p3
279.32 487.46 0.43 c p3
279.47 487.23 0.43 c p3
279.62 487.91 0.43 c p3
279.76 487.23 0.43 c p3
279.91 487.68 0.43 c p3
280.05 487.68 0.43 c p3
280.20 486.58 0.43 c p3
280.34 487.91 0.43 c p3
280.49 487.00 0.43 c p3
280.63 487.46 0.43 c p3
280.78 488.60 0.43 c p3
280.93 487.46 0.43 c p3
281.07 488.14 0.43 c p3
281.22 488.83 0.43 c p3
281.36 487.46 0.43 c p3
281.51 489.51 0.43 c p3
281.65 488.83 0.43 c p3
281.80 488.37 0.43 c p3
281.95 488.83 0.43 c p3
282.09 487.91 0.43 c p3
282.24 489.74 0.43 c p3
282.38 488.14 0.43 c p3
282.53 488.14 0.43 c p3
282.67 489.97 0.43 c p3
282.82 489.51 0.43 c p3
282.96 489.74 0.43 c p3
283.11 491.11 0.43 c p3
283.26 489.28 0.43 c p3
283.40 489.28 0.43 c p3
283.55 489.51 0.43 c p3
283.69 489.74 0.43 c p3
283.84 489.97 0.43 c p3
283.98 489.28 0.43 c p3
284.13 490.89 0.43 c p3
284.27 490.20 0.43 c p3
284.42 491.34 0.43 c p3
284.57 490.43 0.43 c p3
284.71 491.34 0.43 c p3
284.86 492.72 0.43 c p3
285.00 490.20 0.43 c p3
285.15 491.57 0.43 c p3
285.29 490.43 0.43 c p3
285.44 490.89 0.43 c p3
285.58 491.11 0.43 c p3
285.73 491.80 0.43 c p3
285.88 492.03 0.43 c p3
286.02 490.20 0.43 c p3
286.17 491.34 0.43 c p3
286.31 492.26 0.43 c p3
286.46 491.34 0.43 c p3
286.60 491.34 0.43 c p3
286.75 491.80 0.43 c p3
286.89 492.03 0.43 c p3
287.04 492.72 0.43 c p3
287.19 491.80 0.43 c p3
287.33 492.49 0.43 c p3
287.48 492.91 0.43 c p3
287.62 493.59 0.43 c p3
287.77 494.05 0.43 c p3
287.91 492.72 0.43 c p3
288.06 493.36 0.43 c p3
288.21 494.05 0.43 c p3
288.35 494.28 0.43 c p3
288.50 493.13 0.43 c p3
288.64 492.91 0.43 c p3
288.79 493.59 0.43 c p3
288.93 493.13 0.43 c p3
289.08 493.59 0.43 c p3
289.22 492.03 0.43 c p3
289.37 494.74 0.43 c p3
289.52 495.19 0.43 c p3
289.66 493.36 0.43 c p3
289.81 494.51 0.43 c p3
289.95 492.91 0.43 c p3
290.10 493.59 0.43 c p3
290.24 494.28 0.43 c p3
290.39 493.82 0.43 c p3
290.53 494.74 0.43 c p3
290.68 493.36 0.43 c p3
290.83 493.82 0.43 c p3
290.97 494.96 0.43 c p3
291.12 494.96 0.43 c p3
291.26 494.96 0.43 c p3
291.41 495.42 0.43 c p3
291.55 494.28 0.43 c p3
291.70 494.96 0.43 c p3
291.84 495.65 0.43 c p3
291.99 494.51 0.43 c p3
292.14 495.88 0.43 c p3
292.28 494.74 0.43 c p3
292.43 495.88 0.43 c p3
292.57 495.65 0.43 c p3
292.72 494.96 0.43 c p3
292.86 496.11 0.43 c p3
293.01 495.19 0.43 c p3
293.16 495.88 0.43 c p3
293.30 496.11 0.43 c p3
293.45 495.65 0.43 c p3
293.59 497.48 0.43 c p3
293.74 495.42 0.43 c p3
293.88 496.11 0.43 c p3
294.03 496.34 0.43 c p3
294.17 496.34 0.43 c p3
294.32 496.79 0.43 c p3
294.47 496.11 0.43 c p3
294.61 498.17 0.43 c p3
294.76 495.42 0.43 c p3
294.90 497.02 0.43 c p3
295.05 497.71 0.43 c p3
295.19 496.79 0.43 c p3
295.34 497.71 0.43 c p3
295.48 496.56 0.43 c p3
295.63 496.79 0.43 c p3
295.78 496.79 0.43 c p3
295.92 498.39 0.43 c p3
296.07 496.79 0.43 c p3
296.21 498.39 0.43 c p3
296.36 496.79 0.43 c p3
296.50 498.62 0.43 c p3
296.65 497.71 0.43 c p3
296.79 498.39 0.43 c p3
296.94 498.62 0.43 c p3
297.09 498.17 0.43 c p3
297.23 498.17 0.43 c p3
297.38 498.85 0.43 c p3
297.52 497.25 0.43 c p3
297.67 498.62 0.43 c p3
297.81 498.85 0.43 c p3
297.96 498.85 0.43 c p3
298.11 498.85 0.43 c p3
298.25 497.71 0.43 c p3
298.40 499.27 0.43 c p3
298.54 498.85 0.43 c p3
298.69 499.73 0.43 c p3
298.83 499.04 0.43 c p3
298.98 498.39 0.43 c p3
299.12 500.19 0.43 c p3
299.27 500.41 0.43 c p3
299.42 497.94 0.43 c p3
299.56 500.41 0.43 c p3
299.71 498.62 0.43 c p3
299.85 499.73 0.43 c p3
300.00 498.39 0.43 c p3
300.14 499.50 0.43 c p3
300.29 499.50 0.43 c p3
300.43 500.64 0.43 c p3
300.58 499.27 0.43 c p3
300.73 499.96 0.43 c p3
300.87 499.27 0.43 c p3
301.02 498.17 0.43 c p3
301.16 499.73 0.43 c p3
301.31 499.27 0.43 c p3
301.45 500.19 0.43 c p3
301.60 500.64 0.43 c p3
301.74 499.50 0.43 c p3
301.89 499.27 0.43 c p3
302.04 500.87 0.43 c p3
302.18 501.33 0.43 c p3
302.33 499.04 0.43 c p3
302.47 500.19 0.43 c p3
302.62 500.41 0.43 c p3
302.76 499.50 0.43 c p3
302.91 501.79 0.43 c p3
303.06 500.64 0.43 c p3
303.20 500.64 0.43 c p3
303.35 500.19 0.43 c p3
303.49 499.96 0.43 c p3
303.64 500.64 0.43 c p3
303.78 500.19 0.43 c p3
303.93 499.73 0.43 c p3
304.07 499.27 0.43 c p3
304.22 500.19 0.43 c p3
304.37 501.10 0.43 c p3
304.51 501.56 0.43 c p3
304.66 500.87 0.43 c p3
304.80 501.33 0.43 c p3
304.95 501.79 0.43 c p3
305.09 501.33 0.43 c p3
305.24 500.19 0.43 c p3
305.38 501.56 0.43 c p3
305.53 500.87 0.43 c p3
305.68 501.56 0.43 c p3
305.82 501.56 0.43 c p3
305.97 501.33 0.43 c p3
306.11 501.33 0.43 c p3
306.26 502.70 0.43 c p3
306.40 500.64 0.43 c p3
306.55 501.33 0.43 c p3
306.69 501.56 0.43 c p3
306.84 502.47 0.43 c p3
306.99 502.24 0.43 c p3
307.13 500.87 0.43 c p3
307.28 502.70 0.43 c p3
307.42 502.01 0.43 c p3
307.57 502.47 0.43 c p3
307.71 503.39 0.43 c p3
307.86 502.24 0.43 c p3
308.01 502.01 0.43 c p3
308.15 502.01 0.43 c p3
308.30 502.24 0.43 c p3
308.44 502.93 0.43 c p3
308.59 502.24 0.43 c p3
308.73 502.24 0.43 c p3
308.88 502.01 0.43 c p3
309.02 502.01 0.43 c p3
309.17 503.16 0.43 c p3
309.32 502.70 0.43 c p3
309.46 502.47 0.43 c p3
309.61 503.39 0.43 c p3
309.75 502.70 0.43 c p3
309.90 503.16 0.43 c p3
310.04 504.07 0.43 c p3
310.19 501.56 0.43 c p3
310.33 504.30 0.43 c p3
310.48 502.70 0.43 c p3
310.63 504.53 0.43 c p3
310.77 502.70 0.43 c p3
310.92 502.24 0.43 c p3
311.06 503.16 0.43 c p3
311.21 504.07 0.43 c p3
311.35 503.62 0.43 c p3
311.50 503.84 0.43 c p3
311.64 502.47 0.43 c p3
311.79 503.16 0.43 c p3
311.94 504.07 0.43 c p3
312.08 502.70 0.43 c p3
312.23 503.84 0.43 c p3
312.37 503.16 0.43 c p3
312.52 503.39 0.43 c p3
312.66 503.16 0.43 c p3
312.81 503.16 0.43 c p3
312.96 504.07 0.43 c p3
313.10 504.07 0.43 c p3
313.25 502.47 0.43 c p3
313.39 504.76 0.43 c p3
313.54 503.84 0.43 c p3
313.68 503.62 0.43 c p3
313.83 504.53 0.43 c p3
313.97 504.53 0.43 c p3
314.12 503.84 0.43 c p3
314.27 504.07 0.43 c p3
314.41 502.24 0.43 c p3
314.56 504.30 0.43 c p3
314.70 504.99 0.43 c p3
314.85 503.84 0.43 c p3
314.99 502.70 0.43 c p3
315.14 503.62 0.43 c p3
315.28 504.76 0.43 c p3
315.43 504.76 0.43 c p3
315.58 504.53 0.43 c p3
315.72 504.53 0.43 c p3
315.87 504.76 0.43 c p3
316.01 504.30 0.43 c p3
316.16 505.86 0.43 c p3
316.30 505.18 0.43 c p3
316.45 503.62 0.43 c p3
316.59 503.84 0.43 c p3
316.74 504.30 0.43 c p3
316.89 505.41 0.43 c p3
317.03 504.53 0.43 c p3
317.18 503.84 0.43 c p3
317.32 503.84 0.43 c p3
317.47 504.99 0.43 c p3
317.61 506.55 0.43 c p3
317.76 504.99 0.43 c p3
317.91 505.86 0.43 c p3
318.05 505.41 0.43 c p3
318.20 505.64 0.43 c p3
318.34 505.41 0.43 c p3
318.49 504.76 0.43 c p3
318.63 506.32 0.43 c p3
318.78 504.53 0.43 c p3
318.92 504.07 0.43 c p3
319.07 504.99 0.43 c p3
319.22 504.76 0.43 c p3
319.36 505.18 0.43 c p3
319.51 503.16 0.43 c p3
319.65 505.64 0.43 c p3
319.80 505.18 0.43 c p3
319.94 505.41 0.43 c p3
320.09 505.18 0.43 c p3
320.23 504.53 0.43 c p3
320.38 504.99 0.43 c p3
320.53 504.76 0.43 c p3
320.67 505.86 0.43 c p3
320.82 504.76 0.43 c p3
320.96 504.99 0.43 c p3
321.11 504.53 0.43 c p3
321.25 504.30 0.43 c p3
321.40 506.09 0.43 c p3
321.54 505.64 0.43 c p3
321.69 504.30 0.43 c p3
321.84 505.41 0.43 c p3
321.98 504.07 0.43 c p3
322.13 504.53 0.43 c p3
322.27 506.09 0.43 c p3
322.42 504.99 0.43 c p3
322.56 505.86 0.43 c p3
322.71 504.07 0.43 c p3
322.85 507.01 0.43 c p3
323.00 505.64 0.43 c p3
323.15 506.09 0.43 c p3
323.29 506.78 0.43 c p3
323.44 505.86 0.43 c p3
323.58 506.55 0.43 c p3
323.73 505.64 0.43 c p3
323.87 506.09 0.43 c p3
324.02 505.86 0.43 c p3
324.17 505.86 0.43 c p3
324.31 504.30 0.43 c p3
324.46 505.41 0.43 c p3
324.60 506.55 0.43 c p3
324.75 508.61 0.43 c p3
324.89 505.64 0.43 c p3
325.04 504.30 0.43 c p3
325.18 505.18 0.43 c p3
325.33 506.09 0.43 c p3
325.48 507.92 0.43 c p3
325.62 507.69 0.43 c p3
325.77 503.39 0.43 c p3
325.91 503.39 0.43 c p3
326.06 503.84 0.43 c p3
326.20 505.64 0.43 c p3
326.35 510.67 0.43 c p3
326.49 506.55 0.43 c p3
326.64 503.84 0.43 c p3
326.79 502.93 0.43 c p3
326.93 505.41 0.43 c p3
327.08 507.92 0.43 c p3
327.22 510.67 0.43 c p3
327.37 505.86 0.43 c p3
327.51 503.16 0.43 c p3
327.66 504.76 0.43 c p3
327.80 506.32 0.43 c p3
327.95 507.46 0.43 c p3
328.10 507.69 0.43 c p3
328.24 504.76 0.43 c p3
328.39 504.07 0.43 c p3
328.53 506.78 0.43 c p3
328.68 504.76 0.43 c p3
328.82 509.29 0.43 c p3
328.97 506.09 0.43 c p3
329.12 503.84 0.43 c p3
329.26 505.86 0.43 c p3
329.41 506.78 0.43 c p3
329.55 506.09 0.43 c p3
329.70 507.69 0.43 c p3
329.84 506.32 0.43 c p3
329.99 504.53 0.43 c p3
330.13 507.01 0.43 c p3
330.28 507.01 0.43 c p3
330.43 506.32 0.43 c p3
330.57 506.78 0.43 c p3
330.72 507.01 0.43 c p3
330.86 507.69 0.43 c p3
331.01 506.78 0.43 c p3
331.15 504.99 0.43 c p3
331.30 507.69 0.43 c p3
331.44 507.01 0.43 c p3
331.59 506.32 0.43 c p3
331.74 506.78 0.43 c p3
331.88 504.76 0.43 c p3
332.03 506.55 0.43 c p3
332.17 506.32 0.43 c p3
332.32 507.01 0.43 c p3
332.46 506.55 0.43 c p3
332.61 506.09 0.43 c p3
332.75 506.55 0.43 c p3
332.90 506.78 0.43 c p3
333.05 507.24 0.43 c p3
333.19 507.24 0.43 c p3
333.34 506.78 0.43 c p3
333.48 506.78 0.43 c p3
333.63 507.01 0.43 c p3
333.77 506.78 0.43 c p3
333.92 507.46 0.43 c p3
334.07 505.18 0.43 c p3
334.21 506.32 0.43 c p3
334.36 506.55 0.43 c p3
334.50 506.78 0.43 c p3
334.65 507.46 0.43 c p3
334.79 505.86 0.43 c p3
334.94 504.99 0.43 c p3
335.08 507.01 0.43 c p3
335.23 506.09 0.43 c p3
335.38 505.86 0.43 c p3
335.52 506.55 0.43 c p3
335.67 506.78 0.43 c p3
335.81 506.55 0.43 c p3
335.96 507.01 0.43 c p3
336.10 506.78 0.43 c p3
336.25 506.55 0.43 c p3
336.39 507.24 0.43 c p3
336.54 505.41 0.43 c p3
336.69 505.86 0.43 c p3
336.83 506.55 0.43 c p3
336.98 505.64 0.43 c p3
337.12 506.78 0.43 c p3
337.27 507.46 0.43 c p3
337.41 505.86 0.43 c p3
337.56 508.15 0.43 c p3
337.70 505.86 0.43 c p3
337.85 506.55 0.43 c p3
338.00 505.86 0.43 c p3
338.14 505.41 0.43 c p3
338.29 507.01 0.43 c p3
338.43 506.32 0.43 c p3
338.58 505.86 0.43 c p3
338.72 507.46 0.43 c p3
338.87 507.46 0.43 c p3
339.02 506.32 0.43 c p3
339.16 507.01 0.43 c p3
339.31 506.78 0.43 c p3
339.45 507.92 0.43 c p3
339.60 506.09 0.43 c p3
339.74 507.24 0.43 c p3
339.89 507.24 0.43 c p3
340.03 507.01 0.43 c p3
340.18 507.92 0.43 c p3
340.33 506.09 0.43 c p3
340.47 506.78 0.43 c p3
340.62 504.99 0.43 c p3
340.76 507.01 0.43 c p3
340.91 506.55 0.43 c p3
341.05 506.32 0.43 c p3
341.20 506.32 0.43 c p3
341.34 507.24 0.43 c p3
341.49 506.55 0.43 c p3
341.64 507.24 0.43 c p3
341.78 508.15 0.43 c p3
341.93 506.55 0.43 c p3
342.07 507.01 0.43 c p3
342.22 506.78 0.43 c p3
342.36 505.86 0.43 c p3
342.51 507.24 0.43 c p3
342.65 507.24 0.43 c p3
342.80 507.46 0.43 c p3
342.95 507.46 0.43 c p3
343.09 506.32 0.43 c p3
343.24 505.41 0.43 c p3
343.38 507.69 0.43 c p3
343.53 507.01 0.43 c p3
343.67 507.69 0.43 c p3
343.82 506.78 0.43 c p3
343.97 506.32 0.43 c p3
344.11 508.15 0.43 c p3
344.26 506.09 0.43 c p3
344.40 506.32 0.43 c p3
344.55 507.46 0.43 c p3
344.69 506.55 0.43 c p3
344.84 506.78 0.43 c p3
344.98 506.09 0.43 c p3
345.13 507.92 0.43 c p3
345.28 507.46 0.43 c p3
345.42 507.46 0.43 c p3
345.57 507.24 0.43 c p3
345.71 507.01 0.43 c p3
345.86 506.78 0.43 c p3
346.00 506.78 0.43 c p3
346.15 508.84 0.43 c p3
346.29 507.69 0.43 c p3
346.44 506.78 0.43 c p3
346.59 507.01 0.43 c p3
346.73 507.92 0.43 c p3
346.88 507.01 0.43 c p3
347.02 507.24 0.43 c p3
347.17 507.01 0.43 c p3
347.31 506.78 0.43 c p3
347.46 506.55 0.43 c p3
347.60 507.01 0.43 c p3
347.75 508.15 0.43 c p3
347.90 507.46 0.43 c p3
348.04 507.01 0.43 c p3
348.19 505.64 0.43 c p3
348.33 507.01 0.43 c p3
348.48 506.78 0.43 c p3
348.62 506.55 0.43 c p3
348.77 506.55 0.43 c p3
348.92 506.32 0.43 c p3
349.06 506.55 0.43 c p3
349.21 507.46 0.43 c p3
349.35 507.69 0.43 c p3
349.50 507.46 0.43 c p3
349.64 508.61 0.43 c p3
349.79 506.32 0.43 c p3
349.93 507.92 0.43 c p3
350.08 507.01 0.43 c p3
350.23 508.38 0.43 c p3
350.37 507.24 0.43 c p3
350.52 507.01 0.43 c p3
350.66 507.69 0.43 c p3
350.81 508.15 0.43 c p3
350.95 508.84 0.43 c p3
351.10 506.32 0.43 c p3
351.24 506.32 0.43 c p3
351.39 508.38 0.43 c p3
351.54 507.01 0.43 c p3
351.68 508.61 0.43 c p3
351.83 507.46 0.43 c p3
351.97 506.09 0.43 c p3
352.12 508.38 0.43 c p3
352.26 507.01 0.43 c p3
352.41 507.46 0.43 c p3
352.55 507.24 0.43 c p3
352.70 505.41 0.43 c p3
352.85 507.69 0.43 c p3
352.99 508.38 0.43 c p3
353.14 507.24 0.43 c p3
353.28 507.24 0.43 c p3
353.43 505.86 0.43 c p3
353.57 507.46 0.43 c p3
353.72 508.15 0.43 c p3
353.86 506.78 0.43 c p3
354.01 507.01 0.43 c p3
354.16 507.24 0.43 c p3
354.30 505.41 0.43 c p3
354.45 506.78 0.43 c p3
354.59 507.92 0.43 c p3
354.74 507.92 0.43 c p3
354.88 507.24 0.43 c p3
355.03 508.15 0.43 c p3
355.18 506.78 0.43 c p3
355.32 507.69 0.43 c p3
355.47 507.69 0.43 c p3
355.61 507.24 0.43 c p3
355.76 507.01 0.43 c p3
355.90 505.41 0.43 c p3
356.05 507.46 0.43 c p3
356.19 506.55 0.43 c p3
356.34 507.01 0.43 c p3
356.49 507.92 0.43 c p3
356.63 506.78 0.43 c p3
356.78 506.55 0.43 c p3
356.92 506.09 0.43 c p3
357.07 506.55 0.43 c p3
357.21 509.29 0.43 c p3
357.36 507.92 0.43 c p3
357.50 507.46 0.43 c p3
357.65 506.55 0.43 c p3
357.80 505.41 0.43 c p3
357.94 508.15 0.43 c p3
358.09 506.32 0.43 c p3
358.23 507.92 0.43 c p3
358.38 507.46 0.43 c p3
358.52 506.55 0.43 c p3
358.67 507.01 0.43 c p3
358.81 507.92 0.43 c p3
358.96 507.92 0.43 c p3
359.11 508.38 0.43 c p3
359.25 505.18 0.43 c p3
359.40 507.24 0.43 c p3
359.54 506.55 0.43 c p3
359.69 507.69 0.43 c p3
359.83 509.07 0.43 c p3
359.98 505.86 0.43 c p3
360.13 505.86 0.43 c p3
360.27 506.09 0.43 c p3
360.42 508.84 0.43 c p3
360.56 507.46 0.43 c p3
360.71 507.24 0.43 c p3
360.85 507.01 0.43 c p3
361.00 506.32 0.43 c p3
361.14 507.01 0.43 c p3
361.29 507.01 0.43 c p3
361.44 507.46 0.43 c p3
361.58 506.09 0.43 c p3
361.73 507.01 0.43 c p3
361.87 508.15 0.43 c p3
362.02 506.32 0.43 c p3
362.16 508.15 0.43 c p3
362.31 507.69 0.43 c p3
362.45 507.01 0.43 c p3
362.60 506.78 0.43 c p3
362.75 507.01 0.43 c p3
362.89 506.32 0.43 c p3
363.04 509.07 0.43 c p3
363.18 506.78 0.43 c p3
363.33 507.01 0.43 c p3
363.47 508.61 0.43 c p3
363.62 507.24 0.43 c p3
363.76 506.32 0.43 c p3
363.91 507.24 0.43 c p3
364.06 506.78 0.43 c p3
364.20 507.69 0.43 c p3
364.35 506.55 0.43 c p3
364.49 507.01 0.43 c p3
364.64 507.01 0.43 c p3
364.78 507.24 0.43 c p3
364.93 506.55 0.43 c p3
365.08 508.61 0.43 c p3
365.22 507.24 0.43 c p3
365.37 506.32 0.43 c p3
365.51 507.69 0.43 c p3
365.66 507.69 0.43 c p3
365.80 507.92 0.43 c p3
365.95 507.92 0.43 c p3
366.09 508.15 0.43 c p3
366.24 507.01 0.43 c p3
366.39 507.24 0.43 c p3
366.53 508.38 0.43 c p3
366.68 508.15 0.43 c p3
366.82 506.55 0.43 c p3
366.97 507.24 0.43 c p3
367.11 507.01 0.43 c p3
367.26 507.01 0.43 c p3
367.40 508.15 0.43 c p3
367.55 507.01 0.43 c p3
367.70 507.01 0.43 c p3
367.84 507.24 0.43 c p3
367.99 505.86 0.43 c p3
368.13 508.38 0.43 c p3
368.28 506.09 0.43 c p3
368.42 506.32 0.43 c p3
368.57 507.69 0.43 c p3
368.71 506.09 0.43 c p3
368.86 507.69 0.43 c p3
369.01 507.24 0.43 c p3
369.15 506.55 0.43 c p3
369.30 506.32 0.43 c p3
369.44 506.78 0.43 c p3
369.59 506.09 0.43 c p3
369.73 507.01 0.43 c p3
369.88 508.61 0.43 c p3
370.03 506.55 0.43 c p3
370.17 507.46 0.43 c p3
370.32 505.86 0.43 c p3
370.46 506.55 0.43 c p3
370.61 507.01 0.43 c p3
370.75 508.15 0.43 c p3
370.90 506.78 0.43 c p3
371.04 506.09 0.43 c p3
371.19 507.01 0.43 c p3
371.34 507.92 0.43 c p3
371.48 507.46 0.43 c p3
371.63 507.24 0.43 c p3
371.77 507.01 0.43 c p3
371.92 508.15 0.43 c p3
372.06 507.69 0.43 c p3
372.21 507.92 0.43 c p3
372.35 507.24 0.43 c p3
372.50 507.92 0.43 c p3
372.65 507.46 0.43 c p3
372.79 507.46 0.43 c p3
372.94 507.46 0.43 c p3
373.08 506.78 0.43 c p3
373.23 506.78 0.43 c p3
373.37 506.32 0.43 c p3
373.52 506.78 0.43 c p3
373.66 507.46 0.43 c p3
373.81 507.01 0.43 c p3
373.96 507.01 0.43 c p3
374.10 506.78 0.43 c p3
374.25 506.55 0.43 c p3
374.39 507.69 0.43 c p3
374.54 509.29 0.43 c p3
374.68 508.15 0.43 c p3
374.83 506.78 0.43 c p3
374.98 506.78 0.43 c p3
375.12 506.55 0.43 c p3
375.27 507.24 0.43 c p3
375.41 507.69 0.43 c p3
375.56 506.32 0.43 c p3
375.70 506.32 0.43 c p3
375.85 506.55 0.43 c p3
375.99 507.24 0.43 c p3
376.14 509.07 0.43 c p3
376.29 507.24 0.43 c p3
376.43 507.46 0.43 c p3
376.58 507.46 0.43 c p3
376.72 507.24 0.43 c p3
376.87 508.61 0.43 c p3
377.01 507.01 0.43 c p3
377.16 507.01 0.43 c p3
377.30 506.55 0.43 c p3
377.45 506.55 0.43 c p3
377.60 507.01 0.43 c p3
377.74 507.69 0.43 c p3
377.89 507.69 0.43 c p3
378.03 506.78 0.43 c p3
378.18 505.64 0.43 c p3
378.32 507.01 0.43 c p3
378.47 506.55 0.43 c p3
378.61 507.69 0.43 c p3
378.76 507.46 0.43 c p3
378.91 507.24 0.43 c p3
379.05 506.78 0.43 c p3
379.20 507.01 0.43 c p3
379.34 507.69 0.43 c p3
379.49 508.61 0.43 c p3
379.63 506.55 0.43 c p3
379.78 508.15 0.43 c p3
379.93 507.69 0.43 c p3
380.07 506.78 0.43 c p3
380.22 507.46 0.43 c p3
380.36 507.46 0.43 c p3
380.51 507.24 0.43 c p3
380.65 507.24 0.43 c p3
380.80 506.55 0.43 c p3
380.94 507.24 0.43 c p3
381.09 507.46 0.43 c p3
381.24 506.09 0.43 c p3
381.38 507.46 0.43 c p3
381.53 507.01 0.43 c p3
381.67 507.01 0.43 c p3
381.82 508.61 0.43 c p3
381.96 507.01 0.43 c p3
382.11 507.01 0.43 c p3
382.25 507.01 0.43 c p3
382.40 506.32 0.43 c p3
0.00 0.00 432.00 576.00 cl
0 0 0 srgb
0.75 setlinewidth
[] 0 setdash
1 setlinecap
1 setlinejoin
10.00 setmiterlimit
np
236.96 345.60 m
145.59 0 l
o
np
236.96 345.60 m
0 -5.76 l
o
np
261.22 345.60 m
0 -5.76 l
o
np
285.49 345.60 m
0 -5.76 l
o
np
309.75 345.60 m
0 -5.76 l
o
np
334.02 345.60 m
0 -5.76 l
o
np
358.28 345.60 m
0 -5.76 l
o
np
382.55 345.60 m
0 -5.76 l
o
/Font1 findfont 10 s
236.96 329.47 (0) .5 0 t
261.22 329.47 (2000) .5 0 t
309.75 329.47 (6000) .5 0 t
358.28 329.47 (10000) .5 0 t
np
216.00 352.00 m
0 156.11 l
o
np
216.00 352.00 m
-5.76 0 l
o
np
216.00 383.22 m
-5.76 0 l
o
np
216.00 414.44 m
-5.76 0 l
o
np
216.00 445.66 m
-5.76 0 l
o
np
216.00 476.89 m
-5.76 0 l
o
np
216.00 508.11 m
-5.76 0 l
o
209.09 348.41 (0.00) 1 0 t
209.09 379.63 (0.05) 1 0 t
209.09 410.85 (0.10) 1 0 t
209.09 442.07 (0.15) 1 0 t
209.09 473.30 (0.20) 1 0 t
209.09 504.52 (0.25) 1 0 t
np
216.00 345.60 m
172.80 0 l
0 172.80 l
-172.80 0 l
0 -172.80 l
o
0.00 0.00 432.00 576.00 cl
/Font1 findfont 10 s
0 0 0 srgb
302.40 313.34 (Time / ms \(total\)) .5 0 t
190.66 432.00 (U / V) .5 90 t
216.00 345.60 388.80 518.40 cl
0 0 0 srgb
0.38 setlinewidth
[ 1.13 1.88] 0 setdash
1 setlinecap
1 setlinejoin
10.00 setmiterlimit
np
222.40 345.60 m
0 172.80 l
o
np
235.21 345.60 m
0 172.80 l
o
np
239.14 345.60 m
0 172.80 l
o
np
367.84 345.60 m
0 172.80 l
o
86.40 57.60 388.80 288.00 cl
1 0 0 srgb
1.50 setlinewidth
[] 0 setdash
1 setlinecap
1 setlinejoin
10.00 setmiterlimit
np
97.60 279.47 m
1.41 -5.39 l
1.40 -5.25 l
1.41 -5.11 l
1.41 -4.99 l
1.41 -4.86 l
1.40 -4.74 l
1.41 -4.62 l
1.41 -4.50 l
1.40 -4.39 l
1.41 -4.28 l
1.41 -4.17 l
1.40 -4.06 l
1.41 -3.97 l
1.41 -3.86 l
1.41 -3.76 l
1.40 -3.67 l
1.41 -3.58 l
1.41 -3.49 l
1.40 -3.40 l
1.41 -3.31 l
1.41 -3.23 l
1.40 -3.15 l
1.41 -3.07 l
1.41 -2.99 l
1.41 -2.91 l
1.40 -2.85 l
1.41 -2.77 l
1.41 -2.70 l
1.40 -2.63 l
1.41 -2.57 l
1.41 -2.50 l
1.41 -2.43 l
1.40 -2.38 l
1.41 -2.32 l
1.41 -2.26 l
1.40 -2.20 l
1.41 -2.14 l
1.41 -2.10 l
1.40 -2.03 l
1.41 -1.99 l
1.41 -1.94 l
1.41 -1.89 l
1.40 -1.84 l
1.41 -1.79 l
1.41 -1.75 l
1.40 -1.71 l
1.41 -1.66 l
1.41 -1.62 l
1.40 -1.58 l
1.41 -1.54 l
1.41 -1.50 l
1.41 -1.46 l
1.40 -1.42 l
1.41 -1.39 l
1.41 -1.36 l
1.40 -1.32 l
1.41 -1.29 l
1.41 -1.25 l
1.41 -1.22 l
1.40 -1.19 l
1.41 -1.17 l
1.41 -1.13 l
1.40 -1.10 l
1.41 -1.08 l
1.41 -1.05 l
1.40 -1.02 l
1.41 -1.00 l
1.41 -0.97 l
1.41 -0.95 l
1.40 -0.92 l
1.41 -0.90 l
1.41 -0.88 l
1.40 -0.85 l
1.41 -0.84 l
1.41 -0.81 l
1.40 -0.79 l
1.41 -0.77 l
1.41 -0.75 l
1.41 -0.74 l
1.40 -0.71 l
1.41 -0.70 l
1.41 -0.68 l
1.40 -0.66 l
1.41 -0.65 l
1.41 -0.63 l
1.41 -0.61 l
1.40 -0.60 l
1.41 -0.58 l
1.41 -0.57 l
1.40 -0.55 l
1.41 -0.54 l
1.41 -0.53 l
1.40 -0.51 l
1.41 -0.50 l
1.41 -0.49 l
1.41 -0.47 l
1.40 -0.47 l
1.41 -0.45 l
1.41 -0.44 l
238.30 82.64 lineto
1.41 -0.41 l
1.41 -0.41 l
1.40 -0.40 l
1.41 -0.39 l
1.41 -0.37 l
1.41 -0.37 l
1.40 -0.36 l
1.41 -0.35 l
1.41 -0.34 l
1.40 -0.33 l
1.41 -0.33 l
1.41 -0.31 l
1.40 -0.31 l
1.41 -0.30 l
1.41 -0.29 l
1.41 -0.29 l
1.40 -0.27 l
1.41 -0.28 l
1.41 -0.26 l
1.40 -0.26 l
1.41 -0.25 l
1.41 -0.24 l
1.41 -0.24 l
1.40 -0.23 l
1.41 -0.23 l
1.41 -0.22 l
1.40 -0.21 l
1.41 -0.21 l
1.41 -0.21 l
1.40 -0.20 l
1.41 -0.19 l
1.41 -0.19 l
1.41 -0.19 l
1.40 -0.18 l
1.41 -0.17 l
1.41 -0.17 l
1.40 -0.17 l
1.41 -0.16 l
1.41 -0.16 l
1.40 -0.15 l
1.41 -0.15 l
1.41 -0.15 l
1.41 -0.14 l
1.40 -0.14 l
1.41 -0.14 l
1.41 -0.13 l
1.40 -0.13 l
1.41 -0.13 l
1.41 -0.12 l
1.41 -0.12 l
1.40 -0.11 l
1.41 -0.12 l
1.41 -0.11 l
1.40 -0.11 l
1.41 -0.10 l
1.41 -0.10 l
1.40 -0.10 l
1.41 -0.10 l
1.41 -0.10 l
1.41 -0.09 l
1.40 -0.09 l
1.41 -0.09 l
1.41 -0.08 l
1.40 -0.09 l
1.41 -0.08 l
1.41 -0.08 l
1.40 -0.07 l
1.41 -0.08 l
1.41 -0.07 l
1.41 -0.08 l
1.40 -0.07 l
1.41 -0.06 l
1.41 -0.07 l
1.40 -0.06 l
1.41 -0.07 l
1.41 -0.06 l
1.41 -0.06 l
1.40 -0.06 l
1.41 -0.05 l
1.41 -0.06 l
1.40 -0.05 l
1.41 -0.06 l
1.41 -0.05 l
1.40 -0.05 l
1.41 -0.05 l
1.41 -0.04 l
1.41 -0.05 l
1.40 -0.05 l
1.41 -0.04 l
1.41 -0.04 l
1.40 -0.05 l
1.41 -0.04 l
1.41 -0.04 l
1.40 -0.03 l
1.41 -0.04 l
1.41 -0.04 l
1.41 -0.04 l
1.40 -0.03 l
1.41 -0.03 l
o
0.00 0.00 432.00 576.00 cl
0 0 0 srgb
0.75 setlinewidth
[] 0 setdash
1 setlinecap
1 setlinejoin
10.00 setmiterlimit
np
97.60 57.60 m
280.00 0 l
o
np
97.60 57.60 m
0 -5.76 l
o
np
144.27 57.60 m
0 -5.76 l
o
np
190.93 57.60 m
0 -5.76 l
o
np
237.60 57.60 m
0 -5.76 l
o
np
284.27 57.60 m
0 -5.76 l
o
np
330.93 57.60 m
0 -5.76 l
o
np
377.60 57.60 m
0 -5.76 l
o
/Font1 findfont 10 s
97.60 41.47 (0) .5 0 t
144.27 41.47 (2000) .5 0 t
190.93 41.47 (4000) .5 0 t
237.60 41.47 (6000) .5 0 t
284.27 41.47 (8000) .5 0 t
330.93 41.47 (10000) .5 0 t
377.60 41.47 (12000) .5 0 t
np
86.40 66.13 m
0 212.73 l
o
np
86.40 66.13 m
-5.76 0 l
o
np
86.40 101.59 m
-5.76 0 l
o
np
86.40 137.04 m
-5.76 0 l
o
np
86.40 172.50 m
-5.76 0 l
o
np
86.40 207.95 m
-5.76 0 l
o
np
86.40 243.41 m
-5.76 0 l
o
np
86.40 278.86 m
-5.76 0 l
o
79.49 62.54 (0.00) 1 0 t
79.49 98.00 (0.05) 1 0 t
79.49 133.45 (0.10) 1 0 t
79.49 168.91 (0.15) 1 0 t
79.49 204.36 (0.20) 1 0 t
79.49 239.82 (0.25) 1 0 t
79.49 275.27 (0.30) 1 0 t
np
86.40 57.60 m
302.40 0 l
0 230.40 l
-302.40 0 l
0 -230.40 l
o
0.00 0.00 432.00 576.00 cl
/Font1 findfont 10 s
0 0 0 srgb
237.60 13.82 (Time / ms \(after pulse\)) .5 0 t
49.54 172.80 (Absorbance A) .5 90 t
86.40 57.60 388.80 288.00 cl
/bg { 1 1 1 srgb } def
0 0 0 srgb
0.75 setlinewidth
[] 0 setdash
1 setlinecap
1 setlinejoin
10.00 setmiterlimit
102.08 263.50 0.65 c p3
102.36 258.47 0.65 c p3
102.64 258.47 0.65 c p3
102.92 255.98 0.65 c p3
103.20 256.80 0.65 c p3
103.48 255.98 0.65 c p3
103.76 253.65 0.65 c p3
104.04 256.80 0.65 c p3
104.32 250.39 0.65 c p3
104.60 253.65 0.65 c p3
104.88 249.57 0.65 c p3
105.16 253.65 0.65 c p3
105.44 249.57 0.65 c p3
105.72 250.39 0.65 c p3
106.00 245.56 0.65 c p3
106.28 247.96 0.65 c p3
106.56 240.80 0.65 c p3
106.84 247.16 0.65 c p3
107.12 237.67 0.65 c p3
107.40 247.16 0.65 c p3
107.68 243.17 0.65 c p3
107.96 246.36 0.65 c p3
108.24 238.45 0.65 c p3
108.52 240.80 0.65 c p3
108.80 236.90 0.65 c p3
109.08 236.90 0.65 c p3
109.36 233.81 0.65 c p3
109.64 237.67 0.65 c p3
109.92 234.58 0.65 c p3
110.20 236.90 0.65 c p3
110.48 229.36 0.65 c p3
110.76 234.58 0.65 c p3
111.04 230.87 0.65 c p3
111.32 230.11 0.65 c p3
111.60 227.84 0.65 c p3
111.88 230.87 0.65 c p3
112.16 226.34 0.65 c p3
112.44 230.11 0.65 c p3
112.72 227.84 0.65 c p3
113.00 225.59 0.65 c p3
113.28 224.84 0.65 c p3
113.56 228.60 0.65 c p3
113.84 221.13 0.65 c p3
114.12 221.13 0.65 c p3
114.40 218.93 0.65 c p3
114.68 223.35 0.65 c p3
114.96 220.40 0.65 c p3
115.24 224.10 0.65 c p3
115.52 218.93 0.65 c p3
115.80 218.20 0.65 c p3
116.08 218.20 0.65 c p3
116.36 221.13 0.65 c p3
116.64 216.74 0.65 c p3
116.92 215.29 0.65 c p3
117.20 214.56 0.65 c p3
117.48 213.84 0.65 c p3
117.76 210.38 0.65 c p3
118.04 213.12 0.65 c p3
118.32 210.38 0.65 c p3
118.60 208.96 0.65 c p3
118.88 208.25 0.65 c p3
119.16 213.12 0.65 c p3
119.44 206.14 0.65 c p3
119.72 210.38 0.65 c p3
120.00 205.43 0.65 c p3
120.28 206.14 0.65 c p3
120.56 203.34 0.65 c p3
120.84 206.84 0.65 c p3
121.12 206.14 0.65 c p3
121.40 204.04 0.65 c p3
121.68 204.04 0.65 c p3
121.96 201.95 0.65 c p3
122.24 202.64 0.65 c p3
122.52 204.04 0.65 c p3
122.80 201.95 0.65 c p3
123.08 204.04 0.65 c p3
123.36 199.19 0.65 c p3
123.64 200.57 0.65 c p3
123.92 201.95 0.65 c p3
124.20 197.14 0.65 c p3
124.48 197.82 0.65 c p3
124.76 195.10 0.65 c p3
125.04 191.17 0.65 c p3
125.32 195.10 0.65 c p3
125.60 193.18 0.65 c p3
125.88 194.42 0.65 c p3
126.16 191.84 0.65 c p3
126.44 195.10 0.65 c p3
126.72 193.18 0.65 c p3
127.00 192.51 0.65 c p3
127.28 193.18 0.65 c p3
127.56 193.18 0.65 c p3
127.84 191.84 0.65 c p3
128.12 187.18 0.65 c p3
128.40 187.18 0.65 c p3
128.68 189.83 0.65 c p3
128.96 187.18 0.65 c p3
129.24 187.18 0.65 c p3
129.52 187.18 0.65 c p3
129.80 185.86 0.65 c p3
130.08 187.84 0.65 c p3
130.36 185.86 0.65 c p3
130.64 184.55 0.65 c p3
130.92 185.20 0.65 c p3
131.20 185.86 0.65 c p3
131.48 179.99 0.65 c p3
131.76 182.59 0.65 c p3
132.04 181.94 0.65 c p3
132.32 182.59 0.65 c p3
132.60 183.24 0.65 c p3
132.88 181.29 0.65 c p3
133.16 175.61 0.65 c p3
133.44 181.29 0.65 c p3
133.72 180.64 0.65 c p3
134.00 177.42 0.65 c p3
134.28 180.64 0.65 c p3
134.56 173.71 0.65 c p3
134.84 174.98 0.65 c p3
135.12 174.98 0.65 c p3
135.40 173.71 0.65 c p3
135.68 176.78 0.65 c p3
135.96 173.08 0.65 c p3
136.24 173.71 0.65 c p3
136.52 172.45 0.65 c p3
136.80 169.94 0.65 c p3
137.08 171.82 0.65 c p3
137.36 171.82 0.65 c p3
137.64 171.19 0.65 c p3
137.92 173.08 0.65 c p3
138.20 166.83 0.65 c p3
138.48 168.70 0.65 c p3
138.76 169.32 0.65 c p3
139.04 166.83 0.65 c p3
139.32 166.22 0.65 c p3
139.60 168.07 0.65 c p3
139.88 168.70 0.65 c p3
140.16 169.32 0.65 c p3
140.44 166.83 0.65 c p3
140.72 167.45 0.65 c p3
141.00 165.60 0.65 c p3
141.28 161.32 0.65 c p3
141.56 164.37 0.65 c p3
141.84 163.15 0.65 c p3
142.12 161.32 0.65 c p3
142.40 164.37 0.65 c p3
142.68 161.93 0.65 c p3
142.96 160.71 0.65 c p3
143.24 161.32 0.65 c p3
143.52 163.15 0.65 c p3
143.80 162.54 0.65 c p3
144.08 159.00 0.65 c p3
144.36 157.20 0.65 c p3
144.64 157.80 0.65 c p3
144.92 160.21 0.65 c p3
145.20 156.00 0.65 c p3
145.48 158.40 0.65 c p3
145.76 159.00 0.65 c p3
146.04 155.40 0.65 c p3
146.32 153.62 0.65 c p3
146.60 155.40 0.65 c p3
146.88 156.00 0.65 c p3
147.16 156.00 0.65 c p3
147.44 150.67 0.65 c p3
147.72 154.21 0.65 c p3
148.00 156.00 0.65 c p3
148.28 153.03 0.65 c p3
148.56 151.26 0.65 c p3
148.84 151.85 0.65 c p3
149.12 148.92 0.65 c p3
149.40 152.44 0.65 c p3
149.68 151.26 0.65 c p3
149.96 150.09 0.65 c p3
150.24 150.67 0.65 c p3
150.52 146.59 0.65 c p3
150.80 148.92 0.65 c p3
151.08 149.50 0.65 c p3
151.36 147.17 0.65 c p3
151.64 148.33 0.65 c p3
151.92 146.01 0.65 c p3
152.20 144.86 0.65 c p3
152.48 147.17 0.65 c p3
152.76 146.01 0.65 c p3
153.04 143.23 0.65 c p3
153.32 145.44 0.65 c p3
153.60 140.95 0.65 c p3
153.88 144.38 0.65 c p3
154.16 143.23 0.65 c p3
154.44 143.81 0.65 c p3
154.72 144.38 0.65 c p3
155.00 142.66 0.65 c p3
155.28 144.86 0.65 c p3
155.56 142.66 0.65 c p3
155.84 142.09 0.65 c p3
156.12 140.95 0.65 c p3
156.40 137.56 0.65 c p3
156.68 142.09 0.65 c p3
156.96 141.52 0.65 c p3
157.24 139.81 0.65 c p3
157.52 141.52 0.65 c p3
157.80 139.25 0.65 c p3
158.08 138.12 0.65 c p3
158.36 138.68 0.65 c p3
158.64 137.56 0.65 c p3
158.92 138.68 0.65 c p3
159.20 137.56 0.65 c p3
159.48 137.56 0.65 c p3
159.76 134.20 0.65 c p3
160.04 137.56 0.65 c p3
160.32 135.88 0.65 c p3
160.60 136.44 0.65 c p3
160.88 135.88 0.65 c p3
161.16 133.09 0.65 c p3
161.44 134.76 0.65 c p3
161.72 131.99 0.65 c p3
162.00 133.65 0.65 c p3
162.28 134.20 0.65 c p3
162.56 133.65 0.65 c p3
162.84 131.99 0.65 c p3
163.12 132.54 0.65 c p3
163.40 133.65 0.65 c p3
163.68 130.33 0.65 c p3
163.96 133.09 0.65 c p3
164.24 131.43 0.65 c p3
164.52 133.65 0.65 c p3
164.80 130.88 0.65 c p3
165.08 130.88 0.65 c p3
165.36 127.15 0.65 c p3
165.64 129.33 0.65 c p3
165.92 129.33 0.65 c p3
166.20 126.06 0.65 c p3
166.48 128.24 0.65 c p3
166.76 127.69 0.65 c p3
167.04 128.78 0.65 c p3
167.32 129.78 0.65 c p3
167.60 124.98 0.65 c p3
167.88 128.78 0.65 c p3
168.16 124.98 0.65 c p3
168.44 127.15 0.65 c p3
168.72 126.60 0.65 c p3
169.00 124.98 0.65 c p3
169.28 128.24 0.65 c p3
169.56 123.90 0.65 c p3
169.84 127.15 0.65 c p3
170.12 124.98 0.65 c p3
170.40 123.36 0.65 c p3
170.68 123.36 0.65 c p3
170.96 120.69 0.65 c p3
171.24 124.98 0.65 c p3
171.52 125.52 0.65 c p3
171.80 121.22 0.65 c p3
172.08 122.83 0.65 c p3
172.36 119.63 0.65 c p3
172.64 124.98 0.65 c p3
172.92 123.36 0.65 c p3
173.20 121.22 0.65 c p3
173.48 123.90 0.65 c p3
173.76 118.57 0.65 c p3
174.04 120.16 0.65 c p3
174.32 122.83 0.65 c p3
174.60 118.04 0.65 c p3
174.88 116.99 0.65 c p3
175.16 118.57 0.65 c p3
175.44 116.99 0.65 c p3
175.72 118.57 0.65 c p3
176.00 120.16 0.65 c p3
176.28 118.04 0.65 c p3
176.56 115.94 0.65 c p3
176.84 116.46 0.65 c p3
177.12 116.46 0.65 c p3
177.40 116.99 0.65 c p3
177.68 116.99 0.65 c p3
177.96 116.99 0.65 c p3
178.24 116.99 0.65 c p3
178.52 118.04 0.65 c p3
178.80 113.93 0.65 c p3
179.08 115.94 0.65 c p3
179.36 113.41 0.65 c p3
179.64 113.93 0.65 c p3
179.92 112.37 0.65 c p3
180.20 113.93 0.65 c p3
180.48 112.89 0.65 c p3
180.76 112.89 0.65 c p3
181.04 115.41 0.65 c p3
181.32 112.37 0.65 c p3
181.60 114.45 0.65 c p3
181.88 113.41 0.65 c p3
182.16 110.82 0.65 c p3
182.44 113.41 0.65 c p3
182.72 111.86 0.65 c p3
183.00 110.31 0.65 c p3
183.28 113.41 0.65 c p3
183.56 108.77 0.65 c p3
183.84 110.31 0.65 c p3
184.12 111.34 0.65 c p3
184.40 110.31 0.65 c p3
184.68 112.37 0.65 c p3
184.96 108.26 0.65 c p3
185.24 111.86 0.65 c p3
185.52 111.86 0.65 c p3
185.80 107.75 0.65 c p3
186.08 108.77 0.65 c p3
186.36 108.26 0.65 c p3
186.64 105.20 0.65 c p3
186.92 109.28 0.65 c p3
187.20 109.28 0.65 c p3
187.48 108.77 0.65 c p3
187.76 108.26 0.65 c p3
188.04 107.75 0.65 c p3
188.32 109.28 0.65 c p3
188.60 105.71 0.65 c p3
188.88 107.24 0.65 c p3
189.16 104.70 0.65 c p3
189.44 106.73 0.65 c p3
189.72 104.70 0.65 c p3
190.00 101.68 0.65 c p3
190.28 107.24 0.65 c p3
190.56 104.19 0.65 c p3
190.84 106.73 0.65 c p3
191.12 105.71 0.65 c p3
191.40 105.20 0.65 c p3
191.68 103.69 0.65 c p3
191.96 103.19 0.65 c p3
192.24 107.24 0.65 c p3
192.52 104.70 0.65 c p3
192.80 102.68 0.65 c p3
193.08 104.70 0.65 c p3
193.36 104.70 0.65 c p3
193.64 103.69 0.65 c p3
193.92 103.19 0.65 c p3
194.20 101.68 0.65 c p3
194.48 103.69 0.65 c p3
194.76 102.18 0.65 c p3
195.04 101.26 0.65 c p3
195.32 99.77 0.65 c p3
195.60 98.78 0.65 c p3
195.88 101.68 0.65 c p3
196.16 100.27 0.65 c p3
196.44 98.78 0.65 c p3
196.72 98.28 0.65 c p3
197.00 100.77 0.65 c p3
197.28 101.26 0.65 c p3
197.56 99.77 0.65 c p3
197.84 100.77 0.65 c p3
198.12 99.77 0.65 c p3
198.40 103.19 0.65 c p3
198.68 97.29 0.65 c p3
198.96 96.31 0.65 c p3
199.24 100.27 0.65 c p3
199.52 97.79 0.65 c p3
199.80 101.26 0.65 c p3
200.08 99.77 0.65 c p3
200.36 98.28 0.65 c p3
200.64 99.27 0.65 c p3
200.92 97.29 0.65 c p3
201.20 100.27 0.65 c p3
201.48 99.27 0.65 c p3
201.76 96.80 0.65 c p3
202.04 96.80 0.65 c p3
202.32 96.80 0.65 c p3
202.60 95.82 0.65 c p3
202.88 98.28 0.65 c p3
203.16 96.80 0.65 c p3
203.44 95.32 0.65 c p3
203.72 97.79 0.65 c p3
204.00 94.83 0.65 c p3
204.28 97.29 0.65 c p3
204.56 94.83 0.65 c p3
204.84 95.32 0.65 c p3
205.12 96.80 0.65 c p3
205.40 94.35 0.65 c p3
205.68 96.31 0.65 c p3
205.96 94.83 0.65 c p3
206.24 94.35 0.65 c p3
206.52 95.32 0.65 c p3
206.80 91.43 0.65 c p3
207.08 95.82 0.65 c p3
207.36 94.35 0.65 c p3
207.64 93.86 0.65 c p3
207.92 93.86 0.65 c p3
208.20 92.88 0.65 c p3
208.48 94.35 0.65 c p3
208.76 89.98 0.65 c p3
209.04 95.82 0.65 c p3
209.32 92.40 0.65 c p3
209.60 90.94 0.65 c p3
209.88 92.88 0.65 c p3
210.16 90.94 0.65 c p3
210.44 93.37 0.65 c p3
210.72 92.88 0.65 c p3
211.00 92.88 0.65 c p3
211.28 89.50 0.65 c p3
211.56 92.88 0.65 c p3
211.84 89.50 0.65 c p3
212.12 92.88 0.65 c p3
212.40 89.02 0.65 c p3
212.68 90.94 0.65 c p3
212.96 89.50 0.65 c p3
213.24 89.02 0.65 c p3
213.52 89.98 0.65 c p3
213.80 89.98 0.65 c p3
214.08 88.54 0.65 c p3
214.36 91.91 0.65 c p3
214.64 89.02 0.65 c p3
214.92 88.54 0.65 c p3
215.20 88.54 0.65 c p3
215.48 88.54 0.65 c p3
215.76 90.94 0.65 c p3
216.04 87.66 0.65 c p3
216.32 88.54 0.65 c p3
216.60 86.70 0.65 c p3
216.88 88.14 0.65 c p3
217.16 89.50 0.65 c p3
217.44 85.75 0.65 c p3
217.72 85.28 0.65 c p3
218.00 90.46 0.65 c p3
218.28 85.28 0.65 c p3
218.56 89.02 0.65 c p3
218.84 86.70 0.65 c p3
219.12 89.50 0.65 c p3
219.40 87.18 0.65 c p3
219.68 87.18 0.65 c p3
219.96 84.80 0.65 c p3
220.24 87.66 0.65 c p3
220.52 86.23 0.65 c p3
220.80 87.66 0.65 c p3
221.08 89.98 0.65 c p3
221.36 86.70 0.65 c p3
221.64 87.66 0.65 c p3
221.92 85.75 0.65 c p3
222.20 84.80 0.65 c p3
222.48 87.18 0.65 c p3
222.76 87.66 0.65 c p3
223.04 84.33 0.65 c p3
223.32 83.38 0.65 c p3
223.60 88.14 0.65 c p3
223.88 85.75 0.65 c p3
224.16 85.28 0.65 c p3
224.44 87.18 0.65 c p3
224.72 82.44 0.65 c p3
225.00 84.80 0.65 c p3
225.28 84.80 0.65 c p3
225.56 85.75 0.65 c p3
225.84 86.23 0.65 c p3
226.12 84.80 0.65 c p3
226.40 85.75 0.65 c p3
226.68 86.70 0.65 c p3
226.96 87.66 0.65 c p3
227.24 85.75 0.65 c p3
227.52 83.86 0.65 c p3
227.80 82.91 0.65 c p3
228.08 84.33 0.65 c p3
228.36 83.38 0.65 c p3
228.64 82.44 0.65 c p3
228.92 83.38 0.65 c p3
229.20 85.75 0.65 c p3
229.48 82.91 0.65 c p3
229.76 84.33 0.65 c p3
230.04 82.91 0.65 c p3
230.32 82.91 0.65 c p3
230.60 83.38 0.65 c p3
230.88 83.38 0.65 c p3
231.16 80.57 0.65 c p3
231.44 84.80 0.65 c p3
231.72 83.38 0.65 c p3
232.00 82.91 0.65 c p3
232.28 81.04 0.65 c p3
232.56 81.50 0.65 c p3
232.84 84.33 0.65 c p3
233.12 80.57 0.65 c p3
233.40 81.97 0.65 c p3
233.68 81.04 0.65 c p3
233.96 79.17 0.65 c p3
234.24 81.50 0.65 c p3
234.52 81.97 0.65 c p3
234.80 81.97 0.65 c p3
235.08 81.50 0.65 c p3
235.36 80.10 0.65 c p3
235.64 81.50 0.65 c p3
235.92 81.50 0.65 c p3
236.20 81.97 0.65 c p3
236.48 81.97 0.65 c p3
236.76 79.63 0.65 c p3
237.04 80.57 0.65 c p3
237.32 81.04 0.65 c p3
237.60 79.17 0.65 c p3
237.88 80.57 0.65 c p3
238.16 79.63 0.65 c p3
238.44 77.78 0.65 c p3
238.72 82.91 0.65 c p3
239.00 77.31 0.65 c p3
239.28 80.57 0.65 c p3
239.56 76.85 0.65 c p3
239.84 80.57 0.65 c p3
240.12 81.50 0.65 c p3
240.40 79.63 0.65 c p3
240.68 77.78 0.65 c p3
240.96 78.70 0.65 c p3
241.24 78.24 0.65 c p3
241.52 81.04 0.65 c p3
241.80 79.63 0.65 c p3
242.08 77.78 0.65 c p3
242.36 80.57 0.65 c p3
242.64 78.24 0.65 c p3
242.92 79.63 0.65 c p3
243.20 79.17 0.65 c p3
243.48 79.63 0.65 c p3
243.76 79.63 0.65 c p3
244.04 77.78 0.65 c p3
244.32 77.78 0.65 c p3
244.60 81.04 0.65 c p3
244.88 76.39 0.65 c p3
245.16 78.24 0.65 c p3
245.44 78.70 0.65 c p3
245.72 76.85 0.65 c p3
246.00 76.85 0.65 c p3
246.28 78.24 0.65 c p3
246.56 77.78 0.65 c p3
246.84 81.50 0.65 c p3
247.12 77.31 0.65 c p3
247.40 75.93 0.65 c p3
247.68 78.24 0.65 c p3
247.96 80.57 0.65 c p3
248.24 78.70 0.65 c p3
248.52 76.39 0.65 c p3
248.80 76.39 0.65 c p3
249.08 76.85 0.65 c p3
249.36 76.85 0.65 c p3
249.64 76.39 0.65 c p3
249.92 77.31 0.65 c p3
250.20 74.17 0.65 c p3
250.48 75.55 0.65 c p3
250.76 78.70 0.65 c p3
251.04 78.24 0.65 c p3
251.32 77.31 0.65 c p3
251.60 75.09 0.65 c p3
251.88 76.85 0.65 c p3
252.16 78.24 0.65 c p3
252.44 78.24 0.65 c p3
252.72 75.93 0.65 c p3
253.00 72.80 0.65 c p3
253.28 75.93 0.65 c p3
253.56 74.17 0.65 c p3
253.84 75.09 0.65 c p3
254.12 74.63 0.65 c p3
254.40 75.09 0.65 c p3
254.68 76.39 0.65 c p3
254.96 73.26 0.65 c p3
255.24 76.85 0.65 c p3
255.52 77.78 0.65 c p3
255.80 75.93 0.65 c p3
256.08 76.39 0.65 c p3
256.36 75.55 0.65 c p3
256.64 79.63 0.65 c p3
256.92 74.63 0.65 c p3
257.20 75.55 0.65 c p3
257.48 75.09 0.65 c p3
257.76 75.55 0.65 c p3
258.04 76.85 0.65 c p3
258.32 75.93 0.65 c p3
258.60 76.39 0.65 c p3
258.88 74.17 0.65 c p3
259.16 76.39 0.65 c p3
259.44 75.93 0.65 c p3
259.72 76.85 0.65 c p3
260.00 77.31 0.65 c p3
260.28 73.71 0.65 c p3
260.56 74.63 0.65 c p3
260.84 77.31 0.65 c p3
261.12 75.09 0.65 c p3
261.40 77.78 0.65 c p3
261.68 76.85 0.65 c p3
261.96 73.71 0.65 c p3
262.24 75.93 0.65 c p3
262.52 74.17 0.65 c p3
262.80 77.78 0.65 c p3
263.08 71.89 0.65 c p3
263.36 74.63 0.65 c p3
263.64 73.71 0.65 c p3
263.92 72.35 0.65 c p3
264.20 74.17 0.65 c p3
264.48 72.80 0.65 c p3
264.76 74.63 0.65 c p3
265.04 73.71 0.65 c p3
265.32 74.17 0.65 c p3
265.60 74.17 0.65 c p3
265.88 77.31 0.65 c p3
266.16 75.09 0.65 c p3
266.44 72.80 0.65 c p3
266.72 68.73 0.65 c p3
267.00 74.63 0.65 c p3
267.28 77.31 0.65 c p3
267.56 75.55 0.65 c p3
267.84 73.71 0.65 c p3
268.12 70.08 0.65 c p3
268.40 70.53 0.65 c p3
268.68 79.17 0.65 c p3
268.96 79.17 0.65 c p3
269.24 78.24 0.65 c p3
269.52 74.63 0.65 c p3
269.80 64.71 0.65 c p3
270.08 72.80 0.65 c p3
270.36 78.24 0.65 c p3
270.64 80.10 0.65 c p3
270.92 75.09 0.65 c p3
271.20 70.08 0.65 c p3
271.48 64.71 0.65 c p3
271.76 74.17 0.65 c p3
272.04 79.63 0.65 c p3
272.32 76.39 0.65 c p3
272.60 73.26 0.65 c p3
272.88 70.98 0.65 c p3
273.16 70.53 0.65 c p3
273.44 76.39 0.65 c p3
273.72 77.78 0.65 c p3
274.00 72.35 0.65 c p3
274.28 76.39 0.65 c p3
274.56 67.38 0.65 c p3
274.84 73.71 0.65 c p3
275.12 78.24 0.65 c p3
275.40 74.17 0.65 c p3
275.68 72.35 0.65 c p3
275.96 73.71 0.65 c p3
276.24 70.53 0.65 c p3
276.52 73.26 0.65 c p3
276.80 76.85 0.65 c p3
277.08 71.89 0.65 c p3
277.36 71.89 0.65 c p3
277.64 73.26 0.65 c p3
277.92 72.35 0.65 c p3
278.20 71.89 0.65 c p3
278.48 70.53 0.65 c p3
278.76 72.35 0.65 c p3
279.04 75.93 0.65 c p3
279.32 70.53 0.65 c p3
279.60 71.89 0.65 c p3
279.88 73.26 0.65 c p3
280.16 72.35 0.65 c p3
280.44 76.39 0.65 c p3
280.72 72.80 0.65 c p3
281.00 73.26 0.65 c p3
281.28 71.89 0.65 c p3
281.56 72.80 0.65 c p3
281.84 73.71 0.65 c p3
282.12 72.80 0.65 c p3
282.40 72.35 0.65 c p3
282.68 71.44 0.65 c p3
282.96 71.44 0.65 c p3
283.24 72.35 0.65 c p3
283.52 72.35 0.65 c p3
283.80 71.89 0.65 c p3
284.08 72.35 0.65 c p3
284.36 70.98 0.65 c p3
284.64 75.55 0.65 c p3
284.92 73.26 0.65 c p3
285.20 72.80 0.65 c p3
285.48 72.35 0.65 c p3
285.76 70.98 0.65 c p3
286.04 74.17 0.65 c p3
286.32 75.93 0.65 c p3
286.60 71.89 0.65 c p3
286.88 73.71 0.65 c p3
287.16 74.17 0.65 c p3
287.44 72.80 0.65 c p3
287.72 72.35 0.65 c p3
288.00 72.80 0.65 c p3
288.28 71.89 0.65 c p3
288.56 72.35 0.65 c p3
288.84 72.80 0.65 c p3
289.12 71.44 0.65 c p3
289.40 75.09 0.65 c p3
289.68 74.17 0.65 c p3
289.96 72.80 0.65 c p3
290.24 74.63 0.65 c p3
290.52 72.35 0.65 c p3
290.80 70.98 0.65 c p3
291.08 74.17 0.65 c p3
291.36 69.63 0.65 c p3
291.64 74.17 0.65 c p3
291.92 72.80 0.65 c p3
292.20 74.17 0.65 c p3
292.48 75.09 0.65 c p3
292.76 71.89 0.65 c p3
293.04 73.26 0.65 c p3
293.32 74.17 0.65 c p3
293.60 70.98 0.65 c p3
293.88 70.98 0.65 c p3
294.16 73.26 0.65 c p3
294.44 71.89 0.65 c p3
294.72 72.35 0.65 c p3
295.00 70.08 0.65 c p3
295.28 73.71 0.65 c p3
295.56 71.44 0.65 c p3
295.84 71.44 0.65 c p3
296.12 71.89 0.65 c p3
296.40 70.08 0.65 c p3
296.68 73.71 0.65 c p3
296.96 72.35 0.65 c p3
297.24 75.93 0.65 c p3
297.52 71.89 0.65 c p3
297.80 72.80 0.65 c p3
298.08 73.26 0.65 c p3
298.36 73.26 0.65 c p3
298.64 71.44 0.65 c p3
298.92 72.80 0.65 c p3
299.20 71.44 0.65 c p3
299.48 69.63 0.65 c p3
299.76 72.80 0.65 c p3
300.04 71.89 0.65 c p3
300.32 72.35 0.65 c p3
300.60 74.17 0.65 c p3
300.88 71.44 0.65 c p3
301.16 71.44 0.65 c p3
301.44 70.98 0.65 c p3
301.72 70.98 0.65 c p3
302.00 73.26 0.65 c p3
302.28 75.09 0.65 c p3
302.56 70.53 0.65 c p3
302.84 71.89 0.65 c p3
303.12 70.53 0.65 c p3
303.40 72.35 0.65 c p3
303.68 73.26 0.65 c p3
303.96 69.63 0.65 c p3
304.24 73.71 0.65 c p3
304.52 73.26 0.65 c p3
304.80 70.98 0.65 c p3
305.08 72.80 0.65 c p3
305.36 72.35 0.65 c p3
305.64 73.71 0.65 c p3
305.92 70.08 0.65 c p3
306.20 70.98 0.65 c p3
306.48 70.98 0.65 c p3
306.76 71.44 0.65 c p3
307.04 71.89 0.65 c p3
307.32 72.35 0.65 c p3
307.60 72.35 0.65 c p3
307.88 68.28 0.65 c p3
308.16 70.53 0.65 c p3
308.44 72.35 0.65 c p3
308.72 71.89 0.65 c p3
309.00 70.08 0.65 c p3
309.28 71.89 0.65 c p3
309.56 71.44 0.65 c p3
309.84 71.89 0.65 c p3
310.12 72.35 0.65 c p3
310.40 72.80 0.65 c p3
310.68 71.89 0.65 c p3
310.96 69.63 0.65 c p3
311.24 70.98 0.65 c p3
311.52 71.89 0.65 c p3
311.80 74.63 0.65 c p3
312.08 71.89 0.65 c p3
312.36 72.35 0.65 c p3
312.64 72.80 0.65 c p3
312.92 72.80 0.65 c p3
313.20 73.26 0.65 c p3
313.48 72.80 0.65 c p3
313.76 70.98 0.65 c p3
314.04 70.53 0.65 c p3
314.32 70.98 0.65 c p3
314.60 68.73 0.65 c p3
314.88 73.26 0.65 c p3
315.16 70.08 0.65 c p3
315.44 71.89 0.65 c p3
315.72 69.18 0.65 c p3
316.00 71.44 0.65 c p3
316.28 71.89 0.65 c p3
316.56 70.53 0.65 c p3
316.84 69.63 0.65 c p3
317.12 68.28 0.65 c p3
317.40 73.26 0.65 c p3
317.68 73.26 0.65 c p3
317.96 69.18 0.65 c p3
318.24 71.89 0.65 c p3
318.52 68.73 0.65 c p3
318.80 70.98 0.65 c p3
319.08 73.71 0.65 c p3
319.36 69.18 0.65 c p3
319.64 71.89 0.65 c p3
319.92 70.98 0.65 c p3
320.20 71.44 0.65 c p3
320.48 75.09 0.65 c p3
320.76 70.53 0.65 c p3
321.04 69.18 0.65 c p3
321.32 71.44 0.65 c p3
321.60 71.44 0.65 c p3
321.88 74.17 0.65 c p3
322.16 70.98 0.65 c p3
322.44 69.63 0.65 c p3
322.72 72.35 0.65 c p3
323.00 71.89 0.65 c p3
323.28 71.44 0.65 c p3
323.56 75.09 0.65 c p3
323.84 72.35 0.65 c p3
324.12 70.08 0.65 c p3
324.40 70.08 0.65 c p3
324.68 71.44 0.65 c p3
324.96 69.63 0.65 c p3
325.24 72.35 0.65 c p3
325.52 70.53 0.65 c p3
325.80 70.53 0.65 c p3
326.08 71.44 0.65 c p3
326.36 71.89 0.65 c p3
326.64 75.09 0.65 c p3
326.92 70.98 0.65 c p3
327.20 72.80 0.65 c p3
327.48 71.89 0.65 c p3
327.76 70.08 0.65 c p3
328.04 72.35 0.65 c p3
328.32 72.80 0.65 c p3
328.60 73.71 0.65 c p3
328.88 72.80 0.65 c p3
329.16 67.38 0.65 c p3
329.44 70.08 0.65 c p3
329.72 70.98 0.65 c p3
330.00 72.80 0.65 c p3
330.28 75.09 0.65 c p3
330.56 69.63 0.65 c p3
330.84 73.26 0.65 c p3
331.12 70.08 0.65 c p3
331.40 70.98 0.65 c p3
331.68 72.80 0.65 c p3
331.96 71.89 0.65 c p3
332.24 70.08 0.65 c p3
332.52 70.08 0.65 c p3
332.80 69.18 0.65 c p3
333.08 75.55 0.65 c p3
333.36 71.44 0.65 c p3
333.64 72.80 0.65 c p3
333.92 70.53 0.65 c p3
334.20 67.83 0.65 c p3
334.48 74.17 0.65 c p3
334.76 74.17 0.65 c p3
335.04 73.71 0.65 c p3
335.32 68.28 0.65 c p3
335.60 70.98 0.65 c p3
335.88 71.44 0.65 c p3
336.16 71.89 0.65 c p3
336.44 73.26 0.65 c p3
336.72 71.89 0.65 c p3
337.00 71.89 0.65 c p3
337.28 70.98 0.65 c p3
337.56 73.71 0.65 c p3
337.84 71.89 0.65 c p3
338.12 69.63 0.65 c p3
338.40 73.26 0.65 c p3
338.68 69.63 0.65 c p3
338.96 70.53 0.65 c p3
339.24 71.89 0.65 c p3
339.52 72.35 0.65 c p3
339.80 71.89 0.65 c p3
340.08 73.26 0.65 c p3
340.36 67.83 0.65 c p3
340.64 72.35 0.65 c p3
340.92 71.89 0.65 c p3
341.20 68.73 0.65 c p3
341.48 71.44 0.65 c p3
341.76 73.26 0.65 c p3
342.04 71.44 0.65 c p3
342.32 72.35 0.65 c p3
342.60 70.53 0.65 c p3
342.88 72.80 0.65 c p3
343.16 71.89 0.65 c p3
343.44 71.89 0.65 c p3
343.72 71.44 0.65 c p3
344.00 72.80 0.65 c p3
344.28 68.73 0.65 c p3
344.56 71.44 0.65 c p3
344.84 73.26 0.65 c p3
345.12 70.53 0.65 c p3
345.40 70.53 0.65 c p3
345.68 70.08 0.65 c p3
345.96 70.08 0.65 c p3
346.24 69.63 0.65 c p3
346.52 71.89 0.65 c p3
346.80 71.44 0.65 c p3
347.08 69.18 0.65 c p3
347.36 69.63 0.65 c p3
347.64 72.80 0.65 c p3
347.92 71.44 0.65 c p3
348.20 71.89 0.65 c p3
348.48 71.89 0.65 c p3
348.76 69.63 0.65 c p3
349.04 71.89 0.65 c p3
349.32 71.89 0.65 c p3
349.60 71.44 0.65 c p3
216.00 201.60 367.20 247.68 cl
0 0 0 srgb
0.75 setlinewidth
[] 0 setdash
1 setlinecap
1 setlinejoin
10.00 setmiterlimit
221.60 225.59 0.43 c p1
221.76 220.23 0.43 c p1
221.92 221.55 0.43 c p1
222.08 219.55 0.43 c p1
222.23 221.96 0.43 c p1
222.39 222.16 0.43 c p1
222.55 220.36 0.43 c p1
222.71 225.83 0.43 c p1
222.87 218.59 0.43 c p1
223.03 224.19 0.43 c p1
223.18 220.05 0.43 c p1
223.34 226.71 0.43 c p1
223.50 222.56 0.43 c p1
223.66 224.88 0.43 c p1
223.82 219.71 0.43 c p1
223.98 224.14 0.43 c p1
224.13 215.87 0.43 c p1
224.29 225.52 0.43 c p1
224.45 214.15 0.43 c p1
224.61 227.94 0.43 c p1
224.77 223.85 0.43 c p1
224.93 229.28 0.43 c p1
225.08 219.98 0.43 c p1
225.24 224.28 0.43 c p1
225.40 220.27 0.43 c p1
225.56 221.45 0.43 c p1
225.72 218.51 0.43 c p1
225.88 224.80 0.43 c p1
226.03 221.85 0.43 c p1
226.19 226.07 0.43 c p1
226.35 217.21 0.43 c p1
226.51 225.27 0.43 c p1
226.67 221.49 0.43 c p1
226.83 221.61 0.43 c p1
226.98 219.72 0.43 c p1
227.14 224.85 0.43 c p1
227.30 219.95 0.43 c p1
227.46 226.05 0.43 c p1
227.62 224.14 0.43 c p1
227.78 222.24 0.43 c p1
227.93 222.33 0.43 c p1
228.09 228.40 0.43 c p1
228.25 219.57 0.43 c p1
228.41 220.64 0.43 c p1
228.57 218.78 0.43 c p1
228.73 225.71 0.43 c p1
228.89 222.83 0.43 c p1
229.04 228.79 0.43 c p1
229.20 222.98 0.43 c p1
229.36 223.04 0.43 c p1
229.52 224.07 0.43 c p1
229.68 229.00 0.43 c p1
229.84 224.19 0.43 c p1
229.99 223.28 0.43 c p1
230.15 223.33 0.43 c p1
230.31 223.38 0.43 c p1
230.47 219.79 0.43 c p1
230.63 224.42 0.43 c p1
230.79 221.78 0.43 c p1
230.94 220.88 0.43 c p1
231.10 220.92 0.43 c p1
231.26 228.36 0.43 c p1
231.42 220.06 0.43 c p1
231.58 226.66 0.43 c p1
231.74 221.05 0.43 c p1
231.89 222.94 0.43 c p1
232.05 220.18 0.43 c p1
232.21 225.77 0.43 c p1
232.37 225.78 0.43 c p1
232.53 223.93 0.43 c p1
232.69 224.86 0.43 c p1
232.84 223.02 0.43 c p1
233.00 224.87 0.43 c p1
233.16 227.63 0.43 c p1
233.32 225.78 0.43 c p1
233.48 229.45 0.43 c p1
233.64 223.93 0.43 c p1
233.79 226.65 0.43 c p1
233.95 229.38 0.43 c p1
234.11 223.89 0.43 c p1
234.27 225.68 0.43 c p1
234.43 222.95 0.43 c p1
234.59 218.61 0.43 c p1
234.74 224.70 0.43 c p1
234.90 223.02 0.43 c p1
235.06 225.53 0.43 c p1
235.22 222.96 0.43 c p1
235.38 228.14 0.43 c p1
235.54 226.45 0.43 c p1
235.70 226.41 0.43 c p1
235.85 228.14 0.43 c p1
236.01 228.98 0.43 c p1
236.17 228.03 0.43 c p1
236.33 222.68 0.43 c p1
236.49 223.50 0.43 c p1
236.65 227.84 0.43 c p1
236.80 225.14 0.43 c p1
236.96 225.95 0.43 c p1
237.12 226.76 0.43 c p1
237.28 225.82 0.43 c p1
237.44 229.24 0.43 c p1
237.60 227.41 0.43 c p1
237.75 226.46 0.43 c p1
237.91 228.12 0.43 c p1
238.07 229.78 0.43 c p1
238.23 222.78 0.43 c p1
238.39 226.99 0.43 c p1
238.55 226.90 0.43 c p1
238.70 228.53 0.43 c p1
238.86 230.16 0.43 c p1
239.02 228.33 0.43 c p1
239.18 221.56 0.43 c p1
239.34 229.84 0.43 c p1
239.50 229.73 0.43 c p1
239.65 226.21 0.43 c p1
239.81 231.22 0.43 c p1
239.97 222.77 0.43 c p1
240.13 225.18 0.43 c p1
240.29 225.91 0.43 c p1
240.45 224.96 0.43 c p1
240.60 229.76 0.43 c p1
240.76 225.56 0.43 c p1
240.92 227.12 0.43 c p1
241.08 226.15 0.43 c p1
241.24 223.53 0.43 c p1
241.40 226.73 0.43 c p1
241.55 227.43 0.43 c p1
241.71 227.30 0.43 c p1
241.87 230.49 0.43 c p1
242.03 222.90 0.43 c p1
242.19 226.05 0.43 c p1
242.35 227.56 0.43 c p1
242.50 224.95 0.43 c p1
242.66 224.80 0.43 c p1
242.82 227.94 0.43 c p1
242.98 229.44 0.43 c p1
243.14 230.93 0.43 c p1
243.30 228.30 0.43 c p1
243.46 229.78 0.43 c p1
243.61 227.97 0.43 c p1
243.77 222.95 0.43 c p1
243.93 227.64 0.43 c p1
244.09 226.67 0.43 c p1
244.25 224.88 0.43 c p1
244.41 229.57 0.43 c p1
244.56 226.97 0.43 c p1
244.72 225.99 0.43 c p1
244.88 227.42 0.43 c p1
245.04 230.48 0.43 c p1
245.20 230.29 0.43 c p1
245.36 226.22 0.43 c p1
245.51 224.44 0.43 c p1
245.67 225.85 0.43 c p1
245.83 229.66 0.43 c p1
245.99 224.69 0.43 c p1
246.15 228.48 0.43 c p1
246.31 229.88 0.43 c p1
246.46 225.70 0.43 c p1
246.62 223.94 0.43 c p1
246.78 226.89 0.43 c p1
246.94 228.27 0.43 c p1
247.10 228.86 0.43 c p1
247.26 222.38 0.43 c p1
247.41 227.66 0.43 c p1
247.57 230.60 0.43 c p1
247.73 227.24 0.43 c p1
247.89 225.46 0.43 c p1
248.05 226.81 0.43 c p1
248.21 223.49 0.43 c p1
248.36 228.72 0.43 c p1
248.52 227.72 0.43 c p1
248.68 226.72 0.43 c p1
248.84 228.05 0.43 c p1
249.00 223.19 0.43 c p1
249.16 226.83 0.43 c p1
249.31 228.15 0.43 c p1
249.47 225.60 0.43 c p1
249.63 227.69 0.43 c p1
249.79 225.15 0.43 c p1
249.95 224.15 0.43 c p1
250.11 227.75 0.43 c p1
250.27 226.74 0.43 c p1
250.42 223.58 0.43 c p1
250.58 227.03 0.43 c p1
250.74 221.60 0.43 c p1
250.90 226.67 0.43 c p1
251.06 225.66 0.43 c p1
251.22 226.94 0.43 c p1
251.37 228.21 0.43 c p1
251.53 226.44 0.43 c p1
251.69 229.86 0.43 c p1
251.85 227.45 0.43 c p1
252.01 227.19 0.43 c p1
252.17 226.18 0.43 c p1
252.32 222.17 0.43 c p1
252.48 228.68 0.43 c p1
252.64 228.42 0.43 c p1
252.80 226.64 0.43 c p1
252.96 229.39 0.43 c p1
253.12 226.86 0.43 c p1
253.27 225.85 0.43 c p1
253.43 227.07 0.43 c p1
253.59 226.05 0.43 c p1
253.75 228.02 0.43 c p1
253.91 227.00 0.43 c p1
254.07 227.47 0.43 c p1
254.22 223.48 0.43 c p1
254.38 228.40 0.43 c p1
254.54 226.63 0.43 c p1
254.70 227.83 0.43 c p1
254.86 227.55 0.43 c p1
255.02 224.31 0.43 c p1
255.17 226.97 0.43 c p1
255.33 223.74 0.43 c p1
255.49 226.40 0.43 c p1
255.65 227.58 0.43 c p1
255.81 227.29 0.43 c p1
255.97 225.52 0.43 c p1
256.12 226.69 0.43 c p1
256.28 228.60 0.43 c p1
256.44 224.64 0.43 c p1
256.60 228.74 0.43 c p1
256.76 226.96 0.43 c p1
256.92 230.33 0.43 c p1
257.08 227.09 0.43 c p1
257.23 227.51 0.43 c p1
257.39 222.97 0.43 c p1
257.55 226.29 0.43 c p1
257.71 226.71 0.43 c p1
257.87 222.79 0.43 c p1
258.03 226.09 0.43 c p1
258.18 225.77 0.43 c p1
258.34 227.63 0.43 c p1
258.50 229.37 0.43 c p1
258.66 223.40 0.43 c p1
258.82 228.84 0.43 c p1
258.98 224.20 0.43 c p1
259.13 227.47 0.43 c p1
259.29 227.15 0.43 c p1
259.45 225.39 0.43 c p1
259.61 230.10 0.43 c p1
259.77 224.74 0.43 c p1
259.93 229.44 0.43 c p1
260.08 226.95 0.43 c p1
260.24 225.19 0.43 c p1
260.40 225.57 0.43 c p1
260.56 222.41 0.43 c p1
260.72 228.48 0.43 c p1
260.88 229.57 0.43 c p1
261.03 224.25 0.43 c p1
261.19 226.75 0.43 c p1
261.35 222.87 0.43 c p1
261.51 230.34 0.43 c p1
261.67 228.57 0.43 c p1
261.83 226.09 0.43 c p1
261.98 230.01 0.43 c p1
262.14 223.30 0.43 c p1
262.30 225.77 0.43 c p1
262.46 229.66 0.43 c p1
262.62 223.67 0.43 c p1
262.78 222.63 0.43 c p1
262.93 225.08 0.43 c p1
263.09 223.33 0.43 c p1
263.25 225.78 0.43 c p1
263.41 228.24 0.43 c p1
263.57 225.77 0.43 c p1
263.73 223.32 0.43 c p1
263.89 224.36 0.43 c p1
264.04 224.70 0.43 c p1
264.20 225.74 0.43 c p1
264.36 226.08 0.43 c p1
264.52 226.41 0.43 c p1
264.68 226.74 0.43 c p1
264.84 228.47 0.43 c p1
264.99 223.36 0.43 c p1
265.15 226.34 0.43 c p1
265.31 223.32 0.43 c p1
265.47 224.34 0.43 c p1
265.63 222.59 0.43 c p1
265.79 224.98 0.43 c p1
265.94 223.92 0.43 c p1
266.10 224.24 0.43 c p1
266.26 227.90 0.43 c p1
266.42 224.19 0.43 c p1
266.58 227.26 0.43 c p1
266.74 226.19 0.43 c p1
266.89 223.07 0.43 c p1
267.05 226.81 0.43 c p1
267.21 225.05 0.43 c p1
267.37 223.31 0.43 c p1
267.53 227.73 0.43 c p1
267.69 221.87 0.43 c p1
267.84 224.21 0.43 c p1
268.00 225.88 0.43 c p1
268.16 224.81 0.43 c p1
268.32 227.85 0.43 c p1
268.48 222.68 0.43 c p1
268.64 227.75 0.43 c p1
268.79 228.05 0.43 c p1
268.95 222.88 0.43 c p1
269.11 224.53 0.43 c p1
269.27 224.14 0.43 c p1
269.43 220.37 0.43 c p1
269.59 226.07 0.43 c p1
269.74 226.35 0.43 c p1
269.90 225.95 0.43 c p1
270.06 225.55 0.43 c p1
270.22 225.16 0.43 c p1
270.38 227.47 0.43 c p1
270.54 223.01 0.43 c p1
270.70 225.31 0.43 c p1
270.85 222.22 0.43 c p1
271.01 225.18 0.43 c p1
271.17 222.76 0.43 c p1
271.33 219.02 0.43 c p1
271.49 226.66 0.43 c p1
271.65 222.89 0.43 c p1
271.80 226.52 0.43 c p1
271.96 225.44 0.43 c p1
272.12 225.03 0.43 c p1
272.28 223.28 0.43 c p1
272.44 222.87 0.43 c p1
272.60 228.50 0.43 c p1
272.75 225.39 0.43 c p1
272.91 222.98 0.43 c p1
273.07 225.91 0.43 c p1
273.23 226.16 0.43 c p1
273.39 225.07 0.43 c p1
273.55 224.65 0.43 c p1
273.70 222.91 0.43 c p1
273.86 225.82 0.43 c p1
274.02 224.07 0.43 c p1
274.18 223.10 0.43 c p1
274.34 221.36 0.43 c p1
274.50 220.28 0.43 c p1
274.65 224.38 0.43 c p1
274.81 222.74 0.43 c p1
274.97 221.00 0.43 c p1
275.13 220.59 0.43 c p1
275.29 224.12 0.43 c p1
275.45 225.02 0.43 c p1
275.60 223.27 0.43 c p1
275.76 224.83 0.43 c p1
275.92 223.73 0.43 c p1
276.08 228.50 0.43 c p1
276.24 220.91 0.43 c p1
276.40 219.83 0.43 c p1
276.55 225.31 0.43 c p1
276.71 222.25 0.43 c p1
276.87 227.09 0.43 c p1
277.03 225.33 0.43 c p1
277.19 223.58 0.43 c p1
277.35 225.12 0.43 c p1
277.50 222.71 0.43 c p1
277.66 226.88 0.43 c p1
277.82 225.78 0.43 c p1
277.98 222.71 0.43 c p1
278.14 222.93 0.43 c p1
278.30 223.14 0.43 c p1
278.46 222.06 0.43 c p1
278.61 225.54 0.43 c p1
278.77 223.78 0.43 c p1
278.93 222.04 0.43 c p1
279.09 225.52 0.43 c p1
279.25 221.81 0.43 c p1
279.41 225.28 0.43 c p1
279.56 222.22 0.43 c p1
279.72 223.08 0.43 c p1
279.88 225.24 0.43 c p1
280.04 222.19 0.43 c p1
280.20 224.99 0.43 c p1
280.36 223.24 0.43 c p1
280.51 222.79 0.43 c p1
280.67 224.29 0.43 c p1
280.83 219.32 0.43 c p1
280.99 225.34 0.43 c p1
281.15 223.59 0.43 c p1
281.31 223.14 0.43 c p1
281.46 223.33 0.43 c p1
281.62 222.23 0.43 c p1
281.78 224.36 0.43 c p1
281.94 218.76 0.43 c p1
282.10 226.70 0.43 c p1
282.26 222.35 0.43 c p1
282.41 220.61 0.43 c p1
282.57 223.37 0.43 c p1
282.73 220.98 0.43 c p1
282.89 224.39 0.43 c p1
283.05 223.93 0.43 c p1
283.21 224.11 0.43 c p1
283.36 219.80 0.43 c p1
283.52 224.48 0.43 c p1
283.68 220.17 0.43 c p1
283.84 224.84 0.43 c p1
284.00 219.89 0.43 c p1
284.16 222.62 0.43 c p1
284.31 220.88 0.43 c p1
284.47 220.42 0.43 c p1
284.63 221.87 0.43 c p1
284.79 222.05 0.43 c p1
284.95 220.31 0.43 c p1
285.11 224.96 0.43 c p1
285.27 221.29 0.43 c p1
285.42 220.83 0.43 c p1
285.58 221.00 0.43 c p1
285.74 221.17 0.43 c p1
285.90 224.53 0.43 c p1
286.06 220.34 0.43 c p1
286.22 221.67 0.43 c p1
286.37 219.41 0.43 c p1
286.53 221.47 0.43 c p1
286.69 223.44 0.43 c p1
286.85 218.64 0.43 c p1
287.01 218.17 0.43 c p1
287.17 225.21 0.43 c p1
287.32 218.49 0.43 c p1
287.48 223.61 0.43 c p1
287.64 220.71 0.43 c p1
287.80 224.57 0.43 c p1
287.96 221.66 0.43 c p1
288.12 221.81 0.43 c p1
288.27 218.81 0.43 c p1
288.43 222.76 0.43 c p1
288.59 221.01 0.43 c p1
288.75 223.07 0.43 c p1
288.91 226.30 0.43 c p1
289.07 222.11 0.43 c p1
289.22 223.52 0.43 c p1
289.38 221.15 0.43 c p1
289.54 220.04 0.43 c p1
289.70 223.34 0.43 c p1
289.86 224.12 0.43 c p1
290.02 219.85 0.43 c p1
290.17 218.75 0.43 c p1
290.33 225.20 0.43 c p1
290.49 222.18 0.43 c p1
290.65 221.70 0.43 c p1
290.81 224.37 0.43 c p1
290.97 218.22 0.43 c p1
291.12 221.50 0.43 c p1
291.28 221.64 0.43 c p1
291.44 223.04 0.43 c p1
291.60 223.81 0.43 c p1
291.76 222.06 0.43 c p1
291.92 223.46 0.43 c p1
292.08 224.86 0.43 c p1
292.23 226.26 0.43 c p1
292.39 223.87 0.43 c p1
292.55 221.49 0.43 c p1
292.71 220.38 0.43 c p1
292.87 222.39 0.43 c p1
293.03 221.27 0.43 c p1
293.18 220.16 0.43 c p1
293.34 221.54 0.43 c p1
293.50 224.81 0.43 c p1
293.66 221.18 0.43 c p1
293.82 223.19 0.43 c p1
293.98 221.44 0.43 c p1
294.13 221.57 0.43 c p1
294.29 222.32 0.43 c p1
294.45 222.45 0.43 c p1
294.61 218.84 0.43 c p1
294.77 224.59 0.43 c p1
294.93 222.83 0.43 c p1
295.08 222.33 0.43 c p1
295.24 219.97 0.43 c p1
295.40 220.71 0.43 c p1
295.56 224.58 0.43 c p1
295.72 219.72 0.43 c p1
295.88 221.70 0.43 c p1
296.03 220.58 0.43 c p1
296.19 218.23 0.43 c p1
296.35 221.44 0.43 c p1
296.51 222.19 0.43 c p1
296.67 222.31 0.43 c p1
296.83 221.80 0.43 c p1
296.98 220.06 0.43 c p1
297.14 222.04 0.43 c p1
297.30 222.16 0.43 c p1
297.46 222.89 0.43 c p1
297.62 223.01 0.43 c p1
297.78 220.02 0.43 c p1
297.93 221.38 0.43 c p1
298.09 222.11 0.43 c p1
298.25 219.75 0.43 c p1
298.41 221.72 0.43 c p1
298.57 220.59 0.43 c p1
298.73 218.24 0.43 c p1
298.89 225.16 0.43 c p1
299.04 217.85 0.43 c p1
299.20 222.27 0.43 c p1
299.36 217.45 0.43 c p1
299.52 222.49 0.43 c p1
299.68 223.84 0.43 c p1
299.84 221.47 0.43 c p1
299.99 219.11 0.43 c p1
300.15 220.45 0.43 c p1
300.31 219.94 0.43 c p1
300.47 223.75 0.43 c p1
300.63 222.00 0.43 c p1
300.79 219.64 0.43 c p1
300.94 223.45 0.43 c p1
301.10 220.46 0.43 c p1
301.26 222.42 0.43 c p1
301.42 221.90 0.43 c p1
301.58 222.62 0.43 c p1
301.74 222.72 0.43 c p1
301.89 220.36 0.43 c p1
302.05 220.46 0.43 c p1
302.21 224.88 0.43 c p1
302.37 218.82 0.43 c p1
302.53 221.37 0.43 c p1
302.69 222.09 0.43 c p1
302.84 219.73 0.43 c p1
303.00 219.82 0.43 c p1
303.16 221.76 0.43 c p1
303.32 221.24 0.43 c p1
303.48 226.29 0.43 c p1
303.64 220.82 0.43 c p1
303.79 219.08 0.43 c p1
303.95 222.24 0.43 c p1
304.11 225.42 0.43 c p1
304.27 223.04 0.43 c p1
304.43 220.07 0.43 c p1
304.59 220.16 0.43 c p1
304.74 220.86 0.43 c p1
304.90 220.96 0.43 c p1
305.06 220.44 0.43 c p1
305.22 221.75 0.43 c p1
305.38 217.67 0.43 c p1
305.54 219.59 0.43 c p1
305.70 223.87 0.43 c p1
305.85 223.34 0.43 c p1
306.01 222.20 0.43 c p1
306.17 219.33 0.43 c p1
306.33 221.76 0.43 c p1
306.49 223.69 0.43 c p1
306.65 223.78 0.43 c p1
306.80 220.80 0.43 c p1
306.96 216.73 0.43 c p1
307.12 220.97 0.43 c p1
307.28 218.72 0.43 c p1
307.44 220.02 0.43 c p1
307.60 219.50 0.43 c p1
307.75 220.19 0.43 c p1
307.91 222.00 0.43 c p1
308.07 217.92 0.43 c p1
308.23 222.78 0.43 c p1
308.39 224.09 0.43 c p1
308.55 221.72 0.43 c p1
308.70 222.41 0.43 c p1
308.86 221.37 0.43 c p1
309.02 226.87 0.43 c p1
309.18 220.31 0.43 c p1
309.34 221.61 0.43 c p1
309.50 221.08 0.43 c p1
309.65 221.77 0.43 c p1
309.81 223.58 0.43 c p1
309.97 222.43 0.43 c p1
310.13 223.12 0.43 c p1
310.29 220.25 0.43 c p1
310.45 223.28 0.43 c p1
310.60 222.74 0.43 c p1
310.76 224.04 0.43 c p1
310.92 224.73 0.43 c p1
311.08 220.03 0.43 c p1
311.24 221.32 0.43 c p1
311.40 224.95 0.43 c p1
311.55 222.07 0.43 c p1
311.71 225.71 0.43 c p1
311.87 224.56 0.43 c p1
312.03 220.47 0.43 c p1
312.19 223.48 0.43 c p1
312.35 221.22 0.43 c p1
312.50 226.08 0.43 c p1
312.66 218.34 0.43 c p1
312.82 222.04 0.43 c p1
312.98 220.90 0.43 c p1
313.14 219.16 0.43 c p1
313.30 221.65 0.43 c p1
313.46 219.90 0.43 c p1
313.61 222.39 0.43 c p1
313.77 221.25 0.43 c p1
313.93 221.92 0.43 c p1
314.09 221.99 0.43 c p1
314.25 226.23 0.43 c p1
314.41 223.34 0.43 c p1
314.56 220.38 0.43 c p1
314.72 215.04 0.43 c p1
314.88 222.94 0.43 c p1
315.04 226.56 0.43 c p1
315.20 224.28 0.43 c p1
315.36 221.92 0.43 c p1
315.51 217.16 0.43 c p1
315.67 217.83 0.43 c p1
315.83 229.35 0.43 c p1
315.99 229.42 0.43 c p1
316.15 228.25 0.43 c p1
316.31 223.52 0.43 c p1
316.46 210.42 0.43 c p1
316.62 221.22 0.43 c p1
316.78 228.50 0.43 c p1
316.94 231.03 0.43 c p1
317.10 224.44 0.43 c p1
317.26 217.86 0.43 c p1
317.41 210.79 0.43 c p1
317.57 223.41 0.43 c p1
317.73 230.72 0.43 c p1
317.89 226.48 0.43 c p1
318.05 222.38 0.43 c p1
318.21 219.42 0.43 c p1
318.36 218.88 0.43 c p1
318.52 226.71 0.43 c p1
318.68 228.61 0.43 c p1
318.84 221.46 0.43 c p1
319.00 226.89 0.43 c p1
319.16 214.99 0.43 c p1
319.31 223.45 0.43 c p1
319.47 229.52 0.43 c p1
319.63 224.17 0.43 c p1
319.79 221.81 0.43 c p1
319.95 223.68 0.43 c p1
320.11 219.52 0.43 c p1
320.27 223.19 0.43 c p1
320.42 228.01 0.43 c p1
320.58 221.49 0.43 c p1
320.74 221.54 0.43 c p1
320.90 223.41 0.43 c p1
321.06 222.25 0.43 c p1
321.22 221.70 0.43 c p1
321.37 219.95 0.43 c p1
321.53 222.42 0.43 c p1
321.69 227.22 0.43 c p1
321.85 220.12 0.43 c p1
322.01 221.97 0.43 c p1
322.17 223.84 0.43 c p1
322.32 222.68 0.43 c p1
322.48 228.10 0.43 c p1
322.64 223.39 0.43 c p1
322.80 224.04 0.43 c p1
322.96 222.28 0.43 c p1
323.12 223.54 0.43 c p1
323.27 224.80 0.43 c p1
323.43 223.64 0.43 c p1
323.59 223.09 0.43 c p1
323.75 221.93 0.43 c p1
323.91 221.98 0.43 c p1
324.07 223.24 0.43 c p1
324.22 223.29 0.43 c p1
324.38 222.73 0.43 c p1
324.54 223.39 0.43 c p1
324.70 221.63 0.43 c p1
324.86 227.73 0.43 c p1
325.02 224.74 0.43 c p1
325.17 224.18 0.43 c p1
325.33 223.63 0.43 c p1
325.49 221.87 0.43 c p1
325.65 226.14 0.43 c p1
325.81 228.52 0.43 c p1
325.97 223.21 0.43 c p1
326.12 225.68 0.43 c p1
326.28 226.33 0.43 c p1
326.44 224.56 0.43 c p1
326.60 224.00 0.43 c p1
326.76 224.65 0.43 c p1
326.92 223.49 0.43 c p1
327.08 224.14 0.43 c p1
327.23 224.78 0.43 c p1
327.39 223.02 0.43 c p1
327.55 227.91 0.43 c p1
327.71 226.73 0.43 c p1
327.87 224.96 0.43 c p1
328.03 227.43 0.43 c p1
328.18 224.44 0.43 c p1
328.34 222.68 0.43 c p1
328.50 226.95 0.43 c p1
328.66 220.97 0.43 c p1
328.82 227.04 0.43 c p1
328.98 225.26 0.43 c p1
329.13 227.12 0.43 c p1
329.29 228.38 0.43 c p1
329.45 224.18 0.43 c p1
329.61 226.03 0.43 c p1
329.77 227.29 0.43 c p1
329.93 223.10 0.43 c p1
330.08 223.14 0.43 c p1
330.24 226.20 0.43 c p1
330.40 224.42 0.43 c p1
330.56 225.07 0.43 c p1
330.72 222.10 0.43 c p1
330.88 226.96 0.43 c p1
331.03 223.98 0.43 c p1
331.19 224.02 0.43 c p1
331.35 224.66 0.43 c p1
331.51 222.30 0.43 c p1
331.67 227.16 0.43 c p1
331.83 225.38 0.43 c p1
331.98 230.18 0.43 c p1
332.14 224.86 0.43 c p1
332.30 226.10 0.43 c p1
332.46 226.74 0.43 c p1
332.62 226.78 0.43 c p1
332.78 224.40 0.43 c p1
332.93 226.25 0.43 c p1
333.09 224.48 0.43 c p1
333.25 222.12 0.43 c p1
333.41 226.36 0.43 c p1
333.57 225.19 0.43 c p1
333.73 225.83 0.43 c p1
333.89 228.29 0.43 c p1
334.04 224.70 0.43 c p1
334.20 224.73 0.43 c p1
334.36 224.17 0.43 c p1
334.52 224.20 0.43 c p1
334.68 227.25 0.43 c p1
334.84 229.72 0.43 c p1
334.99 223.71 0.43 c p1
335.15 225.55 0.43 c p1
335.31 223.78 0.43 c p1
335.47 226.22 0.43 c p1
335.63 227.46 0.43 c p1
335.79 222.68 0.43 c p1
335.94 228.14 0.43 c p1
336.10 227.56 0.43 c p1
336.26 224.58 0.43 c p1
336.42 227.03 0.43 c p1
336.58 226.46 0.43 c p1
336.74 228.30 0.43 c p1
336.89 223.51 0.43 c p1
337.05 224.75 0.43 c p1
337.21 224.78 0.43 c p1
337.37 225.41 0.43 c p1
337.53 226.05 0.43 c p1
337.69 226.68 0.43 c p1
337.84 226.71 0.43 c p1
338.00 221.35 0.43 c p1
338.16 224.37 0.43 c p1
338.32 226.81 0.43 c p1
338.48 226.24 0.43 c p1
338.64 223.86 0.43 c p1
338.79 226.30 0.43 c p1
338.95 225.73 0.43 c p1
339.11 226.36 0.43 c p1
339.27 226.99 0.43 c p1
339.43 227.63 0.43 c p1
339.59 226.45 0.43 c p1
339.74 223.48 0.43 c p1
339.90 225.31 0.43 c p1
340.06 226.54 0.43 c p1
340.22 230.20 0.43 c p1
340.38 226.60 0.43 c p1
340.54 227.23 0.43 c p1
340.70 227.86 0.43 c p1
340.85 227.89 0.43 c p1
341.01 228.53 0.43 c p1
341.17 227.95 0.43 c p1
341.33 225.57 0.43 c p1
341.49 225.00 0.43 c p1
341.65 225.62 0.43 c p1
341.80 222.66 0.43 c p1
341.96 228.70 0.43 c p1
342.12 224.51 0.43 c p1
342.28 226.94 0.43 c p1
342.44 223.37 0.43 c p1
342.60 226.39 0.43 c p1
342.75 227.02 0.43 c p1
342.91 225.24 0.43 c p1
343.07 224.07 0.43 c p1
343.23 222.31 0.43 c p1
343.39 228.94 0.43 c p1
343.55 228.97 0.43 c p1
343.70 223.58 0.43 c p1
343.86 227.21 0.43 c p1
344.02 223.04 0.43 c p1
344.18 226.06 0.43 c p1
344.34 229.70 0.43 c p1
344.50 223.71 0.43 c p1
344.65 227.34 0.43 c p1
344.81 226.16 0.43 c p1
344.97 226.79 0.43 c p1
345.13 231.65 0.43 c p1
345.29 225.63 0.43 c p1
345.45 223.86 0.43 c p1
345.60 226.89 0.43 c p1
345.76 226.91 0.43 c p1
345.92 230.56 0.43 c p1
346.08 226.36 0.43 c p1
346.24 224.58 0.43 c p1
346.40 228.21 0.43 c p1
346.55 227.63 0.43 c p1
346.71 227.06 0.43 c p1
346.87 231.92 0.43 c p1
347.03 228.31 0.43 c p1
347.19 225.33 0.43 c p1
347.35 225.35 0.43 c p1
347.50 227.17 0.43 c p1
347.66 224.80 0.43 c p1
347.82 228.43 0.43 c p1
347.98 226.04 0.43 c p1
348.14 226.06 0.43 c p1
348.30 227.29 0.43 c p1
348.46 227.91 0.43 c p1
348.61 232.18 0.43 c p1
348.77 226.75 0.43 c p1
348.93 229.19 0.43 c p1
349.09 228.00 0.43 c p1
349.25 225.62 0.43 c p1
349.41 228.65 0.43 c p1
349.56 229.28 0.43 c p1
349.72 230.51 0.43 c p1
349.88 229.32 0.43 c p1
350.04 222.15 0.43 c p1
350.20 225.75 0.43 c p1
350.36 226.97 0.43 c p1
350.51 229.41 0.43 c p1
350.67 232.46 0.43 c p1
350.83 225.24 0.43 c p1
350.99 230.07 0.43 c p1
351.15 225.88 0.43 c p1
351.31 227.10 0.43 c p1
351.46 229.53 0.43 c p1
351.62 228.34 0.43 c p1
351.78 225.96 0.43 c p1
351.94 225.98 0.43 c p1
352.10 224.80 0.43 c p1
352.26 233.27 0.43 c p1
352.41 227.84 0.43 c p1
352.57 229.67 0.43 c p1
352.73 226.68 0.43 c p1
352.89 223.11 0.43 c p1
353.05 231.55 0.43 c p1
353.21 231.57 0.43 c p1
353.36 230.98 0.43 c p1
353.52 223.79 0.43 c p1
353.68 227.40 0.43 c p1
353.84 228.02 0.43 c p1
354.00 228.64 0.43 c p1
354.16 230.47 0.43 c p1
354.31 228.67 0.43 c p1
354.47 228.69 0.43 c p1
354.63 227.51 0.43 c p1
354.79 231.15 0.43 c p1
354.95 228.75 0.43 c p1
355.11 225.76 0.43 c p1
355.27 230.60 0.43 c p1
355.42 225.80 0.43 c p1
355.58 227.02 0.43 c p1
355.74 228.84 0.43 c p1
355.90 229.46 0.43 c p1
356.06 228.87 0.43 c p1
356.22 230.71 0.43 c p1
356.37 223.52 0.43 c p1
356.53 229.53 0.43 c p1
356.69 228.94 0.43 c p1
356.85 224.77 0.43 c p1
357.01 228.38 0.43 c p1
357.17 230.81 0.43 c p1
357.32 228.41 0.43 c p1
357.48 229.63 0.43 c p1
357.64 227.24 0.43 c p1
357.80 230.27 0.43 c p1
357.96 229.08 0.43 c p1
358.12 229.10 0.43 c p1
358.27 228.51 0.43 c p1
358.43 230.34 0.43 c p1
358.59 224.95 0.43 c p1
358.75 228.56 0.43 c p1
358.91 230.99 0.43 c p1
359.07 227.39 0.43 c p1
359.22 227.41 0.43 c p1
359.38 226.82 0.43 c p1
359.54 226.84 0.43 c p1
359.70 226.26 0.43 c p1
359.86 229.27 0.43 c p1
360.02 228.69 0.43 c p1
360.17 225.71 0.43 c p1
360.33 226.32 0.43 c p1
360.49 230.54 0.43 c p1
360.65 228.75 0.43 c p1
360.81 229.37 0.43 c p1
360.97 229.38 0.43 c p1
361.12 226.39 0.43 c p1
361.28 229.41 0.43 c p1
361.44 229.43 0.43 c p1
361.60 228.84 0.43 c p1
0.00 0.00 432.00 576.00 cl
0 0 0 srgb
0.75 setlinewidth
[] 0 setdash
1 setlinecap
1 setlinejoin
10.00 setmiterlimit
np
219.07 201.60 m
131.97 0 l
o
np
219.07 201.60 m
0 -5.76 l
o
np
245.46 201.60 m
0 -5.76 l
o
np
271.86 201.60 m
0 -5.76 l
o
np
298.25 201.60 m
0 -5.76 l
o
np
324.65 201.60 m
0 -5.76 l
o
np
351.04 201.60 m
0 -5.76 l
o
/Font1 findfont 6 s
219.07 185.47 (0) .5 0 t
245.46 185.47 (2000) .5 0 t
271.86 185.47 (4000) .5 0 t
298.25 185.47 (6000) .5 0 t
324.65 185.47 (8000) .5 0 t
351.04 185.47 (10000) .5 0 t
np
216.00 205.82 m
0 37.64 l
o
np
216.00 205.82 m
-5.76 0 l
o
np
216.00 215.23 m
-5.76 0 l
o
np
216.00 224.64 m
-5.76 0 l
o
np
216.00 234.05 m
-5.76 0 l
o
np
216.00 243.46 m
-5.76 0 l
o
209.09 203.67 (-0.02) 1 0 t
209.09 213.08 (-0.01) 1 0 t
209.09 222.49 (0.00) 1 0 t
209.09 231.89 (0.01) 1 0 t
209.09 241.30 (0.02) 1 0 t
np
216.00 201.60 m
151.20 0 l
0 46.08 l
-151.20 0 l
0 -46.08 l
o
0.00 0.00 432.00 576.00 cl
/Font1 findfont 9 s
0 0 0 srgb
291.60 262.88 (Residuals) .5 0 t
59.04 73.44 401.76 516.96 cl
ep
%%Trailer
%%Pages: 1
%%EOF
