%!PS-Adobe-3.0 EPSF-3.0
%%DocumentNeededResources: font Helvetica
%%+ font Helvetica-Bold
%%+ font Helvetica-Oblique
%%+ font Helvetica-BoldOblique
%%+ font Symbol
%%Title: R Graphics Output
%%Creator: R Software
%%Pages: (atend)
%%BoundingBox: 0 0 432 576
%%EndComments
%%BeginProlog
/bp  { gs sRGB gs } def
% begin .ps.prolog
/gs  { gsave } bind def
/gr  { grestore } bind def
/ep  { showpage gr gr } bind def
/m   { moveto } bind def
/l  { rlineto } bind def
/np  { newpath } bind def
/cp  { closepath } bind def
/f   { fill } bind def
/o   { stroke } bind def
/c   { newpath 0 360 arc } bind def
/r   { 4 2 roll moveto 1 copy 3 -1 roll exch 0 exch rlineto 0 rlineto -1 mul 0 exch rlineto closepath } bind def
/p1  { stroke } bind def
/p2  { gsave bg fill grestore newpath } bind def
/p3  { gsave bg fill grestore stroke } bind def
/p6  { gsave bg eofill grestore newpath } bind def
/p7  { gsave bg eofill grestore stroke } bind def
/t   { 5 -2 roll moveto gsave rotate
       1 index stringwidth pop
       mul neg 0 rmoveto show grestore } bind def
/ta  { 4 -2 roll moveto gsave rotate show } bind def
/tb  { 2 -1 roll 0 rmoveto show } bind def
/cl  { grestore gsave newpath 3 index 3 index moveto 1 index
       4 -1 roll lineto  exch 1 index lineto lineto
       closepath clip newpath } bind def
/rgb { setrgbcolor } bind def
/s   { scalefont setfont } bind def
% end   .ps.prolog
/sRGB { [ /CIEBasedABC
          << /DecodeLMN
               [ { dup 0.03928 le
                        {12.92321 div}
                        {0.055 add 1.055 div 2.4 exp }
                     ifelse
                 } bind dup dup
               ]
             /MatrixLMN [0.412457 0.212673 0.019334
                         0.357576 0.715152 0.119192
                         0.180437 0.072175 0.950301]
             /WhitePoint [0.9505 1.0 1.0890]
           >>
         ] setcolorspace } bind def
/srgb { setcolor } bind def
% begin encoding
/WinAnsiEncoding [
 /.notdef /.notdef /.notdef /.notdef /.notdef /.notdef /.notdef /.notdef
 /.notdef /.notdef /.notdef /.notdef /.notdef /.notdef /.notdef /.notdef
 /.notdef /.notdef /.notdef /.notdef /.notdef /.notdef /.notdef /.notdef
 /.notdef /.notdef /.notdef /.notdef /.notdef /.notdef /.notdef /.notdef
 /space /exclam /quotedbl /numbersign /dollar /percent /ampersand /quoteright
 /parenleft /parenright /asterisk /plus /comma /minus /period /slash
 /zero /one /two /three /four /five /six /seven
 /eight /nine /colon /semicolon /less /equal /greater /question
 /at /A /B /C /D /E /F /G
 /H /I /J /K /L /M /N /O
 /P /Q /R /S /T /U /V /W
 /X /Y /Z /bracketleft /backslash /bracketright /asciicircum /underscore
 /grave /a /b /c /d /e /f /g
 /h /i /j /k /l /m /n /o
 /p /q /r /s /t /u /v /w
 /x /y /z /braceleft /bar /braceright /asciitilde /.notdef
 /Euro /.notdef /quotesinglbase /florin /quotedblbase /ellipsis /dagger /daggerdbl
 /circumflex /perthousand /Scaron /guilsinglleft /OE /.notdef /Zcaron /.notdef
 /.notdef /quoteleft /quoteright /quotedblleft /quotedblright /bullet /endash /emdash
 /tilde /trademark /scaron /guilsinglright /oe /.notdef /zcaron /Ydieresis
 /space /exclamdown /cent /sterling /currency /yen /brokenbar /section
 /dieresis /copyright /ordfeminine /guillemotleft /logicalnot /hyphen /registered /macron
 /degree /plusminus /twosuperior /threesuperior /acute /mu /paragraph /periodcentered
 /cedilla /onesuperior /ordmasculine /guillemotright /onequarter /onehalf /threequarters /questiondown
 /Agrave /Aacute /Acircumflex /Atilde /Adieresis /Aring /AE /Ccedilla
 /Egrave /Eacute /Ecircumflex /Edieresis /Igrave /Iacute /Icircumflex /Idieresis
 /Eth /Ntilde /Ograve /Oacute /Ocircumflex /Otilde /Odieresis /multiply
 /Oslash /Ugrave /Uacute /Ucircumflex /Udieresis /Yacute /Thorn /germandbls
 /agrave /aacute /acircumflex /atilde /adieresis /aring /ae /ccedilla
 /egrave /eacute /ecircumflex /edieresis /igrave /iacute /icircumflex /idieresis
 /eth /ntilde /ograve /oacute /ocircumflex /otilde /odieresis /divide
 /oslash /ugrave /uacute /ucircumflex /udieresis /yacute /thorn /ydieresis
]
 def
% end encoding
%%IncludeResource: font Helvetica
/Helvetica findfont
dup length dict begin
  {1 index /FID ne {def} {pop pop} ifelse} forall
  /Encoding WinAnsiEncoding def
  currentdict
  end
/Font1 exch definefont pop
%%IncludeResource: font Helvetica-Bold
/Helvetica-Bold findfont
dup length dict begin
  {1 index /FID ne {def} {pop pop} ifelse} forall
  /Encoding WinAnsiEncoding def
  currentdict
  end
/Font2 exch definefont pop
%%IncludeResource: font Helvetica-Oblique
/Helvetica-Oblique findfont
dup length dict begin
  {1 index /FID ne {def} {pop pop} ifelse} forall
  /Encoding WinAnsiEncoding def
  currentdict
  end
/Font3 exch definefont pop
%%IncludeResource: font Helvetica-BoldOblique
/Helvetica-BoldOblique findfont
dup length dict begin
  {1 index /FID ne {def} {pop pop} ifelse} forall
  /Encoding WinAnsiEncoding def
  currentdict
  end
/Font4 exch definefont pop
%%IncludeResource: font Symbol
/Symbol findfont
dup length dict begin
  {1 index /FID ne {def} {pop pop} ifelse} forall
  currentdict
  end
/Font5 exch definefont pop
%%EndProlog
%%Page: 1 1
bp
/bg { 1 1 1 srgb } def
0.00 0.00 432.00 576.00 r p2
0.00 0.00 432.00 576.00 cl
0.00 0.00 432.00 576.00 cl
0.00 0.00 432.00 576.00 cl
/Font1 findfont 12 s
0 0 0 srgb
48.00 508.72 (PCP-ETH) 0 0 t
48.00 494.89 (Flash light photolysis) 0 0 t
/Font1 findfont 9 s
48.00 457.54 (File: Solv) 0 ta
-0.225 (ent_dependence_solv1-3_MSLM.dat) tb gr
48.00 334.87 (Sat Mar 05 15:05:08 2022) 0 0 t
48.00 430.87 (Fit function:  a + b * e) 0 ta
-0.270 (xp\(-c * t\)) tb gr
48.00 420.50 (t-Inter) 0 ta
0.270 (v) tb
-0.225 (all: 20.000 ... 2240.000 ms) tb gr
48.00 410.14 (P) 0 ta
-0.360 (ar) tb
-0.090 (ameters \(Standard de) tb
-0.270 (viation\):) tb gr
48.00 399.77 (  a = 0.00892 \(0.00018\)) 0 0 t
48.00 389.40 (  b = 0.26912 \(0.00038\)) 0 0 t
48.00 379.03 (  c = 2.059e+00 \(6.470e-03\) s^-1) 0 0 t
48.00 368.66 (  tau = 4.856e-01 \(1.526e-03\) s) 0 0 t
216.00 345.60 388.80 518.40 cl
0 0 0 srgb
0.75 setlinewidth
[] 0 setdash
1 setlinecap
1 setlinejoin
10.00 setmiterlimit
np
222.40 510.41 m
0.15 -1.55 l
0.14 1.78 l
0.15 -0.23 l
0.14 0 l
0.15 -1.78 l
0.14 0.91 l
0.15 0.87 l
0.14 -0.87 l
0.15 0.87 l
0.15 0.91 l
0.14 -0.46 l
0.15 0 l
0.14 -0.68 l
0.15 -1.55 l
0.14 0.46 l
0.15 1.09 l
0.14 0.23 l
0.15 0.23 l
0.15 -0.46 l
0.14 0.46 l
0.15 -0.87 l
0.14 2.00 l
0.15 -2.68 l
0.14 1.55 l
0.15 -1.55 l
0.15 0.45 l
0.14 0.45 l
0.15 2.01 l
0.14 -1.82 l
0.15 1.37 l
0.14 -0.91 l
0.15 -0.87 l
0.14 -0.46 l
0.15 1.55 l
0.15 0 l
0.14 -1.09 l
0.15 -0.46 l
0.14 0.23 l
0.15 0.23 l
0.14 0 l
0.15 -1.37 l
0.14 2.69 l
0.15 -1.10 l
0.15 0.19 l
0.14 0.23 l
0.15 -0.42 l
0.14 -0.22 l
0.15 0.64 l
0.14 0 l
0.15 -0.42 l
0.14 0.42 l
0.15 0.23 l
0.15 0 l
0.14 -0.23 l
0.15 -1.10 l
0.14 0.46 l
0.15 0.22 l
0.14 -1.13 l
0.15 1.13 l
0.15 0 l
0.14 -0.90 l
0.15 0.68 l
0.14 -0.91 l
0.15 0.68 l
0.14 -0.91 l
0.15 0.91 l
0.14 1.55 l
0.15 -1.55 l
0.15 1.32 l
0.14 -0.45 l
0.15 -0.42 l
0.14 -0.45 l
0.15 0 l
0.14 0.45 l
0.15 0.87 l
0.14 -1.32 l
0.15 -0.68 l
0.15 0.23 l
0.14 -0.23 l
0.15 0.91 l
0.14 0.41 l
0.15 0.46 l
0.14 0.45 l
0.15 0 l
0.14 -0.91 l
0.15 1.37 l
0.15 -1.56 l
0.14 -0.22 l
0.15 -1.14 l
0.14 2.92 l
0.15 -1.78 l
0.14 0 l
0.15 1.09 l
0.15 -1.32 l
0.14 0.87 l
0.15 -1.10 l
0.14 0.46 l
0.15 0.87 l
0.14 -1.10 l
236.96 435.29 lineto
0.14 -1.38 l
0.15 1.61 l
0.15 0.68 l
0.14 -1.14 l
0.15 1.82 l
0.14 0.42 l
0.15 0 l
0.14 2.04 l
0.15 0 l
0.14 -2.69 l
0.15 1.78 l
0.15 0.91 l
0.14 -0.91 l
0.15 -0.22 l
0.14 3.17 l
0.15 -2.27 l
0.14 -0.45 l
0.15 1.14 l
0.14 1.36 l
0.15 -0.23 l
0.15 -0.23 l
0.14 -0.45 l
0.15 1.59 l
0.14 1.55 l
0.15 -1.32 l
0.14 -1.37 l
0.15 1.37 l
0.15 0.90 l
0.14 0 l
0.15 -0.90 l
0.14 2.00 l
0.15 0.23 l
0.14 -0.23 l
0.15 -0.45 l
0.14 0.68 l
0.15 1.36 l
0.15 -0.68 l
0.14 -1.14 l
0.15 2.28 l
0.14 -0.23 l
0.15 -0.23 l
0.14 0.23 l
0.15 -0.23 l
0.14 0.91 l
0.15 1.13 l
0.15 -1.13 l
0.14 0.45 l
0.15 1.37 l
0.14 0 l
0.15 -1.14 l
0.14 0 l
0.15 1.59 l
0.14 -0.23 l
0.15 0.68 l
0.15 -0.68 l
0.14 0.68 l
0.15 1.10 l
0.14 -0.45 l
0.15 -0.23 l
0.14 0 l
0.15 0.68 l
0.15 0.68 l
0.14 -1.78 l
0.15 2.69 l
0.14 0.23 l
0.15 -0.23 l
0.14 0.23 l
0.15 -0.46 l
0.14 0.46 l
0.15 1.59 l
0.15 -1.14 l
0.14 -0.23 l
0.15 1.59 l
0.14 0.23 l
0.15 -1.82 l
0.14 1.59 l
0.15 0.46 l
0.14 -0.23 l
0.15 0.23 l
0.15 1.55 l
0.14 -0.23 l
0.15 0 l
0.14 -1.32 l
0.15 1.10 l
0.14 0.45 l
0.15 0 l
0.14 -0.45 l
0.15 0.68 l
0.15 1.59 l
0.14 -0.91 l
0.15 -0.91 l
0.14 1.59 l
0.15 1.59 l
0.14 -1.59 l
0.15 -0.23 l
0.15 0.91 l
0.14 0.91 l
0.15 -0.91 l
0.14 0 l
251.52 459.21 lineto
0.14 0.68 l
0.15 -0.68 l
0.14 -0.91 l
0.15 2.27 l
0.15 0 l
0.14 0 l
0.15 -0.45 l
0.14 0.45 l
0.15 1.78 l
0.14 -1.55 l
0.15 -0.23 l
0.14 2.69 l
0.15 -0.68 l
0.15 -0.68 l
0.14 0 l
0.15 0.90 l
0.14 0.23 l
0.15 -0.91 l
0.14 1.14 l
0.15 0.45 l
0.14 0.46 l
0.15 -0.46 l
0.15 0 l
0.14 0.68 l
0.15 -0.68 l
0.14 -1.13 l
0.15 1.13 l
0.14 2.05 l
0.15 0 l
0.14 -1.14 l
0.15 0.68 l
0.15 1.36 l
0.14 -1.59 l
0.15 -0.68 l
0.14 1.82 l
0.15 -0.23 l
0.14 0.68 l
0.15 -0.68 l
0.15 1.37 l
0.14 0.87 l
0.15 -0.69 l
0.14 -0.41 l
0.15 0.64 l
0.14 0.23 l
0.15 -1.10 l
0.14 1.33 l
0.15 0.45 l
0.15 -0.23 l
0.14 -0.91 l
0.15 0.23 l
0.14 0.91 l
0.15 1.13 l
0.14 -1.13 l
0.15 1.36 l
0.14 0.23 l
0.15 0 l
0.15 -0.91 l
0.14 -0.91 l
0.15 1.14 l
0.14 1.59 l
0.15 -0.68 l
0.14 -0.91 l
0.15 0.45 l
0.14 1.59 l
0.15 -0.91 l
0.15 -0.45 l
0.14 0.91 l
0.15 1.59 l
0.14 -0.68 l
0.15 -1.14 l
0.14 0.45 l
0.15 1.14 l
0.15 -0.23 l
0.14 0.23 l
0.15 -0.45 l
0.14 2.00 l
0.15 -0.64 l
0.14 -0.46 l
0.15 -0.90 l
0.14 0.90 l
0.15 1.10 l
0.15 0 l
0.14 -0.64 l
0.15 1.32 l
0.14 2.27 l
0.15 -3.18 l
0.14 0 l
0.15 1.14 l
0.14 0.68 l
0.15 -1.82 l
0.15 -0.64 l
0.14 2.01 l
0.15 0 l
0.14 1.13 l
0.15 -1.13 l
0.14 2.04 l
0.15 -0.91 l
0.14 -0.68 l
0.15 0.91 l
266.08 476.81 lineto
0.14 0.68 l
0.15 -1.37 l
0.14 0.46 l
0.15 0.68 l
0.14 -0.45 l
0.15 -0.23 l
0.15 0.45 l
0.14 0.68 l
0.15 0.46 l
0.14 -0.68 l
0.15 -1.14 l
0.14 2.05 l
0.15 0.45 l
0.14 -0.45 l
0.15 0.45 l
0.15 0.23 l
0.14 0.22 l
0.15 -1.36 l
0.14 0.46 l
0.15 1.55 l
0.14 0.22 l
0.15 -0.45 l
0.14 -1.55 l
0.15 1.36 l
0.15 0.87 l
0.14 -2.46 l
0.15 2.69 l
0.14 -0.46 l
0.15 -0.22 l
0.14 -0.65 l
0.15 0.65 l
0.14 0.45 l
0.15 1.36 l
0.15 -1.59 l
0.14 -0.45 l
0.15 1.59 l
0.14 0.23 l
0.15 -2.24 l
0.14 1.10 l
0.15 2.73 l
0.15 -0.69 l
0.14 -2.04 l
0.15 1.36 l
0.14 0.46 l
0.15 0 l
0.14 -0.46 l
0.15 0.91 l
0.14 0.23 l
0.15 0.23 l
0.15 -0.69 l
0.14 -0.45 l
0.15 1.59 l
0.14 0.45 l
0.15 -0.22 l
0.14 -0.23 l
0.15 -0.23 l
0.14 0.46 l
0.15 -0.23 l
0.15 -1.36 l
0.14 1.81 l
0.15 0.46 l
0.14 -0.91 l
0.15 0.23 l
0.14 0.91 l
0.15 0.45 l
0.14 -0.68 l
0.15 -1.14 l
0.15 1.14 l
0.14 0.91 l
0.15 -0.23 l
0.14 -0.91 l
0.15 0 l
0.14 2.46 l
0.15 -1.10 l
0.15 -0.68 l
0.14 -0.45 l
0.15 2.23 l
0.14 0.23 l
0.15 -1.78 l
0.14 0 l
0.15 1.32 l
0.14 1.37 l
0.15 -1.59 l
0.15 -0.46 l
0.14 0.46 l
0.15 1.36 l
0.14 -2.46 l
0.15 0.45 l
0.14 1.78 l
0.15 0.46 l
0.14 -1.59 l
0.15 -1.33 l
0.15 2.23 l
0.14 0.46 l
0.15 0.23 l
0.14 -0.23 l
0.15 0 l
0.14 0.45 l
0.15 -0.22 l
280.63 487.40 lineto
0.15 1.14 l
0.15 0 l
0.14 -0.46 l
0.15 -0.91 l
0.14 0.23 l
0.15 1.82 l
0.14 -0.91 l
0.15 -0.91 l
0.15 0.91 l
0.14 0.91 l
0.15 -0.68 l
0.14 -0.68 l
0.15 1.59 l
0.14 0 l
0.15 -0.46 l
0.14 -0.68 l
0.15 0.91 l
0.15 0.68 l
0.14 0.91 l
0.15 -2.50 l
0.14 0.68 l
0.15 0.68 l
0.14 0.23 l
0.15 -1.14 l
0.14 1.37 l
0.15 0.90 l
0.15 -0.68 l
0.14 -0.22 l
0.15 0.22 l
0.14 -0.22 l
0.15 0 l
0.14 0 l
0.15 0 l
0.14 1.36 l
0.15 0 l
0.15 -0.68 l
0.14 0.22 l
0.15 0.46 l
0.14 0 l
0.15 -1.36 l
0.14 1.59 l
0.15 0.41 l
0.14 -1.78 l
0.15 -0.45 l
0.15 2.23 l
0.14 0 l
0.15 -0.87 l
0.14 -0.45 l
0.15 2.00 l
0.14 0 l
0.15 -1.09 l
0.15 0 l
0.14 1.55 l
0.15 -0.91 l
0.14 -0.45 l
0.15 -1.56 l
0.14 2.46 l
0.15 0.91 l
0.14 -0.23 l
0.15 -0.90 l
0.15 -0.46 l
0.14 0.91 l
0.15 -0.91 l
0.14 -1.10 l
0.15 1.33 l
0.14 1.13 l
0.15 -1.13 l
0.14 1.13 l
0.15 -1.36 l
0.15 1.14 l
0.14 -0.46 l
0.15 -0.68 l
0.14 0.46 l
0.15 1.36 l
0.14 -0.23 l
0.15 -0.45 l
0.14 -1.14 l
0.15 0.91 l
0.15 0.91 l
0.14 0.45 l
0.15 -0.45 l
0.14 0.91 l
0.15 -0.68 l
0.14 0.22 l
0.15 -1.59 l
0.15 0.91 l
0.14 0.46 l
0.15 0.45 l
0.14 -0.45 l
0.15 0.22 l
0.14 0.68 l
0.15 1.37 l
0.14 -2.27 l
0.15 -0.23 l
0.15 1.59 l
0.14 -0.68 l
0.15 -0.46 l
0.14 -1.36 l
0.15 0.91 l
295.19 495.77 lineto
0.15 -1.14 l
0.14 0.68 l
0.15 -0.23 l
0.15 -0.90 l
0.14 0.90 l
0.15 0.69 l
0.14 -0.91 l
0.15 -0.68 l
0.14 2.04 l
0.15 -1.82 l
0.14 0.46 l
0.15 0.68 l
0.15 1.59 l
0.14 -0.23 l
0.15 -0.91 l
0.14 -0.68 l
0.15 0.23 l
0.14 0.68 l
0.15 -1.14 l
0.15 1.59 l
0.14 -0.90 l
0.15 0 l
0.14 0.90 l
0.15 0.23 l
0.14 -1.36 l
0.15 1.81 l
0.14 -0.68 l
0.15 -1.36 l
0.15 1.14 l
0.14 0.90 l
0.15 -1.36 l
0.14 0.46 l
0.15 0.45 l
0.14 0.68 l
0.15 0.64 l
0.14 -1.32 l
0.15 -0.23 l
0.15 0.46 l
0.14 -0.91 l
0.15 0.91 l
0.14 0 l
0.15 -1.14 l
0.14 1.59 l
0.15 0.23 l
0.14 -0.46 l
0.15 1.10 l
0.15 -0.23 l
0.14 -0.22 l
0.15 -0.19 l
0.14 -0.91 l
0.15 0.23 l
0.14 0.45 l
0.15 -0.23 l
0.15 0.65 l
0.14 0 l
0.15 0.68 l
0.14 -0.46 l
0.15 0 l
0.14 -0.41 l
0.15 0 l
0.14 0.87 l
0.15 -1.55 l
0.15 0.45 l
0.14 1.33 l
0.15 -0.46 l
0.14 -0.87 l
0.15 0.87 l
0.14 -0.45 l
0.15 -1.10 l
0.14 1.78 l
0.15 -0.87 l
0.15 0.87 l
0.14 -0.46 l
0.15 -0.22 l
0.14 0.22 l
0.15 -0.41 l
0.14 2.00 l
0.15 0 l
0.14 -0.90 l
0.15 0.45 l
0.15 0.23 l
0.14 -1.59 l
0.15 0.91 l
0.14 -0.23 l
0.15 0.23 l
0.14 0.68 l
0.15 0.22 l
0.15 -1.13 l
0.14 -0.46 l
0.15 1.59 l
0.14 -0.90 l
0.15 0 l
0.14 1.36 l
0.15 0.68 l
0.14 -2.50 l
0.15 1.36 l
0.15 -1.81 l
0.14 0.22 l
0.15 1.37 l
309.75 500.27 lineto
0.15 -1.14 l
0.14 0.46 l
0.15 -0.46 l
0.14 0.91 l
0.15 0.23 l
0.15 0.45 l
0.14 -1.36 l
0.15 -0.23 l
0.14 0 l
0.15 0 l
0.14 0.46 l
0.15 0.45 l
0.14 0.23 l
0.15 -0.23 l
0.15 -1.13 l
0.14 1.59 l
0.15 -1.37 l
0.14 1.37 l
0.15 -0.46 l
0.14 1.14 l
0.15 -1.37 l
0.15 0 l
0.14 0.91 l
0.15 -1.59 l
0.14 1.14 l
0.15 0 l
0.14 -0.68 l
0.15 0.91 l
0.14 -0.46 l
0.15 -0.91 l
0.15 2.05 l
0.14 -0.68 l
0.15 -0.23 l
0.14 0.23 l
0.15 -0.91 l
0.14 2.04 l
0.15 -0.68 l
0.14 -0.45 l
0.15 0.45 l
0.15 -0.23 l
0.14 -1.36 l
0.15 1.82 l
0.14 0.22 l
0.15 -1.13 l
0.14 0.45 l
0.15 0.91 l
0.14 -1.36 l
0.15 0.45 l
0.15 -0.45 l
0.14 1.36 l
0.15 0.45 l
0.14 0 l
0.15 -0.22 l
0.14 -0.91 l
0.15 -0.91 l
0.15 1.14 l
0.14 0.22 l
0.15 0.23 l
0.14 0.45 l
0.15 -0.45 l
0.14 0.45 l
0.15 -0.68 l
0.14 -0.90 l
0.15 -0.46 l
0.15 1.14 l
0.14 1.13 l
0.15 0 l
0.14 0 l
0.15 0 l
0.14 -0.23 l
0.15 -1.36 l
0.14 1.59 l
0.15 -0.45 l
0.15 1.36 l
0.14 0 l
0.15 -0.45 l
0.14 0.22 l
0.15 -0.68 l
0.14 -0.68 l
0.15 0.23 l
0.14 0.45 l
0.15 -0.45 l
0.15 0.22 l
0.14 0 l
0.15 0.69 l
0.14 -0.23 l
0.15 0.23 l
0.14 0 l
0.15 -0.69 l
0.14 0.23 l
0.15 0.68 l
0.15 -0.68 l
0.14 -0.68 l
0.15 0.45 l
0.14 -1.36 l
0.15 0.91 l
0.14 -0.23 l
0.15 0.68 l
0.15 0.69 l
324.31 502.99 lineto
0.15 0.91 l
0.14 -1.36 l
0.15 -0.23 l
0.14 0.91 l
0.15 -1.36 l
0.14 1.13 l
0.15 0.68 l
0.15 -1.59 l
0.14 0 l
0.15 0.91 l
0.14 -1.36 l
0.15 0.68 l
0.14 1.59 l
0.15 0 l
0.14 -1.59 l
0.15 0.68 l
0.15 0 l
0.14 -0.45 l
0.15 0.45 l
0.14 -0.22 l
0.15 -1.14 l
0.14 1.36 l
0.15 -0.22 l
0.14 0.90 l
0.15 0 l
0.15 -0.45 l
0.14 -1.14 l
0.15 0.69 l
0.14 0.45 l
0.15 0.23 l
0.14 -0.23 l
0.15 0 l
0.15 0.68 l
0.14 0 l
0.15 -2.04 l
0.14 1.13 l
0.15 0.46 l
0.14 -0.91 l
0.15 0.23 l
0.14 1.77 l
0.15 -1.55 l
0.15 1.33 l
0.14 -1.10 l
0.15 -0.23 l
0.14 0.68 l
0.15 0.23 l
0.14 0.19 l
0.15 -0.64 l
0.14 0.87 l
0.15 -1.10 l
0.15 0 l
0.14 -0.23 l
0.15 0.46 l
0.14 0.45 l
0.15 -0.68 l
0.14 0.45 l
0.15 1.33 l
0.14 -2.92 l
0.15 0.46 l
0.15 1.13 l
0.14 0.42 l
0.15 -0.42 l
0.14 -0.45 l
0.15 1.32 l
0.14 -0.22 l
0.15 0.68 l
0.15 -0.91 l
0.14 0.23 l
0.15 0 l
0.14 -1.55 l
0.15 0.22 l
0.14 0.23 l
0.15 0.68 l
0.14 -0.68 l
0.15 0.23 l
0.15 0.22 l
0.14 -0.90 l
0.15 0.90 l
0.14 0.87 l
0.15 -0.64 l
0.14 0.19 l
0.15 -0.42 l
0.14 0.23 l
0.15 -0.23 l
0.15 0.65 l
0.14 -0.87 l
0.15 1.32 l
0.14 -1.10 l
0.15 0.65 l
0.14 -0.42 l
0.15 -0.45 l
0.14 0.22 l
0.15 0 l
0.15 0 l
0.14 0.42 l
0.15 -0.42 l
0.14 0.23 l
0.15 0.19 l
0.14 0.91 l
338.87 504.09 lineto
0.15 0 l
0.14 -0.87 l
0.15 -0.23 l
0.14 1.33 l
0.15 -0.23 l
0.14 0.23 l
0.15 -1.55 l
0.14 1.13 l
0.15 0.19 l
0.15 0.23 l
0.14 -0.65 l
0.15 0.23 l
0.14 0 l
0.15 0.64 l
0.14 -0.22 l
0.15 0.91 l
0.14 -1.33 l
0.15 0.42 l
0.15 -0.23 l
0.14 0 l
0.15 0.68 l
0.14 0.23 l
0.15 -0.91 l
0.14 -0.42 l
0.15 1.56 l
0.14 -0.69 l
0.15 1.14 l
0.15 -0.91 l
0.14 0 l
0.15 0.46 l
0.14 -0.69 l
0.15 0 l
0.14 0 l
0.15 -0.22 l
0.15 0.91 l
0.14 -0.69 l
0.15 0.23 l
0.14 0 l
0.15 0 l
0.14 -1.10 l
0.15 2.46 l
0.14 -1.36 l
0.15 0 l
0.15 0.91 l
0.14 -0.23 l
0.15 -0.91 l
0.14 1.59 l
0.15 -2.04 l
0.14 0.91 l
0.15 0.45 l
0.14 -0.68 l
0.15 0.91 l
0.15 -0.45 l
0.14 0.22 l
0.15 -1.36 l
0.14 0.23 l
0.15 1.13 l
0.14 -0.22 l
0.15 0 l
0.14 1.13 l
0.15 -1.59 l
0.15 0 l
0.14 0.68 l
0.15 -0.45 l
0.14 -0.46 l
0.15 -0.45 l
0.14 2.27 l
0.15 -0.91 l
0.15 -0.91 l
0.14 0.69 l
0.15 0 l
0.14 -0.23 l
0.15 0 l
0.14 0.23 l
0.15 0.22 l
0.14 1.14 l
0.15 -0.68 l
0.15 -1.14 l
0.14 1.36 l
0.15 -1.36 l
0.14 0.46 l
0.15 0.22 l
0.14 0.91 l
0.15 -1.13 l
0.14 -1.14 l
0.15 1.59 l
0.15 -0.23 l
0.14 -1.78 l
0.15 2.01 l
0.14 -0.68 l
0.15 -0.68 l
0.14 0.91 l
0.15 1.13 l
0.14 -2.04 l
0.15 0.22 l
0.15 1.37 l
0.14 -0.46 l
0.15 0 l
0.14 -0.22 l
353.43 505.23 lineto
0.14 0.45 l
0.15 0.68 l
0.14 -1.59 l
0.15 1.59 l
0.15 0.45 l
0.14 -1.58 l
0.15 1.36 l
0.14 -1.14 l
0.15 0.46 l
0.14 -1.14 l
0.15 0.23 l
0.15 1.13 l
0.14 -0.45 l
0.15 1.59 l
0.14 -0.91 l
0.15 -0.68 l
0.14 0 l
0.15 -1.36 l
0.14 1.59 l
0.15 0.68 l
0.15 -1.36 l
0.14 0.22 l
0.15 -0.45 l
0.14 0.23 l
0.15 0.45 l
0.14 -0.68 l
0.15 -0.23 l
0.14 -0.23 l
0.15 1.82 l
0.15 -0.45 l
0.14 0 l
0.15 0 l
0.14 0.45 l
0.15 -0.68 l
0.14 -0.45 l
0.15 -0.23 l
0.14 0 l
0.15 -0.46 l
0.15 1.14 l
0.14 0.23 l
0.15 0 l
0.14 -0.91 l
0.15 0.23 l
0.14 0.22 l
0.15 0.46 l
0.15 0.90 l
0.14 -1.58 l
0.15 0.45 l
0.14 -0.68 l
0.15 -0.46 l
0.14 1.59 l
0.15 -0.45 l
0.14 0.23 l
0.15 0.22 l
0.15 -0.90 l
0.14 0.90 l
0.15 -0.45 l
0.14 0.45 l
0.15 1.14 l
0.14 -1.14 l
0.15 0.23 l
0.14 -1.82 l
0.15 2.50 l
0.15 -0.45 l
0.14 0 l
0.15 -1.14 l
0.14 -0.22 l
0.15 0.22 l
0.14 1.14 l
0.15 -0.91 l
0.14 1.36 l
0.15 -0.91 l
0.15 1.14 l
0.14 -1.82 l
0.15 1.82 l
0.14 -0.91 l
0.15 -1.82 l
0.14 1.82 l
0.15 0 l
0.15 0.23 l
0.14 0 l
0.15 -0.23 l
0.14 0.45 l
0.15 -1.58 l
0.14 2.04 l
0.15 0 l
0.14 -1.82 l
0.15 1.36 l
0.15 -0.68 l
0.14 0.46 l
0.15 0.45 l
0.14 -0.91 l
0.15 -0.90 l
0.14 1.81 l
0.15 -0.91 l
0.14 0.68 l
0.15 -0.22 l
0.15 0.22 l
0.14 -0.22 l
currentpoint o m
367.99 506.13 lineto
0.14 0.91 l
0.15 -1.13 l
0.14 0.45 l
0.15 0.91 l
0.14 -0.23 l
0.15 0 l
0.15 0.91 l
0.14 -2.50 l
0.15 0.91 l
0.14 0.23 l
0.15 -0.23 l
0.14 0.45 l
0.15 -0.22 l
0.15 -0.68 l
0.14 0.90 l
0.15 0.46 l
0.14 -1.14 l
0.15 2.05 l
0.14 -2.27 l
0.15 1.13 l
0.14 -0.68 l
0.15 0.23 l
0.15 -0.46 l
0.14 0 l
0.15 0.23 l
0.14 0.23 l
0.15 0.68 l
0.14 -0.91 l
0.15 1.14 l
0.14 -0.91 l
0.15 0.45 l
0.15 0.46 l
0.14 -0.23 l
0.15 0.23 l
0.14 -1.14 l
0.15 1.36 l
0.14 -2.04 l
0.15 1.59 l
0.14 0.23 l
0.15 0 l
0.15 0 l
0.14 -0.91 l
0.15 0.68 l
0.14 0 l
0.15 -0.23 l
0.14 -1.13 l
0.15 1.13 l
0.15 -0.45 l
0.14 0.91 l
0.15 -0.23 l
0.14 0 l
0.15 0 l
0.14 -1.82 l
0.15 0.91 l
0.14 0.68 l
0.15 -0.68 l
0.15 0.45 l
0.14 -1.13 l
0.15 0.91 l
0.14 0.45 l
0.15 0.23 l
0.14 -0.23 l
0.15 -0.91 l
0.14 1.37 l
0.15 0 l
0.15 -0.46 l
0.14 0 l
0.15 0.23 l
0.14 -0.91 l
0.15 0.45 l
0.14 -0.45 l
0.15 0.23 l
0.14 0.45 l
0.15 0.91 l
0.15 -0.68 l
0.14 -0.23 l
0.15 -0.45 l
0.14 0 l
0.15 1.13 l
0.14 -1.59 l
0.15 1.37 l
0.15 -0.46 l
0.14 0.46 l
0.15 -0.69 l
0.14 0.23 l
0.15 -0.23 l
0.14 0.23 l
0.15 0.23 l
0.14 -0.23 l
0.15 1.36 l
0.15 -1.36 l
0.14 0.23 l
0.15 0.68 l
0.14 -1.14 l
0.15 1.14 l
0.14 0.23 l
0.15 -0.68 l
0.14 0 l
0.15 1.81 l
o
/bg { 1 1 1 srgb } def
222.40 510.41 0.43 c p3
222.55 508.86 0.43 c p3
222.69 510.64 0.43 c p3
222.84 510.41 0.43 c p3
222.98 510.41 0.43 c p3
223.13 508.63 0.43 c p3
223.27 509.54 0.43 c p3
223.42 510.41 0.43 c p3
223.56 509.54 0.43 c p3
223.71 510.41 0.43 c p3
223.86 511.32 0.43 c p3
224.00 510.86 0.43 c p3
224.15 510.86 0.43 c p3
224.29 510.18 0.43 c p3
224.44 508.63 0.43 c p3
224.58 509.09 0.43 c p3
224.73 510.18 0.43 c p3
224.87 510.41 0.43 c p3
225.02 510.64 0.43 c p3
225.17 510.18 0.43 c p3
225.31 510.64 0.43 c p3
225.46 509.77 0.43 c p3
225.60 511.77 0.43 c p3
225.75 509.09 0.43 c p3
225.89 510.64 0.43 c p3
226.04 509.09 0.43 c p3
226.19 509.54 0.43 c p3
226.33 509.99 0.43 c p3
226.48 512.00 0.43 c p3
226.62 510.18 0.43 c p3
226.77 511.55 0.43 c p3
226.91 510.64 0.43 c p3
227.06 509.77 0.43 c p3
227.20 509.31 0.43 c p3
227.35 510.86 0.43 c p3
227.50 510.86 0.43 c p3
227.64 509.77 0.43 c p3
227.79 509.31 0.43 c p3
227.93 509.54 0.43 c p3
228.08 509.77 0.43 c p3
228.22 509.77 0.43 c p3
228.37 508.40 0.43 c p3
228.51 511.09 0.43 c p3
228.66 509.99 0.43 c p3
228.81 510.18 0.43 c p3
228.95 510.41 0.43 c p3
229.10 509.99 0.43 c p3
229.24 509.77 0.43 c p3
229.39 510.41 0.43 c p3
229.53 510.41 0.43 c p3
229.68 509.99 0.43 c p3
229.82 510.41 0.43 c p3
229.97 510.64 0.43 c p3
230.12 510.64 0.43 c p3
230.26 510.41 0.43 c p3
230.41 509.31 0.43 c p3
230.55 509.77 0.43 c p3
230.70 509.99 0.43 c p3
230.84 508.86 0.43 c p3
230.99 509.99 0.43 c p3
231.14 509.99 0.43 c p3
231.28 509.09 0.43 c p3
231.43 509.77 0.43 c p3
231.57 508.86 0.43 c p3
231.72 509.54 0.43 c p3
231.86 508.63 0.43 c p3
232.01 509.54 0.43 c p3
232.15 511.09 0.43 c p3
232.30 509.54 0.43 c p3
232.45 510.86 0.43 c p3
232.59 510.41 0.43 c p3
232.74 509.99 0.43 c p3
232.88 509.54 0.43 c p3
233.03 509.54 0.43 c p3
233.17 509.99 0.43 c p3
233.32 510.86 0.43 c p3
233.46 509.54 0.43 c p3
233.61 508.86 0.43 c p3
233.76 509.09 0.43 c p3
233.90 508.86 0.43 c p3
234.05 509.77 0.43 c p3
234.19 510.18 0.43 c p3
234.34 510.64 0.43 c p3
234.48 511.09 0.43 c p3
234.63 511.09 0.43 c p3
234.77 510.18 0.43 c p3
234.92 511.55 0.43 c p3
235.07 509.99 0.43 c p3
235.21 509.77 0.43 c p3
235.36 508.63 0.43 c p3
235.50 511.55 0.43 c p3
235.65 509.77 0.43 c p3
235.79 509.77 0.43 c p3
235.94 510.86 0.43 c p3
236.09 509.54 0.43 c p3
236.23 510.41 0.43 c p3
236.38 509.31 0.43 c p3
236.52 509.77 0.43 c p3
236.67 510.64 0.43 c p3
236.81 509.54 0.43 c p3
236.96 435.29 0.43 c p3
237.10 433.91 0.43 c p3
237.25 435.52 0.43 c p3
237.40 436.20 0.43 c p3
237.54 435.06 0.43 c p3
237.69 436.88 0.43 c p3
237.83 437.30 0.43 c p3
237.98 437.30 0.43 c p3
238.12 439.34 0.43 c p3
238.27 439.34 0.43 c p3
238.41 436.65 0.43 c p3
238.56 438.43 0.43 c p3
238.71 439.34 0.43 c p3
238.85 438.43 0.43 c p3
239.00 438.21 0.43 c p3
239.14 441.38 0.43 c p3
239.29 439.11 0.43 c p3
239.43 438.66 0.43 c p3
239.58 439.80 0.43 c p3
239.72 441.16 0.43 c p3
239.87 440.93 0.43 c p3
240.02 440.70 0.43 c p3
240.16 440.25 0.43 c p3
240.31 441.84 0.43 c p3
240.45 443.39 0.43 c p3
240.60 442.07 0.43 c p3
240.74 440.70 0.43 c p3
240.89 442.07 0.43 c p3
241.04 442.97 0.43 c p3
241.18 442.97 0.43 c p3
241.33 442.07 0.43 c p3
241.47 444.07 0.43 c p3
241.62 444.30 0.43 c p3
241.76 444.07 0.43 c p3
241.91 443.62 0.43 c p3
242.05 444.30 0.43 c p3
242.20 445.66 0.43 c p3
242.35 444.98 0.43 c p3
242.49 443.84 0.43 c p3
242.64 446.12 0.43 c p3
242.78 445.89 0.43 c p3
242.93 445.66 0.43 c p3
243.07 445.89 0.43 c p3
243.22 445.66 0.43 c p3
243.36 446.57 0.43 c p3
243.51 447.70 0.43 c p3
243.66 446.57 0.43 c p3
243.80 447.02 0.43 c p3
243.95 448.39 0.43 c p3
244.09 448.39 0.43 c p3
244.24 447.25 0.43 c p3
244.38 447.25 0.43 c p3
244.53 448.84 0.43 c p3
244.67 448.61 0.43 c p3
244.82 449.29 0.43 c p3
244.97 448.61 0.43 c p3
245.11 449.29 0.43 c p3
245.26 450.39 0.43 c p3
245.40 449.94 0.43 c p3
245.55 449.71 0.43 c p3
245.69 449.71 0.43 c p3
245.84 450.39 0.43 c p3
245.99 451.07 0.43 c p3
246.13 449.29 0.43 c p3
246.28 451.98 0.43 c p3
246.42 452.21 0.43 c p3
246.57 451.98 0.43 c p3
246.71 452.21 0.43 c p3
246.86 451.75 0.43 c p3
247.00 452.21 0.43 c p3
247.15 453.80 0.43 c p3
247.30 452.66 0.43 c p3
247.44 452.43 0.43 c p3
247.59 454.02 0.43 c p3
247.73 454.25 0.43 c p3
247.88 452.43 0.43 c p3
248.02 454.02 0.43 c p3
248.17 454.48 0.43 c p3
248.31 454.25 0.43 c p3
248.46 454.48 0.43 c p3
248.61 456.03 0.43 c p3
248.75 455.80 0.43 c p3
248.90 455.80 0.43 c p3
249.04 454.48 0.43 c p3
249.19 455.58 0.43 c p3
249.33 456.03 0.43 c p3
249.48 456.03 0.43 c p3
249.62 455.58 0.43 c p3
249.77 456.26 0.43 c p3
249.92 457.85 0.43 c p3
250.06 456.94 0.43 c p3
250.21 456.03 0.43 c p3
250.35 457.62 0.43 c p3
250.50 459.21 0.43 c p3
250.64 457.62 0.43 c p3
250.79 457.39 0.43 c p3
250.94 458.30 0.43 c p3
251.08 459.21 0.43 c p3
251.23 458.30 0.43 c p3
251.37 458.30 0.43 c p3
251.52 459.21 0.43 c p3
251.66 459.89 0.43 c p3
251.81 459.21 0.43 c p3
251.95 458.30 0.43 c p3
252.10 460.57 0.43 c p3
252.25 460.57 0.43 c p3
252.39 460.57 0.43 c p3
252.54 460.12 0.43 c p3
252.68 460.57 0.43 c p3
252.83 462.35 0.43 c p3
252.97 460.80 0.43 c p3
253.12 460.57 0.43 c p3
253.26 463.26 0.43 c p3
253.41 462.58 0.43 c p3
253.56 461.90 0.43 c p3
253.70 461.90 0.43 c p3
253.85 462.80 0.43 c p3
253.99 463.03 0.43 c p3
254.14 462.12 0.43 c p3
254.28 463.26 0.43 c p3
254.43 463.71 0.43 c p3
254.57 464.17 0.43 c p3
254.72 463.71 0.43 c p3
254.87 463.71 0.43 c p3
255.01 464.39 0.43 c p3
255.16 463.71 0.43 c p3
255.30 462.58 0.43 c p3
255.45 463.71 0.43 c p3
255.59 465.76 0.43 c p3
255.74 465.76 0.43 c p3
255.88 464.62 0.43 c p3
256.03 465.30 0.43 c p3
256.18 466.66 0.43 c p3
256.32 465.07 0.43 c p3
256.47 464.39 0.43 c p3
256.61 466.21 0.43 c p3
256.76 465.98 0.43 c p3
256.90 466.66 0.43 c p3
257.05 465.98 0.43 c p3
257.20 467.35 0.43 c p3
257.34 468.22 0.43 c p3
257.49 467.53 0.43 c p3
257.63 467.12 0.43 c p3
257.78 467.76 0.43 c p3
257.92 467.99 0.43 c p3
258.07 466.89 0.43 c p3
258.21 468.22 0.43 c p3
258.36 468.67 0.43 c p3
258.51 468.44 0.43 c p3
258.65 467.53 0.43 c p3
258.80 467.76 0.43 c p3
258.94 468.67 0.43 c p3
259.09 469.80 0.43 c p3
259.23 468.67 0.43 c p3
259.38 470.03 0.43 c p3
259.52 470.26 0.43 c p3
259.67 470.26 0.43 c p3
259.82 469.35 0.43 c p3
259.96 468.44 0.43 c p3
260.11 469.58 0.43 c p3
260.25 471.17 0.43 c p3
260.40 470.49 0.43 c p3
260.54 469.58 0.43 c p3
260.69 470.03 0.43 c p3
260.83 471.62 0.43 c p3
260.98 470.71 0.43 c p3
261.13 470.26 0.43 c p3
261.27 471.17 0.43 c p3
261.42 472.76 0.43 c p3
261.56 472.08 0.43 c p3
261.71 470.94 0.43 c p3
261.85 471.39 0.43 c p3
262.00 472.53 0.43 c p3
262.15 472.30 0.43 c p3
262.29 472.53 0.43 c p3
262.44 472.08 0.43 c p3
262.58 474.08 0.43 c p3
262.73 473.44 0.43 c p3
262.87 472.98 0.43 c p3
263.02 472.08 0.43 c p3
263.16 472.98 0.43 c p3
263.31 474.08 0.43 c p3
263.46 474.08 0.43 c p3
263.60 473.44 0.43 c p3
263.75 474.76 0.43 c p3
263.89 477.03 0.43 c p3
264.04 473.85 0.43 c p3
264.18 473.85 0.43 c p3
264.33 474.99 0.43 c p3
264.47 475.67 0.43 c p3
264.62 473.85 0.43 c p3
264.77 473.21 0.43 c p3
264.91 475.22 0.43 c p3
265.06 475.22 0.43 c p3
265.20 476.35 0.43 c p3
265.35 475.22 0.43 c p3
265.49 477.26 0.43 c p3
265.64 476.35 0.43 c p3
265.78 475.67 0.43 c p3
265.93 476.58 0.43 c p3
266.08 476.81 0.43 c p3
266.22 477.49 0.43 c p3
266.37 476.12 0.43 c p3
266.51 476.58 0.43 c p3
266.66 477.26 0.43 c p3
266.80 476.81 0.43 c p3
266.95 476.58 0.43 c p3
267.10 477.03 0.43 c p3
267.24 477.71 0.43 c p3
267.39 478.17 0.43 c p3
267.53 477.49 0.43 c p3
267.68 476.35 0.43 c p3
267.82 478.40 0.43 c p3
267.97 478.85 0.43 c p3
268.11 478.40 0.43 c p3
268.26 478.85 0.43 c p3
268.41 479.08 0.43 c p3
268.55 479.30 0.43 c p3
268.70 477.94 0.43 c p3
268.84 478.40 0.43 c p3
268.99 479.95 0.43 c p3
269.13 480.17 0.43 c p3
269.28 479.72 0.43 c p3
269.42 478.17 0.43 c p3
269.57 479.53 0.43 c p3
269.72 480.40 0.43 c p3
269.86 477.94 0.43 c p3
270.01 480.63 0.43 c p3
270.15 480.17 0.43 c p3
270.30 479.95 0.43 c p3
270.44 479.30 0.43 c p3
270.59 479.95 0.43 c p3
270.73 480.40 0.43 c p3
270.88 481.76 0.43 c p3
271.03 480.17 0.43 c p3
271.17 479.72 0.43 c p3
271.32 481.31 0.43 c p3
271.46 481.54 0.43 c p3
271.61 479.30 0.43 c p3
271.75 480.40 0.43 c p3
271.90 483.13 0.43 c p3
272.05 482.44 0.43 c p3
272.19 480.40 0.43 c p3
272.34 481.76 0.43 c p3
272.48 482.22 0.43 c p3
272.63 482.22 0.43 c p3
272.77 481.76 0.43 c p3
272.92 482.67 0.43 c p3
273.06 482.90 0.43 c p3
273.21 483.13 0.43 c p3
273.36 482.44 0.43 c p3
273.50 481.99 0.43 c p3
273.65 483.58 0.43 c p3
273.79 484.03 0.43 c p3
273.94 483.81 0.43 c p3
274.08 483.58 0.43 c p3
274.23 483.35 0.43 c p3
274.37 483.81 0.43 c p3
274.52 483.58 0.43 c p3
274.67 482.22 0.43 c p3
274.81 484.03 0.43 c p3
274.96 484.49 0.43 c p3
275.10 483.58 0.43 c p3
275.25 483.81 0.43 c p3
275.39 484.72 0.43 c p3
275.54 485.17 0.43 c p3
275.68 484.49 0.43 c p3
275.83 483.35 0.43 c p3
275.98 484.49 0.43 c p3
276.12 485.40 0.43 c p3
276.27 485.17 0.43 c p3
276.41 484.26 0.43 c p3
276.56 484.26 0.43 c p3
276.70 486.72 0.43 c p3
276.85 485.62 0.43 c p3
277.00 484.94 0.43 c p3
277.14 484.49 0.43 c p3
277.29 486.72 0.43 c p3
277.43 486.95 0.43 c p3
277.58 485.17 0.43 c p3
277.72 485.17 0.43 c p3
277.87 486.49 0.43 c p3
278.01 487.86 0.43 c p3
278.16 486.27 0.43 c p3
278.31 485.81 0.43 c p3
278.45 486.27 0.43 c p3
278.60 487.63 0.43 c p3
278.74 485.17 0.43 c p3
278.89 485.62 0.43 c p3
279.03 487.40 0.43 c p3
279.18 487.86 0.43 c p3
279.32 486.27 0.43 c p3
279.47 484.94 0.43 c p3
279.62 487.17 0.43 c p3
279.76 487.63 0.43 c p3
279.91 487.86 0.43 c p3
280.05 487.63 0.43 c p3
280.20 487.63 0.43 c p3
280.34 488.08 0.43 c p3
280.49 487.86 0.43 c p3
280.63 487.40 0.43 c p3
280.78 488.54 0.43 c p3
280.93 488.54 0.43 c p3
281.07 488.08 0.43 c p3
281.22 487.17 0.43 c p3
281.36 487.40 0.43 c p3
281.51 489.22 0.43 c p3
281.65 488.31 0.43 c p3
281.80 487.40 0.43 c p3
281.95 488.31 0.43 c p3
282.09 489.22 0.43 c p3
282.24 488.54 0.43 c p3
282.38 487.86 0.43 c p3
282.53 489.45 0.43 c p3
282.67 489.45 0.43 c p3
282.82 488.99 0.43 c p3
282.96 488.31 0.43 c p3
283.11 489.22 0.43 c p3
283.26 489.90 0.43 c p3
283.40 490.81 0.43 c p3
283.55 488.31 0.43 c p3
283.69 488.99 0.43 c p3
283.84 489.67 0.43 c p3
283.98 489.90 0.43 c p3
284.13 488.76 0.43 c p3
284.27 490.13 0.43 c p3
284.42 491.03 0.43 c p3
284.57 490.35 0.43 c p3
284.71 490.13 0.43 c p3
284.86 490.35 0.43 c p3
285.00 490.13 0.43 c p3
285.15 490.13 0.43 c p3
285.29 490.13 0.43 c p3
285.44 490.13 0.43 c p3
285.58 491.49 0.43 c p3
285.73 491.49 0.43 c p3
285.88 490.81 0.43 c p3
286.02 491.03 0.43 c p3
286.17 491.49 0.43 c p3
286.31 491.49 0.43 c p3
286.46 490.13 0.43 c p3
286.60 491.72 0.43 c p3
286.75 492.13 0.43 c p3
286.89 490.35 0.43 c p3
287.04 489.90 0.43 c p3
287.19 492.13 0.43 c p3
287.33 492.13 0.43 c p3
287.48 491.26 0.43 c p3
287.62 490.81 0.43 c p3
287.77 492.81 0.43 c p3
287.91 492.81 0.43 c p3
288.06 491.72 0.43 c p3
288.21 491.72 0.43 c p3
288.35 493.27 0.43 c p3
288.50 492.36 0.43 c p3
288.64 491.91 0.43 c p3
288.79 490.35 0.43 c p3
288.93 492.81 0.43 c p3
289.08 493.72 0.43 c p3
289.22 493.49 0.43 c p3
289.37 492.59 0.43 c p3
289.52 492.13 0.43 c p3
289.66 493.04 0.43 c p3
289.81 492.13 0.43 c p3
289.95 491.03 0.43 c p3
290.10 492.36 0.43 c p3
290.24 493.49 0.43 c p3
290.39 492.36 0.43 c p3
290.53 493.49 0.43 c p3
290.68 492.13 0.43 c p3
290.83 493.27 0.43 c p3
290.97 492.81 0.43 c p3
291.12 492.13 0.43 c p3
291.26 492.59 0.43 c p3
291.41 493.95 0.43 c p3
291.55 493.72 0.43 c p3
291.70 493.27 0.43 c p3
291.84 492.13 0.43 c p3
291.99 493.04 0.43 c p3
292.14 493.95 0.43 c p3
292.28 494.40 0.43 c p3
292.43 493.95 0.43 c p3
292.57 494.86 0.43 c p3
292.72 494.18 0.43 c p3
292.86 494.40 0.43 c p3
293.01 492.81 0.43 c p3
293.16 493.72 0.43 c p3
293.30 494.18 0.43 c p3
293.45 494.63 0.43 c p3
293.59 494.18 0.43 c p3
293.74 494.40 0.43 c p3
293.88 495.08 0.43 c p3
294.03 496.45 0.43 c p3
294.17 494.18 0.43 c p3
294.32 493.95 0.43 c p3
294.47 495.54 0.43 c p3
294.61 494.86 0.43 c p3
294.76 494.40 0.43 c p3
294.90 493.04 0.43 c p3
295.05 493.95 0.43 c p3
295.19 495.77 0.43 c p3
295.34 494.63 0.43 c p3
295.48 495.31 0.43 c p3
295.63 495.08 0.43 c p3
295.78 494.18 0.43 c p3
295.92 495.08 0.43 c p3
296.07 495.77 0.43 c p3
296.21 494.86 0.43 c p3
296.36 494.18 0.43 c p3
296.50 496.22 0.43 c p3
296.65 494.40 0.43 c p3
296.79 494.86 0.43 c p3
296.94 495.54 0.43 c p3
297.09 497.13 0.43 c p3
297.23 496.90 0.43 c p3
297.38 495.99 0.43 c p3
297.52 495.31 0.43 c p3
297.67 495.54 0.43 c p3
297.81 496.22 0.43 c p3
297.96 495.08 0.43 c p3
298.11 496.67 0.43 c p3
298.25 495.77 0.43 c p3
298.40 495.77 0.43 c p3
298.54 496.67 0.43 c p3
298.69 496.90 0.43 c p3
298.83 495.54 0.43 c p3
298.98 497.35 0.43 c p3
299.12 496.67 0.43 c p3
299.27 495.31 0.43 c p3
299.42 496.45 0.43 c p3
299.56 497.35 0.43 c p3
299.71 495.99 0.43 c p3
299.85 496.45 0.43 c p3
300.00 496.90 0.43 c p3
300.14 497.58 0.43 c p3
300.29 498.22 0.43 c p3
300.43 496.90 0.43 c p3
300.58 496.67 0.43 c p3
300.73 497.13 0.43 c p3
300.87 496.22 0.43 c p3
301.02 497.13 0.43 c p3
301.16 497.13 0.43 c p3
301.31 495.99 0.43 c p3
301.45 497.58 0.43 c p3
301.60 497.81 0.43 c p3
301.74 497.35 0.43 c p3
301.89 498.45 0.43 c p3
302.04 498.22 0.43 c p3
302.18 498.00 0.43 c p3
302.33 497.81 0.43 c p3
302.47 496.90 0.43 c p3
302.62 497.13 0.43 c p3
302.76 497.58 0.43 c p3
302.91 497.35 0.43 c p3
303.06 498.00 0.43 c p3
303.20 498.00 0.43 c p3
303.35 498.68 0.43 c p3
303.49 498.22 0.43 c p3
303.64 498.22 0.43 c p3
303.78 497.81 0.43 c p3
303.93 497.81 0.43 c p3
304.07 498.68 0.43 c p3
304.22 497.13 0.43 c p3
304.37 497.58 0.43 c p3
304.51 498.91 0.43 c p3
304.66 498.45 0.43 c p3
304.80 497.58 0.43 c p3
304.95 498.45 0.43 c p3
305.09 498.00 0.43 c p3
305.24 496.90 0.43 c p3
305.38 498.68 0.43 c p3
305.53 497.81 0.43 c p3
305.68 498.68 0.43 c p3
305.82 498.22 0.43 c p3
305.97 498.00 0.43 c p3
306.11 498.22 0.43 c p3
306.26 497.81 0.43 c p3
306.40 499.81 0.43 c p3
306.55 499.81 0.43 c p3
306.69 498.91 0.43 c p3
306.84 499.36 0.43 c p3
306.99 499.59 0.43 c p3
307.13 498.00 0.43 c p3
307.28 498.91 0.43 c p3
307.42 498.68 0.43 c p3
307.57 498.91 0.43 c p3
307.71 499.59 0.43 c p3
307.86 499.81 0.43 c p3
308.01 498.68 0.43 c p3
308.15 498.22 0.43 c p3
308.30 499.81 0.43 c p3
308.44 498.91 0.43 c p3
308.59 498.91 0.43 c p3
308.73 500.27 0.43 c p3
308.88 500.95 0.43 c p3
309.02 498.45 0.43 c p3
309.17 499.81 0.43 c p3
309.32 498.00 0.43 c p3
309.46 498.22 0.43 c p3
309.61 499.59 0.43 c p3
309.75 500.27 0.43 c p3
309.90 499.13 0.43 c p3
310.04 499.59 0.43 c p3
310.19 499.13 0.43 c p3
310.33 500.04 0.43 c p3
310.48 500.27 0.43 c p3
310.63 500.72 0.43 c p3
310.77 499.36 0.43 c p3
310.92 499.13 0.43 c p3
311.06 499.13 0.43 c p3
311.21 499.13 0.43 c p3
311.35 499.59 0.43 c p3
311.50 500.04 0.43 c p3
311.64 500.27 0.43 c p3
311.79 500.04 0.43 c p3
311.94 498.91 0.43 c p3
312.08 500.50 0.43 c p3
312.23 499.13 0.43 c p3
312.37 500.50 0.43 c p3
312.52 500.04 0.43 c p3
312.66 501.18 0.43 c p3
312.81 499.81 0.43 c p3
312.96 499.81 0.43 c p3
313.10 500.72 0.43 c p3
313.25 499.13 0.43 c p3
313.39 500.27 0.43 c p3
313.54 500.27 0.43 c p3
313.68 499.59 0.43 c p3
313.83 500.50 0.43 c p3
313.97 500.04 0.43 c p3
314.12 499.13 0.43 c p3
314.27 501.18 0.43 c p3
314.41 500.50 0.43 c p3
314.56 500.27 0.43 c p3
314.70 500.50 0.43 c p3
314.85 499.59 0.43 c p3
314.99 501.63 0.43 c p3
315.14 500.95 0.43 c p3
315.28 500.50 0.43 c p3
315.43 500.95 0.43 c p3
315.58 500.72 0.43 c p3
315.72 499.36 0.43 c p3
315.87 501.18 0.43 c p3
316.01 501.40 0.43 c p3
316.16 500.27 0.43 c p3
316.30 500.72 0.43 c p3
316.45 501.63 0.43 c p3
316.59 500.27 0.43 c p3
316.74 500.72 0.43 c p3
316.89 500.27 0.43 c p3
317.03 501.63 0.43 c p3
317.18 502.08 0.43 c p3
317.32 502.08 0.43 c p3
317.47 501.86 0.43 c p3
317.61 500.95 0.43 c p3
317.76 500.04 0.43 c p3
317.91 501.18 0.43 c p3
318.05 501.40 0.43 c p3
318.20 501.63 0.43 c p3
318.34 502.08 0.43 c p3
318.49 501.63 0.43 c p3
318.63 502.08 0.43 c p3
318.78 501.40 0.43 c p3
318.92 500.50 0.43 c p3
319.07 500.04 0.43 c p3
319.22 501.18 0.43 c p3
319.36 502.31 0.43 c p3
319.51 502.31 0.43 c p3
319.65 502.31 0.43 c p3
319.80 502.31 0.43 c p3
319.94 502.08 0.43 c p3
320.09 500.72 0.43 c p3
320.23 502.31 0.43 c p3
320.38 501.86 0.43 c p3
320.53 503.22 0.43 c p3
320.67 503.22 0.43 c p3
320.82 502.77 0.43 c p3
320.96 502.99 0.43 c p3
321.11 502.31 0.43 c p3
321.25 501.63 0.43 c p3
321.40 501.86 0.43 c p3
321.54 502.31 0.43 c p3
321.69 501.86 0.43 c p3
321.84 502.08 0.43 c p3
321.98 502.08 0.43 c p3
322.13 502.77 0.43 c p3
322.27 502.54 0.43 c p3
322.42 502.77 0.43 c p3
322.56 502.77 0.43 c p3
322.71 502.08 0.43 c p3
322.85 502.31 0.43 c p3
323.00 502.99 0.43 c p3
323.15 502.31 0.43 c p3
323.29 501.63 0.43 c p3
323.44 502.08 0.43 c p3
323.58 500.72 0.43 c p3
323.73 501.63 0.43 c p3
323.87 501.40 0.43 c p3
324.02 502.08 0.43 c p3
324.17 502.77 0.43 c p3
324.31 502.99 0.43 c p3
324.46 503.90 0.43 c p3
324.60 502.54 0.43 c p3
324.75 502.31 0.43 c p3
324.89 503.22 0.43 c p3
325.04 501.86 0.43 c p3
325.18 502.99 0.43 c p3
325.33 503.67 0.43 c p3
325.48 502.08 0.43 c p3
325.62 502.08 0.43 c p3
325.77 502.99 0.43 c p3
325.91 501.63 0.43 c p3
326.06 502.31 0.43 c p3
326.20 503.90 0.43 c p3
326.35 503.90 0.43 c p3
326.49 502.31 0.43 c p3
326.64 502.99 0.43 c p3
326.79 502.99 0.43 c p3
326.93 502.54 0.43 c p3
327.08 502.99 0.43 c p3
327.22 502.77 0.43 c p3
327.37 501.63 0.43 c p3
327.51 502.99 0.43 c p3
327.66 502.77 0.43 c p3
327.80 503.67 0.43 c p3
327.95 503.67 0.43 c p3
328.10 503.22 0.43 c p3
328.24 502.08 0.43 c p3
328.39 502.77 0.43 c p3
328.53 503.22 0.43 c p3
328.68 503.45 0.43 c p3
328.82 503.22 0.43 c p3
328.97 503.22 0.43 c p3
329.12 503.90 0.43 c p3
329.26 503.90 0.43 c p3
329.41 501.86 0.43 c p3
329.55 502.99 0.43 c p3
329.70 503.45 0.43 c p3
329.84 502.54 0.43 c p3
329.99 502.77 0.43 c p3
330.13 504.54 0.43 c p3
330.28 502.99 0.43 c p3
330.43 504.32 0.43 c p3
330.57 503.22 0.43 c p3
330.72 502.99 0.43 c p3
330.86 503.67 0.43 c p3
331.01 503.90 0.43 c p3
331.15 504.09 0.43 c p3
331.30 503.45 0.43 c p3
331.44 504.32 0.43 c p3
331.59 503.22 0.43 c p3
331.74 503.22 0.43 c p3
331.88 502.99 0.43 c p3
332.03 503.45 0.43 c p3
332.17 503.90 0.43 c p3
332.32 503.22 0.43 c p3
332.46 503.67 0.43 c p3
332.61 505.00 0.43 c p3
332.75 502.08 0.43 c p3
332.90 502.54 0.43 c p3
333.05 503.67 0.43 c p3
333.19 504.09 0.43 c p3
333.34 503.67 0.43 c p3
333.48 503.22 0.43 c p3
333.63 504.54 0.43 c p3
333.77 504.32 0.43 c p3
333.92 505.00 0.43 c p3
334.07 504.09 0.43 c p3
334.21 504.32 0.43 c p3
334.36 504.32 0.43 c p3
334.50 502.77 0.43 c p3
334.65 502.99 0.43 c p3
334.79 503.22 0.43 c p3
334.94 503.90 0.43 c p3
335.08 503.22 0.43 c p3
335.23 503.45 0.43 c p3
335.38 503.67 0.43 c p3
335.52 502.77 0.43 c p3
335.67 503.67 0.43 c p3
335.81 504.54 0.43 c p3
335.96 503.90 0.43 c p3
336.10 504.09 0.43 c p3
336.25 503.67 0.43 c p3
336.39 503.90 0.43 c p3
336.54 503.67 0.43 c p3
336.69 504.32 0.43 c p3
336.83 503.45 0.43 c p3
336.98 504.77 0.43 c p3
337.12 503.67 0.43 c p3
337.27 504.32 0.43 c p3
337.41 503.90 0.43 c p3
337.56 503.45 0.43 c p3
337.70 503.67 0.43 c p3
337.85 503.67 0.43 c p3
338.00 503.67 0.43 c p3
338.14 504.09 0.43 c p3
338.29 503.67 0.43 c p3
338.43 503.90 0.43 c p3
338.58 504.09 0.43 c p3
338.72 505.00 0.43 c p3
338.87 504.09 0.43 c p3
339.02 504.09 0.43 c p3
339.16 503.22 0.43 c p3
339.31 502.99 0.43 c p3
339.45 504.32 0.43 c p3
339.60 504.09 0.43 c p3
339.74 504.32 0.43 c p3
339.89 502.77 0.43 c p3
340.03 503.90 0.43 c p3
340.18 504.09 0.43 c p3
340.33 504.32 0.43 c p3
340.47 503.67 0.43 c p3
340.62 503.90 0.43 c p3
340.76 503.90 0.43 c p3
340.91 504.54 0.43 c p3
341.05 504.32 0.43 c p3
341.20 505.23 0.43 c p3
341.34 503.90 0.43 c p3
341.49 504.32 0.43 c p3
341.64 504.09 0.43 c p3
341.78 504.09 0.43 c p3
341.93 504.77 0.43 c p3
342.07 505.00 0.43 c p3
342.22 504.09 0.43 c p3
342.36 503.67 0.43 c p3
342.51 505.23 0.43 c p3
342.65 504.54 0.43 c p3
342.80 505.68 0.43 c p3
342.95 504.77 0.43 c p3
343.09 504.77 0.43 c p3
343.24 505.23 0.43 c p3
343.38 504.54 0.43 c p3
343.53 504.54 0.43 c p3
343.67 504.54 0.43 c p3
343.82 504.32 0.43 c p3
343.97 505.23 0.43 c p3
344.11 504.54 0.43 c p3
344.26 504.77 0.43 c p3
344.40 504.77 0.43 c p3
344.55 504.77 0.43 c p3
344.69 503.67 0.43 c p3
344.84 506.13 0.43 c p3
344.98 504.77 0.43 c p3
345.13 504.77 0.43 c p3
345.28 505.68 0.43 c p3
345.42 505.45 0.43 c p3
345.57 504.54 0.43 c p3
345.71 506.13 0.43 c p3
345.86 504.09 0.43 c p3
346.00 505.00 0.43 c p3
346.15 505.45 0.43 c p3
346.29 504.77 0.43 c p3
346.44 505.68 0.43 c p3
346.59 505.23 0.43 c p3
346.73 505.45 0.43 c p3
346.88 504.09 0.43 c p3
347.02 504.32 0.43 c p3
347.17 505.45 0.43 c p3
347.31 505.23 0.43 c p3
347.46 505.23 0.43 c p3
347.60 506.36 0.43 c p3
347.75 504.77 0.43 c p3
347.90 504.77 0.43 c p3
348.04 505.45 0.43 c p3
348.19 505.00 0.43 c p3
348.33 504.54 0.43 c p3
348.48 504.09 0.43 c p3
348.62 506.36 0.43 c p3
348.77 505.45 0.43 c p3
348.92 504.54 0.43 c p3
349.06 505.23 0.43 c p3
349.21 505.23 0.43 c p3
349.35 505.00 0.43 c p3
349.50 505.00 0.43 c p3
349.64 505.23 0.43 c p3
349.79 505.45 0.43 c p3
349.93 506.59 0.43 c p3
350.08 505.91 0.43 c p3
350.23 504.77 0.43 c p3
350.37 506.13 0.43 c p3
350.52 504.77 0.43 c p3
350.66 505.23 0.43 c p3
350.81 505.45 0.43 c p3
350.95 506.36 0.43 c p3
351.10 505.23 0.43 c p3
351.24 504.09 0.43 c p3
351.39 505.68 0.43 c p3
351.54 505.45 0.43 c p3
351.68 503.67 0.43 c p3
351.83 505.68 0.43 c p3
351.97 505.00 0.43 c p3
352.12 504.32 0.43 c p3
352.26 505.23 0.43 c p3
352.41 506.36 0.43 c p3
352.55 504.32 0.43 c p3
352.70 504.54 0.43 c p3
352.85 505.91 0.43 c p3
352.99 505.45 0.43 c p3
353.14 505.45 0.43 c p3
353.28 505.23 0.43 c p3
353.43 505.23 0.43 c p3
353.57 505.68 0.43 c p3
353.72 506.36 0.43 c p3
353.86 504.77 0.43 c p3
354.01 506.36 0.43 c p3
354.16 506.81 0.43 c p3
354.30 505.23 0.43 c p3
354.45 506.59 0.43 c p3
354.59 505.45 0.43 c p3
354.74 505.91 0.43 c p3
354.88 504.77 0.43 c p3
355.03 505.00 0.43 c p3
355.18 506.13 0.43 c p3
355.32 505.68 0.43 c p3
355.47 507.27 0.43 c p3
355.61 506.36 0.43 c p3
355.76 505.68 0.43 c p3
355.90 505.68 0.43 c p3
356.05 504.32 0.43 c p3
356.19 505.91 0.43 c p3
356.34 506.59 0.43 c p3
356.49 505.23 0.43 c p3
356.63 505.45 0.43 c p3
356.78 505.00 0.43 c p3
356.92 505.23 0.43 c p3
357.07 505.68 0.43 c p3
357.21 505.00 0.43 c p3
357.36 504.77 0.43 c p3
357.50 504.54 0.43 c p3
357.65 506.36 0.43 c p3
357.80 505.91 0.43 c p3
357.94 505.91 0.43 c p3
358.09 505.91 0.43 c p3
358.23 506.36 0.43 c p3
358.38 505.68 0.43 c p3
358.52 505.23 0.43 c p3
358.67 505.00 0.43 c p3
358.81 505.00 0.43 c p3
358.96 504.54 0.43 c p3
359.11 505.68 0.43 c p3
359.25 505.91 0.43 c p3
359.40 505.91 0.43 c p3
359.54 505.00 0.43 c p3
359.69 505.23 0.43 c p3
359.83 505.45 0.43 c p3
359.98 505.91 0.43 c p3
360.13 506.81 0.43 c p3
360.27 505.23 0.43 c p3
360.42 505.68 0.43 c p3
360.56 505.00 0.43 c p3
360.71 504.54 0.43 c p3
360.85 506.13 0.43 c p3
361.00 505.68 0.43 c p3
361.14 505.91 0.43 c p3
361.29 506.13 0.43 c p3
361.44 505.23 0.43 c p3
361.58 506.13 0.43 c p3
361.73 505.68 0.43 c p3
361.87 506.13 0.43 c p3
362.02 507.27 0.43 c p3
362.16 506.13 0.43 c p3
362.31 506.36 0.43 c p3
362.45 504.54 0.43 c p3
362.60 507.04 0.43 c p3
362.75 506.59 0.43 c p3
362.89 506.59 0.43 c p3
363.04 505.45 0.43 c p3
363.18 505.23 0.43 c p3
363.33 505.45 0.43 c p3
363.47 506.59 0.43 c p3
363.62 505.68 0.43 c p3
363.76 507.04 0.43 c p3
363.91 506.13 0.43 c p3
364.06 507.27 0.43 c p3
364.20 505.45 0.43 c p3
364.35 507.27 0.43 c p3
364.49 506.36 0.43 c p3
364.64 504.54 0.43 c p3
364.78 506.36 0.43 c p3
364.93 506.36 0.43 c p3
365.08 506.59 0.43 c p3
365.22 506.59 0.43 c p3
365.37 506.36 0.43 c p3
365.51 506.81 0.43 c p3
365.66 505.23 0.43 c p3
365.80 507.27 0.43 c p3
365.95 507.27 0.43 c p3
366.09 505.45 0.43 c p3
366.24 506.81 0.43 c p3
366.39 506.13 0.43 c p3
366.53 506.59 0.43 c p3
366.68 507.04 0.43 c p3
366.82 506.13 0.43 c p3
366.97 505.23 0.43 c p3
367.11 507.04 0.43 c p3
367.26 506.13 0.43 c p3
367.40 506.81 0.43 c p3
367.55 506.59 0.43 c p3
367.70 506.81 0.43 c p3
367.84 506.59 0.43 c p3
367.99 506.13 0.43 c p3
368.13 507.04 0.43 c p3
368.28 505.91 0.43 c p3
368.42 506.36 0.43 c p3
368.57 507.27 0.43 c p3
368.71 507.04 0.43 c p3
368.86 507.04 0.43 c p3
369.01 507.95 0.43 c p3
369.15 505.45 0.43 c p3
369.30 506.36 0.43 c p3
369.44 506.59 0.43 c p3
369.59 506.36 0.43 c p3
369.73 506.81 0.43 c p3
369.88 506.59 0.43 c p3
370.03 505.91 0.43 c p3
370.17 506.81 0.43 c p3
370.32 507.27 0.43 c p3
370.46 506.13 0.43 c p3
370.61 508.18 0.43 c p3
370.75 505.91 0.43 c p3
370.90 507.04 0.43 c p3
371.04 506.36 0.43 c p3
371.19 506.59 0.43 c p3
371.34 506.13 0.43 c p3
371.48 506.13 0.43 c p3
371.63 506.36 0.43 c p3
371.77 506.59 0.43 c p3
371.92 507.27 0.43 c p3
372.06 506.36 0.43 c p3
372.21 507.50 0.43 c p3
372.35 506.59 0.43 c p3
372.50 507.04 0.43 c p3
372.65 507.50 0.43 c p3
372.79 507.27 0.43 c p3
372.94 507.50 0.43 c p3
373.08 506.36 0.43 c p3
373.23 507.72 0.43 c p3
373.37 505.68 0.43 c p3
373.52 507.27 0.43 c p3
373.66 507.50 0.43 c p3
373.81 507.50 0.43 c p3
373.96 507.50 0.43 c p3
374.10 506.59 0.43 c p3
374.25 507.27 0.43 c p3
374.39 507.27 0.43 c p3
374.54 507.04 0.43 c p3
374.68 505.91 0.43 c p3
374.83 507.04 0.43 c p3
374.98 506.59 0.43 c p3
375.12 507.50 0.43 c p3
375.27 507.27 0.43 c p3
375.41 507.27 0.43 c p3
375.56 507.27 0.43 c p3
375.70 505.45 0.43 c p3
375.85 506.36 0.43 c p3
375.99 507.04 0.43 c p3
376.14 506.36 0.43 c p3
376.29 506.81 0.43 c p3
376.43 505.68 0.43 c p3
376.58 506.59 0.43 c p3
376.72 507.04 0.43 c p3
376.87 507.27 0.43 c p3
377.01 507.04 0.43 c p3
377.16 506.13 0.43 c p3
377.30 507.50 0.43 c p3
377.45 507.50 0.43 c p3
377.60 507.04 0.43 c p3
377.74 507.04 0.43 c p3
377.89 507.27 0.43 c p3
378.03 506.36 0.43 c p3
378.18 506.81 0.43 c p3
378.32 506.36 0.43 c p3
378.47 506.59 0.43 c p3
378.61 507.04 0.43 c p3
378.76 507.95 0.43 c p3
378.91 507.27 0.43 c p3
379.05 507.04 0.43 c p3
379.20 506.59 0.43 c p3
379.34 506.59 0.43 c p3
379.49 507.72 0.43 c p3
379.63 506.13 0.43 c p3
379.78 507.50 0.43 c p3
379.93 507.04 0.43 c p3
380.07 507.50 0.43 c p3
380.22 506.81 0.43 c p3
380.36 507.04 0.43 c p3
380.51 506.81 0.43 c p3
380.65 507.04 0.43 c p3
380.80 507.27 0.43 c p3
380.94 507.04 0.43 c p3
381.09 508.40 0.43 c p3
381.24 507.04 0.43 c p3
381.38 507.27 0.43 c p3
381.53 507.95 0.43 c p3
381.67 506.81 0.43 c p3
381.82 507.95 0.43 c p3
381.96 508.18 0.43 c p3
382.11 507.50 0.43 c p3
382.25 507.50 0.43 c p3
382.40 509.31 0.43 c p3
0.00 0.00 432.00 576.00 cl
0 0 0 srgb
0.75 setlinewidth
[] 0 setdash
1 setlinecap
1 setlinejoin
10.00 setmiterlimit
np
236.96 345.60 m
145.59 0 l
o
np
236.96 345.60 m
0 -5.76 l
o
np
266.08 345.60 m
0 -5.76 l
o
np
295.19 345.60 m
0 -5.76 l
o
np
324.31 345.60 m
0 -5.76 l
o
np
353.43 345.60 m
0 -5.76 l
o
np
382.55 345.60 m
0 -5.76 l
o
/Font1 findfont 10 s
236.96 329.47 (0) .5 0 t
266.08 329.47 (500) .5 0 t
295.19 329.47 (1000) .5 0 t
353.43 329.47 (2000) .5 0 t
np
216.00 352.00 m
0 155.00 l
o
np
216.00 352.00 m
-5.76 0 l
o
np
216.00 383.00 m
-5.76 0 l
o
np
216.00 414.00 m
-5.76 0 l
o
np
216.00 445.00 m
-5.76 0 l
o
np
216.00 476.00 m
-5.76 0 l
o
np
216.00 507.00 m
-5.76 0 l
o
209.09 348.41 (0.00) 1 0 t
209.09 379.41 (0.05) 1 0 t
209.09 410.41 (0.10) 1 0 t
209.09 441.41 (0.15) 1 0 t
209.09 472.41 (0.20) 1 0 t
209.09 503.41 (0.25) 1 0 t
np
216.00 345.60 m
172.80 0 l
0 172.80 l
-172.80 0 l
0 -172.80 l
o
0.00 0.00 432.00 576.00 cl
/Font1 findfont 10 s
0 0 0 srgb
302.40 313.34 (Time / ms \(total\)) .5 0 t
190.66 432.00 (U / V) .5 90 t
216.00 345.60 388.80 518.40 cl
0 0 0 srgb
0.38 setlinewidth
[ 1.13 1.88] 0 setdash
1 setlinecap
1 setlinejoin
10.00 setmiterlimit
np
223.13 345.60 m
0 172.80 l
o
np
235.50 345.60 m
0 172.80 l
o
np
238.12 345.60 m
0 172.80 l
o
np
367.40 345.60 m
0 172.80 l
o
86.40 57.60 388.80 288.00 cl
1 0 0 srgb
1.50 setlinewidth
[] 0 setdash
1 setlinecap
1 setlinejoin
10.00 setmiterlimit
np
97.60 279.47 m
1.41 -5.28 l
1.40 -5.14 l
1.41 -5.00 l
1.41 -4.88 l
1.41 -4.76 l
1.40 -4.63 l
1.41 -4.52 l
1.41 -4.40 l
1.40 -4.29 l
1.41 -4.17 l
1.41 -4.08 l
1.40 -3.96 l
1.41 -3.87 l
1.41 -3.77 l
1.41 -3.67 l
1.40 -3.58 l
1.41 -3.48 l
1.41 -3.40 l
1.40 -3.31 l
1.41 -3.22 l
1.41 -3.15 l
1.40 -3.06 l
1.41 -2.99 l
1.41 -2.90 l
1.41 -2.84 l
1.40 -2.76 l
1.41 -2.69 l
1.41 -2.63 l
1.40 -2.55 l
1.41 -2.49 l
1.41 -2.43 l
1.41 -2.36 l
1.40 -2.31 l
1.41 -2.24 l
1.41 -2.19 l
1.40 -2.13 l
1.41 -2.08 l
1.41 -2.03 l
1.40 -1.97 l
1.41 -1.92 l
1.41 -1.88 l
1.41 -1.82 l
1.40 -1.78 l
1.41 -1.73 l
1.41 -1.69 l
1.40 -1.65 l
1.41 -1.60 l
1.41 -1.57 l
1.40 -1.52 l
1.41 -1.49 l
1.41 -1.44 l
1.41 -1.41 l
1.40 -1.38 l
1.41 -1.33 l
1.41 -1.31 l
1.40 -1.27 l
1.41 -1.24 l
1.41 -1.21 l
1.41 -1.17 l
1.40 -1.15 l
1.41 -1.11 l
1.41 -1.09 l
1.40 -1.06 l
1.41 -1.04 l
1.41 -1.00 l
1.40 -0.98 l
1.41 -0.96 l
1.41 -0.93 l
1.41 -0.91 l
1.40 -0.89 l
1.41 -0.86 l
1.41 -0.84 l
1.40 -0.82 l
1.41 -0.79 l
1.41 -0.78 l
1.40 -0.76 l
1.41 -0.74 l
1.41 -0.72 l
1.41 -0.70 l
1.40 -0.68 l
1.41 -0.67 l
1.41 -0.65 l
1.40 -0.63 l
1.41 -0.61 l
1.41 -0.60 l
1.41 -0.59 l
1.40 -0.57 l
1.41 -0.55 l
1.41 -0.55 l
1.40 -0.52 l
1.41 -0.52 l
1.41 -0.50 l
1.40 -0.49 l
1.41 -0.47 l
1.41 -0.46 l
1.41 -0.46 l
1.40 -0.44 l
1.41 -0.42 l
1.41 -0.42 l
238.30 88.51 lineto
1.41 -0.40 l
1.41 -0.38 l
1.40 -0.38 l
1.41 -0.37 l
1.41 -0.35 l
1.41 -0.35 l
1.40 -0.34 l
1.41 -0.33 l
1.41 -0.33 l
1.40 -0.31 l
1.41 -0.31 l
1.41 -0.30 l
1.40 -0.29 l
1.41 -0.28 l
1.41 -0.28 l
1.41 -0.27 l
1.40 -0.26 l
1.41 -0.25 l
1.41 -0.25 l
1.40 -0.25 l
1.41 -0.23 l
1.41 -0.23 l
1.41 -0.23 l
1.40 -0.22 l
1.41 -0.21 l
1.41 -0.21 l
1.40 -0.20 l
1.41 -0.20 l
1.41 -0.19 l
1.40 -0.19 l
1.41 -0.18 l
1.41 -0.18 l
1.41 -0.17 l
1.40 -0.17 l
1.41 -0.16 l
1.41 -0.16 l
1.40 -0.16 l
1.41 -0.15 l
1.41 -0.15 l
1.40 -0.15 l
1.41 -0.14 l
1.41 -0.13 l
1.41 -0.14 l
1.40 -0.13 l
1.41 -0.13 l
1.41 -0.12 l
1.40 -0.12 l
1.41 -0.12 l
1.41 -0.11 l
1.41 -0.11 l
1.40 -0.11 l
1.41 -0.11 l
1.41 -0.10 l
1.40 -0.10 l
1.41 -0.10 l
1.41 -0.10 l
1.40 -0.09 l
1.41 -0.09 l
1.41 -0.09 l
1.41 -0.09 l
1.40 -0.08 l
1.41 -0.08 l
1.41 -0.08 l
1.40 -0.08 l
1.41 -0.07 l
1.41 -0.08 l
1.40 -0.07 l
1.41 -0.07 l
1.41 -0.07 l
1.41 -0.07 l
1.40 -0.06 l
1.41 -0.06 l
1.41 -0.07 l
1.40 -0.06 l
1.41 -0.05 l
1.41 -0.06 l
1.41 -0.06 l
1.40 -0.05 l
1.41 -0.05 l
1.41 -0.05 l
1.40 -0.05 l
1.41 -0.05 l
1.41 -0.05 l
1.40 -0.05 l
1.41 -0.04 l
1.41 -0.05 l
1.41 -0.04 l
1.40 -0.04 l
1.41 -0.04 l
1.41 -0.04 l
1.40 -0.04 l
1.41 -0.04 l
1.41 -0.03 l
1.40 -0.04 l
1.41 -0.04 l
1.41 -0.03 l
1.41 -0.03 l
1.40 -0.03 l
1.41 -0.04 l
o
0.00 0.00 432.00 576.00 cl
0 0 0 srgb
0.75 setlinewidth
[] 0 setdash
1 setlinecap
1 setlinejoin
10.00 setmiterlimit
np
97.60 57.60 m
280.00 0 l
o
np
97.60 57.60 m
0 -5.76 l
o
np
153.60 57.60 m
0 -5.76 l
o
np
209.60 57.60 m
0 -5.76 l
o
np
265.60 57.60 m
0 -5.76 l
o
np
321.60 57.60 m
0 -5.76 l
o
np
377.60 57.60 m
0 -5.76 l
o
/Font1 findfont 10 s
97.60 41.47 (0) .5 0 t
153.60 41.47 (500) .5 0 t
209.60 41.47 (1000) .5 0 t
265.60 41.47 (1500) .5 0 t
321.60 41.47 (2000) .5 0 t
377.60 41.47 (2500) .5 0 t
np
86.40 66.13 m
0 191.83 l
o
np
86.40 66.13 m
-5.76 0 l
o
np
86.40 104.50 m
-5.76 0 l
o
np
86.40 142.86 m
-5.76 0 l
o
np
86.40 181.23 m
-5.76 0 l
o
np
86.40 219.59 m
-5.76 0 l
o
np
86.40 257.96 m
-5.76 0 l
o
79.49 62.54 (0.00) 1 0 t
79.49 100.91 (0.05) 1 0 t
79.49 139.27 (0.10) 1 0 t
79.49 177.64 (0.15) 1 0 t
79.49 216.00 (0.20) 1 0 t
79.49 254.37 (0.25) 1 0 t
np
86.40 57.60 m
302.40 0 l
0 230.40 l
-302.40 0 l
0 -230.40 l
o
0.00 0.00 432.00 576.00 cl
/Font1 findfont 10 s
0 0 0 srgb
237.60 13.82 (Time / ms \(after pulse\)) .5 0 t
49.54 172.80 (Absorbance A) .5 90 t
86.40 57.60 388.80 288.00 cl
/bg { 1 1 1 srgb } def
0 0 0 srgb
0.75 setlinewidth
[] 0 setdash
1 setlinecap
1 setlinejoin
10.00 setmiterlimit
100.12 263.75 0.65 c p3
100.40 263.75 0.65 c p3
100.68 274.16 0.65 c p3
100.96 267.23 0.65 c p3
101.24 263.75 0.65 c p3
101.52 267.23 0.65 c p3
101.80 268.11 0.65 c p3
102.08 256.04 0.65 c p3
102.36 264.62 0.65 c p3
102.64 266.36 0.65 c p3
102.92 262.02 0.65 c p3
103.20 256.89 0.65 c p3
103.48 257.74 0.65 c p3
103.76 258.59 0.65 c p3
104.04 260.30 0.65 c p3
104.32 254.35 0.65 c p3
104.60 248.65 0.65 c p3
104.88 253.51 0.65 c p3
105.16 258.59 0.65 c p3
105.44 253.51 0.65 c p3
105.72 250.17 0.65 c p3
106.00 250.17 0.65 c p3
106.28 253.51 0.65 c p3
106.56 246.17 0.65 c p3
106.84 245.35 0.65 c p3
107.12 246.17 0.65 c p3
107.40 247.82 0.65 c p3
107.68 245.35 0.65 c p3
107.96 240.47 0.65 c p3
108.24 242.90 0.65 c p3
108.52 247.00 0.65 c p3
108.80 238.86 0.65 c p3
109.08 239.66 0.65 c p3
109.36 240.47 0.65 c p3
109.64 239.66 0.65 c p3
109.92 240.47 0.65 c p3
110.20 237.25 0.65 c p3
110.48 233.28 0.65 c p3
110.76 237.25 0.65 c p3
111.04 235.66 0.65 c p3
111.32 230.92 0.65 c p3
111.60 230.92 0.65 c p3
111.88 234.86 0.65 c p3
112.16 234.86 0.65 c p3
112.44 229.35 0.65 c p3
112.72 230.13 0.65 c p3
113.00 227.79 0.65 c p3
113.28 230.13 0.65 c p3
113.56 227.79 0.65 c p3
113.84 224.05 0.65 c p3
114.12 225.59 0.65 c p3
114.40 226.37 0.65 c p3
114.68 226.37 0.65 c p3
114.96 224.05 0.65 c p3
115.24 221.75 0.65 c p3
115.52 227.79 0.65 c p3
115.80 218.71 0.65 c p3
116.08 217.96 0.65 c p3
116.36 218.71 0.65 c p3
116.64 217.96 0.65 c p3
116.92 219.47 0.65 c p3
117.20 217.96 0.65 c p3
117.48 212.71 0.65 c p3
117.76 216.45 0.65 c p3
118.04 217.20 0.65 c p3
118.32 211.97 0.65 c p3
118.60 211.23 0.65 c p3
118.88 217.20 0.65 c p3
119.16 211.97 0.65 c p3
119.44 210.49 0.65 c p3
119.72 211.23 0.65 c p3
120.00 210.49 0.65 c p3
120.28 205.48 0.65 c p3
120.56 206.21 0.65 c p3
120.84 206.21 0.65 c p3
121.12 210.49 0.65 c p3
121.40 206.94 0.65 c p3
121.68 205.48 0.65 c p3
121.96 205.48 0.65 c p3
122.24 206.94 0.65 c p3
122.52 204.76 0.65 c p3
122.80 199.71 0.65 c p3
123.08 202.58 0.65 c p3
123.36 205.48 0.65 c p3
123.64 200.43 0.65 c p3
123.92 195.45 0.65 c p3
124.20 200.43 0.65 c p3
124.48 201.15 0.65 c p3
124.76 198.29 0.65 c p3
125.04 195.45 0.65 c p3
125.32 198.29 0.65 c p3
125.60 198.29 0.65 c p3
125.88 195.45 0.65 c p3
126.16 193.34 0.65 c p3
126.44 195.45 0.65 c p3
126.72 198.29 0.65 c p3
127.00 191.24 0.65 c p3
127.28 191.24 0.65 c p3
127.56 191.24 0.65 c p3
127.84 192.64 0.65 c p3
128.12 191.24 0.65 c p3
128.40 185.83 0.65 c p3
128.68 190.55 0.65 c p3
128.96 191.24 0.65 c p3
129.24 183.10 0.65 c p3
129.52 185.14 0.65 c p3
129.80 187.20 0.65 c p3
130.08 187.20 0.65 c p3
130.36 184.46 0.65 c p3
130.64 183.78 0.65 c p3
130.92 186.51 0.65 c p3
131.20 183.10 0.65 c p3
131.48 181.74 0.65 c p3
131.76 180.39 0.65 c p3
132.04 181.74 0.65 c p3
132.32 181.74 0.65 c p3
132.60 179.71 0.65 c p3
132.88 181.74 0.65 c p3
133.16 185.14 0.65 c p3
133.44 181.74 0.65 c p3
133.72 175.70 0.65 c p3
134.00 175.70 0.65 c p3
134.28 179.04 0.65 c p3
134.56 177.03 0.65 c p3
134.84 173.05 0.65 c p3
135.12 177.70 0.65 c p3
135.40 179.71 0.65 c p3
135.68 174.37 0.65 c p3
135.96 175.03 0.65 c p3
136.24 173.05 0.65 c p3
136.52 175.03 0.65 c p3
136.80 171.08 0.65 c p3
137.08 168.57 0.65 c p3
137.36 170.53 0.65 c p3
137.64 171.73 0.65 c p3
137.92 169.88 0.65 c p3
138.20 169.22 0.65 c p3
138.48 172.39 0.65 c p3
138.76 168.57 0.65 c p3
139.04 167.27 0.65 c p3
139.32 167.92 0.65 c p3
139.60 170.53 0.65 c p3
139.88 169.88 0.65 c p3
140.16 167.27 0.65 c p3
140.44 164.04 0.65 c p3
140.72 167.27 0.65 c p3
141.00 163.40 0.65 c p3
141.28 162.76 0.65 c p3
141.56 162.76 0.65 c p3
141.84 165.33 0.65 c p3
142.12 167.92 0.65 c p3
142.40 164.69 0.65 c p3
142.68 160.21 0.65 c p3
142.96 162.12 0.65 c p3
143.24 164.69 0.65 c p3
143.52 163.40 0.65 c p3
143.80 158.95 0.65 c p3
144.08 161.49 0.65 c p3
144.36 162.76 0.65 c p3
144.64 160.21 0.65 c p3
144.92 155.80 0.65 c p3
145.20 157.68 0.65 c p3
145.48 160.85 0.65 c p3
145.76 159.58 0.65 c p3
146.04 156.42 0.65 c p3
146.32 157.05 0.65 c p3
146.60 156.42 0.65 c p3
146.88 157.68 0.65 c p3
147.16 152.16 0.65 c p3
147.44 153.92 0.65 c p3
147.72 155.17 0.65 c p3
148.00 157.68 0.65 c p3
148.28 155.17 0.65 c p3
148.56 152.16 0.65 c p3
148.84 152.16 0.65 c p3
149.12 153.92 0.65 c p3
149.40 150.31 0.65 c p3
149.68 144.20 0.65 c p3
149.96 152.78 0.65 c p3
150.24 152.78 0.65 c p3
150.52 149.69 0.65 c p3
150.80 147.85 0.65 c p3
151.08 152.78 0.65 c p3
151.36 154.55 0.65 c p3
151.64 149.08 0.65 c p3
151.92 149.08 0.65 c p3
152.20 146.02 0.65 c p3
152.48 149.08 0.65 c p3
152.76 143.60 0.65 c p3
153.04 146.02 0.65 c p3
153.32 147.85 0.65 c p3
153.60 145.41 0.65 c p3
153.88 144.81 0.65 c p3
154.16 142.99 0.65 c p3
154.44 146.63 0.65 c p3
154.72 145.41 0.65 c p3
155.00 143.60 0.65 c p3
155.28 144.81 0.65 c p3
155.56 145.41 0.65 c p3
155.84 144.20 0.65 c p3
156.12 142.39 0.65 c p3
156.40 141.19 0.65 c p3
156.68 142.99 0.65 c p3
156.96 146.02 0.65 c p3
157.24 140.59 0.65 c p3
157.52 139.39 0.65 c p3
157.80 140.59 0.65 c p3
158.08 139.39 0.65 c p3
158.36 138.80 0.65 c p3
158.64 138.20 0.65 c p3
158.92 141.79 0.65 c p3
159.20 140.59 0.65 c p3
159.48 136.52 0.65 c p3
159.76 135.93 0.65 c p3
160.04 137.12 0.65 c p3
160.32 141.19 0.65 c p3
160.60 137.61 0.65 c p3
160.88 135.34 0.65 c p3
161.16 141.79 0.65 c p3
161.44 134.75 0.65 c p3
161.72 135.93 0.65 c p3
162.00 136.52 0.65 c p3
162.28 138.20 0.65 c p3
162.56 136.52 0.65 c p3
162.84 135.34 0.65 c p3
163.12 131.83 0.65 c p3
163.40 135.93 0.65 c p3
163.68 137.12 0.65 c p3
163.96 133.00 0.65 c p3
164.24 132.41 0.65 c p3
164.52 138.20 0.65 c p3
164.80 135.34 0.65 c p3
165.08 128.35 0.65 c p3
165.36 130.08 0.65 c p3
165.64 135.34 0.65 c p3
165.92 131.83 0.65 c p3
166.20 130.66 0.65 c p3
166.48 130.66 0.65 c p3
166.76 131.83 0.65 c p3
167.04 129.50 0.65 c p3
167.32 128.92 0.65 c p3
167.60 128.35 0.65 c p3
167.88 130.08 0.65 c p3
168.16 131.24 0.65 c p3
168.44 127.19 0.65 c p3
168.72 126.05 0.65 c p3
169.00 126.62 0.65 c p3
169.28 127.19 0.65 c p3
169.56 127.77 0.65 c p3
169.84 126.62 0.65 c p3
170.12 127.19 0.65 c p3
170.40 130.66 0.65 c p3
170.68 126.05 0.65 c p3
170.96 124.90 0.65 c p3
171.24 127.19 0.65 c p3
171.52 126.62 0.65 c p3
171.80 124.33 0.65 c p3
172.08 123.19 0.65 c p3
172.36 124.90 0.65 c p3
172.64 127.77 0.65 c p3
172.92 124.90 0.65 c p3
173.20 122.63 0.65 c p3
173.48 123.19 0.65 c p3
173.76 125.47 0.65 c p3
174.04 125.47 0.65 c p3
174.32 119.33 0.65 c p3
174.60 122.06 0.65 c p3
174.88 123.76 0.65 c p3
175.16 124.90 0.65 c p3
175.44 119.33 0.65 c p3
175.72 118.77 0.65 c p3
176.00 123.19 0.65 c p3
176.28 123.19 0.65 c p3
176.56 119.89 0.65 c p3
176.84 116.54 0.65 c p3
177.12 120.46 0.65 c p3
177.40 121.59 0.65 c p3
177.68 120.46 0.65 c p3
177.96 117.09 0.65 c p3
178.24 123.19 0.65 c p3
178.52 122.06 0.65 c p3
178.80 117.65 0.65 c p3
179.08 116.54 0.65 c p3
179.36 120.46 0.65 c p3
179.64 123.76 0.65 c p3
179.92 118.21 0.65 c p3
180.20 117.09 0.65 c p3
180.48 116.54 0.65 c p3
180.76 117.09 0.65 c p3
181.04 117.09 0.65 c p3
181.32 115.98 0.65 c p3
181.60 116.54 0.65 c p3
181.88 117.65 0.65 c p3
182.16 114.87 0.65 c p3
182.44 114.87 0.65 c p3
182.72 115.98 0.65 c p3
183.00 118.21 0.65 c p3
183.28 117.65 0.65 c p3
183.56 113.21 0.65 c p3
183.84 115.42 0.65 c p3
184.12 117.65 0.65 c p3
184.40 115.42 0.65 c p3
184.68 113.21 0.65 c p3
184.96 114.87 0.65 c p3
185.24 116.54 0.65 c p3
185.52 112.66 0.65 c p3
185.80 112.66 0.65 c p3
186.08 113.76 0.65 c p3
186.36 115.42 0.65 c p3
186.64 113.21 0.65 c p3
186.92 111.56 0.65 c p3
187.20 109.37 0.65 c p3
187.48 115.42 0.65 c p3
187.76 113.76 0.65 c p3
188.04 112.11 0.65 c p3
188.32 111.56 0.65 c p3
188.60 114.32 0.65 c p3
188.88 111.01 0.65 c p3
189.16 108.83 0.65 c p3
189.44 110.47 0.65 c p3
189.72 111.01 0.65 c p3
190.00 110.47 0.65 c p3
190.28 111.01 0.65 c p3
190.56 111.01 0.65 c p3
190.84 111.01 0.65 c p3
191.12 111.01 0.65 c p3
191.40 107.74 0.65 c p3
191.68 107.74 0.65 c p3
191.96 109.37 0.65 c p3
192.24 108.83 0.65 c p3
192.52 107.74 0.65 c p3
192.80 107.74 0.65 c p3
193.08 111.01 0.65 c p3
193.36 107.20 0.65 c p3
193.64 106.21 0.65 c p3
193.92 110.47 0.65 c p3
194.20 111.56 0.65 c p3
194.48 106.21 0.65 c p3
194.76 106.21 0.65 c p3
195.04 108.29 0.65 c p3
195.32 109.37 0.65 c p3
195.60 104.59 0.65 c p3
195.88 104.59 0.65 c p3
196.16 107.20 0.65 c p3
196.44 107.20 0.65 c p3
196.72 103.52 0.65 c p3
197.00 105.67 0.65 c p3
197.28 106.75 0.65 c p3
197.56 110.47 0.65 c p3
197.84 104.59 0.65 c p3
198.12 102.45 0.65 c p3
198.40 102.99 0.65 c p3
198.68 105.13 0.65 c p3
198.96 106.21 0.65 c p3
199.24 104.06 0.65 c p3
199.52 106.21 0.65 c p3
199.80 108.83 0.65 c p3
200.08 105.67 0.65 c p3
200.36 102.99 0.65 c p3
200.64 105.67 0.65 c p3
200.92 102.99 0.65 c p3
201.20 106.21 0.65 c p3
201.48 103.52 0.65 c p3
201.76 104.59 0.65 c p3
202.04 106.21 0.65 c p3
202.32 105.13 0.65 c p3
202.60 101.92 0.65 c p3
202.88 102.45 0.65 c p3
203.16 103.52 0.65 c p3
203.44 106.21 0.65 c p3
203.72 104.06 0.65 c p3
204.00 101.92 0.65 c p3
204.28 100.85 0.65 c p3
204.56 101.92 0.65 c p3
204.84 99.79 0.65 c p3
205.12 101.38 0.65 c p3
205.40 100.85 0.65 c p3
205.68 104.59 0.65 c p3
205.96 102.45 0.65 c p3
206.24 101.38 0.65 c p3
206.52 100.32 0.65 c p3
206.80 101.38 0.65 c p3
207.08 100.85 0.65 c p3
207.36 99.26 0.65 c p3
207.64 96.11 0.65 c p3
207.92 101.38 0.65 c p3
208.20 101.92 0.65 c p3
208.48 98.21 0.65 c p3
208.76 99.79 0.65 c p3
209.04 100.85 0.65 c p3
209.32 104.06 0.65 c p3
209.60 101.92 0.65 c p3
209.88 97.68 0.65 c p3
210.16 100.32 0.65 c p3
210.44 98.73 0.65 c p3
210.72 99.26 0.65 c p3
211.00 101.38 0.65 c p3
211.28 99.26 0.65 c p3
211.56 97.68 0.65 c p3
211.84 99.79 0.65 c p3
212.12 101.38 0.65 c p3
212.40 96.63 0.65 c p3
212.68 100.85 0.65 c p3
212.96 99.79 0.65 c p3
213.24 98.21 0.65 c p3
213.52 94.54 0.65 c p3
213.80 95.06 0.65 c p3
214.08 97.15 0.65 c p3
214.36 98.73 0.65 c p3
214.64 98.21 0.65 c p3
214.92 96.63 0.65 c p3
215.20 99.26 0.65 c p3
215.48 95.58 0.65 c p3
215.76 97.68 0.65 c p3
216.04 97.68 0.65 c p3
216.32 95.58 0.65 c p3
216.60 95.06 0.65 c p3
216.88 98.21 0.65 c p3
217.16 94.02 0.65 c p3
217.44 95.58 0.65 c p3
217.72 98.73 0.65 c p3
218.00 96.11 0.65 c p3
218.28 94.02 0.65 c p3
218.56 97.15 0.65 c p3
218.84 96.11 0.65 c p3
219.12 95.06 0.65 c p3
219.40 93.50 0.65 c p3
219.68 92.03 0.65 c p3
219.96 95.06 0.65 c p3
220.24 95.58 0.65 c p3
220.52 94.54 0.65 c p3
220.80 96.63 0.65 c p3
221.08 94.54 0.65 c p3
221.36 94.54 0.65 c p3
221.64 97.15 0.65 c p3
221.92 93.50 0.65 c p3
222.20 92.98 0.65 c p3
222.48 94.02 0.65 c p3
222.76 91.51 0.65 c p3
223.04 92.03 0.65 c p3
223.32 92.54 0.65 c p3
223.60 92.98 0.65 c p3
223.88 95.06 0.65 c p3
224.16 94.54 0.65 c p3
224.44 93.50 0.65 c p3
224.72 94.02 0.65 c p3
225.00 92.54 0.65 c p3
225.28 92.54 0.65 c p3
225.56 90.99 0.65 c p3
225.84 92.03 0.65 c p3
226.12 92.03 0.65 c p3
226.40 92.98 0.65 c p3
226.68 92.98 0.65 c p3
226.96 90.99 0.65 c p3
227.24 94.54 0.65 c p3
227.52 93.50 0.65 c p3
227.80 90.48 0.65 c p3
228.08 91.51 0.65 c p3
228.36 93.50 0.65 c p3
228.64 91.51 0.65 c p3
228.92 92.54 0.65 c p3
229.20 95.06 0.65 c p3
229.48 90.99 0.65 c p3
229.76 92.98 0.65 c p3
230.04 90.99 0.65 c p3
230.32 92.03 0.65 c p3
230.60 92.54 0.65 c p3
230.88 92.03 0.65 c p3
231.16 92.98 0.65 c p3
231.44 88.42 0.65 c p3
231.72 88.42 0.65 c p3
232.00 90.48 0.65 c p3
232.28 89.45 0.65 c p3
232.56 88.94 0.65 c p3
232.84 92.54 0.65 c p3
233.12 90.48 0.65 c p3
233.40 90.99 0.65 c p3
233.68 90.48 0.65 c p3
233.96 88.94 0.65 c p3
234.24 88.42 0.65 c p3
234.52 90.99 0.65 c p3
234.80 92.03 0.65 c p3
235.08 88.42 0.65 c p3
235.36 90.48 0.65 c p3
235.64 90.48 0.65 c p3
235.92 87.40 0.65 c p3
236.20 85.87 0.65 c p3
236.48 91.51 0.65 c p3
236.76 88.42 0.65 c p3
237.04 92.54 0.65 c p3
237.32 92.03 0.65 c p3
237.60 88.94 0.65 c p3
237.88 87.40 0.65 c p3
238.16 89.96 0.65 c p3
238.44 88.94 0.65 c p3
238.72 89.96 0.65 c p3
239.00 87.91 0.65 c p3
239.28 87.40 0.65 c p3
239.56 86.38 0.65 c p3
239.84 89.45 0.65 c p3
240.12 89.96 0.65 c p3
240.40 89.96 0.65 c p3
240.68 89.96 0.65 c p3
240.96 88.94 0.65 c p3
241.24 87.91 0.65 c p3
241.52 87.40 0.65 c p3
241.80 87.91 0.65 c p3
242.08 90.48 0.65 c p3
242.36 86.89 0.65 c p3
242.64 89.96 0.65 c p3
242.92 86.89 0.65 c p3
243.20 87.91 0.65 c p3
243.48 85.37 0.65 c p3
243.76 88.42 0.65 c p3
244.04 88.42 0.65 c p3
244.32 86.38 0.65 c p3
244.60 89.96 0.65 c p3
244.88 87.40 0.65 c p3
245.16 87.40 0.65 c p3
245.44 88.94 0.65 c p3
245.72 86.89 0.65 c p3
246.00 87.91 0.65 c p3
246.28 89.96 0.65 c p3
246.56 85.37 0.65 c p3
246.84 86.89 0.65 c p3
247.12 87.40 0.65 c p3
247.40 86.89 0.65 c p3
247.68 88.94 0.65 c p3
247.96 84.35 0.65 c p3
248.24 85.87 0.65 c p3
248.52 86.89 0.65 c p3
248.80 85.87 0.65 c p3
249.08 86.38 0.65 c p3
249.36 89.45 0.65 c p3
249.64 85.37 0.65 c p3
249.92 84.86 0.65 c p3
250.20 87.40 0.65 c p3
250.48 86.38 0.65 c p3
250.76 84.35 0.65 c p3
251.04 87.40 0.65 c p3
251.32 86.38 0.65 c p3
251.60 87.40 0.65 c p3
251.88 84.35 0.65 c p3
252.16 83.34 0.65 c p3
252.44 83.34 0.65 c p3
252.72 83.85 0.65 c p3
253.00 85.87 0.65 c p3
253.28 87.91 0.65 c p3
253.56 85.37 0.65 c p3
253.84 84.86 0.65 c p3
254.12 84.35 0.65 c p3
254.40 83.34 0.65 c p3
254.68 84.35 0.65 c p3
254.96 83.34 0.65 c p3
255.24 84.86 0.65 c p3
255.52 86.89 0.65 c p3
255.80 87.91 0.65 c p3
256.08 85.37 0.65 c p3
256.36 82.84 0.65 c p3
256.64 82.84 0.65 c p3
256.92 82.84 0.65 c p3
257.20 82.84 0.65 c p3
257.48 83.34 0.65 c p3
257.76 86.38 0.65 c p3
258.04 82.84 0.65 c p3
258.32 83.85 0.65 c p3
258.60 80.83 0.65 c p3
258.88 80.83 0.65 c p3
259.16 81.84 0.65 c p3
259.44 81.33 0.65 c p3
259.72 82.84 0.65 c p3
260.00 84.35 0.65 c p3
260.28 83.85 0.65 c p3
260.56 82.84 0.65 c p3
260.84 83.85 0.65 c p3
261.12 83.34 0.65 c p3
261.40 83.34 0.65 c p3
261.68 81.84 0.65 c p3
261.96 82.34 0.65 c p3
262.24 81.84 0.65 c p3
262.52 81.84 0.65 c p3
262.80 83.34 0.65 c p3
263.08 82.84 0.65 c p3
263.36 81.33 0.65 c p3
263.64 82.84 0.65 c p3
263.92 84.35 0.65 c p3
264.20 83.34 0.65 c p3
264.48 86.38 0.65 c p3
264.76 84.35 0.65 c p3
265.04 84.86 0.65 c p3
265.32 83.34 0.65 c p3
265.60 81.84 0.65 c p3
265.88 81.33 0.65 c p3
266.16 79.34 0.65 c p3
266.44 82.34 0.65 c p3
266.72 82.84 0.65 c p3
267.00 80.83 0.65 c p3
267.28 83.85 0.65 c p3
267.56 81.33 0.65 c p3
267.84 79.83 0.65 c p3
268.12 83.34 0.65 c p3
268.40 83.34 0.65 c p3
268.68 81.33 0.65 c p3
268.96 84.35 0.65 c p3
269.24 82.84 0.65 c p3
269.52 79.34 0.65 c p3
269.80 79.34 0.65 c p3
270.08 82.84 0.65 c p3
270.36 81.33 0.65 c p3
270.64 81.33 0.65 c p3
270.92 82.34 0.65 c p3
271.20 81.33 0.65 c p3
271.48 81.84 0.65 c p3
271.76 84.35 0.65 c p3
272.04 81.33 0.65 c p3
272.32 81.84 0.65 c p3
272.60 79.83 0.65 c p3
272.88 79.83 0.65 c p3
273.16 80.83 0.65 c p3
273.44 83.34 0.65 c p3
273.72 81.84 0.65 c p3
274.00 80.83 0.65 c p3
274.28 80.33 0.65 c p3
274.56 80.83 0.65 c p3
274.84 80.83 0.65 c p3
275.12 79.34 0.65 c p3
275.40 79.34 0.65 c p3
275.68 83.85 0.65 c p3
275.96 81.33 0.65 c p3
276.24 80.33 0.65 c p3
276.52 82.34 0.65 c p3
276.80 81.84 0.65 c p3
277.08 77.93 0.65 c p3
277.36 81.33 0.65 c p3
277.64 78.42 0.65 c p3
277.92 80.83 0.65 c p3
278.20 81.33 0.65 c p3
278.48 79.83 0.65 c p3
278.76 79.34 0.65 c p3
279.04 78.92 0.65 c p3
279.32 80.33 0.65 c p3
279.60 78.42 0.65 c p3
279.88 80.83 0.65 c p3
280.16 80.83 0.65 c p3
280.44 81.33 0.65 c p3
280.72 80.33 0.65 c p3
281.00 79.34 0.65 c p3
281.28 80.83 0.65 c p3
281.56 79.83 0.65 c p3
281.84 76.94 0.65 c p3
282.12 83.34 0.65 c p3
282.40 82.34 0.65 c p3
282.68 79.83 0.65 c p3
282.96 78.92 0.65 c p3
283.24 79.83 0.65 c p3
283.52 80.83 0.65 c p3
283.80 77.93 0.65 c p3
284.08 78.42 0.65 c p3
284.36 76.94 0.65 c p3
284.64 78.92 0.65 c p3
284.92 78.42 0.65 c p3
285.20 78.42 0.65 c p3
285.48 81.84 0.65 c p3
285.76 81.33 0.65 c p3
286.04 80.83 0.65 c p3
286.32 79.34 0.65 c p3
286.60 80.83 0.65 c p3
286.88 80.33 0.65 c p3
287.16 79.83 0.65 c p3
287.44 81.84 0.65 c p3
287.72 79.83 0.65 c p3
288.00 77.93 0.65 c p3
288.28 79.34 0.65 c p3
288.56 78.92 0.65 c p3
288.84 79.83 0.65 c p3
289.12 79.34 0.65 c p3
289.40 79.83 0.65 c p3
289.68 78.42 0.65 c p3
289.96 80.33 0.65 c p3
290.24 77.43 0.65 c p3
290.52 79.83 0.65 c p3
290.80 78.42 0.65 c p3
291.08 79.34 0.65 c p3
291.36 80.33 0.65 c p3
291.64 79.83 0.65 c p3
291.92 79.83 0.65 c p3
292.20 79.83 0.65 c p3
292.48 78.92 0.65 c p3
292.76 79.83 0.65 c p3
293.04 79.34 0.65 c p3
293.32 78.92 0.65 c p3
293.60 76.94 0.65 c p3
293.88 78.92 0.65 c p3
294.16 78.92 0.65 c p3
294.44 80.83 0.65 c p3
294.72 81.33 0.65 c p3
295.00 78.42 0.65 c p3
295.28 78.92 0.65 c p3
295.56 78.42 0.65 c p3
295.84 81.84 0.65 c p3
296.12 79.34 0.65 c p3
296.40 78.92 0.65 c p3
296.68 78.42 0.65 c p3
296.96 79.83 0.65 c p3
297.24 79.34 0.65 c p3
297.52 79.34 0.65 c p3
297.80 77.93 0.65 c p3
298.08 78.42 0.65 c p3
298.36 76.44 0.65 c p3
298.64 79.34 0.65 c p3
298.92 78.42 0.65 c p3
299.20 78.92 0.65 c p3
299.48 78.92 0.65 c p3
299.76 77.43 0.65 c p3
300.04 76.94 0.65 c p3
300.32 78.92 0.65 c p3
300.60 79.83 0.65 c p3
300.88 76.44 0.65 c p3
301.16 77.93 0.65 c p3
301.44 75.46 0.65 c p3
301.72 77.43 0.65 c p3
302.00 77.43 0.65 c p3
302.28 76.44 0.65 c p3
302.56 77.93 0.65 c p3
302.84 77.93 0.65 c p3
303.12 77.93 0.65 c p3
303.40 78.42 0.65 c p3
303.68 76.44 0.65 c p3
303.96 77.93 0.65 c p3
304.24 77.43 0.65 c p3
304.52 77.43 0.65 c p3
304.80 77.43 0.65 c p3
305.08 79.83 0.65 c p3
305.36 74.47 0.65 c p3
305.64 77.43 0.65 c p3
305.92 77.43 0.65 c p3
306.20 75.46 0.65 c p3
306.48 75.95 0.65 c p3
306.76 77.93 0.65 c p3
307.04 74.47 0.65 c p3
307.32 78.92 0.65 c p3
307.60 76.94 0.65 c p3
307.88 75.95 0.65 c p3
308.16 77.43 0.65 c p3
308.44 75.46 0.65 c p3
308.72 76.44 0.65 c p3
309.00 75.95 0.65 c p3
309.28 78.92 0.65 c p3
309.56 78.42 0.65 c p3
309.84 75.95 0.65 c p3
310.12 76.44 0.65 c p3
310.40 76.44 0.65 c p3
310.68 73.98 0.65 c p3
310.96 77.43 0.65 c p3
311.24 77.43 0.65 c p3
311.52 75.95 0.65 c p3
311.80 76.94 0.65 c p3
312.08 77.93 0.65 c p3
312.36 78.92 0.65 c p3
312.64 73.98 0.65 c p3
312.92 75.95 0.65 c p3
313.20 77.93 0.65 c p3
313.48 76.44 0.65 c p3
313.76 76.44 0.65 c p3
314.04 76.94 0.65 c p3
314.32 76.94 0.65 c p3
314.60 76.44 0.65 c p3
314.88 75.95 0.65 c p3
315.16 73.49 0.65 c p3
315.44 74.96 0.65 c p3
315.72 77.43 0.65 c p3
316.00 74.47 0.65 c p3
316.28 77.43 0.65 c p3
316.56 76.44 0.65 c p3
316.84 75.95 0.65 c p3
317.12 73.98 0.65 c p3
317.40 76.44 0.65 c p3
317.68 78.92 0.65 c p3
317.96 75.46 0.65 c p3
318.24 75.95 0.65 c p3
318.52 79.83 0.65 c p3
318.80 75.46 0.65 c p3
319.08 76.94 0.65 c p3
319.36 78.42 0.65 c p3
319.64 76.44 0.65 c p3
319.92 73.98 0.65 c p3
320.20 78.42 0.65 c p3
320.48 77.93 0.65 c p3
320.76 74.96 0.65 c p3
321.04 75.95 0.65 c p3
321.32 75.95 0.65 c p3
321.60 76.44 0.65 c p3
321.88 76.44 0.65 c p3
322.16 75.46 0.65 c p3
322.44 73.98 0.65 c p3
322.72 77.43 0.65 c p3
323.00 73.98 0.65 c p3
323.28 73.00 0.65 c p3
323.56 76.44 0.65 c p3
323.84 73.49 0.65 c p3
324.12 75.95 0.65 c p3
324.40 74.96 0.65 c p3
324.68 77.43 0.65 c p3
324.96 76.94 0.65 c p3
325.24 74.47 0.65 c p3
325.52 75.46 0.65 c p3
325.80 72.03 0.65 c p3
326.08 73.98 0.65 c p3
326.36 75.46 0.65 c p3
326.64 75.46 0.65 c p3
326.92 78.42 0.65 c p3
327.20 74.96 0.65 c p3
327.48 73.49 0.65 c p3
327.76 76.44 0.65 c p3
328.04 75.95 0.65 c p3
328.32 76.94 0.65 c p3
328.60 76.44 0.65 c p3
328.88 75.46 0.65 c p3
329.16 76.94 0.65 c p3
329.44 77.43 0.65 c p3
329.72 77.93 0.65 c p3
330.00 73.98 0.65 c p3
330.28 74.96 0.65 c p3
330.56 74.96 0.65 c p3
330.84 74.96 0.65 c p3
331.12 73.98 0.65 c p3
331.40 75.46 0.65 c p3
331.68 76.44 0.65 c p3
331.96 76.94 0.65 c p3
332.24 76.94 0.65 c p3
332.52 77.93 0.65 c p3
332.80 75.46 0.65 c p3
333.08 74.96 0.65 c p3
333.36 74.96 0.65 c p3
333.64 76.94 0.65 c p3
333.92 76.44 0.65 c p3
334.20 75.95 0.65 c p3
334.48 74.96 0.65 c p3
334.76 73.00 0.65 c p3
335.04 76.44 0.65 c p3
335.32 75.46 0.65 c p3
335.60 76.94 0.65 c p3
335.88 77.93 0.65 c p3
336.16 74.47 0.65 c p3
336.44 75.46 0.65 c p3
336.72 74.96 0.65 c p3
337.00 74.47 0.65 c p3
337.28 76.44 0.65 c p3
337.56 74.47 0.65 c p3
337.84 75.46 0.65 c p3
338.12 74.47 0.65 c p3
338.40 72.03 0.65 c p3
338.68 74.47 0.65 c p3
338.96 73.98 0.65 c p3
339.24 77.93 0.65 c p3
339.52 72.51 0.65 c p3
339.80 73.49 0.65 c p3
340.08 73.49 0.65 c p3
340.36 75.95 0.65 c p3
340.64 76.44 0.65 c p3
340.92 75.95 0.65 c p3
341.20 73.49 0.65 c p3
341.48 75.46 0.65 c p3
341.76 72.51 0.65 c p3
342.04 74.47 0.65 c p3
342.32 72.03 0.65 c p3
342.60 75.95 0.65 c p3
342.88 72.03 0.65 c p3
343.16 73.98 0.65 c p3
343.44 77.93 0.65 c p3
343.72 73.98 0.65 c p3
344.00 73.98 0.65 c p3
344.28 73.49 0.65 c p3
344.56 73.49 0.65 c p3
344.84 73.98 0.65 c p3
345.12 73.00 0.65 c p3
345.40 76.44 0.65 c p3
345.68 72.03 0.65 c p3
345.96 72.03 0.65 c p3
346.24 75.95 0.65 c p3
346.52 73.00 0.65 c p3
346.80 74.47 0.65 c p3
347.08 73.49 0.65 c p3
347.36 72.51 0.65 c p3
347.64 74.47 0.65 c p3
347.92 76.44 0.65 c p3
348.20 72.51 0.65 c p3
348.48 74.47 0.65 c p3
348.76 73.00 0.65 c p3
216.00 201.60 367.20 247.68 cl
0 0 0 srgb
0.75 setlinewidth
[] 0 setdash
1 setlinecap
1 setlinejoin
10.00 setmiterlimit
221.60 213.36 0.43 c p1
221.76 215.15 0.43 c p1
221.92 235.38 0.43 c p1
222.07 224.88 0.43 c p1
222.23 220.48 0.43 c p1
222.39 228.40 0.43 c p1
222.55 231.71 0.43 c p1
222.70 212.07 0.43 c p1
222.86 228.99 0.43 c p1
223.02 233.79 0.43 c p1
223.18 227.82 0.43 c p1
223.33 220.44 0.43 c p1
223.49 223.64 0.43 c p1
223.65 226.83 0.43 c p1
223.81 231.54 0.43 c p1
223.96 222.67 0.43 c p1
224.12 214.22 0.43 c p1
224.28 224.49 0.43 c p1
224.44 235.13 0.43 c p1
224.60 227.77 0.43 c p1
224.75 223.47 0.43 c p1
224.91 225.09 0.43 c p1
225.07 232.62 0.43 c p1
225.23 221.22 0.43 c p1
225.38 221.36 0.43 c p1
225.54 224.40 0.43 c p1
225.70 228.90 0.43 c p1
225.86 226.09 0.43 c p1
226.01 219.00 0.43 c p1
226.17 224.87 0.43 c p1
226.33 233.66 0.43 c p1
226.49 220.78 0.43 c p1
226.65 223.74 0.43 c p1
226.80 226.69 0.43 c p1
226.96 226.77 0.43 c p1
227.12 229.71 0.43 c p1
227.28 225.51 0.43 c p1
227.43 219.95 0.43 c p1
227.59 228.48 0.43 c p1
227.75 227.13 0.43 c p1
227.91 220.19 0.43 c p1
228.06 221.65 0.43 c p1
228.22 230.10 0.43 c p1
228.38 231.54 0.43 c p1
228.54 223.21 0.43 c p1
228.69 226.02 0.43 c p1
228.85 223.30 0.43 c p1
229.01 228.86 0.43 c p1
229.17 226.12 0.43 c p1
229.33 220.90 0.43 c p1
229.48 225.03 0.43 c p1
229.64 227.78 0.43 c p1
229.80 229.16 0.43 c p1
229.96 226.43 0.43 c p1
230.11 223.73 0.43 c p1
230.27 235.78 0.43 c p1
230.43 221.05 0.43 c p1
230.59 221.05 0.43 c p1
230.74 223.73 0.43 c p1
230.90 223.72 0.43 c p1
231.06 227.72 0.43 c p1
231.22 226.36 0.43 c p1
231.37 218.38 0.43 c p1
231.53 226.31 0.43 c p1
231.69 228.94 0.43 c p1
231.85 220.96 0.43 c p1
232.01 220.93 0.43 c p1
232.16 232.79 0.43 c p1
232.32 224.79 0.43 c p1
232.48 223.43 0.43 c p1
232.64 226.00 0.43 c p1
232.79 225.94 0.43 c p1
232.95 218.31 0.43 c p1
233.11 220.84 0.43 c p1
233.27 222.07 0.43 c p1
233.42 230.88 0.43 c p1
233.58 225.81 0.43 c p1
233.74 224.44 0.43 c p1
233.90 225.64 0.43 c p1
234.05 229.43 0.43 c p1
234.21 226.75 0.43 c p1
234.37 219.00 0.43 c p1
234.53 225.27 0.43 c p1
234.69 231.58 0.43 c p1
234.84 223.80 0.43 c p1
235.00 216.15 0.43 c p1
235.16 226.12 0.43 c p1
235.32 228.55 0.43 c p1
235.47 224.63 0.43 c p1
235.63 220.74 0.43 c p1
235.79 226.90 0.43 c p1
235.95 228.03 0.43 c p1
236.10 224.13 0.43 c p1
236.26 221.50 0.43 c p1
236.42 226.36 0.43 c p1
236.58 232.48 0.43 c p1
236.74 221.11 0.43 c p1
236.89 222.20 0.43 c p1
237.05 223.29 0.43 c p1
237.21 226.85 0.43 c p1
237.37 225.45 0.43 c p1
237.52 216.93 0.43 c p1
237.68 226.36 0.43 c p1
237.84 228.65 0.43 c p1
238.00 215.27 0.43 c p1
238.15 219.95 0.43 c p1
238.31 224.64 0.43 c p1
238.47 225.68 0.43 c p1
238.63 221.86 0.43 c p1
238.78 221.67 0.43 c p1
238.94 227.55 0.43 c p1
239.10 222.51 0.43 c p1
239.26 221.12 0.43 c p1
239.42 219.73 0.43 c p1
239.57 223.13 0.43 c p1
239.73 224.13 0.43 c p1
239.89 221.53 0.43 c p1
240.05 226.10 0.43 c p1
240.20 233.12 0.43 c p1
240.36 228.06 0.43 c p1
240.52 218.33 0.43 c p1
240.68 219.30 0.43 c p1
240.83 226.18 0.43 c p1
240.99 223.58 0.43 c p1
241.15 217.48 0.43 c p1
241.31 226.66 0.43 c p1
241.46 231.17 0.43 c p1
241.62 222.64 0.43 c p1
241.78 224.75 0.43 c p1
241.94 222.16 0.43 c p1
242.10 226.60 0.43 c p1
242.25 220.51 0.43 c p1
242.41 216.98 0.43 c p1
242.57 221.36 0.43 c p1
242.73 224.40 0.43 c p1
242.88 222.01 0.43 c p1
243.04 221.75 0.43 c p1
243.20 228.25 0.43 c p1
243.36 222.37 0.43 c p1
243.51 220.95 0.43 c p1
243.67 222.97 0.43 c p1
243.83 228.47 0.43 c p1
243.99 228.18 0.43 c p1
244.15 224.43 0.43 c p1
244.30 219.57 0.43 c p1
244.46 226.14 0.43 c p1
244.62 220.14 0.43 c p1
244.78 219.85 0.43 c p1
244.93 220.69 0.43 c p1
245.09 226.08 0.43 c p1
245.25 231.50 0.43 c p1
245.41 226.60 0.43 c p1
245.56 219.50 0.43 c p1
245.72 223.70 0.43 c p1
245.88 229.06 0.43 c p1
246.04 227.60 0.43 c p1
246.19 220.51 0.43 c p1
246.35 225.81 0.43 c p1
246.51 228.87 0.43 c p1
246.67 225.15 0.43 c p1
246.83 218.12 0.43 c p1
246.98 222.25 0.43 c p1
247.14 228.64 0.43 c p1
247.30 227.16 0.43 c p1
247.46 222.35 0.43 c p1
247.61 224.24 0.43 c p1
247.77 223.89 0.43 c p1
247.93 226.88 0.43 c p1
248.09 217.86 0.43 c p1
248.24 221.74 0.43 c p1
248.40 224.70 0.43 c p1
248.56 229.90 0.43 c p1
248.72 226.19 0.43 c p1
248.87 221.60 0.43 c p1
249.03 222.34 0.43 c p1
249.19 226.19 0.43 c p1
249.35 220.51 0.43 c p1
249.51 210.42 0.43 c p1
249.66 226.34 0.43 c p1
249.82 227.06 0.43 c p1
249.98 222.30 0.43 c p1
250.14 219.75 0.43 c p1
250.29 229.19 0.43 c p1
250.45 233.01 0.43 c p1
250.61 224.03 0.43 c p1
250.77 224.72 0.43 c p1
250.92 220.00 0.43 c p1
251.08 226.10 0.43 c p1
251.24 217.08 0.43 c p1
251.40 222.05 0.43 c p1
251.55 225.97 0.43 c p1
251.71 222.33 0.43 c p1
251.87 221.93 0.43 c p1
252.03 219.38 0.43 c p1
252.19 226.49 0.43 c p1
252.34 224.99 0.43 c p1
252.50 222.43 0.43 c p1
252.66 225.23 0.43 c p1
252.82 226.95 0.43 c p1
252.97 225.45 0.43 c p1
253.13 222.89 0.43 c p1
253.29 221.40 0.43 c p1
253.45 225.23 0.43 c p1
253.60 231.23 0.43 c p1
253.76 222.24 0.43 c p1
253.92 220.75 0.43 c p1
254.08 223.49 0.43 c p1
254.24 222.00 0.43 c p1
254.39 221.56 0.43 c p1
254.55 221.12 0.43 c p1
254.71 228.08 0.43 c p1
254.87 226.56 0.43 c p1
255.02 219.97 0.43 c p1
255.18 219.52 0.43 c p1
255.34 222.22 0.43 c p1
255.50 230.03 0.43 c p1
255.65 224.28 0.43 c p1
255.81 220.86 0.43 c p1
255.97 232.86 0.43 c p1
256.13 220.98 0.43 c p1
256.28 223.65 0.43 c p1
256.44 225.28 0.43 c p1
256.60 228.83 0.43 c p1
256.76 226.42 0.43 c p1
256.92 224.90 0.43 c p1
257.07 219.24 0.43 c p1
257.23 227.08 0.43 c p1
257.39 229.73 0.43 c p1
257.55 222.99 0.43 c p1
257.70 222.51 0.43 c p1
257.86 233.32 0.43 c p1
258.02 228.80 0.43 c p1
258.18 216.95 0.43 c p1
258.33 220.57 0.43 c p1
258.49 230.43 0.43 c p1
258.65 224.74 0.43 c p1
258.81 223.21 0.43 c p1
258.96 223.75 0.43 c p1
259.12 226.34 0.43 c p1
259.28 222.75 0.43 c p1
259.44 222.24 0.43 c p1
259.60 221.74 0.43 c p1
259.75 225.34 0.43 c p1
259.91 227.91 0.43 c p1
260.07 221.25 0.43 c p1
260.23 219.73 0.43 c p1
260.38 221.25 0.43 c p1
260.54 222.77 0.43 c p1
260.70 224.30 0.43 c p1
260.86 222.76 0.43 c p1
261.01 224.27 0.43 c p1
261.17 230.92 0.43 c p1
261.33 223.23 0.43 c p1
261.49 221.69 0.43 c p1
261.65 226.24 0.43 c p1
261.80 225.71 0.43 c p1
261.96 222.14 0.43 c p1
262.12 220.60 0.43 c p1
262.28 224.10 0.43 c p1
262.43 229.66 0.43 c p1
262.59 225.05 0.43 c p1
262.75 221.49 0.43 c p1
262.91 222.96 0.43 c p1
263.06 227.47 0.43 c p1
263.22 227.93 0.43 c p1
263.38 217.51 0.43 c p1
263.54 222.80 0.43 c p1
263.69 226.27 0.43 c p1
263.85 228.75 0.43 c p1
264.01 219.33 0.43 c p1
264.17 218.79 0.43 c p1
264.33 227.07 0.43 c p1
264.48 227.51 0.43 c p1
264.64 222.11 0.43 c p1
264.80 216.60 0.43 c p1
264.96 223.99 0.43 c p1
265.11 226.42 0.43 c p1
265.27 224.86 0.43 c p1
265.43 219.32 0.43 c p1
265.59 230.56 0.43 c p1
265.74 228.97 0.43 c p1
265.90 221.59 0.43 c p1
266.06 220.04 0.43 c p1
266.22 227.41 0.43 c p1
266.37 233.68 0.43 c p1
266.53 224.26 0.43 c p1
266.69 222.69 0.43 c p1
266.85 222.12 0.43 c p1
267.01 223.51 0.43 c p1
267.16 223.92 0.43 c p1
267.32 222.35 0.43 c p1
267.48 223.74 0.43 c p1
267.64 226.12 0.43 c p1
267.79 221.59 0.43 c p1
267.95 221.98 0.43 c p1
268.11 224.35 0.43 c p1
268.27 228.69 0.43 c p1
268.42 228.09 0.43 c p1
268.58 220.62 0.43 c p1
268.74 224.92 0.43 c p1
268.90 229.25 0.43 c p1
269.05 225.69 0.43 c p1
269.21 222.15 0.43 c p1
269.37 225.47 0.43 c p1
269.53 228.80 0.43 c p1
269.69 222.31 0.43 c p1
269.84 222.68 0.43 c p1
270.00 225.00 0.43 c p1
270.16 228.32 0.43 c p1
270.32 224.76 0.43 c p1
270.47 222.20 0.43 c p1
270.63 218.69 0.43 c p1
270.79 229.77 0.43 c p1
270.95 227.19 0.43 c p1
271.10 224.62 0.43 c p1
271.26 224.00 0.43 c p1
271.42 229.24 0.43 c p1
271.58 223.74 0.43 c p1
271.74 220.22 0.43 c p1
271.89 223.47 0.43 c p1
272.05 224.78 0.43 c p1
272.21 224.16 0.43 c p1
272.37 225.47 0.43 c p1
272.52 225.82 0.43 c p1
272.68 226.16 0.43 c p1
272.84 226.49 0.43 c p1
273.00 221.04 0.43 c p1
273.15 221.37 0.43 c p1
273.31 224.59 0.43 c p1
273.47 223.96 0.43 c p1
273.63 222.37 0.43 c p1
273.78 222.69 0.43 c p1
273.94 228.81 0.43 c p1
274.10 222.38 0.43 c p1
274.26 220.95 0.43 c p1
274.42 228.81 0.43 c p1
274.57 231.07 0.43 c p1
274.73 221.91 0.43 c p1
274.89 222.23 0.43 c p1
275.05 226.22 0.43 c p1
275.20 228.46 0.43 c p1
275.36 220.30 0.43 c p1
275.52 220.61 0.43 c p1
275.68 225.54 0.43 c p1
275.83 225.85 0.43 c p1
275.99 219.63 0.43 c p1
276.15 223.74 0.43 c p1
276.31 225.96 0.43 c p1
276.46 232.84 0.43 c p1
276.62 222.74 0.43 c p1
276.78 219.24 0.43 c p1
276.94 220.48 0.43 c p1
277.10 224.58 0.43 c p1
277.25 226.78 0.43 c p1
277.41 223.26 0.43 c p1
277.57 227.36 0.43 c p1
277.73 232.29 0.43 c p1
277.88 226.98 0.43 c p1
278.04 222.51 0.43 c p1
278.20 227.55 0.43 c p1
278.36 223.08 0.43 c p1
278.51 229.07 0.43 c p1
278.67 224.59 0.43 c p1
278.83 226.76 0.43 c p1
278.99 229.90 0.43 c p1
279.15 228.27 0.43 c p1
279.30 222.85 0.43 c p1
279.46 224.07 0.43 c p1
279.62 226.23 0.43 c p1
279.78 231.27 0.43 c p1
279.93 227.72 0.43 c p1
280.09 224.20 0.43 c p1
280.25 222.58 0.43 c p1
280.41 224.73 0.43 c p1
280.56 221.23 0.43 c p1
280.72 224.31 0.43 c p1
280.88 223.63 0.43 c p1
281.04 230.51 0.43 c p1
281.19 226.97 0.43 c p1
281.35 225.34 0.43 c p1
281.51 223.71 0.43 c p1
281.67 225.85 0.43 c p1
281.83 225.16 0.43 c p1
281.98 222.59 0.43 c p1
282.14 217.25 0.43 c p1
282.30 226.85 0.43 c p1
282.46 228.04 0.43 c p1
282.61 221.72 0.43 c p1
282.77 224.77 0.43 c p1
282.93 226.89 0.43 c p1
283.09 232.81 0.43 c p1
283.24 229.26 0.43 c p1
283.40 221.99 0.43 c p1
283.56 226.91 0.43 c p1
283.72 224.34 0.43 c p1
283.87 225.51 0.43 c p1
284.03 229.50 0.43 c p1
284.19 225.98 0.43 c p1
284.35 223.40 0.43 c p1
284.51 227.38 0.43 c p1
284.66 230.43 0.43 c p1
284.82 222.23 0.43 c p1
284.98 229.94 0.43 c p1
285.14 228.29 0.43 c p1
285.29 225.71 0.43 c p1
285.45 219.43 0.43 c p1
285.61 220.58 0.43 c p1
285.77 224.51 0.43 c p1
285.92 227.53 0.43 c p1
286.08 226.82 0.43 c p1
286.24 224.24 0.43 c p1
286.40 229.12 0.43 c p1
286.55 222.81 0.43 c p1
286.71 226.75 0.43 c p1
286.87 226.96 0.43 c p1
287.03 223.46 0.43 c p1
287.19 222.74 0.43 c p1
287.34 228.53 0.43 c p1
287.50 221.32 0.43 c p1
287.66 224.30 0.43 c p1
287.82 230.09 0.43 c p1
287.97 225.64 0.43 c p1
288.13 222.14 0.43 c p1
288.29 227.91 0.43 c p1
288.45 226.25 0.43 c p1
288.60 224.60 0.43 c p1
288.76 222.03 0.43 c p1
288.92 219.63 0.43 c p1
289.08 225.20 0.43 c p1
289.24 226.32 0.43 c p1
289.39 224.67 0.43 c p1
289.55 228.57 0.43 c p1
289.71 225.06 0.43 c p1
289.87 225.26 0.43 c p1
290.02 230.09 0.43 c p1
290.18 223.80 0.43 c p1
290.34 223.07 0.43 c p1
290.50 225.10 0.43 c p1
290.65 220.85 0.43 c p1
290.81 221.95 0.43 c p1
290.97 223.06 0.43 c p1
291.13 224.01 0.43 c p1
291.28 227.88 0.43 c p1
291.44 227.14 0.43 c p1
291.60 225.48 0.43 c p1
291.76 226.59 0.43 c p1
291.92 224.16 0.43 c p1
292.07 224.34 0.43 c p1
292.23 221.77 0.43 c p1
292.39 223.78 0.43 c p1
292.55 223.96 0.43 c p1
292.70 225.82 0.43 c p1
292.86 225.99 0.43 c p1
293.02 222.66 0.43 c p1
293.18 229.11 0.43 c p1
293.33 227.44 0.43 c p1
293.49 222.26 0.43 c p1
293.65 224.26 0.43 c p1
293.81 227.95 0.43 c p1
293.96 224.60 0.43 c p1
294.12 226.60 0.43 c p1
294.28 231.23 0.43 c p1
294.44 224.19 0.43 c p1
294.60 227.87 0.43 c p1
294.75 224.52 0.43 c p1
294.91 226.52 0.43 c p1
295.07 227.60 0.43 c p1
295.23 226.84 0.43 c p1
295.38 228.69 0.43 c p1
295.54 220.78 0.43 c p1
295.70 220.94 0.43 c p1
295.86 224.74 0.43 c p1
296.01 223.08 0.43 c p1
296.17 222.33 0.43 c p1
296.33 228.88 0.43 c p1
296.49 225.37 0.43 c p1
296.65 226.44 0.43 c p1
296.80 225.68 0.43 c p1
296.96 223.11 0.43 c p1
297.12 222.35 0.43 c p1
297.28 227.06 0.43 c p1
297.43 229.04 0.43 c p1
297.59 222.81 0.43 c p1
297.75 226.59 0.43 c p1
297.91 226.74 0.43 c p1
298.06 221.44 0.43 c p1
298.22 218.88 0.43 c p1
298.38 229.02 0.43 c p1
298.54 223.69 0.43 c p1
298.69 231.14 0.43 c p1
298.85 230.37 0.43 c p1
299.01 225.04 0.43 c p1
299.17 222.46 0.43 c p1
299.33 227.14 0.43 c p1
299.48 225.47 0.43 c p1
299.64 227.42 0.43 c p1
299.80 223.93 0.43 c p1
299.96 223.17 0.43 c p1
300.11 221.50 0.43 c p1
300.27 227.07 0.43 c p1
300.43 228.12 0.43 c p1
300.59 228.26 0.43 c p1
300.74 228.39 0.43 c p1
300.90 226.71 0.43 c p1
301.06 225.03 0.43 c p1
301.22 224.26 0.43 c p1
301.37 225.29 0.43 c p1
301.53 229.97 0.43 c p1
301.69 223.75 0.43 c p1
301.85 229.32 0.43 c p1
302.01 224.01 0.43 c p1
302.16 225.95 0.43 c p1
302.32 221.57 0.43 c p1
302.48 227.11 0.43 c p1
302.64 227.24 0.43 c p1
302.79 223.76 0.43 c p1
302.95 230.22 0.43 c p1
303.11 225.81 0.43 c p1
303.27 225.94 0.43 c p1
303.42 228.78 0.43 c p1
303.58 225.28 0.43 c p1
303.74 227.21 0.43 c p1
303.90 230.97 0.43 c p1
304.05 222.95 0.43 c p1
304.21 225.77 0.43 c p1
304.37 226.80 0.43 c p1
304.53 226.01 0.43 c p1
304.69 229.75 0.43 c p1
304.84 221.76 0.43 c p1
305.00 224.57 0.43 c p1
305.16 226.49 0.43 c p1
305.32 224.80 0.43 c p1
305.47 225.82 0.43 c p1
305.63 231.37 0.43 c p1
305.79 224.25 0.43 c p1
305.95 223.47 0.43 c p1
306.10 228.08 0.43 c p1
306.26 226.39 0.43 c p1
306.42 222.91 0.43 c p1
306.58 228.42 0.43 c p1
306.74 226.73 0.43 c p1
306.89 228.65 0.43 c p1
307.05 223.36 0.43 c p1
307.21 221.68 0.43 c p1
307.37 221.79 0.43 c p1
307.52 222.79 0.43 c p1
307.68 226.49 0.43 c p1
307.84 230.21 0.43 c p1
308.00 225.80 0.43 c p1
308.15 225.01 0.43 c p1
308.31 224.22 0.43 c p1
308.47 222.54 0.43 c p1
308.63 224.43 0.43 c p1
308.78 222.75 0.43 c p1
308.94 225.54 0.43 c p1
309.10 229.24 0.43 c p1
309.26 231.15 0.43 c p1
309.42 226.75 0.43 c p1
309.57 222.37 0.43 c p1
309.73 222.47 0.43 c p1
309.89 222.57 0.43 c p1
310.05 222.67 0.43 c p1
310.20 223.67 0.43 c p1
310.36 229.15 0.43 c p1
310.52 222.97 0.43 c p1
310.68 224.86 0.43 c p1
310.83 219.61 0.43 c p1
310.99 219.71 0.43 c p1
311.15 221.58 0.43 c p1
311.31 220.79 0.43 c p1
311.46 223.55 0.43 c p1
311.62 226.33 0.43 c p1
311.78 225.53 0.43 c p1
311.94 223.84 0.43 c p1
312.10 225.72 0.43 c p1
312.25 224.92 0.43 c p1
312.41 225.01 0.43 c p1
312.57 222.43 0.43 c p1
312.73 223.41 0.43 c p1
312.88 222.62 0.43 c p1
313.04 222.71 0.43 c p1
313.20 225.47 0.43 c p1
313.36 224.67 0.43 c p1
313.51 222.09 0.43 c p1
313.67 224.85 0.43 c p1
313.83 227.62 0.43 c p1
313.99 225.91 0.43 c p1
314.15 231.39 0.43 c p1
314.30 227.88 0.43 c p1
314.46 228.86 0.43 c p1
314.62 226.26 0.43 c p1
314.78 223.68 0.43 c p1
314.93 222.87 0.43 c p1
315.09 219.42 0.43 c p1
315.25 224.82 0.43 c p1
315.41 225.80 0.43 c p1
315.56 222.32 0.43 c p1
315.72 227.75 0.43 c p1
315.88 223.38 0.43 c p1
316.04 220.80 0.43 c p1
316.19 227.10 0.43 c p1
316.35 227.19 0.43 c p1
316.51 223.70 0.43 c p1
316.67 229.14 0.43 c p1
316.83 226.54 0.43 c p1
316.98 220.41 0.43 c p1
317.14 220.48 0.43 c p1
317.30 226.77 0.43 c p1
317.46 224.18 0.43 c p1
317.61 224.26 0.43 c p1
317.77 226.12 0.43 c p1
317.93 224.42 0.43 c p1
318.09 225.38 0.43 c p1
318.24 229.92 0.43 c p1
318.40 224.65 0.43 c p1
318.56 225.61 0.43 c p1
318.72 222.14 0.43 c p1
318.87 222.22 0.43 c p1
319.03 224.06 0.43 c p1
319.19 228.59 0.43 c p1
319.35 225.99 0.43 c p1
319.51 224.29 0.43 c p1
319.66 223.47 0.43 c p1
319.82 224.43 0.43 c p1
319.98 224.50 0.43 c p1
320.14 221.92 0.43 c p1
320.29 221.99 0.43 c p1
320.45 230.06 0.43 c p1
320.61 225.68 0.43 c p1
320.77 223.98 0.43 c p1
320.92 227.60 0.43 c p1
321.08 226.78 0.43 c p1
321.24 219.92 0.43 c p1
321.40 226.03 0.43 c p1
321.55 220.94 0.43 c p1
321.71 225.28 0.43 c p1
321.87 226.23 0.43 c p1
322.03 223.64 0.43 c p1
322.19 222.83 0.43 c p1
322.34 222.16 0.43 c p1
322.50 224.73 0.43 c p1
322.66 221.41 0.43 c p1
322.82 225.75 0.43 c p1
322.97 225.81 0.43 c p1
323.13 226.77 0.43 c p1
323.29 225.06 0.43 c p1
323.45 223.36 0.43 c p1
323.60 226.07 0.43 c p1
323.76 224.37 0.43 c p1
323.92 219.30 0.43 c p1
324.08 230.71 0.43 c p1
324.24 228.99 0.43 c p1
324.39 224.62 0.43 c p1
324.55 223.07 0.43 c p1
324.71 224.75 0.43 c p1
324.87 226.58 0.43 c p1
325.02 221.49 0.43 c p1
325.18 222.43 0.43 c p1
325.34 219.86 0.43 c p1
325.50 223.43 0.43 c p1
325.65 222.61 0.43 c p1
325.81 222.67 0.43 c p1
325.97 228.78 0.43 c p1
326.13 227.95 0.43 c p1
326.28 227.12 0.43 c p1
326.44 224.53 0.43 c p1
326.60 227.24 0.43 c p1
326.76 226.41 0.43 c p1
326.92 225.58 0.43 c p1
327.07 229.19 0.43 c p1
327.23 225.70 0.43 c p1
327.39 222.38 0.43 c p1
327.55 224.93 0.43 c p1
327.70 224.25 0.43 c p1
327.86 225.93 0.43 c p1
328.02 225.10 0.43 c p1
328.18 226.04 0.43 c p1
328.33 223.59 0.43 c p1
328.49 227.03 0.43 c p1
328.65 221.95 0.43 c p1
328.81 226.26 0.43 c p1
328.96 223.81 0.43 c p1
329.12 225.48 0.43 c p1
329.28 227.30 0.43 c p1
329.44 226.47 0.43 c p1
329.60 226.52 0.43 c p1
329.75 226.58 0.43 c p1
329.91 225.01 0.43 c p1
330.07 226.68 0.43 c p1
330.23 225.85 0.43 c p1
330.38 225.17 0.43 c p1
330.54 221.70 0.43 c p1
330.70 225.27 0.43 c p1
330.86 225.32 0.43 c p1
331.01 228.76 0.43 c p1
331.17 229.69 0.43 c p1
331.33 224.59 0.43 c p1
331.49 225.52 0.43 c p1
331.65 224.69 0.43 c p1
331.80 230.78 0.43 c p1
331.96 226.40 0.43 c p1
332.12 225.72 0.43 c p1
332.28 224.88 0.43 c p1
332.43 227.43 0.43 c p1
332.59 226.60 0.43 c p1
332.75 226.64 0.43 c p1
332.91 224.20 0.43 c p1
333.06 225.12 0.43 c p1
333.22 221.66 0.43 c p1
333.38 226.83 0.43 c p1
333.54 225.26 0.43 c p1
333.69 226.19 0.43 c p1
333.85 226.24 0.43 c p1
334.01 223.65 0.43 c p1
334.17 222.81 0.43 c p1
334.33 226.37 0.43 c p1
334.48 228.04 0.43 c p1
334.64 222.07 0.43 c p1
334.80 224.75 0.43 c p1
334.96 220.42 0.43 c p1
335.11 223.96 0.43 c p1
335.27 224.01 0.43 c p1
335.43 222.30 0.43 c p1
335.59 224.97 0.43 c p1
335.74 225.01 0.43 c p1
335.90 225.06 0.43 c p1
336.06 225.98 0.43 c p1
336.22 222.51 0.43 c p1
336.37 225.18 0.43 c p1
336.53 224.35 0.43 c p1
336.69 224.39 0.43 c p1
336.85 224.43 0.43 c p1
337.01 228.73 0.43 c p1
337.16 219.27 0.43 c p1
337.32 224.56 0.43 c p1
337.48 224.60 0.43 c p1
337.64 221.14 0.43 c p1
337.79 222.05 0.43 c p1
337.95 225.60 0.43 c p1
338.11 219.52 0.43 c p1
338.27 227.44 0.43 c p1
338.42 223.96 0.43 c p1
338.58 222.25 0.43 c p1
338.74 224.92 0.43 c p1
338.90 221.46 0.43 c p1
339.05 223.24 0.43 c p1
339.21 222.41 0.43 c p1
339.37 227.71 0.43 c p1
339.53 226.87 0.43 c p1
339.69 222.52 0.43 c p1
339.84 223.44 0.43 c p1
340.00 223.47 0.43 c p1
340.16 219.15 0.43 c p1
340.32 225.30 0.43 c p1
340.47 225.34 0.43 c p1
340.63 222.75 0.43 c p1
340.79 224.53 0.43 c p1
340.95 226.33 0.43 c p1
341.10 228.12 0.43 c p1
341.26 219.41 0.43 c p1
341.42 222.93 0.43 c p1
341.58 226.47 0.43 c p1
341.74 223.88 0.43 c p1
341.89 223.91 0.43 c p1
342.05 224.82 0.43 c p1
342.21 224.86 0.43 c p1
342.37 224.02 0.43 c p1
342.52 223.18 0.43 c p1
342.68 218.86 0.43 c p1
342.84 221.50 0.43 c p1
343.00 225.91 0.43 c p1
343.15 220.70 0.43 c p1
343.31 225.98 0.43 c p1
343.47 224.26 0.43 c p1
343.63 223.42 0.43 c p1
343.78 219.96 0.43 c p1
343.94 224.36 0.43 c p1
344.10 228.78 0.43 c p1
344.26 222.68 0.43 c p1
344.42 223.58 0.43 c p1
344.57 230.50 0.43 c p1
344.73 222.77 0.43 c p1
344.89 225.43 0.43 c p1
345.05 228.09 0.43 c p1
345.20 224.62 0.43 c p1
345.36 220.29 0.43 c p1
345.52 228.19 0.43 c p1
345.68 227.34 0.43 c p1
345.83 222.12 0.43 c p1
345.99 223.90 0.43 c p1
346.15 223.93 0.43 c p1
346.31 224.83 0.43 c p1
346.46 224.86 0.43 c p1
346.62 223.15 0.43 c p1
346.78 220.57 0.43 c p1
346.94 226.71 0.43 c p1
347.10 220.63 0.43 c p1
347.25 218.92 0.43 c p1
347.41 225.04 0.43 c p1
347.57 219.85 0.43 c p1
347.73 224.23 0.43 c p1
347.88 222.51 0.43 c p1
348.04 226.91 0.43 c p1
348.20 226.06 0.43 c p1
348.36 221.73 0.43 c p1
348.51 223.50 0.43 c p1
348.67 217.45 0.43 c p1
348.83 220.95 0.43 c p1
348.99 223.59 0.43 c p1
349.15 223.61 0.43 c p1
349.30 228.90 0.43 c p1
349.46 222.80 0.43 c p1
349.62 220.22 0.43 c p1
349.78 225.47 0.43 c p1
349.93 224.62 0.43 c p1
350.09 226.40 0.43 c p1
350.25 225.55 0.43 c p1
350.41 223.83 0.43 c p1
350.56 226.48 0.43 c p1
350.72 227.39 0.43 c p1
350.88 228.29 0.43 c p1
351.04 221.33 0.43 c p1
351.19 223.09 0.43 c p1
351.35 223.12 0.43 c p1
351.51 223.14 0.43 c p1
351.67 221.43 0.43 c p1
351.83 224.07 0.43 c p1
351.98 225.84 0.43 c p1
352.14 226.74 0.43 c p1
352.30 226.77 0.43 c p1
352.46 228.55 0.43 c p1
352.61 224.19 0.43 c p1
352.77 223.35 0.43 c p1
352.93 223.37 0.43 c p1
353.09 226.89 0.43 c p1
353.24 226.04 0.43 c p1
353.40 225.19 0.43 c p1
353.56 223.47 0.43 c p1
353.72 220.02 0.43 c p1
353.87 226.14 0.43 c p1
354.03 224.41 0.43 c p1
354.19 227.06 0.43 c p1
354.35 228.84 0.43 c p1
354.51 222.74 0.43 c p1
354.66 224.51 0.43 c p1
354.82 223.66 0.43 c p1
354.98 222.81 0.43 c p1
355.14 226.32 0.43 c p1
355.29 222.86 0.43 c p1
355.45 224.62 0.43 c p1
355.61 222.90 0.43 c p1
355.77 218.59 0.43 c p1
355.92 222.95 0.43 c p1
356.08 222.10 0.43 c p1
356.24 229.11 0.43 c p1
356.40 219.55 0.43 c p1
356.55 221.30 0.43 c p1
356.71 221.32 0.43 c p1
356.87 225.70 0.43 c p1
357.03 226.59 0.43 c p1
357.19 225.74 0.43 c p1
357.34 221.41 0.43 c p1
357.50 224.91 0.43 c p1
357.66 219.72 0.43 c p1
357.82 223.21 0.43 c p1
357.97 218.90 0.43 c p1
358.13 225.87 0.43 c p1
358.29 218.94 0.43 c p1
358.45 222.42 0.43 c p1
358.60 229.43 0.43 c p1
358.76 222.46 0.43 c p1
358.92 222.48 0.43 c p1
359.08 221.64 0.43 c p1
359.24 221.66 0.43 c p1
359.39 222.55 0.43 c p1
359.55 220.83 0.43 c p1
359.71 226.94 0.43 c p1
359.87 219.14 0.43 c p1
360.02 219.16 0.43 c p1
360.18 226.13 0.43 c p1
360.34 220.93 0.43 c p1
360.50 223.55 0.43 c p1
360.65 221.83 0.43 c p1
360.81 220.12 0.43 c p1
360.97 223.61 0.43 c p1
361.13 227.12 0.43 c p1
361.28 220.18 0.43 c p1
361.44 223.66 0.43 c p1
361.60 221.08 0.43 c p1
0.00 0.00 432.00 576.00 cl
0 0 0 srgb
0.75 setlinewidth
[] 0 setdash
1 setlinecap
1 setlinejoin
10.00 setmiterlimit
np
220.18 201.60 m
126.13 0 l
o
np
220.18 201.60 m
0 -5.76 l
o
np
251.71 201.60 m
0 -5.76 l
o
np
283.24 201.60 m
0 -5.76 l
o
np
314.78 201.60 m
0 -5.76 l
o
np
346.31 201.60 m
0 -5.76 l
o
/Font1 findfont 6 s
220.18 185.47 (0) .5 0 t
251.71 185.47 (500) .5 0 t
283.24 185.47 (1000) .5 0 t
314.78 185.47 (1500) .5 0 t
346.31 185.47 (2000) .5 0 t
np
216.00 204.25 m
0 40.78 l
o
np
216.00 204.25 m
-5.76 0 l
o
np
216.00 211.05 m
-5.76 0 l
o
np
216.00 217.84 m
-5.76 0 l
o
np
216.00 224.64 m
-5.76 0 l
o
np
216.00 231.44 m
-5.76 0 l
o
np
216.00 238.23 m
-5.76 0 l
o
np
216.00 245.03 m
-5.76 0 l
o
209.09 202.10 (-0.015) 1 0 t
209.09 208.89 (-0.010) 1 0 t
209.09 215.69 (-0.005) 1 0 t
209.09 222.49 (0.000) 1 0 t
209.09 229.28 (0.005) 1 0 t
209.09 236.08 (0.010) 1 0 t
209.09 242.88 (0.015) 1 0 t
np
216.00 201.60 m
151.20 0 l
0 46.08 l
-151.20 0 l
0 -46.08 l
o
0.00 0.00 432.00 576.00 cl
/Font1 findfont 9 s
0 0 0 srgb
291.60 262.88 (Residuals) .5 0 t
59.04 73.44 401.76 516.96 cl
ep
%%Trailer
%%Pages: 1
%%EOF
