%!PS-Adobe-3.0 EPSF-3.0
%%DocumentNeededResources: font Helvetica
%%+ font Helvetica-Bold
%%+ font Helvetica-Oblique
%%+ font Helvetica-BoldOblique
%%+ font Symbol
%%Title: R Graphics Output
%%Creator: R Software
%%Pages: (atend)
%%BoundingBox: 0 0 432 576
%%EndComments
%%BeginProlog
/bp  { gs sRGB gs } def
% begin .ps.prolog
/gs  { gsave } bind def
/gr  { grestore } bind def
/ep  { showpage gr gr } bind def
/m   { moveto } bind def
/l  { rlineto } bind def
/np  { newpath } bind def
/cp  { closepath } bind def
/f   { fill } bind def
/o   { stroke } bind def
/c   { newpath 0 360 arc } bind def
/r   { 4 2 roll moveto 1 copy 3 -1 roll exch 0 exch rlineto 0 rlineto -1 mul 0 exch rlineto closepath } bind def
/p1  { stroke } bind def
/p2  { gsave bg fill grestore newpath } bind def
/p3  { gsave bg fill grestore stroke } bind def
/p6  { gsave bg eofill grestore newpath } bind def
/p7  { gsave bg eofill grestore stroke } bind def
/t   { 5 -2 roll moveto gsave rotate
       1 index stringwidth pop
       mul neg 0 rmoveto show grestore } bind def
/ta  { 4 -2 roll moveto gsave rotate show } bind def
/tb  { 2 -1 roll 0 rmoveto show } bind def
/cl  { grestore gsave newpath 3 index 3 index moveto 1 index
       4 -1 roll lineto  exch 1 index lineto lineto
       closepath clip newpath } bind def
/rgb { setrgbcolor } bind def
/s   { scalefont setfont } bind def
% end   .ps.prolog
/sRGB { [ /CIEBasedABC
          << /DecodeLMN
               [ { dup 0.03928 le
                        {12.92321 div}
                        {0.055 add 1.055 div 2.4 exp }
                     ifelse
                 } bind dup dup
               ]
             /MatrixLMN [0.412457 0.212673 0.019334
                         0.357576 0.715152 0.119192
                         0.180437 0.072175 0.950301]
             /WhitePoint [0.9505 1.0 1.0890]
           >>
         ] setcolorspace } bind def
/srgb { setcolor } bind def
% begin encoding
/WinAnsiEncoding [
 /.notdef /.notdef /.notdef /.notdef /.notdef /.notdef /.notdef /.notdef
 /.notdef /.notdef /.notdef /.notdef /.notdef /.notdef /.notdef /.notdef
 /.notdef /.notdef /.notdef /.notdef /.notdef /.notdef /.notdef /.notdef
 /.notdef /.notdef /.notdef /.notdef /.notdef /.notdef /.notdef /.notdef
 /space /exclam /quotedbl /numbersign /dollar /percent /ampersand /quoteright
 /parenleft /parenright /asterisk /plus /comma /minus /period /slash
 /zero /one /two /three /four /five /six /seven
 /eight /nine /colon /semicolon /less /equal /greater /question
 /at /A /B /C /D /E /F /G
 /H /I /J /K /L /M /N /O
 /P /Q /R /S /T /U /V /W
 /X /Y /Z /bracketleft /backslash /bracketright /asciicircum /underscore
 /grave /a /b /c /d /e /f /g
 /h /i /j /k /l /m /n /o
 /p /q /r /s /t /u /v /w
 /x /y /z /braceleft /bar /braceright /asciitilde /.notdef
 /Euro /.notdef /quotesinglbase /florin /quotedblbase /ellipsis /dagger /daggerdbl
 /circumflex /perthousand /Scaron /guilsinglleft /OE /.notdef /Zcaron /.notdef
 /.notdef /quoteleft /quoteright /quotedblleft /quotedblright /bullet /endash /emdash
 /tilde /trademark /scaron /guilsinglright /oe /.notdef /zcaron /Ydieresis
 /space /exclamdown /cent /sterling /currency /yen /brokenbar /section
 /dieresis /copyright /ordfeminine /guillemotleft /logicalnot /hyphen /registered /macron
 /degree /plusminus /twosuperior /threesuperior /acute /mu /paragraph /periodcentered
 /cedilla /onesuperior /ordmasculine /guillemotright /onequarter /onehalf /threequarters /questiondown
 /Agrave /Aacute /Acircumflex /Atilde /Adieresis /Aring /AE /Ccedilla
 /Egrave /Eacute /Ecircumflex /Edieresis /Igrave /Iacute /Icircumflex /Idieresis
 /Eth /Ntilde /Ograve /Oacute /Ocircumflex /Otilde /Odieresis /multiply
 /Oslash /Ugrave /Uacute /Ucircumflex /Udieresis /Yacute /Thorn /germandbls
 /agrave /aacute /acircumflex /atilde /adieresis /aring /ae /ccedilla
 /egrave /eacute /ecircumflex /edieresis /igrave /iacute /icircumflex /idieresis
 /eth /ntilde /ograve /oacute /ocircumflex /otilde /odieresis /divide
 /oslash /ugrave /uacute /ucircumflex /udieresis /yacute /thorn /ydieresis
]
 def
% end encoding
%%IncludeResource: font Helvetica
/Helvetica findfont
dup length dict begin
  {1 index /FID ne {def} {pop pop} ifelse} forall
  /Encoding WinAnsiEncoding def
  currentdict
  end
/Font1 exch definefont pop
%%IncludeResource: font Helvetica-Bold
/Helvetica-Bold findfont
dup length dict begin
  {1 index /FID ne {def} {pop pop} ifelse} forall
  /Encoding WinAnsiEncoding def
  currentdict
  end
/Font2 exch definefont pop
%%IncludeResource: font Helvetica-Oblique
/Helvetica-Oblique findfont
dup length dict begin
  {1 index /FID ne {def} {pop pop} ifelse} forall
  /Encoding WinAnsiEncoding def
  currentdict
  end
/Font3 exch definefont pop
%%IncludeResource: font Helvetica-BoldOblique
/Helvetica-BoldOblique findfont
dup length dict begin
  {1 index /FID ne {def} {pop pop} ifelse} forall
  /Encoding WinAnsiEncoding def
  currentdict
  end
/Font4 exch definefont pop
%%IncludeResource: font Symbol
/Symbol findfont
dup length dict begin
  {1 index /FID ne {def} {pop pop} ifelse} forall
  currentdict
  end
/Font5 exch definefont pop
%%EndProlog
%%Page: 1 1
bp
/bg { 1 1 1 srgb } def
0.00 0.00 432.00 576.00 r p2
0.00 0.00 432.00 576.00 cl
0.00 0.00 432.00 576.00 cl
0.00 0.00 432.00 576.00 cl
/Font1 findfont 12 s
0 0 0 srgb
48.00 508.72 (PCP-ETH) 0 0 t
48.00 494.89 (Flash light photolysis) 0 0 t
/Font1 findfont 9 s
48.00 457.54 (File: Solv) 0 ta
-0.225 (ent_debendence_sol4_3_MSLM.dat) tb gr
48.00 334.87 (Sat Mar 05 15:17:16 2022) 0 0 t
48.00 430.87 (Fit function:  a + b * e) 0 ta
-0.270 (xp\(-c * t\)) tb gr
48.00 420.50 (t-Inter) 0 ta
0.270 (v) tb
-0.225 (all: 510.000 ... 27540.000 ms) tb gr
48.00 410.14 (P) 0 ta
-0.360 (ar) tb
-0.090 (ameters \(Standard de) tb
-0.270 (viation\):) tb gr
48.00 399.77 (  a = 0.01835 \(0.00033\)) 0 0 t
48.00 389.40 (  b = 0.15680 \(0.00119\)) 0 0 t
48.00 379.03 (  c = 2.169e-01 \(2.873e-03\) s^-1) 0 0 t
48.00 368.66 (  tau = 4.610e+00 \(6.106e-02\) s) 0 0 t
216.00 345.60 388.80 518.40 cl
0 0 0 srgb
0.75 setlinewidth
[] 0 setdash
1 setlinecap
1 setlinejoin
10.00 setmiterlimit
np
222.40 510.90 m
0.15 0.16 l
0.14 0.78 l
0.15 0 l
0.14 -2.54 l
0.15 2.38 l
0.14 -0.32 l
0.15 -0.62 l
0.14 0.46 l
0.15 -0.30 l
0.15 -0.48 l
0.14 0 l
0.15 1.58 l
0.14 -1.26 l
0.15 -0.64 l
0.14 0.80 l
0.15 -0.16 l
0.14 -0.64 l
0.15 1.26 l
0.15 -1.26 l
0.14 1.26 l
0.15 0.32 l
0.14 -0.48 l
0.15 -0.78 l
0.14 0.48 l
0.15 -1.60 l
0.15 1.12 l
0.14 -0.32 l
0.15 0.16 l
0.14 0.94 l
0.15 -1.74 l
0.14 0.64 l
0.15 -0.32 l
0.14 0.48 l
0.15 0.94 l
0.15 0.48 l
0.14 -2.38 l
0.15 0.80 l
0.14 0.48 l
0.15 0.32 l
0.14 -1.76 l
0.15 1.28 l
0.14 0 l
0.15 -0.80 l
0.15 0.16 l
0.14 0.48 l
0.15 0 l
0.14 -0.32 l
0.15 0.32 l
0.14 -1.28 l
0.15 0.64 l
0.14 0.96 l
0.15 -0.96 l
0.15 -0.16 l
0.14 -0.64 l
0.15 0.80 l
0.14 0.64 l
0.15 -0.96 l
0.14 0.16 l
0.15 1.44 l
0.15 -1.92 l
0.14 0.16 l
0.15 0.96 l
0.14 -0.16 l
0.15 -0.64 l
0.14 1.28 l
0.15 -0.64 l
0.14 0.32 l
0.15 -1.44 l
0.15 1.28 l
0.14 -0.48 l
0.15 -0.48 l
0.14 1.60 l
0.15 -0.96 l
0.14 -0.80 l
0.15 0.16 l
0.14 0.48 l
0.15 -0.96 l
0.15 0.48 l
0.14 0.48 l
0.15 0 l
0.14 -0.32 l
0.15 0.96 l
0.14 -0.80 l
0.15 -0.32 l
0.14 0.48 l
0.15 0.16 l
0.15 -0.48 l
0.14 -0.32 l
0.15 0.48 l
0.14 -0.16 l
0.15 0 l
0.14 -0.32 l
0.15 0.16 l
0.15 -0.16 l
0.14 0.48 l
0.15 -0.48 l
0.14 -1.29 l
0.15 0.48 l
0.14 0.65 l
236.96 449.16 lineto
0.14 -1.62 l
0.15 0.02 l
0.15 2.56 l
0.14 1.10 l
0.15 0.32 l
0.14 0.48 l
0.15 0.81 l
0.14 0.64 l
0.15 -0.16 l
0.14 0.96 l
0.15 0.32 l
0.15 1.58 l
0.14 0.64 l
0.15 -0.64 l
0.14 1.28 l
0.15 1.77 l
0.14 -0.32 l
0.15 1.42 l
0.14 -1.26 l
0.15 0.61 l
0.15 0.65 l
0.14 0.48 l
0.15 0 l
0.14 0.32 l
0.15 1.28 l
0.14 -0.32 l
0.15 -0.64 l
0.15 0.96 l
0.14 0.48 l
0.15 0.65 l
0.14 0.77 l
0.15 0.48 l
0.14 0 l
0.15 0 l
0.14 0.97 l
0.15 0.16 l
0.15 0.16 l
0.14 -0.32 l
0.15 1.28 l
0.14 -0.32 l
0.15 -0.32 l
0.14 0.64 l
0.15 0 l
0.14 0.48 l
0.15 1.26 l
0.15 -0.48 l
0.14 1.44 l
0.15 -0.16 l
0.14 0.32 l
0.15 0.97 l
0.14 -0.97 l
0.15 0.49 l
0.14 0.32 l
0.15 0 l
0.15 0.16 l
0.14 1.44 l
0.15 -1.12 l
0.14 1.90 l
0.15 -0.78 l
0.14 0 l
0.15 1.58 l
0.15 -0.32 l
0.14 -0.32 l
0.15 1.12 l
0.14 -0.64 l
0.15 0.48 l
0.14 0.48 l
0.15 0.16 l
0.14 -0.64 l
0.15 0.32 l
0.15 -0.16 l
0.14 2.54 l
0.15 -0.45 l
0.14 -0.16 l
0.15 0 l
0.14 0.93 l
0.15 0.48 l
0.14 0.17 l
0.15 -1.26 l
0.15 0.61 l
0.14 0.81 l
0.15 0.48 l
0.14 0.64 l
0.15 -0.48 l
0.14 0.16 l
0.15 0.96 l
0.14 0.16 l
0.15 -0.32 l
0.15 0.16 l
0.14 0.80 l
0.15 -0.80 l
0.14 0.80 l
0.15 0.78 l
0.14 -1.10 l
0.15 1.10 l
0.15 0.48 l
0.14 -0.16 l
0.15 0.96 l
0.14 -0.48 l
251.52 483.14 lineto
0.14 -1.13 l
0.15 0.48 l
0.14 0.81 l
0.15 -1.13 l
0.15 0.80 l
0.14 -0.16 l
0.15 0.97 l
0.14 0.32 l
0.15 -0.32 l
0.14 0 l
0.15 0.48 l
0.14 -0.16 l
0.15 0.64 l
0.15 -0.48 l
0.14 0 l
0.15 0.16 l
0.14 0.64 l
0.15 -0.16 l
0.14 0.78 l
0.15 0.80 l
0.14 -1.26 l
0.15 1.74 l
0.15 -1.12 l
0.14 -0.32 l
0.15 -0.30 l
0.14 0.78 l
0.15 -0.32 l
0.14 0.80 l
0.15 -0.32 l
0.14 0.16 l
0.15 0.64 l
0.15 -0.64 l
0.14 0.80 l
0.15 0.64 l
0.14 -0.64 l
0.15 1.13 l
0.14 -0.33 l
0.15 -0.48 l
0.15 1.13 l
0.14 -0.97 l
0.15 0 l
0.14 0.97 l
0.15 -1.29 l
0.14 0.97 l
0.15 1.28 l
0.14 1.10 l
0.15 -2.22 l
0.15 0.32 l
0.14 0 l
0.15 0.64 l
0.14 0.45 l
0.15 0 l
0.14 -0.61 l
0.15 0.45 l
0.14 -0.13 l
0.15 0.13 l
0.15 0 l
0.14 0.16 l
0.15 -0.16 l
0.14 0.81 l
0.15 -0.49 l
0.14 0.32 l
0.15 0.65 l
0.14 0.32 l
0.15 -1.61 l
0.15 0.48 l
0.14 0.81 l
0.15 -2.22 l
0.14 2.70 l
0.15 0.16 l
0.14 -0.80 l
0.15 0.16 l
0.15 -0.32 l
0.14 0.64 l
0.15 0 l
0.14 0.32 l
0.15 -0.64 l
0.14 0.32 l
0.15 0.32 l
0.14 0.32 l
0.15 -0.48 l
0.15 1.44 l
0.14 0.16 l
0.15 -0.80 l
0.14 -0.48 l
0.15 0.32 l
0.14 -0.16 l
0.15 0 l
0.14 0.32 l
0.15 0.16 l
0.15 -0.80 l
0.14 0.48 l
0.15 -0.96 l
0.14 0.32 l
0.15 1.12 l
0.14 -0.64 l
0.15 0.48 l
0.14 0.48 l
0.15 -1.92 l
266.08 491.59 lineto
0.14 1.12 l
0.15 0 l
0.14 -0.16 l
0.15 -0.16 l
0.14 -0.48 l
0.15 1.12 l
0.15 -0.80 l
0.14 0.16 l
0.15 -0.96 l
0.14 0.80 l
0.15 -0.16 l
0.14 0.96 l
0.15 -0.96 l
0.14 -0.64 l
0.15 0.80 l
0.15 -0.48 l
0.14 1.12 l
0.15 0.16 l
0.14 -0.80 l
0.15 -0.80 l
0.14 1.28 l
0.15 -0.48 l
0.14 0.64 l
0.15 0 l
0.15 -0.16 l
0.14 -0.96 l
0.15 1.28 l
0.14 -0.32 l
0.15 -0.48 l
0.14 0.64 l
0.15 0 l
0.14 -0.80 l
0.15 -0.16 l
0.15 0.80 l
0.14 1.26 l
0.15 -1.90 l
0.14 0.64 l
0.15 -0.48 l
0.14 0.80 l
0.15 0 l
0.15 0 l
0.14 -0.16 l
0.15 0.65 l
0.14 -0.65 l
0.15 0.97 l
0.14 -0.49 l
0.15 -1.12 l
0.14 -2.41 l
0.15 3.37 l
0.15 1.90 l
0.14 -1.25 l
0.15 -1.61 l
0.14 0.96 l
0.15 0.65 l
0.14 -0.16 l
0.15 0.93 l
0.14 -0.16 l
0.15 -0.48 l
0.15 0 l
0.14 0 l
0.15 0.48 l
0.14 -0.77 l
0.15 0.61 l
0.14 0.48 l
0.15 -0.93 l
0.14 0.77 l
0.15 -0.16 l
0.15 -0.16 l
0.14 0.16 l
0.15 0 l
0.14 -0.16 l
0.15 0.16 l
0.14 -0.77 l
0.15 0.93 l
0.15 -0.32 l
0.14 -0.61 l
0.15 0.29 l
0.14 1.12 l
0.15 -0.80 l
0.14 0.16 l
0.15 -0.16 l
0.14 0.80 l
0.15 0 l
0.15 -0.48 l
0.14 0.32 l
0.15 -0.16 l
0.14 0.80 l
0.15 -0.48 l
0.14 -0.16 l
0.15 0.97 l
0.14 -1.45 l
0.15 0.48 l
0.15 0 l
0.14 0.97 l
0.15 -0.97 l
0.14 1.13 l
0.15 -1.29 l
0.14 -0.64 l
0.15 1.12 l
280.63 495.25 lineto
0.15 0.81 l
0.15 -1.13 l
0.14 0 l
0.15 0.64 l
0.14 -0.80 l
0.15 0.32 l
0.14 0.97 l
0.15 -0.16 l
0.15 -0.33 l
0.14 1.77 l
0.15 -1.12 l
0.14 -0.48 l
0.15 0.32 l
0.14 -0.32 l
0.15 0.16 l
0.14 -0.33 l
0.15 -0.16 l
0.15 0 l
0.14 0.16 l
0.15 0.17 l
0.14 0.80 l
0.15 -0.64 l
0.14 0.80 l
0.15 -0.48 l
0.14 0 l
0.15 0 l
0.15 0 l
0.14 -0.65 l
0.15 0.33 l
0.14 0.48 l
0.15 -0.16 l
0.14 -0.48 l
0.15 1.12 l
0.14 -0.64 l
0.15 1.28 l
0.15 -0.64 l
0.14 -0.64 l
0.15 1.12 l
0.14 -0.80 l
0.15 0.16 l
0.14 -0.96 l
0.15 0.64 l
0.14 1.12 l
0.15 0.16 l
0.15 -0.48 l
0.14 0.16 l
0.15 0 l
0.14 -1.12 l
0.15 1.44 l
0.14 -0.96 l
0.15 0.96 l
0.15 -0.64 l
0.14 0.96 l
0.15 0.46 l
0.14 -0.46 l
0.15 0.16 l
0.14 -0.16 l
0.15 0.16 l
0.14 -0.16 l
0.15 -0.64 l
0.15 0.64 l
0.14 -0.48 l
0.15 0.94 l
0.14 0.16 l
0.15 -0.78 l
0.14 0.32 l
0.15 0.30 l
0.14 0 l
0.15 -0.94 l
0.15 1.42 l
0.14 0.32 l
0.15 -0.32 l
0.14 -0.64 l
0.15 0.80 l
0.14 0 l
0.15 -0.94 l
0.14 0.62 l
0.15 -0.32 l
0.15 -0.62 l
0.14 0.78 l
0.15 0.48 l
0.14 -0.64 l
0.15 0.32 l
0.14 0.80 l
0.15 0.48 l
0.15 -0.80 l
0.14 0 l
0.15 -1.10 l
0.14 1.74 l
0.15 -0.32 l
0.14 -1.58 l
0.15 0.78 l
0.14 -0.32 l
0.15 1.12 l
0.15 -0.32 l
0.14 0.16 l
0.15 -0.48 l
0.14 0 l
0.15 0.80 l
295.19 499.72 lineto
0.15 0.16 l
0.14 -0.96 l
0.15 0 l
0.15 1.28 l
0.14 -0.48 l
0.15 -0.32 l
0.14 -0.64 l
0.15 1.76 l
0.14 -0.64 l
0.15 -0.48 l
0.14 -0.48 l
0.15 0.96 l
0.15 0.16 l
0.14 0 l
0.15 0.64 l
0.14 -1.60 l
0.15 0.80 l
0.14 -0.64 l
0.15 0.32 l
0.15 0.48 l
0.14 0 l
0.15 0.97 l
0.14 -0.33 l
0.15 -0.64 l
0.14 -0.32 l
0.15 -0.48 l
0.14 0.32 l
0.15 0.64 l
0.15 0.81 l
0.14 -1.29 l
0.15 1.12 l
0.14 -0.64 l
0.15 -0.32 l
0.14 0.16 l
0.15 0.32 l
0.14 -0.32 l
0.15 0.16 l
0.15 0.16 l
0.14 -0.64 l
0.15 0.48 l
0.14 -0.32 l
0.15 0.96 l
0.14 0.49 l
0.15 -0.97 l
0.14 0.32 l
0.15 -0.32 l
0.15 -0.16 l
0.14 -0.32 l
0.15 0.16 l
0.14 0.16 l
0.15 1.29 l
0.14 -0.97 l
0.15 -0.16 l
0.15 0.97 l
0.14 -0.32 l
0.15 -0.81 l
0.14 0.81 l
0.15 0.32 l
0.14 -0.65 l
0.15 0.33 l
0.14 0.16 l
0.15 -0.33 l
0.15 -0.64 l
0.14 1.29 l
0.15 -0.97 l
0.14 0.16 l
0.15 -0.32 l
0.14 0.16 l
0.15 0.49 l
0.14 -0.49 l
0.15 0.81 l
0.15 -0.49 l
0.14 -0.80 l
0.15 0.32 l
0.14 0 l
0.15 -0.48 l
0.14 1.93 l
0.15 -0.80 l
0.14 0.32 l
0.15 0.48 l
0.15 0.16 l
0.14 -0.64 l
0.15 -0.49 l
0.14 0.49 l
0.15 0 l
0.14 0.64 l
0.15 -1.29 l
0.15 1.90 l
0.14 -0.93 l
0.15 0 l
0.14 0 l
0.15 -0.81 l
0.14 1.45 l
0.15 -0.48 l
0.14 -0.64 l
0.15 0.48 l
0.15 0 l
0.14 0.48 l
0.15 -0.96 l
309.75 502.29 lineto
0.15 -0.64 l
0.14 0.16 l
0.15 0.32 l
0.14 0.32 l
0.15 -0.16 l
0.15 -0.48 l
0.14 0 l
0.15 0.32 l
0.14 -0.32 l
0.15 -0.32 l
0.14 0.80 l
0.15 -0.64 l
0.14 -0.64 l
0.15 1.28 l
0.15 -0.96 l
0.14 1.41 l
0.15 -1.73 l
0.14 1.12 l
0.15 -1.12 l
0.14 0.16 l
0.15 1.28 l
0.15 -0.32 l
0.14 0.32 l
0.15 -0.48 l
0.14 -0.64 l
0.15 0.80 l
0.14 -0.64 l
0.15 -0.16 l
0.14 0.64 l
0.15 -0.96 l
0.15 2.38 l
0.14 -1.90 l
0.15 1.25 l
0.14 -0.93 l
0.15 0.48 l
0.14 0 l
0.15 -0.80 l
0.14 0 l
0.15 0.16 l
0.15 0 l
0.14 1.25 l
0.15 -0.77 l
0.14 -0.32 l
0.15 0.64 l
0.14 0.13 l
0.15 -0.61 l
0.14 0.61 l
0.15 0.16 l
0.15 -0.45 l
0.14 0.45 l
0.15 -0.16 l
0.14 0.32 l
0.15 -0.16 l
0.14 -0.29 l
0.15 0.78 l
0.15 -0.49 l
0.14 -0.16 l
0.15 0.65 l
0.14 -0.65 l
0.15 0 l
0.14 0.16 l
0.15 0 l
0.14 -0.61 l
0.15 0.94 l
0.15 0.96 l
0.14 -1.90 l
0.15 0.77 l
0.14 -0.61 l
0.15 1.58 l
0.14 -2.22 l
0.15 1.58 l
0.14 -1.10 l
0.15 -0.32 l
0.15 1.74 l
0.14 0.16 l
0.15 -0.32 l
0.14 -0.81 l
0.15 0.32 l
0.14 0.17 l
0.15 -0.17 l
0.14 0.33 l
0.15 0.16 l
0.15 -0.49 l
0.14 0.49 l
0.15 -0.49 l
0.14 -0.16 l
0.15 -0.16 l
0.14 -0.45 l
0.15 1.42 l
0.14 -0.81 l
0.15 -0.29 l
0.15 1.42 l
0.14 -1.74 l
0.15 0.32 l
0.14 1.26 l
0.15 -0.32 l
0.14 -0.81 l
0.15 0.16 l
0.15 0.16 l
324.31 502.29 lineto
0.15 -0.16 l
0.14 0.16 l
0.15 0.45 l
0.14 -1.09 l
0.15 2.06 l
0.14 -0.64 l
0.15 -0.62 l
0.15 0.62 l
0.14 0 l
0.15 0 l
0.14 -0.49 l
0.15 0.81 l
0.14 0 l
0.15 -0.94 l
0.14 0.45 l
0.15 -0.45 l
0.15 0.45 l
0.14 -0.16 l
0.15 -0.29 l
0.14 0.13 l
0.15 0.97 l
0.14 -0.65 l
0.15 0 l
0.14 0.17 l
0.15 0.16 l
0.15 -0.33 l
0.14 0.81 l
0.15 -0.81 l
0.14 -0.45 l
0.15 0.94 l
0.14 -0.32 l
0.15 0 l
0.15 -0.17 l
0.14 -0.77 l
0.15 1.58 l
0.14 -0.16 l
0.15 -0.16 l
0.14 -0.32 l
0.15 0.96 l
0.14 -0.16 l
0.15 -0.32 l
0.15 0.96 l
0.14 -1.12 l
0.15 0.80 l
0.14 0.32 l
0.15 0 l
0.14 0.48 l
0.15 -0.96 l
0.14 1.44 l
0.15 -0.96 l
0.15 0.16 l
0.14 0.32 l
0.15 -0.80 l
0.14 -0.32 l
0.15 0.16 l
0.14 0.96 l
0.15 1.12 l
0.14 -1.76 l
0.15 0.32 l
0.15 -0.80 l
0.14 1.76 l
0.15 -0.32 l
0.14 -0.64 l
0.15 0.32 l
0.14 -0.80 l
0.15 0.16 l
0.15 0.32 l
0.14 1.12 l
0.15 -0.48 l
0.14 -1.28 l
0.15 0.80 l
0.14 -0.32 l
0.15 -0.16 l
0.14 0.16 l
0.15 0.48 l
0.15 -0.16 l
0.14 0 l
0.15 0 l
0.14 -0.32 l
0.15 -0.48 l
0.14 0.96 l
0.15 0.48 l
0.14 -0.32 l
0.15 0 l
0.15 0.48 l
0.14 -0.80 l
0.15 0 l
0.14 0 l
0.15 -0.16 l
0.14 0 l
0.15 1.12 l
0.14 -0.32 l
0.15 0 l
0.15 -0.80 l
0.14 0 l
0.15 0 l
0.14 -0.16 l
0.15 0.48 l
0.14 0.16 l
338.87 505.63 lineto
0.15 -0.64 l
0.14 0 l
0.15 -0.80 l
0.14 0.32 l
0.15 0 l
0.14 0.96 l
0.15 -1.28 l
0.14 0.48 l
0.15 0.16 l
0.15 -0.32 l
0.14 0.64 l
0.15 -0.64 l
0.14 0 l
0.15 0.48 l
0.14 -0.32 l
0.15 1.12 l
0.14 -1.12 l
0.15 0.80 l
0.15 -0.80 l
0.14 -0.96 l
0.15 0.64 l
0.14 0 l
0.15 0.96 l
0.14 -0.16 l
0.15 -0.32 l
0.14 0.32 l
0.15 -1.12 l
0.15 0.32 l
0.14 1.76 l
0.15 -1.12 l
0.14 0.16 l
0.15 0.64 l
0.14 -1.28 l
0.15 -0.16 l
0.15 0.64 l
0.14 0 l
0.15 -0.48 l
0.14 -0.48 l
0.15 0.64 l
0.14 0.48 l
0.15 -0.64 l
0.14 0.32 l
0.15 0.48 l
0.15 -1.12 l
0.14 0.64 l
0.15 0.96 l
0.14 0.32 l
0.15 -1.60 l
0.14 1.12 l
0.15 -0.96 l
0.14 0.32 l
0.15 0.32 l
0.15 0 l
0.14 0.16 l
0.15 0 l
0.14 -0.48 l
0.15 -0.64 l
0.14 1.44 l
0.15 0 l
0.14 0.16 l
0.15 -1.12 l
0.15 1.61 l
0.14 -1.61 l
0.15 0.64 l
0.14 0.32 l
0.15 0 l
0.14 -0.80 l
0.15 0.64 l
0.15 0.16 l
0.14 0.16 l
0.15 -0.32 l
0.14 0.16 l
0.15 0 l
0.14 0.49 l
0.15 -1.61 l
0.14 0.96 l
0.15 -0.16 l
0.15 -0.48 l
0.14 0.96 l
0.15 -0.32 l
0.14 -0.32 l
0.15 0.16 l
0.14 0.16 l
0.15 -1.12 l
0.14 1.44 l
0.15 -0.32 l
0.15 -0.32 l
0.14 0 l
0.15 -0.64 l
0.14 1.77 l
0.15 -0.81 l
0.14 0.81 l
0.15 -1.29 l
0.14 0.32 l
0.15 0.64 l
0.15 0.33 l
0.14 -0.81 l
0.15 -0.16 l
0.14 -0.16 l
353.43 505.79 lineto
0.14 -0.80 l
0.15 -0.48 l
0.14 1.44 l
0.15 -0.64 l
0.15 1.29 l
0.14 -0.97 l
0.15 0.32 l
0.14 0 l
0.15 -0.96 l
0.14 1.61 l
0.15 -1.61 l
0.15 0.48 l
0.14 0.97 l
0.15 -1.29 l
0.14 0.48 l
0.15 0 l
0.14 -0.64 l
0.15 0 l
0.14 1.29 l
0.15 -0.17 l
0.15 -0.64 l
0.14 0.32 l
0.15 0.97 l
0.14 -0.65 l
0.15 0 l
0.14 0.94 l
0.15 -1.74 l
0.14 0.64 l
0.15 0.65 l
0.15 -0.81 l
0.14 0.16 l
0.15 -0.16 l
0.14 -0.32 l
0.15 0.32 l
0.14 -0.16 l
0.15 -0.16 l
0.14 -0.16 l
0.15 -0.96 l
0.15 2.09 l
0.14 -0.81 l
0.15 -0.80 l
0.14 0.64 l
0.15 -0.16 l
0.14 0 l
0.15 -0.16 l
0.15 0 l
0.14 1.13 l
0.15 -0.97 l
0.14 0.64 l
0.15 -0.48 l
0.14 -0.32 l
0.15 0.64 l
0.14 0.32 l
0.15 0.49 l
0.15 -0.81 l
0.14 0.65 l
0.15 -0.97 l
0.14 -0.48 l
0.15 0.96 l
0.14 -0.48 l
0.15 -0.64 l
0.14 0.96 l
0.15 0 l
0.15 -0.48 l
0.14 0.97 l
0.15 0.61 l
0.14 -1.42 l
0.15 0 l
0.14 0.32 l
0.15 -0.16 l
0.14 0.32 l
0.15 -1.12 l
0.15 1.12 l
0.14 -0.48 l
0.15 -0.64 l
0.14 1.45 l
0.15 -0.49 l
0.14 0.32 l
0.15 0.17 l
0.15 -0.81 l
0.14 0 l
0.15 0 l
0.14 -0.16 l
0.15 0.80 l
0.14 0.94 l
0.15 -0.16 l
0.14 -0.45 l
0.15 -0.97 l
0.15 0.81 l
0.14 0.48 l
0.15 -0.32 l
0.14 -0.81 l
0.15 0.81 l
0.14 -0.49 l
0.15 -0.96 l
0.14 1.29 l
0.15 0.61 l
0.15 -0.94 l
0.14 0 l
currentpoint o m
367.99 505.63 lineto
0.14 -0.32 l
0.15 0.48 l
0.14 -0.16 l
0.15 0.32 l
0.14 -0.16 l
0.15 0.49 l
0.15 -1.13 l
0.14 0.48 l
0.15 -1.28 l
0.14 2.25 l
0.15 -0.81 l
0.14 -0.16 l
0.15 0 l
0.15 -0.48 l
0.14 0.64 l
0.15 0.49 l
0.14 -0.33 l
0.15 -0.32 l
0.14 -0.48 l
0.15 1.45 l
0.14 -0.65 l
0.15 -1.12 l
0.15 0.48 l
0.14 -0.48 l
0.15 0.32 l
0.14 0.64 l
0.15 -0.48 l
0.14 -0.48 l
0.15 1.12 l
0.14 -1.76 l
0.15 0.96 l
0.15 0.96 l
0.14 0.49 l
0.15 -0.81 l
0.14 0.32 l
0.15 0 l
0.14 -0.96 l
0.15 0 l
0.14 1.29 l
0.15 -0.65 l
0.15 -0.48 l
0.14 0 l
0.15 0.64 l
0.14 0.49 l
0.15 -0.81 l
0.14 -1.60 l
0.15 0.64 l
0.15 1.61 l
0.14 -1.13 l
0.15 0.64 l
0.14 -0.80 l
0.15 0.64 l
0.14 -0.48 l
0.15 0.48 l
0.14 -0.32 l
0.15 0.64 l
0.15 0.16 l
0.14 -0.96 l
0.15 0.16 l
0.14 0.32 l
0.15 -0.48 l
0.14 -0.96 l
0.15 3.18 l
0.14 -2.38 l
0.15 -0.48 l
0.15 1.60 l
0.14 0.17 l
0.15 -0.81 l
0.14 0.81 l
0.15 -1.29 l
0.14 1.77 l
0.15 -1.45 l
0.14 0.48 l
0.15 -0.16 l
0.15 0.32 l
0.14 0.33 l
0.15 0.48 l
0.14 -1.29 l
0.15 0 l
0.14 1.74 l
0.15 -1.58 l
0.15 -0.48 l
0.14 0.48 l
0.15 0.16 l
0.14 -0.48 l
0.15 0.48 l
0.14 -0.48 l
0.15 0.16 l
0.14 0 l
0.15 -0.48 l
0.15 1.29 l
0.14 -0.65 l
0.15 -0.64 l
0.14 1.12 l
0.15 -0.32 l
0.14 0.32 l
0.15 -0.48 l
0.14 -0.16 l
0.15 0.81 l
o
/bg { 1 1 1 srgb } def
222.40 510.90 0.43 c p3
222.55 511.06 0.43 c p3
222.69 511.84 0.43 c p3
222.84 511.84 0.43 c p3
222.98 509.30 0.43 c p3
223.13 511.68 0.43 c p3
223.27 511.36 0.43 c p3
223.42 510.74 0.43 c p3
223.56 511.20 0.43 c p3
223.71 510.90 0.43 c p3
223.86 510.42 0.43 c p3
224.00 510.42 0.43 c p3
224.15 512.00 0.43 c p3
224.29 510.74 0.43 c p3
224.44 510.10 0.43 c p3
224.58 510.90 0.43 c p3
224.73 510.74 0.43 c p3
224.87 510.10 0.43 c p3
225.02 511.36 0.43 c p3
225.17 510.10 0.43 c p3
225.31 511.36 0.43 c p3
225.46 511.68 0.43 c p3
225.60 511.20 0.43 c p3
225.75 510.42 0.43 c p3
225.89 510.90 0.43 c p3
226.04 509.30 0.43 c p3
226.19 510.42 0.43 c p3
226.33 510.10 0.43 c p3
226.48 510.26 0.43 c p3
226.62 511.20 0.43 c p3
226.77 509.46 0.43 c p3
226.91 510.10 0.43 c p3
227.06 509.78 0.43 c p3
227.20 510.26 0.43 c p3
227.35 511.20 0.43 c p3
227.50 511.68 0.43 c p3
227.64 509.30 0.43 c p3
227.79 510.10 0.43 c p3
227.93 510.58 0.43 c p3
228.08 510.90 0.43 c p3
228.22 509.14 0.43 c p3
228.37 510.42 0.43 c p3
228.51 510.42 0.43 c p3
228.66 509.62 0.43 c p3
228.81 509.78 0.43 c p3
228.95 510.26 0.43 c p3
229.10 510.26 0.43 c p3
229.24 509.94 0.43 c p3
229.39 510.26 0.43 c p3
229.53 508.98 0.43 c p3
229.68 509.62 0.43 c p3
229.82 510.58 0.43 c p3
229.97 509.62 0.43 c p3
230.12 509.46 0.43 c p3
230.26 508.82 0.43 c p3
230.41 509.62 0.43 c p3
230.55 510.26 0.43 c p3
230.70 509.30 0.43 c p3
230.84 509.46 0.43 c p3
230.99 510.90 0.43 c p3
231.14 508.98 0.43 c p3
231.28 509.14 0.43 c p3
231.43 510.10 0.43 c p3
231.57 509.94 0.43 c p3
231.72 509.30 0.43 c p3
231.86 510.58 0.43 c p3
232.01 509.94 0.43 c p3
232.15 510.26 0.43 c p3
232.30 508.82 0.43 c p3
232.45 510.10 0.43 c p3
232.59 509.62 0.43 c p3
232.74 509.14 0.43 c p3
232.88 510.74 0.43 c p3
233.03 509.78 0.43 c p3
233.17 508.98 0.43 c p3
233.32 509.14 0.43 c p3
233.46 509.62 0.43 c p3
233.61 508.66 0.43 c p3
233.76 509.14 0.43 c p3
233.90 509.62 0.43 c p3
234.05 509.62 0.43 c p3
234.19 509.30 0.43 c p3
234.34 510.26 0.43 c p3
234.48 509.46 0.43 c p3
234.63 509.14 0.43 c p3
234.77 509.62 0.43 c p3
234.92 509.78 0.43 c p3
235.07 509.30 0.43 c p3
235.21 508.98 0.43 c p3
235.36 509.46 0.43 c p3
235.50 509.30 0.43 c p3
235.65 509.30 0.43 c p3
235.79 508.98 0.43 c p3
235.94 509.14 0.43 c p3
236.09 508.98 0.43 c p3
236.23 509.46 0.43 c p3
236.38 508.98 0.43 c p3
236.52 507.69 0.43 c p3
236.67 508.17 0.43 c p3
236.81 508.82 0.43 c p3
236.96 449.16 0.43 c p3
237.10 447.54 0.43 c p3
237.25 447.56 0.43 c p3
237.40 450.12 0.43 c p3
237.54 451.22 0.43 c p3
237.69 451.54 0.43 c p3
237.83 452.02 0.43 c p3
237.98 452.83 0.43 c p3
238.12 453.47 0.43 c p3
238.27 453.31 0.43 c p3
238.41 454.27 0.43 c p3
238.56 454.59 0.43 c p3
238.71 456.17 0.43 c p3
238.85 456.81 0.43 c p3
239.00 456.17 0.43 c p3
239.14 457.45 0.43 c p3
239.29 459.22 0.43 c p3
239.43 458.90 0.43 c p3
239.58 460.32 0.43 c p3
239.72 459.06 0.43 c p3
239.87 459.67 0.43 c p3
240.02 460.32 0.43 c p3
240.16 460.80 0.43 c p3
240.31 460.80 0.43 c p3
240.45 461.12 0.43 c p3
240.60 462.40 0.43 c p3
240.74 462.08 0.43 c p3
240.89 461.44 0.43 c p3
241.04 462.40 0.43 c p3
241.18 462.88 0.43 c p3
241.33 463.53 0.43 c p3
241.47 464.30 0.43 c p3
241.62 464.78 0.43 c p3
241.76 464.78 0.43 c p3
241.91 464.78 0.43 c p3
242.05 465.75 0.43 c p3
242.20 465.91 0.43 c p3
242.35 466.07 0.43 c p3
242.49 465.75 0.43 c p3
242.64 467.03 0.43 c p3
242.78 466.71 0.43 c p3
242.93 466.39 0.43 c p3
243.07 467.03 0.43 c p3
243.22 467.03 0.43 c p3
243.36 467.51 0.43 c p3
243.51 468.77 0.43 c p3
243.66 468.29 0.43 c p3
243.80 469.73 0.43 c p3
243.95 469.57 0.43 c p3
244.09 469.89 0.43 c p3
244.24 470.86 0.43 c p3
244.38 469.89 0.43 c p3
244.53 470.38 0.43 c p3
244.67 470.70 0.43 c p3
244.82 470.70 0.43 c p3
244.97 470.86 0.43 c p3
245.11 472.30 0.43 c p3
245.26 471.18 0.43 c p3
245.40 473.08 0.43 c p3
245.55 472.30 0.43 c p3
245.69 472.30 0.43 c p3
245.84 473.88 0.43 c p3
245.99 473.56 0.43 c p3
246.13 473.24 0.43 c p3
246.28 474.36 0.43 c p3
246.42 473.72 0.43 c p3
246.57 474.20 0.43 c p3
246.71 474.68 0.43 c p3
246.86 474.84 0.43 c p3
247.00 474.20 0.43 c p3
247.15 474.52 0.43 c p3
247.30 474.36 0.43 c p3
247.44 476.90 0.43 c p3
247.59 476.45 0.43 c p3
247.73 476.29 0.43 c p3
247.88 476.29 0.43 c p3
248.02 477.22 0.43 c p3
248.17 477.70 0.43 c p3
248.31 477.87 0.43 c p3
248.46 476.61 0.43 c p3
248.61 477.22 0.43 c p3
248.75 478.03 0.43 c p3
248.90 478.51 0.43 c p3
249.04 479.15 0.43 c p3
249.19 478.67 0.43 c p3
249.33 478.83 0.43 c p3
249.48 479.79 0.43 c p3
249.62 479.95 0.43 c p3
249.77 479.63 0.43 c p3
249.92 479.79 0.43 c p3
250.06 480.59 0.43 c p3
250.21 479.79 0.43 c p3
250.35 480.59 0.43 c p3
250.50 481.37 0.43 c p3
250.64 480.27 0.43 c p3
250.79 481.37 0.43 c p3
250.94 481.85 0.43 c p3
251.08 481.69 0.43 c p3
251.23 482.65 0.43 c p3
251.37 482.17 0.43 c p3
251.52 483.14 0.43 c p3
251.66 482.01 0.43 c p3
251.81 482.49 0.43 c p3
251.95 483.30 0.43 c p3
252.10 482.17 0.43 c p3
252.25 482.97 0.43 c p3
252.39 482.81 0.43 c p3
252.54 483.78 0.43 c p3
252.68 484.10 0.43 c p3
252.83 483.78 0.43 c p3
252.97 483.78 0.43 c p3
253.12 484.26 0.43 c p3
253.26 484.10 0.43 c p3
253.41 484.74 0.43 c p3
253.56 484.26 0.43 c p3
253.70 484.26 0.43 c p3
253.85 484.42 0.43 c p3
253.99 485.06 0.43 c p3
254.14 484.90 0.43 c p3
254.28 485.68 0.43 c p3
254.43 486.48 0.43 c p3
254.57 485.22 0.43 c p3
254.72 486.96 0.43 c p3
254.87 485.84 0.43 c p3
255.01 485.52 0.43 c p3
255.16 485.22 0.43 c p3
255.30 486.00 0.43 c p3
255.45 485.68 0.43 c p3
255.59 486.48 0.43 c p3
255.74 486.16 0.43 c p3
255.88 486.32 0.43 c p3
256.03 486.96 0.43 c p3
256.18 486.32 0.43 c p3
256.32 487.12 0.43 c p3
256.47 487.76 0.43 c p3
256.61 487.12 0.43 c p3
256.76 488.25 0.43 c p3
256.90 487.92 0.43 c p3
257.05 487.44 0.43 c p3
257.20 488.57 0.43 c p3
257.34 487.60 0.43 c p3
257.49 487.60 0.43 c p3
257.63 488.57 0.43 c p3
257.78 487.28 0.43 c p3
257.92 488.25 0.43 c p3
258.07 489.53 0.43 c p3
258.21 490.63 0.43 c p3
258.36 488.41 0.43 c p3
258.51 488.73 0.43 c p3
258.65 488.73 0.43 c p3
258.80 489.37 0.43 c p3
258.94 489.82 0.43 c p3
259.09 489.82 0.43 c p3
259.23 489.21 0.43 c p3
259.38 489.66 0.43 c p3
259.52 489.53 0.43 c p3
259.67 489.66 0.43 c p3
259.82 489.66 0.43 c p3
259.96 489.82 0.43 c p3
260.11 489.66 0.43 c p3
260.25 490.47 0.43 c p3
260.40 489.98 0.43 c p3
260.54 490.30 0.43 c p3
260.69 490.95 0.43 c p3
260.83 491.27 0.43 c p3
260.98 489.66 0.43 c p3
261.13 490.14 0.43 c p3
261.27 490.95 0.43 c p3
261.42 488.73 0.43 c p3
261.56 491.43 0.43 c p3
261.71 491.59 0.43 c p3
261.85 490.79 0.43 c p3
262.00 490.95 0.43 c p3
262.15 490.63 0.43 c p3
262.29 491.27 0.43 c p3
262.44 491.27 0.43 c p3
262.58 491.59 0.43 c p3
262.73 490.95 0.43 c p3
262.87 491.27 0.43 c p3
263.02 491.59 0.43 c p3
263.16 491.91 0.43 c p3
263.31 491.43 0.43 c p3
263.46 492.87 0.43 c p3
263.60 493.03 0.43 c p3
263.75 492.23 0.43 c p3
263.89 491.75 0.43 c p3
264.04 492.07 0.43 c p3
264.18 491.91 0.43 c p3
264.33 491.91 0.43 c p3
264.47 492.23 0.43 c p3
264.62 492.39 0.43 c p3
264.77 491.59 0.43 c p3
264.91 492.07 0.43 c p3
265.06 491.11 0.43 c p3
265.20 491.43 0.43 c p3
265.35 492.55 0.43 c p3
265.49 491.91 0.43 c p3
265.64 492.39 0.43 c p3
265.78 492.87 0.43 c p3
265.93 490.95 0.43 c p3
266.08 491.59 0.43 c p3
266.22 492.71 0.43 c p3
266.37 492.71 0.43 c p3
266.51 492.55 0.43 c p3
266.66 492.39 0.43 c p3
266.80 491.91 0.43 c p3
266.95 493.03 0.43 c p3
267.10 492.23 0.43 c p3
267.24 492.39 0.43 c p3
267.39 491.43 0.43 c p3
267.53 492.23 0.43 c p3
267.68 492.07 0.43 c p3
267.82 493.03 0.43 c p3
267.97 492.07 0.43 c p3
268.11 491.43 0.43 c p3
268.26 492.23 0.43 c p3
268.41 491.75 0.43 c p3
268.55 492.87 0.43 c p3
268.70 493.03 0.43 c p3
268.84 492.23 0.43 c p3
268.99 491.43 0.43 c p3
269.13 492.71 0.43 c p3
269.28 492.23 0.43 c p3
269.42 492.87 0.43 c p3
269.57 492.87 0.43 c p3
269.72 492.71 0.43 c p3
269.86 491.75 0.43 c p3
270.01 493.03 0.43 c p3
270.15 492.71 0.43 c p3
270.30 492.23 0.43 c p3
270.44 492.87 0.43 c p3
270.59 492.87 0.43 c p3
270.73 492.07 0.43 c p3
270.88 491.91 0.43 c p3
271.03 492.71 0.43 c p3
271.17 493.97 0.43 c p3
271.32 492.07 0.43 c p3
271.46 492.71 0.43 c p3
271.61 492.23 0.43 c p3
271.75 493.03 0.43 c p3
271.90 493.03 0.43 c p3
272.05 493.03 0.43 c p3
272.19 492.87 0.43 c p3
272.34 493.52 0.43 c p3
272.48 492.87 0.43 c p3
272.63 493.84 0.43 c p3
272.77 493.35 0.43 c p3
272.92 492.23 0.43 c p3
273.06 489.82 0.43 c p3
273.21 493.19 0.43 c p3
273.36 495.09 0.43 c p3
273.50 493.84 0.43 c p3
273.65 492.23 0.43 c p3
273.79 493.19 0.43 c p3
273.94 493.84 0.43 c p3
274.08 493.68 0.43 c p3
274.23 494.61 0.43 c p3
274.37 494.45 0.43 c p3
274.52 493.97 0.43 c p3
274.67 493.97 0.43 c p3
274.81 493.97 0.43 c p3
274.96 494.45 0.43 c p3
275.10 493.68 0.43 c p3
275.25 494.29 0.43 c p3
275.39 494.77 0.43 c p3
275.54 493.84 0.43 c p3
275.68 494.61 0.43 c p3
275.83 494.45 0.43 c p3
275.98 494.29 0.43 c p3
276.12 494.45 0.43 c p3
276.27 494.45 0.43 c p3
276.41 494.29 0.43 c p3
276.56 494.45 0.43 c p3
276.70 493.68 0.43 c p3
276.85 494.61 0.43 c p3
277.00 494.29 0.43 c p3
277.14 493.68 0.43 c p3
277.29 493.97 0.43 c p3
277.43 495.09 0.43 c p3
277.58 494.29 0.43 c p3
277.72 494.45 0.43 c p3
277.87 494.29 0.43 c p3
278.01 495.09 0.43 c p3
278.16 495.09 0.43 c p3
278.31 494.61 0.43 c p3
278.45 494.93 0.43 c p3
278.60 494.77 0.43 c p3
278.74 495.57 0.43 c p3
278.89 495.09 0.43 c p3
279.03 494.93 0.43 c p3
279.18 495.90 0.43 c p3
279.32 494.45 0.43 c p3
279.47 494.93 0.43 c p3
279.62 494.93 0.43 c p3
279.76 495.90 0.43 c p3
279.91 494.93 0.43 c p3
280.05 496.06 0.43 c p3
280.20 494.77 0.43 c p3
280.34 494.13 0.43 c p3
280.49 495.25 0.43 c p3
280.63 495.25 0.43 c p3
280.78 496.06 0.43 c p3
280.93 494.93 0.43 c p3
281.07 494.93 0.43 c p3
281.22 495.57 0.43 c p3
281.36 494.77 0.43 c p3
281.51 495.09 0.43 c p3
281.65 496.06 0.43 c p3
281.80 495.90 0.43 c p3
281.95 495.57 0.43 c p3
282.09 497.34 0.43 c p3
282.24 496.22 0.43 c p3
282.38 495.74 0.43 c p3
282.53 496.06 0.43 c p3
282.67 495.74 0.43 c p3
282.82 495.90 0.43 c p3
282.96 495.57 0.43 c p3
283.11 495.41 0.43 c p3
283.26 495.41 0.43 c p3
283.40 495.57 0.43 c p3
283.55 495.74 0.43 c p3
283.69 496.54 0.43 c p3
283.84 495.90 0.43 c p3
283.98 496.70 0.43 c p3
284.13 496.22 0.43 c p3
284.27 496.22 0.43 c p3
284.42 496.22 0.43 c p3
284.57 496.22 0.43 c p3
284.71 495.57 0.43 c p3
284.86 495.90 0.43 c p3
285.00 496.38 0.43 c p3
285.15 496.22 0.43 c p3
285.29 495.74 0.43 c p3
285.44 496.86 0.43 c p3
285.58 496.22 0.43 c p3
285.73 497.50 0.43 c p3
285.88 496.86 0.43 c p3
286.02 496.22 0.43 c p3
286.17 497.34 0.43 c p3
286.31 496.54 0.43 c p3
286.46 496.70 0.43 c p3
286.60 495.74 0.43 c p3
286.75 496.38 0.43 c p3
286.89 497.50 0.43 c p3
287.04 497.66 0.43 c p3
287.19 497.18 0.43 c p3
287.33 497.34 0.43 c p3
287.48 497.34 0.43 c p3
287.62 496.22 0.43 c p3
287.77 497.66 0.43 c p3
287.91 496.70 0.43 c p3
288.06 497.66 0.43 c p3
288.21 497.02 0.43 c p3
288.35 497.98 0.43 c p3
288.50 498.44 0.43 c p3
288.64 497.98 0.43 c p3
288.79 498.14 0.43 c p3
288.93 497.98 0.43 c p3
289.08 498.14 0.43 c p3
289.22 497.98 0.43 c p3
289.37 497.34 0.43 c p3
289.52 497.98 0.43 c p3
289.66 497.50 0.43 c p3
289.81 498.44 0.43 c p3
289.95 498.60 0.43 c p3
290.10 497.82 0.43 c p3
290.24 498.14 0.43 c p3
290.39 498.44 0.43 c p3
290.53 498.44 0.43 c p3
290.68 497.50 0.43 c p3
290.83 498.92 0.43 c p3
290.97 499.24 0.43 c p3
291.12 498.92 0.43 c p3
291.26 498.28 0.43 c p3
291.41 499.08 0.43 c p3
291.55 499.08 0.43 c p3
291.70 498.14 0.43 c p3
291.84 498.76 0.43 c p3
291.99 498.44 0.43 c p3
292.14 497.82 0.43 c p3
292.28 498.60 0.43 c p3
292.43 499.08 0.43 c p3
292.57 498.44 0.43 c p3
292.72 498.76 0.43 c p3
292.86 499.56 0.43 c p3
293.01 500.04 0.43 c p3
293.16 499.24 0.43 c p3
293.30 499.24 0.43 c p3
293.45 498.14 0.43 c p3
293.59 499.88 0.43 c p3
293.74 499.56 0.43 c p3
293.88 497.98 0.43 c p3
294.03 498.76 0.43 c p3
294.17 498.44 0.43 c p3
294.32 499.56 0.43 c p3
294.47 499.24 0.43 c p3
294.61 499.40 0.43 c p3
294.76 498.92 0.43 c p3
294.90 498.92 0.43 c p3
295.05 499.72 0.43 c p3
295.19 499.72 0.43 c p3
295.34 499.88 0.43 c p3
295.48 498.92 0.43 c p3
295.63 498.92 0.43 c p3
295.78 500.20 0.43 c p3
295.92 499.72 0.43 c p3
296.07 499.40 0.43 c p3
296.21 498.76 0.43 c p3
296.36 500.52 0.43 c p3
296.50 499.88 0.43 c p3
296.65 499.40 0.43 c p3
296.79 498.92 0.43 c p3
296.94 499.88 0.43 c p3
297.09 500.04 0.43 c p3
297.23 500.04 0.43 c p3
297.38 500.68 0.43 c p3
297.52 499.08 0.43 c p3
297.67 499.88 0.43 c p3
297.81 499.24 0.43 c p3
297.96 499.56 0.43 c p3
298.11 500.04 0.43 c p3
298.25 500.04 0.43 c p3
298.40 501.01 0.43 c p3
298.54 500.68 0.43 c p3
298.69 500.04 0.43 c p3
298.83 499.72 0.43 c p3
298.98 499.24 0.43 c p3
299.12 499.56 0.43 c p3
299.27 500.20 0.43 c p3
299.42 501.01 0.43 c p3
299.56 499.72 0.43 c p3
299.71 500.84 0.43 c p3
299.85 500.20 0.43 c p3
300.00 499.88 0.43 c p3
300.14 500.04 0.43 c p3
300.29 500.36 0.43 c p3
300.43 500.04 0.43 c p3
300.58 500.20 0.43 c p3
300.73 500.36 0.43 c p3
300.87 499.72 0.43 c p3
301.02 500.20 0.43 c p3
301.16 499.88 0.43 c p3
301.31 500.84 0.43 c p3
301.45 501.33 0.43 c p3
301.60 500.36 0.43 c p3
301.74 500.68 0.43 c p3
301.89 500.36 0.43 c p3
302.04 500.20 0.43 c p3
302.18 499.88 0.43 c p3
302.33 500.04 0.43 c p3
302.47 500.20 0.43 c p3
302.62 501.49 0.43 c p3
302.76 500.52 0.43 c p3
302.91 500.36 0.43 c p3
303.06 501.33 0.43 c p3
303.20 501.01 0.43 c p3
303.35 500.20 0.43 c p3
303.49 501.01 0.43 c p3
303.64 501.33 0.43 c p3
303.78 500.68 0.43 c p3
303.93 501.01 0.43 c p3
304.07 501.17 0.43 c p3
304.22 500.84 0.43 c p3
304.37 500.20 0.43 c p3
304.51 501.49 0.43 c p3
304.66 500.52 0.43 c p3
304.80 500.68 0.43 c p3
304.95 500.36 0.43 c p3
305.09 500.52 0.43 c p3
305.24 501.01 0.43 c p3
305.38 500.52 0.43 c p3
305.53 501.33 0.43 c p3
305.68 500.84 0.43 c p3
305.82 500.04 0.43 c p3
305.97 500.36 0.43 c p3
306.11 500.36 0.43 c p3
306.26 499.88 0.43 c p3
306.40 501.81 0.43 c p3
306.55 501.01 0.43 c p3
306.69 501.33 0.43 c p3
306.84 501.81 0.43 c p3
306.99 501.97 0.43 c p3
307.13 501.33 0.43 c p3
307.28 500.84 0.43 c p3
307.42 501.33 0.43 c p3
307.57 501.33 0.43 c p3
307.71 501.97 0.43 c p3
307.86 500.68 0.43 c p3
308.01 502.58 0.43 c p3
308.15 501.65 0.43 c p3
308.30 501.65 0.43 c p3
308.44 501.65 0.43 c p3
308.59 500.84 0.43 c p3
308.73 502.29 0.43 c p3
308.88 501.81 0.43 c p3
309.02 501.17 0.43 c p3
309.17 501.65 0.43 c p3
309.32 501.65 0.43 c p3
309.46 502.13 0.43 c p3
309.61 501.17 0.43 c p3
309.75 502.29 0.43 c p3
309.90 501.65 0.43 c p3
310.04 501.81 0.43 c p3
310.19 502.13 0.43 c p3
310.33 502.45 0.43 c p3
310.48 502.29 0.43 c p3
310.63 501.81 0.43 c p3
310.77 501.81 0.43 c p3
310.92 502.13 0.43 c p3
311.06 501.81 0.43 c p3
311.21 501.49 0.43 c p3
311.35 502.29 0.43 c p3
311.50 501.65 0.43 c p3
311.64 501.01 0.43 c p3
311.79 502.29 0.43 c p3
311.94 501.33 0.43 c p3
312.08 502.74 0.43 c p3
312.23 501.01 0.43 c p3
312.37 502.13 0.43 c p3
312.52 501.01 0.43 c p3
312.66 501.17 0.43 c p3
312.81 502.45 0.43 c p3
312.96 502.13 0.43 c p3
313.10 502.45 0.43 c p3
313.25 501.97 0.43 c p3
313.39 501.33 0.43 c p3
313.54 502.13 0.43 c p3
313.68 501.49 0.43 c p3
313.83 501.33 0.43 c p3
313.97 501.97 0.43 c p3
314.12 501.01 0.43 c p3
314.27 503.39 0.43 c p3
314.41 501.49 0.43 c p3
314.56 502.74 0.43 c p3
314.70 501.81 0.43 c p3
314.85 502.29 0.43 c p3
314.99 502.29 0.43 c p3
315.14 501.49 0.43 c p3
315.28 501.49 0.43 c p3
315.43 501.65 0.43 c p3
315.58 501.65 0.43 c p3
315.72 502.90 0.43 c p3
315.87 502.13 0.43 c p3
316.01 501.81 0.43 c p3
316.16 502.45 0.43 c p3
316.30 502.58 0.43 c p3
316.45 501.97 0.43 c p3
316.59 502.58 0.43 c p3
316.74 502.74 0.43 c p3
316.89 502.29 0.43 c p3
317.03 502.74 0.43 c p3
317.18 502.58 0.43 c p3
317.32 502.90 0.43 c p3
317.47 502.74 0.43 c p3
317.61 502.45 0.43 c p3
317.76 503.23 0.43 c p3
317.91 502.74 0.43 c p3
318.05 502.58 0.43 c p3
318.20 503.23 0.43 c p3
318.34 502.58 0.43 c p3
318.49 502.58 0.43 c p3
318.63 502.74 0.43 c p3
318.78 502.74 0.43 c p3
318.92 502.13 0.43 c p3
319.07 503.07 0.43 c p3
319.22 504.03 0.43 c p3
319.36 502.13 0.43 c p3
319.51 502.90 0.43 c p3
319.65 502.29 0.43 c p3
319.80 503.87 0.43 c p3
319.94 501.65 0.43 c p3
320.09 503.23 0.43 c p3
320.23 502.13 0.43 c p3
320.38 501.81 0.43 c p3
320.53 503.55 0.43 c p3
320.67 503.71 0.43 c p3
320.82 503.39 0.43 c p3
320.96 502.58 0.43 c p3
321.11 502.90 0.43 c p3
321.25 503.07 0.43 c p3
321.40 502.90 0.43 c p3
321.54 503.23 0.43 c p3
321.69 503.39 0.43 c p3
321.84 502.90 0.43 c p3
321.98 503.39 0.43 c p3
322.13 502.90 0.43 c p3
322.27 502.74 0.43 c p3
322.42 502.58 0.43 c p3
322.56 502.13 0.43 c p3
322.71 503.55 0.43 c p3
322.85 502.74 0.43 c p3
323.00 502.45 0.43 c p3
323.15 503.87 0.43 c p3
323.29 502.13 0.43 c p3
323.44 502.45 0.43 c p3
323.58 503.71 0.43 c p3
323.73 503.39 0.43 c p3
323.87 502.58 0.43 c p3
324.02 502.74 0.43 c p3
324.17 502.90 0.43 c p3
324.31 502.29 0.43 c p3
324.46 502.13 0.43 c p3
324.60 502.29 0.43 c p3
324.75 502.74 0.43 c p3
324.89 501.65 0.43 c p3
325.04 503.71 0.43 c p3
325.18 503.07 0.43 c p3
325.33 502.45 0.43 c p3
325.48 503.07 0.43 c p3
325.62 503.07 0.43 c p3
325.77 503.07 0.43 c p3
325.91 502.58 0.43 c p3
326.06 503.39 0.43 c p3
326.20 503.39 0.43 c p3
326.35 502.45 0.43 c p3
326.49 502.90 0.43 c p3
326.64 502.45 0.43 c p3
326.79 502.90 0.43 c p3
326.93 502.74 0.43 c p3
327.08 502.45 0.43 c p3
327.22 502.58 0.43 c p3
327.37 503.55 0.43 c p3
327.51 502.90 0.43 c p3
327.66 502.90 0.43 c p3
327.80 503.07 0.43 c p3
327.95 503.23 0.43 c p3
328.10 502.90 0.43 c p3
328.24 503.71 0.43 c p3
328.39 502.90 0.43 c p3
328.53 502.45 0.43 c p3
328.68 503.39 0.43 c p3
328.82 503.07 0.43 c p3
328.97 503.07 0.43 c p3
329.12 502.90 0.43 c p3
329.26 502.13 0.43 c p3
329.41 503.71 0.43 c p3
329.55 503.55 0.43 c p3
329.70 503.39 0.43 c p3
329.84 503.07 0.43 c p3
329.99 504.03 0.43 c p3
330.13 503.87 0.43 c p3
330.28 503.55 0.43 c p3
330.43 504.51 0.43 c p3
330.57 503.39 0.43 c p3
330.72 504.19 0.43 c p3
330.86 504.51 0.43 c p3
331.01 504.51 0.43 c p3
331.15 504.99 0.43 c p3
331.30 504.03 0.43 c p3
331.44 505.47 0.43 c p3
331.59 504.51 0.43 c p3
331.74 504.67 0.43 c p3
331.88 504.99 0.43 c p3
332.03 504.19 0.43 c p3
332.17 503.87 0.43 c p3
332.32 504.03 0.43 c p3
332.46 504.99 0.43 c p3
332.61 506.11 0.43 c p3
332.75 504.35 0.43 c p3
332.90 504.67 0.43 c p3
333.05 503.87 0.43 c p3
333.19 505.63 0.43 c p3
333.34 505.31 0.43 c p3
333.48 504.67 0.43 c p3
333.63 504.99 0.43 c p3
333.77 504.19 0.43 c p3
333.92 504.35 0.43 c p3
334.07 504.67 0.43 c p3
334.21 505.79 0.43 c p3
334.36 505.31 0.43 c p3
334.50 504.03 0.43 c p3
334.65 504.83 0.43 c p3
334.79 504.51 0.43 c p3
334.94 504.35 0.43 c p3
335.08 504.51 0.43 c p3
335.23 504.99 0.43 c p3
335.38 504.83 0.43 c p3
335.52 504.83 0.43 c p3
335.67 504.83 0.43 c p3
335.81 504.51 0.43 c p3
335.96 504.03 0.43 c p3
336.10 504.99 0.43 c p3
336.25 505.47 0.43 c p3
336.39 505.15 0.43 c p3
336.54 505.15 0.43 c p3
336.69 505.63 0.43 c p3
336.83 504.83 0.43 c p3
336.98 504.83 0.43 c p3
337.12 504.83 0.43 c p3
337.27 504.67 0.43 c p3
337.41 504.67 0.43 c p3
337.56 505.79 0.43 c p3
337.70 505.47 0.43 c p3
337.85 505.47 0.43 c p3
338.00 504.67 0.43 c p3
338.14 504.67 0.43 c p3
338.29 504.67 0.43 c p3
338.43 504.51 0.43 c p3
338.58 504.99 0.43 c p3
338.72 505.15 0.43 c p3
338.87 505.63 0.43 c p3
339.02 504.99 0.43 c p3
339.16 504.99 0.43 c p3
339.31 504.19 0.43 c p3
339.45 504.51 0.43 c p3
339.60 504.51 0.43 c p3
339.74 505.47 0.43 c p3
339.89 504.19 0.43 c p3
340.03 504.67 0.43 c p3
340.18 504.83 0.43 c p3
340.33 504.51 0.43 c p3
340.47 505.15 0.43 c p3
340.62 504.51 0.43 c p3
340.76 504.51 0.43 c p3
340.91 504.99 0.43 c p3
341.05 504.67 0.43 c p3
341.20 505.79 0.43 c p3
341.34 504.67 0.43 c p3
341.49 505.47 0.43 c p3
341.64 504.67 0.43 c p3
341.78 503.71 0.43 c p3
341.93 504.35 0.43 c p3
342.07 504.35 0.43 c p3
342.22 505.31 0.43 c p3
342.36 505.15 0.43 c p3
342.51 504.83 0.43 c p3
342.65 505.15 0.43 c p3
342.80 504.03 0.43 c p3
342.95 504.35 0.43 c p3
343.09 506.11 0.43 c p3
343.24 504.99 0.43 c p3
343.38 505.15 0.43 c p3
343.53 505.79 0.43 c p3
343.67 504.51 0.43 c p3
343.82 504.35 0.43 c p3
343.97 504.99 0.43 c p3
344.11 504.99 0.43 c p3
344.26 504.51 0.43 c p3
344.40 504.03 0.43 c p3
344.55 504.67 0.43 c p3
344.69 505.15 0.43 c p3
344.84 504.51 0.43 c p3
344.98 504.83 0.43 c p3
345.13 505.31 0.43 c p3
345.28 504.19 0.43 c p3
345.42 504.83 0.43 c p3
345.57 505.79 0.43 c p3
345.71 506.11 0.43 c p3
345.86 504.51 0.43 c p3
346.00 505.63 0.43 c p3
346.15 504.67 0.43 c p3
346.29 504.99 0.43 c p3
346.44 505.31 0.43 c p3
346.59 505.31 0.43 c p3
346.73 505.47 0.43 c p3
346.88 505.47 0.43 c p3
347.02 504.99 0.43 c p3
347.17 504.35 0.43 c p3
347.31 505.79 0.43 c p3
347.46 505.79 0.43 c p3
347.60 505.95 0.43 c p3
347.75 504.83 0.43 c p3
347.90 506.44 0.43 c p3
348.04 504.83 0.43 c p3
348.19 505.47 0.43 c p3
348.33 505.79 0.43 c p3
348.48 505.79 0.43 c p3
348.62 504.99 0.43 c p3
348.77 505.63 0.43 c p3
348.92 505.79 0.43 c p3
349.06 505.95 0.43 c p3
349.21 505.63 0.43 c p3
349.35 505.79 0.43 c p3
349.50 505.79 0.43 c p3
349.64 506.28 0.43 c p3
349.79 504.67 0.43 c p3
349.93 505.63 0.43 c p3
350.08 505.47 0.43 c p3
350.23 504.99 0.43 c p3
350.37 505.95 0.43 c p3
350.52 505.63 0.43 c p3
350.66 505.31 0.43 c p3
350.81 505.47 0.43 c p3
350.95 505.63 0.43 c p3
351.10 504.51 0.43 c p3
351.24 505.95 0.43 c p3
351.39 505.63 0.43 c p3
351.54 505.31 0.43 c p3
351.68 505.31 0.43 c p3
351.83 504.67 0.43 c p3
351.97 506.44 0.43 c p3
352.12 505.63 0.43 c p3
352.26 506.44 0.43 c p3
352.41 505.15 0.43 c p3
352.55 505.47 0.43 c p3
352.70 506.11 0.43 c p3
352.85 506.44 0.43 c p3
352.99 505.63 0.43 c p3
353.14 505.47 0.43 c p3
353.28 505.31 0.43 c p3
353.43 505.79 0.43 c p3
353.57 504.99 0.43 c p3
353.72 504.51 0.43 c p3
353.86 505.95 0.43 c p3
354.01 505.31 0.43 c p3
354.16 506.60 0.43 c p3
354.30 505.63 0.43 c p3
354.45 505.95 0.43 c p3
354.59 505.95 0.43 c p3
354.74 504.99 0.43 c p3
354.88 506.60 0.43 c p3
355.03 504.99 0.43 c p3
355.18 505.47 0.43 c p3
355.32 506.44 0.43 c p3
355.47 505.15 0.43 c p3
355.61 505.63 0.43 c p3
355.76 505.63 0.43 c p3
355.90 504.99 0.43 c p3
356.05 504.99 0.43 c p3
356.19 506.28 0.43 c p3
356.34 506.11 0.43 c p3
356.49 505.47 0.43 c p3
356.63 505.79 0.43 c p3
356.78 506.76 0.43 c p3
356.92 506.11 0.43 c p3
357.07 506.11 0.43 c p3
357.21 507.05 0.43 c p3
357.36 505.31 0.43 c p3
357.50 505.95 0.43 c p3
357.65 506.60 0.43 c p3
357.80 505.79 0.43 c p3
357.94 505.95 0.43 c p3
358.09 505.79 0.43 c p3
358.23 505.47 0.43 c p3
358.38 505.79 0.43 c p3
358.52 505.63 0.43 c p3
358.67 505.47 0.43 c p3
358.81 505.31 0.43 c p3
358.96 504.35 0.43 c p3
359.11 506.44 0.43 c p3
359.25 505.63 0.43 c p3
359.40 504.83 0.43 c p3
359.54 505.47 0.43 c p3
359.69 505.31 0.43 c p3
359.83 505.31 0.43 c p3
359.98 505.15 0.43 c p3
360.13 505.15 0.43 c p3
360.27 506.28 0.43 c p3
360.42 505.31 0.43 c p3
360.56 505.95 0.43 c p3
360.71 505.47 0.43 c p3
360.85 505.15 0.43 c p3
361.00 505.79 0.43 c p3
361.14 506.11 0.43 c p3
361.29 506.60 0.43 c p3
361.44 505.79 0.43 c p3
361.58 506.44 0.43 c p3
361.73 505.47 0.43 c p3
361.87 504.99 0.43 c p3
362.02 505.95 0.43 c p3
362.16 505.47 0.43 c p3
362.31 504.83 0.43 c p3
362.45 505.79 0.43 c p3
362.60 505.79 0.43 c p3
362.75 505.31 0.43 c p3
362.89 506.28 0.43 c p3
363.04 506.89 0.43 c p3
363.18 505.47 0.43 c p3
363.33 505.47 0.43 c p3
363.47 505.79 0.43 c p3
363.62 505.63 0.43 c p3
363.76 505.95 0.43 c p3
363.91 504.83 0.43 c p3
364.06 505.95 0.43 c p3
364.20 505.47 0.43 c p3
364.35 504.83 0.43 c p3
364.49 506.28 0.43 c p3
364.64 505.79 0.43 c p3
364.78 506.11 0.43 c p3
364.93 506.28 0.43 c p3
365.08 505.47 0.43 c p3
365.22 505.47 0.43 c p3
365.37 505.47 0.43 c p3
365.51 505.31 0.43 c p3
365.66 506.11 0.43 c p3
365.80 507.05 0.43 c p3
365.95 506.89 0.43 c p3
366.09 506.44 0.43 c p3
366.24 505.47 0.43 c p3
366.39 506.28 0.43 c p3
366.53 506.76 0.43 c p3
366.68 506.44 0.43 c p3
366.82 505.63 0.43 c p3
366.97 506.44 0.43 c p3
367.11 505.95 0.43 c p3
367.26 504.99 0.43 c p3
367.40 506.28 0.43 c p3
367.55 506.89 0.43 c p3
367.70 505.95 0.43 c p3
367.84 505.95 0.43 c p3
367.99 505.63 0.43 c p3
368.13 505.31 0.43 c p3
368.28 505.79 0.43 c p3
368.42 505.63 0.43 c p3
368.57 505.95 0.43 c p3
368.71 505.79 0.43 c p3
368.86 506.28 0.43 c p3
369.01 505.15 0.43 c p3
369.15 505.63 0.43 c p3
369.30 504.35 0.43 c p3
369.44 506.60 0.43 c p3
369.59 505.79 0.43 c p3
369.73 505.63 0.43 c p3
369.88 505.63 0.43 c p3
370.03 505.15 0.43 c p3
370.17 505.79 0.43 c p3
370.32 506.28 0.43 c p3
370.46 505.95 0.43 c p3
370.61 505.63 0.43 c p3
370.75 505.15 0.43 c p3
370.90 506.60 0.43 c p3
371.04 505.95 0.43 c p3
371.19 504.83 0.43 c p3
371.34 505.31 0.43 c p3
371.48 504.83 0.43 c p3
371.63 505.15 0.43 c p3
371.77 505.79 0.43 c p3
371.92 505.31 0.43 c p3
372.06 504.83 0.43 c p3
372.21 505.95 0.43 c p3
372.35 504.19 0.43 c p3
372.50 505.15 0.43 c p3
372.65 506.11 0.43 c p3
372.79 506.60 0.43 c p3
372.94 505.79 0.43 c p3
373.08 506.11 0.43 c p3
373.23 506.11 0.43 c p3
373.37 505.15 0.43 c p3
373.52 505.15 0.43 c p3
373.66 506.44 0.43 c p3
373.81 505.79 0.43 c p3
373.96 505.31 0.43 c p3
374.10 505.31 0.43 c p3
374.25 505.95 0.43 c p3
374.39 506.44 0.43 c p3
374.54 505.63 0.43 c p3
374.68 504.03 0.43 c p3
374.83 504.67 0.43 c p3
374.98 506.28 0.43 c p3
375.12 505.15 0.43 c p3
375.27 505.79 0.43 c p3
375.41 504.99 0.43 c p3
375.56 505.63 0.43 c p3
375.70 505.15 0.43 c p3
375.85 505.63 0.43 c p3
375.99 505.31 0.43 c p3
376.14 505.95 0.43 c p3
376.29 506.11 0.43 c p3
376.43 505.15 0.43 c p3
376.58 505.31 0.43 c p3
376.72 505.63 0.43 c p3
376.87 505.15 0.43 c p3
377.01 504.19 0.43 c p3
377.16 507.37 0.43 c p3
377.30 504.99 0.43 c p3
377.45 504.51 0.43 c p3
377.60 506.11 0.43 c p3
377.74 506.28 0.43 c p3
377.89 505.47 0.43 c p3
378.03 506.28 0.43 c p3
378.18 504.99 0.43 c p3
378.32 506.76 0.43 c p3
378.47 505.31 0.43 c p3
378.61 505.79 0.43 c p3
378.76 505.63 0.43 c p3
378.91 505.95 0.43 c p3
379.05 506.28 0.43 c p3
379.20 506.76 0.43 c p3
379.34 505.47 0.43 c p3
379.49 505.47 0.43 c p3
379.63 507.21 0.43 c p3
379.78 505.63 0.43 c p3
379.93 505.15 0.43 c p3
380.07 505.63 0.43 c p3
380.22 505.79 0.43 c p3
380.36 505.31 0.43 c p3
380.51 505.79 0.43 c p3
380.65 505.31 0.43 c p3
380.80 505.47 0.43 c p3
380.94 505.47 0.43 c p3
381.09 504.99 0.43 c p3
381.24 506.28 0.43 c p3
381.38 505.63 0.43 c p3
381.53 504.99 0.43 c p3
381.67 506.11 0.43 c p3
381.82 505.79 0.43 c p3
381.96 506.11 0.43 c p3
382.11 505.63 0.43 c p3
382.25 505.47 0.43 c p3
382.40 506.28 0.43 c p3
0.00 0.00 432.00 576.00 cl
0 0 0 srgb
0.75 setlinewidth
[] 0 setdash
1 setlinecap
1 setlinejoin
10.00 setmiterlimit
np
236.96 345.60 m
128.46 0 l
o
np
236.96 345.60 m
0 -5.76 l
o
np
279.78 345.60 m
0 -5.76 l
o
np
322.60 345.60 m
0 -5.76 l
o
np
365.42 345.60 m
0 -5.76 l
o
/Font1 findfont 10 s
236.96 329.47 (0) .5 0 t
279.78 329.47 (10000) .5 0 t
322.60 329.47 (20000) .5 0 t
365.42 329.47 (30000) .5 0 t
np
216.00 352.00 m
0 131.48 l
o
np
216.00 352.00 m
-5.76 0 l
o
np
216.00 395.83 m
-5.76 0 l
o
np
216.00 439.66 m
-5.76 0 l
o
np
216.00 483.48 m
-5.76 0 l
o
209.09 348.41 (0.0) 1 0 t
209.09 392.24 (0.1) 1 0 t
209.09 436.07 (0.2) 1 0 t
209.09 479.89 (0.3) 1 0 t
np
216.00 345.60 m
172.80 0 l
0 172.80 l
-172.80 0 l
0 -172.80 l
o
0.00 0.00 432.00 576.00 cl
/Font1 findfont 10 s
0 0 0 srgb
302.40 313.34 (Time / ms \(total\)) .5 0 t
190.66 432.00 (U / V) .5 90 t
216.00 345.60 388.80 518.40 cl
0 0 0 srgb
0.38 setlinewidth
[ 1.13 1.88] 0 setdash
1 setlinecap
1 setlinejoin
10.00 setmiterlimit
np
222.40 345.60 m
0 172.80 l
o
np
235.07 345.60 m
0 172.80 l
o
np
239.14 345.60 m
0 172.80 l
o
np
354.88 345.60 m
0 172.80 l
o
86.40 57.60 388.80 288.00 cl
1 0 0 srgb
1.50 setlinewidth
[] 0 setdash
1 setlinecap
1 setlinejoin
10.00 setmiterlimit
np
97.60 279.47 m
1.41 -6.95 l
1.40 -6.70 l
1.41 -6.45 l
1.41 -6.22 l
1.41 -5.99 l
1.40 -5.77 l
1.41 -5.56 l
1.41 -5.36 l
1.40 -5.17 l
1.41 -4.98 l
1.41 -4.79 l
1.40 -4.62 l
1.41 -4.46 l
1.41 -4.29 l
1.41 -4.14 l
1.40 -3.98 l
1.41 -3.84 l
1.41 -3.70 l
1.40 -3.57 l
1.41 -3.43 l
1.41 -3.31 l
1.40 -3.20 l
1.41 -3.07 l
1.41 -2.96 l
1.41 -2.86 l
1.40 -2.75 l
1.41 -2.65 l
1.41 -2.55 l
1.40 -2.47 l
1.41 -2.37 l
1.41 -2.28 l
1.41 -2.21 l
1.40 -2.12 l
1.41 -2.04 l
1.41 -1.97 l
1.40 -1.90 l
1.41 -1.83 l
1.41 -1.77 l
1.40 -1.70 l
1.41 -1.63 l
1.41 -1.58 l
1.41 -1.52 l
1.40 -1.47 l
1.41 -1.41 l
1.41 -1.36 l
1.40 -1.31 l
1.41 -1.26 l
1.41 -1.22 l
1.40 -1.17 l
1.41 -1.14 l
1.41 -1.08 l
1.41 -1.05 l
1.40 -1.02 l
1.41 -0.97 l
1.41 -0.94 l
1.40 -0.90 l
1.41 -0.88 l
1.41 -0.84 l
1.41 -0.81 l
1.40 -0.78 l
1.41 -0.75 l
1.41 -0.72 l
1.40 -0.70 l
1.41 -0.67 l
1.41 -0.65 l
1.40 -0.63 l
1.41 -0.60 l
1.41 -0.58 l
1.41 -0.56 l
1.40 -0.54 l
1.41 -0.52 l
1.41 -0.50 l
1.40 -0.48 l
1.41 -0.46 l
1.41 -0.45 l
1.40 -0.43 l
1.41 -0.42 l
1.41 -0.40 l
1.41 -0.38 l
1.40 -0.38 l
1.41 -0.35 l
1.41 -0.35 l
1.40 -0.33 l
1.41 -0.32 l
1.41 -0.31 l
1.41 -0.30 l
1.40 -0.29 l
1.41 -0.27 l
1.41 -0.27 l
1.40 -0.26 l
1.41 -0.24 l
1.41 -0.24 l
1.40 -0.23 l
1.41 -0.22 l
1.41 -0.22 l
1.41 -0.20 l
1.40 -0.20 l
1.41 -0.19 l
1.41 -0.19 l
238.30 93.18 lineto
1.41 -0.17 l
1.41 -0.17 l
1.40 -0.16 l
1.41 -0.15 l
1.41 -0.15 l
1.41 -0.14 l
1.40 -0.14 l
1.41 -0.13 l
1.41 -0.12 l
1.40 -0.13 l
1.41 -0.11 l
1.41 -0.12 l
1.40 -0.11 l
1.41 -0.10 l
1.41 -0.10 l
1.41 -0.10 l
1.40 -0.10 l
1.41 -0.09 l
1.41 -0.09 l
1.40 -0.08 l
1.41 -0.08 l
1.41 -0.08 l
1.41 -0.07 l
1.40 -0.08 l
1.41 -0.07 l
1.41 -0.07 l
1.40 -0.06 l
1.41 -0.06 l
1.41 -0.06 l
1.40 -0.06 l
1.41 -0.06 l
1.41 -0.05 l
1.41 -0.05 l
1.40 -0.06 l
1.41 -0.04 l
1.41 -0.05 l
1.40 -0.05 l
1.41 -0.04 l
1.41 -0.04 l
1.40 -0.04 l
1.41 -0.04 l
1.41 -0.04 l
1.41 -0.03 l
1.40 -0.04 l
1.41 -0.03 l
1.41 -0.03 l
1.40 -0.03 l
1.41 -0.03 l
1.41 -0.03 l
1.41 -0.03 l
1.40 -0.03 l
1.41 -0.02 l
1.41 -0.03 l
1.40 -0.02 l
1.41 -0.03 l
1.41 -0.02 l
1.40 -0.02 l
1.41 -0.02 l
1.41 -0.02 l
1.41 -0.02 l
1.40 -0.02 l
1.41 -0.01 l
1.41 -0.02 l
1.40 -0.02 l
1.41 -0.01 l
1.41 -0.02 l
1.40 -0.01 l
1.41 -0.02 l
1.41 -0.01 l
1.41 -0.02 l
1.40 -0.01 l
1.41 -0.01 l
1.41 -0.01 l
1.40 -0.01 l
1.41 -0.02 l
1.41 -0.01 l
1.41 -0.01 l
1.40 -0.01 l
1.41 -0.01 l
1.41 0 l
1.40 -0.01 l
1.41 -0.01 l
1.41 -0.01 l
1.40 -0.01 l
1.41 -0.01 l
1.41 0 l
1.41 -0.01 l
1.40 -0.01 l
1.41 0 l
1.41 -0.01 l
1.40 -0.01 l
1.41 0 l
1.41 -0.01 l
1.40 0 l
1.41 -0.01 l
1.41 0 l
1.41 -0.01 l
1.40 0 l
1.41 -0.01 l
o
0.00 0.00 432.00 576.00 cl
0 0 0 srgb
0.75 setlinewidth
[] 0 setdash
1 setlinecap
1 setlinejoin
10.00 setmiterlimit
np
97.60 57.60 m
288.24 0 l
o
np
97.60 57.60 m
0 -5.76 l
o
np
138.78 57.60 m
0 -5.76 l
o
np
179.95 57.60 m
0 -5.76 l
o
np
221.13 57.60 m
0 -5.76 l
o
np
262.31 57.60 m
0 -5.76 l
o
np
303.48 57.60 m
0 -5.76 l
o
np
344.66 57.60 m
0 -5.76 l
o
np
385.84 57.60 m
0 -5.76 l
o
/Font1 findfont 10 s
97.60 41.47 (0) .5 0 t
138.78 41.47 (5000) .5 0 t
179.95 41.47 (10000) .5 0 t
221.13 41.47 (15000) .5 0 t
262.31 41.47 (20000) .5 0 t
303.48 41.47 (25000) .5 0 t
344.66 41.47 (30000) .5 0 t
385.84 41.47 (35000) .5 0 t
np
86.40 66.13 m
0 182.71 l
o
np
86.40 66.13 m
-5.76 0 l
o
np
86.40 127.03 m
-5.76 0 l
o
np
86.40 187.93 m
-5.76 0 l
o
np
86.40 248.84 m
-5.76 0 l
o
79.49 62.54 (0.00) 1 0 t
79.49 123.44 (0.05) 1 0 t
79.49 184.34 (0.10) 1 0 t
79.49 245.25 (0.15) 1 0 t
np
86.40 57.60 m
302.40 0 l
0 230.40 l
-302.40 0 l
0 -230.40 l
o
0.00 0.00 432.00 576.00 cl
/Font1 findfont 10 s
0 0 0 srgb
237.60 13.82 (Time / ms \(after pulse\)) .5 0 t
49.54 172.80 (Absorbance A) .5 90 t
86.40 57.60 388.80 288.00 cl
/bg { 1 1 1 srgb } def
0 0 0 srgb
0.75 setlinewidth
[] 0 setdash
1 setlinecap
1 setlinejoin
10.00 setmiterlimit
102.08 280.49 0.65 c p3
102.36 271.71 0.65 c p3
102.64 273.29 0.65 c p3
102.92 266.32 0.65 c p3
103.20 272.50 0.65 c p3
103.48 269.47 0.65 c p3
103.76 266.32 0.65 c p3
104.04 263.98 0.65 c p3
104.32 263.98 0.65 c p3
104.60 262.42 0.65 c p3
104.88 256.23 0.65 c p3
105.16 257.77 0.65 c p3
105.44 260.87 0.65 c p3
105.72 256.23 0.65 c p3
106.00 253.93 0.65 c p3
106.28 250.88 0.65 c p3
106.56 247.21 0.65 c p3
106.84 244.95 0.65 c p3
107.12 244.95 0.65 c p3
107.40 244.95 0.65 c p3
107.68 240.45 0.65 c p3
107.96 239.70 0.65 c p3
108.24 238.96 0.65 c p3
108.52 240.45 0.65 c p3
108.80 234.51 0.65 c p3
109.08 235.99 0.65 c p3
109.36 237.47 0.65 c p3
109.64 234.51 0.65 c p3
109.92 234.51 0.65 c p3
110.20 232.30 0.65 c p3
110.48 226.57 0.65 c p3
110.76 228.76 0.65 c p3
111.04 222.23 0.65 c p3
111.32 222.95 0.65 c p3
111.60 221.51 0.65 c p3
111.88 217.21 0.65 c p3
112.16 221.51 0.65 c p3
112.44 219.35 0.65 c p3
112.72 217.92 0.65 c p3
113.00 217.92 0.65 c p3
113.28 217.21 0.65 c p3
113.56 210.81 0.65 c p3
113.84 215.78 0.65 c p3
114.12 207.41 0.65 c p3
114.40 210.81 0.65 c p3
114.68 210.81 0.65 c p3
114.96 203.92 0.65 c p3
115.24 205.31 0.65 c p3
115.52 206.71 0.65 c p3
115.80 201.83 0.65 c p3
116.08 204.62 0.65 c p3
116.36 202.53 0.65 c p3
116.64 200.45 0.65 c p3
116.92 199.76 0.65 c p3
117.20 202.53 0.65 c p3
117.48 201.14 0.65 c p3
117.76 201.83 0.65 c p3
118.04 190.96 0.65 c p3
118.32 192.89 0.65 c p3
118.60 193.57 0.65 c p3
118.88 193.57 0.65 c p3
119.16 189.60 0.65 c p3
119.44 187.57 0.65 c p3
119.72 186.90 0.65 c p3
120.00 192.21 0.65 c p3
120.28 189.60 0.65 c p3
120.56 186.22 0.65 c p3
120.84 184.20 0.65 c p3
121.12 181.53 0.65 c p3
121.40 183.53 0.65 c p3
121.68 182.86 0.65 c p3
121.96 178.86 0.65 c p3
122.24 178.20 0.65 c p3
122.52 179.53 0.65 c p3
122.80 178.86 0.65 c p3
123.08 175.55 0.65 c p3
123.36 178.86 0.65 c p3
123.64 175.55 0.65 c p3
123.92 172.37 0.65 c p3
124.20 176.87 0.65 c p3
124.48 172.37 0.65 c p3
124.76 170.40 0.65 c p3
125.04 171.06 0.65 c p3
125.32 167.14 0.65 c p3
125.60 169.10 0.65 c p3
125.88 165.20 0.65 c p3
126.16 169.75 0.65 c p3
126.44 167.79 0.65 c p3
126.72 164.55 0.65 c p3
127.00 169.10 0.65 c p3
127.28 165.85 0.65 c p3
127.56 166.50 0.65 c p3
127.84 162.62 0.65 c p3
128.12 161.33 0.65 c p3
128.40 162.62 0.65 c p3
128.68 162.62 0.65 c p3
128.96 160.69 0.65 c p3
129.24 161.33 0.65 c p3
129.52 158.76 0.65 c p3
129.80 160.69 0.65 c p3
130.08 160.69 0.65 c p3
130.36 160.04 0.65 c p3
130.64 157.49 0.65 c p3
130.92 158.12 0.65 c p3
131.20 155.05 0.65 c p3
131.48 151.88 0.65 c p3
131.76 156.85 0.65 c p3
132.04 149.99 0.65 c p3
132.32 154.41 0.65 c p3
132.60 155.68 0.65 c p3
132.88 156.85 0.65 c p3
133.16 153.78 0.65 c p3
133.44 155.05 0.65 c p3
133.72 151.88 0.65 c p3
134.00 153.14 0.65 c p3
134.28 152.51 0.65 c p3
134.56 149.99 0.65 c p3
134.84 152.51 0.65 c p3
135.12 149.36 0.65 c p3
135.40 146.85 0.65 c p3
135.68 149.36 0.65 c p3
135.96 144.98 0.65 c p3
136.24 146.23 0.65 c p3
136.52 148.11 0.65 c p3
136.80 143.73 0.65 c p3
137.08 147.48 0.65 c p3
137.36 147.48 0.65 c p3
137.64 143.73 0.65 c p3
137.92 148.73 0.65 c p3
138.20 144.98 0.65 c p3
138.48 140.02 0.65 c p3
138.76 135.82 0.65 c p3
139.04 144.36 0.65 c p3
139.32 143.11 0.65 c p3
139.60 143.11 0.65 c p3
139.88 140.64 0.65 c p3
140.16 138.89 0.65 c p3
140.44 138.89 0.65 c p3
140.72 141.25 0.65 c p3
141.00 139.50 0.65 c p3
141.28 140.02 0.65 c p3
141.56 139.50 0.65 c p3
141.84 139.50 0.65 c p3
142.12 138.89 0.65 c p3
142.40 139.50 0.65 c p3
142.68 136.43 0.65 c p3
142.96 138.27 0.65 c p3
143.24 137.04 0.65 c p3
143.52 134.59 0.65 c p3
143.80 133.37 0.65 c p3
144.08 139.50 0.65 c p3
144.36 137.66 0.65 c p3
144.64 134.59 0.65 c p3
144.92 143.11 0.65 c p3
145.20 132.76 0.65 c p3
145.48 132.15 0.65 c p3
145.76 135.20 0.65 c p3
146.04 134.59 0.65 c p3
146.32 135.82 0.65 c p3
146.60 133.37 0.65 c p3
146.88 133.37 0.65 c p3
147.16 132.15 0.65 c p3
147.44 134.59 0.65 c p3
147.72 133.37 0.65 c p3
148.00 132.15 0.65 c p3
148.28 130.94 0.65 c p3
148.56 132.76 0.65 c p3
148.84 127.31 0.65 c p3
149.12 126.71 0.65 c p3
149.40 129.73 0.65 c p3
149.68 131.55 0.65 c p3
149.96 130.33 0.65 c p3
150.24 130.94 0.65 c p3
150.52 130.94 0.65 c p3
150.80 129.73 0.65 c p3
151.08 129.12 0.65 c p3
151.36 132.15 0.65 c p3
151.64 130.33 0.65 c p3
151.92 133.98 0.65 c p3
152.20 132.76 0.65 c p3
152.48 128.52 0.65 c p3
152.76 130.94 0.65 c p3
153.04 129.12 0.65 c p3
153.32 127.31 0.65 c p3
153.60 134.59 0.65 c p3
153.88 132.15 0.65 c p3
154.16 127.91 0.65 c p3
154.44 127.91 0.65 c p3
154.72 128.52 0.65 c p3
155.00 129.12 0.65 c p3
155.28 130.94 0.65 c p3
155.56 126.71 0.65 c p3
155.84 129.73 0.65 c p3
156.12 129.12 0.65 c p3
156.40 132.76 0.65 c p3
156.68 129.73 0.65 c p3
156.96 130.33 0.65 c p3
157.24 126.71 0.65 c p3
157.52 130.33 0.65 c p3
157.80 132.76 0.65 c p3
158.08 129.73 0.65 c p3
158.36 131.55 0.65 c p3
158.64 127.31 0.65 c p3
158.92 126.71 0.65 c p3
159.20 129.73 0.65 c p3
159.48 132.76 0.65 c p3
159.76 127.91 0.65 c p3
160.04 129.73 0.65 c p3
160.32 127.31 0.65 c p3
160.60 127.31 0.65 c p3
160.88 127.91 0.65 c p3
161.16 131.55 0.65 c p3
161.44 126.71 0.65 c p3
161.72 127.91 0.65 c p3
162.00 129.73 0.65 c p3
162.28 127.31 0.65 c p3
162.56 127.31 0.65 c p3
162.84 130.33 0.65 c p3
163.12 130.94 0.65 c p3
163.40 127.91 0.65 c p3
163.68 123.21 0.65 c p3
163.96 130.33 0.65 c p3
164.24 127.91 0.65 c p3
164.52 129.73 0.65 c p3
164.80 126.71 0.65 c p3
165.08 126.71 0.65 c p3
165.36 126.71 0.65 c p3
165.64 127.31 0.65 c p3
165.92 124.90 0.65 c p3
166.20 127.31 0.65 c p3
166.48 123.71 0.65 c p3
166.76 125.50 0.65 c p3
167.04 129.73 0.65 c p3
167.32 138.89 0.65 c p3
167.60 126.11 0.65 c p3
167.88 119.04 0.65 c p3
168.16 123.71 0.65 c p3
168.44 129.73 0.65 c p3
168.72 126.11 0.65 c p3
169.00 123.71 0.65 c p3
169.28 124.30 0.65 c p3
169.56 120.82 0.65 c p3
169.84 121.42 0.65 c p3
170.12 123.21 0.65 c p3
170.40 123.21 0.65 c p3
170.68 123.21 0.65 c p3
170.96 121.42 0.65 c p3
171.24 124.30 0.65 c p3
171.52 122.01 0.65 c p3
171.80 120.22 0.65 c p3
172.08 123.71 0.65 c p3
172.36 120.82 0.65 c p3
172.64 121.42 0.65 c p3
172.92 122.01 0.65 c p3
173.20 121.42 0.65 c p3
173.48 121.42 0.65 c p3
173.76 122.01 0.65 c p3
174.04 121.42 0.65 c p3
174.32 124.30 0.65 c p3
174.60 120.82 0.65 c p3
174.88 122.01 0.65 c p3
175.16 124.30 0.65 c p3
175.44 123.21 0.65 c p3
175.72 119.04 0.65 c p3
176.00 122.01 0.65 c p3
176.28 121.42 0.65 c p3
176.56 122.01 0.65 c p3
176.84 119.04 0.65 c p3
177.12 119.04 0.65 c p3
177.40 120.82 0.65 c p3
177.68 119.63 0.65 c p3
177.96 120.22 0.65 c p3
178.24 117.26 0.65 c p3
178.52 119.04 0.65 c p3
178.80 119.63 0.65 c p3
179.08 116.08 0.65 c p3
179.36 121.42 0.65 c p3
179.64 119.63 0.65 c p3
179.92 119.63 0.65 c p3
180.20 116.08 0.65 c p3
180.48 119.63 0.65 c p3
180.76 115.49 0.65 c p3
181.04 120.22 0.65 c p3
181.32 122.61 0.65 c p3
181.60 118.44 0.65 c p3
181.88 118.44 0.65 c p3
182.16 115.49 0.65 c p3
182.44 119.63 0.65 c p3
182.72 119.63 0.65 c p3
183.00 117.26 0.65 c p3
183.28 120.22 0.65 c p3
183.56 119.04 0.65 c p3
183.84 115.49 0.65 c p3
184.12 116.08 0.65 c p3
184.40 117.26 0.65 c p3
184.68 110.79 0.65 c p3
184.96 114.90 0.65 c p3
185.24 116.67 0.65 c p3
185.52 115.49 0.65 c p3
185.80 116.67 0.65 c p3
186.08 116.08 0.65 c p3
186.36 117.26 0.65 c p3
186.64 117.85 0.65 c p3
186.92 117.85 0.65 c p3
187.20 117.26 0.65 c p3
187.48 116.67 0.65 c p3
187.76 113.72 0.65 c p3
188.04 116.08 0.65 c p3
188.32 113.14 0.65 c p3
188.60 114.90 0.65 c p3
188.88 114.90 0.65 c p3
189.16 114.90 0.65 c p3
189.44 114.90 0.65 c p3
189.72 117.26 0.65 c p3
190.00 116.08 0.65 c p3
190.28 114.31 0.65 c p3
190.56 114.90 0.65 c p3
190.84 116.67 0.65 c p3
191.12 112.55 0.65 c p3
191.40 114.90 0.65 c p3
191.68 110.21 0.65 c p3
191.96 112.55 0.65 c p3
192.24 114.90 0.65 c p3
192.52 110.79 0.65 c p3
192.80 113.72 0.65 c p3
193.08 113.14 0.65 c p3
193.36 116.67 0.65 c p3
193.64 114.31 0.65 c p3
193.92 110.21 0.65 c p3
194.20 109.63 0.65 c p3
194.48 111.38 0.65 c p3
194.76 110.79 0.65 c p3
195.04 110.79 0.65 c p3
195.32 114.90 0.65 c p3
195.60 109.63 0.65 c p3
195.88 113.14 0.65 c p3
196.16 109.63 0.65 c p3
196.44 111.96 0.65 c p3
196.72 108.46 0.65 c p3
197.00 106.82 0.65 c p3
197.28 108.46 0.65 c p3
197.56 107.88 0.65 c p3
197.84 108.46 0.65 c p3
198.12 107.88 0.65 c p3
198.40 108.46 0.65 c p3
198.68 110.79 0.65 c p3
198.96 108.46 0.65 c p3
199.24 110.21 0.65 c p3
199.52 106.82 0.65 c p3
199.80 106.24 0.65 c p3
200.08 109.04 0.65 c p3
200.36 107.88 0.65 c p3
200.64 106.82 0.65 c p3
200.92 106.82 0.65 c p3
201.20 110.21 0.65 c p3
201.48 105.08 0.65 c p3
201.76 103.93 0.65 c p3
202.04 105.08 0.65 c p3
202.32 107.40 0.65 c p3
202.60 104.50 0.65 c p3
202.88 104.50 0.65 c p3
203.16 107.88 0.65 c p3
203.44 105.66 0.65 c p3
203.72 106.82 0.65 c p3
204.00 109.04 0.65 c p3
204.28 106.24 0.65 c p3
204.56 104.50 0.65 c p3
204.84 106.82 0.65 c p3
205.12 105.66 0.65 c p3
205.40 102.77 0.65 c p3
205.68 101.05 0.65 c p3
205.96 103.93 0.65 c p3
206.24 103.93 0.65 c p3
206.52 107.88 0.65 c p3
206.80 101.62 0.65 c p3
207.08 102.77 0.65 c p3
207.36 108.46 0.65 c p3
207.64 105.66 0.65 c p3
207.92 106.82 0.65 c p3
208.20 102.77 0.65 c p3
208.48 103.93 0.65 c p3
208.76 103.35 0.65 c p3
209.04 105.08 0.65 c p3
209.32 105.08 0.65 c p3
209.60 102.20 0.65 c p3
209.88 102.20 0.65 c p3
210.16 101.62 0.65 c p3
210.44 105.08 0.65 c p3
210.72 105.08 0.65 c p3
211.00 100.48 0.65 c p3
211.28 102.20 0.65 c p3
211.56 103.35 0.65 c p3
211.84 105.66 0.65 c p3
212.12 99.33 0.65 c p3
212.40 101.62 0.65 c p3
212.68 103.35 0.65 c p3
212.96 105.08 0.65 c p3
213.24 101.62 0.65 c p3
213.52 101.05 0.65 c p3
213.80 101.05 0.65 c p3
214.08 98.76 0.65 c p3
214.36 104.50 0.65 c p3
214.64 101.62 0.65 c p3
214.92 103.93 0.65 c p3
215.20 102.77 0.65 c p3
215.48 101.05 0.65 c p3
215.76 101.05 0.65 c p3
216.04 97.62 0.65 c p3
216.32 98.76 0.65 c p3
216.60 101.05 0.65 c p3
216.88 102.20 0.65 c p3
217.16 103.93 0.65 c p3
217.44 102.77 0.65 c p3
217.72 100.48 0.65 c p3
218.00 97.62 0.65 c p3
218.28 102.20 0.65 c p3
218.56 98.19 0.65 c p3
218.84 100.48 0.65 c p3
219.12 101.62 0.65 c p3
219.40 101.05 0.65 c p3
219.68 99.91 0.65 c p3
219.96 101.05 0.65 c p3
220.24 100.48 0.65 c p3
220.52 99.91 0.65 c p3
220.80 102.20 0.65 c p3
221.08 100.48 0.65 c p3
221.36 101.62 0.65 c p3
221.64 98.19 0.65 c p3
221.92 96.48 0.65 c p3
222.20 99.91 0.65 c p3
222.48 98.76 0.65 c p3
222.76 99.91 0.65 c p3
223.04 100.48 0.65 c p3
223.32 101.62 0.65 c p3
223.60 101.05 0.65 c p3
223.88 100.48 0.65 c p3
224.16 95.91 0.65 c p3
224.44 99.33 0.65 c p3
224.72 99.91 0.65 c p3
225.00 96.48 0.65 c p3
225.28 97.62 0.65 c p3
225.56 100.48 0.65 c p3
225.84 97.62 0.65 c p3
226.12 96.48 0.65 c p3
226.40 98.76 0.65 c p3
226.68 97.62 0.65 c p3
226.96 97.05 0.65 c p3
227.24 98.19 0.65 c p3
227.52 100.48 0.65 c p3
227.80 95.91 0.65 c p3
228.08 99.33 0.65 c p3
228.36 98.76 0.65 c p3
228.64 99.91 0.65 c p3
228.92 99.33 0.65 c p3
229.20 97.62 0.65 c p3
229.48 99.33 0.65 c p3
229.76 96.48 0.65 c p3
230.04 98.19 0.65 c p3
230.32 101.05 0.65 c p3
230.60 99.91 0.65 c p3
230.88 99.91 0.65 c p3
231.16 101.62 0.65 c p3
231.44 94.78 0.65 c p3
231.72 97.62 0.65 c p3
232.00 96.48 0.65 c p3
232.28 94.78 0.65 c p3
232.56 94.21 0.65 c p3
232.84 96.48 0.65 c p3
233.12 98.19 0.65 c p3
233.40 96.48 0.65 c p3
233.68 96.48 0.65 c p3
233.96 94.21 0.65 c p3
234.24 98.76 0.65 c p3
234.52 92.05 0.65 c p3
234.80 95.35 0.65 c p3
235.08 95.35 0.65 c p3
235.36 95.35 0.65 c p3
235.64 98.19 0.65 c p3
235.92 93.08 0.65 c p3
236.20 94.78 0.65 c p3
236.48 97.05 0.65 c p3
236.76 95.35 0.65 c p3
237.04 95.35 0.65 c p3
237.32 93.65 0.65 c p3
237.60 97.05 0.65 c p3
237.88 93.08 0.65 c p3
238.16 95.35 0.65 c p3
238.44 94.78 0.65 c p3
238.72 93.65 0.65 c p3
239.00 92.52 0.65 c p3
239.28 93.08 0.65 c p3
239.56 94.78 0.65 c p3
239.84 94.78 0.65 c p3
240.12 93.65 0.65 c p3
240.40 94.78 0.65 c p3
240.68 95.91 0.65 c p3
240.96 93.08 0.65 c p3
241.24 95.35 0.65 c p3
241.52 97.62 0.65 c p3
241.80 93.08 0.65 c p3
242.08 96.48 0.65 c p3
242.36 91.48 0.65 c p3
242.64 97.62 0.65 c p3
242.92 93.65 0.65 c p3
243.20 97.62 0.65 c p3
243.48 97.05 0.65 c p3
243.76 92.52 0.65 c p3
244.04 93.65 0.65 c p3
244.32 92.52 0.65 c p3
244.60 94.21 0.65 c p3
244.88 96.48 0.65 c p3
245.16 93.65 0.65 c p3
245.44 95.91 0.65 c p3
245.72 96.48 0.65 c p3
246.00 94.21 0.65 c p3
246.28 97.62 0.65 c p3
246.56 89.24 0.65 c p3
246.84 95.91 0.65 c p3
247.12 91.48 0.65 c p3
247.40 94.78 0.65 c p3
247.68 93.08 0.65 c p3
247.96 93.08 0.65 c p3
248.24 95.91 0.65 c p3
248.52 95.91 0.65 c p3
248.80 95.35 0.65 c p3
249.08 95.35 0.65 c p3
249.36 90.92 0.65 c p3
249.64 93.65 0.65 c p3
249.92 94.78 0.65 c p3
250.20 92.52 0.65 c p3
250.48 92.05 0.65 c p3
250.76 94.21 0.65 c p3
251.04 92.05 0.65 c p3
251.32 91.48 0.65 c p3
251.60 93.08 0.65 c p3
251.88 91.48 0.65 c p3
252.16 92.05 0.65 c p3
252.44 90.92 0.65 c p3
252.72 91.48 0.65 c p3
253.00 92.52 0.65 c p3
253.28 89.80 0.65 c p3
253.56 91.48 0.65 c p3
253.84 92.05 0.65 c p3
254.12 89.80 0.65 c p3
254.40 92.05 0.65 c p3
254.68 92.05 0.65 c p3
254.96 91.48 0.65 c p3
255.24 91.48 0.65 c p3
255.52 93.65 0.65 c p3
255.80 90.36 0.65 c p3
256.08 87.00 0.65 c p3
256.36 93.65 0.65 c p3
256.64 90.92 0.65 c p3
256.92 93.08 0.65 c p3
257.20 87.56 0.65 c p3
257.48 95.35 0.65 c p3
257.76 89.80 0.65 c p3
258.04 93.65 0.65 c p3
258.32 94.78 0.65 c p3
258.60 88.67 0.65 c p3
258.88 88.12 0.65 c p3
259.16 89.24 0.65 c p3
259.44 92.05 0.65 c p3
259.72 90.92 0.65 c p3
260.00 90.36 0.65 c p3
260.28 90.92 0.65 c p3
260.56 89.80 0.65 c p3
260.84 89.24 0.65 c p3
261.12 90.92 0.65 c p3
261.40 89.24 0.65 c p3
261.68 90.92 0.65 c p3
261.96 91.48 0.65 c p3
262.24 92.05 0.65 c p3
262.52 93.65 0.65 c p3
262.80 88.67 0.65 c p3
263.08 91.48 0.65 c p3
263.36 92.52 0.65 c p3
263.64 87.56 0.65 c p3
263.92 93.65 0.65 c p3
264.20 92.52 0.65 c p3
264.48 88.12 0.65 c p3
264.76 89.24 0.65 c p3
265.04 92.05 0.65 c p3
265.32 91.48 0.65 c p3
265.60 90.92 0.65 c p3
265.88 93.08 0.65 c p3
266.16 93.65 0.65 c p3
266.44 93.08 0.65 c p3
266.72 91.48 0.65 c p3
267.00 95.35 0.65 c p3
267.28 88.12 0.65 c p3
267.56 90.36 0.65 c p3
267.84 92.52 0.65 c p3
268.12 90.36 0.65 c p3
268.40 90.36 0.65 c p3
268.68 90.36 0.65 c p3
268.96 92.05 0.65 c p3
269.24 89.24 0.65 c p3
269.52 89.24 0.65 c p3
269.80 92.52 0.65 c p3
270.08 90.92 0.65 c p3
270.36 92.52 0.65 c p3
270.64 90.92 0.65 c p3
270.92 91.48 0.65 c p3
271.20 92.52 0.65 c p3
271.48 92.05 0.65 c p3
271.76 88.67 0.65 c p3
272.04 90.92 0.65 c p3
272.32 90.92 0.65 c p3
272.60 90.36 0.65 c p3
272.88 89.80 0.65 c p3
273.16 90.92 0.65 c p3
273.44 88.12 0.65 c p3
273.72 90.92 0.65 c p3
274.00 92.52 0.65 c p3
274.28 89.24 0.65 c p3
274.56 90.36 0.65 c p3
274.84 90.36 0.65 c p3
275.12 90.92 0.65 c p3
275.40 93.65 0.65 c p3
275.68 88.12 0.65 c p3
275.96 88.67 0.65 c p3
276.24 89.24 0.65 c p3
276.52 90.36 0.65 c p3
276.80 87.00 0.65 c p3
277.08 87.56 0.65 c p3
277.36 88.67 0.65 c p3
277.64 85.32 0.65 c p3
277.92 89.24 0.65 c p3
278.20 86.44 0.65 c p3
278.48 85.32 0.65 c p3
278.76 85.32 0.65 c p3
279.04 83.66 0.65 c p3
279.32 87.00 0.65 c p3
279.60 81.99 0.65 c p3
279.88 85.32 0.65 c p3
280.16 84.77 0.65 c p3
280.44 83.66 0.65 c p3
280.72 86.44 0.65 c p3
281.00 87.56 0.65 c p3
281.28 87.00 0.65 c p3
281.56 83.66 0.65 c p3
281.84 79.79 0.65 c p3
282.12 85.88 0.65 c p3
282.40 84.77 0.65 c p3
282.68 87.56 0.65 c p3
282.96 81.44 0.65 c p3
283.24 82.55 0.65 c p3
283.52 84.77 0.65 c p3
283.80 83.66 0.65 c p3
284.08 86.44 0.65 c p3
284.36 85.88 0.65 c p3
284.64 84.77 0.65 c p3
284.92 80.89 0.65 c p3
285.20 82.55 0.65 c p3
285.48 87.00 0.65 c p3
285.76 84.21 0.65 c p3
286.04 85.32 0.65 c p3
286.32 85.88 0.65 c p3
286.60 85.32 0.65 c p3
286.88 83.66 0.65 c p3
287.16 84.21 0.65 c p3
287.44 84.21 0.65 c p3
287.72 84.21 0.65 c p3
288.00 85.32 0.65 c p3
288.28 87.00 0.65 c p3
288.56 83.66 0.65 c p3
288.84 81.99 0.65 c p3
289.12 83.10 0.65 c p3
289.40 83.10 0.65 c p3
289.68 81.44 0.65 c p3
289.96 84.21 0.65 c p3
290.24 84.21 0.65 c p3
290.52 84.21 0.65 c p3
290.80 84.77 0.65 c p3
291.08 84.77 0.65 c p3
291.36 80.89 0.65 c p3
291.64 81.99 0.65 c p3
291.92 81.99 0.65 c p3
292.20 84.77 0.65 c p3
292.48 84.77 0.65 c p3
292.76 84.77 0.65 c p3
293.04 85.32 0.65 c p3
293.32 83.66 0.65 c p3
293.60 83.10 0.65 c p3
293.88 81.44 0.65 c p3
294.16 83.66 0.65 c p3
294.44 83.66 0.65 c p3
294.72 86.44 0.65 c p3
295.00 85.32 0.65 c p3
295.28 85.32 0.65 c p3
295.56 81.99 0.65 c p3
295.84 86.44 0.65 c p3
296.12 84.77 0.65 c p3
296.40 84.21 0.65 c p3
296.68 85.32 0.65 c p3
296.96 83.10 0.65 c p3
297.24 85.32 0.65 c p3
297.52 85.32 0.65 c p3
297.80 83.66 0.65 c p3
298.08 84.77 0.65 c p3
298.36 80.89 0.65 c p3
298.64 84.77 0.65 c p3
298.92 81.99 0.65 c p3
299.20 84.77 0.65 c p3
299.48 88.12 0.65 c p3
299.76 85.88 0.65 c p3
300.04 85.88 0.65 c p3
300.32 82.55 0.65 c p3
300.60 83.10 0.65 c p3
300.88 84.21 0.65 c p3
301.16 83.10 0.65 c p3
301.44 87.00 0.65 c p3
301.72 85.88 0.65 c p3
302.00 79.79 0.65 c p3
302.28 83.66 0.65 c p3
302.56 83.10 0.65 c p3
302.84 80.89 0.65 c p3
303.12 85.32 0.65 c p3
303.40 85.88 0.65 c p3
303.68 83.66 0.65 c p3
303.96 83.66 0.65 c p3
304.24 85.32 0.65 c p3
304.52 87.00 0.65 c p3
304.80 84.77 0.65 c p3
305.08 83.10 0.65 c p3
305.36 85.32 0.65 c p3
305.64 84.21 0.65 c p3
305.92 82.55 0.65 c p3
306.20 86.44 0.65 c p3
306.48 84.21 0.65 c p3
306.76 80.89 0.65 c p3
307.04 79.79 0.65 c p3
307.32 85.32 0.65 c p3
307.60 81.44 0.65 c p3
307.88 84.77 0.65 c p3
308.16 83.66 0.65 c p3
308.44 82.55 0.65 c p3
308.72 82.55 0.65 c p3
309.00 81.99 0.65 c p3
309.28 81.99 0.65 c p3
309.56 83.66 0.65 c p3
309.84 85.88 0.65 c p3
310.12 80.89 0.65 c p3
310.40 80.89 0.65 c p3
310.68 80.34 0.65 c p3
310.96 84.21 0.65 c p3
311.24 78.68 0.65 c p3
311.52 84.21 0.65 c p3
311.80 81.99 0.65 c p3
312.08 80.89 0.65 c p3
312.36 80.89 0.65 c p3
312.64 83.66 0.65 c p3
312.92 81.44 0.65 c p3
313.20 80.89 0.65 c p3
313.48 80.34 0.65 c p3
313.76 81.44 0.65 c p3
314.04 80.89 0.65 c p3
314.32 80.89 0.65 c p3
314.60 79.24 0.65 c p3
314.88 84.77 0.65 c p3
315.16 81.44 0.65 c p3
315.44 81.99 0.65 c p3
315.72 83.66 0.65 c p3
316.00 80.34 0.65 c p3
316.28 81.44 0.65 c p3
316.56 82.55 0.65 c p3
316.84 81.99 0.65 c p3
317.12 81.44 0.65 c p3
317.40 85.32 0.65 c p3
317.68 80.34 0.65 c p3
317.96 81.44 0.65 c p3
318.24 82.55 0.65 c p3
318.52 82.55 0.65 c p3
318.80 84.77 0.65 c p3
319.08 78.68 0.65 c p3
319.36 81.44 0.65 c p3
319.64 78.68 0.65 c p3
319.92 83.10 0.65 c p3
320.20 81.99 0.65 c p3
320.48 79.79 0.65 c p3
320.76 78.68 0.65 c p3
321.04 81.44 0.65 c p3
321.32 81.99 0.65 c p3
321.60 82.55 0.65 c p3
321.88 80.89 0.65 c p3
322.16 83.66 0.65 c p3
322.44 85.32 0.65 c p3
322.72 80.34 0.65 c p3
323.00 82.55 0.65 c p3
323.28 78.14 0.65 c p3
323.56 81.44 0.65 c p3
323.84 80.34 0.65 c p3
324.12 80.34 0.65 c p3
324.40 83.66 0.65 c p3
324.68 78.14 0.65 c p3
216.00 201.60 367.20 247.68 cl
0 0 0 srgb
0.75 setlinewidth
[] 0 setdash
1 setlinecap
1 setlinejoin
10.00 setmiterlimit
221.60 238.86 0.43 c p1
221.78 234.05 0.43 c p1
221.95 235.85 0.43 c p1
222.13 232.19 0.43 c p1
222.30 236.91 0.43 c p1
222.48 235.75 0.43 c p1
222.66 234.51 0.43 c p1
222.83 233.77 0.43 c p1
223.01 234.53 0.43 c p1
223.18 234.28 0.43 c p1
223.36 231.08 0.43 c p1
223.54 232.80 0.43 c p1
223.71 235.51 0.43 c p1
223.89 233.28 0.43 c p1
224.07 232.54 0.43 c p1
224.24 231.30 0.43 c p1
224.42 229.68 0.43 c p1
224.59 228.94 0.43 c p1
224.77 229.64 0.43 c p1
224.95 230.34 0.43 c p1
225.12 228.16 0.43 c p1
225.30 228.37 0.43 c p1
225.47 228.58 0.43 c p1
225.65 230.20 0.43 c p1
225.83 227.09 0.43 c p1
226.00 228.70 0.43 c p1
226.18 230.30 0.43 c p1
226.35 229.07 0.43 c p1
226.53 229.72 0.43 c p1
226.71 228.96 0.43 c p1
226.88 225.95 0.43 c p1
227.06 227.98 0.43 c p1
227.24 224.45 0.43 c p1
227.41 225.54 0.43 c p1
227.59 225.24 0.43 c p1
227.76 223.11 0.43 c p1
227.94 226.47 0.43 c p1
228.12 225.71 0.43 c p1
228.29 225.40 0.43 c p1
228.47 226.00 0.43 c p1
228.64 226.14 0.43 c p1
228.82 222.66 0.43 c p1
229.00 226.41 0.43 c p1
229.17 221.66 0.43 c p1
229.35 224.41 0.43 c p1
229.52 224.98 0.43 c p1
229.70 221.15 0.43 c p1
229.88 222.61 0.43 c p1
230.05 224.07 0.43 c p1
230.23 221.51 0.43 c p1
230.41 223.84 0.43 c p1
230.58 223.06 0.43 c p1
230.76 222.28 0.43 c p1
230.93 222.38 0.43 c p1
231.11 224.69 0.43 c p1
231.29 224.33 0.43 c p1
231.46 225.31 0.43 c p1
231.64 218.89 0.43 c p1
231.81 220.65 0.43 c p1
231.99 221.60 0.43 c p1
232.17 222.12 0.43 c p1
232.34 220.10 0.43 c p1
232.52 219.31 0.43 c p1
232.69 219.38 0.43 c p1
232.87 223.27 0.43 c p1
233.05 222.10 0.43 c p1
233.22 220.44 0.43 c p1
233.40 219.64 0.43 c p1
233.57 218.42 0.43 c p1
233.75 220.18 0.43 c p1
233.93 220.23 0.43 c p1
234.10 218.15 0.43 c p1
234.28 218.20 0.43 c p1
234.46 219.52 0.43 c p1
234.63 219.56 0.43 c p1
234.81 217.90 0.43 c p1
234.98 220.48 0.43 c p1
235.16 218.82 0.43 c p1
235.34 217.24 0.43 c p1
235.51 220.56 0.43 c p1
235.69 218.13 0.43 c p1
235.86 217.32 0.43 c p1
236.04 218.17 0.43 c p1
236.22 216.11 0.43 c p1
236.39 217.79 0.43 c p1
236.57 215.73 0.43 c p1
236.74 219.06 0.43 c p1
236.92 218.23 0.43 c p1
237.10 216.58 0.43 c p1
237.27 219.90 0.43 c p1
237.45 218.24 0.43 c p1
237.63 219.06 0.43 c p1
237.80 216.99 0.43 c p1
237.98 216.57 0.43 c p1
238.15 217.79 0.43 c p1
238.33 218.19 0.43 c p1
238.51 217.36 0.43 c p1
238.68 218.16 0.43 c p1
238.86 216.91 0.43 c p1
239.03 218.52 0.43 c p1
239.21 218.91 0.43 c p1
239.39 218.88 0.43 c p1
239.56 217.62 0.43 c p1
239.74 218.41 0.43 c p1
239.91 216.81 0.43 c p1
240.09 215.16 0.43 c p1
240.27 218.70 0.43 c p1
240.44 214.69 0.43 c p1
240.62 217.87 0.43 c p1
240.79 219.04 0.43 c p1
240.97 220.14 0.43 c p1
241.15 218.54 0.43 c p1
241.32 219.70 0.43 c p1
241.50 218.02 0.43 c p1
241.68 219.18 0.43 c p1
241.85 219.12 0.43 c p1
242.03 217.85 0.43 c p1
242.20 219.80 0.43 c p1
242.38 218.12 0.43 c p1
242.56 216.85 0.43 c p1
242.73 218.78 0.43 c p1
242.91 216.32 0.43 c p1
243.08 217.44 0.43 c p1
243.26 218.96 0.43 c p1
243.44 216.49 0.43 c p1
243.61 219.20 0.43 c p1
243.79 219.52 0.43 c p1
243.96 217.44 0.43 c p1
244.14 220.95 0.43 c p1
244.32 218.86 0.43 c p1
244.49 216.00 0.43 c p1
244.67 213.62 0.43 c p1
244.85 219.38 0.43 c p1
245.02 218.88 0.43 c p1
245.20 219.18 0.43 c p1
245.37 217.90 0.43 c p1
245.55 217.08 0.43 c p1
245.73 217.37 0.43 c p1
245.90 219.17 0.43 c p1
246.08 218.34 0.43 c p1
246.25 218.95 0.43 c p1
246.43 218.91 0.43 c p1
246.61 219.19 0.43 c p1
246.78 219.07 0.43 c p1
246.96 219.75 0.43 c p1
247.13 218.06 0.43 c p1
247.31 219.51 0.43 c p1
247.49 218.99 0.43 c p1
247.66 217.70 0.43 c p1
247.84 217.19 0.43 c p1
248.02 221.37 0.43 c p1
248.19 220.45 0.43 c p1
248.37 218.76 0.43 c p1
248.54 224.46 0.43 c p1
248.72 218.11 0.43 c p1
248.90 217.97 0.43 c p1
249.07 220.17 0.43 c p1
249.25 220.04 0.43 c p1
249.42 221.07 0.43 c p1
249.60 219.75 0.43 c p1
249.78 220.00 0.43 c p1
249.95 219.47 0.43 c p1
250.13 221.27 0.43 c p1
250.30 220.73 0.43 c p1
250.48 220.19 0.43 c p1
250.66 219.65 0.43 c p1
250.83 221.05 0.43 c p1
251.01 217.81 0.43 c p1
251.18 217.65 0.43 c p1
251.36 219.81 0.43 c p1
251.54 221.20 0.43 c p1
251.71 220.65 0.43 c p1
251.89 221.27 0.43 c p1
252.07 221.49 0.43 c p1
252.24 220.94 0.43 c p1
252.42 220.77 0.43 c p1
252.59 222.93 0.43 c p1
252.77 221.98 0.43 c p1
252.95 224.53 0.43 c p1
253.12 223.96 0.43 c p1
253.30 221.47 0.43 c p1
253.47 223.22 0.43 c p1
253.65 222.27 0.43 c p1
253.83 221.33 0.43 c p1
254.00 226.18 0.43 c p1
254.18 224.83 0.43 c p1
254.35 222.33 0.43 c p1
254.53 222.53 0.43 c p1
254.71 223.11 0.43 c p1
254.88 223.70 0.43 c p1
255.06 225.05 0.43 c p1
255.24 222.55 0.43 c p1
255.41 224.67 0.43 c p1
255.59 224.48 0.43 c p1
255.76 226.99 0.43 c p1
255.94 225.25 0.43 c p1
256.12 225.82 0.43 c p1
256.29 223.70 0.43 c p1
256.47 226.20 0.43 c p1
256.64 227.93 0.43 c p1
256.82 226.18 0.43 c p1
257.00 227.52 0.43 c p1
257.17 225.00 0.43 c p1
257.35 224.79 0.43 c p1
257.52 226.90 0.43 c p1
257.70 229.01 0.43 c p1
257.88 226.09 0.43 c p1
258.05 227.43 0.43 c p1
258.23 226.06 0.43 c p1
258.41 226.23 0.43 c p1
258.58 226.78 0.43 c p1
258.76 229.27 0.43 c p1
258.93 226.35 0.43 c p1
259.11 227.29 0.43 c p1
259.29 228.61 0.43 c p1
259.46 227.23 0.43 c p1
259.64 227.39 0.43 c p1
259.81 229.49 0.43 c p1
259.99 230.03 0.43 c p1
260.17 228.26 0.43 c p1
260.34 225.42 0.43 c p1
260.52 230.12 0.43 c p1
260.69 228.73 0.43 c p1
260.87 230.05 0.43 c p1
261.05 228.27 0.43 c p1
261.22 228.43 0.43 c p1
261.40 228.58 0.43 c p1
261.57 229.11 0.43 c p1
261.75 227.72 0.43 c p1
261.93 229.41 0.43 c p1
262.10 227.26 0.43 c p1
262.28 228.55 0.43 c p1
262.46 231.39 0.43 c p1
262.63 237.38 0.43 c p1
262.81 229.37 0.43 c p1
262.98 224.99 0.43 c p1
263.16 228.12 0.43 c p1
263.34 232.10 0.43 c p1
263.51 229.93 0.43 c p1
263.69 228.53 0.43 c p1
263.86 229.05 0.43 c p1
264.04 226.96 0.43 c p1
264.22 227.48 0.43 c p1
264.39 228.75 0.43 c p1
264.57 228.89 0.43 c p1
264.74 229.02 0.43 c p1
264.92 228.01 0.43 c p1
265.10 229.98 0.43 c p1
265.27 228.64 0.43 c p1
265.45 227.63 0.43 c p1
265.63 229.98 0.43 c p1
265.80 228.26 0.43 c p1
265.98 228.77 0.43 c p1
266.15 229.27 0.43 c p1
266.33 229.02 0.43 c p1
266.51 229.14 0.43 c p1
266.68 229.64 0.43 c p1
266.86 229.38 0.43 c p1
267.03 231.34 0.43 c p1
267.21 229.24 0.43 c p1
267.39 230.12 0.43 c p1
267.56 231.70 0.43 c p1
267.74 231.11 0.43 c p1
267.91 228.57 0.43 c p1
268.09 230.58 0.43 c p1
268.27 230.31 0.43 c p1
268.44 230.81 0.43 c p1
268.62 229.02 0.43 c p1
268.79 229.13 0.43 c p1
268.97 230.38 0.43 c p1
269.15 229.73 0.43 c p1
269.32 230.22 0.43 c p1
269.50 228.43 0.43 c p1
269.68 229.67 0.43 c p1
269.85 230.16 0.43 c p1
270.03 228.00 0.43 c p1
270.20 231.51 0.43 c p1
270.38 230.47 0.43 c p1
270.56 230.58 0.43 c p1
270.73 228.41 0.43 c p1
270.91 230.78 0.43 c p1
271.08 228.24 0.43 c p1
271.26 231.36 0.43 c p1
271.44 232.98 0.43 c p1
271.61 230.42 0.43 c p1
271.79 230.52 0.43 c p1
271.96 228.73 0.43 c p1
272.14 231.47 0.43 c p1
272.32 231.57 0.43 c p1
272.49 230.15 0.43 c p1
272.67 232.14 0.43 c p1
272.85 231.47 0.43 c p1
273.02 229.30 0.43 c p1
273.20 229.77 0.43 c p1
273.37 230.62 0.43 c p1
273.55 226.58 0.43 c p1
273.73 229.29 0.43 c p1
273.90 230.51 0.43 c p1
274.08 229.85 0.43 c p1
274.25 230.69 0.43 c p1
274.43 230.40 0.43 c p1
274.61 231.24 0.43 c p1
274.78 231.70 0.43 c p1
274.96 231.79 0.43 c p1
275.13 231.50 0.43 c p1
275.31 231.20 0.43 c p1
275.49 229.41 0.43 c p1
275.66 230.99 0.43 c p1
275.84 229.20 0.43 c p1
276.02 230.41 0.43 c p1
276.19 230.49 0.43 c p1
276.37 230.57 0.43 c p1
276.54 230.65 0.43 c p1
276.72 232.24 0.43 c p1
276.90 231.56 0.43 c p1
277.07 230.51 0.43 c p1
277.25 230.96 0.43 c p1
277.42 232.17 0.43 c p1
277.60 229.62 0.43 c p1
277.78 231.20 0.43 c p1
277.95 228.28 0.43 c p1
278.13 229.85 0.43 c p1
278.30 231.42 0.43 c p1
278.48 228.88 0.43 c p1
278.66 230.82 0.43 c p1
278.83 230.52 0.43 c p1
279.01 232.84 0.43 c p1
279.18 231.41 0.43 c p1
279.36 228.86 0.43 c p1
279.54 228.56 0.43 c p1
279.71 229.75 0.43 c p1
279.89 229.45 0.43 c p1
280.07 229.52 0.43 c p1
280.24 232.21 0.43 c p1
280.42 228.91 0.43 c p1
280.59 231.22 0.43 c p1
280.77 229.04 0.43 c p1
280.95 230.60 0.43 c p1
281.12 228.43 0.43 c p1
281.30 227.45 0.43 c p1
281.47 228.57 0.43 c p1
281.65 228.26 0.43 c p1
281.83 228.69 0.43 c p1
282.00 228.39 0.43 c p1
282.18 228.82 0.43 c p1
282.35 230.37 0.43 c p1
282.53 228.95 0.43 c p1
282.71 230.13 0.43 c p1
282.88 228.02 0.43 c p1
283.06 227.71 0.43 c p1
283.24 229.56 0.43 c p1
283.41 228.88 0.43 c p1
283.59 228.26 0.43 c p1
283.76 228.32 0.43 c p1
283.94 230.55 0.43 c p1
284.12 227.33 0.43 c p1
284.29 226.65 0.43 c p1
284.47 227.45 0.43 c p1
284.64 228.98 0.43 c p1
284.82 227.19 0.43 c p1
285.00 227.25 0.43 c p1
285.17 229.46 0.43 c p1
285.35 228.10 0.43 c p1
285.52 228.89 0.43 c p1
285.70 230.37 0.43 c p1
285.88 228.63 0.43 c p1
286.05 227.58 0.43 c p1
286.23 229.11 0.43 c p1
286.41 228.42 0.43 c p1
286.58 226.63 0.43 c p1
286.76 225.59 0.43 c p1
286.93 227.47 0.43 c p1
287.11 227.53 0.43 c p1
287.29 230.10 0.43 c p1
287.46 226.16 0.43 c p1
287.64 226.94 0.43 c p1
287.81 230.62 0.43 c p1
287.99 228.88 0.43 c p1
288.17 229.67 0.43 c p1
288.34 227.14 0.43 c p1
288.52 227.92 0.43 c p1
288.69 227.61 0.43 c p1
288.87 228.76 0.43 c p1
289.05 228.81 0.43 c p1
289.22 227.01 0.43 c p1
289.40 227.06 0.43 c p1
289.57 226.74 0.43 c p1
289.75 228.99 0.43 c p1
289.93 229.04 0.43 c p1
290.10 226.15 0.43 c p1
290.28 227.29 0.43 c p1
290.46 228.07 0.43 c p1
290.63 229.59 0.43 c p1
290.81 225.59 0.43 c p1
290.98 227.10 0.43 c p1
291.16 228.25 0.43 c p1
291.34 229.39 0.43 c p1
291.51 227.23 0.43 c p1
291.69 226.91 0.43 c p1
291.86 226.95 0.43 c p1
292.04 225.53 0.43 c p1
292.22 229.24 0.43 c p1
292.39 227.44 0.43 c p1
292.57 228.95 0.43 c p1
292.74 228.26 0.43 c p1
292.92 227.20 0.43 c p1
293.10 227.24 0.43 c p1
293.27 225.09 0.43 c p1
293.45 225.85 0.43 c p1
293.63 227.35 0.43 c p1
293.80 228.13 0.43 c p1
293.98 229.27 0.43 c p1
294.15 228.57 0.43 c p1
294.33 227.14 0.43 c p1
294.51 225.36 0.43 c p1
294.68 228.32 0.43 c p1
294.86 225.80 0.43 c p1
295.03 227.29 0.43 c p1
295.21 228.06 0.43 c p1
295.39 227.73 0.43 c p1
295.56 227.04 0.43 c p1
295.74 227.80 0.43 c p1
295.91 227.47 0.43 c p1
296.09 227.14 0.43 c p1
296.27 228.64 0.43 c p1
296.44 227.58 0.43 c p1
296.62 228.35 0.43 c p1
296.79 226.19 0.43 c p1
296.97 225.13 0.43 c p1
297.15 227.35 0.43 c p1
297.32 226.66 0.43 c p1
297.50 227.42 0.43 c p1
297.68 227.82 0.43 c p1
297.85 228.58 0.43 c p1
298.03 228.25 0.43 c p1
298.20 227.92 0.43 c p1
298.38 225.03 0.43 c p1
298.56 227.25 0.43 c p1
298.73 227.65 0.43 c p1
298.91 225.49 0.43 c p1
299.08 226.25 0.43 c p1
299.26 228.10 0.43 c p1
299.44 226.31 0.43 c p1
299.61 225.62 0.43 c p1
299.79 227.10 0.43 c p1
299.96 226.40 0.43 c p1
300.14 226.07 0.43 c p1
300.32 226.83 0.43 c p1
300.49 228.32 0.43 c p1
300.67 225.43 0.43 c p1
300.85 227.64 0.43 c p1
301.02 227.31 0.43 c p1
301.20 228.07 0.43 c p1
301.37 227.73 0.43 c p1
301.55 226.66 0.43 c p1
301.73 227.78 0.43 c p1
301.90 225.99 0.43 c p1
302.08 227.11 0.43 c p1
302.25 228.96 0.43 c p1
302.43 228.26 0.43 c p1
302.61 228.29 0.43 c p1
302.78 229.41 0.43 c p1
302.96 225.07 0.43 c p1
303.13 226.91 0.43 c p1
303.31 226.21 0.43 c p1
303.49 225.15 0.43 c p1
303.66 224.81 0.43 c p1
303.84 226.29 0.43 c p1
304.02 227.40 0.43 c p1
304.19 226.34 0.43 c p1
304.37 226.36 0.43 c p1
304.54 224.94 0.43 c p1
304.72 227.87 0.43 c p1
304.90 223.61 0.43 c p1
305.07 225.74 0.43 c p1
305.25 225.76 0.43 c p1
305.42 225.78 0.43 c p1
305.60 227.62 0.43 c p1
305.78 224.38 0.43 c p1
305.95 225.49 0.43 c p1
306.13 226.97 0.43 c p1
306.30 225.90 0.43 c p1
306.48 225.92 0.43 c p1
306.66 224.86 0.43 c p1
306.83 227.06 0.43 c p1
307.01 224.55 0.43 c p1
307.18 226.01 0.43 c p1
307.36 225.67 0.43 c p1
307.54 224.97 0.43 c p1
307.71 224.27 0.43 c p1
307.89 224.66 0.43 c p1
308.07 225.76 0.43 c p1
308.24 225.78 0.43 c p1
308.42 225.08 0.43 c p1
308.59 225.82 0.43 c p1
308.77 226.57 0.43 c p1
308.95 224.78 0.43 c p1
309.12 226.25 0.43 c p1
309.30 227.72 0.43 c p1
309.47 224.84 0.43 c p1
309.65 227.03 0.43 c p1
309.83 223.86 0.43 c p1
310.00 227.80 0.43 c p1
310.18 225.28 0.43 c p1
310.35 227.84 0.43 c p1
310.53 227.50 0.43 c p1
310.71 224.62 0.43 c p1
310.88 225.36 0.43 c p1
311.06 224.66 0.43 c p1
311.24 225.76 0.43 c p1
311.41 227.23 0.43 c p1
311.59 225.43 0.43 c p1
311.76 226.90 0.43 c p1
311.94 227.28 0.43 c p1
312.12 225.85 0.43 c p1
312.29 228.04 0.43 c p1
312.47 222.71 0.43 c p1
312.64 226.99 0.43 c p1
312.82 224.18 0.43 c p1
313.00 226.30 0.43 c p1
313.17 225.23 0.43 c p1
313.35 225.25 0.43 c p1
313.52 227.08 0.43 c p1
313.70 227.09 0.43 c p1
313.88 226.75 0.43 c p1
314.05 226.77 0.43 c p1
314.23 223.96 0.43 c p1
314.41 225.71 0.43 c p1
314.58 226.45 0.43 c p1
314.76 225.02 0.43 c p1
314.93 224.74 0.43 c p1
315.11 226.14 0.43 c p1
315.29 224.77 0.43 c p1
315.46 224.43 0.43 c p1
315.64 225.46 0.43 c p1
315.81 224.46 0.43 c p1
315.99 224.84 0.43 c p1
316.17 224.13 0.43 c p1
316.34 224.51 0.43 c p1
316.52 225.18 0.43 c p1
316.69 223.46 0.43 c p1
316.87 224.55 0.43 c p1
317.05 224.93 0.43 c p1
317.22 223.50 0.43 c p1
317.40 224.95 0.43 c p1
317.57 224.97 0.43 c p1
317.75 224.62 0.43 c p1
317.93 224.64 0.43 c p1
318.10 226.03 0.43 c p1
318.28 223.95 0.43 c p1
318.46 221.82 0.43 c p1
318.63 226.07 0.43 c p1
318.81 224.35 0.43 c p1
318.98 225.74 0.43 c p1
319.16 222.23 0.43 c p1
319.34 227.21 0.43 c p1
319.51 223.68 0.43 c p1
319.69 226.15 0.43 c p1
319.86 226.89 0.43 c p1
320.04 223.01 0.43 c p1
320.22 222.66 0.43 c p1
320.39 223.39 0.43 c p1
320.57 225.20 0.43 c p1
320.74 224.49 0.43 c p1
320.92 224.14 0.43 c p1
321.10 224.52 0.43 c p1
321.27 223.81 0.43 c p1
321.45 223.47 0.43 c p1
321.63 224.55 0.43 c p1
321.80 223.49 0.43 c p1
321.98 224.58 0.43 c p1
322.15 224.95 0.43 c p1
322.33 225.32 0.43 c p1
322.51 226.35 0.43 c p1
322.68 223.19 0.43 c p1
322.86 224.99 0.43 c p1
323.03 225.67 0.43 c p1
323.21 222.51 0.43 c p1
323.39 226.41 0.43 c p1
323.56 225.70 0.43 c p1
323.74 222.90 0.43 c p1
323.91 223.63 0.43 c p1
324.09 225.43 0.43 c p1
324.27 225.08 0.43 c p1
324.44 224.74 0.43 c p1
324.62 226.13 0.43 c p1
324.79 226.50 0.43 c p1
324.97 226.15 0.43 c p1
325.15 225.14 0.43 c p1
325.32 227.61 0.43 c p1
325.50 223.01 0.43 c p1
325.68 224.45 0.43 c p1
325.85 225.84 0.43 c p1
326.03 224.47 0.43 c p1
326.20 224.48 0.43 c p1
326.38 224.49 0.43 c p1
326.56 225.58 0.43 c p1
326.73 223.79 0.43 c p1
326.91 223.80 0.43 c p1
327.08 225.91 0.43 c p1
327.26 224.90 0.43 c p1
327.44 225.93 0.43 c p1
327.61 224.92 0.43 c p1
327.79 225.29 0.43 c p1
327.96 225.96 0.43 c p1
328.14 225.66 0.43 c p1
328.32 223.52 0.43 c p1
328.49 224.96 0.43 c p1
328.67 224.97 0.43 c p1
328.85 224.62 0.43 c p1
329.02 224.27 0.43 c p1
329.20 225.00 0.43 c p1
329.37 223.22 0.43 c p1
329.55 225.02 0.43 c p1
329.73 226.04 0.43 c p1
329.90 223.96 0.43 c p1
330.08 224.68 0.43 c p1
330.25 224.69 0.43 c p1
330.43 225.06 0.43 c p1
330.61 226.81 0.43 c p1
330.78 223.29 0.43 c p1
330.96 223.65 0.43 c p1
331.13 224.02 0.43 c p1
331.31 224.74 0.43 c p1
331.49 222.60 0.43 c p1
331.66 222.97 0.43 c p1
331.84 223.69 0.43 c p1
332.02 221.56 0.43 c p1
332.19 224.07 0.43 c p1
332.37 222.29 0.43 c p1
332.54 221.58 0.43 c p1
332.72 221.59 0.43 c p1
332.90 220.53 0.43 c p1
333.07 222.67 0.43 c p1
333.25 219.49 0.43 c p1
333.42 221.62 0.43 c p1
333.60 221.27 0.43 c p1
333.78 220.57 0.43 c p1
333.95 222.35 0.43 c p1
334.13 223.07 0.43 c p1
334.30 222.73 0.43 c p1
334.48 220.60 0.43 c p1
334.66 218.14 0.43 c p1
334.83 222.03 0.43 c p1
335.01 221.33 0.43 c p1
335.18 223.12 0.43 c p1
335.36 219.22 0.43 c p1
335.54 219.93 0.43 c p1
335.71 221.36 0.43 c p1
335.89 220.65 0.43 c p1
336.07 222.44 0.43 c p1
336.24 222.09 0.43 c p1
336.42 221.38 0.43 c p1
336.59 218.91 0.43 c p1
336.77 219.98 0.43 c p1
336.95 222.83 0.43 c p1
337.12 221.06 0.43 c p1
337.30 221.77 0.43 c p1
337.47 222.13 0.43 c p1
337.65 221.78 0.43 c p1
337.83 220.73 0.43 c p1
338.00 221.09 0.43 c p1
338.18 221.09 0.43 c p1
338.35 221.10 0.43 c p1
338.53 221.81 0.43 c p1
338.71 222.89 0.43 c p1
338.88 220.76 0.43 c p1
339.06 219.71 0.43 c p1
339.24 220.42 0.43 c p1
339.41 220.42 0.43 c p1
339.59 219.37 0.43 c p1
339.76 221.15 0.43 c p1
339.94 221.15 0.43 c p1
340.12 221.16 0.43 c p1
340.29 221.52 0.43 c p1
340.47 221.52 0.43 c p1
340.64 219.05 0.43 c p1
340.82 219.76 0.43 c p1
341.00 219.77 0.43 c p1
341.17 221.54 0.43 c p1
341.35 221.55 0.43 c p1
341.52 221.55 0.43 c p1
341.70 221.91 0.43 c p1
341.88 220.86 0.43 c p1
342.05 220.51 0.43 c p1
342.23 219.45 0.43 c p1
342.41 220.87 0.43 c p1
342.58 220.88 0.43 c p1
342.76 222.66 0.43 c p1
342.93 221.95 0.43 c p1
343.11 221.96 0.43 c p1
343.29 219.84 0.43 c p1
343.46 222.68 0.43 c p1
343.64 221.62 0.43 c p1
343.81 221.27 0.43 c p1
343.99 221.98 0.43 c p1
344.17 220.57 0.43 c p1
344.34 221.99 0.43 c p1
344.52 221.99 0.43 c p1
344.69 220.93 0.43 c p1
344.87 221.65 0.43 c p1
345.05 219.18 0.43 c p1
345.22 221.66 0.43 c p1
345.40 219.89 0.43 c p1
345.57 221.67 0.43 c p1
345.75 223.81 0.43 c p1
345.93 222.39 0.43 c p1
346.10 222.39 0.43 c p1
346.28 220.27 0.43 c p1
346.46 220.62 0.43 c p1
346.63 221.34 0.43 c p1
346.81 220.63 0.43 c p1
346.98 223.12 0.43 c p1
347.16 222.41 0.43 c p1
347.34 218.53 0.43 c p1
347.51 221.00 0.43 c p1
347.69 220.65 0.43 c p1
347.86 219.24 0.43 c p1
348.04 222.08 0.43 c p1
348.22 222.44 0.43 c p1
348.39 221.02 0.43 c p1
348.57 221.03 0.43 c p1
348.74 222.10 0.43 c p1
348.92 223.17 0.43 c p1
349.10 221.75 0.43 c p1
349.27 220.69 0.43 c p1
349.45 222.11 0.43 c p1
349.63 221.41 0.43 c p1
349.80 220.35 0.43 c p1
349.98 222.83 0.43 c p1
350.15 221.42 0.43 c p1
350.33 219.30 0.43 c p1
350.51 218.60 0.43 c p1
350.68 222.14 0.43 c p1
350.86 219.66 0.43 c p1
351.03 221.79 0.43 c p1
351.21 221.08 0.43 c p1
351.39 220.38 0.43 c p1
351.56 220.38 0.43 c p1
351.74 220.03 0.43 c p1
351.91 220.04 0.43 c p1
352.09 221.10 0.43 c p1
352.27 222.52 0.43 c p1
352.44 219.34 0.43 c p1
352.62 219.34 0.43 c p1
352.79 219.00 0.43 c p1
352.97 221.47 0.43 c p1
353.15 217.95 0.43 c p1
353.32 221.48 0.43 c p1
353.50 220.07 0.43 c p1
353.68 219.36 0.43 c p1
353.85 219.37 0.43 c p1
354.03 221.14 0.43 c p1
354.20 219.72 0.43 c p1
354.38 219.38 0.43 c p1
354.56 219.03 0.43 c p1
354.73 219.73 0.43 c p1
354.91 219.38 0.43 c p1
355.08 219.39 0.43 c p1
355.26 218.34 0.43 c p1
355.44 221.87 0.43 c p1
355.61 219.75 0.43 c p1
355.79 220.11 0.43 c p1
355.96 221.17 0.43 c p1
356.14 219.05 0.43 c p1
356.32 219.76 0.43 c p1
356.49 220.47 0.43 c p1
356.67 220.12 0.43 c p1
356.85 219.77 0.43 c p1
357.02 222.25 0.43 c p1
357.20 219.07 0.43 c p1
357.37 219.78 0.43 c p1
357.55 220.49 0.43 c p1
357.73 220.49 0.43 c p1
357.90 221.91 0.43 c p1
358.08 218.03 0.43 c p1
358.25 219.79 0.43 c p1
358.43 218.03 0.43 c p1
358.61 220.86 0.43 c p1
358.78 220.15 0.43 c p1
358.96 218.74 0.43 c p1
359.13 218.04 0.43 c p1
359.31 219.81 0.43 c p1
359.49 220.16 0.43 c p1
359.66 220.52 0.43 c p1
359.84 219.46 0.43 c p1
360.02 221.23 0.43 c p1
360.19 222.30 0.43 c p1
360.37 219.12 0.43 c p1
360.54 220.53 0.43 c p1
360.72 217.72 0.43 c p1
360.90 219.83 0.43 c p1
361.07 219.13 0.43 c p1
361.25 219.13 0.43 c p1
361.42 221.25 0.43 c p1
361.60 217.73 0.43 c p1
0.00 0.00 432.00 576.00 cl
0 0 0 srgb
0.75 setlinewidth
[] 0 setdash
1 setlinecap
1 setlinejoin
10.00 setmiterlimit
np
218.78 201.60 m
129.49 0 l
o
np
218.78 201.60 m
0 -5.76 l
o
np
244.68 201.60 m
0 -5.76 l
o
np
270.58 201.60 m
0 -5.76 l
o
np
296.47 201.60 m
0 -5.76 l
o
np
322.37 201.60 m
0 -5.76 l
o
np
348.27 201.60 m
0 -5.76 l
o
/Font1 findfont 6 s
218.78 185.47 (0) .5 0 t
244.68 185.47 (5000) .5 0 t
270.58 185.47 (10000) .5 0 t
296.47 185.47 (15000) .5 0 t
322.37 185.47 (20000) .5 0 t
348.27 185.47 (25000) .5 0 t
np
216.00 209.09 m
0 31.10 l
o
np
216.00 209.09 m
-5.76 0 l
o
np
216.00 216.87 m
-5.76 0 l
o
np
216.00 224.64 m
-5.76 0 l
o
np
216.00 232.41 m
-5.76 0 l
o
np
216.00 240.19 m
-5.76 0 l
o
209.09 206.94 (-0.02) 1 0 t
209.09 214.71 (-0.01) 1 0 t
209.09 222.49 (0.00) 1 0 t
209.09 230.26 (0.01) 1 0 t
209.09 238.03 (0.02) 1 0 t
np
216.00 201.60 m
151.20 0 l
0 46.08 l
-151.20 0 l
0 -46.08 l
o
0.00 0.00 432.00 576.00 cl
/Font1 findfont 9 s
0 0 0 srgb
291.60 262.88 (Residuals) .5 0 t
59.04 73.44 401.76 516.96 cl
ep
%%Trailer
%%Pages: 1
%%EOF
