%!PS-Adobe-3.0 EPSF-3.0
%%DocumentNeededResources: font Helvetica
%%+ font Helvetica-Bold
%%+ font Helvetica-Oblique
%%+ font Helvetica-BoldOblique
%%+ font Symbol
%%Title: R Graphics Output
%%Creator: R Software
%%Pages: (atend)
%%BoundingBox: 0 0 432 576
%%EndComments
%%BeginProlog
/bp  { gs sRGB gs } def
% begin .ps.prolog
/gs  { gsave } bind def
/gr  { grestore } bind def
/ep  { showpage gr gr } bind def
/m   { moveto } bind def
/l  { rlineto } bind def
/np  { newpath } bind def
/cp  { closepath } bind def
/f   { fill } bind def
/o   { stroke } bind def
/c   { newpath 0 360 arc } bind def
/r   { 4 2 roll moveto 1 copy 3 -1 roll exch 0 exch rlineto 0 rlineto -1 mul 0 exch rlineto closepath } bind def
/p1  { stroke } bind def
/p2  { gsave bg fill grestore newpath } bind def
/p3  { gsave bg fill grestore stroke } bind def
/p6  { gsave bg eofill grestore newpath } bind def
/p7  { gsave bg eofill grestore stroke } bind def
/t   { 5 -2 roll moveto gsave rotate
       1 index stringwidth pop
       mul neg 0 rmoveto show grestore } bind def
/ta  { 4 -2 roll moveto gsave rotate show } bind def
/tb  { 2 -1 roll 0 rmoveto show } bind def
/cl  { grestore gsave newpath 3 index 3 index moveto 1 index
       4 -1 roll lineto  exch 1 index lineto lineto
       closepath clip newpath } bind def
/rgb { setrgbcolor } bind def
/s   { scalefont setfont } bind def
% end   .ps.prolog
/sRGB { [ /CIEBasedABC
          << /DecodeLMN
               [ { dup 0.03928 le
                        {12.92321 div}
                        {0.055 add 1.055 div 2.4 exp }
                     ifelse
                 } bind dup dup
               ]
             /MatrixLMN [0.412457 0.212673 0.019334
                         0.357576 0.715152 0.119192
                         0.180437 0.072175 0.950301]
             /WhitePoint [0.9505 1.0 1.0890]
           >>
         ] setcolorspace } bind def
/srgb { setcolor } bind def
% begin encoding
/WinAnsiEncoding [
 /.notdef /.notdef /.notdef /.notdef /.notdef /.notdef /.notdef /.notdef
 /.notdef /.notdef /.notdef /.notdef /.notdef /.notdef /.notdef /.notdef
 /.notdef /.notdef /.notdef /.notdef /.notdef /.notdef /.notdef /.notdef
 /.notdef /.notdef /.notdef /.notdef /.notdef /.notdef /.notdef /.notdef
 /space /exclam /quotedbl /numbersign /dollar /percent /ampersand /quoteright
 /parenleft /parenright /asterisk /plus /comma /minus /period /slash
 /zero /one /two /three /four /five /six /seven
 /eight /nine /colon /semicolon /less /equal /greater /question
 /at /A /B /C /D /E /F /G
 /H /I /J /K /L /M /N /O
 /P /Q /R /S /T /U /V /W
 /X /Y /Z /bracketleft /backslash /bracketright /asciicircum /underscore
 /grave /a /b /c /d /e /f /g
 /h /i /j /k /l /m /n /o
 /p /q /r /s /t /u /v /w
 /x /y /z /braceleft /bar /braceright /asciitilde /.notdef
 /Euro /.notdef /quotesinglbase /florin /quotedblbase /ellipsis /dagger /daggerdbl
 /circumflex /perthousand /Scaron /guilsinglleft /OE /.notdef /Zcaron /.notdef
 /.notdef /quoteleft /quoteright /quotedblleft /quotedblright /bullet /endash /emdash
 /tilde /trademark /scaron /guilsinglright /oe /.notdef /zcaron /Ydieresis
 /space /exclamdown /cent /sterling /currency /yen /brokenbar /section
 /dieresis /copyright /ordfeminine /guillemotleft /logicalnot /hyphen /registered /macron
 /degree /plusminus /twosuperior /threesuperior /acute /mu /paragraph /periodcentered
 /cedilla /onesuperior /ordmasculine /guillemotright /onequarter /onehalf /threequarters /questiondown
 /Agrave /Aacute /Acircumflex /Atilde /Adieresis /Aring /AE /Ccedilla
 /Egrave /Eacute /Ecircumflex /Edieresis /Igrave /Iacute /Icircumflex /Idieresis
 /Eth /Ntilde /Ograve /Oacute /Ocircumflex /Otilde /Odieresis /multiply
 /Oslash /Ugrave /Uacute /Ucircumflex /Udieresis /Yacute /Thorn /germandbls
 /agrave /aacute /acircumflex /atilde /adieresis /aring /ae /ccedilla
 /egrave /eacute /ecircumflex /edieresis /igrave /iacute /icircumflex /idieresis
 /eth /ntilde /ograve /oacute /ocircumflex /otilde /odieresis /divide
 /oslash /ugrave /uacute /ucircumflex /udieresis /yacute /thorn /ydieresis
]
 def
% end encoding
%%IncludeResource: font Helvetica
/Helvetica findfont
dup length dict begin
  {1 index /FID ne {def} {pop pop} ifelse} forall
  /Encoding WinAnsiEncoding def
  currentdict
  end
/Font1 exch definefont pop
%%IncludeResource: font Helvetica-Bold
/Helvetica-Bold findfont
dup length dict begin
  {1 index /FID ne {def} {pop pop} ifelse} forall
  /Encoding WinAnsiEncoding def
  currentdict
  end
/Font2 exch definefont pop
%%IncludeResource: font Helvetica-Oblique
/Helvetica-Oblique findfont
dup length dict begin
  {1 index /FID ne {def} {pop pop} ifelse} forall
  /Encoding WinAnsiEncoding def
  currentdict
  end
/Font3 exch definefont pop
%%IncludeResource: font Helvetica-BoldOblique
/Helvetica-BoldOblique findfont
dup length dict begin
  {1 index /FID ne {def} {pop pop} ifelse} forall
  /Encoding WinAnsiEncoding def
  currentdict
  end
/Font4 exch definefont pop
%%IncludeResource: font Symbol
/Symbol findfont
dup length dict begin
  {1 index /FID ne {def} {pop pop} ifelse} forall
  currentdict
  end
/Font5 exch definefont pop
%%EndProlog
%%Page: 1 1
bp
/bg { 1 1 1 srgb } def
0.00 0.00 432.00 576.00 r p2
0.00 0.00 432.00 576.00 cl
0.00 0.00 432.00 576.00 cl
0.00 0.00 432.00 576.00 cl
/Font1 findfont 12 s
0 0 0 srgb
48.00 508.72 (PCP-ETH) 0 0 t
48.00 494.89 (Flash light photolysis) 0 0 t
/Font1 findfont 9 s
48.00 457.54 (File: Solv) 0 ta
-0.225 (ent_debendence_sol3_3_MSLM.dat) tb gr
48.00 334.87 (Sat Mar 05 15:15:10 2022) 0 0 t
48.00 430.87 (Fit function:  a + b * e) 0 ta
-0.270 (xp\(-c * t\)) tb gr
48.00 420.50 (t-Inter) 0 ta
0.270 (v) tb
-0.225 (all: 198.000 ... 15620.000 ms) tb gr
48.00 410.14 (P) 0 ta
-0.360 (ar) tb
-0.090 (ameters \(Standard de) tb
-0.270 (viation\):) tb gr
48.00 399.77 (  a = 0.00409 \(0.00054\)) 0 0 t
48.00 389.40 (  b = 0.21663 \(0.00104\)) 0 0 t
48.00 379.03 (  c = 2.699e-01 \(3.040e-03\) s^-1) 0 0 t
48.00 368.66 (  tau = 3.704e+00 \(4.172e-02\) s) 0 0 t
216.00 345.60 388.80 518.40 cl
0 0 0 srgb
0.75 setlinewidth
[] 0 setdash
1 setlinecap
1 setlinejoin
10.00 setmiterlimit
np
222.40 508.15 m
0.15 1.66 l
0.14 -0.97 l
0.15 0.97 l
0.14 -0.24 l
0.15 -0.24 l
0.14 0 l
0.15 0.72 l
0.14 -0.48 l
0.15 -0.49 l
0.15 0.73 l
0.14 -0.73 l
0.15 0.73 l
0.14 -0.24 l
0.15 -0.24 l
0.14 0.97 l
0.15 -0.49 l
0.14 0 l
0.15 -0.97 l
0.15 1.94 l
0.14 -0.97 l
0.15 0 l
0.14 -0.97 l
0.15 0 l
0.14 0.24 l
0.15 0.49 l
0.15 0.73 l
0.14 -0.73 l
0.15 -0.24 l
0.14 1.21 l
0.15 0 l
0.14 -0.97 l
0.15 0.73 l
0.14 -0.49 l
0.15 1.46 l
0.15 -1.22 l
0.14 0 l
0.15 -0.72 l
0.14 0.72 l
0.15 -0.97 l
0.14 0 l
0.15 -1.17 l
0.14 2.87 l
0.15 -1.21 l
0.15 -0.24 l
0.14 1.70 l
0.15 -1.95 l
0.14 1.22 l
0.15 0.48 l
0.14 0.73 l
0.15 -1.46 l
0.14 -0.24 l
0.15 1.70 l
0.15 -1.70 l
0.14 -0.24 l
0.15 1.21 l
0.14 -1.21 l
0.15 0.73 l
0.14 -0.25 l
0.15 0 l
0.15 0.73 l
0.14 -1.70 l
0.15 -0.48 l
0.14 2.43 l
0.15 -1.95 l
0.14 0.97 l
0.15 0.49 l
0.14 -0.73 l
0.15 -0.24 l
0.15 1.21 l
0.14 -0.24 l
0.15 -0.97 l
0.14 0.24 l
0.15 0.49 l
0.14 0 l
0.15 -0.25 l
0.14 0.49 l
0.15 0 l
0.15 -0.24 l
0.14 1.21 l
0.15 -1.46 l
0.14 0.98 l
0.15 -0.98 l
0.14 0 l
0.15 0.98 l
0.14 -0.73 l
0.15 0.73 l
0.15 -0.73 l
0.14 -0.25 l
0.15 0.98 l
0.14 -0.49 l
0.15 -0.24 l
0.14 -0.25 l
0.15 0.25 l
0.15 0.48 l
0.14 0.49 l
0.15 -0.24 l
0.14 0.97 l
0.15 -0.97 l
0.14 -0.98 l
236.96 447.00 lineto
0.14 -1.73 l
0.15 1.97 l
0.15 -0.73 l
0.14 0 l
0.15 2.43 l
0.14 -0.73 l
0.15 1.22 l
0.14 -2.19 l
0.15 1.94 l
0.14 -0.73 l
0.15 2.15 l
0.15 -0.93 l
0.14 0.69 l
0.15 1.21 l
0.14 -1.21 l
0.15 0.73 l
0.14 1.21 l
0.15 -0.48 l
0.14 -0.25 l
0.15 0.73 l
0.15 0.98 l
0.14 -0.25 l
0.15 0.73 l
0.14 -0.73 l
0.15 0.49 l
0.14 0.97 l
0.15 0.98 l
0.15 -0.25 l
0.14 -0.73 l
0.15 0.98 l
0.14 -1.22 l
0.15 2.39 l
0.14 -1.42 l
0.15 0.49 l
0.14 0.48 l
0.15 2.40 l
0.15 -2.40 l
0.14 1.91 l
0.15 -0.73 l
0.14 -0.97 l
0.15 1.21 l
0.14 1.71 l
0.15 -1.22 l
0.14 1.22 l
0.15 0.72 l
0.15 -0.72 l
0.14 0 l
0.15 0 l
0.14 0.24 l
0.15 8.47 l
0.14 -8.71 l
0.15 -13.05 l
0.14 24.39 l
0.15 -13.53 l
0.15 -3.61 l
0.14 20.55 l
0.15 -18.60 l
0.14 2.87 l
0.15 10.66 l
0.14 -10.17 l
0.15 0.97 l
0.15 5.80 l
0.14 -3.85 l
0.15 0.73 l
0.14 2.63 l
0.15 -2.63 l
0.14 1.41 l
0.15 1.46 l
0.14 -0.24 l
0.15 -1.70 l
0.15 0.24 l
0.14 0.97 l
0.15 -0.48 l
0.14 0.97 l
0.15 0.24 l
0.14 1.46 l
0.15 0.49 l
0.14 -0.97 l
0.15 0.24 l
0.15 -0.49 l
0.14 0.49 l
0.15 -0.49 l
0.14 1.46 l
0.15 -0.24 l
0.14 0.97 l
0.15 -0.24 l
0.14 0 l
0.15 1.21 l
0.15 -1.70 l
0.14 0.25 l
0.15 0.97 l
0.14 0.48 l
0.15 -0.48 l
0.14 1.90 l
0.15 -1.42 l
0.15 0.94 l
0.14 -0.25 l
0.15 1.46 l
0.14 -0.97 l
251.52 471.88 lineto
0.14 -0.24 l
0.15 0.72 l
0.14 -1.94 l
0.15 0.73 l
0.15 0 l
0.14 0.73 l
0.15 0.24 l
0.14 1.22 l
0.15 0 l
0.14 -0.25 l
0.15 0.25 l
0.14 0 l
0.15 -0.73 l
0.15 0.48 l
0.14 0.49 l
0.15 0.49 l
0.14 0.48 l
0.15 0.49 l
0.14 -0.97 l
0.15 1.46 l
0.14 -0.49 l
0.15 0.69 l
0.15 -0.93 l
0.14 -0.49 l
0.15 1.22 l
0.14 0 l
0.15 1.66 l
0.14 -0.25 l
0.15 1.22 l
0.14 -1.22 l
0.15 0 l
0.15 0.73 l
0.14 -1.94 l
0.15 0.97 l
0.14 0.97 l
0.15 0.49 l
0.14 -0.73 l
0.15 1.22 l
0.15 0.97 l
0.14 -0.24 l
0.15 -2.19 l
0.14 0.73 l
0.15 1.21 l
0.14 0.49 l
0.15 -0.97 l
0.14 2.67 l
0.15 -0.97 l
0.15 -0.24 l
0.14 1.70 l
0.15 -0.73 l
0.14 -0.24 l
0.15 -0.49 l
0.14 -0.49 l
0.15 0 l
0.14 1.22 l
0.15 0 l
0.15 0.48 l
0.14 0 l
0.15 -0.48 l
0.14 1.42 l
0.15 -0.45 l
0.14 0.20 l
0.15 -0.20 l
0.14 1.42 l
0.15 -1.42 l
0.15 0.93 l
0.14 1.46 l
0.15 -1.70 l
0.14 -0.24 l
0.15 1.46 l
0.14 0.97 l
0.15 -1.22 l
0.15 0.25 l
0.14 1.94 l
0.15 -1.94 l
0.14 0.97 l
0.15 0.48 l
0.14 -1.21 l
0.15 2.19 l
0.14 -0.98 l
0.15 -0.73 l
0.15 0.98 l
0.14 0 l
0.15 -0.25 l
0.14 1.71 l
0.15 0.73 l
0.14 -1.71 l
0.15 1.22 l
0.14 0 l
0.15 -0.24 l
0.15 -0.98 l
0.14 0.73 l
0.15 0.73 l
0.14 0.49 l
0.15 0.93 l
0.14 -1.66 l
0.15 -0.24 l
0.14 1.46 l
0.15 -0.98 l
266.08 489.02 lineto
0.14 -2.15 l
0.15 3.12 l
0.14 -0.97 l
0.15 0 l
0.14 0 l
0.15 0.73 l
0.15 -0.49 l
0.14 -0.93 l
0.15 -0.24 l
0.14 1.42 l
0.15 0.24 l
0.14 0 l
0.15 0.24 l
0.14 0.25 l
0.15 0.48 l
0.15 -0.73 l
0.14 -0.48 l
0.15 1.21 l
0.14 0.49 l
0.15 -1.70 l
0.14 1.21 l
0.15 0.25 l
0.14 -0.73 l
0.15 -0.73 l
0.15 0.97 l
0.14 1.46 l
0.15 -0.24 l
0.14 -0.25 l
0.15 -1.21 l
0.14 1.94 l
0.15 0 l
0.14 0 l
0.15 -1.21 l
0.15 1.46 l
0.14 0 l
0.15 -0.25 l
0.14 -0.48 l
0.15 1.21 l
0.14 0 l
0.15 0 l
0.15 -0.24 l
0.14 -0.49 l
0.15 0.49 l
0.14 -0.49 l
0.15 -1.21 l
0.14 2.43 l
0.15 -0.49 l
0.14 -0.97 l
0.15 1.70 l
0.15 0.49 l
0.14 -1.22 l
0.15 -1.21 l
0.14 1.94 l
0.15 0.73 l
0.14 -0.49 l
0.15 0 l
0.14 -0.24 l
0.15 -0.48 l
0.15 0.97 l
0.14 -0.73 l
0.15 0.73 l
0.14 -0.73 l
0.15 0 l
0.14 0.48 l
0.15 -0.72 l
0.14 0.24 l
0.15 1.21 l
0.15 -0.48 l
0.14 0 l
0.15 0.48 l
0.14 -1.21 l
0.15 0.24 l
0.14 1.66 l
0.15 -0.93 l
0.15 -0.73 l
0.14 1.46 l
0.15 0 l
0.14 -0.49 l
0.15 -0.24 l
0.14 0 l
0.15 0.93 l
0.14 -1.90 l
0.15 0 l
0.15 2.39 l
0.14 -0.49 l
0.15 -0.69 l
0.14 0.69 l
0.15 0 l
0.14 -0.20 l
0.15 0.20 l
0.14 -0.44 l
0.15 0 l
0.15 0 l
0.14 0 l
0.15 0.44 l
0.14 -1.42 l
0.15 1.22 l
0.14 1.90 l
0.15 -2.87 l
280.63 494.61 lineto
0.15 1.42 l
0.15 -0.48 l
0.14 -1.18 l
0.15 -0.24 l
0.14 1.66 l
0.15 -1.42 l
0.14 0.93 l
0.15 0.98 l
0.15 -0.49 l
0.14 -1.91 l
0.15 1.42 l
0.14 1.70 l
0.15 -1.90 l
0.14 0.69 l
0.15 -0.49 l
0.14 -0.69 l
0.15 1.91 l
0.15 0.97 l
0.14 -2.19 l
0.15 0 l
0.14 0 l
0.15 -0.69 l
0.14 1.91 l
0.15 -1.22 l
0.14 -0.69 l
0.15 2.15 l
0.15 -0.97 l
0.14 -0.69 l
0.15 1.90 l
0.14 -0.97 l
0.15 0.25 l
0.14 -0.49 l
0.15 0.97 l
0.14 0 l
0.15 -0.73 l
0.15 0.97 l
0.14 -2.14 l
0.15 2.87 l
0.14 -0.24 l
0.15 -1.94 l
0.14 0.24 l
0.15 -0.24 l
0.14 0.24 l
0.15 0.73 l
0.15 -0.24 l
0.14 0 l
0.15 -0.49 l
0.14 0.49 l
0.15 0.72 l
0.14 -0.48 l
0.15 -0.49 l
0.15 -0.73 l
0.14 2.43 l
0.15 0.25 l
0.14 -0.98 l
0.15 0 l
0.14 1.22 l
0.15 -0.49 l
0.14 -0.24 l
0.15 0.24 l
0.15 -0.24 l
0.14 -0.24 l
0.15 0.97 l
0.14 -1.46 l
0.15 0.24 l
0.14 0.49 l
0.15 0.73 l
0.14 -1.70 l
0.15 0.73 l
0.15 -0.25 l
0.14 1.22 l
0.15 -1.46 l
0.14 0.24 l
0.15 0.98 l
0.14 0.48 l
0.15 -0.48 l
0.14 0.48 l
0.15 0 l
0.15 -0.48 l
0.14 -0.49 l
0.15 1.46 l
0.14 -2.19 l
0.15 0.24 l
0.14 0.49 l
0.15 1.70 l
0.15 -0.24 l
0.14 -0.49 l
0.15 0.73 l
0.14 0 l
0.15 -1.21 l
0.14 0.73 l
0.15 0.97 l
0.14 0.73 l
0.15 -1.22 l
0.15 -0.97 l
0.14 1.46 l
0.15 -0.97 l
0.14 -0.98 l
0.15 1.95 l
295.19 500.17 lineto
0.15 -2.19 l
0.14 1.94 l
0.15 -0.24 l
0.15 -0.97 l
0.14 0.24 l
0.15 -0.24 l
0.14 1.21 l
0.15 -0.97 l
0.14 0.24 l
0.15 0 l
0.14 0.25 l
0.15 0.48 l
0.15 -0.73 l
0.14 0 l
0.15 -0.48 l
0.14 1.70 l
0.15 0.24 l
0.14 -1.21 l
0.15 0 l
0.15 0.48 l
0.14 -0.24 l
0.15 -1.46 l
0.14 1.95 l
0.15 0.97 l
0.14 -1.95 l
0.15 0.98 l
0.14 0.73 l
0.15 0 l
0.15 0.48 l
0.14 -0.24 l
0.15 -0.24 l
0.14 -1.22 l
0.15 0.73 l
0.14 -0.49 l
0.15 -0.48 l
0.14 0.97 l
0.15 0.97 l
0.15 0.25 l
0.14 -0.98 l
0.15 0.98 l
0.14 -0.49 l
0.15 0.49 l
0.14 -0.25 l
0.15 0.93 l
0.14 -0.48 l
0.15 0 l
0.15 -0.20 l
0.14 0.20 l
0.15 0.97 l
0.14 -2.15 l
0.15 2.39 l
0.14 -0.97 l
0.15 0.49 l
0.15 -0.73 l
0.14 0.24 l
0.15 -0.24 l
0.14 -0.20 l
0.15 0.44 l
0.14 -0.24 l
0.15 1.21 l
0.14 -0.24 l
0.15 -0.97 l
0.15 1.94 l
0.14 -1.70 l
0.15 1.95 l
0.14 -1.46 l
0.15 0.73 l
0.14 0.97 l
0.15 -0.73 l
0.14 0 l
0.15 0.73 l
0.15 -0.73 l
0.14 0 l
0.15 -0.73 l
0.14 1.95 l
0.15 -1.22 l
0.14 -1.70 l
0.15 3.89 l
0.14 -1.70 l
0.15 0 l
0.15 1.70 l
0.14 -1.22 l
0.15 -0.73 l
0.14 0.73 l
0.15 -0.97 l
0.14 0.24 l
0.15 0.98 l
0.15 -2.44 l
0.14 1.22 l
0.15 0 l
0.14 1.22 l
0.15 -0.98 l
0.14 0.73 l
0.15 -0.24 l
0.14 -0.49 l
0.15 0.49 l
0.15 0.24 l
0.14 -1.21 l
0.15 2.19 l
309.75 504.99 lineto
0.15 -0.49 l
0.14 0.98 l
0.15 0.72 l
0.14 -1.94 l
0.15 -0.24 l
0.15 1.46 l
0.14 -0.49 l
0.15 -0.24 l
0.14 0.48 l
0.15 -0.24 l
0.14 -0.24 l
0.15 0.97 l
0.14 -0.97 l
0.15 0 l
0.15 0.48 l
0.14 -0.24 l
0.15 0.97 l
0.14 -0.97 l
0.15 0.24 l
0.14 0.25 l
0.15 0.72 l
0.15 -1.21 l
0.14 0.97 l
0.15 -0.73 l
0.14 0.97 l
0.15 -1.70 l
0.14 0.73 l
0.15 0.73 l
0.14 -1.21 l
0.15 0 l
0.15 -0.49 l
0.14 0.73 l
0.15 1.46 l
0.14 -0.73 l
0.15 -0.24 l
0.14 0.72 l
0.15 0.25 l
0.14 -1.22 l
0.15 2.43 l
0.15 -0.73 l
0.14 -0.97 l
0.15 0 l
0.14 0 l
0.15 0.24 l
0.14 -0.97 l
0.15 1.46 l
0.14 -0.73 l
0.15 0.73 l
0.15 1.22 l
0.14 -1.22 l
0.15 -0.49 l
0.14 1.22 l
0.15 -0.49 l
0.14 -0.48 l
0.15 -0.73 l
0.15 1.70 l
0.14 0.24 l
0.15 -0.97 l
0.14 0.24 l
0.15 -1.21 l
0.14 0.97 l
0.15 0.49 l
0.14 -0.25 l
0.15 1.22 l
0.15 -1.70 l
0.14 0.24 l
0.15 -1.21 l
0.14 2.18 l
0.15 -1.46 l
0.14 0.98 l
0.15 0 l
0.14 0.73 l
0.15 -1.46 l
0.15 0.97 l
0.14 -1.22 l
0.15 0.98 l
0.14 -0.73 l
0.15 0 l
0.14 0.73 l
0.15 -0.98 l
0.14 0.73 l
0.15 0.49 l
0.15 -0.49 l
0.14 0.25 l
0.15 0.24 l
0.14 0.49 l
0.15 -1.71 l
0.14 0.49 l
0.15 1.66 l
0.14 -0.93 l
0.15 0 l
0.15 -0.49 l
0.14 0.49 l
0.15 0.93 l
0.14 -0.20 l
0.15 -0.49 l
0.14 -1.21 l
0.15 2.39 l
0.15 -2.15 l
324.31 507.66 lineto
0.15 0.49 l
0.14 -0.49 l
0.15 -0.48 l
0.14 0.24 l
0.15 0.24 l
0.14 -0.48 l
0.15 0.73 l
0.15 0.24 l
0.14 -0.97 l
0.15 0.24 l
0.14 0.73 l
0.15 -0.49 l
0.14 -0.97 l
0.15 0.24 l
0.14 2.15 l
0.15 -1.42 l
0.15 0.25 l
0.14 -0.49 l
0.15 0.49 l
0.14 -0.49 l
0.15 -0.49 l
0.14 0.73 l
0.15 1.42 l
0.14 -1.42 l
0.15 0.25 l
0.15 -0.98 l
0.14 0.98 l
0.15 -0.49 l
0.14 0.24 l
0.15 0 l
0.14 -0.48 l
0.15 1.42 l
0.15 -0.69 l
0.14 1.17 l
0.15 -0.93 l
0.14 -0.97 l
0.15 -0.73 l
0.14 1.46 l
0.15 0.69 l
0.14 -1.18 l
0.15 0.24 l
0.15 0.49 l
0.14 0.45 l
0.15 0.97 l
0.14 -1.42 l
0.15 -1.22 l
0.14 0.73 l
0.15 0 l
0.14 0 l
0.15 0.25 l
0.15 0.44 l
0.14 0 l
0.15 -1.17 l
0.14 0.48 l
0.15 -0.73 l
0.14 0.25 l
0.15 0.97 l
0.14 -0.97 l
0.15 0.48 l
0.15 0 l
0.14 0.25 l
0.15 1.17 l
0.14 -0.48 l
0.15 -1.67 l
0.14 0.49 l
0.15 0 l
0.15 -0.97 l
0.14 2.15 l
0.15 -0.25 l
0.14 -0.44 l
0.15 -1.71 l
0.14 1.95 l
0.15 -0.49 l
0.14 1.42 l
0.15 -0.93 l
0.15 -1.22 l
0.14 0.98 l
0.15 0.24 l
0.14 -0.49 l
0.15 -0.24 l
0.14 2.15 l
0.15 -1.91 l
0.14 0 l
0.15 1.18 l
0.15 -1.18 l
0.14 -0.24 l
0.15 0.73 l
0.14 0 l
0.15 0 l
0.14 -0.73 l
0.15 0 l
0.14 0.93 l
0.15 -1.42 l
0.15 1.42 l
0.14 1.46 l
0.15 -1.90 l
0.14 0 l
0.15 -0.25 l
0.14 0.49 l
338.87 506.45 lineto
0.15 2.15 l
0.14 0 l
0.15 0.24 l
0.14 -1.91 l
0.15 0.49 l
0.14 0.93 l
0.15 -0.69 l
0.14 0.25 l
0.15 1.17 l
0.15 -0.73 l
0.14 -0.20 l
0.15 0.69 l
0.14 -0.24 l
0.15 -0.69 l
0.14 -0.98 l
0.15 1.42 l
0.14 -1.42 l
0.15 1.67 l
0.15 0.73 l
0.14 -0.98 l
0.15 0.73 l
0.14 -0.24 l
0.15 -0.93 l
0.14 0 l
0.15 -0.25 l
0.14 0 l
0.15 0.49 l
0.15 0.20 l
0.14 -0.20 l
0.15 0.20 l
0.14 -0.20 l
0.15 -0.97 l
0.14 0.97 l
0.15 -0.24 l
0.15 0.24 l
0.14 -0.24 l
0.15 0.44 l
0.14 0.98 l
0.15 -1.67 l
0.14 0 l
0.15 1.18 l
0.14 -0.69 l
0.15 1.66 l
0.15 -1.90 l
0.14 1.66 l
0.15 -1.22 l
0.14 0 l
0.15 -1.17 l
0.14 0.73 l
0.15 -0.49 l
0.14 0.73 l
0.15 1.18 l
0.15 -1.42 l
0.14 0.44 l
0.15 0.98 l
0.14 -1.67 l
0.15 0.94 l
0.14 -0.69 l
0.15 1.66 l
0.14 -0.73 l
0.15 -0.24 l
0.15 0.48 l
0.14 -0.93 l
0.15 1.18 l
0.14 -1.67 l
0.15 1.18 l
0.14 -0.69 l
0.15 0.45 l
0.15 -0.25 l
0.14 2.43 l
0.15 -2.63 l
0.14 0.93 l
0.15 0.49 l
0.14 -1.42 l
0.15 0.20 l
0.14 -0.20 l
0.15 0.45 l
0.15 0.73 l
0.14 -1.91 l
0.15 0.93 l
0.14 0.73 l
0.15 0 l
0.14 -0.93 l
0.15 1.42 l
0.14 -1.22 l
0.15 -0.20 l
0.15 1.18 l
0.14 -0.73 l
0.15 0.24 l
0.14 -0.93 l
0.15 0.44 l
0.14 -0.44 l
0.15 2.39 l
0.14 -2.15 l
0.15 0 l
0.15 -0.24 l
0.14 0.24 l
0.15 0 l
0.14 0.69 l
353.43 510.05 lineto
0.14 -1.45 l
0.15 -1.18 l
0.14 1.42 l
0.15 1.94 l
0.15 -2.18 l
0.14 -0.45 l
0.15 2.15 l
0.14 -1.95 l
0.15 0.98 l
0.14 -1.18 l
0.15 1.42 l
0.15 -0.73 l
0.14 -0.24 l
0.15 0.73 l
0.14 0 l
0.15 -0.73 l
0.14 0.24 l
0.15 -0.24 l
0.14 0.97 l
0.15 -0.49 l
0.15 0.49 l
0.14 0.24 l
0.15 -1.46 l
0.14 0.49 l
0.15 1.21 l
0.14 -0.72 l
0.15 -0.73 l
0.14 -0.45 l
0.15 1.42 l
0.15 -1.42 l
0.14 0.45 l
0.15 0.97 l
0.14 0.73 l
0.15 -0.73 l
0.14 1.21 l
0.15 -1.21 l
0.14 0.24 l
0.15 0 l
0.15 0.24 l
0.14 0 l
0.15 -1.70 l
0.14 0.98 l
0.15 0.24 l
0.14 1.46 l
0.15 -3.12 l
0.15 1.42 l
0.14 0 l
0.15 -0.49 l
0.14 0.49 l
0.15 0 l
0.14 0.97 l
0.15 -1.46 l
0.14 0.73 l
0.15 -0.49 l
0.15 1.70 l
0.14 -0.97 l
0.15 -0.48 l
0.14 -0.49 l
0.15 -0.49 l
0.14 1.46 l
0.15 -0.73 l
0.14 0.73 l
0.15 -0.97 l
0.15 0.97 l
0.14 -0.24 l
0.15 -0.73 l
0.14 -0.69 l
0.15 1.66 l
0.14 -0.48 l
0.15 0.72 l
0.14 -0.72 l
0.15 0.72 l
0.15 -0.24 l
0.14 -1.66 l
0.15 2.39 l
0.14 0 l
0.15 -1.94 l
0.14 0 l
0.15 1.45 l
0.15 -0.97 l
0.14 0.97 l
0.15 -0.48 l
0.14 1.94 l
0.15 -2.67 l
0.14 1.70 l
0.15 -0.24 l
0.14 -0.97 l
0.15 -1.18 l
0.15 1.90 l
0.14 0.25 l
0.15 -0.97 l
0.14 0.72 l
0.15 1.22 l
0.14 -1.70 l
0.15 0 l
0.14 0.48 l
0.15 -0.72 l
0.15 -0.49 l
0.14 0.73 l
currentpoint o m
367.99 511.27 lineto
0.14 -0.97 l
0.15 -0.73 l
0.14 0.48 l
0.15 0 l
0.14 0 l
0.15 -0.97 l
0.15 -0.24 l
0.14 0.49 l
0.15 0.72 l
0.14 -0.97 l
0.15 1.22 l
0.14 -0.73 l
0.15 0.24 l
0.15 0.24 l
0.14 -0.72 l
0.15 0.24 l
0.14 0.24 l
0.15 -0.73 l
0.14 -0.24 l
0.15 0.97 l
0.14 0.97 l
0.15 -2.18 l
0.15 1.21 l
0.14 0.73 l
0.15 0 l
0.14 -1.21 l
0.15 -0.49 l
0.14 -0.24 l
0.15 1.45 l
0.14 -1.21 l
0.15 0.97 l
0.15 -0.73 l
0.14 2.19 l
0.15 -1.70 l
0.14 0.48 l
0.15 0 l
0.14 0.98 l
0.15 -1.70 l
0.14 -0.25 l
0.15 0.49 l
0.15 0.48 l
0.14 -0.72 l
0.15 -0.49 l
0.14 0 l
0.15 0 l
0.14 0.97 l
0.15 0 l
0.15 -0.73 l
0.14 0.25 l
0.15 0.72 l
0.14 0.25 l
0.15 -0.49 l
0.14 0 l
0.15 0.24 l
0.14 -0.48 l
0.15 1.70 l
0.15 -0.97 l
0.14 -0.25 l
0.15 -0.24 l
0.14 0.24 l
0.15 0.98 l
0.14 -0.98 l
0.15 -1.21 l
0.14 1.70 l
0.15 -0.73 l
0.15 -0.48 l
0.14 -0.25 l
0.15 0.73 l
0.14 0.24 l
0.15 -1.45 l
0.14 1.94 l
0.15 0.24 l
0.14 -0.24 l
0.15 -1.94 l
0.15 0.97 l
0.14 -0.24 l
0.15 0.48 l
0.14 0 l
0.15 0.24 l
0.14 -0.72 l
0.15 1.21 l
0.15 -0.97 l
0.14 1.21 l
0.15 0.25 l
0.14 -1.46 l
0.15 -0.24 l
0.14 1.45 l
0.15 -2.63 l
0.14 0 l
0.15 2.63 l
0.15 -1.70 l
0.14 1.46 l
0.15 -0.49 l
0.14 -0.48 l
0.15 1.46 l
0.14 -1.22 l
0.15 -1.46 l
0.14 2.19 l
0.15 -0.73 l
o
/bg { 1 1 1 srgb } def
222.40 508.15 0.43 c p3
222.55 509.81 0.43 c p3
222.69 508.84 0.43 c p3
222.84 509.81 0.43 c p3
222.98 509.57 0.43 c p3
223.13 509.33 0.43 c p3
223.27 509.33 0.43 c p3
223.42 510.05 0.43 c p3
223.56 509.57 0.43 c p3
223.71 509.08 0.43 c p3
223.86 509.81 0.43 c p3
224.00 509.08 0.43 c p3
224.15 509.81 0.43 c p3
224.29 509.57 0.43 c p3
224.44 509.33 0.43 c p3
224.58 510.30 0.43 c p3
224.73 509.81 0.43 c p3
224.87 509.81 0.43 c p3
225.02 508.84 0.43 c p3
225.17 510.78 0.43 c p3
225.31 509.81 0.43 c p3
225.46 509.81 0.43 c p3
225.60 508.84 0.43 c p3
225.75 508.84 0.43 c p3
225.89 509.08 0.43 c p3
226.04 509.57 0.43 c p3
226.19 510.30 0.43 c p3
226.33 509.57 0.43 c p3
226.48 509.33 0.43 c p3
226.62 510.54 0.43 c p3
226.77 510.54 0.43 c p3
226.91 509.57 0.43 c p3
227.06 510.30 0.43 c p3
227.20 509.81 0.43 c p3
227.35 511.27 0.43 c p3
227.50 510.05 0.43 c p3
227.64 510.05 0.43 c p3
227.79 509.33 0.43 c p3
227.93 510.05 0.43 c p3
228.08 509.08 0.43 c p3
228.22 509.08 0.43 c p3
228.37 507.91 0.43 c p3
228.51 510.78 0.43 c p3
228.66 509.57 0.43 c p3
228.81 509.33 0.43 c p3
228.95 511.03 0.43 c p3
229.10 509.08 0.43 c p3
229.24 510.30 0.43 c p3
229.39 510.78 0.43 c p3
229.53 511.51 0.43 c p3
229.68 510.05 0.43 c p3
229.82 509.81 0.43 c p3
229.97 511.51 0.43 c p3
230.12 509.81 0.43 c p3
230.26 509.57 0.43 c p3
230.41 510.78 0.43 c p3
230.55 509.57 0.43 c p3
230.70 510.30 0.43 c p3
230.84 510.05 0.43 c p3
230.99 510.05 0.43 c p3
231.14 510.78 0.43 c p3
231.28 509.08 0.43 c p3
231.43 508.60 0.43 c p3
231.57 511.03 0.43 c p3
231.72 509.08 0.43 c p3
231.86 510.05 0.43 c p3
232.01 510.54 0.43 c p3
232.15 509.81 0.43 c p3
232.30 509.57 0.43 c p3
232.45 510.78 0.43 c p3
232.59 510.54 0.43 c p3
232.74 509.57 0.43 c p3
232.88 509.81 0.43 c p3
233.03 510.30 0.43 c p3
233.17 510.30 0.43 c p3
233.32 510.05 0.43 c p3
233.46 510.54 0.43 c p3
233.61 510.54 0.43 c p3
233.76 510.30 0.43 c p3
233.90 511.51 0.43 c p3
234.05 510.05 0.43 c p3
234.19 511.03 0.43 c p3
234.34 510.05 0.43 c p3
234.48 510.05 0.43 c p3
234.63 511.03 0.43 c p3
234.77 510.30 0.43 c p3
234.92 511.03 0.43 c p3
235.07 510.30 0.43 c p3
235.21 510.05 0.43 c p3
235.36 511.03 0.43 c p3
235.50 510.54 0.43 c p3
235.65 510.30 0.43 c p3
235.79 510.05 0.43 c p3
235.94 510.30 0.43 c p3
236.09 510.78 0.43 c p3
236.23 511.27 0.43 c p3
236.38 511.03 0.43 c p3
236.52 512.00 0.43 c p3
236.67 511.03 0.43 c p3
236.81 510.05 0.43 c p3
236.96 447.00 0.43 c p3
237.10 445.27 0.43 c p3
237.25 447.24 0.43 c p3
237.40 446.51 0.43 c p3
237.54 446.51 0.43 c p3
237.69 448.94 0.43 c p3
237.83 448.21 0.43 c p3
237.98 449.43 0.43 c p3
238.12 447.24 0.43 c p3
238.27 449.18 0.43 c p3
238.41 448.45 0.43 c p3
238.56 450.60 0.43 c p3
238.71 449.67 0.43 c p3
238.85 450.36 0.43 c p3
239.00 451.57 0.43 c p3
239.14 450.36 0.43 c p3
239.29 451.09 0.43 c p3
239.43 452.30 0.43 c p3
239.58 451.82 0.43 c p3
239.72 451.57 0.43 c p3
239.87 452.30 0.43 c p3
240.02 453.28 0.43 c p3
240.16 453.03 0.43 c p3
240.31 453.76 0.43 c p3
240.45 453.03 0.43 c p3
240.60 453.52 0.43 c p3
240.74 454.49 0.43 c p3
240.89 455.47 0.43 c p3
241.04 455.22 0.43 c p3
241.18 454.49 0.43 c p3
241.33 455.47 0.43 c p3
241.47 454.25 0.43 c p3
241.62 456.64 0.43 c p3
241.76 455.22 0.43 c p3
241.91 455.71 0.43 c p3
242.05 456.19 0.43 c p3
242.20 458.59 0.43 c p3
242.35 456.19 0.43 c p3
242.49 458.10 0.43 c p3
242.64 457.37 0.43 c p3
242.78 456.40 0.43 c p3
242.93 457.61 0.43 c p3
243.07 459.32 0.43 c p3
243.22 458.10 0.43 c p3
243.36 459.32 0.43 c p3
243.51 460.04 0.43 c p3
243.66 459.32 0.43 c p3
243.80 459.32 0.43 c p3
243.95 459.32 0.43 c p3
244.09 459.56 0.43 c p3
244.24 468.03 0.43 c p3
244.38 459.32 0.43 c p3
244.53 446.27 0.43 c p3
244.67 470.66 0.43 c p3
244.82 457.13 0.43 c p3
244.97 453.52 0.43 c p3
245.11 474.07 0.43 c p3
245.26 455.47 0.43 c p3
245.40 458.34 0.43 c p3
245.55 469.00 0.43 c p3
245.69 458.83 0.43 c p3
245.84 459.80 0.43 c p3
245.99 465.60 0.43 c p3
246.13 461.75 0.43 c p3
246.28 462.48 0.43 c p3
246.42 465.11 0.43 c p3
246.57 462.48 0.43 c p3
246.71 463.89 0.43 c p3
246.86 465.35 0.43 c p3
247.00 465.11 0.43 c p3
247.15 463.41 0.43 c p3
247.30 463.65 0.43 c p3
247.44 464.62 0.43 c p3
247.59 464.14 0.43 c p3
247.73 465.11 0.43 c p3
247.88 465.35 0.43 c p3
248.02 466.81 0.43 c p3
248.17 467.30 0.43 c p3
248.31 466.33 0.43 c p3
248.46 466.57 0.43 c p3
248.61 466.08 0.43 c p3
248.75 466.57 0.43 c p3
248.90 466.08 0.43 c p3
249.04 467.54 0.43 c p3
249.19 467.30 0.43 c p3
249.33 468.27 0.43 c p3
249.48 468.03 0.43 c p3
249.62 468.03 0.43 c p3
249.77 469.24 0.43 c p3
249.92 467.54 0.43 c p3
250.06 467.79 0.43 c p3
250.21 468.76 0.43 c p3
250.35 469.24 0.43 c p3
250.50 468.76 0.43 c p3
250.64 470.66 0.43 c p3
250.79 469.24 0.43 c p3
250.94 470.18 0.43 c p3
251.08 469.93 0.43 c p3
251.23 471.39 0.43 c p3
251.37 470.42 0.43 c p3
251.52 471.88 0.43 c p3
251.66 471.64 0.43 c p3
251.81 472.36 0.43 c p3
251.95 470.42 0.43 c p3
252.10 471.15 0.43 c p3
252.25 471.15 0.43 c p3
252.39 471.88 0.43 c p3
252.54 472.12 0.43 c p3
252.68 473.34 0.43 c p3
252.83 473.34 0.43 c p3
252.97 473.09 0.43 c p3
253.12 473.34 0.43 c p3
253.26 473.34 0.43 c p3
253.41 472.61 0.43 c p3
253.56 473.09 0.43 c p3
253.70 473.58 0.43 c p3
253.85 474.07 0.43 c p3
253.99 474.55 0.43 c p3
254.14 475.04 0.43 c p3
254.28 474.07 0.43 c p3
254.43 475.53 0.43 c p3
254.57 475.04 0.43 c p3
254.72 475.73 0.43 c p3
254.87 474.80 0.43 c p3
255.01 474.31 0.43 c p3
255.16 475.53 0.43 c p3
255.30 475.53 0.43 c p3
255.45 477.19 0.43 c p3
255.59 476.94 0.43 c p3
255.74 478.16 0.43 c p3
255.88 476.94 0.43 c p3
256.03 476.94 0.43 c p3
256.18 477.67 0.43 c p3
256.32 475.73 0.43 c p3
256.47 476.70 0.43 c p3
256.61 477.67 0.43 c p3
256.76 478.16 0.43 c p3
256.90 477.43 0.43 c p3
257.05 478.65 0.43 c p3
257.20 479.62 0.43 c p3
257.34 479.38 0.43 c p3
257.49 477.19 0.43 c p3
257.63 477.92 0.43 c p3
257.78 479.13 0.43 c p3
257.92 479.62 0.43 c p3
258.07 478.65 0.43 c p3
258.21 481.32 0.43 c p3
258.36 480.35 0.43 c p3
258.51 480.11 0.43 c p3
258.65 481.81 0.43 c p3
258.80 481.08 0.43 c p3
258.94 480.84 0.43 c p3
259.09 480.35 0.43 c p3
259.23 479.86 0.43 c p3
259.38 479.86 0.43 c p3
259.52 481.08 0.43 c p3
259.67 481.08 0.43 c p3
259.82 481.56 0.43 c p3
259.96 481.56 0.43 c p3
260.11 481.08 0.43 c p3
260.25 482.50 0.43 c p3
260.40 482.05 0.43 c p3
260.54 482.25 0.43 c p3
260.69 482.05 0.43 c p3
260.83 483.47 0.43 c p3
260.98 482.05 0.43 c p3
261.13 482.98 0.43 c p3
261.27 484.44 0.43 c p3
261.42 482.74 0.43 c p3
261.56 482.50 0.43 c p3
261.71 483.96 0.43 c p3
261.85 484.93 0.43 c p3
262.00 483.71 0.43 c p3
262.15 483.96 0.43 c p3
262.29 485.90 0.43 c p3
262.44 483.96 0.43 c p3
262.58 484.93 0.43 c p3
262.73 485.41 0.43 c p3
262.87 484.20 0.43 c p3
263.02 486.39 0.43 c p3
263.16 485.41 0.43 c p3
263.31 484.68 0.43 c p3
263.46 485.66 0.43 c p3
263.60 485.66 0.43 c p3
263.75 485.41 0.43 c p3
263.89 487.12 0.43 c p3
264.04 487.85 0.43 c p3
264.18 486.14 0.43 c p3
264.33 487.36 0.43 c p3
264.47 487.36 0.43 c p3
264.62 487.12 0.43 c p3
264.77 486.14 0.43 c p3
264.91 486.87 0.43 c p3
265.06 487.60 0.43 c p3
265.20 488.09 0.43 c p3
265.35 489.02 0.43 c p3
265.49 487.36 0.43 c p3
265.64 487.12 0.43 c p3
265.78 488.58 0.43 c p3
265.93 487.60 0.43 c p3
266.08 489.02 0.43 c p3
266.22 486.87 0.43 c p3
266.37 489.99 0.43 c p3
266.51 489.02 0.43 c p3
266.66 489.02 0.43 c p3
266.80 489.02 0.43 c p3
266.95 489.75 0.43 c p3
267.10 489.26 0.43 c p3
267.24 488.33 0.43 c p3
267.39 488.09 0.43 c p3
267.53 489.51 0.43 c p3
267.68 489.75 0.43 c p3
267.82 489.75 0.43 c p3
267.97 489.99 0.43 c p3
268.11 490.24 0.43 c p3
268.26 490.72 0.43 c p3
268.41 489.99 0.43 c p3
268.55 489.51 0.43 c p3
268.70 490.72 0.43 c p3
268.84 491.21 0.43 c p3
268.99 489.51 0.43 c p3
269.13 490.72 0.43 c p3
269.28 490.97 0.43 c p3
269.42 490.24 0.43 c p3
269.57 489.51 0.43 c p3
269.72 490.48 0.43 c p3
269.86 491.94 0.43 c p3
270.01 491.70 0.43 c p3
270.15 491.45 0.43 c p3
270.30 490.24 0.43 c p3
270.44 492.18 0.43 c p3
270.59 492.18 0.43 c p3
270.73 492.18 0.43 c p3
270.88 490.97 0.43 c p3
271.03 492.43 0.43 c p3
271.17 492.43 0.43 c p3
271.32 492.18 0.43 c p3
271.46 491.70 0.43 c p3
271.61 492.91 0.43 c p3
271.75 492.91 0.43 c p3
271.90 492.91 0.43 c p3
272.05 492.67 0.43 c p3
272.19 492.18 0.43 c p3
272.34 492.67 0.43 c p3
272.48 492.18 0.43 c p3
272.63 490.97 0.43 c p3
272.77 493.40 0.43 c p3
272.92 492.91 0.43 c p3
273.06 491.94 0.43 c p3
273.21 493.64 0.43 c p3
273.36 494.13 0.43 c p3
273.50 492.91 0.43 c p3
273.65 491.70 0.43 c p3
273.79 493.64 0.43 c p3
273.94 494.37 0.43 c p3
274.08 493.88 0.43 c p3
274.23 493.88 0.43 c p3
274.37 493.64 0.43 c p3
274.52 493.16 0.43 c p3
274.67 494.13 0.43 c p3
274.81 493.40 0.43 c p3
274.96 494.13 0.43 c p3
275.10 493.40 0.43 c p3
275.25 493.40 0.43 c p3
275.39 493.88 0.43 c p3
275.54 493.16 0.43 c p3
275.68 493.40 0.43 c p3
275.83 494.61 0.43 c p3
275.98 494.13 0.43 c p3
276.12 494.13 0.43 c p3
276.27 494.61 0.43 c p3
276.41 493.40 0.43 c p3
276.56 493.64 0.43 c p3
276.70 495.30 0.43 c p3
276.85 494.37 0.43 c p3
277.00 493.64 0.43 c p3
277.14 495.10 0.43 c p3
277.29 495.10 0.43 c p3
277.43 494.61 0.43 c p3
277.58 494.37 0.43 c p3
277.72 494.37 0.43 c p3
277.87 495.30 0.43 c p3
278.01 493.40 0.43 c p3
278.16 493.40 0.43 c p3
278.31 495.79 0.43 c p3
278.45 495.30 0.43 c p3
278.60 494.61 0.43 c p3
278.74 495.30 0.43 c p3
278.89 495.30 0.43 c p3
279.03 495.10 0.43 c p3
279.18 495.30 0.43 c p3
279.32 494.86 0.43 c p3
279.47 494.86 0.43 c p3
279.62 494.86 0.43 c p3
279.76 494.86 0.43 c p3
279.91 495.30 0.43 c p3
280.05 493.88 0.43 c p3
280.20 495.10 0.43 c p3
280.34 497.00 0.43 c p3
280.49 494.13 0.43 c p3
280.63 494.61 0.43 c p3
280.78 496.03 0.43 c p3
280.93 495.55 0.43 c p3
281.07 494.37 0.43 c p3
281.22 494.13 0.43 c p3
281.36 495.79 0.43 c p3
281.51 494.37 0.43 c p3
281.65 495.30 0.43 c p3
281.80 496.28 0.43 c p3
281.95 495.79 0.43 c p3
282.09 493.88 0.43 c p3
282.24 495.30 0.43 c p3
282.38 497.00 0.43 c p3
282.53 495.10 0.43 c p3
282.67 495.79 0.43 c p3
282.82 495.30 0.43 c p3
282.96 494.61 0.43 c p3
283.11 496.52 0.43 c p3
283.26 497.49 0.43 c p3
283.40 495.30 0.43 c p3
283.55 495.30 0.43 c p3
283.69 495.30 0.43 c p3
283.84 494.61 0.43 c p3
283.98 496.52 0.43 c p3
284.13 495.30 0.43 c p3
284.27 494.61 0.43 c p3
284.42 496.76 0.43 c p3
284.57 495.79 0.43 c p3
284.71 495.10 0.43 c p3
284.86 497.00 0.43 c p3
285.00 496.03 0.43 c p3
285.15 496.28 0.43 c p3
285.29 495.79 0.43 c p3
285.44 496.76 0.43 c p3
285.58 496.76 0.43 c p3
285.73 496.03 0.43 c p3
285.88 497.00 0.43 c p3
286.02 494.86 0.43 c p3
286.17 497.73 0.43 c p3
286.31 497.49 0.43 c p3
286.46 495.55 0.43 c p3
286.60 495.79 0.43 c p3
286.75 495.55 0.43 c p3
286.89 495.79 0.43 c p3
287.04 496.52 0.43 c p3
287.19 496.28 0.43 c p3
287.33 496.28 0.43 c p3
287.48 495.79 0.43 c p3
287.62 496.28 0.43 c p3
287.77 497.00 0.43 c p3
287.91 496.52 0.43 c p3
288.06 496.03 0.43 c p3
288.21 495.30 0.43 c p3
288.35 497.73 0.43 c p3
288.50 497.98 0.43 c p3
288.64 497.00 0.43 c p3
288.79 497.00 0.43 c p3
288.93 498.22 0.43 c p3
289.08 497.73 0.43 c p3
289.22 497.49 0.43 c p3
289.37 497.73 0.43 c p3
289.52 497.49 0.43 c p3
289.66 497.25 0.43 c p3
289.81 498.22 0.43 c p3
289.95 496.76 0.43 c p3
290.10 497.00 0.43 c p3
290.24 497.49 0.43 c p3
290.39 498.22 0.43 c p3
290.53 496.52 0.43 c p3
290.68 497.25 0.43 c p3
290.83 497.00 0.43 c p3
290.97 498.22 0.43 c p3
291.12 496.76 0.43 c p3
291.26 497.00 0.43 c p3
291.41 497.98 0.43 c p3
291.55 498.46 0.43 c p3
291.70 497.98 0.43 c p3
291.84 498.46 0.43 c p3
291.99 498.46 0.43 c p3
292.14 497.98 0.43 c p3
292.28 497.49 0.43 c p3
292.43 498.95 0.43 c p3
292.57 496.76 0.43 c p3
292.72 497.00 0.43 c p3
292.86 497.49 0.43 c p3
293.01 499.19 0.43 c p3
293.16 498.95 0.43 c p3
293.30 498.46 0.43 c p3
293.45 499.19 0.43 c p3
293.59 499.19 0.43 c p3
293.74 497.98 0.43 c p3
293.88 498.71 0.43 c p3
294.03 499.68 0.43 c p3
294.17 500.41 0.43 c p3
294.32 499.19 0.43 c p3
294.47 498.22 0.43 c p3
294.61 499.68 0.43 c p3
294.76 498.71 0.43 c p3
294.90 497.73 0.43 c p3
295.05 499.68 0.43 c p3
295.19 500.17 0.43 c p3
295.34 497.98 0.43 c p3
295.48 499.92 0.43 c p3
295.63 499.68 0.43 c p3
295.78 498.71 0.43 c p3
295.92 498.95 0.43 c p3
296.07 498.71 0.43 c p3
296.21 499.92 0.43 c p3
296.36 498.95 0.43 c p3
296.50 499.19 0.43 c p3
296.65 499.19 0.43 c p3
296.79 499.44 0.43 c p3
296.94 499.92 0.43 c p3
297.09 499.19 0.43 c p3
297.23 499.19 0.43 c p3
297.38 498.71 0.43 c p3
297.52 500.41 0.43 c p3
297.67 500.65 0.43 c p3
297.81 499.44 0.43 c p3
297.96 499.44 0.43 c p3
298.11 499.92 0.43 c p3
298.25 499.68 0.43 c p3
298.40 498.22 0.43 c p3
298.54 500.17 0.43 c p3
298.69 501.14 0.43 c p3
298.83 499.19 0.43 c p3
298.98 500.17 0.43 c p3
299.12 500.90 0.43 c p3
299.27 500.90 0.43 c p3
299.42 501.38 0.43 c p3
299.56 501.14 0.43 c p3
299.71 500.90 0.43 c p3
299.85 499.68 0.43 c p3
300.00 500.41 0.43 c p3
300.14 499.92 0.43 c p3
300.29 499.44 0.43 c p3
300.43 500.41 0.43 c p3
300.58 501.38 0.43 c p3
300.73 501.63 0.43 c p3
300.87 500.65 0.43 c p3
301.02 501.63 0.43 c p3
301.16 501.14 0.43 c p3
301.31 501.63 0.43 c p3
301.45 501.38 0.43 c p3
301.60 502.31 0.43 c p3
301.74 501.83 0.43 c p3
301.89 501.83 0.43 c p3
302.04 501.63 0.43 c p3
302.18 501.83 0.43 c p3
302.33 502.80 0.43 c p3
302.47 500.65 0.43 c p3
302.62 503.04 0.43 c p3
302.76 502.07 0.43 c p3
302.91 502.56 0.43 c p3
303.06 501.83 0.43 c p3
303.20 502.07 0.43 c p3
303.35 501.83 0.43 c p3
303.49 501.63 0.43 c p3
303.64 502.07 0.43 c p3
303.78 501.83 0.43 c p3
303.93 503.04 0.43 c p3
304.07 502.80 0.43 c p3
304.22 501.83 0.43 c p3
304.37 503.77 0.43 c p3
304.51 502.07 0.43 c p3
304.66 504.02 0.43 c p3
304.80 502.56 0.43 c p3
304.95 503.29 0.43 c p3
305.09 504.26 0.43 c p3
305.24 503.53 0.43 c p3
305.38 503.53 0.43 c p3
305.53 504.26 0.43 c p3
305.68 503.53 0.43 c p3
305.82 503.53 0.43 c p3
305.97 502.80 0.43 c p3
306.11 504.75 0.43 c p3
306.26 503.53 0.43 c p3
306.40 501.83 0.43 c p3
306.55 505.72 0.43 c p3
306.69 504.02 0.43 c p3
306.84 504.02 0.43 c p3
306.99 505.72 0.43 c p3
307.13 504.50 0.43 c p3
307.28 503.77 0.43 c p3
307.42 504.50 0.43 c p3
307.57 503.53 0.43 c p3
307.71 503.77 0.43 c p3
307.86 504.75 0.43 c p3
308.01 502.31 0.43 c p3
308.15 503.53 0.43 c p3
308.30 503.53 0.43 c p3
308.44 504.75 0.43 c p3
308.59 503.77 0.43 c p3
308.73 504.50 0.43 c p3
308.88 504.26 0.43 c p3
309.02 503.77 0.43 c p3
309.17 504.26 0.43 c p3
309.32 504.50 0.43 c p3
309.46 503.29 0.43 c p3
309.61 505.48 0.43 c p3
309.75 504.99 0.43 c p3
309.90 504.50 0.43 c p3
310.04 505.48 0.43 c p3
310.19 506.20 0.43 c p3
310.33 504.26 0.43 c p3
310.48 504.02 0.43 c p3
310.63 505.48 0.43 c p3
310.77 504.99 0.43 c p3
310.92 504.75 0.43 c p3
311.06 505.23 0.43 c p3
311.21 504.99 0.43 c p3
311.35 504.75 0.43 c p3
311.50 505.72 0.43 c p3
311.64 504.75 0.43 c p3
311.79 504.75 0.43 c p3
311.94 505.23 0.43 c p3
312.08 504.99 0.43 c p3
312.23 505.96 0.43 c p3
312.37 504.99 0.43 c p3
312.52 505.23 0.43 c p3
312.66 505.48 0.43 c p3
312.81 506.20 0.43 c p3
312.96 504.99 0.43 c p3
313.10 505.96 0.43 c p3
313.25 505.23 0.43 c p3
313.39 506.20 0.43 c p3
313.54 504.50 0.43 c p3
313.68 505.23 0.43 c p3
313.83 505.96 0.43 c p3
313.97 504.75 0.43 c p3
314.12 504.75 0.43 c p3
314.27 504.26 0.43 c p3
314.41 504.99 0.43 c p3
314.56 506.45 0.43 c p3
314.70 505.72 0.43 c p3
314.85 505.48 0.43 c p3
314.99 506.20 0.43 c p3
315.14 506.45 0.43 c p3
315.28 505.23 0.43 c p3
315.43 507.66 0.43 c p3
315.58 506.93 0.43 c p3
315.72 505.96 0.43 c p3
315.87 505.96 0.43 c p3
316.01 505.96 0.43 c p3
316.16 506.20 0.43 c p3
316.30 505.23 0.43 c p3
316.45 506.69 0.43 c p3
316.59 505.96 0.43 c p3
316.74 506.69 0.43 c p3
316.89 507.91 0.43 c p3
317.03 506.69 0.43 c p3
317.18 506.20 0.43 c p3
317.32 507.42 0.43 c p3
317.47 506.93 0.43 c p3
317.61 506.45 0.43 c p3
317.76 505.72 0.43 c p3
317.91 507.42 0.43 c p3
318.05 507.66 0.43 c p3
318.20 506.69 0.43 c p3
318.34 506.93 0.43 c p3
318.49 505.72 0.43 c p3
318.63 506.69 0.43 c p3
318.78 507.18 0.43 c p3
318.92 506.93 0.43 c p3
319.07 508.15 0.43 c p3
319.22 506.45 0.43 c p3
319.36 506.69 0.43 c p3
319.51 505.48 0.43 c p3
319.65 507.66 0.43 c p3
319.80 506.20 0.43 c p3
319.94 507.18 0.43 c p3
320.09 507.18 0.43 c p3
320.23 507.91 0.43 c p3
320.38 506.45 0.43 c p3
320.53 507.42 0.43 c p3
320.67 506.20 0.43 c p3
320.82 507.18 0.43 c p3
320.96 506.45 0.43 c p3
321.11 506.45 0.43 c p3
321.25 507.18 0.43 c p3
321.40 506.20 0.43 c p3
321.54 506.93 0.43 c p3
321.69 507.42 0.43 c p3
321.84 506.93 0.43 c p3
321.98 507.18 0.43 c p3
322.13 507.42 0.43 c p3
322.27 507.91 0.43 c p3
322.42 506.20 0.43 c p3
322.56 506.69 0.43 c p3
322.71 508.35 0.43 c p3
322.85 507.42 0.43 c p3
323.00 507.42 0.43 c p3
323.15 506.93 0.43 c p3
323.29 507.42 0.43 c p3
323.44 508.35 0.43 c p3
323.58 508.15 0.43 c p3
323.73 507.66 0.43 c p3
323.87 506.45 0.43 c p3
324.02 508.84 0.43 c p3
324.17 506.69 0.43 c p3
324.31 507.66 0.43 c p3
324.46 508.15 0.43 c p3
324.60 507.66 0.43 c p3
324.75 507.18 0.43 c p3
324.89 507.42 0.43 c p3
325.04 507.66 0.43 c p3
325.18 507.18 0.43 c p3
325.33 507.91 0.43 c p3
325.48 508.15 0.43 c p3
325.62 507.18 0.43 c p3
325.77 507.42 0.43 c p3
325.91 508.15 0.43 c p3
326.06 507.66 0.43 c p3
326.20 506.69 0.43 c p3
326.35 506.93 0.43 c p3
326.49 509.08 0.43 c p3
326.64 507.66 0.43 c p3
326.79 507.91 0.43 c p3
326.93 507.42 0.43 c p3
327.08 507.91 0.43 c p3
327.22 507.42 0.43 c p3
327.37 506.93 0.43 c p3
327.51 507.66 0.43 c p3
327.66 509.08 0.43 c p3
327.80 507.66 0.43 c p3
327.95 507.91 0.43 c p3
328.10 506.93 0.43 c p3
328.24 507.91 0.43 c p3
328.39 507.42 0.43 c p3
328.53 507.66 0.43 c p3
328.68 507.66 0.43 c p3
328.82 507.18 0.43 c p3
328.97 508.60 0.43 c p3
329.12 507.91 0.43 c p3
329.26 509.08 0.43 c p3
329.41 508.15 0.43 c p3
329.55 507.18 0.43 c p3
329.70 506.45 0.43 c p3
329.84 507.91 0.43 c p3
329.99 508.60 0.43 c p3
330.13 507.42 0.43 c p3
330.28 507.66 0.43 c p3
330.43 508.15 0.43 c p3
330.57 508.60 0.43 c p3
330.72 509.57 0.43 c p3
330.86 508.15 0.43 c p3
331.01 506.93 0.43 c p3
331.15 507.66 0.43 c p3
331.30 507.66 0.43 c p3
331.44 507.66 0.43 c p3
331.59 507.91 0.43 c p3
331.74 508.35 0.43 c p3
331.88 508.35 0.43 c p3
332.03 507.18 0.43 c p3
332.17 507.66 0.43 c p3
332.32 506.93 0.43 c p3
332.46 507.18 0.43 c p3
332.61 508.15 0.43 c p3
332.75 507.18 0.43 c p3
332.90 507.66 0.43 c p3
333.05 507.66 0.43 c p3
333.19 507.91 0.43 c p3
333.34 509.08 0.43 c p3
333.48 508.60 0.43 c p3
333.63 506.93 0.43 c p3
333.77 507.42 0.43 c p3
333.92 507.42 0.43 c p3
334.07 506.45 0.43 c p3
334.21 508.60 0.43 c p3
334.36 508.35 0.43 c p3
334.50 507.91 0.43 c p3
334.65 506.20 0.43 c p3
334.79 508.15 0.43 c p3
334.94 507.66 0.43 c p3
335.08 509.08 0.43 c p3
335.23 508.15 0.43 c p3
335.38 506.93 0.43 c p3
335.52 507.91 0.43 c p3
335.67 508.15 0.43 c p3
335.81 507.66 0.43 c p3
335.96 507.42 0.43 c p3
336.10 509.57 0.43 c p3
336.25 507.66 0.43 c p3
336.39 507.66 0.43 c p3
336.54 508.84 0.43 c p3
336.69 507.66 0.43 c p3
336.83 507.42 0.43 c p3
336.98 508.15 0.43 c p3
337.12 508.15 0.43 c p3
337.27 508.15 0.43 c p3
337.41 507.42 0.43 c p3
337.56 507.42 0.43 c p3
337.70 508.35 0.43 c p3
337.85 506.93 0.43 c p3
338.00 508.35 0.43 c p3
338.14 509.81 0.43 c p3
338.29 507.91 0.43 c p3
338.43 507.91 0.43 c p3
338.58 507.66 0.43 c p3
338.72 508.15 0.43 c p3
338.87 506.45 0.43 c p3
339.02 508.60 0.43 c p3
339.16 508.60 0.43 c p3
339.31 508.84 0.43 c p3
339.45 506.93 0.43 c p3
339.60 507.42 0.43 c p3
339.74 508.35 0.43 c p3
339.89 507.66 0.43 c p3
340.03 507.91 0.43 c p3
340.18 509.08 0.43 c p3
340.33 508.35 0.43 c p3
340.47 508.15 0.43 c p3
340.62 508.84 0.43 c p3
340.76 508.60 0.43 c p3
340.91 507.91 0.43 c p3
341.05 506.93 0.43 c p3
341.20 508.35 0.43 c p3
341.34 506.93 0.43 c p3
341.49 508.60 0.43 c p3
341.64 509.33 0.43 c p3
341.78 508.35 0.43 c p3
341.93 509.08 0.43 c p3
342.07 508.84 0.43 c p3
342.22 507.91 0.43 c p3
342.36 507.91 0.43 c p3
342.51 507.66 0.43 c p3
342.65 507.66 0.43 c p3
342.80 508.15 0.43 c p3
342.95 508.35 0.43 c p3
343.09 508.15 0.43 c p3
343.24 508.35 0.43 c p3
343.38 508.15 0.43 c p3
343.53 507.18 0.43 c p3
343.67 508.15 0.43 c p3
343.82 507.91 0.43 c p3
343.97 508.15 0.43 c p3
344.11 507.91 0.43 c p3
344.26 508.35 0.43 c p3
344.40 509.33 0.43 c p3
344.55 507.66 0.43 c p3
344.69 507.66 0.43 c p3
344.84 508.84 0.43 c p3
344.98 508.15 0.43 c p3
345.13 509.81 0.43 c p3
345.28 507.91 0.43 c p3
345.42 509.57 0.43 c p3
345.57 508.35 0.43 c p3
345.71 508.35 0.43 c p3
345.86 507.18 0.43 c p3
346.00 507.91 0.43 c p3
346.15 507.42 0.43 c p3
346.29 508.15 0.43 c p3
346.44 509.33 0.43 c p3
346.59 507.91 0.43 c p3
346.73 508.35 0.43 c p3
346.88 509.33 0.43 c p3
347.02 507.66 0.43 c p3
347.17 508.60 0.43 c p3
347.31 507.91 0.43 c p3
347.46 509.57 0.43 c p3
347.60 508.84 0.43 c p3
347.75 508.60 0.43 c p3
347.90 509.08 0.43 c p3
348.04 508.15 0.43 c p3
348.19 509.33 0.43 c p3
348.33 507.66 0.43 c p3
348.48 508.84 0.43 c p3
348.62 508.15 0.43 c p3
348.77 508.60 0.43 c p3
348.92 508.35 0.43 c p3
349.06 510.78 0.43 c p3
349.21 508.15 0.43 c p3
349.35 509.08 0.43 c p3
349.50 509.57 0.43 c p3
349.64 508.15 0.43 c p3
349.79 508.35 0.43 c p3
349.93 508.15 0.43 c p3
350.08 508.60 0.43 c p3
350.23 509.33 0.43 c p3
350.37 507.42 0.43 c p3
350.52 508.35 0.43 c p3
350.66 509.08 0.43 c p3
350.81 509.08 0.43 c p3
350.95 508.15 0.43 c p3
351.10 509.57 0.43 c p3
351.24 508.35 0.43 c p3
351.39 508.15 0.43 c p3
351.54 509.33 0.43 c p3
351.68 508.60 0.43 c p3
351.83 508.84 0.43 c p3
351.97 507.91 0.43 c p3
352.12 508.35 0.43 c p3
352.26 507.91 0.43 c p3
352.41 510.30 0.43 c p3
352.55 508.15 0.43 c p3
352.70 508.15 0.43 c p3
352.85 507.91 0.43 c p3
352.99 508.15 0.43 c p3
353.14 508.15 0.43 c p3
353.28 508.84 0.43 c p3
353.43 510.05 0.43 c p3
353.57 508.60 0.43 c p3
353.72 507.42 0.43 c p3
353.86 508.84 0.43 c p3
354.01 510.78 0.43 c p3
354.16 508.60 0.43 c p3
354.30 508.15 0.43 c p3
354.45 510.30 0.43 c p3
354.59 508.35 0.43 c p3
354.74 509.33 0.43 c p3
354.88 508.15 0.43 c p3
355.03 509.57 0.43 c p3
355.18 508.84 0.43 c p3
355.32 508.60 0.43 c p3
355.47 509.33 0.43 c p3
355.61 509.33 0.43 c p3
355.76 508.60 0.43 c p3
355.90 508.84 0.43 c p3
356.05 508.60 0.43 c p3
356.19 509.57 0.43 c p3
356.34 509.08 0.43 c p3
356.49 509.57 0.43 c p3
356.63 509.81 0.43 c p3
356.78 508.35 0.43 c p3
356.92 508.84 0.43 c p3
357.07 510.05 0.43 c p3
357.21 509.33 0.43 c p3
357.36 508.60 0.43 c p3
357.50 508.15 0.43 c p3
357.65 509.57 0.43 c p3
357.80 508.15 0.43 c p3
357.94 508.60 0.43 c p3
358.09 509.57 0.43 c p3
358.23 510.30 0.43 c p3
358.38 509.57 0.43 c p3
358.52 510.78 0.43 c p3
358.67 509.57 0.43 c p3
358.81 509.81 0.43 c p3
358.96 509.81 0.43 c p3
359.11 510.05 0.43 c p3
359.25 510.05 0.43 c p3
359.40 508.35 0.43 c p3
359.54 509.33 0.43 c p3
359.69 509.57 0.43 c p3
359.83 511.03 0.43 c p3
359.98 507.91 0.43 c p3
360.13 509.33 0.43 c p3
360.27 509.33 0.43 c p3
360.42 508.84 0.43 c p3
360.56 509.33 0.43 c p3
360.71 509.33 0.43 c p3
360.85 510.30 0.43 c p3
361.00 508.84 0.43 c p3
361.14 509.57 0.43 c p3
361.29 509.08 0.43 c p3
361.44 510.78 0.43 c p3
361.58 509.81 0.43 c p3
361.73 509.33 0.43 c p3
361.87 508.84 0.43 c p3
362.02 508.35 0.43 c p3
362.16 509.81 0.43 c p3
362.31 509.08 0.43 c p3
362.45 509.81 0.43 c p3
362.60 508.84 0.43 c p3
362.75 509.81 0.43 c p3
362.89 509.57 0.43 c p3
363.04 508.84 0.43 c p3
363.18 508.15 0.43 c p3
363.33 509.81 0.43 c p3
363.47 509.33 0.43 c p3
363.62 510.05 0.43 c p3
363.76 509.33 0.43 c p3
363.91 510.05 0.43 c p3
364.06 509.81 0.43 c p3
364.20 508.15 0.43 c p3
364.35 510.54 0.43 c p3
364.49 510.54 0.43 c p3
364.64 508.60 0.43 c p3
364.78 508.60 0.43 c p3
364.93 510.05 0.43 c p3
365.08 509.08 0.43 c p3
365.22 510.05 0.43 c p3
365.37 509.57 0.43 c p3
365.51 511.51 0.43 c p3
365.66 508.84 0.43 c p3
365.80 510.54 0.43 c p3
365.95 510.30 0.43 c p3
366.09 509.33 0.43 c p3
366.24 508.15 0.43 c p3
366.39 510.05 0.43 c p3
366.53 510.30 0.43 c p3
366.68 509.33 0.43 c p3
366.82 510.05 0.43 c p3
366.97 511.27 0.43 c p3
367.11 509.57 0.43 c p3
367.26 509.57 0.43 c p3
367.40 510.05 0.43 c p3
367.55 509.33 0.43 c p3
367.70 508.84 0.43 c p3
367.84 509.57 0.43 c p3
367.99 511.27 0.43 c p3
368.13 510.30 0.43 c p3
368.28 509.57 0.43 c p3
368.42 510.05 0.43 c p3
368.57 510.05 0.43 c p3
368.71 510.05 0.43 c p3
368.86 509.08 0.43 c p3
369.01 508.84 0.43 c p3
369.15 509.33 0.43 c p3
369.30 510.05 0.43 c p3
369.44 509.08 0.43 c p3
369.59 510.30 0.43 c p3
369.73 509.57 0.43 c p3
369.88 509.81 0.43 c p3
370.03 510.05 0.43 c p3
370.17 509.33 0.43 c p3
370.32 509.57 0.43 c p3
370.46 509.81 0.43 c p3
370.61 509.08 0.43 c p3
370.75 508.84 0.43 c p3
370.90 509.81 0.43 c p3
371.04 510.78 0.43 c p3
371.19 508.60 0.43 c p3
371.34 509.81 0.43 c p3
371.48 510.54 0.43 c p3
371.63 510.54 0.43 c p3
371.77 509.33 0.43 c p3
371.92 508.84 0.43 c p3
372.06 508.60 0.43 c p3
372.21 510.05 0.43 c p3
372.35 508.84 0.43 c p3
372.50 509.81 0.43 c p3
372.65 509.08 0.43 c p3
372.79 511.27 0.43 c p3
372.94 509.57 0.43 c p3
373.08 510.05 0.43 c p3
373.23 510.05 0.43 c p3
373.37 511.03 0.43 c p3
373.52 509.33 0.43 c p3
373.66 509.08 0.43 c p3
373.81 509.57 0.43 c p3
373.96 510.05 0.43 c p3
374.10 509.33 0.43 c p3
374.25 508.84 0.43 c p3
374.39 508.84 0.43 c p3
374.54 508.84 0.43 c p3
374.68 509.81 0.43 c p3
374.83 509.81 0.43 c p3
374.98 509.08 0.43 c p3
375.12 509.33 0.43 c p3
375.27 510.05 0.43 c p3
375.41 510.30 0.43 c p3
375.56 509.81 0.43 c p3
375.70 509.81 0.43 c p3
375.85 510.05 0.43 c p3
375.99 509.57 0.43 c p3
376.14 511.27 0.43 c p3
376.29 510.30 0.43 c p3
376.43 510.05 0.43 c p3
376.58 509.81 0.43 c p3
376.72 510.05 0.43 c p3
376.87 511.03 0.43 c p3
377.01 510.05 0.43 c p3
377.16 508.84 0.43 c p3
377.30 510.54 0.43 c p3
377.45 509.81 0.43 c p3
377.60 509.33 0.43 c p3
377.74 509.08 0.43 c p3
377.89 509.81 0.43 c p3
378.03 510.05 0.43 c p3
378.18 508.60 0.43 c p3
378.32 510.54 0.43 c p3
378.47 510.78 0.43 c p3
378.61 510.54 0.43 c p3
378.76 508.60 0.43 c p3
378.91 509.57 0.43 c p3
379.05 509.33 0.43 c p3
379.20 509.81 0.43 c p3
379.34 509.81 0.43 c p3
379.49 510.05 0.43 c p3
379.63 509.33 0.43 c p3
379.78 510.54 0.43 c p3
379.93 509.57 0.43 c p3
380.07 510.78 0.43 c p3
380.22 511.03 0.43 c p3
380.36 509.57 0.43 c p3
380.51 509.33 0.43 c p3
380.65 510.78 0.43 c p3
380.80 508.15 0.43 c p3
380.94 508.15 0.43 c p3
381.09 510.78 0.43 c p3
381.24 509.08 0.43 c p3
381.38 510.54 0.43 c p3
381.53 510.05 0.43 c p3
381.67 509.57 0.43 c p3
381.82 511.03 0.43 c p3
381.96 509.81 0.43 c p3
382.11 508.35 0.43 c p3
382.25 510.54 0.43 c p3
382.40 509.81 0.43 c p3
0.00 0.00 432.00 576.00 cl
0 0 0 srgb
0.75 setlinewidth
[] 0 setdash
1 setlinecap
1 setlinejoin
10.00 setmiterlimit
np
236.96 345.60 m
132.35 0 l
o
np
236.96 345.60 m
0 -5.76 l
o
np
270.05 345.60 m
0 -5.76 l
o
np
303.13 345.60 m
0 -5.76 l
o
np
336.22 345.60 m
0 -5.76 l
o
np
369.31 345.60 m
0 -5.76 l
o
/Font1 findfont 10 s
236.96 329.47 (0) .5 0 t
270.05 329.47 (5000) .5 0 t
336.22 329.47 (15000) .5 0 t
np
216.00 352.00 m
0 165.99 l
o
np
216.00 352.00 m
-5.76 0 l
o
np
216.00 385.20 m
-5.76 0 l
o
np
216.00 418.40 m
-5.76 0 l
o
np
216.00 451.60 m
-5.76 0 l
o
np
216.00 484.79 m
-5.76 0 l
o
np
216.00 517.99 m
-5.76 0 l
o
209.09 348.41 (0.00) 1 0 t
209.09 381.61 (0.05) 1 0 t
209.09 414.81 (0.10) 1 0 t
209.09 448.01 (0.15) 1 0 t
209.09 481.20 (0.20) 1 0 t
209.09 514.40 (0.25) 1 0 t
np
216.00 345.60 m
172.80 0 l
0 172.80 l
-172.80 0 l
0 -172.80 l
o
0.00 0.00 432.00 576.00 cl
/Font1 findfont 10 s
0 0 0 srgb
302.40 313.34 (Time / ms \(total\)) .5 0 t
190.66 432.00 (U / V) .5 90 t
216.00 345.60 388.80 518.40 cl
0 0 0 srgb
0.38 setlinewidth
[ 1.13 1.88] 0 setdash
1 setlinecap
1 setlinejoin
10.00 setmiterlimit
np
222.40 345.60 m
0 172.80 l
o
np
235.50 345.60 m
0 172.80 l
o
np
238.27 345.60 m
0 172.80 l
o
np
340.33 345.60 m
0 172.80 l
o
86.40 57.60 388.80 288.00 cl
1 0 0 srgb
1.50 setlinewidth
[] 0 setdash
1 setlinecap
1 setlinejoin
10.00 setmiterlimit
np
97.60 279.47 m
1.41 -6.16 l
1.40 -5.97 l
1.41 -5.80 l
1.41 -5.63 l
1.41 -5.47 l
1.40 -5.30 l
1.41 -5.15 l
1.41 -4.99 l
1.40 -4.85 l
1.41 -4.71 l
1.41 -4.57 l
1.40 -4.43 l
1.41 -4.30 l
1.41 -4.18 l
1.41 -4.05 l
1.40 -3.94 l
1.41 -3.82 l
1.41 -3.70 l
1.40 -3.60 l
1.41 -3.49 l
1.41 -3.39 l
1.40 -3.29 l
1.41 -3.19 l
1.41 -3.10 l
1.41 -3.01 l
1.40 -2.92 l
1.41 -2.83 l
1.41 -2.75 l
1.40 -2.67 l
1.41 -2.59 l
1.41 -2.52 l
1.41 -2.44 l
1.40 -2.37 l
1.41 -2.30 l
1.41 -2.23 l
1.40 -2.17 l
1.41 -2.10 l
1.41 -2.04 l
1.40 -1.98 l
1.41 -1.92 l
1.41 -1.87 l
1.41 -1.81 l
1.40 -1.76 l
1.41 -1.70 l
1.41 -1.66 l
1.40 -1.61 l
1.41 -1.56 l
1.41 -1.51 l
1.40 -1.47 l
1.41 -1.43 l
1.41 -1.38 l
1.41 -1.34 l
1.40 -1.31 l
1.41 -1.26 l
1.41 -1.23 l
1.40 -1.20 l
1.41 -1.15 l
1.41 -1.13 l
1.41 -1.09 l
1.40 -1.05 l
1.41 -1.03 l
1.41 -1.00 l
1.40 -0.97 l
1.41 -0.94 l
1.41 -0.91 l
1.40 -0.88 l
1.41 -0.86 l
1.41 -0.83 l
1.41 -0.81 l
1.40 -0.79 l
1.41 -0.76 l
1.41 -0.74 l
1.40 -0.72 l
1.41 -0.70 l
1.41 -0.67 l
1.40 -0.66 l
1.41 -0.64 l
1.41 -0.61 l
1.41 -0.60 l
1.40 -0.59 l
1.41 -0.56 l
1.41 -0.55 l
1.40 -0.53 l
1.41 -0.52 l
1.41 -0.50 l
1.41 -0.49 l
1.40 -0.47 l
1.41 -0.46 l
1.41 -0.45 l
1.40 -0.43 l
1.41 -0.42 l
1.41 -0.41 l
1.40 -0.39 l
1.41 -0.39 l
1.41 -0.37 l
1.41 -0.36 l
1.40 -0.35 l
1.41 -0.34 l
1.41 -0.33 l
238.30 80.68 lineto
1.41 -0.31 l
1.41 -0.31 l
1.40 -0.29 l
1.41 -0.28 l
1.41 -0.28 l
1.41 -0.27 l
1.40 -0.26 l
1.41 -0.25 l
1.41 -0.25 l
1.40 -0.23 l
1.41 -0.24 l
1.41 -0.22 l
1.40 -0.22 l
1.41 -0.21 l
1.41 -0.20 l
1.41 -0.20 l
1.40 -0.20 l
1.41 -0.18 l
1.41 -0.18 l
1.40 -0.18 l
1.41 -0.17 l
1.41 -0.17 l
1.41 -0.16 l
1.40 -0.16 l
1.41 -0.15 l
1.41 -0.15 l
1.40 -0.14 l
1.41 -0.14 l
1.41 -0.13 l
1.40 -0.14 l
1.41 -0.12 l
1.41 -0.13 l
1.41 -0.12 l
1.40 -0.11 l
1.41 -0.12 l
1.41 -0.10 l
1.40 -0.11 l
1.41 -0.10 l
1.41 -0.10 l
1.40 -0.10 l
1.41 -0.10 l
1.41 -0.09 l
1.41 -0.09 l
1.40 -0.08 l
1.41 -0.09 l
1.41 -0.08 l
1.40 -0.08 l
1.41 -0.07 l
1.41 -0.08 l
1.41 -0.07 l
1.40 -0.07 l
1.41 -0.07 l
1.41 -0.06 l
1.40 -0.07 l
1.41 -0.06 l
1.41 -0.06 l
1.40 -0.06 l
1.41 -0.06 l
1.41 -0.05 l
1.41 -0.05 l
1.40 -0.06 l
1.41 -0.05 l
1.41 -0.05 l
1.40 -0.04 l
1.41 -0.05 l
1.41 -0.04 l
1.40 -0.05 l
1.41 -0.04 l
1.41 -0.04 l
1.41 -0.04 l
1.40 -0.04 l
1.41 -0.04 l
1.41 -0.03 l
1.40 -0.04 l
1.41 -0.03 l
1.41 -0.03 l
1.41 -0.04 l
1.40 -0.03 l
1.41 -0.03 l
1.41 -0.03 l
1.40 -0.03 l
1.41 -0.02 l
1.41 -0.03 l
1.40 -0.03 l
1.41 -0.02 l
1.41 -0.03 l
1.41 -0.02 l
1.40 -0.02 l
1.41 -0.03 l
1.41 -0.02 l
1.40 -0.02 l
1.41 -0.02 l
1.41 -0.02 l
1.40 -0.02 l
1.41 -0.02 l
1.41 -0.02 l
1.41 -0.02 l
1.40 -0.01 l
1.41 -0.02 l
o
0.00 0.00 432.00 576.00 cl
0 0 0 srgb
0.75 setlinewidth
[] 0 setdash
1 setlinecap
1 setlinejoin
10.00 setmiterlimit
np
97.60 57.60 m
254.55 0 l
o
np
97.60 57.60 m
0 -5.76 l
o
np
161.24 57.60 m
0 -5.76 l
o
np
224.87 57.60 m
0 -5.76 l
o
np
288.51 57.60 m
0 -5.76 l
o
np
352.15 57.60 m
0 -5.76 l
o
/Font1 findfont 10 s
97.60 41.47 (0) .5 0 t
161.24 41.47 (5000) .5 0 t
224.87 41.47 (10000) .5 0 t
288.51 41.47 (15000) .5 0 t
352.15 41.47 (20000) .5 0 t
np
86.40 66.13 m
0 193.30 l
o
np
86.40 66.13 m
-5.76 0 l
o
np
86.40 114.46 m
-5.76 0 l
o
np
86.40 162.78 m
-5.76 0 l
o
np
86.40 211.11 m
-5.76 0 l
o
np
86.40 259.43 m
-5.76 0 l
o
79.49 62.54 (0.00) 1 0 t
79.49 110.87 (0.05) 1 0 t
79.49 159.19 (0.10) 1 0 t
79.49 207.52 (0.15) 1 0 t
79.49 255.84 (0.20) 1 0 t
np
86.40 57.60 m
302.40 0 l
0 230.40 l
-302.40 0 l
0 -230.40 l
o
0.00 0.00 432.00 576.00 cl
/Font1 findfont 10 s
0 0 0 srgb
237.60 13.82 (Time / ms \(after pulse\)) .5 0 t
49.54 172.80 (Absorbance A) .5 90 t
86.40 57.60 388.80 288.00 cl
/bg { 1 1 1 srgb } def
0 0 0 srgb
0.75 setlinewidth
[] 0 setdash
1 setlinecap
1 setlinejoin
10.00 setmiterlimit
100.40 270.00 0.65 c p3
100.68 273.16 0.65 c p3
100.96 263.92 0.65 c p3
101.24 267.91 0.65 c p3
101.52 264.95 0.65 c p3
101.80 259.80 0.65 c p3
102.08 264.95 0.65 c p3
102.36 261.85 0.65 c p3
102.64 256.73 0.65 c p3
102.92 258.77 0.65 c p3
103.20 259.80 0.65 c p3
103.48 256.73 0.65 c p3
103.76 252.68 0.65 c p3
104.04 253.69 0.65 c p3
104.32 250.67 0.65 c p3
104.60 253.69 0.65 c p3
104.88 251.68 0.65 c p3
105.16 247.67 0.65 c p3
105.44 243.71 0.65 c p3
105.72 244.70 0.65 c p3
106.00 247.67 0.65 c p3
106.28 243.71 0.65 c p3
106.56 248.67 0.65 c p3
106.84 238.97 0.65 c p3
107.12 244.70 0.65 c p3
107.40 242.72 0.65 c p3
107.68 240.76 0.65 c p3
107.96 231.24 0.65 c p3
108.24 240.76 0.65 c p3
108.52 233.16 0.65 c p3
108.80 236.05 0.65 c p3
109.08 239.95 0.65 c p3
109.36 235.09 0.65 c p3
109.64 228.37 0.65 c p3
109.92 233.16 0.65 c p3
110.20 228.37 0.65 c p3
110.48 225.53 0.65 c p3
110.76 228.37 0.65 c p3
111.04 228.37 0.65 c p3
111.32 228.37 0.65 c p3
111.60 227.42 0.65 c p3
111.88 195.61 0.65 c p3
112.16 228.37 0.65 c p3
112.44 282.80 0.65 c p3
112.72 186.18 0.65 c p3
113.00 237.02 0.65 c p3
113.28 251.68 0.65 c p3
113.56 174.31 0.65 c p3
113.84 243.71 0.65 c p3
114.12 232.20 0.65 c p3
114.40 192.10 0.65 c p3
114.68 230.28 0.65 c p3
114.96 226.48 0.65 c p3
115.24 204.50 0.65 c p3
115.52 218.97 0.65 c p3
115.80 216.19 0.65 c p3
116.08 206.30 0.65 c p3
116.36 216.19 0.65 c p3
116.64 210.83 0.65 c p3
116.92 205.39 0.65 c p3
117.20 206.30 0.65 c p3
117.48 212.66 0.65 c p3
117.76 211.75 0.65 c p3
118.04 208.11 0.65 c p3
118.32 209.92 0.65 c p3
118.60 206.30 0.65 c p3
118.88 205.39 0.65 c p3
119.16 200.03 0.65 c p3
119.44 198.25 0.65 c p3
119.72 201.81 0.65 c p3
120.00 200.92 0.65 c p3
120.28 202.70 0.65 c p3
120.56 200.92 0.65 c p3
120.84 202.70 0.65 c p3
121.12 197.37 0.65 c p3
121.40 198.25 0.65 c p3
121.68 194.73 0.65 c p3
121.96 195.61 0.65 c p3
122.24 195.61 0.65 c p3
122.52 191.23 0.65 c p3
122.80 197.37 0.65 c p3
123.08 196.49 0.65 c p3
123.36 192.97 0.65 c p3
123.64 191.23 0.65 c p3
123.92 192.97 0.65 c p3
124.20 186.18 0.65 c p3
124.48 191.23 0.65 c p3
124.76 187.91 0.65 c p3
125.04 188.77 0.65 c p3
125.32 183.61 0.65 c p3
125.60 187.04 0.65 c p3
125.88 181.90 0.65 c p3
126.16 182.76 0.65 c p3
126.44 180.20 0.65 c p3
126.72 187.04 0.65 c p3
127.00 184.47 0.65 c p3
127.28 184.47 0.65 c p3
127.56 181.90 0.65 c p3
127.84 181.05 0.65 c p3
128.12 176.83 0.65 c p3
128.40 176.83 0.65 c p3
128.68 177.67 0.65 c p3
128.96 176.83 0.65 c p3
129.24 176.83 0.65 c p3
129.52 179.36 0.65 c p3
129.80 177.67 0.65 c p3
130.08 175.99 0.65 c p3
130.36 174.31 0.65 c p3
130.64 172.64 0.65 c p3
130.92 170.98 0.65 c p3
131.20 174.31 0.65 c p3
131.48 169.32 0.65 c p3
131.76 170.98 0.65 c p3
132.04 168.64 0.65 c p3
132.32 171.81 0.65 c p3
132.60 173.47 0.65 c p3
132.88 169.32 0.65 c p3
133.16 169.32 0.65 c p3
133.44 163.72 0.65 c p3
133.72 164.53 0.65 c p3
134.00 160.47 0.65 c p3
134.28 164.53 0.65 c p3
134.56 164.53 0.65 c p3
134.84 162.09 0.65 c p3
135.12 168.64 0.65 c p3
135.40 165.35 0.65 c p3
135.68 162.09 0.65 c p3
135.96 160.47 0.65 c p3
136.24 162.90 0.65 c p3
136.52 158.85 0.65 c p3
136.80 155.64 0.65 c p3
137.08 156.44 0.65 c p3
137.36 163.72 0.65 c p3
137.64 161.28 0.65 c p3
137.92 157.24 0.65 c p3
138.20 155.64 0.65 c p3
138.48 158.85 0.65 c p3
138.76 150.08 0.65 c p3
139.04 153.25 0.65 c p3
139.32 154.04 0.65 c p3
139.60 148.50 0.65 c p3
139.88 150.87 0.65 c p3
140.16 151.66 0.65 c p3
140.44 153.25 0.65 c p3
140.72 154.84 0.65 c p3
141.00 154.84 0.65 c p3
141.28 150.87 0.65 c p3
141.56 150.87 0.65 c p3
141.84 149.29 0.65 c p3
142.12 149.29 0.65 c p3
142.40 150.87 0.65 c p3
142.68 146.28 0.65 c p3
142.96 147.72 0.65 c p3
143.24 147.06 0.65 c p3
143.52 147.72 0.65 c p3
143.80 143.16 0.65 c p3
144.08 147.72 0.65 c p3
144.36 144.72 0.65 c p3
144.64 140.07 0.65 c p3
144.92 145.50 0.65 c p3
145.20 146.28 0.65 c p3
145.48 141.61 0.65 c p3
145.76 138.53 0.65 c p3
146.04 142.39 0.65 c p3
146.32 141.61 0.65 c p3
146.60 135.47 0.65 c p3
146.88 141.61 0.65 c p3
147.16 138.53 0.65 c p3
147.44 137.00 0.65 c p3
147.72 140.84 0.65 c p3
148.00 133.95 0.65 c p3
148.28 137.00 0.65 c p3
148.56 139.30 0.65 c p3
148.84 136.23 0.65 c p3
149.12 136.23 0.65 c p3
149.40 137.00 0.65 c p3
149.68 131.68 0.65 c p3
149.96 129.42 0.65 c p3
150.24 134.71 0.65 c p3
150.52 130.92 0.65 c p3
150.80 130.92 0.65 c p3
151.08 131.68 0.65 c p3
151.36 134.71 0.65 c p3
151.64 132.43 0.65 c p3
151.92 130.17 0.65 c p3
152.20 128.67 0.65 c p3
152.48 125.80 0.65 c p3
152.76 130.92 0.65 c p3
153.04 131.68 0.65 c p3
153.32 127.17 0.65 c p3
153.60 130.17 0.65 c p3
153.88 125.80 0.65 c p3
154.16 132.43 0.65 c p3
154.44 122.83 0.65 c p3
154.72 125.80 0.65 c p3
155.00 125.80 0.65 c p3
155.28 125.80 0.65 c p3
155.56 123.57 0.65 c p3
155.84 125.06 0.65 c p3
156.12 127.92 0.65 c p3
156.40 128.67 0.65 c p3
156.68 124.31 0.65 c p3
156.96 123.57 0.65 c p3
157.24 123.57 0.65 c p3
157.52 122.83 0.65 c p3
157.80 122.09 0.65 c p3
158.08 120.62 0.65 c p3
158.36 122.83 0.65 c p3
158.64 124.31 0.65 c p3
158.92 120.62 0.65 c p3
159.20 119.15 0.65 c p3
159.48 124.31 0.65 c p3
159.76 120.62 0.65 c p3
160.04 119.88 0.65 c p3
160.32 122.09 0.65 c p3
160.60 124.31 0.65 c p3
160.88 121.36 0.65 c p3
161.16 116.96 0.65 c p3
161.44 117.69 0.65 c p3
161.72 118.42 0.65 c p3
162.00 122.09 0.65 c p3
162.28 116.23 0.65 c p3
162.56 116.23 0.65 c p3
162.84 116.23 0.65 c p3
163.12 119.88 0.65 c p3
163.40 115.50 0.65 c p3
163.68 115.50 0.65 c p3
163.96 116.23 0.65 c p3
164.24 117.69 0.65 c p3
164.52 114.05 0.65 c p3
164.80 114.05 0.65 c p3
165.08 114.05 0.65 c p3
165.36 114.77 0.65 c p3
165.64 116.23 0.65 c p3
165.92 114.77 0.65 c p3
166.20 116.23 0.65 c p3
166.48 119.88 0.65 c p3
166.76 112.60 0.65 c p3
167.04 114.05 0.65 c p3
167.32 116.96 0.65 c p3
167.60 111.88 0.65 c p3
167.88 110.44 0.65 c p3
168.16 114.05 0.65 c p3
168.44 117.69 0.65 c p3
168.72 111.88 0.65 c p3
169.00 109.73 0.65 c p3
169.28 111.16 0.65 c p3
169.56 111.16 0.65 c p3
169.84 111.88 0.65 c p3
170.12 113.32 0.65 c p3
170.40 110.44 0.65 c p3
170.68 112.60 0.65 c p3
170.96 110.44 0.65 c p3
171.24 112.60 0.65 c p3
171.52 112.60 0.65 c p3
171.80 111.16 0.65 c p3
172.08 113.32 0.65 c p3
172.36 112.60 0.65 c p3
172.64 109.01 0.65 c p3
172.92 110.44 0.65 c p3
173.20 110.44 0.65 c p3
173.48 109.01 0.65 c p3
173.76 112.60 0.65 c p3
174.04 111.88 0.65 c p3
174.32 106.99 0.65 c p3
174.60 109.73 0.65 c p3
174.88 111.88 0.65 c p3
175.16 107.58 0.65 c p3
175.44 107.58 0.65 c p3
175.72 109.01 0.65 c p3
176.00 109.73 0.65 c p3
176.28 109.73 0.65 c p3
176.56 106.99 0.65 c p3
176.84 112.60 0.65 c p3
177.12 112.60 0.65 c p3
177.40 105.56 0.65 c p3
177.68 106.99 0.65 c p3
177.96 109.01 0.65 c p3
178.24 106.99 0.65 c p3
178.52 106.99 0.65 c p3
178.80 107.58 0.65 c p3
179.08 106.99 0.65 c p3
179.36 108.29 0.65 c p3
179.64 108.29 0.65 c p3
179.92 108.29 0.65 c p3
180.20 108.29 0.65 c p3
180.48 106.99 0.65 c p3
180.76 111.16 0.65 c p3
181.04 107.58 0.65 c p3
181.32 102.03 0.65 c p3
181.60 110.44 0.65 c p3
181.88 109.01 0.65 c p3
182.16 104.85 0.65 c p3
182.44 106.27 0.65 c p3
182.72 109.73 0.65 c p3
183.00 110.44 0.65 c p3
183.28 105.56 0.65 c p3
183.56 109.73 0.65 c p3
183.84 106.99 0.65 c p3
184.12 104.15 0.65 c p3
184.40 105.56 0.65 c p3
184.68 111.16 0.65 c p3
184.96 106.99 0.65 c p3
185.24 102.03 0.65 c p3
185.52 107.58 0.65 c p3
185.80 105.56 0.65 c p3
186.08 106.99 0.65 c p3
186.36 109.01 0.65 c p3
186.64 103.44 0.65 c p3
186.92 100.62 0.65 c p3
187.20 106.99 0.65 c p3
187.48 106.99 0.65 c p3
187.76 106.99 0.65 c p3
188.04 109.01 0.65 c p3
188.32 103.44 0.65 c p3
188.60 106.99 0.65 c p3
188.88 109.01 0.65 c p3
189.16 102.73 0.65 c p3
189.44 105.56 0.65 c p3
189.72 107.58 0.65 c p3
190.00 102.03 0.65 c p3
190.28 104.85 0.65 c p3
190.56 104.15 0.65 c p3
190.84 105.56 0.65 c p3
191.12 102.73 0.65 c p3
191.40 102.73 0.65 c p3
191.68 104.85 0.65 c p3
191.96 102.03 0.65 c p3
192.24 108.29 0.65 c p3
192.52 99.92 0.65 c p3
192.80 100.62 0.65 c p3
193.08 106.27 0.65 c p3
193.36 105.56 0.65 c p3
193.64 106.27 0.65 c p3
193.92 105.56 0.65 c p3
194.20 103.44 0.65 c p3
194.48 104.15 0.65 c p3
194.76 104.15 0.65 c p3
195.04 105.56 0.65 c p3
195.32 104.15 0.65 c p3
195.60 102.03 0.65 c p3
195.88 103.44 0.65 c p3
196.16 104.85 0.65 c p3
196.44 106.99 0.65 c p3
196.72 99.92 0.65 c p3
197.00 99.22 0.65 c p3
197.28 102.03 0.65 c p3
197.56 102.03 0.65 c p3
197.84 98.52 0.65 c p3
198.12 99.92 0.65 c p3
198.40 100.62 0.65 c p3
198.68 99.92 0.65 c p3
198.96 100.62 0.65 c p3
199.24 101.33 0.65 c p3
199.52 98.52 0.65 c p3
199.80 102.73 0.65 c p3
200.08 102.03 0.65 c p3
200.36 100.62 0.65 c p3
200.64 98.52 0.65 c p3
200.92 103.44 0.65 c p3
201.20 101.33 0.65 c p3
201.48 102.03 0.65 c p3
201.76 98.52 0.65 c p3
202.04 102.73 0.65 c p3
202.32 102.03 0.65 c p3
202.60 99.22 0.65 c p3
202.88 97.83 0.65 c p3
203.16 99.22 0.65 c p3
203.44 97.83 0.65 c p3
203.72 97.83 0.65 c p3
204.00 99.22 0.65 c p3
204.28 100.62 0.65 c p3
204.56 96.44 0.65 c p3
204.84 102.73 0.65 c p3
205.12 102.03 0.65 c p3
205.40 100.62 0.65 c p3
205.68 95.74 0.65 c p3
205.96 96.44 0.65 c p3
206.24 97.83 0.65 c p3
206.52 95.74 0.65 c p3
206.80 95.74 0.65 c p3
207.08 99.22 0.65 c p3
207.36 97.13 0.65 c p3
207.64 94.36 0.65 c p3
207.92 92.29 0.65 c p3
208.20 95.74 0.65 c p3
208.48 98.52 0.65 c p3
208.76 94.36 0.65 c p3
209.04 97.13 0.65 c p3
209.32 99.92 0.65 c p3
209.60 94.36 0.65 c p3
209.88 92.98 0.65 c p3
210.16 99.22 0.65 c p3
210.44 93.67 0.65 c p3
210.72 94.36 0.65 c p3
211.00 97.13 0.65 c p3
211.28 96.44 0.65 c p3
211.56 97.13 0.65 c p3
211.84 93.67 0.65 c p3
212.12 96.44 0.65 c p3
212.40 95.74 0.65 c p3
212.68 95.74 0.65 c p3
212.96 95.05 0.65 c p3
213.24 93.67 0.65 c p3
213.52 95.74 0.65 c p3
213.80 95.74 0.65 c p3
214.08 97.13 0.65 c p3
214.36 92.29 0.65 c p3
214.64 91.60 0.65 c p3
214.92 95.05 0.65 c p3
215.20 95.05 0.65 c p3
215.48 93.67 0.65 c p3
215.76 94.36 0.65 c p3
216.04 98.52 0.65 c p3
216.32 92.98 0.65 c p3
216.60 90.23 0.65 c p3
216.88 95.74 0.65 c p3
217.16 92.98 0.65 c p3
217.44 90.92 0.65 c p3
217.72 90.92 0.65 c p3
218.00 89.55 0.65 c p3
218.28 90.23 0.65 c p3
218.56 90.92 0.65 c p3
218.84 94.36 0.65 c p3
219.12 92.29 0.65 c p3
219.40 93.67 0.65 c p3
219.68 95.05 0.65 c p3
219.96 92.29 0.65 c p3
220.24 89.55 0.65 c p3
220.52 88.86 0.65 c p3
220.80 91.60 0.65 c p3
221.08 88.86 0.65 c p3
221.36 90.23 0.65 c p3
221.64 88.86 0.65 c p3
221.92 89.55 0.65 c p3
222.20 86.94 0.65 c p3
222.48 88.30 0.65 c p3
222.76 88.30 0.65 c p3
223.04 88.86 0.65 c p3
223.32 88.30 0.65 c p3
223.60 85.58 0.65 c p3
223.88 91.60 0.65 c p3
224.16 84.90 0.65 c p3
224.44 87.62 0.65 c p3
224.72 86.26 0.65 c p3
225.00 88.30 0.65 c p3
225.28 87.62 0.65 c p3
225.56 88.30 0.65 c p3
225.84 88.86 0.65 c p3
226.12 87.62 0.65 c p3
226.40 88.30 0.65 c p3
226.68 84.90 0.65 c p3
226.96 85.58 0.65 c p3
227.24 88.30 0.65 c p3
227.52 82.88 0.65 c p3
227.80 87.62 0.65 c p3
228.08 82.21 0.65 c p3
228.36 86.26 0.65 c p3
228.64 84.23 0.65 c p3
228.92 81.54 0.65 c p3
229.20 83.56 0.65 c p3
229.48 83.56 0.65 c p3
229.76 81.54 0.65 c p3
230.04 83.56 0.65 c p3
230.32 83.56 0.65 c p3
230.60 85.58 0.65 c p3
230.88 80.20 0.65 c p3
231.16 83.56 0.65 c p3
231.44 88.30 0.65 c p3
231.72 77.54 0.65 c p3
232.00 82.21 0.65 c p3
232.28 82.21 0.65 c p3
232.56 77.54 0.65 c p3
232.84 80.87 0.65 c p3
233.12 82.88 0.65 c p3
233.40 80.87 0.65 c p3
233.68 83.56 0.65 c p3
233.96 82.88 0.65 c p3
234.24 80.20 0.65 c p3
234.52 86.94 0.65 c p3
234.80 83.56 0.65 c p3
235.08 83.56 0.65 c p3
235.36 80.20 0.65 c p3
235.64 82.88 0.65 c p3
235.92 80.87 0.65 c p3
236.20 81.54 0.65 c p3
236.48 82.88 0.65 c p3
236.76 81.54 0.65 c p3
237.04 80.87 0.65 c p3
237.32 84.23 0.65 c p3
237.60 78.20 0.65 c p3
237.88 79.53 0.65 c p3
238.16 80.87 0.65 c p3
238.44 78.20 0.65 c p3
238.72 76.21 0.65 c p3
239.00 81.54 0.65 c p3
239.28 82.21 0.65 c p3
239.56 78.20 0.65 c p3
239.84 79.53 0.65 c p3
240.12 80.20 0.65 c p3
240.40 78.87 0.65 c p3
240.68 79.53 0.65 c p3
240.96 80.20 0.65 c p3
241.24 77.54 0.65 c p3
241.52 80.20 0.65 c p3
241.80 80.20 0.65 c p3
242.08 78.87 0.65 c p3
242.36 79.53 0.65 c p3
242.64 76.87 0.65 c p3
242.92 79.53 0.65 c p3
243.20 78.87 0.65 c p3
243.48 78.20 0.65 c p3
243.76 76.21 0.65 c p3
244.04 79.53 0.65 c p3
244.32 76.87 0.65 c p3
244.60 78.87 0.65 c p3
244.88 76.21 0.65 c p3
245.16 80.87 0.65 c p3
245.44 78.87 0.65 c p3
245.72 76.87 0.65 c p3
246.00 80.20 0.65 c p3
246.28 80.20 0.65 c p3
246.56 81.54 0.65 c p3
246.84 79.53 0.65 c p3
247.12 75.55 0.65 c p3
247.40 77.54 0.65 c p3
247.68 78.20 0.65 c p3
247.96 76.21 0.65 c p3
248.24 75.55 0.65 c p3
248.52 78.87 0.65 c p3
248.80 72.26 0.65 c p3
249.08 74.23 0.65 c p3
249.36 76.87 0.65 c p3
249.64 76.87 0.65 c p3
249.92 76.87 0.65 c p3
250.20 76.21 0.65 c p3
250.48 78.87 0.65 c p3
250.76 74.89 0.65 c p3
251.04 76.87 0.65 c p3
251.32 74.89 0.65 c p3
251.60 71.60 0.65 c p3
251.88 74.89 0.65 c p3
252.16 76.21 0.65 c p3
252.44 72.91 0.65 c p3
252.72 74.23 0.65 c p3
253.00 75.55 0.65 c p3
253.28 77.54 0.65 c p3
253.56 72.91 0.65 c p3
253.84 72.26 0.65 c p3
254.12 74.89 0.65 c p3
254.40 74.23 0.65 c p3
254.68 77.54 0.65 c p3
254.96 74.89 0.65 c p3
255.24 73.57 0.65 c p3
255.52 74.23 0.65 c p3
255.80 70.95 0.65 c p3
256.08 75.55 0.65 c p3
256.36 74.89 0.65 c p3
256.64 78.20 0.65 c p3
256.92 72.26 0.65 c p3
257.20 76.21 0.65 c p3
257.48 73.57 0.65 c p3
257.76 73.57 0.65 c p3
258.04 71.60 0.65 c p3
258.32 75.55 0.65 c p3
258.60 72.91 0.65 c p3
258.88 76.21 0.65 c p3
259.16 73.57 0.65 c p3
259.44 75.55 0.65 c p3
259.72 75.55 0.65 c p3
260.00 73.57 0.65 c p3
260.28 76.21 0.65 c p3
260.56 74.23 0.65 c p3
260.84 72.91 0.65 c p3
261.12 74.23 0.65 c p3
261.40 73.57 0.65 c p3
261.68 72.91 0.65 c p3
261.96 71.60 0.65 c p3
262.24 76.21 0.65 c p3
262.52 74.89 0.65 c p3
262.80 70.40 0.65 c p3
263.08 72.91 0.65 c p3
263.36 72.91 0.65 c p3
263.64 74.23 0.65 c p3
263.92 72.91 0.65 c p3
264.20 70.40 0.65 c p3
264.48 70.95 0.65 c p3
264.76 72.26 0.65 c p3
265.04 75.55 0.65 c p3
265.32 69.10 0.65 c p3
265.60 74.89 0.65 c p3
265.88 72.26 0.65 c p3
266.16 70.95 0.65 c p3
266.44 72.26 0.65 c p3
266.72 73.57 0.65 c p3
267.00 72.91 0.65 c p3
267.28 72.26 0.65 c p3
267.56 73.57 0.65 c p3
267.84 71.60 0.65 c p3
268.12 70.95 0.65 c p3
268.40 73.57 0.65 c p3
268.68 72.91 0.65 c p3
268.96 70.95 0.65 c p3
269.24 72.26 0.65 c p3
269.52 74.89 0.65 c p3
269.80 74.23 0.65 c p3
270.08 68.45 0.65 c p3
270.36 72.26 0.65 c p3
270.64 71.60 0.65 c p3
270.92 72.91 0.65 c p3
271.20 71.60 0.65 c p3
271.48 72.91 0.65 c p3
271.76 74.23 0.65 c p3
272.04 72.26 0.65 c p3
272.32 68.45 0.65 c p3
272.60 72.26 0.65 c p3
272.88 71.60 0.65 c p3
273.16 74.23 0.65 c p3
273.44 71.60 0.65 c p3
273.72 72.91 0.65 c p3
274.00 72.26 0.65 c p3
274.28 72.26 0.65 c p3
274.56 73.57 0.65 c p3
274.84 69.75 0.65 c p3
275.12 71.60 0.65 c p3
275.40 68.45 0.65 c p3
275.68 70.95 0.65 c p3
275.96 73.57 0.65 c p3
276.24 75.55 0.65 c p3
276.52 71.60 0.65 c p3
276.80 69.75 0.65 c p3
277.08 72.91 0.65 c p3
277.36 72.26 0.65 c p3
277.64 70.95 0.65 c p3
277.92 69.75 0.65 c p3
278.20 67.15 0.65 c p3
278.48 70.95 0.65 c p3
278.76 74.23 0.65 c p3
279.04 72.26 0.65 c p3
279.32 72.26 0.65 c p3
279.60 72.26 0.65 c p3
279.88 71.60 0.65 c p3
280.16 70.40 0.65 c p3
280.44 70.40 0.65 c p3
280.72 73.57 0.65 c p3
281.00 72.26 0.65 c p3
281.28 74.23 0.65 c p3
281.56 73.57 0.65 c p3
281.84 70.95 0.65 c p3
282.12 73.57 0.65 c p3
282.40 72.26 0.65 c p3
282.68 72.26 0.65 c p3
282.96 71.60 0.65 c p3
283.24 68.45 0.65 c p3
283.52 69.75 0.65 c p3
283.80 74.23 0.65 c p3
284.08 72.91 0.65 c p3
284.36 72.91 0.65 c p3
284.64 75.55 0.65 c p3
284.92 69.75 0.65 c p3
285.20 70.40 0.65 c p3
285.48 71.60 0.65 c p3
285.76 76.21 0.65 c p3
286.04 70.95 0.65 c p3
286.32 72.26 0.65 c p3
286.60 68.45 0.65 c p3
286.88 70.95 0.65 c p3
287.16 74.23 0.65 c p3
287.44 71.60 0.65 c p3
287.72 70.95 0.65 c p3
288.00 72.26 0.65 c p3
288.28 72.91 0.65 c p3
288.56 67.15 0.65 c p3
288.84 72.26 0.65 c p3
289.12 72.26 0.65 c p3
289.40 69.10 0.65 c p3
289.68 72.26 0.65 c p3
289.96 72.91 0.65 c p3
290.24 70.95 0.65 c p3
290.52 70.95 0.65 c p3
290.80 70.95 0.65 c p3
291.08 72.91 0.65 c p3
291.36 72.91 0.65 c p3
291.64 70.40 0.65 c p3
291.92 74.23 0.65 c p3
292.20 70.40 0.65 c p3
292.48 66.51 0.65 c p3
292.76 71.60 0.65 c p3
293.04 71.60 0.65 c p3
293.32 72.26 0.65 c p3
293.60 70.95 0.65 c p3
293.88 75.55 0.65 c p3
294.16 69.75 0.65 c p3
294.44 69.75 0.65 c p3
294.72 69.10 0.65 c p3
295.00 74.23 0.65 c p3
295.28 72.91 0.65 c p3
295.56 70.40 0.65 c p3
295.84 72.26 0.65 c p3
296.12 71.60 0.65 c p3
296.40 68.45 0.65 c p3
296.68 70.40 0.65 c p3
216.00 201.60 367.20 247.68 cl
0 0 0 srgb
0.75 setlinewidth
[] 0 setdash
1 setlinecap
1 setlinejoin
10.00 setmiterlimit
221.60 225.26 0.43 c p1
221.80 226.29 0.43 c p1
222.00 224.37 0.43 c p1
222.20 225.59 0.43 c p1
222.40 225.16 0.43 c p1
222.60 224.21 0.43 c p1
222.80 225.70 0.43 c p1
223.00 225.23 0.43 c p1
223.20 224.28 0.43 c p1
223.40 225.03 0.43 c p1
223.60 225.54 0.43 c p1
223.80 225.07 0.43 c p1
224.00 224.37 0.43 c p1
224.20 224.87 0.43 c p1
224.40 224.41 0.43 c p1
224.60 225.38 0.43 c p1
224.80 225.15 0.43 c p1
225.00 224.46 0.43 c p1
225.19 223.77 0.43 c p1
225.39 224.25 0.43 c p1
225.59 225.20 0.43 c p1
225.79 224.51 0.43 c p1
225.99 225.93 0.43 c p1
226.19 223.87 0.43 c p1
226.39 225.47 0.43 c p1
226.59 225.25 0.43 c p1
226.79 225.02 0.43 c p1
226.99 223.00 0.43 c p1
227.19 225.49 0.43 c p1
227.39 223.92 0.43 c p1
227.59 224.84 0.43 c p1
227.79 226.00 0.43 c p1
227.99 225.08 0.43 c p1
228.19 223.71 0.43 c p1
228.39 225.08 0.43 c p1
228.59 224.17 0.43 c p1
228.79 223.72 0.43 c p1
228.99 224.62 0.43 c p1
229.19 224.84 0.43 c p1
229.39 225.06 0.43 c p1
229.59 225.06 0.43 c p1
229.79 217.72 0.43 c p1
229.99 225.72 0.43 c p1
230.19 238.86 0.43 c p1
230.39 216.13 0.43 c p1
230.59 228.42 0.43 c p1
230.79 232.11 0.43 c p1
230.99 213.94 0.43 c p1
231.19 230.64 0.43 c p1
231.39 228.11 0.43 c p1
231.59 218.80 0.43 c p1
231.79 228.07 0.43 c p1
231.99 227.37 0.43 c p1
232.18 222.35 0.43 c p1
232.38 226.00 0.43 c p1
232.58 225.54 0.43 c p1
232.78 223.39 0.43 c p1
232.98 225.94 0.43 c p1
233.18 224.86 0.43 c p1
233.38 223.77 0.43 c p1
233.58 224.18 0.43 c p1
233.78 225.88 0.43 c p1
233.98 225.86 0.43 c p1
234.18 225.19 0.43 c p1
234.38 225.81 0.43 c p1
234.58 225.14 0.43 c p1
234.78 225.11 0.43 c p1
234.98 224.02 0.43 c p1
235.18 223.79 0.43 c p1
235.38 224.82 0.43 c p1
235.58 224.79 0.43 c p1
235.78 225.40 0.43 c p1
235.98 225.16 0.43 c p1
236.18 225.76 0.43 c p1
236.38 224.67 0.43 c p1
236.58 225.06 0.43 c p1
236.78 224.40 0.43 c p1
236.98 224.79 0.43 c p1
237.18 224.96 0.43 c p1
237.38 224.10 0.43 c p1
237.58 225.73 0.43 c p1
237.78 225.69 0.43 c p1
237.98 225.03 0.43 c p1
238.18 224.79 0.43 c p1
238.38 225.37 0.43 c p1
238.58 223.93 0.43 c p1
238.78 225.29 0.43 c p1
238.98 224.67 0.43 c p1
239.17 225.04 0.43 c p1
239.37 223.98 0.43 c p1
239.57 224.96 0.43 c p1
239.77 223.90 0.43 c p1
239.97 224.26 0.43 c p1
240.17 223.82 0.43 c p1
240.37 225.60 0.43 c p1
240.57 225.15 0.43 c p1
240.77 225.31 0.43 c p1
240.97 224.86 0.43 c p1
241.17 224.81 0.43 c p1
241.37 223.96 0.43 c p1
241.57 224.11 0.43 c p1
241.77 224.47 0.43 c p1
241.97 224.42 0.43 c p1
242.17 224.57 0.43 c p1
242.37 225.32 0.43 c p1
242.57 225.07 0.43 c p1
242.77 224.82 0.43 c p1
242.97 224.57 0.43 c p1
243.17 224.32 0.43 c p1
243.37 224.07 0.43 c p1
243.57 225.01 0.43 c p1
243.77 223.97 0.43 c p1
243.97 224.51 0.43 c p1
244.17 224.09 0.43 c p1
244.37 224.99 0.43 c p1
244.57 225.52 0.43 c p1
244.77 224.68 0.43 c p1
244.97 224.82 0.43 c p1
245.17 223.62 0.43 c p1
245.37 223.96 0.43 c p1
245.57 223.13 0.43 c p1
245.77 224.23 0.43 c p1
245.97 224.36 0.43 c p1
246.16 223.92 0.43 c p1
246.36 225.61 0.43 c p1
246.56 224.96 0.43 c p1
246.76 224.32 0.43 c p1
246.96 224.06 0.43 c p1
247.16 224.77 0.43 c p1
247.36 223.94 0.43 c p1
247.56 223.31 0.43 c p1
247.76 223.62 0.43 c p1
247.96 225.48 0.43 c p1
248.16 225.03 0.43 c p1
248.36 224.19 0.43 c p1
248.56 223.94 0.43 c p1
248.76 224.83 0.43 c p1
248.96 222.87 0.43 c p1
249.16 223.74 0.43 c p1
249.36 224.05 0.43 c p1
249.56 222.86 0.43 c p1
249.76 223.54 0.43 c p1
249.96 223.85 0.43 c p1
250.16 224.35 0.43 c p1
250.36 224.84 0.43 c p1
250.56 224.96 0.43 c p1
250.76 224.14 0.43 c p1
250.96 224.25 0.43 c p1
251.16 223.99 0.43 c p1
251.36 224.11 0.43 c p1
251.56 224.60 0.43 c p1
251.76 223.62 0.43 c p1
251.96 224.08 0.43 c p1
252.16 224.03 0.43 c p1
252.36 224.30 0.43 c p1
252.56 223.33 0.43 c p1
252.76 224.52 0.43 c p1
252.96 223.92 0.43 c p1
253.15 222.92 0.43 c p1
253.35 224.32 0.43 c p1
253.55 224.62 0.43 c p1
253.75 223.62 0.43 c p1
253.95 222.99 0.43 c p1
254.15 224.01 0.43 c p1
254.35 223.93 0.43 c p1
254.55 222.58 0.43 c p1
254.75 224.14 0.43 c p1
254.95 223.51 0.43 c p1
255.15 223.25 0.43 c p1
255.35 224.27 0.43 c p1
255.55 222.73 0.43 c p1
255.75 223.56 0.43 c p1
255.95 224.21 0.43 c p1
256.15 223.58 0.43 c p1
256.35 223.68 0.43 c p1
256.55 223.96 0.43 c p1
256.75 222.79 0.43 c p1
256.95 222.35 0.43 c p1
257.15 223.71 0.43 c p1
257.35 222.90 0.43 c p1
257.55 223.00 0.43 c p1
257.75 223.27 0.43 c p1
257.95 224.09 0.43 c p1
258.15 223.64 0.43 c p1
258.35 223.20 0.43 c p1
258.55 222.93 0.43 c p1
258.75 222.34 0.43 c p1
258.95 223.65 0.43 c p1
259.15 223.92 0.43 c p1
259.35 222.94 0.43 c p1
259.55 223.75 0.43 c p1
259.75 222.80 0.43 c p1
259.95 224.46 0.43 c p1
260.14 222.27 0.43 c p1
260.34 223.07 0.43 c p1
260.54 223.15 0.43 c p1
260.74 223.24 0.43 c p1
260.94 222.80 0.43 c p1
261.14 223.24 0.43 c p1
261.34 224.00 0.43 c p1
261.54 224.26 0.43 c p1
261.74 223.31 0.43 c p1
261.94 223.22 0.43 c p1
262.14 223.31 0.43 c p1
262.34 223.21 0.43 c p1
262.54 223.12 0.43 c p1
262.74 222.85 0.43 c p1
262.94 223.46 0.43 c p1
263.14 223.89 0.43 c p1
263.34 223.10 0.43 c p1
263.54 222.83 0.43 c p1
263.74 224.13 0.43 c p1
263.94 223.34 0.43 c p1
264.14 223.24 0.43 c p1
264.34 223.84 0.43 c p1
264.54 224.45 0.43 c p1
264.74 223.82 0.43 c p1
264.94 222.85 0.43 c p1
265.14 223.10 0.43 c p1
265.34 223.35 0.43 c p1
265.54 224.30 0.43 c p1
265.74 222.99 0.43 c p1
265.94 223.06 0.43 c p1
266.14 223.13 0.43 c p1
266.34 224.08 0.43 c p1
266.54 223.11 0.43 c p1
266.74 223.18 0.43 c p1
266.94 223.43 0.43 c p1
267.13 223.85 0.43 c p1
267.33 223.05 0.43 c p1
267.53 223.12 0.43 c p1
267.73 223.19 0.43 c p1
267.93 223.44 0.43 c p1
268.13 223.85 0.43 c p1
268.33 223.58 0.43 c p1
268.53 223.99 0.43 c p1
268.73 224.93 0.43 c p1
268.93 223.27 0.43 c p1
269.13 223.68 0.43 c p1
269.33 224.44 0.43 c p1
269.53 223.30 0.43 c p1
269.73 223.02 0.43 c p1
269.93 223.95 0.43 c p1
270.13 224.88 0.43 c p1
270.33 223.56 0.43 c p1
270.53 223.12 0.43 c p1
270.73 223.52 0.43 c p1
270.93 223.59 0.43 c p1
271.13 223.82 0.43 c p1
271.33 224.23 0.43 c p1
271.53 223.61 0.43 c p1
271.73 224.18 0.43 c p1
271.93 223.73 0.43 c p1
272.13 224.31 0.43 c p1
272.33 224.37 0.43 c p1
272.53 224.09 0.43 c p1
272.73 224.66 0.43 c p1
272.93 224.55 0.43 c p1
273.13 223.76 0.43 c p1
273.33 224.16 0.43 c p1
273.53 224.22 0.43 c p1
273.73 223.94 0.43 c p1
273.93 224.85 0.43 c p1
274.12 224.74 0.43 c p1
274.32 223.63 0.43 c p1
274.52 224.34 0.43 c p1
274.72 224.91 0.43 c p1
274.92 223.95 0.43 c p1
275.12 224.00 0.43 c p1
275.32 224.40 0.43 c p1
275.52 224.63 0.43 c p1
275.72 224.68 0.43 c p1
275.92 224.09 0.43 c p1
276.12 225.48 0.43 c p1
276.32 225.53 0.43 c p1
276.52 223.91 0.43 c p1
276.72 224.31 0.43 c p1
276.92 224.84 0.43 c p1
277.12 224.41 0.43 c p1
277.32 224.47 0.43 c p1
277.52 224.66 0.43 c p1
277.72 224.57 0.43 c p1
277.92 224.93 0.43 c p1
278.12 224.99 0.43 c p1
278.32 225.04 0.43 c p1
278.52 225.09 0.43 c p1
278.72 224.83 0.43 c p1
278.92 225.87 0.43 c p1
279.12 225.07 0.43 c p1
279.32 223.80 0.43 c p1
279.52 225.85 0.43 c p1
279.72 225.56 0.43 c p1
279.92 224.62 0.43 c p1
280.12 225.01 0.43 c p1
280.32 225.88 0.43 c p1
280.52 226.10 0.43 c p1
280.72 224.99 0.43 c p1
280.92 226.02 0.43 c p1
281.11 225.42 0.43 c p1
281.31 224.79 0.43 c p1
281.51 225.18 0.43 c p1
281.71 226.55 0.43 c p1
281.91 225.61 0.43 c p1
282.11 224.48 0.43 c p1
282.31 225.84 0.43 c p1
282.51 225.41 0.43 c p1
282.71 225.79 0.43 c p1
282.91 226.32 0.43 c p1
283.11 225.04 0.43 c p1
283.31 224.41 0.43 c p1
283.51 225.97 0.43 c p1
283.71 226.01 0.43 c p1
283.91 226.06 0.43 c p1
284.11 226.58 0.43 c p1
284.31 225.30 0.43 c p1
284.51 226.19 0.43 c p1
284.71 226.71 0.43 c p1
284.91 225.26 0.43 c p1
285.11 225.98 0.43 c p1
285.31 226.50 0.43 c p1
285.51 225.22 0.43 c p1
285.71 225.93 0.43 c p1
285.91 225.81 0.43 c p1
286.11 226.18 0.43 c p1
286.31 225.55 0.43 c p1
286.51 225.59 0.43 c p1
286.71 226.14 0.43 c p1
286.91 225.51 0.43 c p1
287.11 227.03 0.43 c p1
287.31 225.08 0.43 c p1
287.51 225.29 0.43 c p1
287.71 226.67 0.43 c p1
287.91 226.54 0.43 c p1
288.10 226.75 0.43 c p1
288.30 226.62 0.43 c p1
288.50 226.15 0.43 c p1
288.70 226.36 0.43 c p1
288.90 226.40 0.43 c p1
289.10 226.77 0.43 c p1
289.30 226.47 0.43 c p1
289.50 226.01 0.43 c p1
289.70 226.38 0.43 c p1
289.90 226.75 0.43 c p1
290.10 227.29 0.43 c p1
290.30 225.65 0.43 c p1
290.50 225.52 0.43 c p1
290.70 226.22 0.43 c p1
290.90 226.26 0.43 c p1
291.10 225.46 0.43 c p1
291.30 225.83 0.43 c p1
291.50 226.03 0.43 c p1
291.70 225.90 0.43 c p1
291.90 226.10 0.43 c p1
292.10 226.30 0.43 c p1
292.30 225.67 0.43 c p1
292.50 226.70 0.43 c p1
292.70 226.57 0.43 c p1
292.90 226.27 0.43 c p1
293.10 225.80 0.43 c p1
293.30 227.00 0.43 c p1
293.50 226.53 0.43 c p1
293.70 226.73 0.43 c p1
293.90 225.93 0.43 c p1
294.10 226.97 0.43 c p1
294.30 226.83 0.43 c p1
294.50 226.20 0.43 c p1
294.70 225.90 0.43 c p1
294.90 226.26 0.43 c p1
295.10 225.96 0.43 c p1
295.29 225.99 0.43 c p1
295.49 226.35 0.43 c p1
295.69 226.72 0.43 c p1
295.89 225.75 0.43 c p1
296.09 227.28 0.43 c p1
296.29 227.14 0.43 c p1
296.49 226.84 0.43 c p1
296.69 225.71 0.43 c p1
296.89 225.90 0.43 c p1
297.09 226.26 0.43 c p1
297.29 225.80 0.43 c p1
297.49 225.83 0.43 c p1
297.69 226.68 0.43 c p1
297.89 226.22 0.43 c p1
298.09 225.58 0.43 c p1
298.29 225.12 0.43 c p1
298.49 225.97 0.43 c p1
298.69 226.66 0.43 c p1
298.89 225.70 0.43 c p1
299.09 226.38 0.43 c p1
299.29 227.08 0.43 c p1
299.49 225.78 0.43 c p1
299.69 225.48 0.43 c p1
299.89 226.99 0.43 c p1
300.09 225.70 0.43 c p1
300.29 225.89 0.43 c p1
300.49 226.58 0.43 c p1
300.69 226.44 0.43 c p1
300.89 226.63 0.43 c p1
301.09 225.83 0.43 c p1
301.29 226.52 0.43 c p1
301.49 226.38 0.43 c p1
301.69 226.40 0.43 c p1
301.89 226.26 0.43 c p1
302.09 225.96 0.43 c p1
302.28 226.48 0.43 c p1
302.48 226.50 0.43 c p1
302.68 226.86 0.43 c p1
302.88 225.73 0.43 c p1
303.08 225.60 0.43 c p1
303.28 226.44 0.43 c p1
303.48 226.46 0.43 c p1
303.68 226.16 0.43 c p1
303.88 226.35 0.43 c p1
304.08 227.36 0.43 c p1
304.28 226.07 0.43 c p1
304.48 225.44 0.43 c p1
304.68 226.77 0.43 c p1
304.88 226.14 0.43 c p1
305.08 225.67 0.43 c p1
305.28 225.70 0.43 c p1
305.48 225.39 0.43 c p1
305.68 225.58 0.43 c p1
305.88 225.76 0.43 c p1
306.08 226.60 0.43 c p1
306.28 226.14 0.43 c p1
306.48 226.48 0.43 c p1
306.68 226.84 0.43 c p1
306.88 226.20 0.43 c p1
307.08 225.57 0.43 c p1
307.28 225.43 0.43 c p1
307.48 226.10 0.43 c p1
307.68 225.48 0.43 c p1
307.88 225.82 0.43 c p1
308.08 225.52 0.43 c p1
308.28 225.70 0.43 c p1
308.48 225.10 0.43 c p1
308.68 225.45 0.43 c p1
308.88 225.47 0.43 c p1
309.08 225.62 0.43 c p1
309.27 225.51 0.43 c p1
309.47 224.88 0.43 c p1
309.67 226.33 0.43 c p1
309.87 224.76 0.43 c p1
310.07 225.43 0.43 c p1
310.27 225.13 0.43 c p1
310.47 225.63 0.43 c p1
310.67 225.49 0.43 c p1
310.87 225.67 0.43 c p1
311.07 225.82 0.43 c p1
311.27 225.55 0.43 c p1
311.47 225.73 0.43 c p1
311.67 224.94 0.43 c p1
311.87 225.12 0.43 c p1
312.07 225.78 0.43 c p1
312.27 224.52 0.43 c p1
312.47 225.66 0.43 c p1
312.67 224.39 0.43 c p1
312.87 225.37 0.43 c p1
313.07 224.91 0.43 c p1
313.27 224.29 0.43 c p1
313.47 224.79 0.43 c p1
313.67 224.81 0.43 c p1
313.87 224.34 0.43 c p1
314.07 224.84 0.43 c p1
314.27 224.86 0.43 c p1
314.47 225.36 0.43 c p1
314.67 224.10 0.43 c p1
314.87 224.91 0.43 c p1
315.07 226.06 0.43 c p1
315.27 223.52 0.43 c p1
315.47 224.64 0.43 c p1
315.67 224.66 0.43 c p1
315.87 223.57 0.43 c p1
316.07 224.38 0.43 c p1
316.26 224.87 0.43 c p1
316.46 224.41 0.43 c p1
316.66 225.06 0.43 c p1
316.86 224.92 0.43 c p1
317.06 224.30 0.43 c p1
317.26 225.92 0.43 c p1
317.46 225.13 0.43 c p1
317.66 225.15 0.43 c p1
317.86 224.36 0.43 c p1
318.06 225.02 0.43 c p1
318.26 224.56 0.43 c p1
318.46 224.73 0.43 c p1
318.66 225.06 0.43 c p1
318.86 224.76 0.43 c p1
319.06 224.62 0.43 c p1
319.26 225.43 0.43 c p1
319.46 224.01 0.43 c p1
319.66 224.35 0.43 c p1
319.86 224.68 0.43 c p1
320.06 224.06 0.43 c p1
320.26 223.60 0.43 c p1
320.46 224.88 0.43 c p1
320.66 225.06 0.43 c p1
320.86 224.12 0.43 c p1
321.06 224.45 0.43 c p1
321.26 224.62 0.43 c p1
321.46 224.32 0.43 c p1
321.66 224.49 0.43 c p1
321.86 224.66 0.43 c p1
322.06 224.05 0.43 c p1
322.26 224.69 0.43 c p1
322.46 224.71 0.43 c p1
322.66 224.40 0.43 c p1
322.86 224.58 0.43 c p1
323.06 223.96 0.43 c p1
323.25 224.60 0.43 c p1
323.45 224.46 0.43 c p1
323.65 224.31 0.43 c p1
323.85 223.85 0.43 c p1
324.05 224.66 0.43 c p1
324.25 224.04 0.43 c p1
324.45 224.52 0.43 c p1
324.65 223.91 0.43 c p1
324.85 225.03 0.43 c p1
325.05 224.56 0.43 c p1
325.25 224.10 0.43 c p1
325.45 224.91 0.43 c p1
325.65 224.92 0.43 c p1
325.85 225.25 0.43 c p1
326.05 224.78 0.43 c p1
326.25 223.85 0.43 c p1
326.45 224.34 0.43 c p1
326.65 224.51 0.43 c p1
326.85 224.04 0.43 c p1
327.05 223.90 0.43 c p1
327.25 224.70 0.43 c p1
327.45 223.14 0.43 c p1
327.65 223.62 0.43 c p1
327.85 224.26 0.43 c p1
328.05 224.27 0.43 c p1
328.25 224.29 0.43 c p1
328.45 224.14 0.43 c p1
328.65 224.78 0.43 c p1
328.85 223.85 0.43 c p1
329.05 224.33 0.43 c p1
329.25 223.87 0.43 c p1
329.45 223.10 0.43 c p1
329.65 223.89 0.43 c p1
329.85 224.22 0.43 c p1
330.05 223.45 0.43 c p1
330.24 223.77 0.43 c p1
330.44 224.10 0.43 c p1
330.64 224.58 0.43 c p1
330.84 223.49 0.43 c p1
331.04 223.35 0.43 c p1
331.24 223.98 0.43 c p1
331.44 223.84 0.43 c p1
331.64 224.63 0.43 c p1
331.84 224.01 0.43 c p1
332.04 223.71 0.43 c p1
332.24 223.88 0.43 c p1
332.44 223.11 0.43 c p1
332.64 224.21 0.43 c p1
332.84 224.07 0.43 c p1
333.04 224.86 0.43 c p1
333.24 223.46 0.43 c p1
333.44 224.41 0.43 c p1
333.64 223.79 0.43 c p1
333.84 223.80 0.43 c p1
334.04 223.34 0.43 c p1
334.24 224.29 0.43 c p1
334.44 223.68 0.43 c p1
334.64 224.47 0.43 c p1
334.84 223.85 0.43 c p1
335.04 224.33 0.43 c p1
335.24 224.34 0.43 c p1
335.44 223.88 0.43 c p1
335.64 224.52 0.43 c p1
335.84 224.05 0.43 c p1
336.04 223.75 0.43 c p1
336.24 224.07 0.43 c p1
336.44 223.93 0.43 c p1
336.64 223.78 0.43 c p1
336.84 223.48 0.43 c p1
337.04 224.58 0.43 c p1
337.23 224.28 0.43 c p1
337.43 223.22 0.43 c p1
337.63 223.82 0.43 c p1
337.83 223.83 0.43 c p1
338.03 224.15 0.43 c p1
338.23 223.85 0.43 c p1
338.43 223.26 0.43 c p1
338.63 223.40 0.43 c p1
338.83 223.72 0.43 c p1
339.03 224.51 0.43 c p1
339.23 222.99 0.43 c p1
339.43 224.37 0.43 c p1
339.63 223.75 0.43 c p1
339.83 223.45 0.43 c p1
340.03 223.77 0.43 c p1
340.23 224.09 0.43 c p1
340.43 223.94 0.43 c p1
340.63 223.79 0.43 c p1
340.83 224.11 0.43 c p1
341.03 223.66 0.43 c p1
341.23 223.51 0.43 c p1
341.43 224.14 0.43 c p1
341.63 223.99 0.43 c p1
341.83 223.53 0.43 c p1
342.03 223.85 0.43 c p1
342.23 224.48 0.43 c p1
342.43 224.33 0.43 c p1
342.63 222.97 0.43 c p1
342.83 223.88 0.43 c p1
343.03 223.73 0.43 c p1
343.23 224.05 0.43 c p1
343.43 223.75 0.43 c p1
343.63 224.07 0.43 c p1
343.83 224.39 0.43 c p1
344.03 223.93 0.43 c p1
344.22 223.03 0.43 c p1
344.42 223.94 0.43 c p1
344.62 223.79 0.43 c p1
344.82 224.42 0.43 c p1
345.02 223.81 0.43 c p1
345.22 224.12 0.43 c p1
345.42 223.98 0.43 c p1
345.62 223.98 0.43 c p1
345.82 224.30 0.43 c p1
346.02 223.40 0.43 c p1
346.22 223.85 0.43 c p1
346.42 223.11 0.43 c p1
346.62 223.71 0.43 c p1
346.82 224.34 0.43 c p1
347.02 224.81 0.43 c p1
347.22 223.88 0.43 c p1
347.42 223.45 0.43 c p1
347.62 224.21 0.43 c p1
347.82 224.06 0.43 c p1
348.02 223.75 0.43 c p1
348.22 223.47 0.43 c p1
348.42 222.86 0.43 c p1
348.62 223.77 0.43 c p1
348.82 224.56 0.43 c p1
349.02 224.09 0.43 c p1
349.22 224.10 0.43 c p1
349.42 224.11 0.43 c p1
349.62 223.96 0.43 c p1
349.82 223.68 0.43 c p1
350.02 223.69 0.43 c p1
350.22 224.44 0.43 c p1
350.42 224.14 0.43 c p1
350.62 224.61 0.43 c p1
350.82 224.46 0.43 c p1
351.02 223.84 0.43 c p1
351.21 224.47 0.43 c p1
351.41 224.17 0.43 c p1
351.61 224.17 0.43 c p1
351.81 224.02 0.43 c p1
352.01 223.28 0.43 c p1
352.21 223.60 0.43 c p1
352.41 224.66 0.43 c p1
352.61 224.36 0.43 c p1
352.81 224.36 0.43 c p1
353.01 225.00 0.43 c p1
353.21 223.62 0.43 c p1
353.41 223.78 0.43 c p1
353.61 224.07 0.43 c p1
353.81 225.17 0.43 c p1
354.01 223.93 0.43 c p1
354.21 224.25 0.43 c p1
354.41 223.35 0.43 c p1
354.61 223.95 0.43 c p1
354.81 224.73 0.43 c p1
355.01 224.11 0.43 c p1
355.21 223.96 0.43 c p1
355.41 224.28 0.43 c p1
355.61 224.44 0.43 c p1
355.81 223.08 0.43 c p1
356.01 224.29 0.43 c p1
356.21 224.30 0.43 c p1
356.41 223.55 0.43 c p1
356.61 224.31 0.43 c p1
356.81 224.47 0.43 c p1
357.01 224.01 0.43 c p1
357.21 224.01 0.43 c p1
357.41 224.02 0.43 c p1
357.61 224.49 0.43 c p1
357.81 224.49 0.43 c p1
358.01 223.90 0.43 c p1
358.20 224.82 0.43 c p1
358.40 223.91 0.43 c p1
358.60 222.99 0.43 c p1
358.80 224.21 0.43 c p1
359.00 224.21 0.43 c p1
359.20 224.37 0.43 c p1
359.40 224.07 0.43 c p1
359.60 225.16 0.43 c p1
359.80 223.79 0.43 c p1
360.00 223.80 0.43 c p1
360.20 223.64 0.43 c p1
360.40 224.87 0.43 c p1
360.60 224.56 0.43 c p1
360.80 223.97 0.43 c p1
361.00 224.41 0.43 c p1
361.20 224.26 0.43 c p1
361.40 223.52 0.43 c p1
361.60 223.99 0.43 c p1
0.00 0.00 432.00 576.00 cl
0 0 0 srgb
0.75 setlinewidth
[] 0 setdash
1 setlinecap
1 setlinejoin
10.00 setmiterlimit
np
219.60 201.60 m
136.17 0 l
o
np
219.60 201.60 m
0 -5.76 l
o
np
264.99 201.60 m
0 -5.76 l
o
np
310.38 201.60 m
0 -5.76 l
o
np
355.77 201.60 m
0 -5.76 l
o
/Font1 findfont 6 s
219.60 185.47 (0) .5 0 t
264.99 185.47 (5000) .5 0 t
310.38 185.47 (10000) .5 0 t
355.77 185.47 (15000) .5 0 t
np
216.00 201.68 m
0 45.92 l
o
np
216.00 201.68 m
-5.76 0 l
o
np
216.00 213.16 m
-5.76 0 l
o
np
216.00 224.64 m
-5.76 0 l
o
np
216.00 236.12 m
-5.76 0 l
o
np
216.00 247.60 m
-5.76 0 l
o
209.09 199.53 (-0.10) 1 0 t
209.09 211.01 (-0.05) 1 0 t
209.09 222.49 (0.00) 1 0 t
209.09 233.97 (0.05) 1 0 t
209.09 245.45 (0.10) 1 0 t
np
216.00 201.60 m
151.20 0 l
0 46.08 l
-151.20 0 l
0 -46.08 l
o
0.00 0.00 432.00 576.00 cl
/Font1 findfont 9 s
0 0 0 srgb
291.60 262.88 (Residuals) .5 0 t
59.04 73.44 401.76 516.96 cl
ep
%%Trailer
%%Pages: 1
%%EOF
