%!PS-Adobe-3.0 EPSF-3.0
%%DocumentNeededResources: font Helvetica
%%+ font Helvetica-Bold
%%+ font Helvetica-Oblique
%%+ font Helvetica-BoldOblique
%%+ font Symbol
%%Title: R Graphics Output
%%Creator: R Software
%%Pages: (atend)
%%BoundingBox: 0 0 432 576
%%EndComments
%%BeginProlog
/bp  { gs sRGB gs } def
% begin .ps.prolog
/gs  { gsave } bind def
/gr  { grestore } bind def
/ep  { showpage gr gr } bind def
/m   { moveto } bind def
/l  { rlineto } bind def
/np  { newpath } bind def
/cp  { closepath } bind def
/f   { fill } bind def
/o   { stroke } bind def
/c   { newpath 0 360 arc } bind def
/r   { 4 2 roll moveto 1 copy 3 -1 roll exch 0 exch rlineto 0 rlineto -1 mul 0 exch rlineto closepath } bind def
/p1  { stroke } bind def
/p2  { gsave bg fill grestore newpath } bind def
/p3  { gsave bg fill grestore stroke } bind def
/p6  { gsave bg eofill grestore newpath } bind def
/p7  { gsave bg eofill grestore stroke } bind def
/t   { 5 -2 roll moveto gsave rotate
       1 index stringwidth pop
       mul neg 0 rmoveto show grestore } bind def
/ta  { 4 -2 roll moveto gsave rotate show } bind def
/tb  { 2 -1 roll 0 rmoveto show } bind def
/cl  { grestore gsave newpath 3 index 3 index moveto 1 index
       4 -1 roll lineto  exch 1 index lineto lineto
       closepath clip newpath } bind def
/rgb { setrgbcolor } bind def
/s   { scalefont setfont } bind def
% end   .ps.prolog
/sRGB { [ /CIEBasedABC
          << /DecodeLMN
               [ { dup 0.03928 le
                        {12.92321 div}
                        {0.055 add 1.055 div 2.4 exp }
                     ifelse
                 } bind dup dup
               ]
             /MatrixLMN [0.412457 0.212673 0.019334
                         0.357576 0.715152 0.119192
                         0.180437 0.072175 0.950301]
             /WhitePoint [0.9505 1.0 1.0890]
           >>
         ] setcolorspace } bind def
/srgb { setcolor } bind def
% begin encoding
/WinAnsiEncoding [
 /.notdef /.notdef /.notdef /.notdef /.notdef /.notdef /.notdef /.notdef
 /.notdef /.notdef /.notdef /.notdef /.notdef /.notdef /.notdef /.notdef
 /.notdef /.notdef /.notdef /.notdef /.notdef /.notdef /.notdef /.notdef
 /.notdef /.notdef /.notdef /.notdef /.notdef /.notdef /.notdef /.notdef
 /space /exclam /quotedbl /numbersign /dollar /percent /ampersand /quoteright
 /parenleft /parenright /asterisk /plus /comma /minus /period /slash
 /zero /one /two /three /four /five /six /seven
 /eight /nine /colon /semicolon /less /equal /greater /question
 /at /A /B /C /D /E /F /G
 /H /I /J /K /L /M /N /O
 /P /Q /R /S /T /U /V /W
 /X /Y /Z /bracketleft /backslash /bracketright /asciicircum /underscore
 /grave /a /b /c /d /e /f /g
 /h /i /j /k /l /m /n /o
 /p /q /r /s /t /u /v /w
 /x /y /z /braceleft /bar /braceright /asciitilde /.notdef
 /Euro /.notdef /quotesinglbase /florin /quotedblbase /ellipsis /dagger /daggerdbl
 /circumflex /perthousand /Scaron /guilsinglleft /OE /.notdef /Zcaron /.notdef
 /.notdef /quoteleft /quoteright /quotedblleft /quotedblright /bullet /endash /emdash
 /tilde /trademark /scaron /guilsinglright /oe /.notdef /zcaron /Ydieresis
 /space /exclamdown /cent /sterling /currency /yen /brokenbar /section
 /dieresis /copyright /ordfeminine /guillemotleft /logicalnot /hyphen /registered /macron
 /degree /plusminus /twosuperior /threesuperior /acute /mu /paragraph /periodcentered
 /cedilla /onesuperior /ordmasculine /guillemotright /onequarter /onehalf /threequarters /questiondown
 /Agrave /Aacute /Acircumflex /Atilde /Adieresis /Aring /AE /Ccedilla
 /Egrave /Eacute /Ecircumflex /Edieresis /Igrave /Iacute /Icircumflex /Idieresis
 /Eth /Ntilde /Ograve /Oacute /Ocircumflex /Otilde /Odieresis /multiply
 /Oslash /Ugrave /Uacute /Ucircumflex /Udieresis /Yacute /Thorn /germandbls
 /agrave /aacute /acircumflex /atilde /adieresis /aring /ae /ccedilla
 /egrave /eacute /ecircumflex /edieresis /igrave /iacute /icircumflex /idieresis
 /eth /ntilde /ograve /oacute /ocircumflex /otilde /odieresis /divide
 /oslash /ugrave /uacute /ucircumflex /udieresis /yacute /thorn /ydieresis
]
 def
% end encoding
%%IncludeResource: font Helvetica
/Helvetica findfont
dup length dict begin
  {1 index /FID ne {def} {pop pop} ifelse} forall
  /Encoding WinAnsiEncoding def
  currentdict
  end
/Font1 exch definefont pop
%%IncludeResource: font Helvetica-Bold
/Helvetica-Bold findfont
dup length dict begin
  {1 index /FID ne {def} {pop pop} ifelse} forall
  /Encoding WinAnsiEncoding def
  currentdict
  end
/Font2 exch definefont pop
%%IncludeResource: font Helvetica-Oblique
/Helvetica-Oblique findfont
dup length dict begin
  {1 index /FID ne {def} {pop pop} ifelse} forall
  /Encoding WinAnsiEncoding def
  currentdict
  end
/Font3 exch definefont pop
%%IncludeResource: font Helvetica-BoldOblique
/Helvetica-BoldOblique findfont
dup length dict begin
  {1 index /FID ne {def} {pop pop} ifelse} forall
  /Encoding WinAnsiEncoding def
  currentdict
  end
/Font4 exch definefont pop
%%IncludeResource: font Symbol
/Symbol findfont
dup length dict begin
  {1 index /FID ne {def} {pop pop} ifelse} forall
  currentdict
  end
/Font5 exch definefont pop
%%EndProlog
%%Page: 1 1
bp
/bg { 1 1 1 srgb } def
0.00 0.00 432.00 576.00 r p2
0.00 0.00 432.00 576.00 cl
0.00 0.00 432.00 576.00 cl
0.00 0.00 432.00 576.00 cl
/Font1 findfont 12 s
0 0 0 srgb
48.00 508.72 (PCP-ETH) 0 0 t
48.00 494.89 (Flash light photolysis) 0 0 t
/Font1 findfont 9 s
48.00 457.54 (File: Solv) 0 ta
-0.225 (ent_debendence_sol4_1_MSLM.dat) tb gr
48.00 334.87 (Sat Mar 05 15:16:20 2022) 0 0 t
48.00 430.87 (Fit function:  a + b * e) 0 ta
-0.270 (xp\(-c * t\)) tb gr
48.00 420.50 (t-Inter) 0 ta
0.270 (v) tb
-0.225 (all: 510.000 ... 22168.000 ms) tb gr
48.00 410.14 (P) 0 ta
-0.360 (ar) tb
-0.090 (ameters \(Standard de) tb
-0.270 (viation\):) tb gr
48.00 399.77 (  a = -0.00177 \(0.00037\)) 0 0 t
48.00 389.40 (  b = 0.16291 \(0.00103\)) 0 0 t
48.00 379.03 (  c = 2.236e-01 \(2.739e-03\) s^-1) 0 0 t
48.00 368.66 (  tau = 4.472e+00 \(5.477e-02\) s) 0 0 t
216.00 345.60 388.80 518.40 cl
0 0 0 srgb
0.75 setlinewidth
[] 0 setdash
1 setlinecap
1 setlinejoin
10.00 setmiterlimit
np
222.40 505.49 m
0.15 -1.45 l
0.14 -0.21 l
0.15 0.85 l
0.14 -1.06 l
0.15 -1.06 l
0.14 1.69 l
0.15 -0.63 l
0.14 0 l
0.15 -1.06 l
0.15 0.22 l
0.14 1.26 l
0.15 0.21 l
0.14 -0.84 l
0.15 0.21 l
0.14 -0.42 l
0.15 -0.21 l
0.14 0.63 l
0.15 -1.27 l
0.15 1.90 l
0.14 -0.63 l
0.15 0.63 l
0.14 -0.84 l
0.15 -0.85 l
0.14 2.50 l
0.15 -2.50 l
0.15 1.27 l
0.14 -0.21 l
0.15 -0.63 l
0.14 1.69 l
0.15 -0.85 l
0.14 0.21 l
0.15 0.42 l
0.14 -1.26 l
0.15 0.42 l
0.15 -0.63 l
0.14 1.26 l
0.15 0.43 l
0.14 -1.48 l
0.15 0.63 l
0.14 -0.42 l
0.15 -0.42 l
0.14 0.84 l
0.15 -0.42 l
0.15 0.42 l
0.14 -0.21 l
0.15 -0.42 l
0.14 -0.42 l
0.15 1.05 l
0.14 -0.63 l
0.15 0.63 l
0.14 0 l
0.15 -0.42 l
0.15 0.63 l
0.14 0.64 l
0.15 -0.85 l
0.14 -0.42 l
0.15 -0.21 l
0.14 0 l
0.15 0.42 l
0.15 0 l
0.14 0.63 l
0.15 -0.63 l
0.14 -0.21 l
0.15 -0.63 l
0.14 1.68 l
0.15 0.39 l
0.14 -0.39 l
0.15 -0.63 l
0.15 0.63 l
0.14 -0.21 l
0.15 -0.42 l
0.14 0 l
0.15 -0.21 l
0.14 0.63 l
0.15 -0.21 l
0.14 -0.42 l
0.15 0.21 l
0.15 0.42 l
0.14 -0.21 l
0.15 0.64 l
0.14 -0.85 l
0.15 -0.63 l
0.14 1.48 l
0.15 -0.64 l
0.14 -1.48 l
0.15 0.85 l
0.15 -0.42 l
0.14 0.63 l
0.15 1.23 l
0.14 -0.39 l
0.15 -0.21 l
0.14 0.43 l
0.15 -1.06 l
0.15 -0.21 l
0.14 -0.63 l
0.15 1.26 l
0.14 -0.42 l
0.15 0.63 l
0.14 0.43 l
236.96 451.33 lineto
0.14 -0.23 l
0.15 0.23 l
0.15 1.90 l
0.14 0.43 l
0.15 -0.64 l
0.14 1.23 l
0.15 1.48 l
0.14 0.43 l
0.15 0.84 l
0.14 -0.42 l
0.15 0.63 l
0.15 0.63 l
0.14 -0.42 l
0.15 0.64 l
0.14 1.65 l
0.15 0.64 l
0.14 0.42 l
0.15 -0.64 l
0.14 0.22 l
0.15 0.63 l
0.15 0.21 l
0.14 0.85 l
0.15 0.21 l
0.14 -0.64 l
0.15 0.85 l
0.14 1.05 l
0.15 0.64 l
0.15 -1.48 l
0.14 2.50 l
0.15 -0.39 l
0.14 0.21 l
0.15 0 l
0.14 -0.42 l
0.15 1.66 l
0.14 0 l
0.15 0.42 l
0.15 0.42 l
0.14 -0.63 l
0.15 0.63 l
0.14 0.21 l
0.15 -1.27 l
0.14 2.12 l
0.15 0.63 l
0.14 0 l
0.15 0.42 l
0.15 0 l
0.14 0.43 l
0.15 0.42 l
0.14 0 l
0.15 0 l
0.14 1.23 l
0.15 -0.60 l
0.14 -0.63 l
0.15 0.21 l
0.15 1.02 l
0.14 0 l
0.15 -0.42 l
0.14 0.63 l
0.15 -0.42 l
0.14 0.84 l
0.15 0.85 l
0.15 -0.42 l
0.14 -0.43 l
0.15 0.64 l
0.14 1.27 l
0.15 0.84 l
0.14 -0.84 l
0.15 -0.85 l
0.14 2.32 l
0.15 -0.63 l
0.15 0.21 l
0.14 1.06 l
0.15 -1.06 l
0.14 0 l
0.15 0.64 l
0.14 0.21 l
0.15 -0.21 l
0.14 1.02 l
0.15 -0.18 l
0.15 0.18 l
0.14 0.21 l
0.15 0.21 l
0.14 1.06 l
0.15 -0.64 l
0.14 -0.42 l
0.15 1.27 l
0.14 -0.21 l
0.15 0.21 l
0.15 -0.43 l
0.14 0.64 l
0.15 0.84 l
0.14 0.85 l
0.15 -0.42 l
0.14 -0.22 l
0.15 0.43 l
0.15 1.27 l
0.14 -1.06 l
0.15 0.21 l
0.14 -0.21 l
251.52 480.31 lineto
0.14 0.63 l
0.15 -1.05 l
0.14 1.05 l
0.15 -0.63 l
0.15 1.48 l
0.14 0.81 l
0.15 -0.60 l
0.14 1.65 l
0.15 -0.63 l
0.14 -0.84 l
0.15 0.21 l
0.14 0.21 l
0.15 1.27 l
0.15 -1.06 l
0.14 -0.63 l
0.15 1.47 l
0.14 0.22 l
0.15 0.84 l
0.14 -0.63 l
0.15 0.42 l
0.14 0.42 l
0.15 0.21 l
0.15 -0.42 l
0.14 -0.84 l
0.15 1.48 l
0.14 0.21 l
0.15 1.05 l
0.14 -2.74 l
0.15 2.32 l
0.14 -0.63 l
0.15 0.42 l
0.15 0.63 l
0.14 -0.42 l
0.15 -0.21 l
0.14 0 l
0.15 1.69 l
0.14 -0.21 l
0.15 -1.48 l
0.15 1.87 l
0.14 -0.39 l
0.15 0.39 l
0.14 -0.18 l
0.15 -0.42 l
0.14 0.60 l
0.15 -0.39 l
0.14 1.44 l
0.15 -0.84 l
0.15 0.42 l
0.14 0.84 l
0.15 -0.63 l
0.14 -0.42 l
0.15 1.27 l
0.14 0 l
0.15 -0.85 l
0.14 0.63 l
0.15 -0.42 l
0.15 1.48 l
0.14 -0.63 l
0.15 0.63 l
0.14 0.42 l
0.15 -0.21 l
0.14 0.21 l
0.15 0.85 l
0.14 -1.06 l
0.15 -0.21 l
0.15 2.32 l
0.14 -1.69 l
0.15 -0.21 l
0.14 1.06 l
0.15 -0.85 l
0.14 0.64 l
0.15 0.63 l
0.15 -1.05 l
0.14 -1.06 l
0.15 1.48 l
0.14 0 l
0.15 -0.85 l
0.14 1.48 l
0.15 -0.84 l
0.14 0 l
0.15 0.84 l
0.15 0 l
0.14 -0.42 l
0.15 0.42 l
0.14 0.85 l
0.15 -0.64 l
0.14 -1.05 l
0.15 0.63 l
0.14 0.85 l
0.15 0 l
0.15 -0.85 l
0.14 0.63 l
0.15 0.64 l
0.14 -0.42 l
0.15 -0.43 l
0.14 0.43 l
0.15 0.59 l
0.14 -0.38 l
0.15 0.21 l
266.08 492.92 lineto
0.14 0.21 l
0.15 0 l
0.14 1.02 l
0.15 0 l
0.14 -0.21 l
0.15 -0.43 l
0.15 0.22 l
0.14 0.42 l
0.15 -1.02 l
0.14 0.38 l
0.15 0.85 l
0.14 -0.42 l
0.15 0.42 l
0.14 -0.63 l
0.15 0.63 l
0.15 0 l
0.14 -0.42 l
0.15 0 l
0.14 0.84 l
0.15 -0.42 l
0.14 0.21 l
0.15 0.85 l
0.14 -0.85 l
0.15 -0.21 l
0.15 1.06 l
0.14 -0.43 l
0.15 -0.42 l
0.14 0.63 l
0.15 -0.21 l
0.14 -0.42 l
0.15 0.63 l
0.14 0 l
0.15 -0.84 l
0.15 -0.21 l
0.14 2.11 l
0.15 -0.21 l
0.14 -2.11 l
0.15 1.69 l
0.14 -0.64 l
0.15 0 l
0.15 0.85 l
0.14 0.63 l
0.15 -0.84 l
0.14 -0.85 l
0.15 1.48 l
0.14 0.21 l
0.15 -1.48 l
0.14 0.64 l
0.15 -0.85 l
0.15 0.42 l
0.14 -0.21 l
0.15 1.06 l
0.14 -1.06 l
0.15 -0.42 l
0.14 1.48 l
0.15 -0.21 l
0.14 -0.64 l
0.15 1.27 l
0.15 0 l
0.14 0 l
0.15 -0.63 l
0.14 1.69 l
0.15 -2.11 l
0.14 -0.22 l
0.15 1.06 l
0.14 -0.42 l
0.15 0 l
0.15 0.42 l
0.14 -1.27 l
0.15 1.90 l
0.14 -1.05 l
0.15 0 l
0.14 -0.21 l
0.15 0.21 l
0.15 0.42 l
0.14 0 l
0.15 -0.42 l
0.14 -0.21 l
0.15 0.84 l
0.14 0.42 l
0.15 0.22 l
0.14 -0.64 l
0.15 0 l
0.15 0 l
0.14 0.42 l
0.15 -0.21 l
0.14 -0.63 l
0.15 0.42 l
0.14 0.85 l
0.15 -0.64 l
0.14 0.43 l
0.15 -0.22 l
0.15 -0.42 l
0.14 0 l
0.15 0.21 l
0.14 0.21 l
0.15 -0.63 l
0.14 0.42 l
0.15 0.21 l
280.63 495.63 lineto
0.15 0.84 l
0.15 0.64 l
0.14 -1.06 l
0.15 1.27 l
0.14 0 l
0.15 -0.64 l
0.14 -0.42 l
0.15 1.69 l
0.15 -0.84 l
0.14 0 l
0.15 -0.43 l
0.14 0.64 l
0.15 -0.85 l
0.14 0.21 l
0.15 1.27 l
0.14 0.42 l
0.15 -1.05 l
0.15 0.84 l
0.14 -0.84 l
0.15 0 l
0.14 1.26 l
0.15 -1.26 l
0.14 0.63 l
0.15 -0.63 l
0.14 0.63 l
0.15 0 l
0.15 -0.21 l
0.14 1.27 l
0.15 -1.69 l
0.14 -0.21 l
0.15 1.05 l
0.14 -0.63 l
0.15 -0.21 l
0.14 1.05 l
0.15 -0.42 l
0.15 0.85 l
0.14 -1.06 l
0.15 2.08 l
0.14 -1.45 l
0.15 -0.42 l
0.14 0.42 l
0.15 0.21 l
0.14 -0.84 l
0.15 0.21 l
0.15 0 l
0.14 0.85 l
0.15 -0.85 l
0.14 -0.63 l
0.15 1.48 l
0.14 -0.22 l
0.15 -0.42 l
0.15 0.21 l
0.14 -0.42 l
0.15 0 l
0.14 -0.42 l
0.15 1.27 l
0.14 -0.64 l
0.15 0.42 l
0.14 0.60 l
0.15 -1.23 l
0.15 0 l
0.14 1.66 l
0.15 -0.43 l
0.14 -1.44 l
0.15 1.06 l
0.14 0 l
0.15 0 l
0.14 0.59 l
0.15 0.22 l
0.15 -1.03 l
0.14 0.81 l
0.15 0.43 l
0.14 -0.21 l
0.15 0.21 l
0.14 0.42 l
0.15 -1.06 l
0.14 0 l
0.15 0.64 l
0.15 0.42 l
0.14 -2.29 l
0.15 1.44 l
0.14 1.69 l
0.15 -2.28 l
0.14 0.81 l
0.15 1.26 l
0.15 -1.26 l
0.14 0 l
0.15 0.21 l
0.14 -0.43 l
0.15 -0.59 l
0.14 1.23 l
0.15 -0.42 l
0.14 -1.24 l
0.15 1.45 l
0.15 0.21 l
0.14 -0.64 l
0.15 1.27 l
0.14 -0.84 l
0.15 0.21 l
295.19 499.18 lineto
0.15 0.64 l
0.14 0.84 l
0.15 -1.48 l
0.15 0.85 l
0.14 0.84 l
0.15 -0.63 l
0.14 -1.06 l
0.15 0.85 l
0.14 1.05 l
0.15 -1.69 l
0.14 0.43 l
0.15 0.63 l
0.15 -0.21 l
0.14 0 l
0.15 -0.85 l
0.14 1.06 l
0.15 -0.42 l
0.14 0.63 l
0.15 -1.05 l
0.15 0.63 l
0.14 1.06 l
0.15 -1.06 l
0.14 0.21 l
0.15 -0.21 l
0.14 -0.63 l
0.15 0 l
0.14 0.84 l
0.15 -0.21 l
0.15 -0.21 l
0.14 -0.21 l
0.15 1.26 l
0.14 -0.42 l
0.15 -0.42 l
0.14 0.21 l
0.15 0.85 l
0.14 -0.85 l
0.15 1.06 l
0.15 -0.64 l
0.14 0 l
0.15 0.64 l
0.14 1.27 l
0.15 -1.48 l
0.14 0.21 l
0.15 -0.21 l
0.14 1.26 l
0.15 -0.84 l
0.15 0.63 l
0.14 -0.84 l
0.15 0 l
0.14 -0.85 l
0.15 0.85 l
0.14 0.42 l
0.15 -0.63 l
0.15 -0.43 l
0.14 0.85 l
0.15 0 l
0.14 -0.42 l
0.15 1.90 l
0.14 -0.85 l
0.15 -0.21 l
0.14 -0.84 l
0.15 0.21 l
0.15 0.84 l
0.14 -1.05 l
0.15 0.21 l
0.14 0.42 l
0.15 -0.85 l
0.14 0 l
0.15 0.64 l
0.14 0 l
0.15 0 l
0.15 0.21 l
0.14 -0.42 l
0.15 0.42 l
0.14 0 l
0.15 -0.42 l
0.14 0.21 l
0.15 0.42 l
0.14 0.42 l
0.15 -0.63 l
0.15 1.69 l
0.14 -0.84 l
0.15 0.42 l
0.14 -1.06 l
0.15 1.06 l
0.14 -0.42 l
0.15 -0.43 l
0.15 0.64 l
0.14 -0.85 l
0.15 1.27 l
0.14 -0.42 l
0.15 0.84 l
0.14 -0.84 l
0.15 -1.27 l
0.14 1.48 l
0.15 -0.21 l
0.15 0.42 l
0.14 -0.21 l
0.15 -0.21 l
309.75 503.62 lineto
0.15 -0.21 l
0.14 -0.42 l
0.15 0.84 l
0.14 -1.05 l
0.15 1.05 l
0.15 -0.63 l
0.14 0.63 l
0.15 0 l
0.14 -0.21 l
0.15 -0.21 l
0.14 0.21 l
0.15 0.63 l
0.14 -0.42 l
0.15 0 l
0.15 0 l
0.14 -0.84 l
0.15 -0.21 l
0.14 1.47 l
0.15 -0.42 l
0.14 0.42 l
0.15 0 l
0.15 -0.84 l
0.14 -0.42 l
0.15 1.47 l
0.14 0.22 l
0.15 -1.27 l
0.14 -0.42 l
0.15 0.63 l
0.14 0.42 l
0.15 0 l
0.15 0.42 l
0.14 -0.21 l
0.15 0.21 l
0.14 0.39 l
0.15 0 l
0.14 -0.81 l
0.15 0 l
0.14 0.64 l
0.15 0 l
0.15 -0.22 l
0.14 -0.63 l
0.15 -0.21 l
0.14 0 l
0.15 0.63 l
0.14 0.43 l
0.15 -0.22 l
0.14 0 l
0.15 0.22 l
0.15 -0.85 l
0.14 0.63 l
0.15 -0.42 l
0.14 -0.21 l
0.15 0.63 l
0.14 0.60 l
0.15 -0.60 l
0.15 0.81 l
0.14 -1.23 l
0.15 0.81 l
0.14 0.64 l
0.15 -2.08 l
0.14 2.29 l
0.15 -0.64 l
0.14 -0.38 l
0.15 0 l
0.15 -0.64 l
0.14 -0.21 l
0.15 0.85 l
0.14 1.02 l
0.15 0.84 l
0.14 -2.08 l
0.15 0.39 l
0.14 -0.60 l
0.15 1.45 l
0.15 -0.21 l
0.14 0 l
0.15 -1.24 l
0.14 0.21 l
0.15 1.03 l
0.14 -0.81 l
0.15 0.81 l
0.14 -0.81 l
0.15 1.23 l
0.15 -1.06 l
0.14 0.64 l
0.15 0.42 l
0.14 -1.23 l
0.15 1.02 l
0.14 0.42 l
0.15 -1.87 l
0.14 0.60 l
0.15 1.48 l
0.15 0 l
0.14 -0.63 l
0.15 1.05 l
0.14 -0.84 l
0.15 -0.85 l
0.14 0.21 l
0.15 -0.21 l
0.15 1.69 l
324.31 504.85 lineto
0.15 0.64 l
0.14 -0.81 l
0.15 1.65 l
0.14 -0.42 l
0.15 0 l
0.14 -0.21 l
0.15 1.48 l
0.15 -1.27 l
0.14 0.84 l
0.15 -1.26 l
0.14 1.26 l
0.15 -0.42 l
0.14 -0.42 l
0.15 -0.21 l
0.14 0.63 l
0.15 0.21 l
0.15 -1.05 l
0.14 1.69 l
0.15 -0.85 l
0.14 -0.84 l
0.15 0.42 l
0.14 0 l
0.15 0.84 l
0.14 0.64 l
0.15 -1.06 l
0.15 -0.21 l
0.14 -0.21 l
0.15 1.05 l
0.14 -0.84 l
0.15 0.21 l
0.14 -0.84 l
0.15 1.26 l
0.15 -0.42 l
0.14 0.63 l
0.15 1.27 l
0.14 -2.74 l
0.15 1.69 l
0.14 -0.43 l
0.15 -1.05 l
0.14 -0.21 l
0.15 0.63 l
0.15 1.06 l
0.14 -0.85 l
0.15 0.63 l
0.14 -0.21 l
0.15 0.43 l
0.14 -0.85 l
0.15 0.63 l
0.14 -1.05 l
0.15 0.63 l
0.15 1.27 l
0.14 -0.42 l
0.15 -1.06 l
0.14 2.33 l
0.15 -0.64 l
0.14 -0.84 l
0.15 -0.22 l
0.14 0.85 l
0.15 -1.06 l
0.15 0.21 l
0.14 -0.63 l
0.15 0 l
0.14 1.27 l
0.15 1.48 l
0.14 -2.75 l
0.15 0.63 l
0.15 0.64 l
0.14 0.21 l
0.15 0 l
0.14 -0.63 l
0.15 0 l
0.14 -0.22 l
0.15 0 l
0.14 1.70 l
0.15 -1.48 l
0.15 -0.85 l
0.14 1.90 l
0.15 0.43 l
0.14 0 l
0.15 -1.48 l
0.14 1.48 l
0.15 -1.48 l
0.14 0.21 l
0.15 0 l
0.15 1.27 l
0.14 -0.64 l
0.15 -1.06 l
0.14 1.70 l
0.15 0.63 l
0.14 -1.06 l
0.15 0.64 l
0.14 -1.48 l
0.15 1.05 l
0.15 -0.42 l
0.14 -0.21 l
0.15 0 l
0.14 0.63 l
0.15 -0.21 l
0.14 0 l
338.87 506.96 lineto
0.15 2.96 l
0.14 -1.69 l
0.15 0.64 l
0.14 -0.85 l
0.15 -0.42 l
0.14 0.84 l
0.15 -0.84 l
0.14 2.11 l
0.15 -2.11 l
0.15 0.42 l
0.14 0 l
0.15 0.64 l
0.14 -0.85 l
0.15 0.21 l
0.14 0 l
0.15 0.64 l
0.14 -0.22 l
0.15 0.43 l
0.15 -0.21 l
0.14 -0.85 l
0.15 1.27 l
0.14 0.63 l
0.15 -1.69 l
0.14 -0.21 l
0.15 1.48 l
0.14 -1.06 l
0.15 -1.27 l
0.15 2.12 l
0.14 0.42 l
0.15 -1.48 l
0.14 0.85 l
0.15 -0.21 l
0.14 -0.64 l
0.15 0.85 l
0.15 0.84 l
0.14 -0.42 l
0.15 -0.42 l
0.14 1.05 l
0.15 -2.11 l
0.14 0.85 l
0.15 0.21 l
0.14 -0.85 l
0.15 0 l
0.15 0.64 l
0.14 -0.22 l
0.15 -0.63 l
0.14 1.69 l
0.15 0 l
0.14 -0.84 l
0.15 0.21 l
0.14 -0.43 l
0.15 0.64 l
0.15 -0.42 l
0.14 0.63 l
0.15 -0.42 l
0.14 -0.21 l
0.15 1.47 l
0.14 -0.63 l
0.15 -0.21 l
0.14 0 l
0.15 -0.42 l
0.15 -0.43 l
0.14 1.27 l
0.15 -0.84 l
0.14 0.84 l
0.15 -0.42 l
0.14 0 l
0.15 0.63 l
0.15 0.60 l
0.14 -0.81 l
0.15 0.42 l
0.14 -1.26 l
0.15 -1.69 l
0.14 2.32 l
0.15 0.42 l
0.14 -0.63 l
0.15 0.21 l
0.15 0.63 l
0.14 -1.90 l
0.15 1.06 l
0.14 0.21 l
0.15 -0.84 l
0.14 1.26 l
0.15 -0.84 l
0.14 1.26 l
0.15 -1.05 l
0.15 -0.21 l
0.14 0.84 l
0.15 -0.21 l
0.14 -1.27 l
0.15 1.06 l
0.14 0 l
0.15 0.63 l
0.14 0.39 l
0.15 -1.02 l
0.15 0.63 l
0.14 -0.84 l
0.15 0.21 l
0.14 0 l
353.43 508.44 lineto
0.14 0.22 l
0.15 0.63 l
0.14 0.42 l
0.15 -0.42 l
0.15 0.84 l
0.14 -0.21 l
0.15 0.42 l
0.14 -0.63 l
0.15 -0.42 l
0.14 1.23 l
0.15 -0.60 l
0.15 -0.21 l
0.14 0 l
0.15 -0.84 l
0.14 0.84 l
0.15 0 l
0.14 0.42 l
0.15 -0.63 l
0.14 -0.63 l
0.15 0.42 l
0.15 0.84 l
0.14 -1.26 l
0.15 1.26 l
0.14 -0.63 l
0.15 0.21 l
0.14 -0.21 l
0.15 1.02 l
0.14 -1.02 l
0.15 0.21 l
0.15 0.21 l
0.14 -0.21 l
0.15 0.63 l
0.14 0 l
0.15 0.81 l
0.14 -1.44 l
0.15 -1.69 l
0.14 2.32 l
0.15 0.39 l
0.15 -1.23 l
0.14 -0.42 l
0.15 1.44 l
0.14 0.63 l
0.15 -1.86 l
0.14 1.05 l
0.15 0 l
0.15 -0.42 l
0.14 0.60 l
0.15 -0.18 l
0.14 -0.21 l
0.15 -0.21 l
0.14 0.81 l
0.15 -1.65 l
0.14 2.07 l
0.15 -1.65 l
0.15 2.08 l
0.14 -2.08 l
0.15 1.65 l
0.14 -1.02 l
0.15 0 l
0.14 -0.21 l
0.15 0 l
0.14 -0.84 l
0.15 1.26 l
0.15 -1.26 l
0.14 0.63 l
0.15 0.42 l
0.14 0.81 l
0.15 -0.81 l
0.14 0 l
0.15 0.21 l
0.14 -0.42 l
0.15 0.60 l
0.15 -1.02 l
0.14 0.42 l
0.15 -0.21 l
0.14 -1.05 l
0.15 2.71 l
0.14 -1.03 l
0.15 -1.05 l
0.15 1.05 l
0.14 -0.63 l
0.15 0.63 l
0.14 0.81 l
0.15 -0.63 l
0.14 0.63 l
0.15 -0.81 l
0.14 0.81 l
0.15 -1.23 l
0.15 -1.05 l
0.14 1.86 l
0.15 0.21 l
0.14 -0.81 l
0.15 0.39 l
0.14 0.21 l
0.15 -0.60 l
0.14 -1.26 l
0.15 1.05 l
0.15 0.60 l
0.14 -1.02 l
currentpoint o m
367.99 510.94 lineto
0.14 -1.23 l
0.15 -0.84 l
0.14 1.05 l
0.15 0.21 l
0.14 -0.63 l
0.15 -0.21 l
0.15 0.63 l
0.14 0.21 l
0.15 0 l
0.14 0.21 l
0.15 0.18 l
0.14 -1.65 l
0.15 0.21 l
0.15 1.86 l
0.14 -0.42 l
0.15 -0.81 l
0.14 0.21 l
0.15 1.23 l
0.14 -0.21 l
0.15 0.43 l
0.14 0.63 l
0.15 -1.66 l
0.15 0.18 l
0.14 -0.39 l
0.15 0.39 l
0.14 -0.81 l
0.15 1.44 l
0.14 -0.81 l
0.15 -0.42 l
0.14 0.42 l
0.15 -0.21 l
0.15 0 l
0.14 0.39 l
0.15 -0.18 l
0.14 0.18 l
0.15 -0.18 l
0.14 0.39 l
0.15 0.42 l
0.14 -1.02 l
0.15 0.81 l
0.15 -1.65 l
0.14 0.84 l
0.15 0.21 l
0.14 0.60 l
0.15 1.06 l
0.14 -1.66 l
0.15 -0.21 l
0.15 -0.21 l
0.14 0.42 l
0.15 0.18 l
0.14 0.42 l
0.15 -2.28 l
0.14 1.26 l
0.15 1.45 l
0.14 -0.22 l
0.15 -1.23 l
0.15 0.81 l
0.14 -0.21 l
0.15 0.42 l
0.14 -1.02 l
0.15 0.60 l
0.14 0.21 l
0.15 0.85 l
0.14 -0.64 l
0.15 -1.23 l
0.15 1.23 l
0.14 0 l
0.15 -0.42 l
0.14 -0.18 l
0.15 1.45 l
0.14 -2.29 l
0.15 1.02 l
0.14 0.42 l
0.15 -0.60 l
0.15 -1.68 l
0.14 2.07 l
0.15 -1.02 l
0.14 1.02 l
0.15 -0.39 l
0.14 1.45 l
0.15 0 l
0.15 -1.66 l
0.14 1.24 l
0.15 0 l
0.14 -1.24 l
0.15 0.81 l
0.14 0.21 l
0.15 0.64 l
0.14 -0.42 l
0.15 -1.87 l
0.15 1.02 l
0.14 -0.60 l
0.15 0.60 l
0.14 -1.86 l
0.15 1.47 l
0.14 0 l
0.15 0.81 l
0.14 0 l
0.15 -1.02 l
o
/bg { 1 1 1 srgb } def
222.40 505.49 0.43 c p3
222.55 504.04 0.43 c p3
222.69 503.83 0.43 c p3
222.84 504.68 0.43 c p3
222.98 503.62 0.43 c p3
223.13 502.56 0.43 c p3
223.27 504.25 0.43 c p3
223.42 503.62 0.43 c p3
223.56 503.62 0.43 c p3
223.71 502.56 0.43 c p3
223.86 502.78 0.43 c p3
224.00 504.04 0.43 c p3
224.15 504.25 0.43 c p3
224.29 503.41 0.43 c p3
224.44 503.62 0.43 c p3
224.58 503.20 0.43 c p3
224.73 502.99 0.43 c p3
224.87 503.62 0.43 c p3
225.02 502.35 0.43 c p3
225.17 504.25 0.43 c p3
225.31 503.62 0.43 c p3
225.46 504.25 0.43 c p3
225.60 503.41 0.43 c p3
225.75 502.56 0.43 c p3
225.89 505.06 0.43 c p3
226.04 502.56 0.43 c p3
226.19 503.83 0.43 c p3
226.33 503.62 0.43 c p3
226.48 502.99 0.43 c p3
226.62 504.68 0.43 c p3
226.77 503.83 0.43 c p3
226.91 504.04 0.43 c p3
227.06 504.46 0.43 c p3
227.20 503.20 0.43 c p3
227.35 503.62 0.43 c p3
227.50 502.99 0.43 c p3
227.64 504.25 0.43 c p3
227.79 504.68 0.43 c p3
227.93 503.20 0.43 c p3
228.08 503.83 0.43 c p3
228.22 503.41 0.43 c p3
228.37 502.99 0.43 c p3
228.51 503.83 0.43 c p3
228.66 503.41 0.43 c p3
228.81 503.83 0.43 c p3
228.95 503.62 0.43 c p3
229.10 503.20 0.43 c p3
229.24 502.78 0.43 c p3
229.39 503.83 0.43 c p3
229.53 503.20 0.43 c p3
229.68 503.83 0.43 c p3
229.82 503.83 0.43 c p3
229.97 503.41 0.43 c p3
230.12 504.04 0.43 c p3
230.26 504.68 0.43 c p3
230.41 503.83 0.43 c p3
230.55 503.41 0.43 c p3
230.70 503.20 0.43 c p3
230.84 503.20 0.43 c p3
230.99 503.62 0.43 c p3
231.14 503.62 0.43 c p3
231.28 504.25 0.43 c p3
231.43 503.62 0.43 c p3
231.57 503.41 0.43 c p3
231.72 502.78 0.43 c p3
231.86 504.46 0.43 c p3
232.01 504.85 0.43 c p3
232.15 504.46 0.43 c p3
232.30 503.83 0.43 c p3
232.45 504.46 0.43 c p3
232.59 504.25 0.43 c p3
232.74 503.83 0.43 c p3
232.88 503.83 0.43 c p3
233.03 503.62 0.43 c p3
233.17 504.25 0.43 c p3
233.32 504.04 0.43 c p3
233.46 503.62 0.43 c p3
233.61 503.83 0.43 c p3
233.76 504.25 0.43 c p3
233.90 504.04 0.43 c p3
234.05 504.68 0.43 c p3
234.19 503.83 0.43 c p3
234.34 503.20 0.43 c p3
234.48 504.68 0.43 c p3
234.63 504.04 0.43 c p3
234.77 502.56 0.43 c p3
234.92 503.41 0.43 c p3
235.07 502.99 0.43 c p3
235.21 503.62 0.43 c p3
235.36 504.85 0.43 c p3
235.50 504.46 0.43 c p3
235.65 504.25 0.43 c p3
235.79 504.68 0.43 c p3
235.94 503.62 0.43 c p3
236.09 503.41 0.43 c p3
236.23 502.78 0.43 c p3
236.38 504.04 0.43 c p3
236.52 503.62 0.43 c p3
236.67 504.25 0.43 c p3
236.81 504.68 0.43 c p3
236.96 451.33 0.43 c p3
237.10 451.10 0.43 c p3
237.25 451.33 0.43 c p3
237.40 453.23 0.43 c p3
237.54 453.66 0.43 c p3
237.69 453.02 0.43 c p3
237.83 454.25 0.43 c p3
237.98 455.73 0.43 c p3
238.12 456.16 0.43 c p3
238.27 457.00 0.43 c p3
238.41 456.58 0.43 c p3
238.56 457.21 0.43 c p3
238.71 457.84 0.43 c p3
238.85 457.42 0.43 c p3
239.00 458.06 0.43 c p3
239.14 459.71 0.43 c p3
239.29 460.35 0.43 c p3
239.43 460.77 0.43 c p3
239.58 460.13 0.43 c p3
239.72 460.35 0.43 c p3
239.87 460.98 0.43 c p3
240.02 461.19 0.43 c p3
240.16 462.04 0.43 c p3
240.31 462.25 0.43 c p3
240.45 461.61 0.43 c p3
240.60 462.46 0.43 c p3
240.74 463.51 0.43 c p3
240.89 464.15 0.43 c p3
241.04 462.67 0.43 c p3
241.18 465.17 0.43 c p3
241.33 464.78 0.43 c p3
241.47 464.99 0.43 c p3
241.62 464.99 0.43 c p3
241.76 464.57 0.43 c p3
241.91 466.23 0.43 c p3
242.05 466.23 0.43 c p3
242.20 466.65 0.43 c p3
242.35 467.07 0.43 c p3
242.49 466.44 0.43 c p3
242.64 467.07 0.43 c p3
242.78 467.28 0.43 c p3
242.93 466.01 0.43 c p3
243.07 468.13 0.43 c p3
243.22 468.76 0.43 c p3
243.36 468.76 0.43 c p3
243.51 469.18 0.43 c p3
243.66 469.18 0.43 c p3
243.80 469.61 0.43 c p3
243.95 470.03 0.43 c p3
244.09 470.03 0.43 c p3
244.24 470.03 0.43 c p3
244.38 471.26 0.43 c p3
244.53 470.66 0.43 c p3
244.67 470.03 0.43 c p3
244.82 470.24 0.43 c p3
244.97 471.26 0.43 c p3
245.11 471.26 0.43 c p3
245.26 470.84 0.43 c p3
245.40 471.47 0.43 c p3
245.55 471.05 0.43 c p3
245.69 471.89 0.43 c p3
245.84 472.74 0.43 c p3
245.99 472.32 0.43 c p3
246.13 471.89 0.43 c p3
246.28 472.53 0.43 c p3
246.42 473.80 0.43 c p3
246.57 474.64 0.43 c p3
246.71 473.80 0.43 c p3
246.86 472.95 0.43 c p3
247.00 475.27 0.43 c p3
247.15 474.64 0.43 c p3
247.30 474.85 0.43 c p3
247.44 475.91 0.43 c p3
247.59 474.85 0.43 c p3
247.73 474.85 0.43 c p3
247.88 475.49 0.43 c p3
248.02 475.70 0.43 c p3
248.17 475.49 0.43 c p3
248.31 476.51 0.43 c p3
248.46 476.33 0.43 c p3
248.61 476.51 0.43 c p3
248.75 476.72 0.43 c p3
248.90 476.93 0.43 c p3
249.04 477.99 0.43 c p3
249.19 477.35 0.43 c p3
249.33 476.93 0.43 c p3
249.48 478.20 0.43 c p3
249.62 477.99 0.43 c p3
249.77 478.20 0.43 c p3
249.92 477.77 0.43 c p3
250.06 478.41 0.43 c p3
250.21 479.25 0.43 c p3
250.35 480.10 0.43 c p3
250.50 479.68 0.43 c p3
250.64 479.46 0.43 c p3
250.79 479.89 0.43 c p3
250.94 481.16 0.43 c p3
251.08 480.10 0.43 c p3
251.23 480.31 0.43 c p3
251.37 480.10 0.43 c p3
251.52 480.31 0.43 c p3
251.66 480.94 0.43 c p3
251.81 479.89 0.43 c p3
251.95 480.94 0.43 c p3
252.10 480.31 0.43 c p3
252.25 481.79 0.43 c p3
252.39 482.60 0.43 c p3
252.54 482.00 0.43 c p3
252.68 483.65 0.43 c p3
252.83 483.02 0.43 c p3
252.97 482.18 0.43 c p3
253.12 482.39 0.43 c p3
253.26 482.60 0.43 c p3
253.41 483.87 0.43 c p3
253.56 482.81 0.43 c p3
253.70 482.18 0.43 c p3
253.85 483.65 0.43 c p3
253.99 483.87 0.43 c p3
254.14 484.71 0.43 c p3
254.28 484.08 0.43 c p3
254.43 484.50 0.43 c p3
254.57 484.92 0.43 c p3
254.72 485.13 0.43 c p3
254.87 484.71 0.43 c p3
255.01 483.87 0.43 c p3
255.16 485.35 0.43 c p3
255.30 485.56 0.43 c p3
255.45 486.61 0.43 c p3
255.59 483.87 0.43 c p3
255.74 486.19 0.43 c p3
255.88 485.56 0.43 c p3
256.03 485.98 0.43 c p3
256.18 486.61 0.43 c p3
256.32 486.19 0.43 c p3
256.47 485.98 0.43 c p3
256.61 485.98 0.43 c p3
256.76 487.67 0.43 c p3
256.90 487.46 0.43 c p3
257.05 485.98 0.43 c p3
257.20 487.85 0.43 c p3
257.34 487.46 0.43 c p3
257.49 487.85 0.43 c p3
257.63 487.67 0.43 c p3
257.78 487.25 0.43 c p3
257.92 487.85 0.43 c p3
258.07 487.46 0.43 c p3
258.21 488.90 0.43 c p3
258.36 488.06 0.43 c p3
258.51 488.48 0.43 c p3
258.65 489.32 0.43 c p3
258.80 488.69 0.43 c p3
258.94 488.27 0.43 c p3
259.09 489.54 0.43 c p3
259.23 489.54 0.43 c p3
259.38 488.69 0.43 c p3
259.52 489.32 0.43 c p3
259.67 488.90 0.43 c p3
259.82 490.38 0.43 c p3
259.96 489.75 0.43 c p3
260.11 490.38 0.43 c p3
260.25 490.80 0.43 c p3
260.40 490.59 0.43 c p3
260.54 490.80 0.43 c p3
260.69 491.65 0.43 c p3
260.83 490.59 0.43 c p3
260.98 490.38 0.43 c p3
261.13 492.70 0.43 c p3
261.27 491.01 0.43 c p3
261.42 490.80 0.43 c p3
261.56 491.86 0.43 c p3
261.71 491.01 0.43 c p3
261.85 491.65 0.43 c p3
262.00 492.28 0.43 c p3
262.15 491.23 0.43 c p3
262.29 490.17 0.43 c p3
262.44 491.65 0.43 c p3
262.58 491.65 0.43 c p3
262.73 490.80 0.43 c p3
262.87 492.28 0.43 c p3
263.02 491.44 0.43 c p3
263.16 491.44 0.43 c p3
263.31 492.28 0.43 c p3
263.46 492.28 0.43 c p3
263.60 491.86 0.43 c p3
263.75 492.28 0.43 c p3
263.89 493.13 0.43 c p3
264.04 492.49 0.43 c p3
264.18 491.44 0.43 c p3
264.33 492.07 0.43 c p3
264.47 492.92 0.43 c p3
264.62 492.92 0.43 c p3
264.77 492.07 0.43 c p3
264.91 492.70 0.43 c p3
265.06 493.34 0.43 c p3
265.20 492.92 0.43 c p3
265.35 492.49 0.43 c p3
265.49 492.92 0.43 c p3
265.64 493.51 0.43 c p3
265.78 493.13 0.43 c p3
265.93 493.34 0.43 c p3
266.08 492.92 0.43 c p3
266.22 493.13 0.43 c p3
266.37 493.13 0.43 c p3
266.51 494.15 0.43 c p3
266.66 494.15 0.43 c p3
266.80 493.94 0.43 c p3
266.95 493.51 0.43 c p3
267.10 493.73 0.43 c p3
267.24 494.15 0.43 c p3
267.39 493.13 0.43 c p3
267.53 493.51 0.43 c p3
267.68 494.36 0.43 c p3
267.82 493.94 0.43 c p3
267.97 494.36 0.43 c p3
268.11 493.73 0.43 c p3
268.26 494.36 0.43 c p3
268.41 494.36 0.43 c p3
268.55 493.94 0.43 c p3
268.70 493.94 0.43 c p3
268.84 494.78 0.43 c p3
268.99 494.36 0.43 c p3
269.13 494.57 0.43 c p3
269.28 495.42 0.43 c p3
269.42 494.57 0.43 c p3
269.57 494.36 0.43 c p3
269.72 495.42 0.43 c p3
269.86 494.99 0.43 c p3
270.01 494.57 0.43 c p3
270.15 495.20 0.43 c p3
270.30 494.99 0.43 c p3
270.44 494.57 0.43 c p3
270.59 495.20 0.43 c p3
270.73 495.20 0.43 c p3
270.88 494.36 0.43 c p3
271.03 494.15 0.43 c p3
271.17 496.26 0.43 c p3
271.32 496.05 0.43 c p3
271.46 493.94 0.43 c p3
271.61 495.63 0.43 c p3
271.75 494.99 0.43 c p3
271.90 494.99 0.43 c p3
272.05 495.84 0.43 c p3
272.19 496.47 0.43 c p3
272.34 495.63 0.43 c p3
272.48 494.78 0.43 c p3
272.63 496.26 0.43 c p3
272.77 496.47 0.43 c p3
272.92 494.99 0.43 c p3
273.06 495.63 0.43 c p3
273.21 494.78 0.43 c p3
273.36 495.20 0.43 c p3
273.50 494.99 0.43 c p3
273.65 496.05 0.43 c p3
273.79 494.99 0.43 c p3
273.94 494.57 0.43 c p3
274.08 496.05 0.43 c p3
274.23 495.84 0.43 c p3
274.37 495.20 0.43 c p3
274.52 496.47 0.43 c p3
274.67 496.47 0.43 c p3
274.81 496.47 0.43 c p3
274.96 495.84 0.43 c p3
275.10 497.53 0.43 c p3
275.25 495.42 0.43 c p3
275.39 495.20 0.43 c p3
275.54 496.26 0.43 c p3
275.68 495.84 0.43 c p3
275.83 495.84 0.43 c p3
275.98 496.26 0.43 c p3
276.12 494.99 0.43 c p3
276.27 496.89 0.43 c p3
276.41 495.84 0.43 c p3
276.56 495.84 0.43 c p3
276.70 495.63 0.43 c p3
276.85 495.84 0.43 c p3
277.00 496.26 0.43 c p3
277.14 496.26 0.43 c p3
277.29 495.84 0.43 c p3
277.43 495.63 0.43 c p3
277.58 496.47 0.43 c p3
277.72 496.89 0.43 c p3
277.87 497.11 0.43 c p3
278.01 496.47 0.43 c p3
278.16 496.47 0.43 c p3
278.31 496.47 0.43 c p3
278.45 496.89 0.43 c p3
278.60 496.68 0.43 c p3
278.74 496.05 0.43 c p3
278.89 496.47 0.43 c p3
279.03 497.32 0.43 c p3
279.18 496.68 0.43 c p3
279.32 497.11 0.43 c p3
279.47 496.89 0.43 c p3
279.62 496.47 0.43 c p3
279.76 496.47 0.43 c p3
279.91 496.68 0.43 c p3
280.05 496.89 0.43 c p3
280.20 496.26 0.43 c p3
280.34 496.68 0.43 c p3
280.49 496.89 0.43 c p3
280.63 495.63 0.43 c p3
280.78 496.47 0.43 c p3
280.93 497.11 0.43 c p3
281.07 496.05 0.43 c p3
281.22 497.32 0.43 c p3
281.36 497.32 0.43 c p3
281.51 496.68 0.43 c p3
281.65 496.26 0.43 c p3
281.80 497.95 0.43 c p3
281.95 497.11 0.43 c p3
282.09 497.11 0.43 c p3
282.24 496.68 0.43 c p3
282.38 497.32 0.43 c p3
282.53 496.47 0.43 c p3
282.67 496.68 0.43 c p3
282.82 497.95 0.43 c p3
282.96 498.37 0.43 c p3
283.11 497.32 0.43 c p3
283.26 498.16 0.43 c p3
283.40 497.32 0.43 c p3
283.55 497.32 0.43 c p3
283.69 498.58 0.43 c p3
283.84 497.32 0.43 c p3
283.98 497.95 0.43 c p3
284.13 497.32 0.43 c p3
284.27 497.95 0.43 c p3
284.42 497.95 0.43 c p3
284.57 497.74 0.43 c p3
284.71 499.01 0.43 c p3
284.86 497.32 0.43 c p3
285.00 497.11 0.43 c p3
285.15 498.16 0.43 c p3
285.29 497.53 0.43 c p3
285.44 497.32 0.43 c p3
285.58 498.37 0.43 c p3
285.73 497.95 0.43 c p3
285.88 498.80 0.43 c p3
286.02 497.74 0.43 c p3
286.17 499.82 0.43 c p3
286.31 498.37 0.43 c p3
286.46 497.95 0.43 c p3
286.60 498.37 0.43 c p3
286.75 498.58 0.43 c p3
286.89 497.74 0.43 c p3
287.04 497.95 0.43 c p3
287.19 497.95 0.43 c p3
287.33 498.80 0.43 c p3
287.48 497.95 0.43 c p3
287.62 497.32 0.43 c p3
287.77 498.80 0.43 c p3
287.91 498.58 0.43 c p3
288.06 498.16 0.43 c p3
288.21 498.37 0.43 c p3
288.35 497.95 0.43 c p3
288.50 497.95 0.43 c p3
288.64 497.53 0.43 c p3
288.79 498.80 0.43 c p3
288.93 498.16 0.43 c p3
289.08 498.58 0.43 c p3
289.22 499.18 0.43 c p3
289.37 497.95 0.43 c p3
289.52 497.95 0.43 c p3
289.66 499.61 0.43 c p3
289.81 499.18 0.43 c p3
289.95 497.74 0.43 c p3
290.10 498.80 0.43 c p3
290.24 498.80 0.43 c p3
290.39 498.80 0.43 c p3
290.53 499.39 0.43 c p3
290.68 499.61 0.43 c p3
290.83 498.58 0.43 c p3
290.97 499.39 0.43 c p3
291.12 499.82 0.43 c p3
291.26 499.61 0.43 c p3
291.41 499.82 0.43 c p3
291.55 500.24 0.43 c p3
291.70 499.18 0.43 c p3
291.84 499.18 0.43 c p3
291.99 499.82 0.43 c p3
292.14 500.24 0.43 c p3
292.28 497.95 0.43 c p3
292.43 499.39 0.43 c p3
292.57 501.08 0.43 c p3
292.72 498.80 0.43 c p3
292.86 499.61 0.43 c p3
293.01 500.87 0.43 c p3
293.16 499.61 0.43 c p3
293.30 499.61 0.43 c p3
293.45 499.82 0.43 c p3
293.59 499.39 0.43 c p3
293.74 498.80 0.43 c p3
293.88 500.03 0.43 c p3
294.03 499.61 0.43 c p3
294.17 498.37 0.43 c p3
294.32 499.82 0.43 c p3
294.47 500.03 0.43 c p3
294.61 499.39 0.43 c p3
294.76 500.66 0.43 c p3
294.90 499.82 0.43 c p3
295.05 500.03 0.43 c p3
295.19 499.18 0.43 c p3
295.34 499.82 0.43 c p3
295.48 500.66 0.43 c p3
295.63 499.18 0.43 c p3
295.78 500.03 0.43 c p3
295.92 500.87 0.43 c p3
296.07 500.24 0.43 c p3
296.21 499.18 0.43 c p3
296.36 500.03 0.43 c p3
296.50 501.08 0.43 c p3
296.65 499.39 0.43 c p3
296.79 499.82 0.43 c p3
296.94 500.45 0.43 c p3
297.09 500.24 0.43 c p3
297.23 500.24 0.43 c p3
297.38 499.39 0.43 c p3
297.52 500.45 0.43 c p3
297.67 500.03 0.43 c p3
297.81 500.66 0.43 c p3
297.96 499.61 0.43 c p3
298.11 500.24 0.43 c p3
298.25 501.30 0.43 c p3
298.40 500.24 0.43 c p3
298.54 500.45 0.43 c p3
298.69 500.24 0.43 c p3
298.83 499.61 0.43 c p3
298.98 499.61 0.43 c p3
299.12 500.45 0.43 c p3
299.27 500.24 0.43 c p3
299.42 500.03 0.43 c p3
299.56 499.82 0.43 c p3
299.71 501.08 0.43 c p3
299.85 500.66 0.43 c p3
300.00 500.24 0.43 c p3
300.14 500.45 0.43 c p3
300.29 501.30 0.43 c p3
300.43 500.45 0.43 c p3
300.58 501.51 0.43 c p3
300.73 500.87 0.43 c p3
300.87 500.87 0.43 c p3
301.02 501.51 0.43 c p3
301.16 502.78 0.43 c p3
301.31 501.30 0.43 c p3
301.45 501.51 0.43 c p3
301.60 501.30 0.43 c p3
301.74 502.56 0.43 c p3
301.89 501.72 0.43 c p3
302.04 502.35 0.43 c p3
302.18 501.51 0.43 c p3
302.33 501.51 0.43 c p3
302.47 500.66 0.43 c p3
302.62 501.51 0.43 c p3
302.76 501.93 0.43 c p3
302.91 501.30 0.43 c p3
303.06 500.87 0.43 c p3
303.20 501.72 0.43 c p3
303.35 501.72 0.43 c p3
303.49 501.30 0.43 c p3
303.64 503.20 0.43 c p3
303.78 502.35 0.43 c p3
303.93 502.14 0.43 c p3
304.07 501.30 0.43 c p3
304.22 501.51 0.43 c p3
304.37 502.35 0.43 c p3
304.51 501.30 0.43 c p3
304.66 501.51 0.43 c p3
304.80 501.93 0.43 c p3
304.95 501.08 0.43 c p3
305.09 501.08 0.43 c p3
305.24 501.72 0.43 c p3
305.38 501.72 0.43 c p3
305.53 501.72 0.43 c p3
305.68 501.93 0.43 c p3
305.82 501.51 0.43 c p3
305.97 501.93 0.43 c p3
306.11 501.93 0.43 c p3
306.26 501.51 0.43 c p3
306.40 501.72 0.43 c p3
306.55 502.14 0.43 c p3
306.69 502.56 0.43 c p3
306.84 501.93 0.43 c p3
306.99 503.62 0.43 c p3
307.13 502.78 0.43 c p3
307.28 503.20 0.43 c p3
307.42 502.14 0.43 c p3
307.57 503.20 0.43 c p3
307.71 502.78 0.43 c p3
307.86 502.35 0.43 c p3
308.01 502.99 0.43 c p3
308.15 502.14 0.43 c p3
308.30 503.41 0.43 c p3
308.44 502.99 0.43 c p3
308.59 503.83 0.43 c p3
308.73 502.99 0.43 c p3
308.88 501.72 0.43 c p3
309.02 503.20 0.43 c p3
309.17 502.99 0.43 c p3
309.32 503.41 0.43 c p3
309.46 503.20 0.43 c p3
309.61 502.99 0.43 c p3
309.75 503.62 0.43 c p3
309.90 503.41 0.43 c p3
310.04 502.99 0.43 c p3
310.19 503.83 0.43 c p3
310.33 502.78 0.43 c p3
310.48 503.83 0.43 c p3
310.63 503.20 0.43 c p3
310.77 503.83 0.43 c p3
310.92 503.83 0.43 c p3
311.06 503.62 0.43 c p3
311.21 503.41 0.43 c p3
311.35 503.62 0.43 c p3
311.50 504.25 0.43 c p3
311.64 503.83 0.43 c p3
311.79 503.83 0.43 c p3
311.94 503.83 0.43 c p3
312.08 502.99 0.43 c p3
312.23 502.78 0.43 c p3
312.37 504.25 0.43 c p3
312.52 503.83 0.43 c p3
312.66 504.25 0.43 c p3
312.81 504.25 0.43 c p3
312.96 503.41 0.43 c p3
313.10 502.99 0.43 c p3
313.25 504.46 0.43 c p3
313.39 504.68 0.43 c p3
313.54 503.41 0.43 c p3
313.68 502.99 0.43 c p3
313.83 503.62 0.43 c p3
313.97 504.04 0.43 c p3
314.12 504.04 0.43 c p3
314.27 504.46 0.43 c p3
314.41 504.25 0.43 c p3
314.56 504.46 0.43 c p3
314.70 504.85 0.43 c p3
314.85 504.85 0.43 c p3
314.99 504.04 0.43 c p3
315.14 504.04 0.43 c p3
315.28 504.68 0.43 c p3
315.43 504.68 0.43 c p3
315.58 504.46 0.43 c p3
315.72 503.83 0.43 c p3
315.87 503.62 0.43 c p3
316.01 503.62 0.43 c p3
316.16 504.25 0.43 c p3
316.30 504.68 0.43 c p3
316.45 504.46 0.43 c p3
316.59 504.46 0.43 c p3
316.74 504.68 0.43 c p3
316.89 503.83 0.43 c p3
317.03 504.46 0.43 c p3
317.18 504.04 0.43 c p3
317.32 503.83 0.43 c p3
317.47 504.46 0.43 c p3
317.61 505.06 0.43 c p3
317.76 504.46 0.43 c p3
317.91 505.27 0.43 c p3
318.05 504.04 0.43 c p3
318.20 504.85 0.43 c p3
318.34 505.49 0.43 c p3
318.49 503.41 0.43 c p3
318.63 505.70 0.43 c p3
318.78 505.06 0.43 c p3
318.92 504.68 0.43 c p3
319.07 504.68 0.43 c p3
319.22 504.04 0.43 c p3
319.36 503.83 0.43 c p3
319.51 504.68 0.43 c p3
319.65 505.70 0.43 c p3
319.80 506.54 0.43 c p3
319.94 504.46 0.43 c p3
320.09 504.85 0.43 c p3
320.23 504.25 0.43 c p3
320.38 505.70 0.43 c p3
320.53 505.49 0.43 c p3
320.67 505.49 0.43 c p3
320.82 504.25 0.43 c p3
320.96 504.46 0.43 c p3
321.11 505.49 0.43 c p3
321.25 504.68 0.43 c p3
321.40 505.49 0.43 c p3
321.54 504.68 0.43 c p3
321.69 505.91 0.43 c p3
321.84 504.85 0.43 c p3
321.98 505.49 0.43 c p3
322.13 505.91 0.43 c p3
322.27 504.68 0.43 c p3
322.42 505.70 0.43 c p3
322.56 506.12 0.43 c p3
322.71 504.25 0.43 c p3
322.85 504.85 0.43 c p3
323.00 506.33 0.43 c p3
323.15 506.33 0.43 c p3
323.29 505.70 0.43 c p3
323.44 506.75 0.43 c p3
323.58 505.91 0.43 c p3
323.73 505.06 0.43 c p3
323.87 505.27 0.43 c p3
324.02 505.06 0.43 c p3
324.17 506.75 0.43 c p3
324.31 504.85 0.43 c p3
324.46 505.49 0.43 c p3
324.60 504.68 0.43 c p3
324.75 506.33 0.43 c p3
324.89 505.91 0.43 c p3
325.04 505.91 0.43 c p3
325.18 505.70 0.43 c p3
325.33 507.18 0.43 c p3
325.48 505.91 0.43 c p3
325.62 506.75 0.43 c p3
325.77 505.49 0.43 c p3
325.91 506.75 0.43 c p3
326.06 506.33 0.43 c p3
326.20 505.91 0.43 c p3
326.35 505.70 0.43 c p3
326.49 506.33 0.43 c p3
326.64 506.54 0.43 c p3
326.79 505.49 0.43 c p3
326.93 507.18 0.43 c p3
327.08 506.33 0.43 c p3
327.22 505.49 0.43 c p3
327.37 505.91 0.43 c p3
327.51 505.91 0.43 c p3
327.66 506.75 0.43 c p3
327.80 507.39 0.43 c p3
327.95 506.33 0.43 c p3
328.10 506.12 0.43 c p3
328.24 505.91 0.43 c p3
328.39 506.96 0.43 c p3
328.53 506.12 0.43 c p3
328.68 506.33 0.43 c p3
328.82 505.49 0.43 c p3
328.97 506.75 0.43 c p3
329.12 506.33 0.43 c p3
329.26 506.96 0.43 c p3
329.41 508.23 0.43 c p3
329.55 505.49 0.43 c p3
329.70 507.18 0.43 c p3
329.84 506.75 0.43 c p3
329.99 505.70 0.43 c p3
330.13 505.49 0.43 c p3
330.28 506.12 0.43 c p3
330.43 507.18 0.43 c p3
330.57 506.33 0.43 c p3
330.72 506.96 0.43 c p3
330.86 506.75 0.43 c p3
331.01 507.18 0.43 c p3
331.15 506.33 0.43 c p3
331.30 506.96 0.43 c p3
331.44 505.91 0.43 c p3
331.59 506.54 0.43 c p3
331.74 507.81 0.43 c p3
331.88 507.39 0.43 c p3
332.03 506.33 0.43 c p3
332.17 508.66 0.43 c p3
332.32 508.02 0.43 c p3
332.46 507.18 0.43 c p3
332.61 506.96 0.43 c p3
332.75 507.81 0.43 c p3
332.90 506.75 0.43 c p3
333.05 506.96 0.43 c p3
333.19 506.33 0.43 c p3
333.34 506.33 0.43 c p3
333.48 507.60 0.43 c p3
333.63 509.08 0.43 c p3
333.77 506.33 0.43 c p3
333.92 506.96 0.43 c p3
334.07 507.60 0.43 c p3
334.21 507.81 0.43 c p3
334.36 507.81 0.43 c p3
334.50 507.18 0.43 c p3
334.65 507.18 0.43 c p3
334.79 506.96 0.43 c p3
334.94 506.96 0.43 c p3
335.08 508.66 0.43 c p3
335.23 507.18 0.43 c p3
335.38 506.33 0.43 c p3
335.52 508.23 0.43 c p3
335.67 508.66 0.43 c p3
335.81 508.66 0.43 c p3
335.96 507.18 0.43 c p3
336.10 508.66 0.43 c p3
336.25 507.18 0.43 c p3
336.39 507.39 0.43 c p3
336.54 507.39 0.43 c p3
336.69 508.66 0.43 c p3
336.83 508.02 0.43 c p3
336.98 506.96 0.43 c p3
337.12 508.66 0.43 c p3
337.27 509.29 0.43 c p3
337.41 508.23 0.43 c p3
337.56 508.87 0.43 c p3
337.70 507.39 0.43 c p3
337.85 508.44 0.43 c p3
338.00 508.02 0.43 c p3
338.14 507.81 0.43 c p3
338.29 507.81 0.43 c p3
338.43 508.44 0.43 c p3
338.58 508.23 0.43 c p3
338.72 508.23 0.43 c p3
338.87 506.96 0.43 c p3
339.02 509.92 0.43 c p3
339.16 508.23 0.43 c p3
339.31 508.87 0.43 c p3
339.45 508.02 0.43 c p3
339.60 507.60 0.43 c p3
339.74 508.44 0.43 c p3
339.89 507.60 0.43 c p3
340.03 509.71 0.43 c p3
340.18 507.60 0.43 c p3
340.33 508.02 0.43 c p3
340.47 508.02 0.43 c p3
340.62 508.66 0.43 c p3
340.76 507.81 0.43 c p3
340.91 508.02 0.43 c p3
341.05 508.02 0.43 c p3
341.20 508.66 0.43 c p3
341.34 508.44 0.43 c p3
341.49 508.87 0.43 c p3
341.64 508.66 0.43 c p3
341.78 507.81 0.43 c p3
341.93 509.08 0.43 c p3
342.07 509.71 0.43 c p3
342.22 508.02 0.43 c p3
342.36 507.81 0.43 c p3
342.51 509.29 0.43 c p3
342.65 508.23 0.43 c p3
342.80 506.96 0.43 c p3
342.95 509.08 0.43 c p3
343.09 509.50 0.43 c p3
343.24 508.02 0.43 c p3
343.38 508.87 0.43 c p3
343.53 508.66 0.43 c p3
343.67 508.02 0.43 c p3
343.82 508.87 0.43 c p3
343.97 509.71 0.43 c p3
344.11 509.29 0.43 c p3
344.26 508.87 0.43 c p3
344.40 509.92 0.43 c p3
344.55 507.81 0.43 c p3
344.69 508.66 0.43 c p3
344.84 508.87 0.43 c p3
344.98 508.02 0.43 c p3
345.13 508.02 0.43 c p3
345.28 508.66 0.43 c p3
345.42 508.44 0.43 c p3
345.57 507.81 0.43 c p3
345.71 509.50 0.43 c p3
345.86 509.50 0.43 c p3
346.00 508.66 0.43 c p3
346.15 508.87 0.43 c p3
346.29 508.44 0.43 c p3
346.44 509.08 0.43 c p3
346.59 508.66 0.43 c p3
346.73 509.29 0.43 c p3
346.88 508.87 0.43 c p3
347.02 508.66 0.43 c p3
347.17 510.13 0.43 c p3
347.31 509.50 0.43 c p3
347.46 509.29 0.43 c p3
347.60 509.29 0.43 c p3
347.75 508.87 0.43 c p3
347.90 508.44 0.43 c p3
348.04 509.71 0.43 c p3
348.19 508.87 0.43 c p3
348.33 509.71 0.43 c p3
348.48 509.29 0.43 c p3
348.62 509.29 0.43 c p3
348.77 509.92 0.43 c p3
348.92 510.52 0.43 c p3
349.06 509.71 0.43 c p3
349.21 510.13 0.43 c p3
349.35 508.87 0.43 c p3
349.50 507.18 0.43 c p3
349.64 509.50 0.43 c p3
349.79 509.92 0.43 c p3
349.93 509.29 0.43 c p3
350.08 509.50 0.43 c p3
350.23 510.13 0.43 c p3
350.37 508.23 0.43 c p3
350.52 509.29 0.43 c p3
350.66 509.50 0.43 c p3
350.81 508.66 0.43 c p3
350.95 509.92 0.43 c p3
351.10 509.08 0.43 c p3
351.24 510.34 0.43 c p3
351.39 509.29 0.43 c p3
351.54 509.08 0.43 c p3
351.68 509.92 0.43 c p3
351.83 509.71 0.43 c p3
351.97 508.44 0.43 c p3
352.12 509.50 0.43 c p3
352.26 509.50 0.43 c p3
352.41 510.13 0.43 c p3
352.55 510.52 0.43 c p3
352.70 509.50 0.43 c p3
352.85 510.13 0.43 c p3
352.99 509.29 0.43 c p3
353.14 509.50 0.43 c p3
353.28 509.50 0.43 c p3
353.43 508.44 0.43 c p3
353.57 508.66 0.43 c p3
353.72 509.29 0.43 c p3
353.86 509.71 0.43 c p3
354.01 509.29 0.43 c p3
354.16 510.13 0.43 c p3
354.30 509.92 0.43 c p3
354.45 510.34 0.43 c p3
354.59 509.71 0.43 c p3
354.74 509.29 0.43 c p3
354.88 510.52 0.43 c p3
355.03 509.92 0.43 c p3
355.18 509.71 0.43 c p3
355.32 509.71 0.43 c p3
355.47 508.87 0.43 c p3
355.61 509.71 0.43 c p3
355.76 509.71 0.43 c p3
355.90 510.13 0.43 c p3
356.05 509.50 0.43 c p3
356.19 508.87 0.43 c p3
356.34 509.29 0.43 c p3
356.49 510.13 0.43 c p3
356.63 508.87 0.43 c p3
356.78 510.13 0.43 c p3
356.92 509.50 0.43 c p3
357.07 509.71 0.43 c p3
357.21 509.50 0.43 c p3
357.36 510.52 0.43 c p3
357.50 509.50 0.43 c p3
357.65 509.71 0.43 c p3
357.80 509.92 0.43 c p3
357.94 509.71 0.43 c p3
358.09 510.34 0.43 c p3
358.23 510.34 0.43 c p3
358.38 511.15 0.43 c p3
358.52 509.71 0.43 c p3
358.67 508.02 0.43 c p3
358.81 510.34 0.43 c p3
358.96 510.73 0.43 c p3
359.11 509.50 0.43 c p3
359.25 509.08 0.43 c p3
359.40 510.52 0.43 c p3
359.54 511.15 0.43 c p3
359.69 509.29 0.43 c p3
359.83 510.34 0.43 c p3
359.98 510.34 0.43 c p3
360.13 509.92 0.43 c p3
360.27 510.52 0.43 c p3
360.42 510.34 0.43 c p3
360.56 510.13 0.43 c p3
360.71 509.92 0.43 c p3
360.85 510.73 0.43 c p3
361.00 509.08 0.43 c p3
361.14 511.15 0.43 c p3
361.29 509.50 0.43 c p3
361.44 511.58 0.43 c p3
361.58 509.50 0.43 c p3
361.73 511.15 0.43 c p3
361.87 510.13 0.43 c p3
362.02 510.13 0.43 c p3
362.16 509.92 0.43 c p3
362.31 509.92 0.43 c p3
362.45 509.08 0.43 c p3
362.60 510.34 0.43 c p3
362.75 509.08 0.43 c p3
362.89 509.71 0.43 c p3
363.04 510.13 0.43 c p3
363.18 510.94 0.43 c p3
363.33 510.13 0.43 c p3
363.47 510.13 0.43 c p3
363.62 510.34 0.43 c p3
363.76 509.92 0.43 c p3
363.91 510.52 0.43 c p3
364.06 509.50 0.43 c p3
364.20 509.92 0.43 c p3
364.35 509.71 0.43 c p3
364.49 508.66 0.43 c p3
364.64 511.37 0.43 c p3
364.78 510.34 0.43 c p3
364.93 509.29 0.43 c p3
365.08 510.34 0.43 c p3
365.22 509.71 0.43 c p3
365.37 510.34 0.43 c p3
365.51 511.15 0.43 c p3
365.66 510.52 0.43 c p3
365.80 511.15 0.43 c p3
365.95 510.34 0.43 c p3
366.09 511.15 0.43 c p3
366.24 509.92 0.43 c p3
366.39 508.87 0.43 c p3
366.53 510.73 0.43 c p3
366.68 510.94 0.43 c p3
366.82 510.13 0.43 c p3
366.97 510.52 0.43 c p3
367.11 510.73 0.43 c p3
367.26 510.13 0.43 c p3
367.40 508.87 0.43 c p3
367.55 509.92 0.43 c p3
367.70 510.52 0.43 c p3
367.84 509.50 0.43 c p3
367.99 510.94 0.43 c p3
368.13 509.71 0.43 c p3
368.28 508.87 0.43 c p3
368.42 509.92 0.43 c p3
368.57 510.13 0.43 c p3
368.71 509.50 0.43 c p3
368.86 509.29 0.43 c p3
369.01 509.92 0.43 c p3
369.15 510.13 0.43 c p3
369.30 510.13 0.43 c p3
369.44 510.34 0.43 c p3
369.59 510.52 0.43 c p3
369.73 508.87 0.43 c p3
369.88 509.08 0.43 c p3
370.03 510.94 0.43 c p3
370.17 510.52 0.43 c p3
370.32 509.71 0.43 c p3
370.46 509.92 0.43 c p3
370.61 511.15 0.43 c p3
370.75 510.94 0.43 c p3
370.90 511.37 0.43 c p3
371.04 512.00 0.43 c p3
371.19 510.34 0.43 c p3
371.34 510.52 0.43 c p3
371.48 510.13 0.43 c p3
371.63 510.52 0.43 c p3
371.77 509.71 0.43 c p3
371.92 511.15 0.43 c p3
372.06 510.34 0.43 c p3
372.21 509.92 0.43 c p3
372.35 510.34 0.43 c p3
372.50 510.13 0.43 c p3
372.65 510.13 0.43 c p3
372.79 510.52 0.43 c p3
372.94 510.34 0.43 c p3
373.08 510.52 0.43 c p3
373.23 510.34 0.43 c p3
373.37 510.73 0.43 c p3
373.52 511.15 0.43 c p3
373.66 510.13 0.43 c p3
373.81 510.94 0.43 c p3
373.96 509.29 0.43 c p3
374.10 510.13 0.43 c p3
374.25 510.34 0.43 c p3
374.39 510.94 0.43 c p3
374.54 512.00 0.43 c p3
374.68 510.34 0.43 c p3
374.83 510.13 0.43 c p3
374.98 509.92 0.43 c p3
375.12 510.34 0.43 c p3
375.27 510.52 0.43 c p3
375.41 510.94 0.43 c p3
375.56 508.66 0.43 c p3
375.70 509.92 0.43 c p3
375.85 511.37 0.43 c p3
375.99 511.15 0.43 c p3
376.14 509.92 0.43 c p3
376.29 510.73 0.43 c p3
376.43 510.52 0.43 c p3
376.58 510.94 0.43 c p3
376.72 509.92 0.43 c p3
376.87 510.52 0.43 c p3
377.01 510.73 0.43 c p3
377.16 511.58 0.43 c p3
377.30 510.94 0.43 c p3
377.45 509.71 0.43 c p3
377.60 510.94 0.43 c p3
377.74 510.94 0.43 c p3
377.89 510.52 0.43 c p3
378.03 510.34 0.43 c p3
378.18 511.79 0.43 c p3
378.32 509.50 0.43 c p3
378.47 510.52 0.43 c p3
378.61 510.94 0.43 c p3
378.76 510.34 0.43 c p3
378.91 508.66 0.43 c p3
379.05 510.73 0.43 c p3
379.20 509.71 0.43 c p3
379.34 510.73 0.43 c p3
379.49 510.34 0.43 c p3
379.63 511.79 0.43 c p3
379.78 511.79 0.43 c p3
379.93 510.13 0.43 c p3
380.07 511.37 0.43 c p3
380.22 511.37 0.43 c p3
380.36 510.13 0.43 c p3
380.51 510.94 0.43 c p3
380.65 511.15 0.43 c p3
380.80 511.79 0.43 c p3
380.94 511.37 0.43 c p3
381.09 509.50 0.43 c p3
381.24 510.52 0.43 c p3
381.38 509.92 0.43 c p3
381.53 510.52 0.43 c p3
381.67 508.66 0.43 c p3
381.82 510.13 0.43 c p3
381.96 510.13 0.43 c p3
382.11 510.94 0.43 c p3
382.25 510.94 0.43 c p3
382.40 509.92 0.43 c p3
0.00 0.00 432.00 576.00 cl
0 0 0 srgb
0.75 setlinewidth
[] 0 setdash
1 setlinecap
1 setlinejoin
10.00 setmiterlimit
np
236.96 345.60 m
128.46 0 l
o
np
236.96 345.60 m
0 -5.76 l
o
np
279.78 345.60 m
0 -5.76 l
o
np
322.60 345.60 m
0 -5.76 l
o
np
365.42 345.60 m
0 -5.76 l
o
/Font1 findfont 10 s
236.96 329.47 (0) .5 0 t
279.78 329.47 (10000) .5 0 t
322.60 329.47 (20000) .5 0 t
365.42 329.47 (30000) .5 0 t
np
216.00 352.00 m
0 144.22 l
o
np
216.00 352.00 m
-5.76 0 l
o
np
216.00 380.84 m
-5.76 0 l
o
np
216.00 409.69 m
-5.76 0 l
o
np
216.00 438.53 m
-5.76 0 l
o
np
216.00 467.38 m
-5.76 0 l
o
np
216.00 496.22 m
-5.76 0 l
o
209.09 348.41 (0.00) 1 0 t
209.09 377.25 (0.05) 1 0 t
209.09 406.10 (0.10) 1 0 t
209.09 434.94 (0.15) 1 0 t
209.09 463.79 (0.20) 1 0 t
209.09 492.63 (0.25) 1 0 t
np
216.00 345.60 m
172.80 0 l
0 172.80 l
-172.80 0 l
0 -172.80 l
o
0.00 0.00 432.00 576.00 cl
/Font1 findfont 10 s
0 0 0 srgb
302.40 313.34 (Time / ms \(total\)) .5 0 t
190.66 432.00 (U / V) .5 90 t
216.00 345.60 388.80 518.40 cl
0 0 0 srgb
0.38 setlinewidth
[ 1.13 1.88] 0 setdash
1 setlinecap
1 setlinejoin
10.00 setmiterlimit
np
222.40 345.60 m
0 172.80 l
o
np
235.07 345.60 m
0 172.80 l
o
np
239.14 345.60 m
0 172.80 l
o
np
331.88 345.60 m
0 172.80 l
o
86.40 57.60 388.80 288.00 cl
1 0 0 srgb
1.50 setlinewidth
[] 0 setdash
1 setlinecap
1 setlinejoin
10.00 setmiterlimit
np
97.60 279.47 m
1.41 -8.00 l
1.40 -7.71 l
1.41 -7.41 l
1.41 -7.13 l
1.41 -6.87 l
1.40 -6.61 l
1.41 -6.36 l
1.41 -6.12 l
1.40 -5.90 l
1.41 -5.67 l
1.41 -5.46 l
1.40 -5.26 l
1.41 -5.06 l
1.41 -4.87 l
1.41 -4.68 l
1.40 -4.51 l
1.41 -4.34 l
1.41 -4.18 l
1.40 -4.03 l
1.41 -3.87 l
1.41 -3.72 l
1.40 -3.59 l
1.41 -3.45 l
1.41 -3.33 l
1.41 -3.19 l
1.40 -3.08 l
1.41 -2.96 l
1.41 -2.86 l
1.40 -2.74 l
1.41 -2.64 l
1.41 -2.55 l
1.41 -2.44 l
1.40 -2.36 l
1.41 -2.27 l
1.41 -2.18 l
1.40 -2.10 l
1.41 -2.02 l
1.41 -1.95 l
1.40 -1.87 l
1.41 -1.81 l
1.41 -1.73 l
1.41 -1.67 l
1.40 -1.61 l
1.41 -1.55 l
1.41 -1.49 l
1.40 -1.43 l
1.41 -1.38 l
1.41 -1.33 l
1.40 -1.28 l
1.41 -1.23 l
1.41 -1.18 l
1.41 -1.14 l
1.40 -1.10 l
1.41 -1.06 l
1.41 -1.01 l
1.40 -0.98 l
1.41 -0.94 l
1.41 -0.91 l
1.41 -0.87 l
1.40 -0.84 l
1.41 -0.81 l
1.41 -0.78 l
1.40 -0.75 l
1.41 -0.72 l
1.41 -0.69 l
1.40 -0.67 l
1.41 -0.64 l
1.41 -0.62 l
1.41 -0.60 l
1.40 -0.57 l
1.41 -0.55 l
1.41 -0.53 l
1.40 -0.51 l
1.41 -0.49 l
1.41 -0.48 l
1.40 -0.45 l
1.41 -0.44 l
1.41 -0.42 l
1.41 -0.41 l
1.40 -0.39 l
1.41 -0.38 l
1.41 -0.36 l
1.40 -0.35 l
1.41 -0.33 l
1.41 -0.33 l
1.41 -0.31 l
1.40 -0.30 l
1.41 -0.29 l
1.41 -0.27 l
1.40 -0.27 l
1.41 -0.26 l
1.41 -0.24 l
1.40 -0.24 l
1.41 -0.23 l
1.41 -0.22 l
1.41 -0.21 l
1.40 -0.21 l
1.41 -0.19 l
1.41 -0.19 l
238.30 70.70 lineto
1.41 -0.17 l
1.41 -0.17 l
1.40 -0.16 l
1.41 -0.16 l
1.41 -0.15 l
1.41 -0.14 l
1.40 -0.14 l
1.41 -0.14 l
1.41 -0.13 l
1.40 -0.12 l
1.41 -0.12 l
1.41 -0.12 l
1.40 -0.11 l
1.41 -0.10 l
1.41 -0.11 l
1.41 -0.10 l
1.40 -0.09 l
1.41 -0.09 l
1.41 -0.09 l
1.40 -0.08 l
1.41 -0.09 l
1.41 -0.08 l
1.41 -0.07 l
1.40 -0.07 l
1.41 -0.07 l
1.41 -0.07 l
1.40 -0.07 l
1.41 -0.06 l
1.41 -0.06 l
1.40 -0.06 l
1.41 -0.05 l
1.41 -0.06 l
1.41 -0.05 l
1.40 -0.05 l
1.41 -0.05 l
1.41 -0.04 l
1.40 -0.05 l
1.41 -0.04 l
1.41 -0.04 l
1.40 -0.04 l
1.41 -0.04 l
1.41 -0.03 l
1.41 -0.04 l
1.40 -0.03 l
1.41 -0.04 l
1.41 -0.03 l
1.40 -0.03 l
1.41 -0.03 l
1.41 -0.02 l
1.41 -0.03 l
1.40 -0.03 l
1.41 -0.02 l
1.41 -0.03 l
1.40 -0.02 l
1.41 -0.02 l
1.41 -0.02 l
1.40 -0.02 l
1.41 -0.02 l
1.41 -0.02 l
1.41 -0.02 l
1.40 -0.02 l
1.41 -0.02 l
1.41 -0.01 l
1.40 -0.02 l
1.41 -0.01 l
1.41 -0.02 l
1.40 -0.01 l
1.41 -0.02 l
1.41 -0.01 l
1.41 -0.01 l
1.40 -0.01 l
1.41 -0.01 l
1.41 -0.02 l
1.40 -0.01 l
1.41 -0.01 l
1.41 -0.01 l
1.41 -0.01 l
1.40 -0.01 l
1.41 0 l
1.41 -0.01 l
1.40 -0.01 l
1.41 -0.01 l
1.41 -0.01 l
1.40 0 l
1.41 -0.01 l
1.41 -0.01 l
1.41 0 l
1.40 -0.01 l
1.41 -0.01 l
1.41 0 l
1.40 -0.01 l
1.41 0 l
1.41 -0.01 l
1.40 0 l
1.41 -0.01 l
1.41 0 l
1.41 -0.01 l
1.40 0 l
1.41 -0.01 l
o
0.00 0.00 432.00 576.00 cl
0 0 0 srgb
0.75 setlinewidth
[] 0 setdash
1 setlinecap
1 setlinejoin
10.00 setmiterlimit
np
97.60 57.60 m
288.24 0 l
o
np
97.60 57.60 m
0 -5.76 l
o
np
138.78 57.60 m
0 -5.76 l
o
np
179.95 57.60 m
0 -5.76 l
o
np
221.13 57.60 m
0 -5.76 l
o
np
262.31 57.60 m
0 -5.76 l
o
np
303.48 57.60 m
0 -5.76 l
o
np
344.66 57.60 m
0 -5.76 l
o
np
385.84 57.60 m
0 -5.76 l
o
/Font1 findfont 10 s
97.60 41.47 (0) .5 0 t
138.78 41.47 (5000) .5 0 t
179.95 41.47 (10000) .5 0 t
221.13 41.47 (15000) .5 0 t
262.31 41.47 (20000) .5 0 t
303.48 41.47 (25000) .5 0 t
344.66 41.47 (30000) .5 0 t
385.84 41.47 (35000) .5 0 t
np
86.40 68.34 m
0 196.52 l
o
np
86.40 68.34 m
-5.76 0 l
o
np
86.40 133.85 m
-5.76 0 l
o
np
86.40 199.36 m
-5.76 0 l
o
np
86.40 264.86 m
-5.76 0 l
o
79.49 64.75 (0.00) 1 0 t
79.49 130.26 (0.05) 1 0 t
79.49 195.77 (0.10) 1 0 t
79.49 261.27 (0.15) 1 0 t
np
86.40 57.60 m
302.40 0 l
0 230.40 l
-302.40 0 l
0 -230.40 l
o
0.00 0.00 432.00 576.00 cl
/Font1 findfont 10 s
0 0 0 srgb
237.60 13.82 (Time / ms \(after pulse\)) .5 0 t
49.54 172.80 (Absorbance A) .5 90 t
86.40 57.60 388.80 288.00 cl
/bg { 1 1 1 srgb } def
0 0 0 srgb
0.75 setlinewidth
[] 0 setdash
1 setlinecap
1 setlinejoin
10.00 setmiterlimit
102.08 263.27 0.65 c p3
102.36 259.93 0.65 c p3
102.64 257.71 0.65 c p3
102.92 261.04 0.65 c p3
103.20 259.93 0.65 c p3
103.48 256.61 0.65 c p3
103.76 255.51 0.65 c p3
104.04 251.12 0.65 c p3
104.32 250.03 0.65 c p3
104.60 253.31 0.65 c p3
104.88 248.94 0.65 c p3
105.16 243.52 0.65 c p3
105.44 240.30 0.65 c p3
105.72 247.85 0.65 c p3
106.00 235.14 0.65 c p3
106.28 237.09 0.65 c p3
106.56 236.03 0.65 c p3
106.84 236.03 0.65 c p3
107.12 238.16 0.65 c p3
107.40 229.86 0.65 c p3
107.68 229.86 0.65 c p3
107.96 227.75 0.65 c p3
108.24 225.66 0.65 c p3
108.52 228.81 0.65 c p3
108.80 225.66 0.65 c p3
109.08 224.62 0.65 c p3
109.36 230.91 0.65 c p3
109.64 220.46 0.65 c p3
109.92 217.36 0.65 c p3
110.20 217.36 0.65 c p3
110.48 215.31 0.65 c p3
110.76 215.31 0.65 c p3
111.04 213.26 0.65 c p3
111.32 211.22 0.65 c p3
111.60 211.22 0.65 c p3
111.88 211.22 0.65 c p3
112.16 205.31 0.65 c p3
112.44 208.17 0.65 c p3
112.72 211.22 0.65 c p3
113.00 210.20 0.65 c p3
113.28 205.31 0.65 c p3
113.56 205.31 0.65 c p3
113.84 207.33 0.65 c p3
114.12 204.30 0.65 c p3
114.40 206.32 0.65 c p3
114.68 202.30 0.65 c p3
114.96 198.30 0.65 c p3
115.24 200.29 0.65 c p3
115.52 202.30 0.65 c p3
115.80 199.29 0.65 c p3
116.08 193.34 0.65 c p3
116.36 189.41 0.65 c p3
116.64 193.34 0.65 c p3
116.92 197.30 0.65 c p3
117.20 186.47 0.65 c p3
117.48 189.41 0.65 c p3
117.76 188.43 0.65 c p3
118.04 183.56 0.65 c p3
118.32 188.43 0.65 c p3
118.60 188.43 0.65 c p3
118.88 185.50 0.65 c p3
119.16 184.53 0.65 c p3
119.44 185.50 0.65 c p3
119.72 180.81 0.65 c p3
120.00 181.62 0.65 c p3
120.28 180.81 0.65 c p3
120.56 179.85 0.65 c p3
120.84 178.89 0.65 c p3
121.12 174.10 0.65 c p3
121.40 176.97 0.65 c p3
121.68 178.89 0.65 c p3
121.96 173.14 0.65 c p3
122.24 174.10 0.65 c p3
122.52 173.14 0.65 c p3
122.80 175.05 0.65 c p3
123.08 172.19 0.65 c p3
123.36 168.40 0.65 c p3
123.64 164.63 0.65 c p3
123.92 166.51 0.65 c p3
124.20 167.46 0.65 c p3
124.48 165.57 0.65 c p3
124.76 159.96 0.65 c p3
125.04 164.63 0.65 c p3
125.32 163.70 0.65 c p3
125.60 164.63 0.65 c p3
125.88 163.70 0.65 c p3
126.16 160.89 0.65 c p3
126.44 165.57 0.65 c p3
126.72 160.89 0.65 c p3
127.00 163.70 0.65 c p3
127.28 157.18 0.65 c p3
127.56 153.64 0.65 c p3
127.84 156.25 0.65 c p3
128.12 149.05 0.65 c p3
128.40 151.80 0.65 c p3
128.68 155.48 0.65 c p3
128.96 154.56 0.65 c p3
129.24 153.64 0.65 c p3
129.52 148.14 0.65 c p3
129.80 152.72 0.65 c p3
130.08 155.48 0.65 c p3
130.36 149.05 0.65 c p3
130.64 148.14 0.65 c p3
130.92 144.50 0.65 c p3
131.20 147.23 0.65 c p3
131.48 145.41 0.65 c p3
131.76 143.60 0.65 c p3
132.04 142.70 0.65 c p3
132.32 144.50 0.65 c p3
132.60 148.14 0.65 c p3
132.88 141.80 0.65 c p3
133.16 140.90 0.65 c p3
133.44 136.41 0.65 c p3
133.72 148.14 0.65 c p3
134.00 138.20 0.65 c p3
134.28 140.90 0.65 c p3
134.56 139.10 0.65 c p3
134.84 136.41 0.65 c p3
135.12 138.20 0.65 c p3
135.40 139.10 0.65 c p3
135.68 139.10 0.65 c p3
135.96 131.96 0.65 c p3
136.24 132.85 0.65 c p3
136.52 139.10 0.65 c p3
136.80 131.23 0.65 c p3
137.08 132.85 0.65 c p3
137.36 131.23 0.65 c p3
137.64 131.96 0.65 c p3
137.92 133.74 0.65 c p3
138.20 131.23 0.65 c p3
138.48 132.85 0.65 c p3
138.76 126.82 0.65 c p3
139.04 130.34 0.65 c p3
139.32 128.58 0.65 c p3
139.60 125.07 0.65 c p3
139.88 127.70 0.65 c p3
140.16 129.46 0.65 c p3
140.44 124.19 0.65 c p3
140.72 124.19 0.65 c p3
141.00 127.70 0.65 c p3
141.28 125.07 0.65 c p3
141.56 126.82 0.65 c p3
141.84 120.71 0.65 c p3
142.12 123.32 0.65 c p3
142.40 120.71 0.65 c p3
142.68 118.97 0.65 c p3
142.96 119.84 0.65 c p3
143.24 118.97 0.65 c p3
143.52 115.52 0.65 c p3
143.80 119.84 0.65 c p3
144.08 120.71 0.65 c p3
144.36 111.23 0.65 c p3
144.64 118.11 0.65 c p3
144.92 118.97 0.65 c p3
145.20 114.66 0.65 c p3
145.48 118.11 0.65 c p3
145.76 115.52 0.65 c p3
146.04 112.94 0.65 c p3
146.32 117.24 0.65 c p3
146.60 121.57 0.65 c p3
146.88 115.52 0.65 c p3
147.16 115.52 0.65 c p3
147.44 118.97 0.65 c p3
147.72 112.94 0.65 c p3
148.00 116.38 0.65 c p3
148.28 116.38 0.65 c p3
148.56 112.94 0.65 c p3
148.84 112.94 0.65 c p3
149.12 114.66 0.65 c p3
149.40 112.94 0.65 c p3
149.68 109.52 0.65 c p3
149.96 112.08 0.65 c p3
150.24 116.38 0.65 c p3
150.52 113.80 0.65 c p3
150.80 110.38 0.65 c p3
151.08 110.38 0.65 c p3
151.36 113.80 0.65 c p3
151.64 111.23 0.65 c p3
151.92 108.67 0.65 c p3
152.20 110.38 0.65 c p3
152.48 112.08 0.65 c p3
152.76 110.38 0.65 c p3
153.04 107.96 0.65 c p3
153.32 109.52 0.65 c p3
153.60 108.67 0.65 c p3
153.88 110.38 0.65 c p3
154.16 109.52 0.65 c p3
154.44 109.52 0.65 c p3
154.72 105.42 0.65 c p3
155.00 105.42 0.65 c p3
155.28 106.27 0.65 c p3
155.56 107.96 0.65 c p3
155.84 107.11 0.65 c p3
156.12 105.42 0.65 c p3
156.40 109.52 0.65 c p3
156.68 107.96 0.65 c p3
156.96 104.57 0.65 c p3
157.24 106.27 0.65 c p3
157.52 104.57 0.65 c p3
157.80 107.11 0.65 c p3
158.08 104.57 0.65 c p3
158.36 104.57 0.65 c p3
158.64 106.27 0.65 c p3
158.92 106.27 0.65 c p3
159.20 102.89 0.65 c p3
159.48 104.57 0.65 c p3
159.76 103.73 0.65 c p3
160.04 100.37 0.65 c p3
160.32 103.73 0.65 c p3
160.60 104.57 0.65 c p3
160.88 100.37 0.65 c p3
161.16 102.05 0.65 c p3
161.44 103.73 0.65 c p3
161.72 101.21 0.65 c p3
162.00 102.05 0.65 c p3
162.28 103.73 0.65 c p3
162.56 101.21 0.65 c p3
162.84 101.21 0.65 c p3
163.12 104.57 0.65 c p3
163.40 105.42 0.65 c p3
163.68 97.03 0.65 c p3
163.96 97.86 0.65 c p3
164.24 106.27 0.65 c p3
164.52 99.53 0.65 c p3
164.80 102.05 0.65 c p3
165.08 102.05 0.65 c p3
165.36 98.70 0.65 c p3
165.64 96.19 0.65 c p3
165.92 99.53 0.65 c p3
166.20 102.89 0.65 c p3
166.48 97.03 0.65 c p3
166.76 96.19 0.65 c p3
167.04 102.05 0.65 c p3
167.32 99.53 0.65 c p3
167.60 102.89 0.65 c p3
167.88 101.21 0.65 c p3
168.16 102.05 0.65 c p3
168.44 97.86 0.65 c p3
168.72 102.05 0.65 c p3
169.00 103.73 0.65 c p3
169.28 97.86 0.65 c p3
169.56 98.70 0.65 c p3
169.84 101.21 0.65 c p3
170.12 96.19 0.65 c p3
170.40 96.19 0.65 c p3
170.68 96.19 0.65 c p3
170.96 98.70 0.65 c p3
171.24 92.05 0.65 c p3
171.52 100.37 0.65 c p3
171.80 101.21 0.65 c p3
172.08 97.03 0.65 c p3
172.36 98.70 0.65 c p3
172.64 98.70 0.65 c p3
172.92 97.03 0.65 c p3
173.20 102.05 0.65 c p3
173.48 94.53 0.65 c p3
173.76 98.70 0.65 c p3
174.04 98.70 0.65 c p3
174.32 99.53 0.65 c p3
174.60 98.70 0.65 c p3
174.88 97.03 0.65 c p3
175.16 97.03 0.65 c p3
175.44 98.70 0.65 c p3
175.72 99.53 0.65 c p3
176.00 96.19 0.65 c p3
176.28 94.53 0.65 c p3
176.56 93.70 0.65 c p3
176.84 96.19 0.65 c p3
177.12 96.19 0.65 c p3
177.40 96.19 0.65 c p3
177.68 94.53 0.65 c p3
177.96 95.36 0.65 c p3
178.24 97.86 0.65 c p3
178.52 96.19 0.65 c p3
178.80 92.87 0.65 c p3
179.08 95.36 0.65 c p3
179.36 93.70 0.65 c p3
179.64 94.53 0.65 c p3
179.92 96.19 0.65 c p3
180.20 96.19 0.65 c p3
180.48 95.36 0.65 c p3
180.76 94.53 0.65 c p3
181.04 97.03 0.65 c p3
181.32 95.36 0.65 c p3
181.60 94.53 0.65 c p3
181.88 99.53 0.65 c p3
182.16 96.19 0.65 c p3
182.44 93.70 0.65 c p3
182.72 97.86 0.65 c p3
183.00 92.87 0.65 c p3
183.28 92.87 0.65 c p3
183.56 95.36 0.65 c p3
183.84 97.03 0.65 c p3
184.12 90.40 0.65 c p3
184.40 93.70 0.65 c p3
184.68 93.70 0.65 c p3
184.96 95.36 0.65 c p3
185.24 92.87 0.65 c p3
185.52 96.19 0.65 c p3
185.80 95.36 0.65 c p3
186.08 90.40 0.65 c p3
186.36 88.75 0.65 c p3
186.64 92.87 0.65 c p3
186.92 89.57 0.65 c p3
187.20 92.87 0.65 c p3
187.48 92.87 0.65 c p3
187.76 87.93 0.65 c p3
188.04 92.87 0.65 c p3
188.32 90.40 0.65 c p3
188.60 92.87 0.65 c p3
188.88 90.40 0.65 c p3
189.16 90.40 0.65 c p3
189.44 91.22 0.65 c p3
189.72 86.29 0.65 c p3
190.00 92.87 0.65 c p3
190.28 93.70 0.65 c p3
190.56 89.57 0.65 c p3
190.84 92.05 0.65 c p3
191.12 92.87 0.65 c p3
191.40 88.75 0.65 c p3
191.68 90.40 0.65 c p3
191.96 87.11 0.65 c p3
192.24 91.22 0.65 c p3
192.52 83.17 0.65 c p3
192.80 88.75 0.65 c p3
193.08 90.40 0.65 c p3
193.36 88.75 0.65 c p3
193.64 87.93 0.65 c p3
193.92 91.22 0.65 c p3
194.20 90.40 0.65 c p3
194.48 90.40 0.65 c p3
194.76 87.11 0.65 c p3
195.04 90.40 0.65 c p3
195.32 92.87 0.65 c p3
195.60 87.11 0.65 c p3
195.88 87.93 0.65 c p3
196.16 89.57 0.65 c p3
196.44 88.75 0.65 c p3
196.72 90.40 0.65 c p3
197.00 90.40 0.65 c p3
197.28 92.05 0.65 c p3
197.56 87.11 0.65 c p3
197.84 89.57 0.65 c p3
198.12 87.93 0.65 c p3
198.40 85.61 0.65 c p3
198.68 90.40 0.65 c p3
198.96 90.40 0.65 c p3
199.24 83.98 0.65 c p3
199.52 85.61 0.65 c p3
199.80 91.22 0.65 c p3
200.08 87.11 0.65 c p3
200.36 87.11 0.65 c p3
200.64 87.11 0.65 c p3
200.92 84.80 0.65 c p3
201.20 83.98 0.65 c p3
201.48 87.93 0.65 c p3
201.76 84.80 0.65 c p3
202.04 83.17 0.65 c p3
202.32 83.98 0.65 c p3
202.60 83.17 0.65 c p3
202.88 81.54 0.65 c p3
203.16 85.61 0.65 c p3
203.44 85.61 0.65 c p3
203.72 83.17 0.65 c p3
204.00 81.54 0.65 c p3
204.28 90.40 0.65 c p3
204.56 84.80 0.65 c p3
204.84 78.31 0.65 c p3
205.12 87.11 0.65 c p3
205.40 83.98 0.65 c p3
205.68 79.12 0.65 c p3
205.96 83.98 0.65 c p3
206.24 83.98 0.65 c p3
206.52 83.17 0.65 c p3
206.80 84.80 0.65 c p3
207.08 87.11 0.65 c p3
207.36 82.36 0.65 c p3
207.64 83.98 0.65 c p3
207.92 88.75 0.65 c p3
208.20 83.17 0.65 c p3
208.48 82.36 0.65 c p3
208.76 84.80 0.65 c p3
209.04 79.93 0.65 c p3
209.32 83.17 0.65 c p3
209.60 82.36 0.65 c p3
209.88 85.61 0.65 c p3
210.16 83.17 0.65 c p3
210.44 79.93 0.65 c p3
210.72 85.61 0.65 c p3
211.00 82.36 0.65 c p3
211.28 79.12 0.65 c p3
211.56 81.54 0.65 c p3
211.84 85.61 0.65 c p3
212.12 82.36 0.65 c p3
212.40 78.31 0.65 c p3
212.68 84.80 0.65 c p3
212.96 83.17 0.65 c p3
213.24 80.74 0.65 c p3
213.52 81.54 0.65 c p3
213.80 81.54 0.65 c p3
214.08 84.80 0.65 c p3
214.36 80.74 0.65 c p3
214.64 82.36 0.65 c p3
214.92 79.93 0.65 c p3
215.20 83.98 0.65 c p3
215.48 81.54 0.65 c p3
215.76 77.51 0.65 c p3
216.04 81.54 0.65 c p3
216.32 80.74 0.65 c p3
216.60 81.54 0.65 c p3
216.88 83.98 0.65 c p3
217.16 83.98 0.65 c p3
217.44 80.74 0.65 c p3
217.72 81.54 0.65 c p3
218.00 82.36 0.65 c p3
218.28 83.17 0.65 c p3
218.56 78.31 0.65 c p3
218.84 79.93 0.65 c p3
219.12 81.54 0.65 c p3
219.40 80.74 0.65 c p3
219.68 77.51 0.65 c p3
219.96 80.74 0.65 c p3
220.24 76.70 0.65 c p3
220.52 79.12 0.65 c p3
220.80 79.12 0.65 c p3
221.08 76.70 0.65 c p3
221.36 71.90 0.65 c p3
221.64 77.51 0.65 c p3
221.92 76.70 0.65 c p3
222.20 77.51 0.65 c p3
222.48 72.70 0.65 c p3
222.76 75.90 0.65 c p3
223.04 73.49 0.65 c p3
223.32 76.70 0.65 c p3
223.60 76.70 0.65 c p3
223.88 79.93 0.65 c p3
224.16 76.70 0.65 c p3
224.44 75.09 0.65 c p3
224.72 77.51 0.65 c p3
225.00 79.12 0.65 c p3
225.28 75.90 0.65 c p3
225.56 75.90 0.65 c p3
225.84 77.51 0.65 c p3
226.12 70.30 0.65 c p3
226.40 73.49 0.65 c p3
226.68 74.29 0.65 c p3
226.96 77.51 0.65 c p3
227.24 76.70 0.65 c p3
227.52 73.49 0.65 c p3
227.80 77.51 0.65 c p3
228.08 76.70 0.65 c p3
228.36 75.09 0.65 c p3
228.64 78.31 0.65 c p3
228.92 78.31 0.65 c p3
229.20 75.90 0.65 c p3
229.48 75.90 0.65 c p3
229.76 75.90 0.65 c p3
230.04 75.09 0.65 c p3
230.32 76.70 0.65 c p3
230.60 75.09 0.65 c p3
230.88 75.09 0.65 c p3
231.16 76.70 0.65 c p3
231.44 75.90 0.65 c p3
231.72 74.29 0.65 c p3
232.00 72.70 0.65 c p3
232.28 75.09 0.65 c p3
232.56 68.72 0.65 c p3
232.84 71.90 0.65 c p3
233.12 70.30 0.65 c p3
233.40 74.29 0.65 c p3
233.68 70.30 0.65 c p3
233.96 71.90 0.65 c p3
234.24 73.49 0.65 c p3
234.52 71.10 0.65 c p3
234.80 74.29 0.65 c p3
235.08 69.51 0.65 c p3
235.36 71.10 0.65 c p3
235.64 67.92 0.65 c p3
235.92 71.10 0.65 c p3
236.20 75.90 0.65 c p3
236.48 70.30 0.65 c p3
236.76 71.10 0.65 c p3
237.04 69.51 0.65 c p3
237.32 70.30 0.65 c p3
237.60 71.10 0.65 c p3
237.88 68.72 0.65 c p3
238.16 69.51 0.65 c p3
238.44 71.10 0.65 c p3
238.72 67.92 0.65 c p3
239.00 71.90 0.65 c p3
239.28 67.92 0.65 c p3
239.56 70.30 0.65 c p3
239.84 67.92 0.65 c p3
240.12 67.92 0.65 c p3
240.40 68.72 0.65 c p3
240.68 69.51 0.65 c p3
240.96 68.72 0.65 c p3
241.24 66.34 0.65 c p3
241.52 67.92 0.65 c p3
241.80 67.92 0.65 c p3
242.08 67.92 0.65 c p3
242.36 71.10 0.65 c p3
242.64 71.90 0.65 c p3
242.92 66.34 0.65 c p3
243.20 67.92 0.65 c p3
243.48 66.34 0.65 c p3
243.76 66.34 0.65 c p3
244.04 69.51 0.65 c p3
244.32 71.10 0.65 c p3
244.60 65.55 0.65 c p3
244.88 64.76 0.65 c p3
245.16 69.51 0.65 c p3
245.44 71.10 0.65 c p3
245.72 68.72 0.65 c p3
246.00 67.13 0.65 c p3
246.28 67.13 0.65 c p3
246.56 65.55 0.65 c p3
246.84 66.34 0.65 c p3
247.12 65.55 0.65 c p3
247.40 64.11 0.65 c p3
247.68 64.11 0.65 c p3
247.96 67.13 0.65 c p3
248.24 67.13 0.65 c p3
248.52 64.76 0.65 c p3
248.80 64.76 0.65 c p3
249.08 65.55 0.65 c p3
249.36 67.92 0.65 c p3
249.64 68.72 0.65 c p3
249.92 68.72 0.65 c p3
250.20 66.34 0.65 c p3
250.48 64.76 0.65 c p3
250.76 65.55 0.65 c p3
251.04 65.55 0.65 c p3
251.32 64.76 0.65 c p3
251.60 67.92 0.65 c p3
251.88 65.55 0.65 c p3
252.16 67.13 0.65 c p3
252.44 67.92 0.65 c p3
252.72 65.55 0.65 c p3
253.00 63.32 0.65 c p3
253.28 65.55 0.65 c p3
253.56 62.54 0.65 c p3
253.84 67.13 0.65 c p3
254.12 64.11 0.65 c p3
254.40 61.76 0.65 c p3
254.68 69.51 0.65 c p3
254.96 60.97 0.65 c p3
255.24 63.32 0.65 c p3
255.52 64.76 0.65 c p3
255.80 64.76 0.65 c p3
256.08 67.13 0.65 c p3
256.36 67.92 0.65 c p3
256.64 64.76 0.65 c p3
256.92 60.97 0.65 c p3
257.20 57.85 0.65 c p3
257.48 65.55 0.65 c p3
257.76 64.11 0.65 c p3
258.04 66.34 0.65 c p3
258.32 60.97 0.65 c p3
258.60 61.76 0.65 c p3
258.88 61.76 0.65 c p3
259.16 66.34 0.65 c p3
259.44 65.55 0.65 c p3
259.72 61.76 0.65 c p3
260.00 64.76 0.65 c p3
260.28 61.76 0.65 c p3
260.56 64.76 0.65 c p3
260.84 60.19 0.65 c p3
261.12 64.11 0.65 c p3
261.40 61.76 0.65 c p3
261.68 60.19 0.65 c p3
261.96 64.76 0.65 c p3
262.24 60.97 0.65 c p3
262.52 59.41 0.65 c p3
262.80 66.34 0.65 c p3
263.08 64.11 0.65 c p3
263.36 58.63 0.65 c p3
263.64 58.63 0.65 c p3
263.92 60.97 0.65 c p3
264.20 57.08 0.65 c p3
264.48 60.19 0.65 c p3
264.76 63.32 0.65 c p3
265.04 62.54 0.65 c p3
265.32 63.32 0.65 c p3
265.60 57.08 0.65 c p3
265.88 64.11 0.65 c p3
266.16 61.76 0.65 c p3
266.44 64.76 0.65 c p3
266.72 58.63 0.65 c p3
267.00 60.19 0.65 c p3
267.28 60.19 0.65 c p3
267.56 60.97 0.65 c p3
267.84 55.52 0.65 c p3
268.12 60.19 0.65 c p3
268.40 57.08 0.65 c p3
268.68 61.76 0.65 c p3
268.96 57.08 0.65 c p3
269.24 58.63 0.65 c p3
269.52 60.19 0.65 c p3
269.80 60.97 0.65 c p3
270.08 58.63 0.65 c p3
270.36 57.85 0.65 c p3
270.64 61.76 0.65 c p3
270.92 55.52 0.65 c p3
271.20 58.63 0.65 c p3
271.48 61.76 0.65 c p3
271.76 60.19 0.65 c p3
272.04 60.19 0.65 c p3
272.32 57.08 0.65 c p3
272.60 54.75 0.65 c p3
272.88 58.63 0.65 c p3
273.16 59.41 0.65 c p3
273.44 60.19 0.65 c p3
273.72 56.30 0.65 c p3
274.00 59.41 0.65 c p3
274.28 58.63 0.65 c p3
274.56 61.76 0.65 c p3
274.84 57.08 0.65 c p3
275.12 58.63 0.65 c p3
275.40 56.30 0.65 c p3
275.68 51.66 0.65 c p3
275.96 61.76 0.65 c p3
276.24 55.52 0.65 c p3
276.52 57.08 0.65 c p3
276.80 60.97 0.65 c p3
277.08 61.76 0.65 c p3
277.36 59.41 0.65 c p3
277.64 55.52 0.65 c p3
277.92 58.63 0.65 c p3
278.20 56.30 0.65 c p3
278.48 57.08 0.65 c p3
278.76 55.52 0.65 c p3
279.04 58.63 0.65 c p3
279.32 56.30 0.65 c p3
279.60 60.19 0.65 c p3
279.88 57.85 0.65 c p3
280.16 53.20 0.65 c p3
280.44 54.75 0.65 c p3
216.00 201.60 367.20 247.68 cl
0 0 0 srgb
0.75 setlinewidth
[] 0 setdash
1 setlinecap
1 setlinejoin
10.00 setmiterlimit
221.60 231.95 0.43 c p1
221.82 230.26 0.43 c p1
222.04 229.55 0.43 c p1
222.26 233.75 0.43 c p1
222.48 234.00 0.43 c p1
222.70 232.29 0.43 c p1
222.92 232.54 0.43 c p1
223.14 229.86 0.43 c p1
223.36 230.10 0.43 c p1
223.58 234.20 0.43 c p1
223.80 231.51 0.43 c p1
224.02 227.89 0.43 c p1
224.24 226.20 0.43 c p1
224.46 234.05 0.43 c p1
224.68 223.94 0.43 c p1
224.90 226.80 0.43 c p1
225.12 226.99 0.43 c p1
225.34 228.12 0.43 c p1
225.56 231.12 0.43 c p1
225.78 224.87 0.43 c p1
226.00 225.97 0.43 c p1
226.22 225.19 0.43 c p1
226.44 224.42 0.43 c p1
226.65 228.28 0.43 c p1
226.87 226.56 0.43 c p1
227.09 226.69 0.43 c p1
227.31 233.31 0.43 c p1
227.53 225.10 0.43 c p1
227.75 223.39 0.43 c p1
227.97 224.41 0.43 c p1
228.19 223.61 0.43 c p1
228.41 224.62 0.43 c p1
228.63 223.81 0.43 c p1
228.85 222.99 0.43 c p1
229.07 223.98 0.43 c p1
229.29 224.96 0.43 c p1
229.51 220.70 0.43 c p1
229.73 224.20 0.43 c p1
229.95 227.85 0.43 c p1
230.17 227.90 0.43 c p1
230.39 224.51 0.43 c p1
230.61 225.45 0.43 c p1
230.83 228.16 0.43 c p1
231.05 226.40 0.43 c p1
231.27 229.10 0.43 c p1
231.49 226.44 0.43 c p1
231.71 223.81 0.43 c p1
231.93 226.47 0.43 c p1
232.15 229.13 0.43 c p1
232.37 227.35 0.43 c p1
232.59 222.95 0.43 c p1
232.81 220.33 0.43 c p1
233.03 224.68 0.43 c p1
233.25 229.04 0.43 c p1
233.47 220.30 0.43 c p1
233.69 223.73 0.43 c p1
233.91 223.70 0.43 c p1
234.13 220.22 0.43 c p1
234.35 225.35 0.43 c p1
234.57 226.17 0.43 c p1
234.79 224.38 0.43 c p1
235.01 224.33 0.43 c p1
235.23 225.98 0.43 c p1
235.45 222.63 0.43 c p1
235.67 224.12 0.43 c p1
235.89 224.19 0.43 c p1
236.11 224.11 0.43 c p1
236.33 224.03 0.43 c p1
236.55 220.54 0.43 c p1
236.76 223.84 0.43 c p1
236.98 226.29 0.43 c p1
237.20 221.95 0.43 c p1
237.42 223.53 0.43 c p1
237.64 223.42 0.43 c p1
237.86 225.84 0.43 c p1
238.08 224.03 0.43 c p1
238.30 221.39 0.43 c p1
238.52 218.76 0.43 c p1
238.74 221.14 0.43 c p1
238.96 222.67 0.43 c p1
239.18 221.70 0.43 c p1
239.40 217.42 0.43 c p1
239.62 222.24 0.43 c p1
239.84 222.09 0.43 c p1
240.06 223.59 0.43 c p1
240.28 223.43 0.43 c p1
240.50 221.61 0.43 c p1
240.72 226.42 0.43 c p1
240.94 222.93 0.43 c p1
241.16 226.06 0.43 c p1
241.38 220.93 0.43 c p1
241.60 218.44 0.43 c p1
241.82 221.38 0.43 c p1
242.04 215.64 0.43 c p1
242.26 218.70 0.43 c p1
242.48 222.58 0.43 c p1
242.70 222.38 0.43 c p1
242.92 222.17 0.43 c p1
243.14 217.91 0.43 c p1
243.36 222.57 0.43 c p1
243.58 225.61 0.43 c p1
243.80 220.51 0.43 c p1
244.02 220.29 0.43 c p1
244.24 217.65 0.43 c p1
244.46 220.65 0.43 c p1
244.68 219.61 0.43 c p1
244.90 218.58 0.43 c p1
245.12 218.35 0.43 c p1
245.34 220.51 0.43 c p1
245.56 224.29 0.43 c p1
245.78 219.22 0.43 c p1
246.00 218.97 0.43 c p1
246.22 215.54 0.43 c p1
246.44 226.47 0.43 c p1
246.65 218.21 0.43 c p1
246.87 221.13 0.43 c p1
247.09 220.06 0.43 c p1
247.31 218.21 0.43 c p1
247.53 220.32 0.43 c p1
247.75 221.63 0.43 c p1
247.97 222.14 0.43 c p1
248.19 216.33 0.43 c p1
248.41 217.62 0.43 c p1
248.63 223.66 0.43 c p1
248.85 217.18 0.43 c p1
249.07 219.12 0.43 c p1
249.29 218.17 0.43 c p1
249.51 219.31 0.43 c p1
249.73 221.36 0.43 c p1
249.95 219.61 0.43 c p1
250.17 221.53 0.43 c p1
250.39 216.66 0.43 c p1
250.61 220.25 0.43 c p1
250.83 219.15 0.43 c p1
251.05 216.50 0.43 c p1
251.27 219.29 0.43 c p1
251.49 221.30 0.43 c p1
251.71 217.09 0.43 c p1
251.93 217.53 0.43 c p1
252.15 221.08 0.43 c p1
252.37 219.20 0.43 c p1
252.59 221.18 0.43 c p1
252.81 216.20 0.43 c p1
253.03 218.95 0.43 c p1
253.25 217.06 0.43 c p1
253.47 215.95 0.43 c p1
253.69 217.14 0.43 c p1
253.91 216.79 0.43 c p1
254.13 214.14 0.43 c p1
254.35 218.38 0.43 c p1
254.57 219.56 0.43 c p1
254.79 211.57 0.43 c p1
255.01 218.06 0.43 c p1
255.23 219.23 0.43 c p1
255.45 215.81 0.43 c p1
255.67 219.25 0.43 c p1
255.89 217.35 0.43 c p1
256.11 215.46 0.43 c p1
256.33 219.65 0.43 c p1
256.55 223.87 0.43 c p1
256.76 218.88 0.43 c p1
256.98 219.26 0.43 c p1
257.20 222.69 0.43 c p1
257.42 217.72 0.43 c p1
257.64 221.13 0.43 c p1
257.86 221.49 0.43 c p1
258.08 218.81 0.43 c p1
258.30 219.17 0.43 c p1
258.52 221.05 0.43 c p1
258.74 219.88 0.43 c p1
258.96 217.20 0.43 c p1
259.18 219.82 0.43 c p1
259.40 223.97 0.43 c p1
259.62 222.03 0.43 c p1
259.84 219.34 0.43 c p1
260.06 219.67 0.43 c p1
260.28 223.04 0.43 c p1
260.50 221.10 0.43 c p1
260.72 219.16 0.43 c p1
260.94 221.00 0.43 c p1
261.16 222.84 0.43 c p1
261.38 221.65 0.43 c p1
261.60 219.83 0.43 c p1
261.82 221.53 0.43 c p1
262.04 221.09 0.43 c p1
262.26 222.91 0.43 c p1
262.48 222.47 0.43 c p1
262.70 222.78 0.43 c p1
262.92 219.45 0.43 c p1
263.14 219.75 0.43 c p1
263.36 220.80 0.43 c p1
263.58 222.60 0.43 c p1
263.80 222.15 0.43 c p1
264.02 220.95 0.43 c p1
264.24 224.87 0.43 c p1
264.46 223.78 0.43 c p1
264.68 221.07 0.43 c p1
264.90 222.85 0.43 c p1
265.12 221.63 0.43 c p1
265.34 224.17 0.43 c p1
265.56 222.20 0.43 c p1
265.78 222.47 0.43 c p1
266.00 224.25 0.43 c p1
266.22 224.52 0.43 c p1
266.44 221.80 0.43 c p1
266.65 223.56 0.43 c p1
266.87 223.08 0.43 c p1
267.09 220.37 0.43 c p1
267.31 223.61 0.43 c p1
267.53 224.62 0.43 c p1
267.75 221.15 0.43 c p1
267.97 222.89 0.43 c p1
268.19 224.64 0.43 c p1
268.41 222.66 0.43 c p1
268.63 223.65 0.43 c p1
268.85 225.39 0.43 c p1
269.07 223.40 0.43 c p1
269.29 223.65 0.43 c p1
269.51 226.87 0.43 c p1
269.73 227.87 0.43 c p1
269.95 220.67 0.43 c p1
270.17 221.65 0.43 c p1
270.39 229.33 0.43 c p1
270.61 223.60 0.43 c p1
270.83 226.06 0.43 c p1
271.05 226.29 0.43 c p1
271.27 223.55 0.43 c p1
271.49 221.56 0.43 c p1
271.71 224.74 0.43 c p1
271.93 227.94 0.43 c p1
272.15 222.97 0.43 c p1
272.37 222.45 0.43 c p1
272.59 227.86 0.43 c p1
272.81 225.85 0.43 c p1
273.03 229.04 0.43 c p1
273.25 227.76 0.43 c p1
273.47 228.72 0.43 c p1
273.69 225.22 0.43 c p1
273.91 229.14 0.43 c p1
274.13 230.84 0.43 c p1
274.35 225.84 0.43 c p1
274.57 226.79 0.43 c p1
274.79 229.21 0.43 c p1
275.01 224.97 0.43 c p1
275.23 225.17 0.43 c p1
275.45 225.37 0.43 c p1
275.67 227.79 0.43 c p1
275.89 222.09 0.43 c p1
276.11 229.66 0.43 c p1
276.33 230.59 0.43 c p1
276.55 227.08 0.43 c p1
276.76 228.75 0.43 c p1
276.98 228.94 0.43 c p1
277.20 227.64 0.43 c p1
277.42 232.28 0.43 c p1
277.64 225.80 0.43 c p1
277.86 229.67 0.43 c p1
278.08 229.86 0.43 c p1
278.30 230.78 0.43 c p1
278.52 230.21 0.43 c p1
278.74 228.91 0.43 c p1
278.96 229.09 0.43 c p1
279.18 230.74 0.43 c p1
279.40 231.65 0.43 c p1
279.62 228.87 0.43 c p1
279.84 227.57 0.43 c p1
280.06 227.00 0.43 c p1
280.28 229.38 0.43 c p1
280.50 229.54 0.43 c p1
280.72 229.71 0.43 c p1
280.94 228.40 0.43 c p1
281.16 229.30 0.43 c p1
281.38 231.67 0.43 c p1
281.60 230.36 0.43 c p1
281.82 227.58 0.43 c p1
282.04 229.94 0.43 c p1
282.26 228.62 0.43 c p1
282.48 229.51 0.43 c p1
282.70 231.14 0.43 c p1
282.92 231.29 0.43 c p1
283.14 230.71 0.43 c p1
283.36 230.12 0.43 c p1
283.58 232.48 0.43 c p1
283.80 231.16 0.43 c p1
284.02 230.57 0.43 c p1
284.24 235.14 0.43 c p1
284.46 232.33 0.43 c p1
284.68 230.27 0.43 c p1
284.90 234.10 0.43 c p1
285.12 229.82 0.43 c p1
285.34 229.96 0.43 c p1
285.56 232.31 0.43 c p1
285.78 233.92 0.43 c p1
286.00 228.19 0.43 c p1
286.22 231.25 0.43 c p1
286.44 231.38 0.43 c p1
286.65 232.99 0.43 c p1
286.87 230.92 0.43 c p1
287.09 233.99 0.43 c p1
287.31 233.39 0.43 c p1
287.53 229.12 0.43 c p1
287.75 227.79 0.43 c p1
287.97 231.57 0.43 c p1
288.19 228.78 0.43 c p1
288.41 231.83 0.43 c p1
288.63 231.95 0.43 c p1
288.85 227.70 0.43 c p1
289.07 232.20 0.43 c p1
289.29 230.13 0.43 c p1
289.51 232.45 0.43 c p1
289.73 230.37 0.43 c p1
289.95 230.49 0.43 c p1
290.17 231.34 0.43 c p1
290.39 227.10 0.43 c p1
290.61 233.04 0.43 c p1
290.83 233.89 0.43 c p1
291.05 230.35 0.43 c p1
291.27 232.66 0.43 c p1
291.49 233.50 0.43 c p1
291.71 229.97 0.43 c p1
291.93 231.54 0.43 c p1
292.15 228.74 0.43 c p1
292.37 232.49 0.43 c p1
292.59 225.46 0.43 c p1
292.81 230.52 0.43 c p1
293.03 232.08 0.43 c p1
293.25 230.73 0.43 c p1
293.47 230.11 0.43 c p1
293.69 233.13 0.43 c p1
293.91 232.51 0.43 c p1
294.13 232.61 0.43 c p1
294.35 229.80 0.43 c p1
294.57 232.82 0.43 c p1
294.79 235.11 0.43 c p1
295.01 230.11 0.43 c p1
295.23 230.93 0.43 c p1
295.45 232.49 0.43 c p1
295.67 231.86 0.43 c p1
295.89 233.41 0.43 c p1
296.11 233.51 0.43 c p1
296.33 235.07 0.43 c p1
296.55 230.79 0.43 c p1
296.76 233.07 0.43 c p1
296.98 231.71 0.43 c p1
297.20 229.75 0.43 c p1
297.42 234.08 0.43 c p1
297.64 234.17 0.43 c p1
297.86 228.58 0.43 c p1
298.08 230.11 0.43 c p1
298.30 235.17 0.43 c p1
298.52 231.62 0.43 c p1
298.74 231.71 0.43 c p1
298.96 231.80 0.43 c p1
299.18 229.83 0.43 c p1
299.40 229.20 0.43 c p1
299.62 232.78 0.43 c p1
299.84 230.09 0.43 c p1
300.06 228.73 0.43 c p1
300.28 229.54 0.43 c p1
300.50 228.90 0.43 c p1
300.72 227.55 0.43 c p1
300.94 231.23 0.43 c p1
301.16 231.31 0.43 c p1
301.38 229.23 0.43 c p1
301.60 227.87 0.43 c p1
301.82 235.79 0.43 c p1
302.04 230.91 0.43 c p1
302.26 225.24 0.43 c p1
302.48 233.12 0.43 c p1
302.70 230.42 0.43 c p1
302.92 226.19 0.43 c p1
303.14 230.58 0.43 c p1
303.36 230.65 0.43 c p1
303.58 230.01 0.43 c p1
303.80 231.52 0.43 c p1
304.02 233.65 0.43 c p1
304.24 229.51 0.43 c p1
304.46 231.02 0.43 c p1
304.68 235.32 0.43 c p1
304.90 230.44 0.43 c p1
305.12 229.79 0.43 c p1
305.34 232.03 0.43 c p1
305.56 227.78 0.43 c p1
305.78 230.72 0.43 c p1
306.00 230.07 0.43 c p1
306.22 233.03 0.43 c p1
306.44 230.93 0.43 c p1
306.65 228.12 0.43 c p1
306.87 233.23 0.43 c p1
307.09 230.41 0.43 c p1
307.31 227.61 0.43 c p1
307.53 229.82 0.43 c p1
307.75 233.49 0.43 c p1
307.97 230.67 0.43 c p1
308.19 227.15 0.43 c p1
308.41 232.96 0.43 c p1
308.63 231.58 0.43 c p1
308.85 229.49 0.43 c p1
309.07 230.27 0.43 c p1
309.29 230.33 0.43 c p1
309.51 233.27 0.43 c p1
309.73 229.73 0.43 c p1
309.95 231.23 0.43 c p1
310.17 229.13 0.43 c p1
310.39 232.79 0.43 c p1
310.61 230.69 0.43 c p1
310.83 227.17 0.43 c p1
311.05 230.80 0.43 c p1
311.27 230.14 0.43 c p1
311.49 230.92 0.43 c p1
311.71 233.13 0.43 c p1
311.93 233.19 0.43 c p1
312.15 230.37 0.43 c p1
312.37 231.14 0.43 c p1
312.59 231.91 0.43 c p1
312.81 232.69 0.43 c p1
313.03 228.44 0.43 c p1
313.25 229.92 0.43 c p1
313.47 231.41 0.43 c p1
313.69 230.75 0.43 c p1
313.91 227.94 0.43 c p1
314.13 230.85 0.43 c p1
314.35 227.33 0.43 c p1
314.57 229.52 0.43 c p1
314.79 229.57 0.43 c p1
315.01 227.48 0.43 c p1
315.23 223.28 0.43 c p1
315.45 228.29 0.43 c p1
315.67 227.63 0.43 c p1
315.89 228.39 0.43 c p1
316.11 224.18 0.43 c p1
316.33 227.07 0.43 c p1
316.55 224.98 0.43 c p1
316.76 227.87 0.43 c p1
316.98 227.92 0.43 c p1
317.20 230.82 0.43 c p1
317.42 228.01 0.43 c p1
317.64 226.63 0.43 c p1
317.86 228.82 0.43 c p1
318.08 230.29 0.43 c p1
318.30 227.48 0.43 c p1
318.52 227.53 0.43 c p1
318.74 229.00 0.43 c p1
318.96 222.66 0.43 c p1
319.18 225.53 0.43 c p1
319.40 226.28 0.43 c p1
319.62 229.17 0.43 c p1
319.84 228.50 0.43 c p1
320.06 225.70 0.43 c p1
320.28 229.30 0.43 c p1
320.50 228.63 0.43 c p1
320.72 227.24 0.43 c p1
320.94 230.13 0.43 c p1
321.16 230.18 0.43 c p1
321.38 228.08 0.43 c p1
321.60 228.12 0.43 c p1
321.82 228.16 0.43 c p1
322.04 227.49 0.43 c p1
322.26 228.95 0.43 c p1
322.48 227.56 0.43 c p1
322.70 227.60 0.43 c p1
322.92 229.07 0.43 c p1
323.14 228.39 0.43 c p1
323.36 227.01 0.43 c p1
323.58 225.63 0.43 c p1
323.80 227.79 0.43 c p1
324.02 222.18 0.43 c p1
324.24 225.03 0.43 c p1
324.46 223.66 0.43 c p1
324.68 227.23 0.43 c p1
324.90 223.73 0.43 c p1
325.12 225.18 0.43 c p1
325.34 226.63 0.43 c p1
325.56 224.54 0.43 c p1
325.78 227.41 0.43 c p1
326.00 223.20 0.43 c p1
326.22 224.65 0.43 c p1
326.44 221.87 0.43 c p1
326.65 224.71 0.43 c p1
326.87 229.00 0.43 c p1
327.09 224.08 0.43 c p1
327.31 224.81 0.43 c p1
327.53 223.44 0.43 c p1
327.75 224.17 0.43 c p1
327.97 224.91 0.43 c p1
328.19 222.83 0.43 c p1
328.41 223.57 0.43 c p1
328.63 225.01 0.43 c p1
328.85 222.22 0.43 c p1
329.07 225.77 0.43 c p1
329.29 222.29 0.43 c p1
329.51 224.43 0.43 c p1
329.73 222.35 0.43 c p1
329.95 222.38 0.43 c p1
330.17 223.11 0.43 c p1
330.39 223.84 0.43 c p1
330.61 223.17 0.43 c p1
330.83 221.10 0.43 c p1
331.05 222.52 0.43 c p1
331.27 222.55 0.43 c p1
331.49 222.58 0.43 c p1
331.71 225.42 0.43 c p1
331.93 226.16 0.43 c p1
332.15 221.27 0.43 c p1
332.37 222.69 0.43 c p1
332.59 221.32 0.43 c p1
332.81 221.35 0.43 c p1
333.03 224.18 0.43 c p1
333.25 225.61 0.43 c p1
333.47 220.73 0.43 c p1
333.69 220.06 0.43 c p1
333.91 224.29 0.43 c p1
334.13 225.72 0.43 c p1
334.35 223.64 0.43 c p1
334.57 222.26 0.43 c p1
334.79 222.28 0.43 c p1
335.01 220.91 0.43 c p1
335.23 221.63 0.43 c p1
335.45 220.96 0.43 c p1
335.67 219.71 0.43 c p1
335.89 219.73 0.43 c p1
336.11 222.43 0.43 c p1
336.33 222.46 0.43 c p1
336.55 220.38 0.43 c p1
336.76 220.41 0.43 c p1
336.98 221.13 0.43 c p1
337.20 223.25 0.43 c p1
337.42 223.98 0.43 c p1
337.64 224.00 0.43 c p1
337.86 221.92 0.43 c p1
338.08 220.55 0.43 c p1
338.30 221.27 0.43 c p1
338.52 221.29 0.43 c p1
338.74 220.61 0.43 c p1
338.96 223.43 0.43 c p1
339.18 221.36 0.43 c p1
339.40 222.78 0.43 c p1
339.62 223.50 0.43 c p1
339.84 221.42 0.43 c p1
340.06 219.47 0.43 c p1
340.28 221.46 0.43 c p1
340.50 218.81 0.43 c p1
340.72 222.90 0.43 c p1
340.94 220.25 0.43 c p1
341.16 218.18 0.43 c p1
341.38 225.07 0.43 c p1
341.60 217.53 0.43 c p1
341.82 219.63 0.43 c p1
342.04 220.93 0.43 c p1
342.26 220.95 0.43 c p1
342.48 223.06 0.43 c p1
342.70 223.78 0.43 c p1
342.92 221.00 0.43 c p1
343.14 217.66 0.43 c p1
343.36 214.92 0.43 c p1
343.58 221.76 0.43 c p1
343.80 220.50 0.43 c p1
344.02 222.50 0.43 c p1
344.24 217.76 0.43 c p1
344.46 218.47 0.43 c p1
344.68 218.49 0.43 c p1
344.90 222.57 0.43 c p1
345.12 221.89 0.43 c p1
345.34 218.54 0.43 c p1
345.56 221.22 0.43 c p1
345.78 218.58 0.43 c p1
346.00 221.26 0.43 c p1
346.22 217.22 0.43 c p1
346.44 220.71 0.43 c p1
346.65 218.65 0.43 c p1
346.87 217.28 0.43 c p1
347.09 221.34 0.43 c p1
347.31 218.00 0.43 c p1
347.53 216.63 0.43 c p1
347.75 222.79 0.43 c p1
347.97 220.83 0.43 c p1
348.19 215.99 0.43 c p1
348.41 216.01 0.43 c p1
348.63 218.10 0.43 c p1
348.85 214.66 0.43 c p1
349.07 217.44 0.43 c p1
349.29 220.23 0.43 c p1
349.51 219.55 0.43 c p1
349.73 220.26 0.43 c p1
349.95 214.74 0.43 c p1
350.17 220.98 0.43 c p1
350.39 218.91 0.43 c p1
350.61 221.59 0.43 c p1
350.83 216.18 0.43 c p1
351.05 217.57 0.43 c p1
351.27 217.59 0.43 c p1
351.49 218.29 0.43 c p1
351.71 213.48 0.43 c p1
351.93 217.63 0.43 c p1
352.15 214.88 0.43 c p1
352.37 219.04 0.43 c p1
352.59 214.91 0.43 c p1
352.81 216.30 0.43 c p1
353.03 217.70 0.43 c p1
353.25 218.40 0.43 c p1
353.47 216.34 0.43 c p1
353.69 215.67 0.43 c p1
353.91 219.14 0.43 c p1
354.13 213.63 0.43 c p1
354.35 216.39 0.43 c p1
354.57 219.17 0.43 c p1
354.79 217.80 0.43 c p1
355.01 217.81 0.43 c p1
355.23 215.07 0.43 c p1
355.45 213.02 0.43 c p1
355.67 216.47 0.43 c p1
355.89 217.17 0.43 c p1
356.11 217.88 0.43 c p1
356.33 214.44 0.43 c p1
356.55 217.21 0.43 c p1
356.76 216.53 0.43 c p1
356.98 219.31 0.43 c p1
357.20 215.18 0.43 c p1
357.42 216.57 0.43 c p1
357.64 214.51 0.43 c p1
357.86 210.42 0.43 c p1
358.08 219.37 0.43 c p1
358.30 213.86 0.43 c p1
358.52 215.24 0.43 c p1
358.74 218.71 0.43 c p1
358.96 219.41 0.43 c p1
359.18 217.35 0.43 c p1
359.40 213.91 0.43 c p1
359.62 216.68 0.43 c p1
359.84 214.62 0.43 c p1
360.06 215.32 0.43 c p1
360.28 213.96 0.43 c p1
360.50 216.72 0.43 c p1
360.72 214.66 0.43 c p1
360.94 218.12 0.43 c p1
361.16 216.06 0.43 c p1
361.38 211.95 0.43 c p1
361.60 213.33 0.43 c p1
0.00 0.00 432.00 576.00 cl
0 0 0 srgb
0.75 setlinewidth
[] 0 setdash
1 setlinecap
1 setlinejoin
10.00 setmiterlimit
np
218.08 201.60 m
129.29 0 l
o
np
218.08 201.60 m
0 -5.76 l
o
np
250.40 201.60 m
0 -5.76 l
o
np
282.72 201.60 m
0 -5.76 l
o
np
315.05 201.60 m
0 -5.76 l
o
np
347.37 201.60 m
0 -5.76 l
o
/Font1 findfont 6 s
218.08 185.47 (0) .5 0 t
250.40 185.47 (5000) .5 0 t
282.72 185.47 (10000) .5 0 t
315.05 185.47 (15000) .5 0 t
347.37 185.47 (20000) .5 0 t
np
216.00 213.04 m
0 23.20 l
o
np
216.00 213.04 m
-5.76 0 l
o
np
216.00 224.64 m
-5.76 0 l
o
np
216.00 236.24 m
-5.76 0 l
o
209.09 210.88 (-0.01) 1 0 t
209.09 222.49 (0.00) 1 0 t
209.09 234.09 (0.01) 1 0 t
np
216.00 201.60 m
151.20 0 l
0 46.08 l
-151.20 0 l
0 -46.08 l
o
0.00 0.00 432.00 576.00 cl
/Font1 findfont 9 s
0 0 0 srgb
291.60 262.88 (Residuals) .5 0 t
59.04 73.44 401.76 516.96 cl
ep
%%Trailer
%%Pages: 1
%%EOF
