%!PS-Adobe-3.0 EPSF-3.0
%%DocumentNeededResources: font Helvetica
%%+ font Helvetica-Bold
%%+ font Helvetica-Oblique
%%+ font Helvetica-BoldOblique
%%+ font Symbol
%%Title: R Graphics Output
%%Creator: R Software
%%Pages: (atend)
%%BoundingBox: 0 0 432 576
%%EndComments
%%BeginProlog
/bp  { gs sRGB gs } def
% begin .ps.prolog
/gs  { gsave } bind def
/gr  { grestore } bind def
/ep  { showpage gr gr } bind def
/m   { moveto } bind def
/l  { rlineto } bind def
/np  { newpath } bind def
/cp  { closepath } bind def
/f   { fill } bind def
/o   { stroke } bind def
/c   { newpath 0 360 arc } bind def
/r   { 4 2 roll moveto 1 copy 3 -1 roll exch 0 exch rlineto 0 rlineto -1 mul 0 exch rlineto closepath } bind def
/p1  { stroke } bind def
/p2  { gsave bg fill grestore newpath } bind def
/p3  { gsave bg fill grestore stroke } bind def
/p6  { gsave bg eofill grestore newpath } bind def
/p7  { gsave bg eofill grestore stroke } bind def
/t   { 5 -2 roll moveto gsave rotate
       1 index stringwidth pop
       mul neg 0 rmoveto show grestore } bind def
/ta  { 4 -2 roll moveto gsave rotate show } bind def
/tb  { 2 -1 roll 0 rmoveto show } bind def
/cl  { grestore gsave newpath 3 index 3 index moveto 1 index
       4 -1 roll lineto  exch 1 index lineto lineto
       closepath clip newpath } bind def
/rgb { setrgbcolor } bind def
/s   { scalefont setfont } bind def
% end   .ps.prolog
/sRGB { [ /CIEBasedABC
          << /DecodeLMN
               [ { dup 0.03928 le
                        {12.92321 div}
                        {0.055 add 1.055 div 2.4 exp }
                     ifelse
                 } bind dup dup
               ]
             /MatrixLMN [0.412457 0.212673 0.019334
                         0.357576 0.715152 0.119192
                         0.180437 0.072175 0.950301]
             /WhitePoint [0.9505 1.0 1.0890]
           >>
         ] setcolorspace } bind def
/srgb { setcolor } bind def
% begin encoding
/WinAnsiEncoding [
 /.notdef /.notdef /.notdef /.notdef /.notdef /.notdef /.notdef /.notdef
 /.notdef /.notdef /.notdef /.notdef /.notdef /.notdef /.notdef /.notdef
 /.notdef /.notdef /.notdef /.notdef /.notdef /.notdef /.notdef /.notdef
 /.notdef /.notdef /.notdef /.notdef /.notdef /.notdef /.notdef /.notdef
 /space /exclam /quotedbl /numbersign /dollar /percent /ampersand /quoteright
 /parenleft /parenright /asterisk /plus /comma /minus /period /slash
 /zero /one /two /three /four /five /six /seven
 /eight /nine /colon /semicolon /less /equal /greater /question
 /at /A /B /C /D /E /F /G
 /H /I /J /K /L /M /N /O
 /P /Q /R /S /T /U /V /W
 /X /Y /Z /bracketleft /backslash /bracketright /asciicircum /underscore
 /grave /a /b /c /d /e /f /g
 /h /i /j /k /l /m /n /o
 /p /q /r /s /t /u /v /w
 /x /y /z /braceleft /bar /braceright /asciitilde /.notdef
 /Euro /.notdef /quotesinglbase /florin /quotedblbase /ellipsis /dagger /daggerdbl
 /circumflex /perthousand /Scaron /guilsinglleft /OE /.notdef /Zcaron /.notdef
 /.notdef /quoteleft /quoteright /quotedblleft /quotedblright /bullet /endash /emdash
 /tilde /trademark /scaron /guilsinglright /oe /.notdef /zcaron /Ydieresis
 /space /exclamdown /cent /sterling /currency /yen /brokenbar /section
 /dieresis /copyright /ordfeminine /guillemotleft /logicalnot /hyphen /registered /macron
 /degree /plusminus /twosuperior /threesuperior /acute /mu /paragraph /periodcentered
 /cedilla /onesuperior /ordmasculine /guillemotright /onequarter /onehalf /threequarters /questiondown
 /Agrave /Aacute /Acircumflex /Atilde /Adieresis /Aring /AE /Ccedilla
 /Egrave /Eacute /Ecircumflex /Edieresis /Igrave /Iacute /Icircumflex /Idieresis
 /Eth /Ntilde /Ograve /Oacute /Ocircumflex /Otilde /Odieresis /multiply
 /Oslash /Ugrave /Uacute /Ucircumflex /Udieresis /Yacute /Thorn /germandbls
 /agrave /aacute /acircumflex /atilde /adieresis /aring /ae /ccedilla
 /egrave /eacute /ecircumflex /edieresis /igrave /iacute /icircumflex /idieresis
 /eth /ntilde /ograve /oacute /ocircumflex /otilde /odieresis /divide
 /oslash /ugrave /uacute /ucircumflex /udieresis /yacute /thorn /ydieresis
]
 def
% end encoding
%%IncludeResource: font Helvetica
/Helvetica findfont
dup length dict begin
  {1 index /FID ne {def} {pop pop} ifelse} forall
  /Encoding WinAnsiEncoding def
  currentdict
  end
/Font1 exch definefont pop
%%IncludeResource: font Helvetica-Bold
/Helvetica-Bold findfont
dup length dict begin
  {1 index /FID ne {def} {pop pop} ifelse} forall
  /Encoding WinAnsiEncoding def
  currentdict
  end
/Font2 exch definefont pop
%%IncludeResource: font Helvetica-Oblique
/Helvetica-Oblique findfont
dup length dict begin
  {1 index /FID ne {def} {pop pop} ifelse} forall
  /Encoding WinAnsiEncoding def
  currentdict
  end
/Font3 exch definefont pop
%%IncludeResource: font Helvetica-BoldOblique
/Helvetica-BoldOblique findfont
dup length dict begin
  {1 index /FID ne {def} {pop pop} ifelse} forall
  /Encoding WinAnsiEncoding def
  currentdict
  end
/Font4 exch definefont pop
%%IncludeResource: font Symbol
/Symbol findfont
dup length dict begin
  {1 index /FID ne {def} {pop pop} ifelse} forall
  currentdict
  end
/Font5 exch definefont pop
%%EndProlog
%%Page: 1 1
bp
/bg { 1 1 1 srgb } def
0.00 0.00 432.00 576.00 r p2
0.00 0.00 432.00 576.00 cl
0.00 0.00 432.00 576.00 cl
0.00 0.00 432.00 576.00 cl
/Font1 findfont 12 s
0 0 0 srgb
48.00 508.72 (PCP-ETH) 0 0 t
48.00 494.89 (Flash light photolysis) 0 0 t
/Font1 findfont 9 s
48.00 457.54 (File: Solv) 0 ta
-0.225 (ent_debendence_sol3_1_MSLM.dat) tb gr
48.00 334.87 (Sat Mar 05 15:13:11 2022) 0 0 t
48.00 430.87 (Fit function:  a + b * e) 0 ta
-0.270 (xp\(-c * t\)) tb gr
48.00 420.50 (t-Inter) 0 ta
0.270 (v) tb
-0.225 (all: 286.000 ... 14806.000 ms) tb gr
48.00 410.14 (P) 0 ta
-0.360 (ar) tb
-0.090 (ameters \(Standard de) tb
-0.270 (viation\):) tb gr
48.00 399.77 (  a = -0.02500 \(0.00028\)) 0 0 t
48.00 389.40 (  b = 0.24471 \(0.00037\)) 0 0 t
48.00 379.03 (  c = 2.306e-01 \(9.930e-04\) s^-1) 0 0 t
48.00 368.66 (  tau = 4.336e+00 \(1.867e-02\) s) 0 0 t
216.00 345.60 388.80 518.40 cl
0 0 0 srgb
0.75 setlinewidth
[] 0 setdash
1 setlinecap
1 setlinejoin
10.00 setmiterlimit
np
222.40 499.28 m
0.15 0.74 l
0.14 -2.46 l
0.15 1.97 l
0.14 0.24 l
0.15 -1.72 l
0.14 0.25 l
0.15 0.98 l
0.14 -0.74 l
0.15 -0.49 l
0.15 0.49 l
0.14 0.99 l
0.15 -1.48 l
0.14 0.74 l
0.15 0.25 l
0.14 0.73 l
0.15 -0.98 l
0.14 0.49 l
0.15 -1.23 l
0.15 0.25 l
0.14 0.74 l
0.15 0.24 l
0.14 -0.24 l
0.15 0.24 l
0.14 1.97 l
0.15 -2.71 l
0.15 0.74 l
0.14 -0.24 l
0.15 -1.48 l
0.14 2.21 l
0.15 -1.47 l
0.14 0.98 l
0.15 0 l
0.14 0.99 l
0.15 -1.48 l
0.15 -0.25 l
0.14 0.74 l
0.15 -0.24 l
0.14 0.49 l
0.15 -0.99 l
0.14 0.25 l
0.15 -0.25 l
0.14 0.50 l
0.15 -0.50 l
0.15 0.74 l
0.14 -0.24 l
0.15 -0.25 l
0.14 -0.25 l
0.15 0.50 l
0.14 0.24 l
0.15 -1.47 l
0.14 1.72 l
0.15 0 l
0.15 0 l
0.14 0.24 l
0.15 -1.47 l
0.14 1.23 l
0.15 0.98 l
0.14 -1.72 l
0.15 -0.98 l
0.15 0.98 l
0.14 0.98 l
0.15 0.25 l
0.14 0 l
0.15 -0.49 l
0.14 -0.99 l
0.15 -0.98 l
0.14 0.74 l
0.15 1.23 l
0.15 -0.49 l
0.14 -0.74 l
0.15 1.23 l
0.14 0.49 l
0.15 -1.23 l
0.14 0.74 l
0.15 0.24 l
0.14 -0.73 l
0.15 0 l
0.15 -0.74 l
0.14 -0.25 l
0.15 1.48 l
0.14 0.49 l
0.15 -0.25 l
0.14 0 l
0.15 0.50 l
0.14 -2.46 l
0.15 0.73 l
0.15 -0.49 l
0.14 0.49 l
0.15 0.25 l
0.14 0.74 l
0.15 -1.23 l
0.14 0.74 l
0.15 0.24 l
0.15 0 l
0.14 -0.24 l
0.15 -0.25 l
0.14 0 l
0.15 -1.23 l
0.14 0.49 l
236.96 439.84 lineto
0.14 -0.02 l
0.15 1.25 l
0.15 -0.25 l
0.14 -0.25 l
0.15 1.48 l
0.14 0 l
0.15 -0.49 l
0.14 0.98 l
0.15 -0.49 l
0.14 0.49 l
0.15 0.99 l
0.15 0 l
0.14 -0.25 l
0.15 1.19 l
0.14 0.49 l
0.15 -0.69 l
0.14 0.69 l
0.15 0 l
0.14 0.74 l
0.15 -1.93 l
0.15 1.69 l
0.14 1.72 l
0.15 0.49 l
0.14 -1.47 l
0.15 0.24 l
0.14 1.72 l
0.15 -0.98 l
0.15 -0.49 l
0.14 0.74 l
0.15 0.98 l
0.14 -0.49 l
0.15 1.97 l
0.14 -1.73 l
0.15 -0.24 l
0.14 2.21 l
0.15 0.25 l
0.15 -0.74 l
0.14 0 l
0.15 -0.49 l
0.14 1.48 l
0.15 0.45 l
0.14 -1.19 l
0.15 2.17 l
0.14 1.23 l
0.15 -2.66 l
0.15 0.69 l
0.14 0 l
0.15 0.50 l
0.14 0.98 l
0.15 0.49 l
0.14 -0.49 l
0.15 1.23 l
0.14 -0.49 l
0.15 0.24 l
0.15 0.25 l
0.14 0.49 l
0.15 -0.98 l
0.14 2.46 l
0.15 -0.98 l
0.14 0.49 l
0.15 -0.25 l
0.15 -0.24 l
0.14 1.47 l
0.15 -1.23 l
0.14 1.48 l
0.15 -0.25 l
0.14 -0.98 l
0.15 1.72 l
0.14 -0.25 l
0.15 1.44 l
0.15 -1.93 l
0.14 1.44 l
0.15 -0.25 l
0.14 -0.20 l
0.15 0.94 l
0.14 0 l
0.15 0.49 l
0.14 -0.49 l
0.15 1.23 l
0.15 -0.49 l
0.14 0 l
0.15 1.23 l
0.14 -0.25 l
0.15 0.25 l
0.14 0.25 l
0.15 0.49 l
0.14 0 l
0.15 0 l
0.15 0 l
0.14 -0.25 l
0.15 0.25 l
0.14 0.74 l
0.15 0.98 l
0.14 -0.49 l
0.15 0.25 l
0.15 0.24 l
0.14 -0.49 l
0.15 0.25 l
0.14 -0.25 l
251.52 463.59 lineto
0.14 -0.25 l
0.15 0 l
0.14 1.44 l
0.15 -0.49 l
0.15 0.74 l
0.14 -0.74 l
0.15 -0.45 l
0.14 0.69 l
0.15 -0.94 l
0.14 1.68 l
0.15 -0.24 l
0.14 0.98 l
0.15 0.49 l
0.15 -0.98 l
0.14 1.48 l
0.15 -0.99 l
0.14 0 l
0.15 0.25 l
0.14 1.23 l
0.15 -1.23 l
0.14 1.47 l
0.15 -0.73 l
0.15 0.73 l
0.14 0.50 l
0.15 -0.50 l
0.14 0.74 l
0.15 -1.72 l
0.14 2.46 l
0.15 -1.23 l
0.14 0.49 l
0.15 0.25 l
0.15 -0.74 l
0.14 1.23 l
0.15 1.48 l
0.14 -1.23 l
0.15 -0.50 l
0.14 0.50 l
0.15 -0.25 l
0.15 1.68 l
0.14 -0.69 l
0.15 0.24 l
0.14 0.45 l
0.15 -0.69 l
0.14 1.43 l
0.15 -1.19 l
0.14 0.94 l
0.15 0 l
0.15 0.74 l
0.14 -0.24 l
0.15 0.49 l
0.14 -0.25 l
0.15 0.99 l
0.14 -0.99 l
0.15 0.74 l
0.14 -0.74 l
0.15 0 l
0.15 -0.49 l
0.14 1.72 l
0.15 -1.23 l
0.14 1.23 l
0.15 -0.73 l
0.14 0.73 l
0.15 -0.24 l
0.14 1.48 l
0.15 -0.25 l
0.15 -0.25 l
0.14 1.23 l
0.15 -0.73 l
0.14 -1.73 l
0.15 1.73 l
0.14 0.24 l
0.15 0 l
0.15 0.49 l
0.14 0.50 l
0.15 0.49 l
0.14 -0.49 l
0.15 0.98 l
0.14 -0.74 l
0.15 -0.74 l
0.14 1.23 l
0.15 0 l
0.15 -0.98 l
0.14 1.48 l
0.15 0.20 l
0.14 -0.94 l
0.15 0.74 l
0.14 1.68 l
0.15 -1.23 l
0.14 0 l
0.15 -0.45 l
0.15 0.94 l
0.14 0.25 l
0.15 -0.74 l
0.14 1.97 l
0.15 -0.50 l
0.14 -0.24 l
0.15 -0.25 l
0.14 -0.49 l
0.15 0.98 l
266.08 478.97 lineto
0.14 0 l
0.15 0.74 l
0.14 0 l
0.15 -0.24 l
0.14 0.74 l
0.15 -0.25 l
0.15 -0.25 l
0.14 -0.74 l
0.15 1.24 l
0.14 -0.99 l
0.15 0.99 l
0.14 0.73 l
0.15 -0.49 l
0.14 0.99 l
0.15 0.73 l
0.15 -1.23 l
0.14 0.74 l
0.15 0.74 l
0.14 -0.98 l
0.15 0 l
0.14 0 l
0.15 -0.50 l
0.14 2.22 l
0.15 -1.72 l
0.15 0.73 l
0.14 0 l
0.15 0.50 l
0.14 0 l
0.15 -0.99 l
0.14 0.99 l
0.15 0.74 l
0.14 0.24 l
0.15 0.45 l
0.15 -0.69 l
0.14 0.69 l
0.15 -0.69 l
0.14 -0.50 l
0.15 0.74 l
0.14 0.21 l
0.15 0.49 l
0.15 -0.25 l
0.14 0.25 l
0.15 -0.25 l
0.14 -0.24 l
0.15 0.74 l
0.14 0 l
0.15 -0.50 l
0.14 0.99 l
0.15 -0.74 l
0.15 1.48 l
0.14 -0.99 l
0.15 0.25 l
0.14 0 l
0.15 1.23 l
0.14 -0.49 l
0.15 -0.25 l
0.14 0 l
0.15 -0.25 l
0.15 0 l
0.14 -0.24 l
0.15 0.74 l
0.14 0.24 l
0.15 0.49 l
0.14 0 l
0.15 -0.98 l
0.14 1.48 l
0.15 -0.25 l
0.15 -1.48 l
0.14 2.22 l
0.15 0.98 l
0.14 -2.21 l
0.15 0.74 l
0.14 0.24 l
0.15 0.99 l
0.15 -0.74 l
0.14 -0.25 l
0.15 0.50 l
0.14 -0.50 l
0.15 0.99 l
0.14 -1.23 l
0.15 0.49 l
0.14 0.98 l
0.15 -0.24 l
0.15 0.24 l
0.14 0.25 l
0.15 -0.98 l
0.14 0.49 l
0.15 -0.74 l
0.14 2.71 l
0.15 -0.74 l
0.14 0 l
0.15 0 l
0.15 -0.74 l
0.14 0 l
0.15 -0.25 l
0.14 1.23 l
0.15 -0.24 l
0.14 -0.74 l
0.15 0.74 l
280.63 490.71 lineto
0.15 1.23 l
0.15 -2.67 l
0.14 1.19 l
0.15 -0.70 l
0.14 0.50 l
0.15 0.69 l
0.14 -0.69 l
0.15 0 l
0.15 0.69 l
0.14 -1.43 l
0.15 0.49 l
0.14 1.19 l
0.15 0.49 l
0.14 -0.24 l
0.15 -1.93 l
0.14 1.68 l
0.15 0.49 l
0.15 0.25 l
0.14 0.24 l
0.15 -1.92 l
0.14 2.17 l
0.15 -1.97 l
0.14 0.49 l
0.15 1.48 l
0.14 -0.25 l
0.15 -1.23 l
0.15 0.74 l
0.14 0.74 l
0.15 0.49 l
0.14 -0.49 l
0.15 -0.74 l
0.14 1.23 l
0.15 -0.49 l
0.14 0 l
0.15 0.25 l
0.15 0 l
0.14 0.74 l
0.15 -1.24 l
0.14 0 l
0.15 0 l
0.14 1.73 l
0.15 -0.99 l
0.14 -0.24 l
0.15 0.74 l
0.15 -0.50 l
0.14 0 l
0.15 0.74 l
0.14 -0.74 l
0.15 0.99 l
0.14 0 l
0.15 -0.49 l
0.15 1.72 l
0.14 -1.72 l
0.15 1.47 l
0.14 -0.74 l
0.15 0 l
0.14 0.50 l
0.15 -0.74 l
0.14 0.24 l
0.15 0.25 l
0.15 0.25 l
0.14 -0.50 l
0.15 0.50 l
0.14 0.49 l
0.15 -1.97 l
0.14 1.97 l
0.15 -1.23 l
0.14 1.47 l
0.15 -2.70 l
0.15 2.70 l
0.14 -0.73 l
0.15 0.98 l
0.14 -0.74 l
0.15 -0.98 l
0.14 1.72 l
0.15 -0.74 l
0.14 0.99 l
0.15 0 l
0.15 0.49 l
0.14 -0.25 l
0.15 -1.23 l
0.14 1.48 l
0.15 -1.48 l
0.14 1.97 l
0.15 -0.98 l
0.15 0.24 l
0.14 0.74 l
0.15 -1.72 l
0.14 1.48 l
0.15 -0.50 l
0.14 -0.74 l
0.15 1.24 l
0.14 0.24 l
0.15 0.95 l
0.15 -0.74 l
0.14 -0.45 l
0.15 0 l
0.14 0.69 l
0.15 0 l
295.19 495.38 lineto
0.15 2.18 l
0.14 -0.94 l
0.15 -0.50 l
0.15 0.50 l
0.14 0.69 l
0.15 -0.24 l
0.14 -0.70 l
0.15 0.49 l
0.14 0.21 l
0.15 0.49 l
0.14 -0.94 l
0.15 1.68 l
0.15 0.24 l
0.14 -1.23 l
0.15 -0.24 l
0.14 0.74 l
0.15 0.73 l
0.14 -2.17 l
0.15 0.70 l
0.15 0.24 l
0.14 0.25 l
0.15 -0.25 l
0.14 0 l
0.15 0.74 l
0.14 0.99 l
0.15 -0.74 l
0.14 -2.18 l
0.15 2.42 l
0.15 -1.23 l
0.14 0.74 l
0.15 0 l
0.14 -0.24 l
0.15 0.49 l
0.14 0 l
0.15 0.24 l
0.14 -0.24 l
0.15 0.49 l
0.15 -0.98 l
0.14 -0.25 l
0.15 0.98 l
0.14 0.25 l
0.15 0 l
0.14 0.74 l
0.15 -1.72 l
0.14 1.72 l
0.15 0 l
0.15 0 l
0.14 0.49 l
0.15 -1.97 l
0.14 0.74 l
0.15 0.49 l
0.14 0.25 l
0.15 0 l
0.15 0.24 l
0.14 -0.49 l
0.15 -0.49 l
0.14 0.49 l
0.15 -0.49 l
0.14 0.49 l
0.15 0 l
0.14 0.49 l
0.15 0 l
0.15 -0.24 l
0.14 0.49 l
0.15 -0.98 l
0.14 0.73 l
0.15 -0.73 l
0.14 0.98 l
0.15 -0.74 l
0.14 0.49 l
0.15 0 l
0.15 -0.98 l
0.14 2.22 l
0.15 -0.99 l
0.14 0 l
0.15 0.99 l
0.14 -0.99 l
0.15 -1.72 l
0.14 2.46 l
0.15 -0.49 l
0.15 0.74 l
0.14 -0.99 l
0.15 0.74 l
0.14 -0.49 l
0.15 -0.25 l
0.14 0.49 l
0.15 -0.74 l
0.15 -0.73 l
0.14 1.97 l
0.15 0.49 l
0.14 -0.99 l
0.15 -0.24 l
0.14 0.74 l
0.15 -0.74 l
0.14 0.74 l
0.15 0.24 l
0.15 -0.24 l
0.14 -0.50 l
0.15 0.25 l
309.75 500.27 lineto
0.15 -0.50 l
0.14 0.74 l
0.15 0 l
0.14 0.74 l
0.15 0 l
0.15 -0.49 l
0.14 1.48 l
0.15 -1.23 l
0.14 0.24 l
0.15 -0.24 l
0.14 0.24 l
0.15 1.97 l
0.14 -2.46 l
0.15 -0.25 l
0.15 0.99 l
0.14 0 l
0.15 -0.25 l
0.14 -1.72 l
0.15 0.98 l
0.14 0.50 l
0.15 0.73 l
0.15 -0.73 l
0.14 0.24 l
0.15 0.74 l
0.14 -0.98 l
0.15 0.49 l
0.14 0.98 l
0.15 -0.98 l
0.14 0 l
0.15 -0.49 l
0.15 1.23 l
0.14 -0.99 l
0.15 -0.74 l
0.14 1.73 l
0.15 -0.50 l
0.14 -0.24 l
0.15 0.49 l
0.14 0 l
0.15 0.25 l
0.15 -0.50 l
0.14 0.99 l
0.15 0 l
0.14 -0.49 l
0.15 0.49 l
0.14 -1.48 l
0.15 0.25 l
0.14 0.49 l
0.15 0.74 l
0.15 -2.46 l
0.14 1.97 l
0.15 0.49 l
0.14 -0.99 l
0.15 0.99 l
0.14 -0.25 l
0.15 0.99 l
0.15 -1.23 l
0.14 0.49 l
0.15 -0.49 l
0.14 0.98 l
0.15 -1.23 l
0.14 1.93 l
0.15 -1.44 l
0.14 -0.98 l
0.15 1.97 l
0.15 -1.23 l
0.14 0.49 l
0.15 0 l
0.14 -0.49 l
0.15 0.24 l
0.14 0.99 l
0.15 -0.50 l
0.14 -0.24 l
0.15 0.49 l
0.15 -0.25 l
0.14 0.95 l
0.15 -2.42 l
0.14 2.42 l
0.15 -1.44 l
0.14 0.74 l
0.15 0.25 l
0.14 -0.50 l
0.15 0.50 l
0.15 0.94 l
0.14 -0.25 l
0.15 -1.19 l
0.14 0.25 l
0.15 -0.74 l
0.14 0 l
0.15 0.74 l
0.14 0.25 l
0.15 -0.74 l
0.15 2.42 l
0.14 -1.48 l
0.15 0 l
0.14 0.74 l
0.15 0 l
0.14 -1.44 l
0.15 0.25 l
0.15 0.45 l
324.31 502.48 lineto
0.15 0.74 l
0.14 -0.25 l
0.15 1.69 l
0.14 -0.74 l
0.15 0.24 l
0.14 -0.94 l
0.15 -1.23 l
0.15 1.48 l
0.14 0 l
0.15 -0.50 l
0.14 0.50 l
0.15 0.69 l
0.14 1.23 l
0.15 -1.92 l
0.14 0.69 l
0.15 -0.24 l
0.15 0 l
0.14 0.49 l
0.15 -0.94 l
0.14 0.94 l
0.15 -0.25 l
0.14 0.25 l
0.15 -0.94 l
0.14 1.19 l
0.15 0.49 l
0.15 -0.74 l
0.14 0.49 l
0.15 0 l
0.14 -0.24 l
0.15 -0.50 l
0.14 0.99 l
0.15 -0.49 l
0.15 -1.44 l
0.14 1.93 l
0.15 -0.99 l
0.14 1.23 l
0.15 0.25 l
0.14 -0.74 l
0.15 0 l
0.14 -0.24 l
0.15 -0.99 l
0.15 1.72 l
0.14 -0.98 l
0.15 0.49 l
0.14 -0.24 l
0.15 -0.25 l
0.14 0.98 l
0.15 -0.24 l
0.14 -0.25 l
0.15 0.25 l
0.15 0.49 l
0.14 0.25 l
0.15 -3.41 l
0.14 2.67 l
0.15 -1.23 l
0.14 1.23 l
0.15 -0.25 l
0.14 1.48 l
0.15 -2.22 l
0.15 0.50 l
0.14 1.97 l
0.15 0 l
0.14 -2.22 l
0.15 0.98 l
0.14 -0.49 l
0.15 0.74 l
0.15 -1.97 l
0.14 2.22 l
0.15 -0.50 l
0.14 -0.49 l
0.15 0.49 l
0.14 0.74 l
0.15 -0.24 l
0.14 0 l
0.15 -0.74 l
0.15 0.74 l
0.14 0.74 l
0.15 -0.74 l
0.14 -0.50 l
0.15 -0.24 l
0.14 0.74 l
0.15 0 l
0.14 0.49 l
0.15 -0.99 l
0.15 1.73 l
0.14 -1.97 l
0.15 0.74 l
0.14 0.74 l
0.15 0 l
0.14 -0.25 l
0.15 -0.49 l
0.14 0.98 l
0.15 -1.48 l
0.15 1.24 l
0.14 -0.99 l
0.15 2.22 l
0.14 -2.47 l
0.15 1.24 l
0.14 -0.74 l
338.87 504.66 lineto
0.15 2.21 l
0.14 0.25 l
0.15 -1.23 l
0.14 0 l
0.15 0.74 l
0.14 0 l
0.15 -0.25 l
0.14 0.49 l
0.15 -0.24 l
0.15 -0.50 l
0.14 0 l
0.15 0.25 l
0.14 -0.49 l
0.15 0.98 l
0.14 0 l
0.15 0.25 l
0.14 1.23 l
0.15 -1.97 l
0.15 -0.49 l
0.14 0 l
0.15 0.74 l
0.14 -0.25 l
0.15 0.74 l
0.14 0 l
0.15 -0.49 l
0.14 1.72 l
0.15 -0.25 l
0.15 -1.23 l
0.14 1.72 l
0.15 -1.23 l
0.14 -0.49 l
0.15 1.23 l
0.14 -1.23 l
0.15 1.72 l
0.15 -1.96 l
0.14 0.73 l
0.15 -0.24 l
0.14 0.24 l
0.15 0 l
0.14 0.50 l
0.15 -0.50 l
0.14 -0.73 l
0.15 0.49 l
0.15 1.23 l
0.14 0 l
0.15 0 l
0.14 -1.23 l
0.15 -0.25 l
0.14 0.49 l
0.15 0 l
0.14 0 l
0.15 0.99 l
0.15 -0.74 l
0.14 -0.49 l
0.15 0 l
0.14 0.74 l
0.15 0.73 l
0.14 -1.23 l
0.15 0.74 l
0.14 0.49 l
0.15 -1.72 l
0.15 1.97 l
0.14 -1.23 l
0.15 0.49 l
0.14 0.25 l
0.15 0 l
0.14 -0.25 l
0.15 0.49 l
0.15 0 l
0.14 -0.98 l
0.15 -0.25 l
0.14 1.48 l
0.15 -0.25 l
0.14 -1.47 l
0.15 1.47 l
0.14 -1.23 l
0.15 1.48 l
0.15 0 l
0.14 -0.49 l
0.15 0.49 l
0.14 0 l
0.15 0 l
0.14 -0.74 l
0.15 0.25 l
0.14 0.74 l
0.15 -0.74 l
0.15 0.98 l
0.14 -1.23 l
0.15 0.49 l
0.14 0.74 l
0.15 -0.74 l
0.14 0.74 l
0.15 -0.74 l
0.14 -0.24 l
0.15 1.48 l
0.15 -2.47 l
0.14 1.23 l
0.15 0.50 l
0.14 -0.25 l
353.43 509.09 lineto
0.14 -0.25 l
0.15 0.25 l
0.14 -0.99 l
0.15 0.25 l
0.15 1.23 l
0.14 0.94 l
0.15 -1.68 l
0.14 0.74 l
0.15 -1.48 l
0.14 0.25 l
0.15 0 l
0.15 -0.74 l
0.14 1.48 l
0.15 -0.74 l
0.14 0.49 l
0.15 -0.74 l
0.14 1.73 l
0.15 -0.74 l
0.14 -1.23 l
0.15 1.23 l
0.15 0.49 l
0.14 0.25 l
0.15 -1.48 l
0.14 0.98 l
0.15 0.74 l
0.14 -0.98 l
0.15 0.74 l
0.14 -0.74 l
0.15 -0.25 l
0.15 1.44 l
0.14 -2.42 l
0.15 0.73 l
0.14 1.24 l
0.15 0 l
0.14 -2.22 l
0.15 3.90 l
0.14 -2.42 l
0.15 -0.74 l
0.15 0.98 l
0.14 -0.74 l
0.15 0.25 l
0.14 0.25 l
0.15 0.49 l
0.14 -1.23 l
0.15 1.93 l
0.15 -0.45 l
0.14 -0.99 l
0.15 0.49 l
0.14 1.44 l
0.15 -1.93 l
0.14 0.49 l
0.15 0.74 l
0.14 -1.48 l
0.15 1.69 l
0.15 0.49 l
0.14 -0.49 l
0.15 -0.70 l
0.14 -0.99 l
0.15 1.93 l
0.14 -0.45 l
0.15 -0.49 l
0.14 0.25 l
0.15 0.94 l
0.15 -1.44 l
0.14 0.95 l
0.15 -0.45 l
0.14 -0.25 l
0.15 0 l
0.14 -0.49 l
0.15 1.93 l
0.14 -0.95 l
0.15 0.70 l
0.15 -0.49 l
0.14 -0.70 l
0.15 -0.49 l
0.14 1.43 l
0.15 -0.94 l
0.14 0.25 l
0.15 1.19 l
0.15 -0.74 l
0.14 0.74 l
0.15 -1.19 l
0.14 -0.25 l
0.15 0.70 l
0.14 -0.45 l
0.15 1.19 l
0.14 -1.93 l
0.15 0.98 l
0.15 0.21 l
0.14 -0.45 l
0.15 -0.25 l
0.14 0.25 l
0.15 0 l
0.14 0.69 l
0.15 0.50 l
0.14 -0.25 l
0.15 -1.19 l
0.15 -0.25 l
0.14 1.69 l
currentpoint o m
367.99 510.77 lineto
0.14 -2.42 l
0.15 1.93 l
0.14 0.74 l
0.15 -0.95 l
0.14 -0.24 l
0.15 0.69 l
0.15 -0.69 l
0.14 1.19 l
0.15 -1.69 l
0.14 0.50 l
0.15 -0.25 l
0.14 0.94 l
0.15 0.25 l
0.15 -0.25 l
0.14 0.99 l
0.15 0.49 l
0.14 -1.23 l
0.15 -0.49 l
0.14 0 l
0.15 0 l
0.14 1.23 l
0.15 -0.74 l
0.15 0.49 l
0.14 -0.98 l
0.15 0.24 l
0.14 0.50 l
0.15 -0.74 l
0.14 -0.70 l
0.15 0.94 l
0.14 0.25 l
0.15 0.25 l
0.15 0.24 l
0.14 -1.68 l
0.15 0.94 l
0.14 0 l
0.15 0.74 l
0.14 -1.19 l
0.15 1.44 l
0.14 0.24 l
0.15 -1.47 l
0.15 -0.21 l
0.14 0.95 l
0.15 -0.95 l
0.14 0.95 l
0.15 -0.50 l
0.14 -0.24 l
0.15 1.47 l
0.15 -2.66 l
0.14 0.98 l
0.15 -1.48 l
0.14 2.18 l
0.15 -0.94 l
0.14 0.45 l
0.15 0.49 l
0.14 0 l
0.15 -0.70 l
0.15 0.70 l
0.14 -0.70 l
0.15 0 l
0.14 1.44 l
0.15 -1.44 l
0.14 1.44 l
0.15 -1.44 l
0.14 -0.24 l
0.15 0.45 l
0.15 0.74 l
0.14 -0.95 l
0.15 0.95 l
0.14 0.24 l
0.15 -1.43 l
0.14 1.43 l
0.15 -0.49 l
0.14 0 l
0.15 0.25 l
0.15 -0.74 l
0.14 0.98 l
0.15 0 l
0.14 -0.24 l
0.15 -0.25 l
0.14 -1.44 l
0.15 0.74 l
0.15 0.45 l
0.14 0.74 l
0.15 0 l
0.14 -0.74 l
0.15 0.25 l
0.14 -0.70 l
0.15 0.45 l
0.14 0.74 l
0.15 0.49 l
0.15 -0.98 l
0.14 0 l
0.15 -0.25 l
0.14 0.50 l
0.15 -1.19 l
0.14 1.68 l
0.15 -0.49 l
0.14 0 l
0.15 0.49 l
o
/bg { 1 1 1 srgb } def
222.40 499.28 0.43 c p3
222.55 500.02 0.43 c p3
222.69 497.56 0.43 c p3
222.84 499.53 0.43 c p3
222.98 499.77 0.43 c p3
223.13 498.05 0.43 c p3
223.27 498.30 0.43 c p3
223.42 499.28 0.43 c p3
223.56 498.54 0.43 c p3
223.71 498.05 0.43 c p3
223.86 498.54 0.43 c p3
224.00 499.53 0.43 c p3
224.15 498.05 0.43 c p3
224.29 498.79 0.43 c p3
224.44 499.04 0.43 c p3
224.58 499.77 0.43 c p3
224.73 498.79 0.43 c p3
224.87 499.28 0.43 c p3
225.02 498.05 0.43 c p3
225.17 498.30 0.43 c p3
225.31 499.04 0.43 c p3
225.46 499.28 0.43 c p3
225.60 499.04 0.43 c p3
225.75 499.28 0.43 c p3
225.89 501.25 0.43 c p3
226.04 498.54 0.43 c p3
226.19 499.28 0.43 c p3
226.33 499.04 0.43 c p3
226.48 497.56 0.43 c p3
226.62 499.77 0.43 c p3
226.77 498.30 0.43 c p3
226.91 499.28 0.43 c p3
227.06 499.28 0.43 c p3
227.20 500.27 0.43 c p3
227.35 498.79 0.43 c p3
227.50 498.54 0.43 c p3
227.64 499.28 0.43 c p3
227.79 499.04 0.43 c p3
227.93 499.53 0.43 c p3
228.08 498.54 0.43 c p3
228.22 498.79 0.43 c p3
228.37 498.54 0.43 c p3
228.51 499.04 0.43 c p3
228.66 498.54 0.43 c p3
228.81 499.28 0.43 c p3
228.95 499.04 0.43 c p3
229.10 498.79 0.43 c p3
229.24 498.54 0.43 c p3
229.39 499.04 0.43 c p3
229.53 499.28 0.43 c p3
229.68 497.81 0.43 c p3
229.82 499.53 0.43 c p3
229.97 499.53 0.43 c p3
230.12 499.53 0.43 c p3
230.26 499.77 0.43 c p3
230.41 498.30 0.43 c p3
230.55 499.53 0.43 c p3
230.70 500.51 0.43 c p3
230.84 498.79 0.43 c p3
230.99 497.81 0.43 c p3
231.14 498.79 0.43 c p3
231.28 499.77 0.43 c p3
231.43 500.02 0.43 c p3
231.57 500.02 0.43 c p3
231.72 499.53 0.43 c p3
231.86 498.54 0.43 c p3
232.01 497.56 0.43 c p3
232.15 498.30 0.43 c p3
232.30 499.53 0.43 c p3
232.45 499.04 0.43 c p3
232.59 498.30 0.43 c p3
232.74 499.53 0.43 c p3
232.88 500.02 0.43 c p3
233.03 498.79 0.43 c p3
233.17 499.53 0.43 c p3
233.32 499.77 0.43 c p3
233.46 499.04 0.43 c p3
233.61 499.04 0.43 c p3
233.76 498.30 0.43 c p3
233.90 498.05 0.43 c p3
234.05 499.53 0.43 c p3
234.19 500.02 0.43 c p3
234.34 499.77 0.43 c p3
234.48 499.77 0.43 c p3
234.63 500.27 0.43 c p3
234.77 497.81 0.43 c p3
234.92 498.54 0.43 c p3
235.07 498.05 0.43 c p3
235.21 498.54 0.43 c p3
235.36 498.79 0.43 c p3
235.50 499.53 0.43 c p3
235.65 498.30 0.43 c p3
235.79 499.04 0.43 c p3
235.94 499.28 0.43 c p3
236.09 499.28 0.43 c p3
236.23 499.04 0.43 c p3
236.38 498.79 0.43 c p3
236.52 498.79 0.43 c p3
236.67 497.56 0.43 c p3
236.81 498.05 0.43 c p3
236.96 439.84 0.43 c p3
237.10 439.82 0.43 c p3
237.25 441.07 0.43 c p3
237.40 440.82 0.43 c p3
237.54 440.57 0.43 c p3
237.69 442.05 0.43 c p3
237.83 442.05 0.43 c p3
237.98 441.56 0.43 c p3
238.12 442.54 0.43 c p3
238.27 442.05 0.43 c p3
238.41 442.54 0.43 c p3
238.56 443.53 0.43 c p3
238.71 443.53 0.43 c p3
238.85 443.28 0.43 c p3
239.00 444.47 0.43 c p3
239.14 444.96 0.43 c p3
239.29 444.27 0.43 c p3
239.43 444.96 0.43 c p3
239.58 444.96 0.43 c p3
239.72 445.70 0.43 c p3
239.87 443.77 0.43 c p3
240.02 445.46 0.43 c p3
240.16 447.18 0.43 c p3
240.31 447.67 0.43 c p3
240.45 446.20 0.43 c p3
240.60 446.44 0.43 c p3
240.74 448.16 0.43 c p3
240.89 447.18 0.43 c p3
241.04 446.69 0.43 c p3
241.18 447.43 0.43 c p3
241.33 448.41 0.43 c p3
241.47 447.92 0.43 c p3
241.62 449.89 0.43 c p3
241.76 448.16 0.43 c p3
241.91 447.92 0.43 c p3
242.05 450.13 0.43 c p3
242.20 450.38 0.43 c p3
242.35 449.64 0.43 c p3
242.49 449.64 0.43 c p3
242.64 449.15 0.43 c p3
242.78 450.63 0.43 c p3
242.93 451.08 0.43 c p3
243.07 449.89 0.43 c p3
243.22 452.06 0.43 c p3
243.36 453.29 0.43 c p3
243.51 450.63 0.43 c p3
243.66 451.32 0.43 c p3
243.80 451.32 0.43 c p3
243.95 451.82 0.43 c p3
244.09 452.80 0.43 c p3
244.24 453.29 0.43 c p3
244.38 452.80 0.43 c p3
244.53 454.03 0.43 c p3
244.67 453.54 0.43 c p3
244.82 453.78 0.43 c p3
244.97 454.03 0.43 c p3
245.11 454.52 0.43 c p3
245.26 453.54 0.43 c p3
245.40 456.00 0.43 c p3
245.55 455.02 0.43 c p3
245.69 455.51 0.43 c p3
245.84 455.26 0.43 c p3
245.99 455.02 0.43 c p3
246.13 456.49 0.43 c p3
246.28 455.26 0.43 c p3
246.42 456.74 0.43 c p3
246.57 456.49 0.43 c p3
246.71 455.51 0.43 c p3
246.86 457.23 0.43 c p3
247.00 456.98 0.43 c p3
247.15 458.42 0.43 c p3
247.30 456.49 0.43 c p3
247.44 457.93 0.43 c p3
247.59 457.68 0.43 c p3
247.73 457.48 0.43 c p3
247.88 458.42 0.43 c p3
248.02 458.42 0.43 c p3
248.17 458.91 0.43 c p3
248.31 458.42 0.43 c p3
248.46 459.65 0.43 c p3
248.61 459.16 0.43 c p3
248.75 459.16 0.43 c p3
248.90 460.39 0.43 c p3
249.04 460.14 0.43 c p3
249.19 460.39 0.43 c p3
249.33 460.64 0.43 c p3
249.48 461.13 0.43 c p3
249.62 461.13 0.43 c p3
249.77 461.13 0.43 c p3
249.92 461.13 0.43 c p3
250.06 460.88 0.43 c p3
250.21 461.13 0.43 c p3
250.35 461.87 0.43 c p3
250.50 462.85 0.43 c p3
250.64 462.36 0.43 c p3
250.79 462.61 0.43 c p3
250.94 462.85 0.43 c p3
251.08 462.36 0.43 c p3
251.23 462.61 0.43 c p3
251.37 462.36 0.43 c p3
251.52 463.59 0.43 c p3
251.66 463.34 0.43 c p3
251.81 463.34 0.43 c p3
251.95 464.78 0.43 c p3
252.10 464.29 0.43 c p3
252.25 465.03 0.43 c p3
252.39 464.29 0.43 c p3
252.54 463.84 0.43 c p3
252.68 464.53 0.43 c p3
252.83 463.59 0.43 c p3
252.97 465.27 0.43 c p3
253.12 465.03 0.43 c p3
253.26 466.01 0.43 c p3
253.41 466.50 0.43 c p3
253.56 465.52 0.43 c p3
253.70 467.00 0.43 c p3
253.85 466.01 0.43 c p3
253.99 466.01 0.43 c p3
254.14 466.26 0.43 c p3
254.28 467.49 0.43 c p3
254.43 466.26 0.43 c p3
254.57 467.73 0.43 c p3
254.72 467.00 0.43 c p3
254.87 467.73 0.43 c p3
255.01 468.23 0.43 c p3
255.16 467.73 0.43 c p3
255.30 468.47 0.43 c p3
255.45 466.75 0.43 c p3
255.59 469.21 0.43 c p3
255.74 467.98 0.43 c p3
255.88 468.47 0.43 c p3
256.03 468.72 0.43 c p3
256.18 467.98 0.43 c p3
256.32 469.21 0.43 c p3
256.47 470.69 0.43 c p3
256.61 469.46 0.43 c p3
256.76 468.96 0.43 c p3
256.90 469.46 0.43 c p3
257.05 469.21 0.43 c p3
257.20 470.89 0.43 c p3
257.34 470.20 0.43 c p3
257.49 470.44 0.43 c p3
257.63 470.89 0.43 c p3
257.78 470.20 0.43 c p3
257.92 471.63 0.43 c p3
258.07 470.44 0.43 c p3
258.21 471.38 0.43 c p3
258.36 471.38 0.43 c p3
258.51 472.12 0.43 c p3
258.65 471.88 0.43 c p3
258.80 472.37 0.43 c p3
258.94 472.12 0.43 c p3
259.09 473.11 0.43 c p3
259.23 472.12 0.43 c p3
259.38 472.86 0.43 c p3
259.52 472.12 0.43 c p3
259.67 472.12 0.43 c p3
259.82 471.63 0.43 c p3
259.96 473.35 0.43 c p3
260.11 472.12 0.43 c p3
260.25 473.35 0.43 c p3
260.40 472.62 0.43 c p3
260.54 473.35 0.43 c p3
260.69 473.11 0.43 c p3
260.83 474.59 0.43 c p3
260.98 474.34 0.43 c p3
261.13 474.09 0.43 c p3
261.27 475.32 0.43 c p3
261.42 474.59 0.43 c p3
261.56 472.86 0.43 c p3
261.71 474.59 0.43 c p3
261.85 474.83 0.43 c p3
262.00 474.83 0.43 c p3
262.15 475.32 0.43 c p3
262.29 475.82 0.43 c p3
262.44 476.31 0.43 c p3
262.58 475.82 0.43 c p3
262.73 476.80 0.43 c p3
262.87 476.06 0.43 c p3
263.02 475.32 0.43 c p3
263.16 476.55 0.43 c p3
263.31 476.55 0.43 c p3
263.46 475.57 0.43 c p3
263.60 477.05 0.43 c p3
263.75 477.25 0.43 c p3
263.89 476.31 0.43 c p3
264.04 477.05 0.43 c p3
264.18 478.73 0.43 c p3
264.33 477.50 0.43 c p3
264.47 477.50 0.43 c p3
264.62 477.05 0.43 c p3
264.77 477.99 0.43 c p3
264.91 478.24 0.43 c p3
265.06 477.50 0.43 c p3
265.20 479.47 0.43 c p3
265.35 478.97 0.43 c p3
265.49 478.73 0.43 c p3
265.64 478.48 0.43 c p3
265.78 477.99 0.43 c p3
265.93 478.97 0.43 c p3
266.08 478.97 0.43 c p3
266.22 478.97 0.43 c p3
266.37 479.71 0.43 c p3
266.51 479.71 0.43 c p3
266.66 479.47 0.43 c p3
266.80 480.21 0.43 c p3
266.95 479.96 0.43 c p3
267.10 479.71 0.43 c p3
267.24 478.97 0.43 c p3
267.39 480.21 0.43 c p3
267.53 479.22 0.43 c p3
267.68 480.21 0.43 c p3
267.82 480.94 0.43 c p3
267.97 480.45 0.43 c p3
268.11 481.44 0.43 c p3
268.26 482.17 0.43 c p3
268.41 480.94 0.43 c p3
268.55 481.68 0.43 c p3
268.70 482.42 0.43 c p3
268.84 481.44 0.43 c p3
268.99 481.44 0.43 c p3
269.13 481.44 0.43 c p3
269.28 480.94 0.43 c p3
269.42 483.16 0.43 c p3
269.57 481.44 0.43 c p3
269.72 482.17 0.43 c p3
269.86 482.17 0.43 c p3
270.01 482.67 0.43 c p3
270.15 482.67 0.43 c p3
270.30 481.68 0.43 c p3
270.44 482.67 0.43 c p3
270.59 483.41 0.43 c p3
270.73 483.65 0.43 c p3
270.88 484.10 0.43 c p3
271.03 483.41 0.43 c p3
271.17 484.10 0.43 c p3
271.32 483.41 0.43 c p3
271.46 482.91 0.43 c p3
271.61 483.65 0.43 c p3
271.75 483.86 0.43 c p3
271.90 484.35 0.43 c p3
272.05 484.10 0.43 c p3
272.19 484.35 0.43 c p3
272.34 484.10 0.43 c p3
272.48 483.86 0.43 c p3
272.63 484.60 0.43 c p3
272.77 484.60 0.43 c p3
272.92 484.10 0.43 c p3
273.06 485.09 0.43 c p3
273.21 484.35 0.43 c p3
273.36 485.83 0.43 c p3
273.50 484.84 0.43 c p3
273.65 485.09 0.43 c p3
273.79 485.09 0.43 c p3
273.94 486.32 0.43 c p3
274.08 485.83 0.43 c p3
274.23 485.58 0.43 c p3
274.37 485.58 0.43 c p3
274.52 485.33 0.43 c p3
274.67 485.33 0.43 c p3
274.81 485.09 0.43 c p3
274.96 485.83 0.43 c p3
275.10 486.07 0.43 c p3
275.25 486.56 0.43 c p3
275.39 486.56 0.43 c p3
275.54 485.58 0.43 c p3
275.68 487.06 0.43 c p3
275.83 486.81 0.43 c p3
275.98 485.33 0.43 c p3
276.12 487.55 0.43 c p3
276.27 488.53 0.43 c p3
276.41 486.32 0.43 c p3
276.56 487.06 0.43 c p3
276.70 487.30 0.43 c p3
276.85 488.29 0.43 c p3
277.00 487.55 0.43 c p3
277.14 487.30 0.43 c p3
277.29 487.80 0.43 c p3
277.43 487.30 0.43 c p3
277.58 488.29 0.43 c p3
277.72 487.06 0.43 c p3
277.87 487.55 0.43 c p3
278.01 488.53 0.43 c p3
278.16 488.29 0.43 c p3
278.31 488.53 0.43 c p3
278.45 488.78 0.43 c p3
278.60 487.80 0.43 c p3
278.74 488.29 0.43 c p3
278.89 487.55 0.43 c p3
279.03 490.26 0.43 c p3
279.18 489.52 0.43 c p3
279.32 489.52 0.43 c p3
279.47 489.52 0.43 c p3
279.62 488.78 0.43 c p3
279.76 488.78 0.43 c p3
279.91 488.53 0.43 c p3
280.05 489.76 0.43 c p3
280.20 489.52 0.43 c p3
280.34 488.78 0.43 c p3
280.49 489.52 0.43 c p3
280.63 490.71 0.43 c p3
280.78 491.94 0.43 c p3
280.93 489.27 0.43 c p3
281.07 490.46 0.43 c p3
281.22 489.76 0.43 c p3
281.36 490.26 0.43 c p3
281.51 490.95 0.43 c p3
281.65 490.26 0.43 c p3
281.80 490.26 0.43 c p3
281.95 490.95 0.43 c p3
282.09 489.52 0.43 c p3
282.24 490.01 0.43 c p3
282.38 491.20 0.43 c p3
282.53 491.69 0.43 c p3
282.67 491.45 0.43 c p3
282.82 489.52 0.43 c p3
282.96 491.20 0.43 c p3
283.11 491.69 0.43 c p3
283.26 491.94 0.43 c p3
283.40 492.18 0.43 c p3
283.55 490.26 0.43 c p3
283.69 492.43 0.43 c p3
283.84 490.46 0.43 c p3
283.98 490.95 0.43 c p3
284.13 492.43 0.43 c p3
284.27 492.18 0.43 c p3
284.42 490.95 0.43 c p3
284.57 491.69 0.43 c p3
284.71 492.43 0.43 c p3
284.86 492.92 0.43 c p3
285.00 492.43 0.43 c p3
285.15 491.69 0.43 c p3
285.29 492.92 0.43 c p3
285.44 492.43 0.43 c p3
285.58 492.43 0.43 c p3
285.73 492.68 0.43 c p3
285.88 492.68 0.43 c p3
286.02 493.42 0.43 c p3
286.17 492.18 0.43 c p3
286.31 492.18 0.43 c p3
286.46 492.18 0.43 c p3
286.60 493.91 0.43 c p3
286.75 492.92 0.43 c p3
286.89 492.68 0.43 c p3
287.04 493.42 0.43 c p3
287.19 492.92 0.43 c p3
287.33 492.92 0.43 c p3
287.48 493.66 0.43 c p3
287.62 492.92 0.43 c p3
287.77 493.91 0.43 c p3
287.91 493.91 0.43 c p3
288.06 493.42 0.43 c p3
288.21 495.14 0.43 c p3
288.35 493.42 0.43 c p3
288.50 494.89 0.43 c p3
288.64 494.15 0.43 c p3
288.79 494.15 0.43 c p3
288.93 494.65 0.43 c p3
289.08 493.91 0.43 c p3
289.22 494.15 0.43 c p3
289.37 494.40 0.43 c p3
289.52 494.65 0.43 c p3
289.66 494.15 0.43 c p3
289.81 494.65 0.43 c p3
289.95 495.14 0.43 c p3
290.10 493.17 0.43 c p3
290.24 495.14 0.43 c p3
290.39 493.91 0.43 c p3
290.53 495.38 0.43 c p3
290.68 492.68 0.43 c p3
290.83 495.38 0.43 c p3
290.97 494.65 0.43 c p3
291.12 495.63 0.43 c p3
291.26 494.89 0.43 c p3
291.41 493.91 0.43 c p3
291.55 495.63 0.43 c p3
291.70 494.89 0.43 c p3
291.84 495.88 0.43 c p3
291.99 495.88 0.43 c p3
292.14 496.37 0.43 c p3
292.28 496.12 0.43 c p3
292.43 494.89 0.43 c p3
292.57 496.37 0.43 c p3
292.72 494.89 0.43 c p3
292.86 496.86 0.43 c p3
293.01 495.88 0.43 c p3
293.16 496.12 0.43 c p3
293.30 496.86 0.43 c p3
293.45 495.14 0.43 c p3
293.59 496.62 0.43 c p3
293.74 496.12 0.43 c p3
293.88 495.38 0.43 c p3
294.03 496.62 0.43 c p3
294.17 496.86 0.43 c p3
294.32 497.81 0.43 c p3
294.47 497.07 0.43 c p3
294.61 496.62 0.43 c p3
294.76 496.62 0.43 c p3
294.90 497.31 0.43 c p3
295.05 497.31 0.43 c p3
295.19 495.38 0.43 c p3
295.34 497.56 0.43 c p3
295.48 496.62 0.43 c p3
295.63 496.12 0.43 c p3
295.78 496.62 0.43 c p3
295.92 497.31 0.43 c p3
296.07 497.07 0.43 c p3
296.21 496.37 0.43 c p3
296.36 496.86 0.43 c p3
296.50 497.07 0.43 c p3
296.65 497.56 0.43 c p3
296.79 496.62 0.43 c p3
296.94 498.30 0.43 c p3
297.09 498.54 0.43 c p3
297.23 497.31 0.43 c p3
297.38 497.07 0.43 c p3
297.52 497.81 0.43 c p3
297.67 498.54 0.43 c p3
297.81 496.37 0.43 c p3
297.96 497.07 0.43 c p3
298.11 497.31 0.43 c p3
298.25 497.56 0.43 c p3
298.40 497.31 0.43 c p3
298.54 497.31 0.43 c p3
298.69 498.05 0.43 c p3
298.83 499.04 0.43 c p3
298.98 498.30 0.43 c p3
299.12 496.12 0.43 c p3
299.27 498.54 0.43 c p3
299.42 497.31 0.43 c p3
299.56 498.05 0.43 c p3
299.71 498.05 0.43 c p3
299.85 497.81 0.43 c p3
300.00 498.30 0.43 c p3
300.14 498.30 0.43 c p3
300.29 498.54 0.43 c p3
300.43 498.30 0.43 c p3
300.58 498.79 0.43 c p3
300.73 497.81 0.43 c p3
300.87 497.56 0.43 c p3
301.02 498.54 0.43 c p3
301.16 498.79 0.43 c p3
301.31 498.79 0.43 c p3
301.45 499.53 0.43 c p3
301.60 497.81 0.43 c p3
301.74 499.53 0.43 c p3
301.89 499.53 0.43 c p3
302.04 499.53 0.43 c p3
302.18 500.02 0.43 c p3
302.33 498.05 0.43 c p3
302.47 498.79 0.43 c p3
302.62 499.28 0.43 c p3
302.76 499.53 0.43 c p3
302.91 499.53 0.43 c p3
303.06 499.77 0.43 c p3
303.20 499.28 0.43 c p3
303.35 498.79 0.43 c p3
303.49 499.28 0.43 c p3
303.64 498.79 0.43 c p3
303.78 499.28 0.43 c p3
303.93 499.28 0.43 c p3
304.07 499.77 0.43 c p3
304.22 499.77 0.43 c p3
304.37 499.53 0.43 c p3
304.51 500.02 0.43 c p3
304.66 499.04 0.43 c p3
304.80 499.77 0.43 c p3
304.95 499.04 0.43 c p3
305.09 500.02 0.43 c p3
305.24 499.28 0.43 c p3
305.38 499.77 0.43 c p3
305.53 499.77 0.43 c p3
305.68 498.79 0.43 c p3
305.82 501.01 0.43 c p3
305.97 500.02 0.43 c p3
306.11 500.02 0.43 c p3
306.26 501.01 0.43 c p3
306.40 500.02 0.43 c p3
306.55 498.30 0.43 c p3
306.69 500.76 0.43 c p3
306.84 500.27 0.43 c p3
306.99 501.01 0.43 c p3
307.13 500.02 0.43 c p3
307.28 500.76 0.43 c p3
307.42 500.27 0.43 c p3
307.57 500.02 0.43 c p3
307.71 500.51 0.43 c p3
307.86 499.77 0.43 c p3
308.01 499.04 0.43 c p3
308.15 501.01 0.43 c p3
308.30 501.50 0.43 c p3
308.44 500.51 0.43 c p3
308.59 500.27 0.43 c p3
308.73 501.01 0.43 c p3
308.88 500.27 0.43 c p3
309.02 501.01 0.43 c p3
309.17 501.25 0.43 c p3
309.32 501.01 0.43 c p3
309.46 500.51 0.43 c p3
309.61 500.76 0.43 c p3
309.75 500.27 0.43 c p3
309.90 499.77 0.43 c p3
310.04 500.51 0.43 c p3
310.19 500.51 0.43 c p3
310.33 501.25 0.43 c p3
310.48 501.25 0.43 c p3
310.63 500.76 0.43 c p3
310.77 502.24 0.43 c p3
310.92 501.01 0.43 c p3
311.06 501.25 0.43 c p3
311.21 501.01 0.43 c p3
311.35 501.25 0.43 c p3
311.50 503.22 0.43 c p3
311.64 500.76 0.43 c p3
311.79 500.51 0.43 c p3
311.94 501.50 0.43 c p3
312.08 501.50 0.43 c p3
312.23 501.25 0.43 c p3
312.37 499.53 0.43 c p3
312.52 500.51 0.43 c p3
312.66 501.01 0.43 c p3
312.81 501.74 0.43 c p3
312.96 501.01 0.43 c p3
313.10 501.25 0.43 c p3
313.25 501.99 0.43 c p3
313.39 501.01 0.43 c p3
313.54 501.50 0.43 c p3
313.68 502.48 0.43 c p3
313.83 501.50 0.43 c p3
313.97 501.50 0.43 c p3
314.12 501.01 0.43 c p3
314.27 502.24 0.43 c p3
314.41 501.25 0.43 c p3
314.56 500.51 0.43 c p3
314.70 502.24 0.43 c p3
314.85 501.74 0.43 c p3
314.99 501.50 0.43 c p3
315.14 501.99 0.43 c p3
315.28 501.99 0.43 c p3
315.43 502.24 0.43 c p3
315.58 501.74 0.43 c p3
315.72 502.73 0.43 c p3
315.87 502.73 0.43 c p3
316.01 502.24 0.43 c p3
316.16 502.73 0.43 c p3
316.30 501.25 0.43 c p3
316.45 501.50 0.43 c p3
316.59 501.99 0.43 c p3
316.74 502.73 0.43 c p3
316.89 500.27 0.43 c p3
317.03 502.24 0.43 c p3
317.18 502.73 0.43 c p3
317.32 501.74 0.43 c p3
317.47 502.73 0.43 c p3
317.61 502.48 0.43 c p3
317.76 503.47 0.43 c p3
317.91 502.24 0.43 c p3
318.05 502.73 0.43 c p3
318.20 502.24 0.43 c p3
318.34 503.22 0.43 c p3
318.49 501.99 0.43 c p3
318.63 503.92 0.43 c p3
318.78 502.48 0.43 c p3
318.92 501.50 0.43 c p3
319.07 503.47 0.43 c p3
319.22 502.24 0.43 c p3
319.36 502.73 0.43 c p3
319.51 502.73 0.43 c p3
319.65 502.24 0.43 c p3
319.80 502.48 0.43 c p3
319.94 503.47 0.43 c p3
320.09 502.97 0.43 c p3
320.23 502.73 0.43 c p3
320.38 503.22 0.43 c p3
320.53 502.97 0.43 c p3
320.67 503.92 0.43 c p3
320.82 501.50 0.43 c p3
320.96 503.92 0.43 c p3
321.11 502.48 0.43 c p3
321.25 503.22 0.43 c p3
321.40 503.47 0.43 c p3
321.54 502.97 0.43 c p3
321.69 503.47 0.43 c p3
321.84 504.41 0.43 c p3
321.98 504.16 0.43 c p3
322.13 502.97 0.43 c p3
322.27 503.22 0.43 c p3
322.42 502.48 0.43 c p3
322.56 502.48 0.43 c p3
322.71 503.22 0.43 c p3
322.85 503.47 0.43 c p3
323.00 502.73 0.43 c p3
323.15 505.15 0.43 c p3
323.29 503.67 0.43 c p3
323.44 503.67 0.43 c p3
323.58 504.41 0.43 c p3
323.73 504.41 0.43 c p3
323.87 502.97 0.43 c p3
324.02 503.22 0.43 c p3
324.17 503.67 0.43 c p3
324.31 502.48 0.43 c p3
324.46 503.22 0.43 c p3
324.60 502.97 0.43 c p3
324.75 504.66 0.43 c p3
324.89 503.92 0.43 c p3
325.04 504.16 0.43 c p3
325.18 503.22 0.43 c p3
325.33 501.99 0.43 c p3
325.48 503.47 0.43 c p3
325.62 503.47 0.43 c p3
325.77 502.97 0.43 c p3
325.91 503.47 0.43 c p3
326.06 504.16 0.43 c p3
326.20 505.39 0.43 c p3
326.35 503.47 0.43 c p3
326.49 504.16 0.43 c p3
326.64 503.92 0.43 c p3
326.79 503.92 0.43 c p3
326.93 504.41 0.43 c p3
327.08 503.47 0.43 c p3
327.22 504.41 0.43 c p3
327.37 504.16 0.43 c p3
327.51 504.41 0.43 c p3
327.66 503.47 0.43 c p3
327.80 504.66 0.43 c p3
327.95 505.15 0.43 c p3
328.10 504.41 0.43 c p3
328.24 504.90 0.43 c p3
328.39 504.90 0.43 c p3
328.53 504.66 0.43 c p3
328.68 504.16 0.43 c p3
328.82 505.15 0.43 c p3
328.97 504.66 0.43 c p3
329.12 503.22 0.43 c p3
329.26 505.15 0.43 c p3
329.41 504.16 0.43 c p3
329.55 505.39 0.43 c p3
329.70 505.64 0.43 c p3
329.84 504.90 0.43 c p3
329.99 504.90 0.43 c p3
330.13 504.66 0.43 c p3
330.28 503.67 0.43 c p3
330.43 505.39 0.43 c p3
330.57 504.41 0.43 c p3
330.72 504.90 0.43 c p3
330.86 504.66 0.43 c p3
331.01 504.41 0.43 c p3
331.15 505.39 0.43 c p3
331.30 505.15 0.43 c p3
331.44 504.90 0.43 c p3
331.59 505.15 0.43 c p3
331.74 505.64 0.43 c p3
331.88 505.89 0.43 c p3
332.03 502.48 0.43 c p3
332.17 505.15 0.43 c p3
332.32 503.92 0.43 c p3
332.46 505.15 0.43 c p3
332.61 504.90 0.43 c p3
332.75 506.38 0.43 c p3
332.90 504.16 0.43 c p3
333.05 504.66 0.43 c p3
333.19 506.63 0.43 c p3
333.34 506.63 0.43 c p3
333.48 504.41 0.43 c p3
333.63 505.39 0.43 c p3
333.77 504.90 0.43 c p3
333.92 505.64 0.43 c p3
334.07 503.67 0.43 c p3
334.21 505.89 0.43 c p3
334.36 505.39 0.43 c p3
334.50 504.90 0.43 c p3
334.65 505.39 0.43 c p3
334.79 506.13 0.43 c p3
334.94 505.89 0.43 c p3
335.08 505.89 0.43 c p3
335.23 505.15 0.43 c p3
335.38 505.89 0.43 c p3
335.52 506.63 0.43 c p3
335.67 505.89 0.43 c p3
335.81 505.39 0.43 c p3
335.96 505.15 0.43 c p3
336.10 505.89 0.43 c p3
336.25 505.89 0.43 c p3
336.39 506.38 0.43 c p3
336.54 505.39 0.43 c p3
336.69 507.12 0.43 c p3
336.83 505.15 0.43 c p3
336.98 505.89 0.43 c p3
337.12 506.63 0.43 c p3
337.27 506.63 0.43 c p3
337.41 506.38 0.43 c p3
337.56 505.89 0.43 c p3
337.70 506.87 0.43 c p3
337.85 505.39 0.43 c p3
338.00 506.63 0.43 c p3
338.14 505.64 0.43 c p3
338.29 507.86 0.43 c p3
338.43 505.39 0.43 c p3
338.58 506.63 0.43 c p3
338.72 505.89 0.43 c p3
338.87 504.66 0.43 c p3
339.02 506.87 0.43 c p3
339.16 507.12 0.43 c p3
339.31 505.89 0.43 c p3
339.45 505.89 0.43 c p3
339.60 506.63 0.43 c p3
339.74 506.63 0.43 c p3
339.89 506.38 0.43 c p3
340.03 506.87 0.43 c p3
340.18 506.63 0.43 c p3
340.33 506.13 0.43 c p3
340.47 506.13 0.43 c p3
340.62 506.38 0.43 c p3
340.76 505.89 0.43 c p3
340.91 506.87 0.43 c p3
341.05 506.87 0.43 c p3
341.20 507.12 0.43 c p3
341.34 508.35 0.43 c p3
341.49 506.38 0.43 c p3
341.64 505.89 0.43 c p3
341.78 505.89 0.43 c p3
341.93 506.63 0.43 c p3
342.07 506.38 0.43 c p3
342.22 507.12 0.43 c p3
342.36 507.12 0.43 c p3
342.51 506.63 0.43 c p3
342.65 508.35 0.43 c p3
342.80 508.10 0.43 c p3
342.95 506.87 0.43 c p3
343.09 508.59 0.43 c p3
343.24 507.36 0.43 c p3
343.38 506.87 0.43 c p3
343.53 508.10 0.43 c p3
343.67 506.87 0.43 c p3
343.82 508.59 0.43 c p3
343.97 506.63 0.43 c p3
344.11 507.36 0.43 c p3
344.26 507.12 0.43 c p3
344.40 507.36 0.43 c p3
344.55 507.36 0.43 c p3
344.69 507.86 0.43 c p3
344.84 507.36 0.43 c p3
344.98 506.63 0.43 c p3
345.13 507.12 0.43 c p3
345.28 508.35 0.43 c p3
345.42 508.35 0.43 c p3
345.57 508.35 0.43 c p3
345.71 507.12 0.43 c p3
345.86 506.87 0.43 c p3
346.00 507.36 0.43 c p3
346.15 507.36 0.43 c p3
346.29 507.36 0.43 c p3
346.44 508.35 0.43 c p3
346.59 507.61 0.43 c p3
346.73 507.12 0.43 c p3
346.88 507.12 0.43 c p3
347.02 507.86 0.43 c p3
347.17 508.59 0.43 c p3
347.31 507.36 0.43 c p3
347.46 508.10 0.43 c p3
347.60 508.59 0.43 c p3
347.75 506.87 0.43 c p3
347.90 508.84 0.43 c p3
348.04 507.61 0.43 c p3
348.19 508.10 0.43 c p3
348.33 508.35 0.43 c p3
348.48 508.35 0.43 c p3
348.62 508.10 0.43 c p3
348.77 508.59 0.43 c p3
348.92 508.59 0.43 c p3
349.06 507.61 0.43 c p3
349.21 507.36 0.43 c p3
349.35 508.84 0.43 c p3
349.50 508.59 0.43 c p3
349.64 507.12 0.43 c p3
349.79 508.59 0.43 c p3
349.93 507.36 0.43 c p3
350.08 508.84 0.43 c p3
350.23 508.84 0.43 c p3
350.37 508.35 0.43 c p3
350.52 508.84 0.43 c p3
350.66 508.84 0.43 c p3
350.81 508.84 0.43 c p3
350.95 508.10 0.43 c p3
351.10 508.35 0.43 c p3
351.24 509.09 0.43 c p3
351.39 508.35 0.43 c p3
351.54 509.33 0.43 c p3
351.68 508.10 0.43 c p3
351.83 508.59 0.43 c p3
351.97 509.33 0.43 c p3
352.12 508.59 0.43 c p3
352.26 509.33 0.43 c p3
352.41 508.59 0.43 c p3
352.55 508.35 0.43 c p3
352.70 509.83 0.43 c p3
352.85 507.36 0.43 c p3
352.99 508.59 0.43 c p3
353.14 509.09 0.43 c p3
353.28 508.84 0.43 c p3
353.43 509.09 0.43 c p3
353.57 508.84 0.43 c p3
353.72 509.09 0.43 c p3
353.86 508.10 0.43 c p3
354.01 508.35 0.43 c p3
354.16 509.58 0.43 c p3
354.30 510.52 0.43 c p3
354.45 508.84 0.43 c p3
354.59 509.58 0.43 c p3
354.74 508.10 0.43 c p3
354.88 508.35 0.43 c p3
355.03 508.35 0.43 c p3
355.18 507.61 0.43 c p3
355.32 509.09 0.43 c p3
355.47 508.35 0.43 c p3
355.61 508.84 0.43 c p3
355.76 508.10 0.43 c p3
355.90 509.83 0.43 c p3
356.05 509.09 0.43 c p3
356.19 507.86 0.43 c p3
356.34 509.09 0.43 c p3
356.49 509.58 0.43 c p3
356.63 509.83 0.43 c p3
356.78 508.35 0.43 c p3
356.92 509.33 0.43 c p3
357.07 510.07 0.43 c p3
357.21 509.09 0.43 c p3
357.36 509.83 0.43 c p3
357.50 509.09 0.43 c p3
357.65 508.84 0.43 c p3
357.80 510.28 0.43 c p3
357.94 507.86 0.43 c p3
358.09 508.59 0.43 c p3
358.23 509.83 0.43 c p3
358.38 509.83 0.43 c p3
358.52 507.61 0.43 c p3
358.67 511.51 0.43 c p3
358.81 509.09 0.43 c p3
358.96 508.35 0.43 c p3
359.11 509.33 0.43 c p3
359.25 508.59 0.43 c p3
359.40 508.84 0.43 c p3
359.54 509.09 0.43 c p3
359.69 509.58 0.43 c p3
359.83 508.35 0.43 c p3
359.98 510.28 0.43 c p3
360.13 509.83 0.43 c p3
360.27 508.84 0.43 c p3
360.42 509.33 0.43 c p3
360.56 510.77 0.43 c p3
360.71 508.84 0.43 c p3
360.85 509.33 0.43 c p3
361.00 510.07 0.43 c p3
361.14 508.59 0.43 c p3
361.29 510.28 0.43 c p3
361.44 510.77 0.43 c p3
361.58 510.28 0.43 c p3
361.73 509.58 0.43 c p3
361.87 508.59 0.43 c p3
362.02 510.52 0.43 c p3
362.16 510.07 0.43 c p3
362.31 509.58 0.43 c p3
362.45 509.83 0.43 c p3
362.60 510.77 0.43 c p3
362.75 509.33 0.43 c p3
362.89 510.28 0.43 c p3
363.04 509.83 0.43 c p3
363.18 509.58 0.43 c p3
363.33 509.58 0.43 c p3
363.47 509.09 0.43 c p3
363.62 511.02 0.43 c p3
363.76 510.07 0.43 c p3
363.91 510.77 0.43 c p3
364.06 510.28 0.43 c p3
364.20 509.58 0.43 c p3
364.35 509.09 0.43 c p3
364.49 510.52 0.43 c p3
364.64 509.58 0.43 c p3
364.78 509.83 0.43 c p3
364.93 511.02 0.43 c p3
365.08 510.28 0.43 c p3
365.22 511.02 0.43 c p3
365.37 509.83 0.43 c p3
365.51 509.58 0.43 c p3
365.66 510.28 0.43 c p3
365.80 509.83 0.43 c p3
365.95 511.02 0.43 c p3
366.09 509.09 0.43 c p3
366.24 510.07 0.43 c p3
366.39 510.28 0.43 c p3
366.53 509.83 0.43 c p3
366.68 509.58 0.43 c p3
366.82 509.83 0.43 c p3
366.97 509.83 0.43 c p3
367.11 510.52 0.43 c p3
367.26 511.02 0.43 c p3
367.40 510.77 0.43 c p3
367.55 509.58 0.43 c p3
367.70 509.33 0.43 c p3
367.84 511.02 0.43 c p3
367.99 510.77 0.43 c p3
368.13 508.35 0.43 c p3
368.28 510.28 0.43 c p3
368.42 511.02 0.43 c p3
368.57 510.07 0.43 c p3
368.71 509.83 0.43 c p3
368.86 510.52 0.43 c p3
369.01 509.83 0.43 c p3
369.15 511.02 0.43 c p3
369.30 509.33 0.43 c p3
369.44 509.83 0.43 c p3
369.59 509.58 0.43 c p3
369.73 510.52 0.43 c p3
369.88 510.77 0.43 c p3
370.03 510.52 0.43 c p3
370.17 511.51 0.43 c p3
370.32 512.00 0.43 c p3
370.46 510.77 0.43 c p3
370.61 510.28 0.43 c p3
370.75 510.28 0.43 c p3
370.90 510.28 0.43 c p3
371.04 511.51 0.43 c p3
371.19 510.77 0.43 c p3
371.34 511.26 0.43 c p3
371.48 510.28 0.43 c p3
371.63 510.52 0.43 c p3
371.77 511.02 0.43 c p3
371.92 510.28 0.43 c p3
372.06 509.58 0.43 c p3
372.21 510.52 0.43 c p3
372.35 510.77 0.43 c p3
372.50 511.02 0.43 c p3
372.65 511.26 0.43 c p3
372.79 509.58 0.43 c p3
372.94 510.52 0.43 c p3
373.08 510.52 0.43 c p3
373.23 511.26 0.43 c p3
373.37 510.07 0.43 c p3
373.52 511.51 0.43 c p3
373.66 511.75 0.43 c p3
373.81 510.28 0.43 c p3
373.96 510.07 0.43 c p3
374.10 511.02 0.43 c p3
374.25 510.07 0.43 c p3
374.39 511.02 0.43 c p3
374.54 510.52 0.43 c p3
374.68 510.28 0.43 c p3
374.83 511.75 0.43 c p3
374.98 509.09 0.43 c p3
375.12 510.07 0.43 c p3
375.27 508.59 0.43 c p3
375.41 510.77 0.43 c p3
375.56 509.83 0.43 c p3
375.70 510.28 0.43 c p3
375.85 510.77 0.43 c p3
375.99 510.77 0.43 c p3
376.14 510.07 0.43 c p3
376.29 510.77 0.43 c p3
376.43 510.07 0.43 c p3
376.58 510.07 0.43 c p3
376.72 511.51 0.43 c p3
376.87 510.07 0.43 c p3
377.01 511.51 0.43 c p3
377.16 510.07 0.43 c p3
377.30 509.83 0.43 c p3
377.45 510.28 0.43 c p3
377.60 511.02 0.43 c p3
377.74 510.07 0.43 c p3
377.89 511.02 0.43 c p3
378.03 511.26 0.43 c p3
378.18 509.83 0.43 c p3
378.32 511.26 0.43 c p3
378.47 510.77 0.43 c p3
378.61 510.77 0.43 c p3
378.76 511.02 0.43 c p3
378.91 510.28 0.43 c p3
379.05 511.26 0.43 c p3
379.20 511.26 0.43 c p3
379.34 511.02 0.43 c p3
379.49 510.77 0.43 c p3
379.63 509.33 0.43 c p3
379.78 510.07 0.43 c p3
379.93 510.52 0.43 c p3
380.07 511.26 0.43 c p3
380.22 511.26 0.43 c p3
380.36 510.52 0.43 c p3
380.51 510.77 0.43 c p3
380.65 510.07 0.43 c p3
380.80 510.52 0.43 c p3
380.94 511.26 0.43 c p3
381.09 511.75 0.43 c p3
381.24 510.77 0.43 c p3
381.38 510.77 0.43 c p3
381.53 510.52 0.43 c p3
381.67 511.02 0.43 c p3
381.82 509.83 0.43 c p3
381.96 511.51 0.43 c p3
382.11 511.02 0.43 c p3
382.25 511.02 0.43 c p3
382.40 511.51 0.43 c p3
0.00 0.00 432.00 576.00 cl
0 0 0 srgb
0.75 setlinewidth
[] 0 setdash
1 setlinecap
1 setlinejoin
10.00 setmiterlimit
np
236.96 345.60 m
132.35 0 l
o
np
236.96 345.60 m
0 -5.76 l
o
np
270.05 345.60 m
0 -5.76 l
o
np
303.13 345.60 m
0 -5.76 l
o
np
336.22 345.60 m
0 -5.76 l
o
np
369.31 345.60 m
0 -5.76 l
o
/Font1 findfont 10 s
236.96 329.47 (0) .5 0 t
270.05 329.47 (5000) .5 0 t
336.22 329.47 (15000) .5 0 t
np
216.00 352.00 m
0 134.43 l
o
np
216.00 352.00 m
-5.76 0 l
o
np
216.00 385.61 m
-5.76 0 l
o
np
216.00 419.21 m
-5.76 0 l
o
np
216.00 452.82 m
-5.76 0 l
o
np
216.00 486.43 m
-5.76 0 l
o
209.09 348.41 (0.00) 1 0 t
209.09 382.02 (0.05) 1 0 t
209.09 415.62 (0.10) 1 0 t
209.09 449.23 (0.15) 1 0 t
209.09 482.84 (0.20) 1 0 t
np
216.00 345.60 m
172.80 0 l
0 172.80 l
-172.80 0 l
0 -172.80 l
o
0.00 0.00 432.00 576.00 cl
/Font1 findfont 10 s
0 0 0 srgb
302.40 313.34 (Time / ms \(total\)) .5 0 t
190.66 432.00 (U / V) .5 90 t
216.00 345.60 388.80 518.40 cl
0 0 0 srgb
0.38 setlinewidth
[ 1.13 1.88] 0 setdash
1 setlinecap
1 setlinejoin
10.00 setmiterlimit
np
222.40 345.60 m
0 172.80 l
o
np
235.94 345.60 m
0 172.80 l
o
np
238.85 345.60 m
0 172.80 l
o
np
334.94 345.60 m
0 172.80 l
o
86.40 57.60 388.80 288.00 cl
1 0 0 srgb
1.50 setlinewidth
[] 0 setdash
1 setlinecap
1 setlinejoin
10.00 setmiterlimit
np
97.60 279.47 m
1.41 -5.41 l
1.40 -5.27 l
1.41 -5.13 l
1.41 -5.01 l
1.41 -4.88 l
1.40 -4.76 l
1.41 -4.63 l
1.41 -4.53 l
1.40 -4.40 l
1.41 -4.30 l
1.41 -4.19 l
1.40 -4.08 l
1.41 -3.98 l
1.41 -3.88 l
1.41 -3.78 l
1.40 -3.69 l
1.41 -3.59 l
1.41 -3.51 l
1.40 -3.41 l
1.41 -3.33 l
1.41 -3.25 l
1.40 -3.16 l
1.41 -3.08 l
1.41 -3.01 l
1.41 -2.93 l
1.40 -2.86 l
1.41 -2.78 l
1.41 -2.72 l
1.40 -2.65 l
1.41 -2.58 l
1.41 -2.51 l
1.41 -2.45 l
1.40 -2.39 l
1.41 -2.33 l
1.41 -2.27 l
1.40 -2.22 l
1.41 -2.16 l
1.41 -2.10 l
1.40 -2.05 l
1.41 -2.00 l
1.41 -1.95 l
1.41 -1.90 l
1.40 -1.85 l
1.41 -1.81 l
1.41 -1.76 l
1.40 -1.71 l
1.41 -1.68 l
1.41 -1.63 l
1.40 -1.59 l
1.41 -1.54 l
1.41 -1.52 l
1.41 -1.47 l
1.40 -1.43 l
1.41 -1.40 l
1.41 -1.37 l
1.40 -1.33 l
1.41 -1.29 l
1.41 -1.27 l
1.41 -1.23 l
1.40 -1.20 l
1.41 -1.17 l
1.41 -1.14 l
1.40 -1.11 l
1.41 -1.09 l
1.41 -1.05 l
1.40 -1.03 l
1.41 -1.01 l
1.41 -0.98 l
1.41 -0.95 l
1.40 -0.93 l
1.41 -0.91 l
1.41 -0.88 l
1.40 -0.86 l
1.41 -0.84 l
1.41 -0.82 l
1.40 -0.80 l
1.41 -0.78 l
1.41 -0.76 l
1.41 -0.74 l
1.40 -0.72 l
1.41 -0.70 l
1.41 -0.69 l
1.40 -0.67 l
1.41 -0.65 l
1.41 -0.63 l
1.41 -0.62 l
1.40 -0.60 l
1.41 -0.59 l
1.41 -0.58 l
1.40 -0.55 l
1.41 -0.55 l
1.41 -0.53 l
1.40 -0.52 l
1.41 -0.50 l
1.41 -0.49 l
1.41 -0.48 l
1.40 -0.47 l
1.41 -0.46 l
1.41 -0.44 l
238.30 81.56 lineto
1.41 -0.43 l
1.41 -0.41 l
1.40 -0.40 l
1.41 -0.39 l
1.41 -0.38 l
1.41 -0.37 l
1.40 -0.36 l
1.41 -0.36 l
1.41 -0.34 l
1.40 -0.34 l
1.41 -0.32 l
1.41 -0.32 l
1.40 -0.31 l
1.41 -0.31 l
1.41 -0.29 l
1.41 -0.29 l
1.40 -0.28 l
1.41 -0.27 l
1.41 -0.27 l
1.40 -0.26 l
1.41 -0.25 l
1.41 -0.25 l
1.41 -0.24 l
1.40 -0.24 l
1.41 -0.23 l
1.41 -0.22 l
1.40 -0.22 l
1.41 -0.21 l
1.41 -0.21 l
1.40 -0.20 l
1.41 -0.19 l
1.41 -0.20 l
1.41 -0.18 l
1.40 -0.18 l
1.41 -0.18 l
1.41 -0.17 l
1.40 -0.17 l
1.41 -0.17 l
1.41 -0.16 l
1.40 -0.15 l
1.41 -0.16 l
1.41 -0.14 l
1.41 -0.15 l
1.40 -0.14 l
1.41 -0.14 l
1.41 -0.13 l
1.40 -0.13 l
1.41 -0.13 l
1.41 -0.12 l
1.41 -0.12 l
1.40 -0.12 l
1.41 -0.12 l
1.41 -0.11 l
1.40 -0.11 l
1.41 -0.11 l
1.41 -0.10 l
1.40 -0.10 l
1.41 -0.10 l
1.41 -0.10 l
1.41 -0.09 l
1.40 -0.09 l
1.41 -0.09 l
1.41 -0.09 l
1.40 -0.08 l
1.41 -0.08 l
1.41 -0.08 l
1.40 -0.08 l
1.41 -0.08 l
1.41 -0.07 l
1.41 -0.08 l
1.40 -0.07 l
1.41 -0.07 l
1.41 -0.06 l
1.40 -0.07 l
1.41 -0.06 l
1.41 -0.07 l
1.41 -0.06 l
1.40 -0.06 l
1.41 -0.05 l
1.41 -0.06 l
1.40 -0.05 l
1.41 -0.06 l
1.41 -0.05 l
1.40 -0.05 l
1.41 -0.05 l
1.41 -0.05 l
1.41 -0.05 l
1.40 -0.04 l
1.41 -0.05 l
1.41 -0.04 l
1.40 -0.04 l
1.41 -0.04 l
1.41 -0.04 l
1.40 -0.04 l
1.41 -0.04 l
1.41 -0.04 l
1.41 -0.04 l
1.40 -0.03 l
1.41 -0.04 l
o
0.00 0.00 432.00 576.00 cl
0 0 0 srgb
0.75 setlinewidth
[] 0 setdash
1 setlinecap
1 setlinejoin
10.00 setmiterlimit
np
97.60 57.60 m
254.55 0 l
o
np
97.60 57.60 m
0 -5.76 l
o
np
161.24 57.60 m
0 -5.76 l
o
np
224.87 57.60 m
0 -5.76 l
o
np
288.51 57.60 m
0 -5.76 l
o
np
352.15 57.60 m
0 -5.76 l
o
/Font1 findfont 10 s
97.60 41.47 (0) .5 0 t
161.24 41.47 (5000) .5 0 t
224.87 41.47 (10000) .5 0 t
288.51 41.47 (15000) .5 0 t
352.15 41.47 (20000) .5 0 t
np
86.40 86.72 m
0 175.45 l
o
np
86.40 86.72 m
-5.76 0 l
o
np
86.40 130.58 m
-5.76 0 l
o
np
86.40 174.45 m
-5.76 0 l
o
np
86.40 218.31 m
-5.76 0 l
o
np
86.40 262.17 m
-5.76 0 l
o
79.49 83.13 (0.00) 1 0 t
79.49 126.99 (0.05) 1 0 t
79.49 170.86 (0.10) 1 0 t
79.49 214.72 (0.15) 1 0 t
79.49 258.58 (0.20) 1 0 t
np
86.40 57.60 m
302.40 0 l
0 230.40 l
-302.40 0 l
0 -230.40 l
o
0.00 0.00 432.00 576.00 cl
/Font1 findfont 10 s
0 0 0 srgb
237.60 13.82 (Time / ms \(after pulse\)) .5 0 t
49.54 172.80 (Absorbance A) .5 90 t
86.40 57.60 388.80 288.00 cl
/bg { 1 1 1 srgb } def
0 0 0 srgb
0.75 setlinewidth
[] 0 setdash
1 setlinecap
1 setlinejoin
10.00 setmiterlimit
101.52 268.32 0.65 c p3
101.80 263.38 0.65 c p3
102.08 261.36 0.65 c p3
102.36 264.23 0.65 c p3
102.64 261.36 0.65 c p3
102.92 261.36 0.65 c p3
103.20 258.34 0.65 c p3
103.48 266.26 0.65 c p3
103.76 259.35 0.65 c p3
104.04 252.39 0.65 c p3
104.32 250.42 0.65 c p3
104.60 256.35 0.65 c p3
104.88 255.35 0.65 c p3
105.16 248.46 0.65 c p3
105.44 252.39 0.65 c p3
105.72 254.36 0.65 c p3
106.00 251.40 0.65 c p3
106.28 247.49 0.65 c p3
106.56 249.44 0.65 c p3
106.84 241.70 0.65 c p3
107.12 248.46 0.65 c p3
107.40 249.44 0.65 c p3
107.68 240.74 0.65 c p3
107.96 239.79 0.65 c p3
108.24 242.66 0.65 c p3
108.52 242.66 0.65 c p3
108.80 244.58 0.65 c p3
109.08 238.83 0.65 c p3
109.36 237.10 0.65 c p3
109.64 241.70 0.65 c p3
109.92 233.33 0.65 c p3
110.20 228.67 0.65 c p3
110.48 238.83 0.65 c p3
110.76 236.15 0.65 c p3
111.04 236.15 0.65 c p3
111.32 234.27 0.65 c p3
111.60 230.53 0.65 c p3
111.88 228.67 0.65 c p3
112.16 230.53 0.65 c p3
112.44 225.90 0.65 c p3
112.72 227.74 0.65 c p3
113.00 226.82 0.65 c p3
113.28 225.90 0.65 c p3
113.56 224.07 0.65 c p3
113.84 227.74 0.65 c p3
114.12 218.62 0.65 c p3
114.40 222.24 0.65 c p3
114.68 220.43 0.65 c p3
114.96 221.33 0.65 c p3
115.24 222.24 0.65 c p3
115.52 216.82 0.65 c p3
115.80 221.33 0.65 c p3
116.08 215.92 0.65 c p3
116.36 216.82 0.65 c p3
116.64 220.43 0.65 c p3
116.92 214.14 0.65 c p3
117.20 215.03 0.65 c p3
117.48 209.85 0.65 c p3
117.76 216.82 0.65 c p3
118.04 211.62 0.65 c p3
118.32 212.51 0.65 c p3
118.60 213.25 0.65 c p3
118.88 209.85 0.65 c p3
119.16 209.85 0.65 c p3
119.44 208.10 0.65 c p3
119.72 209.85 0.65 c p3
120.00 205.47 0.65 c p3
120.28 207.22 0.65 c p3
120.56 207.22 0.65 c p3
120.84 202.87 0.65 c p3
121.12 203.73 0.65 c p3
121.40 202.87 0.65 c p3
121.68 202.00 0.65 c p3
121.96 200.28 0.65 c p3
122.24 200.28 0.65 c p3
122.52 200.28 0.65 c p3
122.80 200.28 0.65 c p3
123.08 201.14 0.65 c p3
123.36 200.28 0.65 c p3
123.64 197.71 0.65 c p3
123.92 194.31 0.65 c p3
124.20 196.01 0.65 c p3
124.48 195.16 0.65 c p3
124.76 194.31 0.65 c p3
125.04 196.01 0.65 c p3
125.32 195.16 0.65 c p3
125.60 196.01 0.65 c p3
125.88 191.78 0.65 c p3
126.16 192.63 0.65 c p3
126.44 192.63 0.65 c p3
126.72 187.74 0.65 c p3
127.00 189.41 0.65 c p3
127.28 186.91 0.65 c p3
127.56 189.41 0.65 c p3
127.84 190.94 0.65 c p3
128.12 188.57 0.65 c p3
128.40 191.78 0.65 c p3
128.68 186.08 0.65 c p3
128.96 186.91 0.65 c p3
129.24 183.61 0.65 c p3
129.52 181.97 0.65 c p3
129.80 185.26 0.65 c p3
130.08 180.33 0.65 c p3
130.36 183.61 0.65 c p3
130.64 183.61 0.65 c p3
130.92 182.79 0.65 c p3
131.20 178.70 0.65 c p3
131.48 182.79 0.65 c p3
131.76 177.89 0.65 c p3
132.04 180.33 0.65 c p3
132.32 177.89 0.65 c p3
132.60 176.27 0.65 c p3
132.88 177.89 0.65 c p3
133.16 175.47 0.65 c p3
133.44 181.15 0.65 c p3
133.72 173.06 0.65 c p3
134.00 177.08 0.65 c p3
134.28 175.47 0.65 c p3
134.56 174.67 0.65 c p3
134.84 177.08 0.65 c p3
135.12 173.06 0.65 c p3
135.40 168.29 0.65 c p3
135.68 172.26 0.65 c p3
135.96 173.86 0.65 c p3
136.24 172.26 0.65 c p3
136.52 173.06 0.65 c p3
136.80 167.63 0.65 c p3
137.08 169.87 0.65 c p3
137.36 169.08 0.65 c p3
137.64 167.63 0.65 c p3
137.92 169.87 0.65 c p3
138.20 165.27 0.65 c p3
138.48 169.08 0.65 c p3
138.76 166.06 0.65 c p3
139.04 166.06 0.65 c p3
139.32 163.71 0.65 c p3
139.60 164.49 0.65 c p3
139.88 162.93 0.65 c p3
140.16 163.71 0.65 c p3
140.44 160.60 0.65 c p3
140.72 163.71 0.65 c p3
141.00 161.37 0.65 c p3
141.28 163.71 0.65 c p3
141.56 163.71 0.65 c p3
141.84 165.27 0.65 c p3
142.12 159.82 0.65 c p3
142.40 163.71 0.65 c p3
142.68 159.82 0.65 c p3
142.96 162.15 0.65 c p3
143.24 159.82 0.65 c p3
143.52 160.60 0.65 c p3
143.80 155.98 0.65 c p3
144.08 156.75 0.65 c p3
144.36 157.51 0.65 c p3
144.64 153.69 0.65 c p3
144.92 155.98 0.65 c p3
145.20 161.37 0.65 c p3
145.48 155.98 0.65 c p3
145.76 155.22 0.65 c p3
146.04 155.22 0.65 c p3
146.32 153.69 0.65 c p3
146.60 152.17 0.65 c p3
146.88 150.66 0.65 c p3
147.16 152.17 0.65 c p3
147.44 149.16 0.65 c p3
147.72 151.42 0.65 c p3
148.00 153.69 0.65 c p3
148.28 149.91 0.65 c p3
148.56 149.91 0.65 c p3
148.84 152.93 0.65 c p3
149.12 148.41 0.65 c p3
149.40 147.78 0.65 c p3
149.68 150.66 0.65 c p3
149.96 148.41 0.65 c p3
150.24 143.32 0.65 c p3
150.52 147.03 0.65 c p3
150.80 147.03 0.65 c p3
151.08 148.41 0.65 c p3
151.36 145.54 0.65 c p3
151.64 144.80 0.65 c p3
151.92 147.03 0.65 c p3
152.20 141.10 0.65 c p3
152.48 142.57 0.65 c p3
152.76 143.32 0.65 c p3
153.04 144.06 0.65 c p3
153.32 145.54 0.65 c p3
153.60 142.57 0.65 c p3
153.88 142.57 0.65 c p3
154.16 142.57 0.65 c p3
154.44 140.37 0.65 c p3
154.72 140.37 0.65 c p3
155.00 141.10 0.65 c p3
155.28 138.90 0.65 c p3
155.56 139.63 0.65 c p3
155.84 140.37 0.65 c p3
156.12 142.57 0.65 c p3
156.40 138.90 0.65 c p3
156.68 141.84 0.65 c p3
156.96 138.90 0.65 c p3
157.24 136.71 0.65 c p3
157.52 138.17 0.65 c p3
157.80 135.26 0.65 c p3
158.08 133.09 0.65 c p3
158.36 136.71 0.65 c p3
158.64 134.54 0.65 c p3
158.92 132.37 0.65 c p3
159.20 135.26 0.65 c p3
159.48 135.26 0.65 c p3
159.76 135.26 0.65 c p3
160.04 136.71 0.65 c p3
160.32 130.22 0.65 c p3
160.60 135.26 0.65 c p3
160.88 133.09 0.65 c p3
161.16 133.09 0.65 c p3
161.44 131.65 0.65 c p3
161.72 131.65 0.65 c p3
162.00 134.54 0.65 c p3
162.28 131.65 0.65 c p3
162.56 129.51 0.65 c p3
162.84 128.79 0.65 c p3
163.12 127.49 0.65 c p3
163.40 129.51 0.65 c p3
163.68 127.49 0.65 c p3
163.96 129.51 0.65 c p3
164.24 130.94 0.65 c p3
164.52 128.79 0.65 c p3
164.80 128.20 0.65 c p3
165.08 126.78 0.65 c p3
165.36 127.49 0.65 c p3
165.64 126.78 0.65 c p3
165.92 127.49 0.65 c p3
166.20 128.20 0.65 c p3
166.48 126.07 0.65 c p3
166.76 126.07 0.65 c p3
167.04 127.49 0.65 c p3
167.32 124.66 0.65 c p3
167.60 126.78 0.65 c p3
167.88 122.55 0.65 c p3
168.16 125.37 0.65 c p3
168.44 124.66 0.65 c p3
168.72 124.66 0.65 c p3
169.00 121.16 0.65 c p3
169.28 122.55 0.65 c p3
169.56 123.25 0.65 c p3
169.84 123.25 0.65 c p3
170.12 123.96 0.65 c p3
170.40 123.96 0.65 c p3
170.68 124.66 0.65 c p3
170.96 122.55 0.65 c p3
171.24 121.85 0.65 c p3
171.52 120.46 0.65 c p3
171.80 120.46 0.65 c p3
172.08 123.25 0.65 c p3
172.36 119.07 0.65 c p3
172.64 119.76 0.65 c p3
172.92 123.96 0.65 c p3
173.20 117.68 0.65 c p3
173.48 114.92 0.65 c p3
173.76 121.16 0.65 c p3
174.04 119.07 0.65 c p3
174.32 118.37 0.65 c p3
174.60 115.61 0.65 c p3
174.88 117.68 0.65 c p3
175.16 118.37 0.65 c p3
175.44 116.99 0.65 c p3
175.72 118.37 0.65 c p3
176.00 115.61 0.65 c p3
176.28 119.07 0.65 c p3
176.56 117.68 0.65 c p3
176.84 114.92 0.65 c p3
177.12 115.61 0.65 c p3
177.40 114.92 0.65 c p3
177.68 114.24 0.65 c p3
177.96 116.99 0.65 c p3
178.24 115.61 0.65 c p3
178.52 117.68 0.65 c p3
178.80 110.14 0.65 c p3
179.08 112.18 0.65 c p3
179.36 112.18 0.65 c p3
179.64 112.18 0.65 c p3
179.92 114.24 0.65 c p3
180.20 114.24 0.65 c p3
180.48 114.92 0.65 c p3
180.76 111.50 0.65 c p3
181.04 112.18 0.65 c p3
181.32 114.24 0.65 c p3
181.60 112.18 0.65 c p3
181.88 108.90 0.65 c p3
182.16 105.54 0.65 c p3
182.44 112.87 0.65 c p3
182.72 109.58 0.65 c p3
183.00 111.50 0.65 c p3
183.28 110.14 0.65 c p3
183.56 108.23 0.65 c p3
183.84 110.14 0.65 c p3
184.12 110.14 0.65 c p3
184.40 108.23 0.65 c p3
184.68 112.18 0.65 c p3
184.96 110.82 0.65 c p3
185.24 107.55 0.65 c p3
185.52 106.21 0.65 c p3
185.80 106.88 0.65 c p3
186.08 112.18 0.65 c p3
186.36 107.55 0.65 c p3
186.64 106.21 0.65 c p3
186.92 105.54 0.65 c p3
187.20 104.87 0.65 c p3
187.48 110.14 0.65 c p3
187.76 104.20 0.65 c p3
188.04 109.58 0.65 c p3
188.32 108.23 0.65 c p3
188.60 104.20 0.65 c p3
188.88 104.87 0.65 c p3
189.16 108.23 0.65 c p3
189.44 106.21 0.65 c p3
189.72 104.20 0.65 c p3
190.00 102.87 0.65 c p3
190.28 104.20 0.65 c p3
190.56 106.21 0.65 c p3
190.84 102.87 0.65 c p3
191.12 104.20 0.65 c p3
191.40 104.20 0.65 c p3
191.68 103.53 0.65 c p3
191.96 103.53 0.65 c p3
192.24 101.54 0.65 c p3
192.52 104.87 0.65 c p3
192.80 104.87 0.65 c p3
193.08 104.87 0.65 c p3
193.36 100.21 0.65 c p3
193.64 102.87 0.65 c p3
193.92 103.53 0.65 c p3
194.20 101.54 0.65 c p3
194.48 102.87 0.65 c p3
194.76 102.87 0.65 c p3
195.04 100.87 0.65 c p3
195.32 102.87 0.65 c p3
195.60 100.21 0.65 c p3
195.88 100.21 0.65 c p3
196.16 101.54 0.65 c p3
196.44 96.92 0.65 c p3
196.72 101.54 0.65 c p3
197.00 97.58 0.65 c p3
197.28 99.55 0.65 c p3
197.56 99.55 0.65 c p3
197.84 98.23 0.65 c p3
198.12 100.21 0.65 c p3
198.40 99.55 0.65 c p3
198.68 98.89 0.65 c p3
198.96 98.23 0.65 c p3
199.24 99.55 0.65 c p3
199.52 98.23 0.65 c p3
199.80 96.92 0.65 c p3
200.08 102.20 0.65 c p3
200.36 96.92 0.65 c p3
200.64 100.21 0.65 c p3
200.92 96.27 0.65 c p3
201.20 103.53 0.65 c p3
201.48 96.27 0.65 c p3
201.76 98.23 0.65 c p3
202.04 95.61 0.65 c p3
202.32 97.58 0.65 c p3
202.60 100.21 0.65 c p3
202.88 95.61 0.65 c p3
203.16 97.58 0.65 c p3
203.44 94.96 0.65 c p3
203.72 94.96 0.65 c p3
204.00 93.66 0.65 c p3
204.28 94.31 0.65 c p3
204.56 97.58 0.65 c p3
204.84 93.66 0.65 c p3
205.12 97.58 0.65 c p3
205.40 92.36 0.65 c p3
205.68 94.96 0.65 c p3
205.96 94.31 0.65 c p3
206.24 92.36 0.65 c p3
206.52 96.92 0.65 c p3
206.80 93.01 0.65 c p3
207.08 94.31 0.65 c p3
207.36 96.27 0.65 c p3
207.64 93.01 0.65 c p3
207.92 92.36 0.65 c p3
208.20 89.89 0.65 c p3
208.48 91.82 0.65 c p3
208.76 93.01 0.65 c p3
209.04 93.01 0.65 c p3
209.32 91.18 0.65 c p3
209.60 91.18 0.65 c p3
209.88 96.27 0.65 c p3
210.16 90.53 0.65 c p3
210.44 93.01 0.65 c p3
210.72 94.31 0.65 c p3
211.00 93.01 0.65 c p3
211.28 91.18 0.65 c p3
211.56 91.82 0.65 c p3
211.84 93.66 0.65 c p3
212.12 92.36 0.65 c p3
212.40 91.82 0.65 c p3
212.68 90.53 0.65 c p3
212.96 93.01 0.65 c p3
213.24 88.61 0.65 c p3
213.52 87.97 0.65 c p3
213.80 91.18 0.65 c p3
214.08 91.82 0.65 c p3
214.36 89.89 0.65 c p3
214.64 87.97 0.65 c p3
214.92 93.66 0.65 c p3
215.20 91.82 0.65 c p3
215.48 91.18 0.65 c p3
215.76 90.53 0.65 c p3
216.04 91.18 0.65 c p3
216.32 91.18 0.65 c p3
216.60 89.25 0.65 c p3
216.88 86.69 0.65 c p3
217.16 88.61 0.65 c p3
217.44 94.31 0.65 c p3
217.72 87.97 0.65 c p3
218.00 91.18 0.65 c p3
218.28 89.25 0.65 c p3
218.56 89.25 0.65 c p3
218.84 89.89 0.65 c p3
219.12 88.61 0.65 c p3
219.40 88.61 0.65 c p3
219.68 87.97 0.65 c p3
219.96 88.61 0.65 c p3
220.24 87.33 0.65 c p3
220.52 89.89 0.65 c p3
220.80 90.53 0.65 c p3
221.08 87.97 0.65 c p3
221.36 87.33 0.65 c p3
221.64 87.33 0.65 c p3
221.92 85.41 0.65 c p3
222.20 89.89 0.65 c p3
222.48 85.41 0.65 c p3
222.76 85.41 0.65 c p3
223.04 85.41 0.65 c p3
223.32 84.14 0.65 c p3
223.60 89.25 0.65 c p3
223.88 87.33 0.65 c p3
224.16 86.05 0.65 c p3
224.44 85.41 0.65 c p3
224.72 85.41 0.65 c p3
225.00 84.78 0.65 c p3
225.28 86.05 0.65 c p3
225.56 87.33 0.65 c p3
225.84 86.05 0.65 c p3
226.12 87.33 0.65 c p3
226.40 86.05 0.65 c p3
226.68 86.05 0.65 c p3
226.96 84.78 0.65 c p3
227.24 84.78 0.65 c p3
227.52 85.41 0.65 c p3
227.80 84.14 0.65 c p3
228.08 86.69 0.65 c p3
228.36 84.78 0.65 c p3
228.64 86.69 0.65 c p3
228.92 84.14 0.65 c p3
229.20 86.05 0.65 c p3
229.48 84.78 0.65 c p3
229.76 84.78 0.65 c p3
230.04 87.33 0.65 c p3
230.32 81.62 0.65 c p3
230.60 84.14 0.65 c p3
230.88 84.14 0.65 c p3
231.16 81.62 0.65 c p3
231.44 84.14 0.65 c p3
231.72 88.61 0.65 c p3
232.00 82.25 0.65 c p3
232.28 83.51 0.65 c p3
232.56 81.62 0.65 c p3
232.84 84.14 0.65 c p3
233.12 82.25 0.65 c p3
233.40 83.51 0.65 c p3
233.68 84.14 0.65 c p3
233.96 82.88 0.65 c p3
234.24 84.78 0.65 c p3
234.52 86.69 0.65 c p3
234.80 81.62 0.65 c p3
235.08 80.36 0.65 c p3
235.36 82.88 0.65 c p3
235.64 83.51 0.65 c p3
235.92 81.62 0.65 c p3
236.20 83.51 0.65 c p3
236.48 81.62 0.65 c p3
236.76 80.99 0.65 c p3
237.04 81.62 0.65 c p3
237.32 82.88 0.65 c p3
237.60 82.25 0.65 c p3
237.88 83.51 0.65 c p3
238.16 84.78 0.65 c p3
238.44 82.88 0.65 c p3
238.72 82.88 0.65 c p3
239.00 80.99 0.65 c p3
239.28 80.99 0.65 c p3
239.56 82.25 0.65 c p3
239.84 78.48 0.65 c p3
240.12 81.62 0.65 c p3
240.40 80.99 0.65 c p3
240.68 81.62 0.65 c p3
240.96 80.99 0.65 c p3
241.24 76.00 0.65 c p3
241.52 82.25 0.65 c p3
241.80 82.88 0.65 c p3
242.08 80.36 0.65 c p3
242.36 80.36 0.65 c p3
242.64 80.99 0.65 c p3
242.92 85.41 0.65 c p3
243.20 82.88 0.65 c p3
243.48 81.62 0.65 c p3
243.76 79.74 0.65 c p3
244.04 81.62 0.65 c p3
244.32 80.99 0.65 c p3
244.60 79.11 0.65 c p3
244.88 81.62 0.65 c p3
245.16 80.36 0.65 c p3
245.44 77.86 0.65 c p3
245.72 80.36 0.65 c p3
246.00 80.36 0.65 c p3
246.28 81.62 0.65 c p3
246.56 78.48 0.65 c p3
246.84 80.99 0.65 c p3
247.12 82.88 0.65 c p3
247.40 78.48 0.65 c p3
247.68 79.74 0.65 c p3
247.96 80.36 0.65 c p3
248.24 79.11 0.65 c p3
248.52 79.11 0.65 c p3
248.80 78.48 0.65 c p3
249.08 79.74 0.65 c p3
249.36 77.24 0.65 c p3
249.64 77.24 0.65 c p3
249.92 78.48 0.65 c p3
250.20 77.24 0.65 c p3
250.48 80.99 0.65 c p3
250.76 80.36 0.65 c p3
251.04 79.11 0.65 c p3
251.32 77.24 0.65 c p3
251.60 83.51 0.65 c p3
251.88 78.48 0.65 c p3
252.16 77.24 0.65 c p3
252.44 79.74 0.65 c p3
252.72 77.24 0.65 c p3
253.00 77.86 0.65 c p3
253.28 75.38 0.65 c p3
253.56 78.48 0.65 c p3
253.84 77.24 0.65 c p3
254.12 78.48 0.65 c p3
254.40 76.00 0.65 c p3
254.68 79.11 0.65 c p3
254.96 74.24 0.65 c p3
255.24 77.86 0.65 c p3
255.52 80.36 0.65 c p3
255.80 75.38 0.65 c p3
256.08 78.48 0.65 c p3
256.36 77.24 0.65 c p3
256.64 77.24 0.65 c p3
256.92 78.48 0.65 c p3
257.20 77.86 0.65 c p3
257.48 75.38 0.65 c p3
257.76 76.62 0.65 c p3
258.04 77.24 0.65 c p3
258.32 76.00 0.65 c p3
258.60 76.62 0.65 c p3
258.88 74.24 0.65 c p3
259.16 80.36 0.65 c p3
259.44 74.24 0.65 c p3
259.72 77.86 0.65 c p3
260.00 76.00 0.65 c p3
260.28 75.38 0.65 c p3
260.56 76.62 0.65 c p3
260.84 75.38 0.65 c p3
261.12 73.01 0.65 c p3
261.40 73.63 0.65 c p3
261.68 76.62 0.65 c p3
261.96 76.00 0.65 c p3
262.24 77.86 0.65 c p3
262.52 77.86 0.65 c p3
262.80 76.00 0.65 c p3
263.08 75.38 0.65 c p3
263.36 77.24 0.65 c p3
263.64 71.17 0.65 c p3
263.92 74.86 0.65 c p3
264.20 74.86 0.65 c p3
264.48 73.01 0.65 c p3
264.76 73.01 0.65 c p3
265.04 76.62 0.65 c p3
265.32 76.00 0.65 c p3
265.60 74.86 0.65 c p3
265.88 77.86 0.65 c p3
266.16 76.00 0.65 c p3
266.44 76.62 0.65 c p3
266.72 72.39 0.65 c p3
267.00 74.24 0.65 c p3
267.28 73.63 0.65 c p3
267.56 76.00 0.65 c p3
267.84 79.11 0.65 c p3
268.12 75.38 0.65 c p3
268.40 75.38 0.65 c p3
268.68 76.62 0.65 c p3
268.96 75.38 0.65 c p3
269.24 73.63 0.65 c p3
269.52 70.56 0.65 c p3
269.80 75.38 0.65 c p3
270.08 73.63 0.65 c p3
270.36 74.24 0.65 c p3
270.64 74.24 0.65 c p3
270.92 73.01 0.65 c p3
271.20 75.38 0.65 c p3
271.48 73.01 0.65 c p3
271.76 73.63 0.65 c p3
272.04 73.01 0.65 c p3
272.32 75.38 0.65 c p3
272.60 72.39 0.65 c p3
272.88 71.17 0.65 c p3
273.16 73.01 0.65 c p3
273.44 71.78 0.65 c p3
273.72 71.78 0.65 c p3
274.00 72.39 0.65 c p3
274.28 73.63 0.65 c p3
274.56 71.17 0.65 c p3
274.84 72.39 0.65 c p3
275.12 76.00 0.65 c p3
275.40 71.17 0.65 c p3
275.68 73.63 0.65 c p3
275.96 70.56 0.65 c p3
276.24 69.95 0.65 c p3
276.52 71.78 0.65 c p3
276.80 71.78 0.65 c p3
277.08 72.39 0.65 c p3
277.36 74.86 0.65 c p3
277.64 70.56 0.65 c p3
277.92 73.01 0.65 c p3
278.20 71.78 0.65 c p3
278.48 72.39 0.65 c p3
278.76 73.01 0.65 c p3
279.04 70.56 0.65 c p3
279.32 71.17 0.65 c p3
279.60 71.78 0.65 c p3
279.88 71.17 0.65 c p3
280.16 69.95 0.65 c p3
280.44 69.34 0.65 c p3
280.72 77.86 0.65 c p3
281.00 71.17 0.65 c p3
281.28 74.24 0.65 c p3
281.56 71.17 0.65 c p3
281.84 71.78 0.65 c p3
282.12 68.12 0.65 c p3
282.40 73.63 0.65 c p3
282.68 72.39 0.65 c p3
282.96 67.51 0.65 c p3
283.24 67.51 0.65 c p3
283.52 73.01 0.65 c p3
283.80 70.56 0.65 c p3
284.08 71.78 0.65 c p3
284.36 69.95 0.65 c p3
284.64 74.86 0.65 c p3
284.92 69.34 0.65 c p3
285.20 70.56 0.65 c p3
285.48 71.78 0.65 c p3
285.76 70.56 0.65 c p3
286.04 68.73 0.65 c p3
286.32 69.34 0.65 c p3
216.00 201.60 367.20 247.68 cl
0 0 0 srgb
0.75 setlinewidth
[] 0 setdash
1 setlinecap
1 setlinejoin
10.00 setmiterlimit
221.60 230.62 0.43 c p1
221.81 224.05 0.43 c p1
222.02 222.35 0.43 c p1
222.24 228.83 0.43 c p1
222.45 225.69 0.43 c p1
222.66 227.35 0.43 c p1
222.87 223.96 0.43 c p1
223.08 238.86 0.43 c p1
223.30 228.92 0.43 c p1
223.51 218.89 0.43 c p1
223.72 217.22 0.43 c p1
223.93 228.75 0.43 c p1
224.15 228.69 0.43 c p1
224.36 218.75 0.43 c p1
224.57 226.90 0.43 c p1
224.78 231.79 0.43 c p1
224.99 228.40 0.43 c p1
225.21 223.42 0.43 c p1
225.42 228.23 0.43 c p1
225.63 216.82 0.43 c p1
225.84 229.68 0.43 c p1
226.05 232.85 0.43 c p1
226.27 219.81 0.43 c p1
226.48 219.73 0.43 c p1
226.69 226.04 0.43 c p1
226.90 227.54 0.43 c p1
227.12 232.26 0.43 c p1
227.33 224.12 0.43 c p1
227.54 222.69 0.43 c p1
227.75 231.86 0.43 c p1
227.96 219.31 0.43 c p1
228.18 212.97 0.43 c p1
228.39 231.43 0.43 c p1
228.60 228.37 0.43 c p1
228.81 229.81 0.43 c p1
229.02 228.08 0.43 c p1
229.24 223.24 0.43 c p1
229.45 221.55 0.43 c p1
229.66 226.05 0.43 c p1
229.87 219.71 0.43 c p1
230.08 224.18 0.43 c p1
230.30 224.02 0.43 c p1
230.51 223.86 0.43 c p1
230.72 222.16 0.43 c p1
230.93 229.67 0.43 c p1
231.15 215.75 0.43 c p1
231.36 223.17 0.43 c p1
231.57 221.47 0.43 c p1
231.78 224.32 0.43 c p1
231.99 227.17 0.43 c p1
232.21 219.42 0.43 c p1
232.42 228.29 0.43 c p1
232.63 220.54 0.43 c p1
232.84 223.34 0.43 c p1
233.05 230.67 0.43 c p1
233.27 221.43 0.43 c p1
233.48 224.20 0.43 c p1
233.69 216.82 0.43 c p1
233.90 229.75 0.43 c p1
234.12 222.30 0.43 c p1
234.33 225.05 0.43 c p1
234.54 227.53 0.43 c p1
234.75 223.10 0.43 c p1
234.96 224.33 0.43 c p1
235.18 222.62 0.43 c p1
235.39 226.79 0.43 c p1
235.60 220.67 0.43 c p1
235.81 224.81 0.43 c p1
236.02 226.01 0.43 c p1
236.24 219.93 0.43 c p1
236.45 222.57 0.43 c p1
236.66 222.31 0.43 c p1
236.87 222.05 0.43 c p1
237.08 220.34 0.43 c p1
237.30 221.51 0.43 c p1
237.51 222.67 0.43 c p1
237.72 223.83 0.43 c p1
237.93 226.42 0.43 c p1
238.15 226.13 0.43 c p1
238.36 222.97 0.43 c p1
238.57 218.41 0.43 c p1
238.78 222.38 0.43 c p1
238.99 222.08 0.43 c p1
239.21 221.78 0.43 c p1
239.42 225.73 0.43 c p1
239.63 225.42 0.43 c p1
239.84 227.94 0.43 c p1
240.05 221.96 0.43 c p1
240.27 224.46 0.43 c p1
240.48 225.54 0.43 c p1
240.69 218.45 0.43 c p1
240.90 222.31 0.43 c p1
241.12 219.20 0.43 c p1
241.33 224.44 0.43 c p1
241.54 228.07 0.43 c p1
241.75 225.15 0.43 c p1
241.96 231.57 0.43 c p1
242.18 223.07 0.43 c p1
242.39 225.49 0.43 c p1
242.60 220.99 0.43 c p1
242.81 219.27 0.43 c p1
243.02 225.80 0.43 c p1
243.24 218.56 0.43 c p1
243.45 225.06 0.43 c p1
243.66 226.06 0.43 c p1
243.87 225.69 0.43 c p1
244.08 219.85 0.43 c p1
244.30 227.67 0.43 c p1
244.51 220.47 0.43 c p1
244.72 225.53 0.43 c p1
244.93 222.42 0.43 c p1
245.15 220.68 0.43 c p1
245.36 224.35 0.43 c p1
245.57 221.26 0.43 c p1
245.78 231.71 0.43 c p1
245.99 219.13 0.43 c p1
246.21 226.81 0.43 c p1
246.42 225.05 0.43 c p1
246.63 224.64 0.43 c p1
246.84 229.61 0.43 c p1
247.05 223.81 0.43 c p1
247.27 216.74 0.43 c p1
247.48 224.31 0.43 c p1
247.69 227.90 0.43 c p1
247.90 226.13 0.43 c p1
248.12 228.37 0.43 c p1
248.33 220.18 0.43 c p1
248.54 224.82 0.43 c p1
248.75 224.39 0.43 c p1
248.96 222.85 0.43 c p1
249.18 227.48 0.43 c p1
249.39 220.66 0.43 c p1
249.60 227.90 0.43 c p1
249.81 223.71 0.43 c p1
250.02 224.57 0.43 c p1
250.24 221.50 0.43 c p1
250.45 223.66 0.43 c p1
250.66 221.89 0.43 c p1
250.87 224.05 0.43 c p1
251.08 219.68 0.43 c p1
251.30 225.72 0.43 c p1
251.51 222.65 0.43 c p1
251.72 227.38 0.43 c p1
251.93 228.21 0.43 c p1
252.15 231.65 0.43 c p1
252.36 223.34 0.43 c p1
252.57 230.66 0.43 c p1
252.78 224.96 0.43 c p1
252.99 229.66 0.43 c p1
253.21 226.56 0.43 c p1
253.42 228.66 0.43 c p1
253.63 221.71 0.43 c p1
253.84 223.79 0.43 c p1
254.05 225.85 0.43 c p1
254.27 220.24 0.43 c p1
254.48 224.84 0.43 c p1
254.69 234.64 0.43 c p1
254.90 226.38 0.43 c p1
255.12 225.86 0.43 c p1
255.33 226.62 0.43 c p1
255.54 224.83 0.43 c p1
255.75 223.04 0.43 c p1
255.96 221.26 0.43 c p1
256.18 224.53 0.43 c p1
256.39 220.22 0.43 c p1
256.60 224.75 0.43 c p1
256.81 229.29 0.43 c p1
257.02 223.68 0.43 c p1
257.24 224.41 0.43 c p1
257.45 230.19 0.43 c p1
257.66 223.33 0.43 c p1
257.87 223.00 0.43 c p1
258.08 228.54 0.43 c p1
258.30 225.47 0.43 c p1
258.51 217.65 0.43 c p1
258.72 224.58 0.43 c p1
258.93 225.27 0.43 c p1
259.15 228.26 0.43 c p1
259.36 224.16 0.43 c p1
259.57 223.60 0.43 c p1
259.78 228.03 0.43 c p1
259.99 218.78 0.43 c p1
260.21 221.92 0.43 c p1
260.42 223.83 0.43 c p1
260.63 225.74 0.43 c p1
260.84 228.89 0.43 c p1
261.05 224.59 0.43 c p1
261.27 225.25 0.43 c p1
261.48 225.90 0.43 c p1
261.69 222.86 0.43 c p1
261.90 223.51 0.43 c p1
262.12 225.39 0.43 c p1
262.33 222.34 0.43 c p1
262.54 224.21 0.43 c p1
262.75 226.07 0.43 c p1
262.96 230.40 0.43 c p1
263.18 224.88 0.43 c p1
263.39 230.43 0.43 c p1
263.60 226.13 0.43 c p1
263.81 223.09 0.43 c p1
264.02 226.15 0.43 c p1
264.24 221.89 0.43 c p1
264.45 218.88 0.43 c p1
264.66 225.54 0.43 c p1
264.87 222.50 0.43 c p1
265.08 219.48 0.43 c p1
265.30 224.91 0.43 c p1
265.51 225.51 0.43 c p1
265.72 226.10 0.43 c p1
265.93 229.12 0.43 c p1
266.15 218.85 0.43 c p1
266.36 227.86 0.43 c p1
266.57 224.82 0.43 c p1
266.78 225.40 0.43 c p1
266.99 223.56 0.43 c p1
267.21 224.13 0.43 c p1
267.42 229.53 0.43 c p1
267.63 225.27 0.43 c p1
267.84 222.24 0.43 c p1
268.05 221.60 0.43 c p1
268.27 219.98 0.43 c p1
268.48 223.91 0.43 c p1
268.69 221.09 0.43 c p1
268.90 225.01 0.43 c p1
269.12 227.95 0.43 c p1
269.33 224.91 0.43 c p1
269.54 224.46 0.43 c p1
269.75 222.62 0.43 c p1
269.96 224.34 0.43 c p1
270.18 223.69 0.43 c p1
270.39 225.40 0.43 c p1
270.60 227.12 0.43 c p1
270.81 224.08 0.43 c p1
271.02 224.60 0.43 c p1
271.24 227.50 0.43 c p1
271.45 223.28 0.43 c p1
271.66 227.34 0.43 c p1
271.87 220.77 0.43 c p1
272.08 225.99 0.43 c p1
272.30 225.32 0.43 c p1
272.51 225.82 0.43 c p1
272.72 220.45 0.43 c p1
272.93 223.29 0.43 c p1
273.15 224.96 0.43 c p1
273.36 225.46 0.43 c p1
273.57 227.13 0.43 c p1
273.78 227.61 0.43 c p1
273.99 229.28 0.43 c p1
274.21 226.23 0.43 c p1
274.42 225.54 0.43 c p1
274.63 223.68 0.43 c p1
274.84 224.16 0.43 c p1
275.05 229.32 0.43 c p1
275.27 222.78 0.43 c p1
275.48 224.41 0.43 c p1
275.69 231.90 0.43 c p1
275.90 221.86 0.43 c p1
276.12 217.70 0.43 c p1
276.33 228.60 0.43 c p1
276.54 225.56 0.43 c p1
276.75 224.85 0.43 c p1
276.96 220.68 0.43 c p1
277.18 224.60 0.43 c p1
277.39 226.20 0.43 c p1
277.60 224.33 0.43 c p1
277.81 227.09 0.43 c p1
278.02 222.91 0.43 c p1
278.24 229.13 0.43 c p1
278.45 227.25 0.43 c p1
278.66 223.07 0.43 c p1
278.87 224.65 0.43 c p1
279.08 223.93 0.43 c p1
279.30 223.21 0.43 c p1
279.51 228.24 0.43 c p1
279.72 226.36 0.43 c p1
279.93 230.25 0.43 c p1
280.15 218.05 0.43 c p1
280.36 221.89 0.43 c p1
280.57 222.30 0.43 c p1
280.78 222.72 0.43 c p1
280.99 226.56 0.43 c p1
281.21 226.97 0.43 c p1
281.42 228.53 0.43 c p1
281.63 223.21 0.43 c p1
281.84 224.75 0.43 c p1
282.05 228.59 0.43 c p1
282.27 225.55 0.43 c p1
282.48 220.46 0.43 c p1
282.69 215.22 0.43 c p1
282.90 227.88 0.43 c p1
283.12 222.77 0.43 c p1
283.33 226.38 0.43 c p1
283.54 224.49 0.43 c p1
283.75 221.67 0.43 c p1
283.96 225.26 0.43 c p1
284.18 225.64 0.43 c p1
284.39 222.81 0.43 c p1
284.60 229.81 0.43 c p1
284.81 227.90 0.43 c p1
285.02 222.80 0.43 c p1
285.24 220.93 0.43 c p1
285.45 222.42 0.43 c p1
285.66 231.67 0.43 c p1
285.87 224.28 0.43 c p1
286.08 222.39 0.43 c p1
286.30 221.63 0.43 c p1
286.51 220.87 0.43 c p1
286.72 230.06 0.43 c p1
286.93 220.47 0.43 c p1
287.15 229.83 0.43 c p1
287.36 227.92 0.43 c p1
287.57 221.53 0.43 c p1
287.78 223.00 0.43 c p1
287.99 228.97 0.43 c p1
288.21 225.93 0.43 c p1
288.42 222.91 0.43 c p1
288.63 221.03 0.43 c p1
288.84 223.60 0.43 c p1
289.05 227.30 0.43 c p1
289.27 222.04 0.43 c p1
289.48 224.61 0.43 c p1
289.69 224.94 0.43 c p1
289.90 224.16 0.43 c p1
290.12 224.49 0.43 c p1
290.33 221.48 0.43 c p1
290.54 227.38 0.43 c p1
290.75 227.71 0.43 c p1
290.96 228.03 0.43 c p1
291.18 220.56 0.43 c p1
291.39 225.33 0.43 c p1
291.60 226.76 0.43 c p1
291.81 223.74 0.43 c p1
292.02 226.28 0.43 c p1
292.24 226.59 0.43 c p1
292.45 223.57 0.43 c p1
292.66 227.22 0.43 c p1
292.87 223.09 0.43 c p1
293.08 223.39 0.43 c p1
293.30 225.91 0.43 c p1
293.51 218.50 0.43 c p1
293.72 226.52 0.43 c p1
293.93 220.20 0.43 c p1
294.15 223.81 0.43 c p1
294.36 224.10 0.43 c p1
294.57 222.19 0.43 c p1
294.78 225.80 0.43 c p1
294.99 224.99 0.43 c p1
295.21 224.18 0.43 c p1
295.42 223.37 0.43 c p1
295.63 225.86 0.43 c p1
295.84 223.95 0.43 c p1
296.05 222.04 0.43 c p1
296.27 231.16 0.43 c p1
296.48 222.61 0.43 c p1
296.69 228.40 0.43 c p1
296.90 222.08 0.43 c p1
297.12 234.51 0.43 c p1
297.33 222.63 0.43 c p1
297.54 226.20 0.43 c p1
297.75 222.09 0.43 c p1
297.96 225.65 0.43 c p1
298.18 230.33 0.43 c p1
298.39 222.91 0.43 c p1
298.60 226.47 0.43 c p1
298.81 222.35 0.43 c p1
299.02 222.62 0.43 c p1
299.24 220.71 0.43 c p1
299.45 222.06 0.43 c p1
299.66 227.79 0.43 c p1
299.87 221.50 0.43 c p1
300.08 228.32 0.43 c p1
300.30 219.85 0.43 c p1
300.51 224.45 0.43 c p1
300.72 223.62 0.43 c p1
300.93 220.62 0.43 c p1
301.15 228.50 0.43 c p1
301.36 222.21 0.43 c p1
301.57 224.63 0.43 c p1
301.78 228.16 0.43 c p1
301.99 222.96 0.43 c p1
302.21 222.12 0.43 c p1
302.42 218.23 0.43 c p1
302.63 221.71 0.43 c p1
302.84 223.94 0.43 c p1
303.05 224.19 0.43 c p1
303.27 221.36 0.43 c p1
303.48 221.60 0.43 c p1
303.69 230.36 0.43 c p1
303.90 221.00 0.43 c p1
304.12 225.38 0.43 c p1
304.33 227.79 0.43 c p1
304.54 225.85 0.43 c p1
304.75 223.01 0.43 c p1
304.96 224.33 0.43 c p1
305.18 227.63 0.43 c p1
305.39 225.69 0.43 c p1
305.60 225.01 0.43 c p1
305.81 223.08 0.43 c p1
306.02 227.46 0.43 c p1
306.24 220.30 0.43 c p1
306.45 219.46 0.43 c p1
306.66 225.06 0.43 c p1
306.87 226.36 0.43 c p1
307.08 223.34 0.43 c p1
307.30 220.34 0.43 c p1
307.51 230.09 0.43 c p1
307.72 227.23 0.43 c p1
307.93 226.37 0.43 c p1
308.15 225.51 0.43 c p1
308.36 226.80 0.43 c p1
308.57 227.01 0.43 c p1
308.78 223.99 0.43 c p1
308.99 219.91 0.43 c p1
309.21 223.34 0.43 c p1
309.42 233.09 0.43 c p1
309.63 222.68 0.43 c p1
309.84 228.26 0.43 c p1
310.05 225.24 0.43 c p1
310.27 225.44 0.43 c p1
310.48 226.72 0.43 c p1
310.69 224.77 0.43 c p1
310.90 224.97 0.43 c p1
311.12 224.10 0.43 c p1
311.33 225.37 0.43 c p1
311.54 223.43 0.43 c p1
311.75 227.92 0.43 c p1
311.96 229.19 0.43 c p1
312.18 225.09 0.43 c p1
312.39 224.21 0.43 c p1
312.60 224.40 0.43 c p1
312.81 221.40 0.43 c p1
313.02 229.08 0.43 c p1
313.24 221.78 0.43 c p1
313.45 221.97 0.43 c p1
313.66 222.15 0.43 c p1
313.87 220.22 0.43 c p1
314.08 228.94 0.43 c p1
314.30 225.91 0.43 c p1
314.51 223.96 0.43 c p1
314.72 223.08 0.43 c p1
314.93 223.26 0.43 c p1
315.15 222.38 0.43 c p1
315.36 224.69 0.43 c p1
315.57 227.01 0.43 c p1
315.78 225.05 0.43 c p1
315.99 227.36 0.43 c p1
316.21 225.40 0.43 c p1
316.42 225.58 0.43 c p1
316.63 223.63 0.43 c p1
316.84 223.80 0.43 c p1
317.05 225.04 0.43 c p1
317.27 223.09 0.43 c p1
317.48 227.52 0.43 c p1
317.69 224.49 0.43 c p1
317.90 227.86 0.43 c p1
318.12 223.77 0.43 c p1
318.33 227.13 0.43 c p1
318.54 225.17 0.43 c p1
318.75 225.34 0.43 c p1
318.96 229.76 0.43 c p1
319.18 220.38 0.43 c p1
319.39 224.77 0.43 c p1
319.60 224.93 0.43 c p1
319.81 220.87 0.43 c p1
320.02 225.25 0.43 c p1
320.24 232.88 0.43 c p1
320.45 222.40 0.43 c p1
320.66 224.67 0.43 c p1
320.87 221.67 0.43 c p1
321.08 226.05 0.43 c p1
321.30 223.04 0.43 c p1
321.51 225.30 0.43 c p1
321.72 226.52 0.43 c p1
321.93 224.56 0.43 c p1
322.15 227.89 0.43 c p1
322.36 231.24 0.43 c p1
322.57 222.91 0.43 c p1
322.78 220.95 0.43 c p1
322.99 225.32 0.43 c p1
323.21 226.52 0.43 c p1
323.42 223.51 0.43 c p1
323.63 226.82 0.43 c p1
323.84 223.80 0.43 c p1
324.05 222.89 0.43 c p1
324.27 224.10 0.43 c p1
324.48 226.35 0.43 c p1
324.69 225.44 0.43 c p1
324.90 227.70 0.43 c p1
325.12 229.96 0.43 c p1
325.33 226.92 0.43 c p1
325.54 227.07 0.43 c p1
325.75 224.04 0.43 c p1
325.96 224.18 0.43 c p1
326.18 226.43 0.43 c p1
326.39 220.27 0.43 c p1
326.60 225.65 0.43 c p1
326.81 224.74 0.43 c p1
327.02 225.93 0.43 c p1
327.24 225.01 0.43 c p1
327.45 216.79 0.43 c p1
327.66 227.39 0.43 c p1
327.87 228.58 0.43 c p1
328.08 224.50 0.43 c p1
328.30 224.63 0.43 c p1
328.51 225.81 0.43 c p1
328.72 233.35 0.43 c p1
328.93 229.24 0.43 c p1
329.15 227.26 0.43 c p1
329.36 224.23 0.43 c p1
329.57 227.52 0.43 c p1
329.78 226.59 0.43 c p1
329.99 223.57 0.43 c p1
330.21 227.90 0.43 c p1
330.42 225.92 0.43 c p1
330.63 221.86 0.43 c p1
330.84 226.17 0.43 c p1
331.05 226.29 0.43 c p1
331.27 228.52 0.43 c p1
331.48 223.40 0.43 c p1
331.69 227.71 0.43 c p1
331.90 231.00 0.43 c p1
332.12 223.76 0.43 c p1
332.33 225.98 0.43 c p1
332.54 227.15 0.43 c p1
332.75 225.17 0.43 c p1
332.96 225.29 0.43 c p1
333.18 224.36 0.43 c p1
333.39 226.57 0.43 c p1
333.60 222.51 0.43 c p1
333.81 222.62 0.43 c p1
334.02 224.82 0.43 c p1
334.24 222.85 0.43 c p1
334.45 229.25 0.43 c p1
334.66 228.31 0.43 c p1
334.87 226.33 0.43 c p1
335.08 223.31 0.43 c p1
335.30 233.92 0.43 c p1
335.51 225.62 0.43 c p1
335.72 223.64 0.43 c p1
335.93 227.93 0.43 c p1
336.15 223.86 0.43 c p1
336.36 225.02 0.43 c p1
336.57 220.96 0.43 c p1
336.78 226.28 0.43 c p1
336.99 224.30 0.43 c p1
337.21 226.49 0.43 c p1
337.42 222.43 0.43 c p1
337.63 227.75 0.43 c p1
337.84 219.71 0.43 c p1
338.05 225.87 0.43 c p1
338.27 230.16 0.43 c p1
338.48 221.92 0.43 c p1
338.69 227.23 0.43 c p1
338.90 225.24 0.43 c p1
339.12 225.35 0.43 c p1
339.33 227.53 0.43 c p1
339.54 226.59 0.43 c p1
339.75 222.53 0.43 c p1
339.96 224.71 0.43 c p1
340.18 225.85 0.43 c p1
340.39 223.87 0.43 c p1
340.60 225.01 0.43 c p1
340.81 221.13 0.43 c p1
341.02 231.47 0.43 c p1
341.24 221.33 0.43 c p1
341.45 227.48 0.43 c p1
341.66 224.46 0.43 c p1
341.87 223.51 0.43 c p1
342.08 225.69 0.43 c p1
342.30 223.70 0.43 c p1
342.51 219.84 0.43 c p1
342.72 220.96 0.43 c p1
342.93 226.06 0.43 c p1
343.15 225.12 0.43 c p1
343.36 228.33 0.43 c p1
343.57 228.42 0.43 c p1
343.78 225.39 0.43 c p1
343.99 224.45 0.43 c p1
344.21 227.65 0.43 c p1
344.42 217.58 0.43 c p1
344.63 223.85 0.43 c p1
344.84 223.94 0.43 c p1
345.05 220.93 0.43 c p1
345.27 221.02 0.43 c p1
345.48 227.15 0.43 c p1
345.69 226.20 0.43 c p1
345.90 224.38 0.43 c p1
346.12 229.49 0.43 c p1
346.33 226.46 0.43 c p1
346.54 227.58 0.43 c p1
346.75 220.60 0.43 c p1
346.96 223.78 0.43 c p1
347.18 222.83 0.43 c p1
347.39 226.88 0.43 c p1
347.60 232.18 0.43 c p1
347.81 226.01 0.43 c p1
348.02 226.09 0.43 c p1
348.24 228.25 0.43 c p1
348.45 226.26 0.43 c p1
348.66 223.41 0.43 c p1
348.87 218.35 0.43 c p1
349.08 226.50 0.43 c p1
349.30 223.65 0.43 c p1
349.51 224.76 0.43 c p1
349.72 224.84 0.43 c p1
349.93 222.86 0.43 c p1
350.15 226.90 0.43 c p1
350.36 223.01 0.43 c p1
350.57 224.13 0.43 c p1
350.78 223.17 0.43 c p1
350.99 227.21 0.43 c p1
351.21 222.29 0.43 c p1
351.42 220.32 0.43 c p1
351.63 223.48 0.43 c p1
351.84 221.50 0.43 c p1
352.05 221.57 0.43 c p1
352.27 222.67 0.43 c p1
352.48 224.81 0.43 c p1
352.69 220.77 0.43 c p1
352.90 222.89 0.43 c p1
353.12 229.00 0.43 c p1
353.33 220.99 0.43 c p1
353.54 225.17 0.43 c p1
353.75 220.11 0.43 c p1
353.96 219.16 0.43 c p1
354.18 222.30 0.43 c p1
354.39 222.37 0.43 c p1
354.60 223.47 0.43 c p1
354.81 227.67 0.43 c p1
355.02 220.53 0.43 c p1
355.24 224.71 0.43 c p1
355.45 222.72 0.43 c p1
355.66 223.82 0.43 c p1
355.87 224.92 0.43 c p1
356.08 220.88 0.43 c p1
356.30 221.97 0.43 c p1
356.51 223.06 0.43 c p1
356.72 222.11 0.43 c p1
356.93 220.12 0.43 c p1
357.15 219.17 0.43 c p1
357.36 233.51 0.43 c p1
357.57 222.37 0.43 c p1
357.78 227.58 0.43 c p1
357.99 222.50 0.43 c p1
358.21 223.59 0.43 c p1
358.42 217.53 0.43 c p1
358.63 226.81 0.43 c p1
358.84 224.81 0.43 c p1
359.05 216.70 0.43 c p1
359.27 216.76 0.43 c p1
359.48 226.03 0.43 c p1
359.69 221.99 0.43 c p1
359.90 224.10 0.43 c p1
360.12 221.09 0.43 c p1
360.33 229.38 0.43 c p1
360.54 220.19 0.43 c p1
360.75 222.30 0.43 c p1
360.96 224.41 0.43 c p1
361.18 222.42 0.43 c p1
361.39 219.41 0.43 c p1
361.60 220.49 0.43 c p1
0.00 0.00 432.00 576.00 cl
0 0 0 srgb
0.75 setlinewidth
[] 0 setdash
1 setlinecap
1 setlinejoin
10.00 setmiterlimit
np
218.63 201.60 m
144.63 0 l
o
np
218.63 201.60 m
0 -5.76 l
o
np
266.84 201.60 m
0 -5.76 l
o
np
315.05 201.60 m
0 -5.76 l
o
np
363.26 201.60 m
0 -5.76 l
o
/Font1 findfont 6 s
218.63 185.47 (0) .5 0 t
266.84 185.47 (5000) .5 0 t
315.05 185.47 (10000) .5 0 t
363.26 185.47 (15000) .5 0 t
np
216.00 202.61 m
0 44.06 l
o
np
216.00 202.61 m
-5.76 0 l
o
np
216.00 209.96 m
-5.76 0 l
o
np
216.00 217.30 m
-5.76 0 l
o
np
216.00 224.64 m
-5.76 0 l
o
np
216.00 231.98 m
-5.76 0 l
o
np
216.00 239.32 m
-5.76 0 l
o
np
216.00 246.67 m
-5.76 0 l
o
209.09 200.46 (-0.015) 1 0 t
209.09 207.80 (-0.010) 1 0 t
209.09 215.14 (-0.005) 1 0 t
209.09 222.49 (0.000) 1 0 t
209.09 229.83 (0.005) 1 0 t
209.09 237.17 (0.010) 1 0 t
209.09 244.51 (0.015) 1 0 t
np
216.00 201.60 m
151.20 0 l
0 46.08 l
-151.20 0 l
0 -46.08 l
o
0.00 0.00 432.00 576.00 cl
/Font1 findfont 9 s
0 0 0 srgb
291.60 262.88 (Residuals) .5 0 t
59.04 73.44 401.76 516.96 cl
ep
%%Trailer
%%Pages: 1
%%EOF
