%!PS-Adobe-3.0 EPSF-3.0
%%DocumentNeededResources: font Helvetica
%%+ font Helvetica-Bold
%%+ font Helvetica-Oblique
%%+ font Helvetica-BoldOblique
%%+ font Symbol
%%Title: R Graphics Output
%%Creator: R Software
%%Pages: (atend)
%%BoundingBox: 0 0 432 576
%%EndComments
%%BeginProlog
/bp  { gs sRGB gs } def
% begin .ps.prolog
/gs  { gsave } bind def
/gr  { grestore } bind def
/ep  { showpage gr gr } bind def
/m   { moveto } bind def
/l  { rlineto } bind def
/np  { newpath } bind def
/cp  { closepath } bind def
/f   { fill } bind def
/o   { stroke } bind def
/c   { newpath 0 360 arc } bind def
/r   { 4 2 roll moveto 1 copy 3 -1 roll exch 0 exch rlineto 0 rlineto -1 mul 0 exch rlineto closepath } bind def
/p1  { stroke } bind def
/p2  { gsave bg fill grestore newpath } bind def
/p3  { gsave bg fill grestore stroke } bind def
/p6  { gsave bg eofill grestore newpath } bind def
/p7  { gsave bg eofill grestore stroke } bind def
/t   { 5 -2 roll moveto gsave rotate
       1 index stringwidth pop
       mul neg 0 rmoveto show grestore } bind def
/ta  { 4 -2 roll moveto gsave rotate show } bind def
/tb  { 2 -1 roll 0 rmoveto show } bind def
/cl  { grestore gsave newpath 3 index 3 index moveto 1 index
       4 -1 roll lineto  exch 1 index lineto lineto
       closepath clip newpath } bind def
/rgb { setrgbcolor } bind def
/s   { scalefont setfont } bind def
% end   .ps.prolog
/sRGB { [ /CIEBasedABC
          << /DecodeLMN
               [ { dup 0.03928 le
                        {12.92321 div}
                        {0.055 add 1.055 div 2.4 exp }
                     ifelse
                 } bind dup dup
               ]
             /MatrixLMN [0.412457 0.212673 0.019334
                         0.357576 0.715152 0.119192
                         0.180437 0.072175 0.950301]
             /WhitePoint [0.9505 1.0 1.0890]
           >>
         ] setcolorspace } bind def
/srgb { setcolor } bind def
% begin encoding
/WinAnsiEncoding [
 /.notdef /.notdef /.notdef /.notdef /.notdef /.notdef /.notdef /.notdef
 /.notdef /.notdef /.notdef /.notdef /.notdef /.notdef /.notdef /.notdef
 /.notdef /.notdef /.notdef /.notdef /.notdef /.notdef /.notdef /.notdef
 /.notdef /.notdef /.notdef /.notdef /.notdef /.notdef /.notdef /.notdef
 /space /exclam /quotedbl /numbersign /dollar /percent /ampersand /quoteright
 /parenleft /parenright /asterisk /plus /comma /minus /period /slash
 /zero /one /two /three /four /five /six /seven
 /eight /nine /colon /semicolon /less /equal /greater /question
 /at /A /B /C /D /E /F /G
 /H /I /J /K /L /M /N /O
 /P /Q /R /S /T /U /V /W
 /X /Y /Z /bracketleft /backslash /bracketright /asciicircum /underscore
 /grave /a /b /c /d /e /f /g
 /h /i /j /k /l /m /n /o
 /p /q /r /s /t /u /v /w
 /x /y /z /braceleft /bar /braceright /asciitilde /.notdef
 /Euro /.notdef /quotesinglbase /florin /quotedblbase /ellipsis /dagger /daggerdbl
 /circumflex /perthousand /Scaron /guilsinglleft /OE /.notdef /Zcaron /.notdef
 /.notdef /quoteleft /quoteright /quotedblleft /quotedblright /bullet /endash /emdash
 /tilde /trademark /scaron /guilsinglright /oe /.notdef /zcaron /Ydieresis
 /space /exclamdown /cent /sterling /currency /yen /brokenbar /section
 /dieresis /copyright /ordfeminine /guillemotleft /logicalnot /hyphen /registered /macron
 /degree /plusminus /twosuperior /threesuperior /acute /mu /paragraph /periodcentered
 /cedilla /onesuperior /ordmasculine /guillemotright /onequarter /onehalf /threequarters /questiondown
 /Agrave /Aacute /Acircumflex /Atilde /Adieresis /Aring /AE /Ccedilla
 /Egrave /Eacute /Ecircumflex /Edieresis /Igrave /Iacute /Icircumflex /Idieresis
 /Eth /Ntilde /Ograve /Oacute /Ocircumflex /Otilde /Odieresis /multiply
 /Oslash /Ugrave /Uacute /Ucircumflex /Udieresis /Yacute /Thorn /germandbls
 /agrave /aacute /acircumflex /atilde /adieresis /aring /ae /ccedilla
 /egrave /eacute /ecircumflex /edieresis /igrave /iacute /icircumflex /idieresis
 /eth /ntilde /ograve /oacute /ocircumflex /otilde /odieresis /divide
 /oslash /ugrave /uacute /ucircumflex /udieresis /yacute /thorn /ydieresis
]
 def
% end encoding
%%IncludeResource: font Helvetica
/Helvetica findfont
dup length dict begin
  {1 index /FID ne {def} {pop pop} ifelse} forall
  /Encoding WinAnsiEncoding def
  currentdict
  end
/Font1 exch definefont pop
%%IncludeResource: font Helvetica-Bold
/Helvetica-Bold findfont
dup length dict begin
  {1 index /FID ne {def} {pop pop} ifelse} forall
  /Encoding WinAnsiEncoding def
  currentdict
  end
/Font2 exch definefont pop
%%IncludeResource: font Helvetica-Oblique
/Helvetica-Oblique findfont
dup length dict begin
  {1 index /FID ne {def} {pop pop} ifelse} forall
  /Encoding WinAnsiEncoding def
  currentdict
  end
/Font3 exch definefont pop
%%IncludeResource: font Helvetica-BoldOblique
/Helvetica-BoldOblique findfont
dup length dict begin
  {1 index /FID ne {def} {pop pop} ifelse} forall
  /Encoding WinAnsiEncoding def
  currentdict
  end
/Font4 exch definefont pop
%%IncludeResource: font Symbol
/Symbol findfont
dup length dict begin
  {1 index /FID ne {def} {pop pop} ifelse} forall
  currentdict
  end
/Font5 exch definefont pop
%%EndProlog
%%Page: 1 1
bp
/bg { 1 1 1 srgb } def
0.00 0.00 432.00 576.00 r p2
0.00 0.00 432.00 576.00 cl
0.00 0.00 432.00 576.00 cl
0.00 0.00 432.00 576.00 cl
/Font1 findfont 12 s
0 0 0 srgb
48.00 508.72 (PCP-ETH) 0 0 t
48.00 494.89 (Flash light photolysis) 0 0 t
/Font1 findfont 9 s
48.00 457.54 (File: Solv) 0 ta
-0.225 (ent_debendence_sol5_3_MSLM.dat) tb gr
48.00 334.87 (Sat Mar 05 15:19:10 2022) 0 0 t
48.00 430.87 (Fit function:  a + b * e) 0 ta
-0.270 (xp\(-c * t\)) tb gr
48.00 420.50 (t-Inter) 0 ta
0.270 (v) tb
-0.225 (all: 180.000 ... 26550.000 ms) tb gr
48.00 410.14 (P) 0 ta
-0.360 (ar) tb
-0.090 (ameters \(Standard de) tb
-0.270 (viation\):) tb gr
48.00 399.77 (  a = 0.00368 \(0.00032\)) 0 0 t
48.00 389.40 (  b = 0.13359 \(0.00107\)) 0 0 t
48.00 379.03 (  c = 2.322e-01 \(3.387e-03\) s^-1) 0 0 t
48.00 368.66 (  tau = 4.307e+00 \(6.284e-02\) s) 0 0 t
216.00 345.60 388.80 518.40 cl
0 0 0 srgb
0.75 setlinewidth
[] 0 setdash
1 setlinecap
1 setlinejoin
10.00 setmiterlimit
np
222.40 497.91 m
0.15 -0.74 l
0.14 -0.18 l
0.15 0.74 l
0.14 -0.93 l
0.15 0.19 l
0.14 0.37 l
0.15 0.55 l
0.14 -0.37 l
0.15 -0.92 l
0.15 0.74 l
0.14 -0.37 l
0.15 0 l
0.14 0.55 l
0.15 -0.18 l
0.14 -0.19 l
0.15 0.19 l
0.14 0.37 l
0.15 -1.29 l
0.15 1.10 l
0.14 0.74 l
0.15 -0.19 l
0.14 -0.55 l
0.15 -0.92 l
0.14 0.18 l
0.15 1.29 l
0.15 -1.29 l
0.14 1.11 l
0.15 -0.55 l
0.14 0.55 l
0.15 0 l
0.14 -0.55 l
0.15 0.55 l
0.14 -0.74 l
0.15 -0.18 l
0.15 -0.37 l
0.14 1.29 l
0.15 -0.55 l
0.14 -0.19 l
0.15 0.92 l
0.14 -1.10 l
0.15 0.18 l
0.14 0 l
0.15 -0.92 l
0.15 0.74 l
0.14 0.37 l
0.15 -0.74 l
0.14 0.37 l
0.15 1.66 l
0.14 -1.29 l
0.15 0 l
0.14 0 l
0.15 -1.11 l
0.15 0.74 l
0.14 0 l
0.15 0.18 l
0.14 0.92 l
0.15 -0.73 l
0.14 0.37 l
0.15 -0.93 l
0.15 0.19 l
0.14 0.18 l
0.15 -0.55 l
0.14 0.92 l
0.15 0.55 l
0.14 -0.36 l
0.15 -0.56 l
0.14 0.56 l
0.15 -0.37 l
0.15 -0.37 l
0.14 0.55 l
0.15 0.37 l
0.14 -0.37 l
0.15 0.55 l
0.14 -0.18 l
0.15 -0.74 l
0.14 0.56 l
0.15 0 l
0.15 -0.74 l
0.14 -0.19 l
0.15 0.93 l
0.14 -0.56 l
0.15 0.37 l
0.14 0 l
0.15 0.55 l
0.14 -1.29 l
0.15 0.74 l
0.15 -0.55 l
0.14 1.29 l
0.15 -0.74 l
0.14 0.37 l
0.15 -0.37 l
0.14 -1.29 l
0.15 0.74 l
0.15 0.92 l
0.14 -0.55 l
0.15 -0.19 l
0.14 1.29 l
0.15 -1.47 l
0.14 1.10 l
236.96 449.96 lineto
0.14 1.24 l
0.15 0.57 l
0.15 2.03 l
0.14 0 l
0.15 0.92 l
0.14 1.44 l
0.15 0.18 l
0.14 1.29 l
0.15 0.37 l
0.14 0.37 l
0.15 1.29 l
0.15 0.18 l
0.14 0.89 l
0.15 1.29 l
0.14 0 l
0.15 0.37 l
0.14 0.19 l
0.15 1.28 l
0.14 -0.36 l
0.15 1.29 l
0.15 -0.93 l
0.14 1.48 l
0.15 0.15 l
0.14 0.55 l
0.15 0.19 l
0.14 -0.37 l
0.15 -0.18 l
0.15 1.29 l
0.14 1.47 l
0.15 -0.92 l
0.14 0.92 l
0.15 0 l
0.14 1.10 l
0.15 -1.10 l
0.14 0.55 l
0.15 1.11 l
0.15 1.26 l
0.14 -1.63 l
0.15 1.07 l
0.14 -0.37 l
0.15 1.48 l
0.14 -0.19 l
0.15 0.74 l
0.14 -0.37 l
0.15 0.74 l
0.15 -0.55 l
0.14 0.36 l
0.15 0.74 l
0.14 0.74 l
0.15 -0.74 l
0.14 0.37 l
0.15 0.37 l
0.14 1.10 l
0.15 -1.29 l
0.15 1.11 l
0.14 0.52 l
0.15 -0.89 l
0.14 0 l
0.15 1.08 l
0.14 0.36 l
0.15 -0.18 l
0.15 -0.55 l
0.14 1.10 l
0.15 0.37 l
0.14 0.74 l
0.15 0.37 l
0.14 0 l
0.15 -0.37 l
0.14 1.10 l
0.15 -1.10 l
0.15 0.55 l
0.14 0.92 l
0.15 0.18 l
0.14 -1.47 l
0.15 1.11 l
0.14 1.10 l
0.15 -0.55 l
0.14 0.37 l
0.15 0.37 l
0.15 0.70 l
0.14 -0.89 l
0.15 0.34 l
0.14 0.55 l
0.15 0.19 l
0.14 -0.19 l
0.15 0 l
0.14 0.92 l
0.15 0.19 l
0.15 -0.37 l
0.14 0.55 l
0.15 -0.74 l
0.14 1.48 l
0.15 -0.74 l
0.14 0.19 l
0.15 1.10 l
0.15 -0.92 l
0.14 -0.18 l
0.15 -0.19 l
0.14 0.92 l
251.52 482.90 lineto
0.14 0.18 l
0.15 0.19 l
0.14 -0.92 l
0.15 2.02 l
0.15 -0.92 l
0.14 -0.37 l
0.15 -0.18 l
0.14 1.29 l
0.15 0.18 l
0.14 -0.55 l
0.15 0.92 l
0.14 -0.18 l
0.15 0 l
0.15 -0.19 l
0.14 -0.74 l
0.15 0.74 l
0.14 1.44 l
0.15 -1.81 l
0.14 0.74 l
0.15 0 l
0.14 1.07 l
0.15 -0.89 l
0.15 0 l
0.14 1.26 l
0.15 -0.37 l
0.14 -0.55 l
0.15 0.55 l
0.14 -0.18 l
0.15 -0.71 l
0.14 0.34 l
0.15 0 l
0.15 0.37 l
0.14 -0.18 l
0.15 1.10 l
0.14 0.18 l
0.15 0 l
0.14 -0.55 l
0.15 0.74 l
0.15 -1.47 l
0.14 0.92 l
0.15 0 l
0.14 0.55 l
0.15 0 l
0.14 -0.74 l
0.15 0.55 l
0.14 -0.55 l
0.15 0.92 l
0.15 0.74 l
0.14 -0.74 l
0.15 -0.18 l
0.14 -0.74 l
0.15 1.11 l
0.14 -0.37 l
0.15 0.18 l
0.14 -0.55 l
0.15 1.47 l
0.15 0.19 l
0.14 -0.37 l
0.15 -0.74 l
0.14 0.19 l
0.15 0.92 l
0.14 -0.19 l
0.15 -0.36 l
0.14 -0.93 l
0.15 2.03 l
0.15 -1.66 l
0.14 0 l
0.15 1.48 l
0.14 -0.56 l
0.15 0.37 l
0.14 -1.47 l
0.15 0.37 l
0.15 0.73 l
0.14 -0.36 l
0.15 0.18 l
0.14 0.74 l
0.15 -0.37 l
0.14 -0.55 l
0.15 1.10 l
0.14 0.19 l
0.15 0.18 l
0.15 -0.74 l
0.14 1.11 l
0.15 0 l
0.14 -0.92 l
0.15 -0.56 l
0.14 0.37 l
0.15 0.19 l
0.14 1.10 l
0.15 -0.73 l
0.15 -0.19 l
0.14 0 l
0.15 0.37 l
0.14 0.18 l
0.15 0 l
0.14 0.19 l
0.15 0 l
0.14 0.70 l
0.15 -1.99 l
266.08 489.50 lineto
0.14 0.37 l
0.15 -0.37 l
0.14 -0.37 l
0.15 1.44 l
0.14 -0.37 l
0.15 -1.44 l
0.15 0.55 l
0.14 0.74 l
0.15 0.52 l
0.14 -1.07 l
0.15 -0.55 l
0.14 1.10 l
0.15 -0.37 l
0.14 -0.37 l
0.15 0.19 l
0.15 0.70 l
0.14 -1.25 l
0.15 1.10 l
0.14 0 l
0.15 0 l
0.14 0.71 l
0.15 -0.71 l
0.14 -0.18 l
0.15 0.18 l
0.15 -0.18 l
0.14 0 l
0.15 0 l
0.14 0.18 l
0.15 0.34 l
0.14 0 l
0.15 -0.19 l
0.14 0.74 l
0.15 -0.74 l
0.15 0.37 l
0.14 -0.18 l
0.15 1.47 l
0.14 -0.55 l
0.15 -0.18 l
0.14 -1.45 l
0.15 1.45 l
0.15 -1.45 l
0.14 0.89 l
0.15 -0.37 l
0.14 1.29 l
0.15 -0.73 l
0.14 -0.19 l
0.15 0.37 l
0.14 0.55 l
0.15 -0.92 l
0.15 1.11 l
0.14 -0.19 l
0.15 -0.55 l
0.14 -0.18 l
0.15 0.92 l
0.14 -0.92 l
0.15 1.10 l
0.14 -0.37 l
0.15 -1.29 l
0.15 0.93 l
0.14 0.55 l
0.15 -0.74 l
0.14 1.29 l
0.15 -1.10 l
0.14 -1.08 l
0.15 2.92 l
0.14 -3.47 l
0.15 1.81 l
0.15 0 l
0.14 0 l
0.15 -0.55 l
0.14 0.37 l
0.15 1.65 l
0.14 -1.65 l
0.15 1.84 l
0.15 -1.48 l
0.14 4.76 l
0.15 -2.36 l
0.14 -0.37 l
0.15 -0.18 l
0.14 0.36 l
0.15 0 l
0.14 0.74 l
0.15 -0.74 l
0.15 -1.29 l
0.14 -0.36 l
0.15 0.73 l
0.14 -0.55 l
0.15 0.74 l
0.14 -0.56 l
0.15 0.37 l
0.14 -1.29 l
0.15 0.56 l
0.15 0.92 l
0.14 0 l
0.15 1.29 l
0.14 0.89 l
0.15 -1.26 l
0.14 -0.74 l
0.15 -0.37 l
280.63 494.99 lineto
0.15 0.34 l
0.15 0.18 l
0.14 0.37 l
0.15 0.37 l
0.14 -1.10 l
0.15 -2.18 l
0.14 0.92 l
0.15 -0.19 l
0.15 -0.92 l
0.14 -0.18 l
0.15 0.18 l
0.14 0 l
0.15 1.29 l
0.14 -0.92 l
0.15 -1.47 l
0.14 1.66 l
0.15 1.65 l
0.15 -1.10 l
0.14 0 l
0.15 -0.55 l
0.14 -0.19 l
0.15 0.19 l
0.14 -0.37 l
0.15 -0.56 l
0.14 0.19 l
0.15 1.29 l
0.15 -0.55 l
0.14 0.55 l
0.15 0.18 l
0.14 -0.18 l
0.15 -0.19 l
0.14 -0.36 l
0.15 1.28 l
0.14 0 l
0.15 -1.84 l
0.15 0.92 l
0.14 -0.36 l
0.15 1.10 l
0.14 -0.55 l
0.15 -0.19 l
0.14 1.45 l
0.15 -0.71 l
0.14 -1.47 l
0.15 1.29 l
0.15 0.55 l
0.14 -0.19 l
0.15 -1.28 l
0.14 1.65 l
0.15 -0.37 l
0.14 -0.92 l
0.15 0.92 l
0.15 -1.10 l
0.14 1.10 l
0.15 -0.92 l
0.14 1.29 l
0.15 -0.73 l
0.14 0.18 l
0.15 -0.37 l
0.14 -0.55 l
0.15 1.10 l
0.15 -0.36 l
0.14 -0.37 l
0.15 0 l
0.14 0.73 l
0.15 -0.73 l
0.14 0.73 l
0.15 -0.73 l
0.14 0.92 l
0.15 0.52 l
0.15 -0.71 l
0.14 -0.73 l
0.15 0.73 l
0.14 0.89 l
0.15 -0.89 l
0.14 -1.47 l
0.15 1.66 l
0.14 -0.37 l
0.15 0.18 l
0.15 -0.55 l
0.14 1.63 l
0.15 -1.26 l
0.14 0.18 l
0.15 0.19 l
0.14 -1.11 l
0.15 0.74 l
0.15 1.44 l
0.14 -1.62 l
0.15 0.55 l
0.14 0.18 l
0.15 0.52 l
0.14 -1.07 l
0.15 0.71 l
0.14 0.92 l
0.15 -0.37 l
0.15 -1.08 l
0.14 -0.55 l
0.15 1.08 l
0.14 1.10 l
0.15 -0.74 l
295.19 494.99 lineto
0.15 -0.55 l
0.14 0.89 l
0.15 -0.52 l
0.15 0.70 l
0.14 -0.18 l
0.15 -0.89 l
0.14 1.26 l
0.15 -0.19 l
0.14 -0.36 l
0.15 0.36 l
0.14 -0.36 l
0.15 0.18 l
0.15 0.18 l
0.14 -0.18 l
0.15 -0.71 l
0.14 0.71 l
0.15 0.55 l
0.14 -0.73 l
0.15 -0.71 l
0.15 1.44 l
0.14 0 l
0.15 -0.37 l
0.14 0.74 l
0.15 -0.18 l
0.14 0.73 l
0.15 -0.92 l
0.14 -0.55 l
0.15 0.37 l
0.15 0.18 l
0.14 0 l
0.15 0.37 l
0.14 0.19 l
0.15 -0.93 l
0.14 0 l
0.15 -0.18 l
0.14 0.92 l
0.15 -0.92 l
0.15 0.18 l
0.14 0.56 l
0.15 -0.56 l
0.14 1.29 l
0.15 -1.65 l
0.14 0.55 l
0.15 -0.19 l
0.14 0.74 l
0.15 0.74 l
0.15 -1.48 l
0.14 0.19 l
0.15 0.55 l
0.14 -0.37 l
0.15 -0.55 l
0.14 0.55 l
0.15 0.74 l
0.15 -0.55 l
0.14 -0.74 l
0.15 0.37 l
0.14 0.92 l
0.15 -0.74 l
0.14 0.92 l
0.15 -1.10 l
0.14 0.37 l
0.15 -0.19 l
0.15 -0.18 l
0.14 0.74 l
0.15 -0.37 l
0.14 0 l
0.15 -0.37 l
0.14 0.18 l
0.15 0.37 l
0.14 0.55 l
0.15 -1.47 l
0.15 2.03 l
0.14 -0.92 l
0.15 0.18 l
0.14 -0.18 l
0.15 1.10 l
0.14 -1.10 l
0.15 -0.19 l
0.14 0.37 l
0.15 0.74 l
0.15 -0.92 l
0.14 -0.56 l
0.15 0.56 l
0.14 0.92 l
0.15 -0.74 l
0.14 0.37 l
0.15 -0.19 l
0.15 0.37 l
0.14 0.92 l
0.15 -1.84 l
0.14 -0.18 l
0.15 0.55 l
0.14 1.29 l
0.15 -0.74 l
0.14 0.19 l
0.15 -0.19 l
0.15 0.19 l
0.14 -1.11 l
0.15 0.92 l
309.75 496.62 lineto
0.15 0.37 l
0.14 0.37 l
0.15 -1.11 l
0.14 0.19 l
0.15 1.10 l
0.15 -1.10 l
0.14 0.18 l
0.15 0.55 l
0.14 -0.73 l
0.15 0.92 l
0.14 -0.37 l
0.15 0.18 l
0.14 0 l
0.15 0.19 l
0.15 0 l
0.14 0.55 l
0.15 -1.29 l
0.14 0.92 l
0.15 -1.10 l
0.14 -0.56 l
0.15 1.48 l
0.15 -0.56 l
0.14 0.93 l
0.15 -0.74 l
0.14 0.55 l
0.15 0.37 l
0.14 -2.03 l
0.15 1.48 l
0.14 0.37 l
0.15 0.73 l
0.15 -1.66 l
0.14 0.56 l
0.15 0.18 l
0.14 0.37 l
0.15 -0.74 l
0.14 0.56 l
0.15 0.36 l
0.14 -1.47 l
0.15 0.55 l
0.15 0.92 l
0.14 -0.92 l
0.15 0.37 l
0.14 0.19 l
0.15 -0.37 l
0.14 0.37 l
0.15 0.55 l
0.14 -1.11 l
0.15 0.56 l
0.15 -0.74 l
0.14 1.47 l
0.15 -1.29 l
0.14 1.48 l
0.15 -1.11 l
0.14 0.37 l
0.15 0.55 l
0.15 -1.29 l
0.14 -0.37 l
0.15 1.48 l
0.14 -1.48 l
0.15 1.48 l
0.14 -0.55 l
0.15 0 l
0.14 0.55 l
0.15 -0.37 l
0.15 0.55 l
0.14 -0.37 l
0.15 -0.18 l
0.14 0 l
0.15 -0.18 l
0.14 0.55 l
0.15 -1.11 l
0.14 1.11 l
0.15 -0.55 l
0.15 0.73 l
0.14 0 l
0.15 -0.37 l
0.14 0.19 l
0.15 -0.19 l
0.14 0.19 l
0.15 -0.37 l
0.14 0.18 l
0.15 0.37 l
0.15 -0.18 l
0.14 -1.11 l
0.15 1.11 l
0.14 0 l
0.15 -0.37 l
0.14 0.74 l
0.15 -0.92 l
0.14 0.73 l
0.15 -0.55 l
0.15 -0.37 l
0.14 0.92 l
0.15 0 l
0.14 -1.10 l
0.15 0.73 l
0.14 0.19 l
0.15 0.37 l
0.15 -1.66 l
324.31 497.73 lineto
0.15 0.92 l
0.14 -0.37 l
0.15 0.18 l
0.14 -0.55 l
0.15 0.37 l
0.14 -0.19 l
0.15 -0.36 l
0.15 0.73 l
0.14 -0.37 l
0.15 -0.18 l
0.14 -0.37 l
0.15 0.92 l
0.14 -1.47 l
0.15 0 l
0.14 1.10 l
0.15 1.11 l
0.15 -0.19 l
0.14 -0.73 l
0.15 -0.19 l
0.14 0.74 l
0.15 0.18 l
0.14 -0.36 l
0.15 -0.19 l
0.14 0.37 l
0.15 0.74 l
0.15 -1.29 l
0.14 -0.55 l
0.15 0.18 l
0.14 1.10 l
0.15 0.19 l
0.14 -0.55 l
0.15 -1.11 l
0.15 1.29 l
0.14 0.37 l
0.15 -0.92 l
0.14 1.66 l
0.15 -0.93 l
0.14 -0.36 l
0.15 -0.56 l
0.14 1.29 l
0.15 0.19 l
0.15 0.18 l
0.14 -2.58 l
0.15 0.56 l
0.14 1.47 l
0.15 -1.47 l
0.14 1.65 l
0.15 -0.55 l
0.14 0.18 l
0.15 -1.65 l
0.15 2.39 l
0.14 -1.29 l
0.15 0.37 l
0.14 0.74 l
0.15 -1.29 l
0.14 1.10 l
0.15 0.37 l
0.14 -0.92 l
0.15 -0.37 l
0.15 -0.18 l
0.14 1.99 l
0.15 -1.26 l
0.14 0.19 l
0.15 -0.92 l
0.14 1.10 l
0.15 -1.10 l
0.15 1.29 l
0.14 -1.66 l
0.15 0.92 l
0.14 -0.37 l
0.15 0.19 l
0.14 0 l
0.15 1.44 l
0.14 -1.08 l
0.15 0 l
0.15 -0.73 l
0.14 -0.55 l
0.15 0.36 l
0.14 1.85 l
0.15 -1.66 l
0.14 1.29 l
0.15 -0.56 l
0.14 0.56 l
0.15 -0.74 l
0.15 0.37 l
0.14 0.37 l
0.15 -0.56 l
0.14 -0.73 l
0.15 0.92 l
0.14 -0.55 l
0.15 -0.56 l
0.14 1.11 l
0.15 0 l
0.15 0 l
0.14 0 l
0.15 -0.19 l
0.14 1.26 l
0.15 -0.70 l
0.14 0.70 l
338.87 499.75 lineto
0.15 -0.37 l
0.14 -0.18 l
0.15 -0.74 l
0.14 0.55 l
0.15 0.93 l
0.14 -0.74 l
0.15 -1.29 l
0.14 1.47 l
0.15 0 l
0.15 0.37 l
0.14 0 l
0.15 -0.18 l
0.14 -0.37 l
0.15 0 l
0.14 -0.55 l
0.15 0 l
0.14 1.44 l
0.15 -1.26 l
0.15 0.37 l
0.14 0.55 l
0.15 -0.92 l
0.14 1.11 l
0.15 -1.11 l
0.14 1.26 l
0.15 -0.52 l
0.14 -0.37 l
0.15 0.55 l
0.15 -0.74 l
0.14 -0.18 l
0.15 -1.47 l
0.14 1.47 l
0.15 0.74 l
0.14 0 l
0.15 -0.19 l
0.15 -1.47 l
0.14 2.36 l
0.15 -0.89 l
0.14 0.19 l
0.15 -0.74 l
0.14 0.74 l
0.15 -0.92 l
0.14 1.10 l
0.15 0.19 l
0.15 -0.56 l
0.14 -0.73 l
0.15 0.55 l
0.14 -0.37 l
0.15 1.11 l
0.14 0.33 l
0.15 -0.89 l
0.14 -0.73 l
0.15 1.44 l
0.15 -1.26 l
0.14 1.44 l
0.15 -1.07 l
0.14 -0.74 l
0.15 0.19 l
0.14 0.55 l
0.15 0.18 l
0.14 0.19 l
0.15 -0.37 l
0.15 1.26 l
0.14 -0.52 l
0.15 -0.74 l
0.14 0.55 l
0.15 0.34 l
0.14 -1.81 l
0.15 0.37 l
0.15 0.73 l
0.14 0.56 l
0.15 -0.93 l
0.14 0.93 l
0.15 -0.56 l
0.14 0.19 l
0.15 -0.19 l
0.14 0 l
0.15 -0.18 l
0.15 0 l
0.14 0.74 l
0.15 -0.56 l
0.14 0.56 l
0.15 -0.37 l
0.14 1.44 l
0.15 -1.44 l
0.14 0.18 l
0.15 1.08 l
0.15 -1.08 l
0.14 0 l
0.15 0.89 l
0.14 -0.70 l
0.15 0 l
0.14 -0.74 l
0.15 0.89 l
0.14 -0.34 l
0.15 -0.18 l
0.15 0 l
0.14 0.37 l
0.15 -0.19 l
0.14 -0.55 l
353.43 499.94 lineto
0.14 0.52 l
0.15 0 l
0.14 -1.26 l
0.15 0.37 l
0.15 0.52 l
0.14 0.37 l
0.15 -0.89 l
0.14 0.18 l
0.15 0.71 l
0.14 -0.37 l
0.15 -1.26 l
0.15 1.81 l
0.14 -0.55 l
0.15 -0.89 l
0.14 0.55 l
0.15 -0.37 l
0.14 0.71 l
0.15 -0.34 l
0.14 0.89 l
0.15 -1.26 l
0.15 1.45 l
0.14 -0.74 l
0.15 -0.89 l
0.14 1.07 l
0.15 -0.89 l
0.14 1.08 l
0.15 0 l
0.14 -0.71 l
0.15 1.44 l
0.15 -1.25 l
0.14 -0.37 l
0.15 0 l
0.14 0.52 l
0.15 0.37 l
0.14 -0.52 l
0.15 -0.74 l
0.14 1.26 l
0.15 -0.52 l
0.15 -0.19 l
0.14 0 l
0.15 0.89 l
0.14 -1.07 l
0.15 0.18 l
0.14 0.34 l
0.15 -0.15 l
0.15 0.52 l
0.14 -0.19 l
0.15 -1.07 l
0.14 0.89 l
0.15 -0.15 l
0.14 -0.19 l
0.15 0 l
0.14 -0.92 l
0.15 1.44 l
0.15 -0.89 l
0.14 -0.18 l
0.15 1.07 l
0.14 0.74 l
0.15 -0.92 l
0.14 0 l
0.15 -0.34 l
0.14 0.52 l
0.15 -0.18 l
0.15 -1.08 l
0.14 1.45 l
0.15 -1.08 l
0.14 0.37 l
0.15 0.19 l
0.14 0.15 l
0.15 0.37 l
0.14 0 l
0.15 -0.71 l
0.15 0.19 l
0.14 0.33 l
0.15 -0.89 l
0.14 0.89 l
0.15 -0.52 l
0.14 0.34 l
0.15 0.74 l
0.15 -0.37 l
0.14 -0.37 l
0.15 -0.34 l
0.14 -0.74 l
0.15 -0.36 l
0.14 1.10 l
0.15 -0.18 l
0.14 0.52 l
0.15 -0.34 l
0.15 -0.18 l
0.14 0.37 l
0.15 0.89 l
0.14 -1.45 l
0.15 0.56 l
0.14 -0.37 l
0.15 0.18 l
0.14 0.19 l
0.15 0 l
0.15 -0.37 l
0.14 -0.56 l
currentpoint o m
367.99 499.20 lineto
0.14 1.63 l
0.15 -0.56 l
0.14 0.92 l
0.15 -0.36 l
0.14 -0.89 l
0.15 0.15 l
0.15 0.92 l
0.14 0.18 l
0.15 -0.36 l
0.14 2.94 l
0.15 -4.57 l
0.14 9.33 l
0.15 3.47 l
0.15 -18.48 l
0.14 5.13 l
0.15 1.62 l
0.14 -0.52 l
0.15 -0.37 l
0.14 0.19 l
0.15 -0.19 l
0.14 1.81 l
0.15 -0.55 l
0.15 -1.63 l
0.14 -0.55 l
0.15 2.00 l
0.14 0 l
0.15 0.18 l
0.14 -0.89 l
0.15 -0.55 l
0.14 0.74 l
0.15 -0.56 l
0.15 0.71 l
0.14 -0.15 l
0.15 0.52 l
0.14 0.55 l
0.15 -0.55 l
0.14 0 l
0.15 -0.52 l
0.14 0.52 l
0.15 -0.71 l
0.15 0.19 l
0.14 0.70 l
0.15 0.37 l
0.14 -1.63 l
0.15 1.45 l
0.14 -0.89 l
0.15 1.25 l
0.15 -0.55 l
0.14 -1.07 l
0.15 -0.37 l
0.14 1.07 l
0.15 -0.18 l
0.14 0.18 l
0.15 -1.26 l
0.14 0.74 l
0.15 0 l
0.15 0 l
0.14 -0.92 l
0.15 1.44 l
0.14 -1.62 l
0.15 1.99 l
0.14 0.37 l
0.15 -0.55 l
0.14 -0.19 l
0.15 -0.52 l
0.15 0.34 l
0.14 0.55 l
0.15 -0.18 l
0.14 -1.26 l
0.15 1.63 l
0.14 -1.26 l
0.15 -0.37 l
0.14 1.44 l
0.15 -1.26 l
0.15 0.71 l
0.14 0.55 l
0.15 -0.89 l
0.14 0.52 l
0.15 0 l
0.14 -0.89 l
0.15 1.08 l
0.15 -0.71 l
0.14 0.52 l
0.15 -0.70 l
0.14 1.26 l
0.15 -0.37 l
0.14 0.18 l
0.15 -0.55 l
0.14 0 l
0.15 0.18 l
0.15 -0.33 l
0.14 0 l
0.15 1.07 l
0.14 -0.55 l
0.15 -0.37 l
0.14 0.55 l
0.15 0.19 l
0.14 0.18 l
0.15 -0.92 l
o
/bg { 1 1 1 srgb } def
222.40 497.91 0.43 c p3
222.55 497.17 0.43 c p3
222.69 496.99 0.43 c p3
222.84 497.73 0.43 c p3
222.98 496.80 0.43 c p3
223.13 496.99 0.43 c p3
223.27 497.36 0.43 c p3
223.42 497.91 0.43 c p3
223.56 497.54 0.43 c p3
223.71 496.62 0.43 c p3
223.86 497.36 0.43 c p3
224.00 496.99 0.43 c p3
224.15 496.99 0.43 c p3
224.29 497.54 0.43 c p3
224.44 497.36 0.43 c p3
224.58 497.17 0.43 c p3
224.73 497.36 0.43 c p3
224.87 497.73 0.43 c p3
225.02 496.44 0.43 c p3
225.17 497.54 0.43 c p3
225.31 498.28 0.43 c p3
225.46 498.09 0.43 c p3
225.60 497.54 0.43 c p3
225.75 496.62 0.43 c p3
225.89 496.80 0.43 c p3
226.04 498.09 0.43 c p3
226.19 496.80 0.43 c p3
226.33 497.91 0.43 c p3
226.48 497.36 0.43 c p3
226.62 497.91 0.43 c p3
226.77 497.91 0.43 c p3
226.91 497.36 0.43 c p3
227.06 497.91 0.43 c p3
227.20 497.17 0.43 c p3
227.35 496.99 0.43 c p3
227.50 496.62 0.43 c p3
227.64 497.91 0.43 c p3
227.79 497.36 0.43 c p3
227.93 497.17 0.43 c p3
228.08 498.09 0.43 c p3
228.22 496.99 0.43 c p3
228.37 497.17 0.43 c p3
228.51 497.17 0.43 c p3
228.66 496.25 0.43 c p3
228.81 496.99 0.43 c p3
228.95 497.36 0.43 c p3
229.10 496.62 0.43 c p3
229.24 496.99 0.43 c p3
229.39 498.65 0.43 c p3
229.53 497.36 0.43 c p3
229.68 497.36 0.43 c p3
229.82 497.36 0.43 c p3
229.97 496.25 0.43 c p3
230.12 496.99 0.43 c p3
230.26 496.99 0.43 c p3
230.41 497.17 0.43 c p3
230.55 498.09 0.43 c p3
230.70 497.36 0.43 c p3
230.84 497.73 0.43 c p3
230.99 496.80 0.43 c p3
231.14 496.99 0.43 c p3
231.28 497.17 0.43 c p3
231.43 496.62 0.43 c p3
231.57 497.54 0.43 c p3
231.72 498.09 0.43 c p3
231.86 497.73 0.43 c p3
232.01 497.17 0.43 c p3
232.15 497.73 0.43 c p3
232.30 497.36 0.43 c p3
232.45 496.99 0.43 c p3
232.59 497.54 0.43 c p3
232.74 497.91 0.43 c p3
232.88 497.54 0.43 c p3
233.03 498.09 0.43 c p3
233.17 497.91 0.43 c p3
233.32 497.17 0.43 c p3
233.46 497.73 0.43 c p3
233.61 497.73 0.43 c p3
233.76 496.99 0.43 c p3
233.90 496.80 0.43 c p3
234.05 497.73 0.43 c p3
234.19 497.17 0.43 c p3
234.34 497.54 0.43 c p3
234.48 497.54 0.43 c p3
234.63 498.09 0.43 c p3
234.77 496.80 0.43 c p3
234.92 497.54 0.43 c p3
235.07 496.99 0.43 c p3
235.21 498.28 0.43 c p3
235.36 497.54 0.43 c p3
235.50 497.91 0.43 c p3
235.65 497.54 0.43 c p3
235.79 496.25 0.43 c p3
235.94 496.99 0.43 c p3
236.09 497.91 0.43 c p3
236.23 497.36 0.43 c p3
236.38 497.17 0.43 c p3
236.52 498.46 0.43 c p3
236.67 496.99 0.43 c p3
236.81 498.09 0.43 c p3
236.96 449.96 0.43 c p3
237.10 451.20 0.43 c p3
237.25 451.77 0.43 c p3
237.40 453.80 0.43 c p3
237.54 453.80 0.43 c p3
237.69 454.72 0.43 c p3
237.83 456.16 0.43 c p3
237.98 456.34 0.43 c p3
238.12 457.63 0.43 c p3
238.27 458.00 0.43 c p3
238.41 458.37 0.43 c p3
238.56 459.66 0.43 c p3
238.71 459.84 0.43 c p3
238.85 460.73 0.43 c p3
239.00 462.02 0.43 c p3
239.14 462.02 0.43 c p3
239.29 462.39 0.43 c p3
239.43 462.58 0.43 c p3
239.58 463.86 0.43 c p3
239.72 463.50 0.43 c p3
239.87 464.79 0.43 c p3
240.02 463.86 0.43 c p3
240.16 465.34 0.43 c p3
240.31 465.49 0.43 c p3
240.45 466.04 0.43 c p3
240.60 466.23 0.43 c p3
240.74 465.86 0.43 c p3
240.89 465.68 0.43 c p3
241.04 466.97 0.43 c p3
241.18 468.44 0.43 c p3
241.33 467.52 0.43 c p3
241.47 468.44 0.43 c p3
241.62 468.44 0.43 c p3
241.76 469.54 0.43 c p3
241.91 468.44 0.43 c p3
242.05 468.99 0.43 c p3
242.20 470.10 0.43 c p3
242.35 471.36 0.43 c p3
242.49 469.73 0.43 c p3
242.64 470.80 0.43 c p3
242.78 470.43 0.43 c p3
242.93 471.91 0.43 c p3
243.07 471.72 0.43 c p3
243.22 472.46 0.43 c p3
243.36 472.09 0.43 c p3
243.51 472.83 0.43 c p3
243.66 472.28 0.43 c p3
243.80 472.64 0.43 c p3
243.95 473.38 0.43 c p3
244.09 474.12 0.43 c p3
244.24 473.38 0.43 c p3
244.38 473.75 0.43 c p3
244.53 474.12 0.43 c p3
244.67 475.22 0.43 c p3
244.82 473.93 0.43 c p3
244.97 475.04 0.43 c p3
245.11 475.56 0.43 c p3
245.26 474.67 0.43 c p3
245.40 474.67 0.43 c p3
245.55 475.75 0.43 c p3
245.69 476.11 0.43 c p3
245.84 475.93 0.43 c p3
245.99 475.38 0.43 c p3
246.13 476.48 0.43 c p3
246.28 476.85 0.43 c p3
246.42 477.59 0.43 c p3
246.57 477.96 0.43 c p3
246.71 477.96 0.43 c p3
246.86 477.59 0.43 c p3
247.00 478.69 0.43 c p3
247.15 477.59 0.43 c p3
247.30 478.14 0.43 c p3
247.44 479.06 0.43 c p3
247.59 479.24 0.43 c p3
247.73 477.77 0.43 c p3
247.88 478.88 0.43 c p3
248.02 479.98 0.43 c p3
248.17 479.43 0.43 c p3
248.31 479.80 0.43 c p3
248.46 480.17 0.43 c p3
248.61 480.87 0.43 c p3
248.75 479.98 0.43 c p3
248.90 480.32 0.43 c p3
249.04 480.87 0.43 c p3
249.19 481.06 0.43 c p3
249.33 480.87 0.43 c p3
249.48 480.87 0.43 c p3
249.62 481.79 0.43 c p3
249.77 481.98 0.43 c p3
249.92 481.61 0.43 c p3
250.06 482.16 0.43 c p3
250.21 481.42 0.43 c p3
250.35 482.90 0.43 c p3
250.50 482.16 0.43 c p3
250.64 482.35 0.43 c p3
250.79 483.45 0.43 c p3
250.94 482.53 0.43 c p3
251.08 482.35 0.43 c p3
251.23 482.16 0.43 c p3
251.37 483.08 0.43 c p3
251.52 482.90 0.43 c p3
251.66 483.08 0.43 c p3
251.81 483.27 0.43 c p3
251.95 482.35 0.43 c p3
252.10 484.37 0.43 c p3
252.25 483.45 0.43 c p3
252.39 483.08 0.43 c p3
252.54 482.90 0.43 c p3
252.68 484.19 0.43 c p3
252.83 484.37 0.43 c p3
252.97 483.82 0.43 c p3
253.12 484.74 0.43 c p3
253.26 484.56 0.43 c p3
253.41 484.56 0.43 c p3
253.56 484.37 0.43 c p3
253.70 483.63 0.43 c p3
253.85 484.37 0.43 c p3
253.99 485.81 0.43 c p3
254.14 484.00 0.43 c p3
254.28 484.74 0.43 c p3
254.43 484.74 0.43 c p3
254.57 485.81 0.43 c p3
254.72 484.92 0.43 c p3
254.87 484.92 0.43 c p3
255.01 486.18 0.43 c p3
255.16 485.81 0.43 c p3
255.30 485.26 0.43 c p3
255.45 485.81 0.43 c p3
255.59 485.63 0.43 c p3
255.74 484.92 0.43 c p3
255.88 485.26 0.43 c p3
256.03 485.26 0.43 c p3
256.18 485.63 0.43 c p3
256.32 485.45 0.43 c p3
256.47 486.55 0.43 c p3
256.61 486.73 0.43 c p3
256.76 486.73 0.43 c p3
256.90 486.18 0.43 c p3
257.05 486.92 0.43 c p3
257.20 485.45 0.43 c p3
257.34 486.37 0.43 c p3
257.49 486.37 0.43 c p3
257.63 486.92 0.43 c p3
257.78 486.92 0.43 c p3
257.92 486.18 0.43 c p3
258.07 486.73 0.43 c p3
258.21 486.18 0.43 c p3
258.36 487.10 0.43 c p3
258.51 487.84 0.43 c p3
258.65 487.10 0.43 c p3
258.80 486.92 0.43 c p3
258.94 486.18 0.43 c p3
259.09 487.29 0.43 c p3
259.23 486.92 0.43 c p3
259.38 487.10 0.43 c p3
259.52 486.55 0.43 c p3
259.67 488.02 0.43 c p3
259.82 488.21 0.43 c p3
259.96 487.84 0.43 c p3
260.11 487.10 0.43 c p3
260.25 487.29 0.43 c p3
260.40 488.21 0.43 c p3
260.54 488.02 0.43 c p3
260.69 487.66 0.43 c p3
260.83 486.73 0.43 c p3
260.98 488.76 0.43 c p3
261.13 487.10 0.43 c p3
261.27 487.10 0.43 c p3
261.42 488.58 0.43 c p3
261.56 488.02 0.43 c p3
261.71 488.39 0.43 c p3
261.85 486.92 0.43 c p3
262.00 487.29 0.43 c p3
262.15 488.02 0.43 c p3
262.29 487.66 0.43 c p3
262.44 487.84 0.43 c p3
262.58 488.58 0.43 c p3
262.73 488.21 0.43 c p3
262.87 487.66 0.43 c p3
263.02 488.76 0.43 c p3
263.16 488.95 0.43 c p3
263.31 489.13 0.43 c p3
263.46 488.39 0.43 c p3
263.60 489.50 0.43 c p3
263.75 489.50 0.43 c p3
263.89 488.58 0.43 c p3
264.04 488.02 0.43 c p3
264.18 488.39 0.43 c p3
264.33 488.58 0.43 c p3
264.47 489.68 0.43 c p3
264.62 488.95 0.43 c p3
264.77 488.76 0.43 c p3
264.91 488.76 0.43 c p3
265.06 489.13 0.43 c p3
265.20 489.31 0.43 c p3
265.35 489.31 0.43 c p3
265.49 489.50 0.43 c p3
265.64 489.50 0.43 c p3
265.78 490.20 0.43 c p3
265.93 488.21 0.43 c p3
266.08 489.50 0.43 c p3
266.22 489.87 0.43 c p3
266.37 489.50 0.43 c p3
266.51 489.13 0.43 c p3
266.66 490.57 0.43 c p3
266.80 490.20 0.43 c p3
266.95 488.76 0.43 c p3
267.10 489.31 0.43 c p3
267.24 490.05 0.43 c p3
267.39 490.57 0.43 c p3
267.53 489.50 0.43 c p3
267.68 488.95 0.43 c p3
267.82 490.05 0.43 c p3
267.97 489.68 0.43 c p3
268.11 489.31 0.43 c p3
268.26 489.50 0.43 c p3
268.41 490.20 0.43 c p3
268.55 488.95 0.43 c p3
268.70 490.05 0.43 c p3
268.84 490.05 0.43 c p3
268.99 490.05 0.43 c p3
269.13 490.76 0.43 c p3
269.28 490.05 0.43 c p3
269.42 489.87 0.43 c p3
269.57 490.05 0.43 c p3
269.72 489.87 0.43 c p3
269.86 489.87 0.43 c p3
270.01 489.87 0.43 c p3
270.15 490.05 0.43 c p3
270.30 490.39 0.43 c p3
270.44 490.39 0.43 c p3
270.59 490.20 0.43 c p3
270.73 490.94 0.43 c p3
270.88 490.20 0.43 c p3
271.03 490.57 0.43 c p3
271.17 490.39 0.43 c p3
271.32 491.86 0.43 c p3
271.46 491.31 0.43 c p3
271.61 491.13 0.43 c p3
271.75 489.68 0.43 c p3
271.90 491.13 0.43 c p3
272.05 489.68 0.43 c p3
272.19 490.57 0.43 c p3
272.34 490.20 0.43 c p3
272.48 491.49 0.43 c p3
272.63 490.76 0.43 c p3
272.77 490.57 0.43 c p3
272.92 490.94 0.43 c p3
273.06 491.49 0.43 c p3
273.21 490.57 0.43 c p3
273.36 491.68 0.43 c p3
273.50 491.49 0.43 c p3
273.65 490.94 0.43 c p3
273.79 490.76 0.43 c p3
273.94 491.68 0.43 c p3
274.08 490.76 0.43 c p3
274.23 491.86 0.43 c p3
274.37 491.49 0.43 c p3
274.52 490.20 0.43 c p3
274.67 491.13 0.43 c p3
274.81 491.68 0.43 c p3
274.96 490.94 0.43 c p3
275.10 492.23 0.43 c p3
275.25 491.13 0.43 c p3
275.39 490.05 0.43 c p3
275.54 492.97 0.43 c p3
275.68 489.50 0.43 c p3
275.83 491.31 0.43 c p3
275.98 491.31 0.43 c p3
276.12 491.31 0.43 c p3
276.27 490.76 0.43 c p3
276.41 491.13 0.43 c p3
276.56 492.78 0.43 c p3
276.70 491.13 0.43 c p3
276.85 492.97 0.43 c p3
277.00 491.49 0.43 c p3
277.14 496.25 0.43 c p3
277.29 493.89 0.43 c p3
277.43 493.52 0.43 c p3
277.58 493.34 0.43 c p3
277.72 493.70 0.43 c p3
277.87 493.70 0.43 c p3
278.01 494.44 0.43 c p3
278.16 493.70 0.43 c p3
278.31 492.41 0.43 c p3
278.45 492.05 0.43 c p3
278.60 492.78 0.43 c p3
278.74 492.23 0.43 c p3
278.89 492.97 0.43 c p3
279.03 492.41 0.43 c p3
279.18 492.78 0.43 c p3
279.32 491.49 0.43 c p3
279.47 492.05 0.43 c p3
279.62 492.97 0.43 c p3
279.76 492.97 0.43 c p3
279.91 494.26 0.43 c p3
280.05 495.15 0.43 c p3
280.20 493.89 0.43 c p3
280.34 493.15 0.43 c p3
280.49 492.78 0.43 c p3
280.63 494.99 0.43 c p3
280.78 495.33 0.43 c p3
280.93 495.51 0.43 c p3
281.07 495.88 0.43 c p3
281.22 496.25 0.43 c p3
281.36 495.15 0.43 c p3
281.51 492.97 0.43 c p3
281.65 493.89 0.43 c p3
281.80 493.70 0.43 c p3
281.95 492.78 0.43 c p3
282.09 492.60 0.43 c p3
282.24 492.78 0.43 c p3
282.38 492.78 0.43 c p3
282.53 494.07 0.43 c p3
282.67 493.15 0.43 c p3
282.82 491.68 0.43 c p3
282.96 493.34 0.43 c p3
283.11 494.99 0.43 c p3
283.26 493.89 0.43 c p3
283.40 493.89 0.43 c p3
283.55 493.34 0.43 c p3
283.69 493.15 0.43 c p3
283.84 493.34 0.43 c p3
283.98 492.97 0.43 c p3
284.13 492.41 0.43 c p3
284.27 492.60 0.43 c p3
284.42 493.89 0.43 c p3
284.57 493.34 0.43 c p3
284.71 493.89 0.43 c p3
284.86 494.07 0.43 c p3
285.00 493.89 0.43 c p3
285.15 493.70 0.43 c p3
285.29 493.34 0.43 c p3
285.44 494.62 0.43 c p3
285.58 494.62 0.43 c p3
285.73 492.78 0.43 c p3
285.88 493.70 0.43 c p3
286.02 493.34 0.43 c p3
286.17 494.44 0.43 c p3
286.31 493.89 0.43 c p3
286.46 493.70 0.43 c p3
286.60 495.15 0.43 c p3
286.75 494.44 0.43 c p3
286.89 492.97 0.43 c p3
287.04 494.26 0.43 c p3
287.19 494.81 0.43 c p3
287.33 494.62 0.43 c p3
287.48 493.34 0.43 c p3
287.62 494.99 0.43 c p3
287.77 494.62 0.43 c p3
287.91 493.70 0.43 c p3
288.06 494.62 0.43 c p3
288.21 493.52 0.43 c p3
288.35 494.62 0.43 c p3
288.50 493.70 0.43 c p3
288.64 494.99 0.43 c p3
288.79 494.26 0.43 c p3
288.93 494.44 0.43 c p3
289.08 494.07 0.43 c p3
289.22 493.52 0.43 c p3
289.37 494.62 0.43 c p3
289.52 494.26 0.43 c p3
289.66 493.89 0.43 c p3
289.81 493.89 0.43 c p3
289.95 494.62 0.43 c p3
290.10 493.89 0.43 c p3
290.24 494.62 0.43 c p3
290.39 493.89 0.43 c p3
290.53 494.81 0.43 c p3
290.68 495.33 0.43 c p3
290.83 494.62 0.43 c p3
290.97 493.89 0.43 c p3
291.12 494.62 0.43 c p3
291.26 495.51 0.43 c p3
291.41 494.62 0.43 c p3
291.55 493.15 0.43 c p3
291.70 494.81 0.43 c p3
291.84 494.44 0.43 c p3
291.99 494.62 0.43 c p3
292.14 494.07 0.43 c p3
292.28 495.70 0.43 c p3
292.43 494.44 0.43 c p3
292.57 494.62 0.43 c p3
292.72 494.81 0.43 c p3
292.86 493.70 0.43 c p3
293.01 494.44 0.43 c p3
293.16 495.88 0.43 c p3
293.30 494.26 0.43 c p3
293.45 494.81 0.43 c p3
293.59 494.99 0.43 c p3
293.74 495.51 0.43 c p3
293.88 494.44 0.43 c p3
294.03 495.15 0.43 c p3
294.17 496.07 0.43 c p3
294.32 495.70 0.43 c p3
294.47 494.62 0.43 c p3
294.61 494.07 0.43 c p3
294.76 495.15 0.43 c p3
294.90 496.25 0.43 c p3
295.05 495.51 0.43 c p3
295.19 494.99 0.43 c p3
295.34 494.44 0.43 c p3
295.48 495.33 0.43 c p3
295.63 494.81 0.43 c p3
295.78 495.51 0.43 c p3
295.92 495.33 0.43 c p3
296.07 494.44 0.43 c p3
296.21 495.70 0.43 c p3
296.36 495.51 0.43 c p3
296.50 495.15 0.43 c p3
296.65 495.51 0.43 c p3
296.79 495.15 0.43 c p3
296.94 495.33 0.43 c p3
297.09 495.51 0.43 c p3
297.23 495.33 0.43 c p3
297.38 494.62 0.43 c p3
297.52 495.33 0.43 c p3
297.67 495.88 0.43 c p3
297.81 495.15 0.43 c p3
297.96 494.44 0.43 c p3
298.11 495.88 0.43 c p3
298.25 495.88 0.43 c p3
298.40 495.51 0.43 c p3
298.54 496.25 0.43 c p3
298.69 496.07 0.43 c p3
298.83 496.80 0.43 c p3
298.98 495.88 0.43 c p3
299.12 495.33 0.43 c p3
299.27 495.70 0.43 c p3
299.42 495.88 0.43 c p3
299.56 495.88 0.43 c p3
299.71 496.25 0.43 c p3
299.85 496.44 0.43 c p3
300.00 495.51 0.43 c p3
300.14 495.51 0.43 c p3
300.29 495.33 0.43 c p3
300.43 496.25 0.43 c p3
300.58 495.33 0.43 c p3
300.73 495.51 0.43 c p3
300.87 496.07 0.43 c p3
301.02 495.51 0.43 c p3
301.16 496.80 0.43 c p3
301.31 495.15 0.43 c p3
301.45 495.70 0.43 c p3
301.60 495.51 0.43 c p3
301.74 496.25 0.43 c p3
301.89 496.99 0.43 c p3
302.04 495.51 0.43 c p3
302.18 495.70 0.43 c p3
302.33 496.25 0.43 c p3
302.47 495.88 0.43 c p3
302.62 495.33 0.43 c p3
302.76 495.88 0.43 c p3
302.91 496.62 0.43 c p3
303.06 496.07 0.43 c p3
303.20 495.33 0.43 c p3
303.35 495.70 0.43 c p3
303.49 496.62 0.43 c p3
303.64 495.88 0.43 c p3
303.78 496.80 0.43 c p3
303.93 495.70 0.43 c p3
304.07 496.07 0.43 c p3
304.22 495.88 0.43 c p3
304.37 495.70 0.43 c p3
304.51 496.44 0.43 c p3
304.66 496.07 0.43 c p3
304.80 496.07 0.43 c p3
304.95 495.70 0.43 c p3
305.09 495.88 0.43 c p3
305.24 496.25 0.43 c p3
305.38 496.80 0.43 c p3
305.53 495.33 0.43 c p3
305.68 497.36 0.43 c p3
305.82 496.44 0.43 c p3
305.97 496.62 0.43 c p3
306.11 496.44 0.43 c p3
306.26 497.54 0.43 c p3
306.40 496.44 0.43 c p3
306.55 496.25 0.43 c p3
306.69 496.62 0.43 c p3
306.84 497.36 0.43 c p3
306.99 496.44 0.43 c p3
307.13 495.88 0.43 c p3
307.28 496.44 0.43 c p3
307.42 497.36 0.43 c p3
307.57 496.62 0.43 c p3
307.71 496.99 0.43 c p3
307.86 496.80 0.43 c p3
308.01 497.17 0.43 c p3
308.15 498.09 0.43 c p3
308.30 496.25 0.43 c p3
308.44 496.07 0.43 c p3
308.59 496.62 0.43 c p3
308.73 497.91 0.43 c p3
308.88 497.17 0.43 c p3
309.02 497.36 0.43 c p3
309.17 497.17 0.43 c p3
309.32 497.36 0.43 c p3
309.46 496.25 0.43 c p3
309.61 497.17 0.43 c p3
309.75 496.62 0.43 c p3
309.90 496.99 0.43 c p3
310.04 497.36 0.43 c p3
310.19 496.25 0.43 c p3
310.33 496.44 0.43 c p3
310.48 497.54 0.43 c p3
310.63 496.44 0.43 c p3
310.77 496.62 0.43 c p3
310.92 497.17 0.43 c p3
311.06 496.44 0.43 c p3
311.21 497.36 0.43 c p3
311.35 496.99 0.43 c p3
311.50 497.17 0.43 c p3
311.64 497.17 0.43 c p3
311.79 497.36 0.43 c p3
311.94 497.36 0.43 c p3
312.08 497.91 0.43 c p3
312.23 496.62 0.43 c p3
312.37 497.54 0.43 c p3
312.52 496.44 0.43 c p3
312.66 495.88 0.43 c p3
312.81 497.36 0.43 c p3
312.96 496.80 0.43 c p3
313.10 497.73 0.43 c p3
313.25 496.99 0.43 c p3
313.39 497.54 0.43 c p3
313.54 497.91 0.43 c p3
313.68 495.88 0.43 c p3
313.83 497.36 0.43 c p3
313.97 497.73 0.43 c p3
314.12 498.46 0.43 c p3
314.27 496.80 0.43 c p3
314.41 497.36 0.43 c p3
314.56 497.54 0.43 c p3
314.70 497.91 0.43 c p3
314.85 497.17 0.43 c p3
314.99 497.73 0.43 c p3
315.14 498.09 0.43 c p3
315.28 496.62 0.43 c p3
315.43 497.17 0.43 c p3
315.58 498.09 0.43 c p3
315.72 497.17 0.43 c p3
315.87 497.54 0.43 c p3
316.01 497.73 0.43 c p3
316.16 497.36 0.43 c p3
316.30 497.73 0.43 c p3
316.45 498.28 0.43 c p3
316.59 497.17 0.43 c p3
316.74 497.73 0.43 c p3
316.89 496.99 0.43 c p3
317.03 498.46 0.43 c p3
317.18 497.17 0.43 c p3
317.32 498.65 0.43 c p3
317.47 497.54 0.43 c p3
317.61 497.91 0.43 c p3
317.76 498.46 0.43 c p3
317.91 497.17 0.43 c p3
318.05 496.80 0.43 c p3
318.20 498.28 0.43 c p3
318.34 496.80 0.43 c p3
318.49 498.28 0.43 c p3
318.63 497.73 0.43 c p3
318.78 497.73 0.43 c p3
318.92 498.28 0.43 c p3
319.07 497.91 0.43 c p3
319.22 498.46 0.43 c p3
319.36 498.09 0.43 c p3
319.51 497.91 0.43 c p3
319.65 497.91 0.43 c p3
319.80 497.73 0.43 c p3
319.94 498.28 0.43 c p3
320.09 497.17 0.43 c p3
320.23 498.28 0.43 c p3
320.38 497.73 0.43 c p3
320.53 498.46 0.43 c p3
320.67 498.46 0.43 c p3
320.82 498.09 0.43 c p3
320.96 498.28 0.43 c p3
321.11 498.09 0.43 c p3
321.25 498.28 0.43 c p3
321.40 497.91 0.43 c p3
321.54 498.09 0.43 c p3
321.69 498.46 0.43 c p3
321.84 498.28 0.43 c p3
321.98 497.17 0.43 c p3
322.13 498.28 0.43 c p3
322.27 498.28 0.43 c p3
322.42 497.91 0.43 c p3
322.56 498.65 0.43 c p3
322.71 497.73 0.43 c p3
322.85 498.46 0.43 c p3
323.00 497.91 0.43 c p3
323.15 497.54 0.43 c p3
323.29 498.46 0.43 c p3
323.44 498.46 0.43 c p3
323.58 497.36 0.43 c p3
323.73 498.09 0.43 c p3
323.87 498.28 0.43 c p3
324.02 498.65 0.43 c p3
324.17 496.99 0.43 c p3
324.31 497.73 0.43 c p3
324.46 498.65 0.43 c p3
324.60 498.28 0.43 c p3
324.75 498.46 0.43 c p3
324.89 497.91 0.43 c p3
325.04 498.28 0.43 c p3
325.18 498.09 0.43 c p3
325.33 497.73 0.43 c p3
325.48 498.46 0.43 c p3
325.62 498.09 0.43 c p3
325.77 497.91 0.43 c p3
325.91 497.54 0.43 c p3
326.06 498.46 0.43 c p3
326.20 496.99 0.43 c p3
326.35 496.99 0.43 c p3
326.49 498.09 0.43 c p3
326.64 499.20 0.43 c p3
326.79 499.01 0.43 c p3
326.93 498.28 0.43 c p3
327.08 498.09 0.43 c p3
327.22 498.83 0.43 c p3
327.37 499.01 0.43 c p3
327.51 498.65 0.43 c p3
327.66 498.46 0.43 c p3
327.80 498.83 0.43 c p3
327.95 499.57 0.43 c p3
328.10 498.28 0.43 c p3
328.24 497.73 0.43 c p3
328.39 497.91 0.43 c p3
328.53 499.01 0.43 c p3
328.68 499.20 0.43 c p3
328.82 498.65 0.43 c p3
328.97 497.54 0.43 c p3
329.12 498.83 0.43 c p3
329.26 499.20 0.43 c p3
329.41 498.28 0.43 c p3
329.55 499.94 0.43 c p3
329.70 499.01 0.43 c p3
329.84 498.65 0.43 c p3
329.99 498.09 0.43 c p3
330.13 499.38 0.43 c p3
330.28 499.57 0.43 c p3
330.43 499.75 0.43 c p3
330.57 497.17 0.43 c p3
330.72 497.73 0.43 c p3
330.86 499.20 0.43 c p3
331.01 497.73 0.43 c p3
331.15 499.38 0.43 c p3
331.30 498.83 0.43 c p3
331.44 499.01 0.43 c p3
331.59 497.36 0.43 c p3
331.74 499.75 0.43 c p3
331.88 498.46 0.43 c p3
332.03 498.83 0.43 c p3
332.17 499.57 0.43 c p3
332.32 498.28 0.43 c p3
332.46 499.38 0.43 c p3
332.61 499.75 0.43 c p3
332.75 498.83 0.43 c p3
332.90 498.46 0.43 c p3
333.05 498.28 0.43 c p3
333.19 500.27 0.43 c p3
333.34 499.01 0.43 c p3
333.48 499.20 0.43 c p3
333.63 498.28 0.43 c p3
333.77 499.38 0.43 c p3
333.92 498.28 0.43 c p3
334.07 499.57 0.43 c p3
334.21 497.91 0.43 c p3
334.36 498.83 0.43 c p3
334.50 498.46 0.43 c p3
334.65 498.65 0.43 c p3
334.79 498.65 0.43 c p3
334.94 500.09 0.43 c p3
335.08 499.01 0.43 c p3
335.23 499.01 0.43 c p3
335.38 498.28 0.43 c p3
335.52 497.73 0.43 c p3
335.67 498.09 0.43 c p3
335.81 499.94 0.43 c p3
335.96 498.28 0.43 c p3
336.10 499.57 0.43 c p3
336.25 499.01 0.43 c p3
336.39 499.57 0.43 c p3
336.54 498.83 0.43 c p3
336.69 499.20 0.43 c p3
336.83 499.57 0.43 c p3
336.98 499.01 0.43 c p3
337.12 498.28 0.43 c p3
337.27 499.20 0.43 c p3
337.41 498.65 0.43 c p3
337.56 498.09 0.43 c p3
337.70 499.20 0.43 c p3
337.85 499.20 0.43 c p3
338.00 499.20 0.43 c p3
338.14 499.20 0.43 c p3
338.29 499.01 0.43 c p3
338.43 500.27 0.43 c p3
338.58 499.57 0.43 c p3
338.72 500.27 0.43 c p3
338.87 499.75 0.43 c p3
339.02 499.38 0.43 c p3
339.16 499.20 0.43 c p3
339.31 498.46 0.43 c p3
339.45 499.01 0.43 c p3
339.60 499.94 0.43 c p3
339.74 499.20 0.43 c p3
339.89 497.91 0.43 c p3
340.03 499.38 0.43 c p3
340.18 499.38 0.43 c p3
340.33 499.75 0.43 c p3
340.47 499.75 0.43 c p3
340.62 499.57 0.43 c p3
340.76 499.20 0.43 c p3
340.91 499.20 0.43 c p3
341.05 498.65 0.43 c p3
341.20 498.65 0.43 c p3
341.34 500.09 0.43 c p3
341.49 498.83 0.43 c p3
341.64 499.20 0.43 c p3
341.78 499.75 0.43 c p3
341.93 498.83 0.43 c p3
342.07 499.94 0.43 c p3
342.22 498.83 0.43 c p3
342.36 500.09 0.43 c p3
342.51 499.57 0.43 c p3
342.65 499.20 0.43 c p3
342.80 499.75 0.43 c p3
342.95 499.01 0.43 c p3
343.09 498.83 0.43 c p3
343.24 497.36 0.43 c p3
343.38 498.83 0.43 c p3
343.53 499.57 0.43 c p3
343.67 499.57 0.43 c p3
343.82 499.38 0.43 c p3
343.97 497.91 0.43 c p3
344.11 500.27 0.43 c p3
344.26 499.38 0.43 c p3
344.40 499.57 0.43 c p3
344.55 498.83 0.43 c p3
344.69 499.57 0.43 c p3
344.84 498.65 0.43 c p3
344.98 499.75 0.43 c p3
345.13 499.94 0.43 c p3
345.28 499.38 0.43 c p3
345.42 498.65 0.43 c p3
345.57 499.20 0.43 c p3
345.71 498.83 0.43 c p3
345.86 499.94 0.43 c p3
346.00 500.27 0.43 c p3
346.15 499.38 0.43 c p3
346.29 498.65 0.43 c p3
346.44 500.09 0.43 c p3
346.59 498.83 0.43 c p3
346.73 500.27 0.43 c p3
346.88 499.20 0.43 c p3
347.02 498.46 0.43 c p3
347.17 498.65 0.43 c p3
347.31 499.20 0.43 c p3
347.46 499.38 0.43 c p3
347.60 499.57 0.43 c p3
347.75 499.20 0.43 c p3
347.90 500.46 0.43 c p3
348.04 499.94 0.43 c p3
348.19 499.20 0.43 c p3
348.33 499.75 0.43 c p3
348.48 500.09 0.43 c p3
348.62 498.28 0.43 c p3
348.77 498.65 0.43 c p3
348.92 499.38 0.43 c p3
349.06 499.94 0.43 c p3
349.21 499.01 0.43 c p3
349.35 499.94 0.43 c p3
349.50 499.38 0.43 c p3
349.64 499.57 0.43 c p3
349.79 499.38 0.43 c p3
349.93 499.38 0.43 c p3
350.08 499.20 0.43 c p3
350.23 499.20 0.43 c p3
350.37 499.94 0.43 c p3
350.52 499.38 0.43 c p3
350.66 499.94 0.43 c p3
350.81 499.57 0.43 c p3
350.95 501.01 0.43 c p3
351.10 499.57 0.43 c p3
351.24 499.75 0.43 c p3
351.39 500.83 0.43 c p3
351.54 499.75 0.43 c p3
351.68 499.75 0.43 c p3
351.83 500.64 0.43 c p3
351.97 499.94 0.43 c p3
352.12 499.94 0.43 c p3
352.26 499.20 0.43 c p3
352.41 500.09 0.43 c p3
352.55 499.75 0.43 c p3
352.70 499.57 0.43 c p3
352.85 499.57 0.43 c p3
352.99 499.94 0.43 c p3
353.14 499.75 0.43 c p3
353.28 499.20 0.43 c p3
353.43 499.94 0.43 c p3
353.57 500.46 0.43 c p3
353.72 500.46 0.43 c p3
353.86 499.20 0.43 c p3
354.01 499.57 0.43 c p3
354.16 500.09 0.43 c p3
354.30 500.46 0.43 c p3
354.45 499.57 0.43 c p3
354.59 499.75 0.43 c p3
354.74 500.46 0.43 c p3
354.88 500.09 0.43 c p3
355.03 498.83 0.43 c p3
355.18 500.64 0.43 c p3
355.32 500.09 0.43 c p3
355.47 499.20 0.43 c p3
355.61 499.75 0.43 c p3
355.76 499.38 0.43 c p3
355.90 500.09 0.43 c p3
356.05 499.75 0.43 c p3
356.19 500.64 0.43 c p3
356.34 499.38 0.43 c p3
356.49 500.83 0.43 c p3
356.63 500.09 0.43 c p3
356.78 499.20 0.43 c p3
356.92 500.27 0.43 c p3
357.07 499.38 0.43 c p3
357.21 500.46 0.43 c p3
357.36 500.46 0.43 c p3
357.50 499.75 0.43 c p3
357.65 501.19 0.43 c p3
357.80 499.94 0.43 c p3
357.94 499.57 0.43 c p3
358.09 499.57 0.43 c p3
358.23 500.09 0.43 c p3
358.38 500.46 0.43 c p3
358.52 499.94 0.43 c p3
358.67 499.20 0.43 c p3
358.81 500.46 0.43 c p3
358.96 499.94 0.43 c p3
359.11 499.75 0.43 c p3
359.25 499.75 0.43 c p3
359.40 500.64 0.43 c p3
359.54 499.57 0.43 c p3
359.69 499.75 0.43 c p3
359.83 500.09 0.43 c p3
359.98 499.94 0.43 c p3
360.13 500.46 0.43 c p3
360.27 500.27 0.43 c p3
360.42 499.20 0.43 c p3
360.56 500.09 0.43 c p3
360.71 499.94 0.43 c p3
360.85 499.75 0.43 c p3
361.00 499.75 0.43 c p3
361.14 498.83 0.43 c p3
361.29 500.27 0.43 c p3
361.44 499.38 0.43 c p3
361.58 499.20 0.43 c p3
361.73 500.27 0.43 c p3
361.87 501.01 0.43 c p3
362.02 500.09 0.43 c p3
362.16 500.09 0.43 c p3
362.31 499.75 0.43 c p3
362.45 500.27 0.43 c p3
362.60 500.09 0.43 c p3
362.75 499.01 0.43 c p3
362.89 500.46 0.43 c p3
363.04 499.38 0.43 c p3
363.18 499.75 0.43 c p3
363.33 499.94 0.43 c p3
363.47 500.09 0.43 c p3
363.62 500.46 0.43 c p3
363.76 500.46 0.43 c p3
363.91 499.75 0.43 c p3
364.06 499.94 0.43 c p3
364.20 500.27 0.43 c p3
364.35 499.38 0.43 c p3
364.49 500.27 0.43 c p3
364.64 499.75 0.43 c p3
364.78 500.09 0.43 c p3
364.93 500.83 0.43 c p3
365.08 500.46 0.43 c p3
365.22 500.09 0.43 c p3
365.37 499.75 0.43 c p3
365.51 499.01 0.43 c p3
365.66 498.65 0.43 c p3
365.80 499.75 0.43 c p3
365.95 499.57 0.43 c p3
366.09 500.09 0.43 c p3
366.24 499.75 0.43 c p3
366.39 499.57 0.43 c p3
366.53 499.94 0.43 c p3
366.68 500.83 0.43 c p3
366.82 499.38 0.43 c p3
366.97 499.94 0.43 c p3
367.11 499.57 0.43 c p3
367.26 499.75 0.43 c p3
367.40 499.94 0.43 c p3
367.55 499.94 0.43 c p3
367.70 499.57 0.43 c p3
367.84 499.01 0.43 c p3
367.99 499.20 0.43 c p3
368.13 500.83 0.43 c p3
368.28 500.27 0.43 c p3
368.42 501.19 0.43 c p3
368.57 500.83 0.43 c p3
368.71 499.94 0.43 c p3
368.86 500.09 0.43 c p3
369.01 501.01 0.43 c p3
369.15 501.19 0.43 c p3
369.30 500.83 0.43 c p3
369.44 503.77 0.43 c p3
369.59 499.20 0.43 c p3
369.73 508.53 0.43 c p3
369.88 512.00 0.43 c p3
370.03 493.52 0.43 c p3
370.17 498.65 0.43 c p3
370.32 500.27 0.43 c p3
370.46 499.75 0.43 c p3
370.61 499.38 0.43 c p3
370.75 499.57 0.43 c p3
370.90 499.38 0.43 c p3
371.04 501.19 0.43 c p3
371.19 500.64 0.43 c p3
371.34 499.01 0.43 c p3
371.48 498.46 0.43 c p3
371.63 500.46 0.43 c p3
371.77 500.46 0.43 c p3
371.92 500.64 0.43 c p3
372.06 499.75 0.43 c p3
372.21 499.20 0.43 c p3
372.35 499.94 0.43 c p3
372.50 499.38 0.43 c p3
372.65 500.09 0.43 c p3
372.79 499.94 0.43 c p3
372.94 500.46 0.43 c p3
373.08 501.01 0.43 c p3
373.23 500.46 0.43 c p3
373.37 500.46 0.43 c p3
373.52 499.94 0.43 c p3
373.66 500.46 0.43 c p3
373.81 499.75 0.43 c p3
373.96 499.94 0.43 c p3
374.10 500.64 0.43 c p3
374.25 501.01 0.43 c p3
374.39 499.38 0.43 c p3
374.54 500.83 0.43 c p3
374.68 499.94 0.43 c p3
374.83 501.19 0.43 c p3
374.98 500.64 0.43 c p3
375.12 499.57 0.43 c p3
375.27 499.20 0.43 c p3
375.41 500.27 0.43 c p3
375.56 500.09 0.43 c p3
375.70 500.27 0.43 c p3
375.85 499.01 0.43 c p3
375.99 499.75 0.43 c p3
376.14 499.75 0.43 c p3
376.29 499.75 0.43 c p3
376.43 498.83 0.43 c p3
376.58 500.27 0.43 c p3
376.72 498.65 0.43 c p3
376.87 500.64 0.43 c p3
377.01 501.01 0.43 c p3
377.16 500.46 0.43 c p3
377.30 500.27 0.43 c p3
377.45 499.75 0.43 c p3
377.60 500.09 0.43 c p3
377.74 500.64 0.43 c p3
377.89 500.46 0.43 c p3
378.03 499.20 0.43 c p3
378.18 500.83 0.43 c p3
378.32 499.57 0.43 c p3
378.47 499.20 0.43 c p3
378.61 500.64 0.43 c p3
378.76 499.38 0.43 c p3
378.91 500.09 0.43 c p3
379.05 500.64 0.43 c p3
379.20 499.75 0.43 c p3
379.34 500.27 0.43 c p3
379.49 500.27 0.43 c p3
379.63 499.38 0.43 c p3
379.78 500.46 0.43 c p3
379.93 499.75 0.43 c p3
380.07 500.27 0.43 c p3
380.22 499.57 0.43 c p3
380.36 500.83 0.43 c p3
380.51 500.46 0.43 c p3
380.65 500.64 0.43 c p3
380.80 500.09 0.43 c p3
380.94 500.09 0.43 c p3
381.09 500.27 0.43 c p3
381.24 499.94 0.43 c p3
381.38 499.94 0.43 c p3
381.53 501.01 0.43 c p3
381.67 500.46 0.43 c p3
381.82 500.09 0.43 c p3
381.96 500.64 0.43 c p3
382.11 500.83 0.43 c p3
382.25 501.01 0.43 c p3
382.40 500.09 0.43 c p3
0.00 0.00 432.00 576.00 cl
0 0 0 srgb
0.75 setlinewidth
[] 0 setdash
1 setlinecap
1 setlinejoin
10.00 setmiterlimit
np
236.96 345.60 m
129.41 0 l
o
np
236.96 345.60 m
0 -5.76 l
o
np
269.31 345.60 m
0 -5.76 l
o
np
301.66 345.60 m
0 -5.76 l
o
np
334.02 345.60 m
0 -5.76 l
o
np
366.37 345.60 m
0 -5.76 l
o
/Font1 findfont 10 s
236.96 329.47 (0) .5 0 t
269.31 329.47 (10000) .5 0 t
334.02 329.47 (30000) .5 0 t
np
216.00 352.00 m
0 150.88 l
o
np
216.00 352.00 m
-5.76 0 l
o
np
216.00 377.15 m
-5.76 0 l
o
np
216.00 402.29 m
-5.76 0 l
o
np
216.00 427.44 m
-5.76 0 l
o
np
216.00 452.59 m
-5.76 0 l
o
np
216.00 477.74 m
-5.76 0 l
o
np
216.00 502.88 m
-5.76 0 l
o
209.09 348.41 (0.00) 1 0 t
209.09 373.56 (0.05) 1 0 t
209.09 398.70 (0.10) 1 0 t
209.09 423.85 (0.15) 1 0 t
209.09 449.00 (0.20) 1 0 t
209.09 474.15 (0.25) 1 0 t
209.09 499.29 (0.30) 1 0 t
np
216.00 345.60 m
172.80 0 l
0 172.80 l
-172.80 0 l
0 -172.80 l
o
0.00 0.00 432.00 576.00 cl
/Font1 findfont 10 s
0 0 0 srgb
302.40 313.34 (Time / ms \(total\)) .5 0 t
190.66 432.00 (U / V) .5 90 t
216.00 345.60 388.80 518.40 cl
0 0 0 srgb
0.38 setlinewidth
[ 1.13 1.88] 0 setdash
1 setlinecap
1 setlinejoin
10.00 setmiterlimit
np
222.69 345.60 m
0 172.80 l
o
np
234.48 345.60 m
0 172.80 l
o
np
237.54 345.60 m
0 172.80 l
o
np
322.85 345.60 m
0 172.80 l
o
86.40 57.60 388.80 288.00 cl
1 0 0 srgb
1.50 setlinewidth
[] 0 setdash
1 setlinecap
1 setlinejoin
10.00 setmiterlimit
np
97.60 279.47 m
1.41 -10.62 l
1.40 -10.08 l
1.41 -9.56 l
1.41 -9.07 l
1.41 -8.61 l
1.40 -8.16 l
1.41 -7.75 l
1.41 -7.35 l
1.40 -6.98 l
1.41 -6.62 l
1.41 -6.28 l
1.40 -5.96 l
1.41 -5.66 l
1.41 -5.36 l
1.41 -5.10 l
1.40 -4.83 l
1.41 -4.58 l
1.41 -4.35 l
1.40 -4.13 l
1.41 -3.91 l
1.41 -3.72 l
1.40 -3.53 l
1.41 -3.34 l
1.41 -3.18 l
1.41 -3.01 l
1.40 -2.86 l
1.41 -2.71 l
1.41 -2.57 l
1.40 -2.44 l
1.41 -2.32 l
1.41 -2.20 l
1.41 -2.08 l
1.40 -1.98 l
1.41 -1.88 l
1.41 -1.78 l
1.40 -1.69 l
1.41 -1.61 l
1.41 -1.52 l
1.40 -1.44 l
1.41 -1.37 l
1.41 -1.31 l
1.41 -1.23 l
1.40 -1.17 l
1.41 -1.11 l
1.41 -1.05 l
1.40 -1.01 l
1.41 -0.94 l
1.41 -0.90 l
1.40 -0.86 l
1.41 -0.81 l
1.41 -0.77 l
1.41 -0.73 l
1.40 -0.69 l
1.41 -0.66 l
1.41 -0.62 l
1.40 -0.59 l
1.41 -0.57 l
1.41 -0.53 l
1.41 -0.50 l
1.40 -0.48 l
1.41 -0.46 l
1.41 -0.43 l
1.40 -0.41 l
1.41 -0.39 l
1.41 -0.37 l
1.40 -0.35 l
1.41 -0.33 l
1.41 -0.31 l
1.41 -0.30 l
1.40 -0.29 l
1.41 -0.27 l
1.41 -0.25 l
1.40 -0.24 l
1.41 -0.23 l
1.41 -0.22 l
1.40 -0.21 l
1.41 -0.20 l
1.41 -0.18 l
1.41 -0.18 l
1.40 -0.17 l
1.41 -0.16 l
1.41 -0.15 l
1.40 -0.14 l
1.41 -0.14 l
1.41 -0.13 l
1.41 -0.12 l
1.40 -0.11 l
1.41 -0.12 l
1.41 -0.10 l
1.40 -0.10 l
1.41 -0.09 l
1.41 -0.09 l
1.40 -0.09 l
1.41 -0.08 l
1.41 -0.07 l
1.41 -0.08 l
1.40 -0.07 l
1.41 -0.06 l
1.41 -0.06 l
238.30 72.94 lineto
1.41 -0.06 l
1.41 -0.05 l
1.40 -0.05 l
1.41 -0.05 l
1.41 -0.04 l
1.41 -0.05 l
1.40 -0.04 l
1.41 -0.04 l
1.41 -0.03 l
1.40 -0.04 l
1.41 -0.03 l
1.41 -0.03 l
1.40 -0.03 l
1.41 -0.03 l
1.41 -0.03 l
1.41 -0.02 l
1.40 -0.02 l
1.41 -0.03 l
1.41 -0.02 l
1.40 -0.02 l
1.41 -0.02 l
1.41 -0.02 l
1.41 -0.02 l
1.40 -0.01 l
1.41 -0.02 l
1.41 -0.01 l
1.40 -0.02 l
1.41 -0.01 l
1.41 -0.01 l
1.40 -0.02 l
1.41 -0.01 l
1.41 -0.01 l
1.41 -0.01 l
1.40 -0.01 l
1.41 -0.01 l
1.41 -0.01 l
1.40 0 l
1.41 -0.01 l
1.41 -0.01 l
1.40 -0.01 l
1.41 0 l
1.41 -0.01 l
1.41 -0.01 l
1.40 0 l
1.41 -0.01 l
1.41 0 l
1.40 -0.01 l
1.41 0 l
1.41 -0.01 l
1.41 0 l
1.40 -0.01 l
1.41 0 l
1.41 0 l
1.40 -0.01 l
1.41 0 l
1.41 0 l
1.40 -0.01 l
1.41 0 l
1.41 0 l
1.41 0 l
1.40 -0.01 l
1.41 0 l
1.41 0 l
1.40 0 l
1.41 -0.01 l
1.41 0 l
1.40 0 l
1.41 0 l
1.41 0 l
1.41 0 l
1.40 0 l
1.41 -0.01 l
1.41 0 l
1.40 0 l
1.41 0 l
1.41 0 l
1.41 0 l
1.40 0 l
1.41 0 l
1.41 0 l
1.40 -0.01 l
1.41 0 l
1.41 0 l
1.40 0 l
1.41 0 l
1.41 0 l
1.41 0 l
1.40 0 l
1.41 0 l
1.41 0 l
1.40 0 l
1.41 0 l
1.41 0 l
1.40 0 l
1.41 0 l
1.41 0 l
1.41 0 l
1.40 0 l
1.41 -0.01 l
o
0.00 0.00 432.00 576.00 cl
0 0 0 srgb
0.75 setlinewidth
[] 0 setdash
1 setlinecap
1 setlinejoin
10.00 setmiterlimit
np
97.60 57.60 m
248.89 0 l
o
np
97.60 57.60 m
0 -5.76 l
o
np
159.82 57.60 m
0 -5.76 l
o
np
222.04 57.60 m
0 -5.76 l
o
np
284.27 57.60 m
0 -5.76 l
o
np
346.49 57.60 m
0 -5.76 l
o
/Font1 findfont 10 s
97.60 41.47 (0) .5 0 t
159.82 41.47 (10000) .5 0 t
222.04 41.47 (20000) .5 0 t
284.27 41.47 (30000) .5 0 t
346.49 41.47 (40000) .5 0 t
np
86.40 66.13 m
0 217.59 l
o
np
86.40 66.13 m
-5.76 0 l
o
np
86.40 97.22 m
-5.76 0 l
o
np
86.40 128.30 m
-5.76 0 l
o
np
86.40 159.39 m
-5.76 0 l
o
np
86.40 190.47 m
-5.76 0 l
o
np
86.40 221.55 m
-5.76 0 l
o
np
86.40 252.64 m
-5.76 0 l
o
np
86.40 283.72 m
-5.76 0 l
o
79.49 62.54 (0.00) 1 0 t
79.49 93.63 (0.02) 1 0 t
79.49 124.71 (0.04) 1 0 t
79.49 155.80 (0.06) 1 0 t
79.49 186.88 (0.08) 1 0 t
79.49 217.96 (0.10) 1 0 t
79.49 249.05 (0.12) 1 0 t
79.49 280.13 (0.14) 1 0 t
np
86.40 57.60 m
302.40 0 l
0 230.40 l
-302.40 0 l
0 -230.40 l
o
0.00 0.00 432.00 576.00 cl
/Font1 findfont 10 s
0 0 0 srgb
237.60 13.82 (Time / ms \(after pulse\)) .5 0 t
49.54 172.80 (Absorbance A) .5 90 t
86.40 57.60 388.80 288.00 cl
/bg { 1 1 1 srgb } def
0 0 0 srgb
0.75 setlinewidth
[] 0 setdash
1 setlinecap
1 setlinejoin
10.00 setmiterlimit
99.00 306.54 0.65 c p3
99.28 300.47 0.65 c p3
99.56 291.05 0.65 c p3
99.84 289.86 0.65 c p3
100.12 281.57 0.65 c p3
100.40 279.22 0.65 c p3
100.68 276.88 0.65 c p3
100.96 268.74 0.65 c p3
101.24 267.59 0.65 c p3
101.52 262.04 0.65 c p3
101.80 254.08 0.65 c p3
102.08 254.08 0.65 c p3
102.36 251.83 0.65 c p3
102.64 250.70 0.65 c p3
102.92 242.88 0.65 c p3
103.20 245.11 0.65 c p3
103.48 237.34 0.65 c p3
103.76 242.88 0.65 c p3
104.04 234.04 0.65 c p3
104.32 233.13 0.65 c p3
104.60 229.85 0.65 c p3
104.88 228.76 0.65 c p3
105.16 230.95 0.65 c p3
105.44 232.04 0.65 c p3
105.72 224.42 0.65 c p3
106.00 215.83 0.65 c p3
106.28 221.19 0.65 c p3
106.56 215.83 0.65 c p3
106.84 215.83 0.65 c p3
107.12 209.45 0.65 c p3
107.40 215.83 0.65 c p3
107.68 212.63 0.65 c p3
107.96 206.29 0.65 c p3
108.24 199.13 0.65 c p3
108.52 208.40 0.65 c p3
108.80 202.26 0.65 c p3
109.08 204.36 0.65 c p3
109.36 196.01 0.65 c p3
109.64 197.05 0.65 c p3
109.92 192.91 0.65 c p3
110.20 194.98 0.65 c p3
110.48 190.85 0.65 c p3
110.76 193.94 0.65 c p3
111.04 191.88 0.65 c p3
111.32 187.77 0.65 c p3
111.60 183.69 0.65 c p3
111.88 187.77 0.65 c p3
112.16 185.72 0.65 c p3
112.44 183.69 0.65 c p3
112.72 177.60 0.65 c p3
113.00 184.70 0.65 c p3
113.28 178.61 0.65 c p3
113.56 175.76 0.65 c p3
113.84 180.64 0.65 c p3
114.12 180.64 0.65 c p3
114.40 174.75 0.65 c p3
114.68 172.74 0.65 c p3
114.96 173.75 0.65 c p3
115.24 176.76 0.65 c p3
115.52 170.75 0.65 c p3
115.80 168.75 0.65 c p3
116.08 164.78 0.65 c p3
116.36 162.80 0.65 c p3
116.64 162.80 0.65 c p3
116.92 164.78 0.65 c p3
117.20 158.86 0.65 c p3
117.48 164.78 0.65 c p3
117.76 161.82 0.65 c p3
118.04 156.91 0.65 c p3
118.32 155.93 0.65 c p3
118.60 163.79 0.65 c p3
118.88 157.88 0.65 c p3
119.16 152.03 0.65 c p3
119.44 154.95 0.65 c p3
119.72 153.00 0.65 c p3
120.00 151.06 0.65 c p3
120.28 147.35 0.65 c p3
120.56 152.03 0.65 c p3
120.84 150.25 0.65 c p3
121.12 147.35 0.65 c p3
121.40 146.39 0.65 c p3
121.68 147.35 0.65 c p3
121.96 147.35 0.65 c p3
122.24 142.54 0.65 c p3
122.52 141.59 0.65 c p3
122.80 143.50 0.65 c p3
123.08 140.63 0.65 c p3
123.36 144.46 0.65 c p3
123.64 136.82 0.65 c p3
123.92 140.63 0.65 c p3
124.20 139.68 0.65 c p3
124.48 133.98 0.65 c p3
124.76 138.73 0.65 c p3
125.04 139.68 0.65 c p3
125.32 140.63 0.65 c p3
125.60 135.87 0.65 c p3
125.88 136.82 0.65 c p3
126.16 135.87 0.65 c p3
126.44 134.93 0.65 c p3
126.72 139.68 0.65 c p3
127.00 129.27 0.65 c p3
127.28 133.98 0.65 c p3
127.56 135.87 0.65 c p3
127.84 136.82 0.65 c p3
128.12 130.21 0.65 c p3
128.40 129.27 0.65 c p3
128.68 132.09 0.65 c p3
128.96 127.39 0.65 c p3
129.24 128.33 0.65 c p3
129.52 128.33 0.65 c p3
129.80 129.27 0.65 c p3
130.08 133.03 0.65 c p3
130.36 129.27 0.65 c p3
130.64 121.95 0.65 c p3
130.92 131.15 0.65 c p3
131.20 127.39 0.65 c p3
131.48 127.39 0.65 c p3
131.76 121.95 0.65 c p3
132.04 126.46 0.65 c p3
132.32 126.46 0.65 c p3
132.60 120.09 0.65 c p3
132.88 121.95 0.65 c p3
133.16 124.74 0.65 c p3
133.44 121.95 0.65 c p3
133.72 122.88 0.65 c p3
134.00 126.46 0.65 c p3
134.28 124.74 0.65 c p3
134.56 124.74 0.65 c p3
134.84 122.88 0.65 c p3
135.12 123.81 0.65 c p3
135.40 118.24 0.65 c p3
135.68 117.32 0.65 c p3
135.96 117.32 0.65 c p3
136.24 120.09 0.65 c p3
136.52 116.40 0.65 c p3
136.80 123.81 0.65 c p3
137.08 119.17 0.65 c p3
137.36 119.17 0.65 c p3
137.64 116.40 0.65 c p3
137.92 116.40 0.65 c p3
138.20 120.09 0.65 c p3
138.48 117.32 0.65 c p3
138.76 120.09 0.65 c p3
139.04 115.48 0.65 c p3
139.32 111.81 0.65 c p3
139.60 115.48 0.65 c p3
139.88 116.40 0.65 c p3
140.16 120.09 0.65 c p3
140.44 114.56 0.65 c p3
140.72 116.40 0.65 c p3
141.00 115.48 0.65 c p3
141.28 118.24 0.65 c p3
141.56 110.89 0.65 c p3
141.84 109.98 0.65 c p3
142.12 111.81 0.65 c p3
142.40 115.48 0.65 c p3
142.68 114.56 0.65 c p3
142.96 109.98 0.65 c p3
143.24 110.89 0.65 c p3
143.52 112.72 0.65 c p3
143.80 117.32 0.65 c p3
144.08 107.25 0.65 c p3
144.36 115.48 0.65 c p3
144.64 115.48 0.65 c p3
144.92 108.15 0.65 c p3
145.20 110.89 0.65 c p3
145.48 109.07 0.65 c p3
145.76 116.40 0.65 c p3
146.04 114.56 0.65 c p3
146.32 110.89 0.65 c p3
146.60 112.72 0.65 c p3
146.88 111.81 0.65 c p3
147.16 108.15 0.65 c p3
147.44 109.98 0.65 c p3
147.72 112.72 0.65 c p3
148.00 107.25 0.65 c p3
148.28 106.34 0.65 c p3
148.56 105.43 0.65 c p3
148.84 109.07 0.65 c p3
149.12 103.62 0.65 c p3
149.40 103.62 0.65 c p3
149.68 108.15 0.65 c p3
149.96 110.89 0.65 c p3
150.24 109.07 0.65 c p3
150.52 108.15 0.65 c p3
150.80 102.72 0.65 c p3
151.08 106.34 0.65 c p3
151.36 107.25 0.65 c p3
151.64 107.25 0.65 c p3
151.92 105.43 0.65 c p3
152.20 104.52 0.65 c p3
152.48 104.52 0.65 c p3
152.76 103.62 0.65 c p3
153.04 103.62 0.65 c p3
153.32 100.16 0.65 c p3
153.60 109.98 0.65 c p3
153.88 103.62 0.65 c p3
154.16 101.81 0.65 c p3
154.44 103.62 0.65 c p3
154.72 105.43 0.65 c p3
155.00 98.37 0.65 c p3
155.28 100.16 0.65 c p3
155.56 107.25 0.65 c p3
155.84 104.52 0.65 c p3
156.12 100.91 0.65 c p3
156.40 98.37 0.65 c p3
156.68 103.62 0.65 c p3
156.96 106.34 0.65 c p3
157.24 100.91 0.65 c p3
157.52 102.72 0.65 c p3
157.80 104.52 0.65 c p3
158.08 103.62 0.65 c p3
158.36 100.16 0.65 c p3
158.64 106.34 0.65 c p3
158.92 100.91 0.65 c p3
159.20 100.91 0.65 c p3
159.48 100.91 0.65 c p3
159.76 97.47 0.65 c p3
160.04 100.91 0.65 c p3
160.32 101.81 0.65 c p3
160.60 100.91 0.65 c p3
160.88 101.81 0.65 c p3
161.16 101.81 0.65 c p3
161.44 101.81 0.65 c p3
161.72 100.91 0.65 c p3
162.00 99.26 0.65 c p3
162.28 99.26 0.65 c p3
162.56 100.16 0.65 c p3
162.84 96.57 0.65 c p3
163.12 100.16 0.65 c p3
163.40 98.37 0.65 c p3
163.68 99.26 0.65 c p3
163.96 92.11 0.65 c p3
164.24 94.79 0.65 c p3
164.52 95.68 0.65 c p3
164.80 102.72 0.65 c p3
165.08 95.68 0.65 c p3
165.36 102.72 0.65 c p3
165.64 98.37 0.65 c p3
165.92 100.16 0.65 c p3
166.20 93.89 0.65 c p3
166.48 97.47 0.65 c p3
166.76 98.37 0.65 c p3
167.04 96.57 0.65 c p3
167.32 93.89 0.65 c p3
167.60 98.37 0.65 c p3
167.88 93.00 0.65 c p3
168.16 93.89 0.65 c p3
168.44 96.57 0.65 c p3
168.72 97.47 0.65 c p3
169.00 93.00 0.65 c p3
169.28 97.47 0.65 c p3
169.56 92.11 0.65 c p3
169.84 93.89 0.65 c p3
170.12 100.16 0.65 c p3
170.40 95.68 0.65 c p3
170.68 93.00 0.65 c p3
170.96 96.57 0.65 c p3
171.24 90.34 0.65 c p3
171.52 95.68 0.65 c p3
171.80 100.91 0.65 c p3
172.08 86.80 0.65 c p3
172.36 103.62 0.65 c p3
172.64 94.79 0.65 c p3
172.92 94.79 0.65 c p3
173.20 94.79 0.65 c p3
173.48 97.47 0.65 c p3
173.76 95.68 0.65 c p3
174.04 87.68 0.65 c p3
174.32 95.68 0.65 c p3
174.60 86.80 0.65 c p3
174.88 93.89 0.65 c p3
175.16 71.25 0.65 c p3
175.44 82.41 0.65 c p3
175.72 84.16 0.65 c p3
176.00 85.04 0.65 c p3
176.28 83.28 0.65 c p3
176.56 83.28 0.65 c p3
176.84 79.78 0.65 c p3
177.12 83.28 0.65 c p3
177.40 89.45 0.65 c p3
177.68 91.22 0.65 c p3
177.96 87.68 0.65 c p3
178.24 90.34 0.65 c p3
178.52 86.80 0.65 c p3
178.80 89.45 0.65 c p3
179.08 87.68 0.65 c p3
179.36 93.89 0.65 c p3
179.64 91.22 0.65 c p3
179.92 86.80 0.65 c p3
180.20 86.80 0.65 c p3
180.48 80.65 0.65 c p3
180.76 76.44 0.65 c p3
181.04 82.41 0.65 c p3
181.32 85.92 0.65 c p3
181.60 87.68 0.65 c p3
181.88 77.17 0.65 c p3
182.16 75.58 0.65 c p3
182.44 74.71 0.65 c p3
182.72 72.98 0.65 c p3
183.00 71.25 0.65 c p3
183.28 76.44 0.65 c p3
183.56 86.80 0.65 c p3
183.84 82.41 0.65 c p3
184.12 83.28 0.65 c p3
184.40 87.68 0.65 c p3
184.68 88.57 0.65 c p3
184.96 87.68 0.65 c p3
185.24 87.68 0.65 c p3
185.52 81.53 0.65 c p3
185.80 85.92 0.65 c p3
186.08 93.00 0.65 c p3
186.36 85.04 0.65 c p3
186.64 77.17 0.65 c p3
186.92 82.41 0.65 c p3
187.20 82.41 0.65 c p3
187.48 85.04 0.65 c p3
187.76 85.92 0.65 c p3
188.04 85.04 0.65 c p3
188.32 86.80 0.65 c p3
188.60 89.45 0.65 c p3
188.88 88.57 0.65 c p3
189.16 82.41 0.65 c p3
189.44 85.04 0.65 c p3
189.72 82.41 0.65 c p3
190.00 81.53 0.65 c p3
190.28 82.41 0.65 c p3
190.56 83.28 0.65 c p3
190.84 85.04 0.65 c p3
191.12 78.91 0.65 c p3
191.40 78.91 0.65 c p3
191.68 87.68 0.65 c p3
191.96 83.28 0.65 c p3
192.24 85.04 0.65 c p3
192.52 79.78 0.65 c p3
192.80 82.41 0.65 c p3
193.08 83.28 0.65 c p3
193.36 76.44 0.65 c p3
193.64 79.78 0.65 c p3
193.92 86.80 0.65 c p3
194.20 80.65 0.65 c p3
194.48 78.04 0.65 c p3
194.76 78.91 0.65 c p3
195.04 85.04 0.65 c p3
195.32 77.17 0.65 c p3
195.60 78.91 0.65 c p3
195.88 83.28 0.65 c p3
196.16 78.91 0.65 c p3
196.44 84.16 0.65 c p3
196.72 78.91 0.65 c p3
197.00 83.28 0.65 c p3
197.28 77.17 0.65 c p3
197.56 80.65 0.65 c p3
197.84 79.78 0.65 c p3
198.12 81.53 0.65 c p3
198.40 84.16 0.65 c p3
198.68 78.91 0.65 c p3
198.96 80.65 0.65 c p3
199.24 82.41 0.65 c p3
199.52 82.41 0.65 c p3
199.80 78.91 0.65 c p3
200.08 82.41 0.65 c p3
200.36 78.91 0.65 c p3
200.64 82.41 0.65 c p3
200.92 78.04 0.65 c p3
201.20 75.58 0.65 c p3
201.48 78.91 0.65 c p3
201.76 82.41 0.65 c p3
202.04 78.91 0.65 c p3
202.32 74.71 0.65 c p3
202.60 78.91 0.65 c p3
202.88 85.92 0.65 c p3
203.16 78.04 0.65 c p3
203.44 79.78 0.65 c p3
203.72 78.91 0.65 c p3
204.00 81.53 0.65 c p3
204.28 73.84 0.65 c p3
204.56 79.78 0.65 c p3
204.84 78.91 0.65 c p3
205.12 78.04 0.65 c p3
205.40 83.28 0.65 c p3
205.68 79.78 0.65 c p3
205.96 72.98 0.65 c p3
206.24 80.65 0.65 c p3
206.52 78.04 0.65 c p3
206.80 77.17 0.65 c p3
207.08 74.71 0.65 c p3
207.36 79.78 0.65 c p3
207.64 76.44 0.65 c p3
207.92 72.12 0.65 c p3
208.20 73.84 0.65 c p3
208.48 78.91 0.65 c p3
208.76 81.53 0.65 c p3
209.04 76.44 0.65 c p3
209.32 71.25 0.65 c p3
209.60 74.71 0.65 c p3
209.88 77.17 0.65 c p3
210.16 79.78 0.65 c p3
210.44 75.58 0.65 c p3
210.72 78.04 0.65 c p3
211.00 74.71 0.65 c p3
211.28 75.58 0.65 c p3
211.56 79.78 0.65 c p3
211.84 73.84 0.65 c p3
212.12 74.71 0.65 c p3
212.40 76.44 0.65 c p3
212.68 74.71 0.65 c p3
212.96 76.44 0.65 c p3
213.24 75.58 0.65 c p3
213.52 74.71 0.65 c p3
213.80 75.58 0.65 c p3
214.08 78.91 0.65 c p3
214.36 75.58 0.65 c p3
214.64 72.98 0.65 c p3
214.92 76.44 0.65 c p3
215.20 79.78 0.65 c p3
215.48 72.98 0.65 c p3
215.76 72.98 0.65 c p3
216.04 74.71 0.65 c p3
216.32 71.25 0.65 c p3
216.60 72.12 0.65 c p3
216.88 68.67 0.65 c p3
217.16 72.98 0.65 c p3
217.44 75.58 0.65 c p3
217.72 73.84 0.65 c p3
218.00 72.98 0.65 c p3
218.28 72.98 0.65 c p3
218.56 71.25 0.65 c p3
218.84 70.39 0.65 c p3
219.12 74.71 0.65 c p3
219.40 74.71 0.65 c p3
219.68 75.58 0.65 c p3
219.96 71.25 0.65 c p3
220.24 75.58 0.65 c p3
220.52 74.71 0.65 c p3
220.80 72.12 0.65 c p3
221.08 74.71 0.65 c p3
221.36 68.67 0.65 c p3
221.64 76.44 0.65 c p3
221.92 73.84 0.65 c p3
222.20 74.71 0.65 c p3
222.48 71.25 0.65 c p3
222.76 67.81 0.65 c p3
223.04 74.71 0.65 c p3
223.32 73.84 0.65 c p3
223.60 71.25 0.65 c p3
223.88 72.98 0.65 c p3
224.16 75.58 0.65 c p3
224.44 72.98 0.65 c p3
224.72 69.53 0.65 c p3
225.00 72.12 0.65 c p3
225.28 75.58 0.65 c p3
225.56 73.84 0.65 c p3
225.84 69.53 0.65 c p3
226.12 72.98 0.65 c p3
226.40 68.67 0.65 c p3
226.68 73.84 0.65 c p3
226.96 72.12 0.65 c p3
227.24 72.98 0.65 c p3
227.52 73.84 0.65 c p3
227.80 70.39 0.65 c p3
228.08 72.12 0.65 c p3
228.36 72.12 0.65 c p3
228.64 73.84 0.65 c p3
228.92 72.98 0.65 c p3
229.20 71.25 0.65 c p3
229.48 68.67 0.65 c p3
229.76 75.58 0.65 c p3
230.04 66.10 0.65 c p3
230.32 70.39 0.65 c p3
230.60 69.53 0.65 c p3
230.88 70.39 0.65 c p3
231.16 65.25 0.65 c p3
231.44 70.39 0.65 c p3
231.72 71.25 0.65 c p3
232.00 69.53 0.65 c p3
232.28 66.10 0.65 c p3
232.56 70.39 0.65 c p3
232.84 72.98 0.65 c p3
233.12 70.39 0.65 c p3
233.40 66.10 0.65 c p3
233.68 69.53 0.65 c p3
233.96 67.81 0.65 c p3
234.24 68.67 0.65 c p3
234.52 66.96 0.65 c p3
234.80 62.69 0.65 c p3
235.08 71.25 0.65 c p3
235.36 72.12 0.65 c p3
235.64 69.53 0.65 c p3
235.92 63.54 0.65 c p3
236.20 66.96 0.65 c p3
236.48 66.10 0.65 c p3
236.76 66.96 0.65 c p3
237.04 66.10 0.65 c p3
237.32 71.25 0.65 c p3
237.60 66.96 0.65 c p3
237.88 69.53 0.65 c p3
238.16 67.81 0.65 c p3
238.44 66.10 0.65 c p3
238.72 71.25 0.65 c p3
239.00 70.39 0.65 c p3
239.28 65.25 0.65 c p3
239.56 70.39 0.65 c p3
239.84 69.53 0.65 c p3
240.12 66.96 0.65 c p3
240.40 70.39 0.65 c p3
240.68 66.10 0.65 c p3
240.96 67.81 0.65 c p3
241.24 66.96 0.65 c p3
241.52 66.96 0.65 c p3
241.80 66.10 0.65 c p3
242.08 66.10 0.65 c p3
242.36 63.54 0.65 c p3
242.64 69.53 0.65 c p3
242.92 65.25 0.65 c p3
243.20 70.39 0.65 c p3
243.48 72.98 0.65 c p3
243.76 66.10 0.65 c p3
244.04 68.67 0.65 c p3
244.32 64.39 0.65 c p3
244.60 67.81 0.65 c p3
244.88 65.25 0.65 c p3
245.16 63.54 0.65 c p3
245.44 72.98 0.65 c p3
245.72 66.10 0.65 c p3
246.00 64.39 0.65 c p3
246.28 60.99 0.65 c p3
246.56 68.67 0.65 c p3
246.84 66.10 0.65 c p3
247.12 65.25 0.65 c p3
247.40 63.54 0.65 c p3
247.68 66.96 0.65 c p3
247.96 64.39 0.65 c p3
248.24 62.69 0.65 c p3
248.52 69.53 0.65 c p3
248.80 66.96 0.65 c p3
249.08 62.69 0.65 c p3
249.36 66.96 0.65 c p3
249.64 65.25 0.65 c p3
249.92 64.39 0.65 c p3
250.20 66.10 0.65 c p3
250.48 64.39 0.65 c p3
250.76 61.84 0.65 c p3
251.04 66.96 0.65 c p3
251.32 64.39 0.65 c p3
251.60 67.81 0.65 c p3
251.88 60.99 0.65 c p3
252.16 66.96 0.65 c p3
252.44 60.14 0.65 c p3
252.72 65.25 0.65 c p3
253.00 63.54 0.65 c p3
253.28 60.99 0.65 c p3
253.56 66.96 0.65 c p3
253.84 68.67 0.65 c p3
254.12 61.84 0.65 c p3
254.40 68.67 0.65 c p3
254.68 61.84 0.65 c p3
254.96 64.39 0.65 c p3
255.24 64.39 0.65 c p3
255.52 61.84 0.65 c p3
255.80 63.54 0.65 c p3
256.08 60.99 0.65 c p3
256.36 62.69 0.65 c p3
256.64 63.54 0.65 c p3
256.92 63.54 0.65 c p3
257.20 64.39 0.65 c p3
257.48 61.84 0.65 c p3
257.76 66.96 0.65 c p3
258.04 61.84 0.65 c p3
258.32 64.39 0.65 c p3
258.60 60.99 0.65 c p3
258.88 60.99 0.65 c p3
259.16 62.69 0.65 c p3
259.44 61.84 0.65 c p3
259.72 62.69 0.65 c p3
260.00 61.84 0.65 c p3
260.28 63.54 0.65 c p3
260.56 62.69 0.65 c p3
260.84 60.99 0.65 c p3
261.12 61.84 0.65 c p3
261.40 66.96 0.65 c p3
261.68 61.84 0.65 c p3
261.96 61.84 0.65 c p3
262.24 63.54 0.65 c p3
262.52 60.14 0.65 c p3
262.80 64.39 0.65 c p3
263.08 60.99 0.65 c p3
216.00 201.60 367.20 247.68 cl
0 0 0 srgb
0.75 setlinewidth
[] 0 setdash
1 setlinecap
1 setlinejoin
10.00 setmiterlimit
221.60 238.86 0.43 c p1
221.84 237.34 0.43 c p1
222.08 234.55 0.43 c p1
222.32 234.85 0.43 c p1
222.56 232.47 0.43 c p1
222.79 232.33 0.43 c p1
223.03 232.18 0.43 c p1
223.27 229.83 0.43 c p1
223.51 230.11 0.43 c p1
223.75 228.73 0.43 c p1
223.99 226.43 0.43 c p1
224.23 227.12 0.43 c p1
224.47 226.96 0.43 c p1
224.71 227.22 0.43 c p1
224.94 224.94 0.43 c p1
225.18 226.45 0.43 c p1
225.42 224.18 0.43 c p1
225.66 226.92 0.43 c p1
225.90 224.23 0.43 c p1
226.14 224.53 0.43 c p1
226.38 223.93 0.43 c p1
226.62 224.14 0.43 c p1
226.86 225.59 0.43 c p1
227.09 226.61 0.43 c p1
227.33 224.35 0.43 c p1
227.57 221.70 0.43 c p1
227.81 224.32 0.43 c p1
228.05 222.89 0.43 c p1
228.29 223.47 0.43 c p1
228.53 221.64 0.43 c p1
228.77 224.62 0.43 c p1
229.01 223.98 0.43 c p1
229.25 222.14 0.43 c p1
229.48 219.99 0.43 c p1
229.72 224.04 0.43 c p1
229.96 222.26 0.43 c p1
230.20 223.59 0.43 c p1
230.44 220.97 0.43 c p1
230.68 221.89 0.43 c p1
230.92 220.84 0.43 c p1
231.16 222.14 0.43 c p1
231.40 221.09 0.43 c p1
231.63 222.76 0.43 c p1
231.87 222.48 0.43 c p1
232.11 221.42 0.43 c p1
232.35 220.37 0.43 c p1
232.59 222.40 0.43 c p1
232.83 222.10 0.43 c p1
233.07 221.80 0.43 c p1
233.31 219.97 0.43 c p1
233.55 223.12 0.43 c p1
233.78 221.28 0.43 c p1
234.02 220.65 0.43 c p1
234.26 222.95 0.43 c p1
234.50 223.39 0.43 c p1
234.74 221.61 0.43 c p1
234.98 221.29 0.43 c p1
235.22 222.10 0.43 c p1
235.46 223.66 0.43 c p1
235.70 221.81 0.43 c p1
235.93 221.47 0.43 c p1
236.17 220.39 0.43 c p1
236.41 220.05 0.43 c p1
236.65 220.45 0.43 c p1
236.89 221.60 0.43 c p1
237.13 219.76 0.43 c p1
237.37 222.39 0.43 c p1
237.61 221.66 0.43 c p1
237.85 220.19 0.43 c p1
238.08 220.20 0.43 c p1
238.32 223.55 0.43 c p1
238.56 221.69 0.43 c p1
238.80 219.84 0.43 c p1
239.04 221.31 0.43 c p1
239.28 220.94 0.43 c p1
239.52 220.56 0.43 c p1
239.76 219.51 0.43 c p1
240.00 221.63 0.43 c p1
240.23 221.30 0.43 c p1
240.47 220.55 0.43 c p1
240.71 220.52 0.43 c p1
240.95 221.23 0.43 c p1
241.19 221.56 0.43 c p1
241.43 220.07 0.43 c p1
241.67 220.03 0.43 c p1
241.91 221.08 0.43 c p1
242.15 220.31 0.43 c p1
242.38 222.07 0.43 c p1
242.62 219.50 0.43 c p1
242.86 221.25 0.43 c p1
243.10 221.19 0.43 c p1
243.34 219.34 0.43 c p1
243.58 221.43 0.43 c p1
243.82 222.09 0.43 c p1
244.06 222.74 0.43 c p1
244.30 221.23 0.43 c p1
244.54 221.88 0.43 c p1
244.77 221.80 0.43 c p1
245.01 221.73 0.43 c p1
245.25 223.80 0.43 c p1
245.49 220.14 0.43 c p1
245.73 222.19 0.43 c p1
245.97 223.18 0.43 c p1
246.21 223.81 0.43 c p1
246.45 221.57 0.43 c p1
246.69 221.48 0.43 c p1
246.92 222.80 0.43 c p1
247.16 221.28 0.43 c p1
247.40 221.89 0.43 c p1
247.64 222.14 0.43 c p1
247.88 222.74 0.43 c p1
248.12 224.41 0.43 c p1
248.36 223.23 0.43 c p1
248.60 220.70 0.43 c p1
248.84 224.42 0.43 c p1
249.07 223.23 0.43 c p1
249.31 223.47 0.43 c p1
249.55 221.64 0.43 c p1
249.79 223.57 0.43 c p1
250.03 223.80 0.43 c p1
250.27 221.62 0.43 c p1
250.51 222.54 0.43 c p1
250.75 223.81 0.43 c p1
250.99 222.97 0.43 c p1
251.22 223.54 0.43 c p1
251.46 225.10 0.43 c p1
251.70 224.66 0.43 c p1
251.94 224.87 0.43 c p1
252.18 224.37 0.43 c p1
252.42 224.93 0.43 c p1
252.66 223.02 0.43 c p1
252.90 222.87 0.43 c p1
253.14 223.07 0.43 c p1
253.37 224.31 0.43 c p1
253.61 223.11 0.43 c p1
253.85 226.10 0.43 c p1
254.09 224.54 0.43 c p1
254.33 224.72 0.43 c p1
254.57 223.86 0.43 c p1
254.81 224.04 0.43 c p1
255.05 225.62 0.43 c p1
255.29 224.75 0.43 c p1
255.52 225.98 0.43 c p1
255.76 224.41 0.43 c p1
256.00 223.20 0.43 c p1
256.24 224.76 0.43 c p1
256.48 225.27 0.43 c p1
256.72 226.84 0.43 c p1
256.96 224.91 0.43 c p1
257.20 225.77 0.43 c p1
257.44 225.59 0.43 c p1
257.68 226.80 0.43 c p1
257.91 224.18 0.43 c p1
258.15 223.99 0.43 c p1
258.39 224.84 0.43 c p1
258.63 226.38 0.43 c p1
258.87 226.19 0.43 c p1
259.11 224.61 0.43 c p1
259.35 225.10 0.43 c p1
259.59 225.94 0.43 c p1
259.83 227.83 0.43 c p1
260.06 224.17 0.43 c p1
260.30 227.42 0.43 c p1
260.54 227.56 0.43 c p1
260.78 224.94 0.43 c p1
261.02 226.11 0.43 c p1
261.26 225.56 0.43 c p1
261.50 228.46 0.43 c p1
261.74 227.90 0.43 c p1
261.98 226.65 0.43 c p1
262.21 227.48 0.43 c p1
262.45 227.26 0.43 c p1
262.69 226.01 0.43 c p1
262.93 226.83 0.43 c p1
263.17 227.99 0.43 c p1
263.41 226.05 0.43 c p1
263.65 225.83 0.43 c p1
263.89 225.61 0.43 c p1
264.13 227.11 0.43 c p1
264.36 225.17 0.43 c p1
264.60 225.29 0.43 c p1
264.84 227.12 0.43 c p1
265.08 228.27 0.43 c p1
265.32 227.70 0.43 c p1
265.56 227.47 0.43 c p1
265.80 225.52 0.43 c p1
266.04 227.01 0.43 c p1
266.28 227.46 0.43 c p1
266.51 227.57 0.43 c p1
266.75 226.99 0.43 c p1
266.99 226.76 0.43 c p1
267.23 226.86 0.43 c p1
267.47 226.63 0.43 c p1
267.71 226.73 0.43 c p1
267.95 225.53 0.43 c p1
268.19 229.34 0.43 c p1
268.43 227.04 0.43 c p1
268.66 226.45 0.43 c p1
268.90 227.23 0.43 c p1
269.14 228.02 0.43 c p1
269.38 225.44 0.43 c p1
269.62 226.22 0.43 c p1
269.86 228.99 0.43 c p1
270.10 228.06 0.43 c p1
270.34 226.78 0.43 c p1
270.58 225.91 0.43 c p1
270.82 227.99 0.43 c p1
271.05 229.11 0.43 c p1
271.29 227.15 0.43 c p1
271.53 227.91 0.43 c p1
271.77 228.68 0.43 c p1
272.01 228.43 0.43 c p1
272.25 227.21 0.43 c p1
272.49 229.63 0.43 c p1
272.73 227.66 0.43 c p1
272.97 227.74 0.43 c p1
273.20 227.83 0.43 c p1
273.44 226.61 0.43 c p1
273.68 227.99 0.43 c p1
273.92 228.41 0.43 c p1
274.16 228.14 0.43 c p1
274.40 228.56 0.43 c p1
274.64 228.64 0.43 c p1
274.88 228.72 0.43 c p1
275.12 228.45 0.43 c p1
275.35 227.90 0.43 c p1
275.59 227.97 0.43 c p1
275.83 228.39 0.43 c p1
276.07 227.10 0.43 c p1
276.31 228.53 0.43 c p1
276.55 227.92 0.43 c p1
276.79 228.33 0.43 c p1
277.03 225.70 0.43 c p1
277.27 226.78 0.43 c p1
277.50 227.18 0.43 c p1
277.74 229.91 0.43 c p1
277.98 227.32 0.43 c p1
278.22 230.04 0.43 c p1
278.46 228.46 0.43 c p1
278.70 229.21 0.43 c p1
278.94 226.90 0.43 c p1
279.18 228.32 0.43 c p1
279.42 228.72 0.43 c p1
279.65 228.10 0.43 c p1
279.89 227.15 0.43 c p1
280.13 228.90 0.43 c p1
280.37 226.93 0.43 c p1
280.61 227.33 0.43 c p1
280.85 228.40 0.43 c p1
281.09 228.80 0.43 c p1
281.33 227.17 0.43 c p1
281.57 228.91 0.43 c p1
281.80 226.94 0.43 c p1
282.04 227.67 0.43 c p1
282.28 230.10 0.43 c p1
282.52 228.46 0.43 c p1
282.76 227.50 0.43 c p1
283.00 228.90 0.43 c p1
283.24 226.60 0.43 c p1
283.48 228.67 0.43 c p1
283.72 230.70 0.43 c p1
283.95 225.42 0.43 c p1
284.19 231.82 0.43 c p1
284.43 228.53 0.43 c p1
284.67 228.58 0.43 c p1
284.91 228.63 0.43 c p1
285.15 229.70 0.43 c p1
285.39 229.07 0.43 c p1
285.63 226.09 0.43 c p1
285.87 229.16 0.43 c p1
286.11 225.85 0.43 c p1
286.34 228.58 0.43 c p1
286.58 220.07 0.43 c p1
286.82 224.33 0.43 c p1
287.06 225.04 0.43 c p1
287.30 225.42 0.43 c p1
287.54 224.79 0.43 c p1
287.78 224.84 0.43 c p1
288.02 223.56 0.43 c p1
288.26 224.92 0.43 c p1
288.49 227.30 0.43 c p1
288.73 228.01 0.43 c p1
288.97 226.71 0.43 c p1
289.21 227.75 0.43 c p1
289.45 226.46 0.43 c p1
289.69 227.50 0.43 c p1
289.93 226.87 0.43 c p1
290.17 229.26 0.43 c p1
290.41 228.29 0.43 c p1
290.64 226.65 0.43 c p1
290.88 226.69 0.43 c p1
291.12 224.41 0.43 c p1
291.36 222.85 0.43 c p1
291.60 225.14 0.43 c p1
291.84 226.51 0.43 c p1
292.08 227.21 0.43 c p1
292.32 223.27 0.43 c p1
292.56 222.70 0.43 c p1
292.79 222.41 0.43 c p1
293.03 221.79 0.43 c p1
293.27 221.17 0.43 c p1
293.51 223.17 0.43 c p1
293.75 227.11 0.43 c p1
293.99 225.49 0.43 c p1
294.23 225.85 0.43 c p1
294.47 227.55 0.43 c p1
294.71 227.91 0.43 c p1
294.94 227.61 0.43 c p1
295.18 227.64 0.43 c p1
295.42 225.35 0.43 c p1
295.66 227.04 0.43 c p1
295.90 229.74 0.43 c p1
296.14 226.76 0.43 c p1
296.38 223.82 0.43 c p1
296.62 225.83 0.43 c p1
296.86 225.86 0.43 c p1
297.09 226.88 0.43 c p1
297.33 227.24 0.43 c p1
297.57 226.94 0.43 c p1
297.81 227.63 0.43 c p1
298.05 228.66 0.43 c p1
298.29 228.35 0.43 c p1
298.53 226.05 0.43 c p1
298.77 227.07 0.43 c p1
299.01 226.11 0.43 c p1
299.25 225.80 0.43 c p1
299.48 226.16 0.43 c p1
299.72 226.51 0.43 c p1
299.96 227.20 0.43 c p1
300.20 224.91 0.43 c p1
300.44 224.94 0.43 c p1
300.68 228.28 0.43 c p1
300.92 226.64 0.43 c p1
301.16 227.33 0.43 c p1
301.40 225.36 0.43 c p1
301.63 226.38 0.43 c p1
301.87 226.73 0.43 c p1
302.11 224.17 0.43 c p1
302.35 225.46 0.43 c p1
302.59 228.13 0.43 c p1
302.83 225.83 0.43 c p1
303.07 224.87 0.43 c p1
303.31 225.22 0.43 c p1
303.55 227.56 0.43 c p1
303.78 224.60 0.43 c p1
304.02 225.28 0.43 c p1
304.26 226.96 0.43 c p1
304.50 225.32 0.43 c p1
304.74 227.33 0.43 c p1
304.98 225.37 0.43 c p1
305.22 227.04 0.43 c p1
305.46 224.75 0.43 c p1
305.70 226.08 0.43 c p1
305.93 225.77 0.43 c p1
306.17 226.45 0.43 c p1
306.41 227.47 0.43 c p1
306.65 225.50 0.43 c p1
306.89 226.18 0.43 c p1
307.13 226.86 0.43 c p1
307.37 226.88 0.43 c p1
307.61 225.58 0.43 c p1
307.85 226.91 0.43 c p1
308.08 225.61 0.43 c p1
308.32 226.95 0.43 c p1
308.56 225.32 0.43 c p1
308.80 224.40 0.43 c p1
309.04 225.68 0.43 c p1
309.28 227.02 0.43 c p1
309.52 225.71 0.43 c p1
309.76 224.14 0.43 c p1
310.00 225.75 0.43 c p1
310.23 228.41 0.43 c p1
310.47 225.45 0.43 c p1
310.71 226.13 0.43 c p1
310.95 225.81 0.43 c p1
311.19 226.82 0.43 c p1
311.43 223.93 0.43 c p1
311.67 226.19 0.43 c p1
311.91 225.87 0.43 c p1
312.15 225.56 0.43 c p1
312.38 227.55 0.43 c p1
312.62 226.25 0.43 c p1
312.86 223.69 0.43 c p1
313.10 226.60 0.43 c p1
313.34 225.63 0.43 c p1
313.58 225.32 0.43 c p1
313.82 224.40 0.43 c p1
314.06 226.33 0.43 c p1
314.30 225.08 0.43 c p1
314.54 223.46 0.43 c p1
314.77 224.13 0.43 c p1
315.01 226.06 0.43 c p1
315.25 227.06 0.43 c p1
315.49 225.15 0.43 c p1
315.73 223.20 0.43 c p1
315.97 224.52 0.43 c p1
316.21 225.46 0.43 c p1
316.45 226.46 0.43 c p1
316.69 224.88 0.43 c p1
316.92 225.83 0.43 c p1
317.16 224.58 0.43 c p1
317.40 224.92 0.43 c p1
317.64 226.52 0.43 c p1
317.88 224.29 0.43 c p1
318.12 224.63 0.43 c p1
318.36 225.29 0.43 c p1
318.60 224.65 0.43 c p1
318.84 225.32 0.43 c p1
319.07 225.00 0.43 c p1
319.31 224.68 0.43 c p1
319.55 225.02 0.43 c p1
319.79 226.29 0.43 c p1
320.03 225.04 0.43 c p1
320.27 224.07 0.43 c p1
320.51 225.39 0.43 c p1
320.75 226.66 0.43 c p1
320.99 224.10 0.43 c p1
321.22 224.11 0.43 c p1
321.46 224.78 0.43 c p1
321.70 223.48 0.43 c p1
321.94 223.82 0.43 c p1
322.18 222.52 0.43 c p1
322.42 224.16 0.43 c p1
322.66 225.15 0.43 c p1
322.90 224.51 0.43 c p1
323.14 224.19 0.43 c p1
323.37 224.20 0.43 c p1
323.61 223.56 0.43 c p1
323.85 223.24 0.43 c p1
324.09 224.88 0.43 c p1
324.33 224.89 0.43 c p1
324.57 225.22 0.43 c p1
324.81 223.60 0.43 c p1
325.05 225.24 0.43 c p1
325.29 224.92 0.43 c p1
325.52 223.95 0.43 c p1
325.76 224.94 0.43 c p1
326.00 222.67 0.43 c p1
326.24 225.61 0.43 c p1
326.48 224.64 0.43 c p1
326.72 224.97 0.43 c p1
326.96 223.67 0.43 c p1
327.20 222.38 0.43 c p1
327.44 224.99 0.43 c p1
327.68 224.67 0.43 c p1
327.91 223.70 0.43 c p1
328.15 224.36 0.43 c p1
328.39 225.35 0.43 c p1
328.63 224.38 0.43 c p1
328.87 223.08 0.43 c p1
329.11 224.06 0.43 c p1
329.35 225.38 0.43 c p1
329.59 224.73 0.43 c p1
329.83 223.11 0.43 c p1
330.06 224.42 0.43 c p1
330.30 222.80 0.43 c p1
330.54 224.76 0.43 c p1
330.78 224.11 0.43 c p1
331.02 224.44 0.43 c p1
331.26 224.78 0.43 c p1
331.50 223.48 0.43 c p1
331.74 224.14 0.43 c p1
331.98 224.14 0.43 c p1
332.21 224.80 0.43 c p1
332.45 224.48 0.43 c p1
332.69 223.84 0.43 c p1
332.93 222.87 0.43 c p1
333.17 225.48 0.43 c p1
333.41 221.91 0.43 c p1
333.65 223.54 0.43 c p1
333.89 223.22 0.43 c p1
334.13 223.55 0.43 c p1
334.36 221.61 0.43 c p1
334.60 223.56 0.43 c p1
334.84 223.89 0.43 c p1
335.08 223.24 0.43 c p1
335.32 221.95 0.43 c p1
335.56 223.58 0.43 c p1
335.80 224.56 0.43 c p1
336.04 223.59 0.43 c p1
336.28 221.97 0.43 c p1
336.51 223.28 0.43 c p1
336.75 222.63 0.43 c p1
336.99 222.96 0.43 c p1
337.23 222.32 0.43 c p1
337.47 220.71 0.43 c p1
337.71 223.95 0.43 c p1
337.95 224.28 0.43 c p1
338.19 223.31 0.43 c p1
338.43 221.05 0.43 c p1
338.66 222.35 0.43 c p1
338.90 222.03 0.43 c p1
339.14 222.36 0.43 c p1
339.38 222.04 0.43 c p1
339.62 223.99 0.43 c p1
339.86 222.37 0.43 c p1
340.10 223.35 0.43 c p1
340.34 222.70 0.43 c p1
340.58 222.06 0.43 c p1
340.82 224.01 0.43 c p1
341.05 223.69 0.43 c p1
341.29 221.75 0.43 c p1
341.53 223.70 0.43 c p1
341.77 223.38 0.43 c p1
342.01 222.41 0.43 c p1
342.25 223.71 0.43 c p1
342.49 222.09 0.43 c p1
342.73 222.74 0.43 c p1
342.97 222.42 0.43 c p1
343.20 222.43 0.43 c p1
343.44 222.11 0.43 c p1
343.68 222.11 0.43 c p1
343.92 221.15 0.43 c p1
344.16 223.41 0.43 c p1
344.40 221.80 0.43 c p1
344.64 223.75 0.43 c p1
344.88 224.73 0.43 c p1
345.12 222.13 0.43 c p1
345.35 223.11 0.43 c p1
345.59 221.49 0.43 c p1
345.83 222.79 0.43 c p1
346.07 221.82 0.43 c p1
346.31 221.18 0.43 c p1
346.55 224.75 0.43 c p1
346.79 222.16 0.43 c p1
347.03 221.51 0.43 c p1
347.27 220.23 0.43 c p1
347.50 223.14 0.43 c p1
347.74 222.17 0.43 c p1
347.98 221.85 0.43 c p1
348.22 221.21 0.43 c p1
348.46 222.50 0.43 c p1
348.70 221.54 0.43 c p1
348.94 220.90 0.43 c p1
349.18 223.48 0.43 c p1
349.42 222.51 0.43 c p1
349.65 220.90 0.43 c p1
349.89 222.52 0.43 c p1
350.13 221.88 0.43 c p1
350.37 221.56 0.43 c p1
350.61 222.20 0.43 c p1
350.85 221.56 0.43 c p1
351.09 220.60 0.43 c p1
351.33 222.54 0.43 c p1
351.57 221.57 0.43 c p1
351.80 222.87 0.43 c p1
352.04 220.29 0.43 c p1
352.28 222.55 0.43 c p1
352.52 219.97 0.43 c p1
352.76 221.91 0.43 c p1
353.00 221.26 0.43 c p1
353.24 220.30 0.43 c p1
353.48 222.56 0.43 c p1
353.72 223.21 0.43 c p1
353.95 220.63 0.43 c p1
354.19 223.21 0.43 c p1
354.43 220.64 0.43 c p1
354.67 221.60 0.43 c p1
354.91 221.60 0.43 c p1
355.15 220.64 0.43 c p1
355.39 221.29 0.43 c p1
355.63 220.32 0.43 c p1
355.87 220.97 0.43 c p1
356.11 221.29 0.43 c p1
356.34 221.30 0.43 c p1
356.58 221.62 0.43 c p1
356.82 220.66 0.43 c p1
357.06 222.59 0.43 c p1
357.30 220.66 0.43 c p1
357.54 221.63 0.43 c p1
357.78 220.34 0.43 c p1
358.02 220.35 0.43 c p1
358.26 220.99 0.43 c p1
358.49 220.67 0.43 c p1
358.73 220.99 0.43 c p1
358.97 220.68 0.43 c p1
359.21 221.32 0.43 c p1
359.45 221.00 0.43 c p1
359.69 220.36 0.43 c p1
359.93 220.68 0.43 c p1
360.17 222.62 0.43 c p1
360.41 220.69 0.43 c p1
360.64 220.69 0.43 c p1
360.88 221.33 0.43 c p1
361.12 220.05 0.43 c p1
361.36 221.66 0.43 c p1
361.60 220.37 0.43 c p1
0.00 0.00 432.00 576.00 cl
0 0 0 srgb
0.75 setlinewidth
[] 0 setdash
1 setlinecap
1 setlinejoin
10.00 setmiterlimit
np
220.41 201.60 m
132.72 0 l
o
np
220.41 201.60 m
0 -5.76 l
o
np
246.95 201.60 m
0 -5.76 l
o
np
273.50 201.60 m
0 -5.76 l
o
np
300.04 201.60 m
0 -5.76 l
o
np
326.59 201.60 m
0 -5.76 l
o
np
353.13 201.60 m
0 -5.76 l
o
/Font1 findfont 6 s
220.41 185.47 (0) .5 0 t
246.95 185.47 (5000) .5 0 t
273.50 185.47 (10000) .5 0 t
300.04 185.47 (15000) .5 0 t
326.59 185.47 (20000) .5 0 t
353.13 185.47 (25000) .5 0 t
np
216.00 212.90 m
0 23.48 l
o
np
216.00 212.90 m
-5.76 0 l
o
np
216.00 224.64 m
-5.76 0 l
o
np
216.00 236.38 m
-5.76 0 l
o
209.09 210.74 (-0.02) 1 0 t
209.09 222.49 (0.00) 1 0 t
209.09 234.23 (0.02) 1 0 t
np
216.00 201.60 m
151.20 0 l
0 46.08 l
-151.20 0 l
0 -46.08 l
o
0.00 0.00 432.00 576.00 cl
/Font1 findfont 9 s
0 0 0 srgb
291.60 262.88 (Residuals) .5 0 t
59.04 73.44 401.76 516.96 cl
ep
%%Trailer
%%Pages: 1
%%EOF
