%!PS-Adobe-3.0 EPSF-3.0
%%DocumentNeededResources: font Helvetica
%%+ font Helvetica-Bold
%%+ font Helvetica-Oblique
%%+ font Helvetica-BoldOblique
%%+ font Symbol
%%Title: R Graphics Output
%%Creator: R Software
%%Pages: (atend)
%%BoundingBox: 0 0 432 576
%%EndComments
%%BeginProlog
/bp  { gs sRGB gs } def
% begin .ps.prolog
/gs  { gsave } bind def
/gr  { grestore } bind def
/ep  { showpage gr gr } bind def
/m   { moveto } bind def
/l  { rlineto } bind def
/np  { newpath } bind def
/cp  { closepath } bind def
/f   { fill } bind def
/o   { stroke } bind def
/c   { newpath 0 360 arc } bind def
/r   { 4 2 roll moveto 1 copy 3 -1 roll exch 0 exch rlineto 0 rlineto -1 mul 0 exch rlineto closepath } bind def
/p1  { stroke } bind def
/p2  { gsave bg fill grestore newpath } bind def
/p3  { gsave bg fill grestore stroke } bind def
/p6  { gsave bg eofill grestore newpath } bind def
/p7  { gsave bg eofill grestore stroke } bind def
/t   { 5 -2 roll moveto gsave rotate
       1 index stringwidth pop
       mul neg 0 rmoveto show grestore } bind def
/ta  { 4 -2 roll moveto gsave rotate show } bind def
/tb  { 2 -1 roll 0 rmoveto show } bind def
/cl  { grestore gsave newpath 3 index 3 index moveto 1 index
       4 -1 roll lineto  exch 1 index lineto lineto
       closepath clip newpath } bind def
/rgb { setrgbcolor } bind def
/s   { scalefont setfont } bind def
% end   .ps.prolog
/sRGB { [ /CIEBasedABC
          << /DecodeLMN
               [ { dup 0.03928 le
                        {12.92321 div}
                        {0.055 add 1.055 div 2.4 exp }
                     ifelse
                 } bind dup dup
               ]
             /MatrixLMN [0.412457 0.212673 0.019334
                         0.357576 0.715152 0.119192
                         0.180437 0.072175 0.950301]
             /WhitePoint [0.9505 1.0 1.0890]
           >>
         ] setcolorspace } bind def
/srgb { setcolor } bind def
% begin encoding
/WinAnsiEncoding [
 /.notdef /.notdef /.notdef /.notdef /.notdef /.notdef /.notdef /.notdef
 /.notdef /.notdef /.notdef /.notdef /.notdef /.notdef /.notdef /.notdef
 /.notdef /.notdef /.notdef /.notdef /.notdef /.notdef /.notdef /.notdef
 /.notdef /.notdef /.notdef /.notdef /.notdef /.notdef /.notdef /.notdef
 /space /exclam /quotedbl /numbersign /dollar /percent /ampersand /quoteright
 /parenleft /parenright /asterisk /plus /comma /minus /period /slash
 /zero /one /two /three /four /five /six /seven
 /eight /nine /colon /semicolon /less /equal /greater /question
 /at /A /B /C /D /E /F /G
 /H /I /J /K /L /M /N /O
 /P /Q /R /S /T /U /V /W
 /X /Y /Z /bracketleft /backslash /bracketright /asciicircum /underscore
 /grave /a /b /c /d /e /f /g
 /h /i /j /k /l /m /n /o
 /p /q /r /s /t /u /v /w
 /x /y /z /braceleft /bar /braceright /asciitilde /.notdef
 /Euro /.notdef /quotesinglbase /florin /quotedblbase /ellipsis /dagger /daggerdbl
 /circumflex /perthousand /Scaron /guilsinglleft /OE /.notdef /Zcaron /.notdef
 /.notdef /quoteleft /quoteright /quotedblleft /quotedblright /bullet /endash /emdash
 /tilde /trademark /scaron /guilsinglright /oe /.notdef /zcaron /Ydieresis
 /space /exclamdown /cent /sterling /currency /yen /brokenbar /section
 /dieresis /copyright /ordfeminine /guillemotleft /logicalnot /hyphen /registered /macron
 /degree /plusminus /twosuperior /threesuperior /acute /mu /paragraph /periodcentered
 /cedilla /onesuperior /ordmasculine /guillemotright /onequarter /onehalf /threequarters /questiondown
 /Agrave /Aacute /Acircumflex /Atilde /Adieresis /Aring /AE /Ccedilla
 /Egrave /Eacute /Ecircumflex /Edieresis /Igrave /Iacute /Icircumflex /Idieresis
 /Eth /Ntilde /Ograve /Oacute /Ocircumflex /Otilde /Odieresis /multiply
 /Oslash /Ugrave /Uacute /Ucircumflex /Udieresis /Yacute /Thorn /germandbls
 /agrave /aacute /acircumflex /atilde /adieresis /aring /ae /ccedilla
 /egrave /eacute /ecircumflex /edieresis /igrave /iacute /icircumflex /idieresis
 /eth /ntilde /ograve /oacute /ocircumflex /otilde /odieresis /divide
 /oslash /ugrave /uacute /ucircumflex /udieresis /yacute /thorn /ydieresis
]
 def
% end encoding
%%IncludeResource: font Helvetica
/Helvetica findfont
dup length dict begin
  {1 index /FID ne {def} {pop pop} ifelse} forall
  /Encoding WinAnsiEncoding def
  currentdict
  end
/Font1 exch definefont pop
%%IncludeResource: font Helvetica-Bold
/Helvetica-Bold findfont
dup length dict begin
  {1 index /FID ne {def} {pop pop} ifelse} forall
  /Encoding WinAnsiEncoding def
  currentdict
  end
/Font2 exch definefont pop
%%IncludeResource: font Helvetica-Oblique
/Helvetica-Oblique findfont
dup length dict begin
  {1 index /FID ne {def} {pop pop} ifelse} forall
  /Encoding WinAnsiEncoding def
  currentdict
  end
/Font3 exch definefont pop
%%IncludeResource: font Helvetica-BoldOblique
/Helvetica-BoldOblique findfont
dup length dict begin
  {1 index /FID ne {def} {pop pop} ifelse} forall
  /Encoding WinAnsiEncoding def
  currentdict
  end
/Font4 exch definefont pop
%%IncludeResource: font Symbol
/Symbol findfont
dup length dict begin
  {1 index /FID ne {def} {pop pop} ifelse} forall
  currentdict
  end
/Font5 exch definefont pop
%%EndProlog
%%Page: 1 1
bp
/bg { 1 1 1 srgb } def
0.00 0.00 432.00 576.00 r p2
0.00 0.00 432.00 576.00 cl
0.00 0.00 432.00 576.00 cl
0.00 0.00 432.00 576.00 cl
/Font1 findfont 12 s
0 0 0 srgb
48.00 508.72 (PCP-ETH) 0 0 t
48.00 494.89 (Flash light photolysis) 0 0 t
/Font1 findfont 9 s
48.00 457.54 (File: Solv) 0 ta
-0.225 (ent_debendence_sol2_2_MSLM.dat) tb gr
48.00 334.87 (Sat Mar 05 15:08:32 2022) 0 0 t
48.00 430.87 (Fit function:  a + b * e) 0 ta
-0.270 (xp\(-c * t\)) tb gr
48.00 420.50 (t-Inter) 0 ta
0.270 (v) tb
-0.225 (all: 156.000 ... 6720.000 ms) tb gr
48.00 410.14 (P) 0 ta
-0.360 (ar) tb
-0.090 (ameters \(Standard de) tb
-0.270 (viation\):) tb gr
48.00 399.77 (  a = -0.02438 \(0.00055\)) 0 0 t
48.00 389.40 (  b = 0.33404 \(0.00050\)) 0 0 t
48.00 379.03 (  c = 3.922e-01 \(1.984e-03\) s^-1) 0 0 t
48.00 368.66 (  tau = 2.550e+00 \(1.290e-02\) s) 0 0 t
216.00 345.60 388.80 518.40 cl
0 0 0 srgb
0.75 setlinewidth
[] 0 setdash
1 setlinecap
1 setlinejoin
10.00 setmiterlimit
np
222.40 501.92 m
0.15 0.84 l
0.14 -0.84 l
0.15 -0.64 l
0.14 0.64 l
0.15 0 l
0.14 -0.22 l
0.15 1.70 l
0.14 -1.70 l
0.15 0 l
0.15 0.64 l
0.14 -1.06 l
0.15 0.42 l
0.14 0.22 l
0.15 1.05 l
0.14 -0.42 l
0.15 -1.06 l
0.14 0.21 l
0.15 1.06 l
0.15 -0.63 l
0.14 0 l
0.15 0 l
0.14 1.06 l
0.15 -1.70 l
0.14 0 l
0.15 1.06 l
0.15 -0.63 l
0.14 0.21 l
0.15 0.84 l
0.14 -1.05 l
0.15 1.27 l
0.14 0 l
0.15 -0.22 l
0.14 -0.63 l
0.15 -0.64 l
0.15 0.64 l
0.14 0.63 l
0.15 -0.42 l
0.14 0 l
0.15 -0.21 l
0.14 -1.06 l
0.15 1.69 l
0.14 0.22 l
0.15 -0.64 l
0.15 0.21 l
0.14 -0.84 l
0.15 0.63 l
0.14 1.06 l
0.15 -1.06 l
0.14 1.69 l
0.15 -2.75 l
0.14 0.64 l
0.15 0.84 l
0.15 -0.42 l
0.14 1.06 l
0.15 -2.12 l
0.14 0.85 l
0.15 0.21 l
0.14 -0.21 l
0.15 0.21 l
0.15 -0.63 l
0.14 0.21 l
0.15 0.42 l
0.14 0.42 l
0.15 0 l
0.14 0.64 l
0.15 -1.91 l
0.14 0.85 l
0.15 -0.21 l
0.15 0.85 l
0.14 0.21 l
0.15 -1.70 l
0.14 0.43 l
0.15 -0.21 l
0.14 0.21 l
0.15 1.27 l
0.14 -1.48 l
0.15 -0.64 l
0.15 1.06 l
0.14 -1.27 l
0.15 2.33 l
0.14 -0.21 l
0.15 0.21 l
0.14 -0.64 l
0.15 0.43 l
0.14 -1.91 l
0.15 1.48 l
0.15 0.43 l
0.14 -1.49 l
0.15 0.22 l
0.14 0.42 l
0.15 -0.64 l
0.14 1.27 l
0.15 -0.21 l
0.15 0.64 l
0.14 -0.21 l
0.15 -0.64 l
0.14 0.64 l
0.15 0 l
0.14 -0.22 l
236.96 424.77 lineto
0.14 1.01 l
0.15 1.50 l
0.15 -0.85 l
0.14 0.63 l
0.15 1.48 l
0.14 -2.11 l
0.15 1.90 l
0.14 -0.63 l
0.15 0.21 l
0.14 0.21 l
0.15 1.48 l
0.15 -0.84 l
0.14 0.42 l
0.15 0.85 l
0.14 -1.27 l
0.15 1.27 l
0.14 0.84 l
0.15 0 l
0.14 -1.48 l
0.15 2.72 l
0.15 -0.82 l
0.14 0.60 l
0.15 0.43 l
0.14 -0.43 l
0.15 0.22 l
0.14 1.90 l
0.15 -1.48 l
0.15 1.06 l
0.14 0.63 l
0.15 0 l
0.14 0.42 l
0.15 -0.63 l
0.14 1.06 l
0.15 0.63 l
0.14 -0.63 l
0.15 0.84 l
0.15 0 l
0.14 -1.05 l
0.15 2.11 l
0.14 -0.63 l
0.15 0.81 l
0.14 0.63 l
0.15 -1.66 l
0.14 1.45 l
0.15 -0.21 l
0.15 0.85 l
0.14 1.69 l
0.15 -1.69 l
0.14 0.63 l
0.15 0 l
0.14 -0.85 l
0.15 2.33 l
0.14 -1.48 l
0.15 1.69 l
0.15 0.43 l
0.14 -1.27 l
0.15 1.27 l
0.14 -0.22 l
0.15 -0.21 l
0.14 1.91 l
0.15 0 l
0.15 -1.27 l
0.14 0.63 l
0.15 0.64 l
0.14 0 l
0.15 1.44 l
0.14 -1.06 l
0.15 -0.17 l
0.14 -0.43 l
0.15 1.87 l
0.15 0 l
0.14 1.70 l
0.15 -0.85 l
0.14 -0.85 l
0.15 1.27 l
0.14 -0.63 l
0.15 1.27 l
0.14 0.42 l
0.15 -0.85 l
0.15 1.27 l
0.14 -0.42 l
0.15 -1.48 l
0.14 1.69 l
0.15 0.43 l
0.14 0 l
0.15 -0.22 l
0.14 1.06 l
0.15 -0.84 l
0.15 2.08 l
0.14 -0.82 l
0.15 0.39 l
0.14 0.64 l
0.15 -0.64 l
0.14 0.64 l
0.15 1.05 l
0.15 -0.42 l
0.14 -0.42 l
0.15 0.42 l
0.14 -0.63 l
251.52 450.40 lineto
0.14 0.43 l
0.15 0.84 l
0.14 -1.05 l
0.15 0.21 l
0.15 1.27 l
0.14 0 l
0.15 0.84 l
0.14 -2.11 l
0.15 1.69 l
0.14 0.63 l
0.15 -0.21 l
0.14 0.64 l
0.15 0.60 l
0.15 0 l
0.14 0 l
0.15 -0.18 l
0.14 0.18 l
0.15 0 l
0.14 0.42 l
0.15 0 l
0.14 1.27 l
0.15 -0.21 l
0.15 0.42 l
0.14 -1.27 l
0.15 1.06 l
0.14 0.63 l
0.15 -0.21 l
0.14 0 l
0.15 -0.21 l
0.14 1.27 l
0.15 -0.42 l
0.15 0.84 l
0.14 -1.05 l
0.15 0.21 l
0.14 1.05 l
0.15 -0.84 l
0.14 1.90 l
0.15 -0.42 l
0.15 -0.42 l
0.14 1.86 l
0.15 -0.59 l
0.14 -0.64 l
0.15 1.45 l
0.14 -0.22 l
0.15 -1.65 l
0.14 1.23 l
0.15 -0.39 l
0.15 0.22 l
0.14 2.08 l
0.15 -0.64 l
0.14 0.21 l
0.15 -0.63 l
0.14 0.21 l
0.15 0.21 l
0.14 1.27 l
0.15 -0.63 l
0.15 -0.22 l
0.14 0.85 l
0.15 1.06 l
0.14 -0.42 l
0.15 0.63 l
0.14 -1.06 l
0.15 -0.63 l
0.14 1.90 l
0.15 -0.42 l
0.15 0.84 l
0.14 -0.63 l
0.15 0.85 l
0.14 -0.64 l
0.15 1.87 l
0.14 -0.21 l
0.15 -0.18 l
0.15 -0.84 l
0.14 1.23 l
0.15 0 l
0.14 1.27 l
0.15 0.85 l
0.14 -2.33 l
0.15 -0.60 l
0.14 2.71 l
0.15 -0.84 l
0.15 0.42 l
0.14 -1.87 l
0.15 0.39 l
0.14 2.33 l
0.15 0.21 l
0.14 0 l
0.15 -0.85 l
0.14 -0.42 l
0.15 0 l
0.15 2.12 l
0.14 1.69 l
0.15 -1.48 l
0.14 -1.06 l
0.15 0 l
0.14 0.85 l
0.15 1.26 l
0.14 0 l
0.15 -1.69 l
266.08 468.92 lineto
0.14 0.42 l
0.15 0.84 l
0.14 -0.84 l
0.15 1.48 l
0.14 -0.21 l
0.15 -1.06 l
0.15 1.27 l
0.14 0.39 l
0.15 0 l
0.14 0.21 l
0.15 -1.24 l
0.14 1.45 l
0.15 0 l
0.14 1.27 l
0.15 -0.42 l
0.15 -0.64 l
0.14 0.64 l
0.15 -0.43 l
0.14 1.48 l
0.15 -0.21 l
0.14 -1.06 l
0.15 1.49 l
0.14 -0.43 l
0.15 0.43 l
0.15 -0.85 l
0.14 0.85 l
0.15 0.84 l
0.14 -0.84 l
0.15 0.42 l
0.14 1.48 l
0.15 -1.27 l
0.14 1.06 l
0.15 0.21 l
0.15 0 l
0.14 -1.06 l
0.15 1.27 l
0.14 0 l
0.15 -0.21 l
0.14 0.85 l
0.15 -1.06 l
0.15 0.42 l
0.14 1.02 l
0.15 -1.02 l
0.14 0.81 l
0.15 0 l
0.14 -0.81 l
0.15 1.02 l
0.14 0.43 l
0.15 0.21 l
0.15 1.06 l
0.14 -0.43 l
0.15 -0.84 l
0.14 0.63 l
0.15 -0.42 l
0.14 1.06 l
0.15 -0.85 l
0.14 1.69 l
0.15 -1.48 l
0.15 -0.21 l
0.14 2.11 l
0.15 -0.84 l
0.14 -0.21 l
0.15 0.84 l
0.14 -0.42 l
0.15 0.21 l
0.14 0.64 l
0.15 0.42 l
0.15 -0.42 l
0.14 0.21 l
0.15 -0.43 l
0.14 0.22 l
0.15 0.63 l
0.14 -0.63 l
0.15 -0.22 l
0.15 1.91 l
0.14 -0.21 l
0.15 -1.06 l
0.14 0.21 l
0.15 0.85 l
0.14 -0.43 l
0.15 0.85 l
0.14 -0.42 l
0.15 0.21 l
0.15 1.87 l
0.14 -1.45 l
0.15 0.39 l
0.14 0 l
0.15 0.63 l
0.14 -0.42 l
0.15 0.21 l
0.14 -0.21 l
0.15 1.27 l
0.15 0 l
0.14 -0.63 l
0.15 1.05 l
0.14 -1.05 l
0.15 -0.22 l
0.14 -0.42 l
0.15 2.12 l
280.63 483.83 lineto
0.15 -0.21 l
0.15 0.84 l
0.14 -0.63 l
0.15 1.27 l
0.14 0 l
0.15 -0.85 l
0.14 1.27 l
0.15 -1.27 l
0.15 1.27 l
0.14 0 l
0.15 -0.21 l
0.14 -0.63 l
0.15 1.48 l
0.14 0.63 l
0.15 -0.21 l
0.14 -1.06 l
0.15 0.64 l
0.15 0 l
0.14 0 l
0.15 1.05 l
0.14 -1.48 l
0.15 2.51 l
0.14 -2.08 l
0.15 0.84 l
0.14 -0.42 l
0.15 1.66 l
0.15 -0.22 l
0.14 -1.23 l
0.15 0.21 l
0.14 0.21 l
0.15 0.81 l
0.14 0.64 l
0.15 -0.64 l
0.14 0 l
0.15 -0.38 l
0.15 1.02 l
0.14 -0.21 l
0.15 -0.21 l
0.14 1.69 l
0.15 -1.69 l
0.14 0.21 l
0.15 0.42 l
0.14 0.42 l
0.15 0 l
0.15 0.43 l
0.14 -0.85 l
0.15 1.06 l
0.14 -0.42 l
0.15 0.42 l
0.14 0.42 l
0.15 -0.42 l
0.15 -0.21 l
0.14 0.21 l
0.15 -0.21 l
0.14 2.32 l
0.15 -1.69 l
0.14 -0.42 l
0.15 1.27 l
0.14 0.21 l
0.15 -1.06 l
0.15 -0.42 l
0.14 0.63 l
0.15 0.21 l
0.14 1.49 l
0.15 -0.85 l
0.14 -0.21 l
0.15 0.42 l
0.14 -1.06 l
0.15 1.70 l
0.15 0.42 l
0.14 -1.06 l
0.15 0.21 l
0.14 0.43 l
0.15 -0.22 l
0.14 -0.42 l
0.15 0.42 l
0.14 -0.21 l
0.15 -0.63 l
0.15 1.06 l
0.14 -0.85 l
0.15 1.69 l
0.14 0.21 l
0.15 -0.84 l
0.14 0.21 l
0.15 -0.64 l
0.15 0.43 l
0.14 1.65 l
0.15 -1.65 l
0.14 -0.21 l
0.15 1.65 l
0.14 -1.02 l
0.15 0.42 l
0.14 -0.21 l
0.15 -0.63 l
0.15 1.06 l
0.14 -0.22 l
0.15 1.24 l
0.14 -0.64 l
0.15 -0.21 l
295.19 493.31 lineto
0.15 1.66 l
0.14 0.21 l
0.15 -1.87 l
0.15 1.24 l
0.14 0.42 l
0.15 -0.42 l
0.14 1.06 l
0.15 -0.43 l
0.14 -0.21 l
0.15 -0.42 l
0.14 -0.21 l
0.15 0.42 l
0.15 0.21 l
0.14 -0.42 l
0.15 0.42 l
0.14 0.42 l
0.15 -0.21 l
0.14 -0.21 l
0.15 1.69 l
0.15 -0.42 l
0.14 -0.63 l
0.15 -0.64 l
0.14 0.85 l
0.15 -1.06 l
0.14 1.69 l
0.15 -1.48 l
0.14 1.48 l
0.15 -0.63 l
0.15 -0.43 l
0.14 0.85 l
0.15 0.21 l
0.14 0 l
0.15 0.42 l
0.14 1.27 l
0.15 -1.05 l
0.14 -0.64 l
0.15 0 l
0.15 0.42 l
0.14 1.49 l
0.15 -2.33 l
0.14 0.21 l
0.15 0 l
0.14 -0.63 l
0.15 1.48 l
0.14 0.84 l
0.15 -1.69 l
0.15 1.48 l
0.14 -0.63 l
0.15 1.27 l
0.14 -0.64 l
0.15 -0.21 l
0.14 -0.21 l
0.15 -0.21 l
0.15 -0.22 l
0.14 1.27 l
0.15 -0.42 l
0.14 0.42 l
0.15 -1.69 l
0.14 1.06 l
0.15 0.42 l
0.14 0.21 l
0.15 0.43 l
0.15 -1.06 l
0.14 0.21 l
0.15 1.87 l
0.14 -0.60 l
0.15 -1.48 l
0.14 1.06 l
0.15 -1.06 l
0.14 1.69 l
0.15 -1.27 l
0.15 1.45 l
0.14 -0.39 l
0.15 0.60 l
0.14 -1.45 l
0.15 -0.21 l
0.14 1.45 l
0.15 -1.45 l
0.14 1.45 l
0.15 0.42 l
0.15 -1.44 l
0.14 0.84 l
0.15 0.60 l
0.14 -2.08 l
0.15 1.27 l
0.14 -0.42 l
0.15 0.42 l
0.15 -0.21 l
0.14 0.60 l
0.15 -0.60 l
0.14 0 l
0.15 2.08 l
0.14 -2.29 l
0.15 -0.43 l
0.14 1.24 l
0.15 0.63 l
0.15 -0.21 l
0.14 -0.21 l
0.15 1.48 l
309.75 499.59 lineto
0.15 -0.21 l
0.14 -0.39 l
0.15 0.81 l
0.14 1.06 l
0.15 -1.87 l
0.15 0.21 l
0.14 1.66 l
0.15 -2.72 l
0.14 2.72 l
0.15 -0.85 l
0.14 0.21 l
0.15 0.22 l
0.14 -1.06 l
0.15 1.06 l
0.15 -0.22 l
0.14 0.22 l
0.15 -0.64 l
0.14 0.21 l
0.15 0.64 l
0.14 -1.06 l
0.15 0.21 l
0.15 1.27 l
0.14 -1.06 l
0.15 0.43 l
0.14 0 l
0.15 -0.22 l
0.14 1.70 l
0.15 -0.85 l
0.14 0.42 l
0.15 -2.50 l
0.15 0.60 l
0.14 1.90 l
0.15 0 l
0.14 0.64 l
0.15 -2.54 l
0.14 1.27 l
0.15 -1.27 l
0.14 1.27 l
0.15 0.42 l
0.15 -0.42 l
0.14 -0.64 l
0.15 1.27 l
0.14 -0.63 l
0.15 0.84 l
0.14 -1.05 l
0.15 0.63 l
0.14 0.64 l
0.15 -2.12 l
0.15 1.48 l
0.14 0.64 l
0.15 -1.06 l
0.14 -0.21 l
0.15 0.63 l
0.14 0.21 l
0.15 0.43 l
0.15 -0.85 l
0.14 1.06 l
0.15 -1.27 l
0.14 1.48 l
0.15 -0.42 l
0.14 0 l
0.15 -0.22 l
0.14 0.22 l
0.15 -1.70 l
0.15 0 l
0.14 1.48 l
0.15 -0.63 l
0.14 1.69 l
0.15 -1.27 l
0.14 -0.21 l
0.15 1.06 l
0.14 -0.21 l
0.15 -0.21 l
0.15 -1.70 l
0.14 1.91 l
0.15 0.21 l
0.14 -0.64 l
0.15 0 l
0.14 -0.42 l
0.15 0.42 l
0.14 -1.26 l
0.15 2.53 l
0.15 -1.27 l
0.14 -0.63 l
0.15 0.63 l
0.14 -0.63 l
0.15 0 l
0.14 0.21 l
0.15 -0.21 l
0.14 0.85 l
0.15 0 l
0.15 -0.85 l
0.14 1.06 l
0.15 1.06 l
0.14 -1.70 l
0.15 0.64 l
0.14 -0.64 l
0.15 -0.84 l
0.15 0.84 l
324.31 501.07 lineto
0.15 2.33 l
0.14 -2.33 l
0.15 1.48 l
0.14 -0.63 l
0.15 0.21 l
0.14 -0.43 l
0.15 1.27 l
0.15 -0.63 l
0.14 -1.69 l
0.15 1.48 l
0.14 0.42 l
0.15 0.21 l
0.14 -0.84 l
0.15 0.21 l
0.14 0 l
0.15 -0.21 l
0.15 1.27 l
0.14 0.21 l
0.15 -1.48 l
0.14 0.42 l
0.15 0.63 l
0.14 0 l
0.15 -0.42 l
0.14 -0.85 l
0.15 0.85 l
0.15 -0.85 l
0.14 1.27 l
0.15 -0.21 l
0.14 0 l
0.15 -0.84 l
0.14 -0.43 l
0.15 0 l
0.15 0.43 l
0.14 0.84 l
0.15 0 l
0.14 -1.06 l
0.15 0.43 l
0.14 -0.21 l
0.15 0.84 l
0.14 -0.21 l
0.15 -1.48 l
0.15 0.42 l
0.14 1.91 l
0.15 0.42 l
0.14 -1.69 l
0.15 0.42 l
0.14 0.64 l
0.15 -1.27 l
0.14 0.84 l
0.15 0 l
0.15 -0.84 l
0.14 0.42 l
0.15 -0.64 l
0.14 1.91 l
0.15 -1.06 l
0.14 1.27 l
0.15 -1.48 l
0.14 -0.64 l
0.15 1.70 l
0.15 -1.06 l
0.14 0.42 l
0.15 0.21 l
0.14 -0.63 l
0.15 0.85 l
0.14 0.42 l
0.15 -0.64 l
0.15 0.43 l
0.14 -1.48 l
0.15 1.27 l
0.14 -0.43 l
0.15 -0.42 l
0.14 0.85 l
0.15 -0.43 l
0.14 0.43 l
0.15 -1.06 l
0.15 0 l
0.14 -0.21 l
0.15 -0.64 l
0.14 0.85 l
0.15 1.69 l
0.14 -1.90 l
0.15 0 l
0.14 0.84 l
0.15 -0.21 l
0.15 -0.42 l
0.14 1.06 l
0.15 -0.64 l
0.14 -0.42 l
0.15 1.27 l
0.14 0.63 l
0.15 -1.27 l
0.14 0.85 l
0.15 -1.48 l
0.15 1.27 l
0.14 0.21 l
0.15 -0.21 l
0.14 0 l
0.15 -1.91 l
0.14 1.06 l
338.87 502.55 lineto
0.15 0.21 l
0.14 1.27 l
0.15 -1.48 l
0.14 0.85 l
0.15 -1.06 l
0.14 0.63 l
0.15 -0.21 l
0.14 1.06 l
0.15 -0.85 l
0.15 0.43 l
0.14 0.63 l
0.15 -0.42 l
0.14 0.42 l
0.15 -0.21 l
0.14 -1.06 l
0.15 0.43 l
0.14 0.63 l
0.15 -1.06 l
0.15 1.27 l
0.14 -1.06 l
0.15 -0.63 l
0.14 0.21 l
0.15 1.27 l
0.14 -1.06 l
0.15 -0.63 l
0.14 1.27 l
0.15 -0.21 l
0.15 0 l
0.14 -0.43 l
0.15 0.64 l
0.14 0.21 l
0.15 0 l
0.14 -0.21 l
0.15 0.21 l
0.15 -0.64 l
0.14 -0.42 l
0.15 2.12 l
0.14 -1.06 l
0.15 0.42 l
0.14 -1.06 l
0.15 0.85 l
0.14 -0.85 l
0.15 -0.21 l
0.15 0.64 l
0.14 -1.06 l
0.15 1.06 l
0.14 1.27 l
0.15 -1.91 l
0.14 1.27 l
0.15 0 l
0.14 -1.06 l
0.15 0.64 l
0.15 -1.48 l
0.14 1.06 l
0.15 0 l
0.14 0.84 l
0.15 -1.48 l
0.14 0.85 l
0.15 -0.43 l
0.14 -0.42 l
0.15 0.64 l
0.15 0.84 l
0.14 -1.06 l
0.15 0.64 l
0.14 -0.64 l
0.15 0.64 l
0.14 0.42 l
0.15 -0.42 l
0.15 -0.21 l
0.14 -0.21 l
0.15 0.21 l
0.14 0.21 l
0.15 -0.85 l
0.14 1.06 l
0.15 -1.27 l
0.14 2.33 l
0.15 -1.48 l
0.15 -0.21 l
0.14 1.26 l
0.15 -1.26 l
0.14 0.63 l
0.15 0.42 l
0.14 -1.48 l
0.15 1.69 l
0.14 -0.21 l
0.15 -0.63 l
0.15 -0.21 l
0.14 1.27 l
0.15 -1.06 l
0.14 0.63 l
0.15 0.43 l
0.14 -1.06 l
0.15 0.63 l
0.14 -0.42 l
0.15 -0.85 l
0.15 1.91 l
0.14 2.08 l
0.15 -5.47 l
0.14 1.48 l
353.43 502.13 lineto
0.14 3.56 l
0.15 5.89 l
0.14 -10.93 l
0.15 -5.47 l
0.15 8.64 l
0.14 3.14 l
0.15 4.41 l
0.14 -8.61 l
0.15 -6.52 l
0.14 4.62 l
0.15 3.81 l
0.15 6.27 l
0.14 -6.27 l
0.15 -7.58 l
0.14 2.29 l
0.15 6.31 l
0.14 1.06 l
0.15 0.63 l
0.14 -8.00 l
0.15 -2.51 l
0.15 7.16 l
0.14 1.87 l
0.15 3.60 l
0.14 -5.89 l
0.15 -6.31 l
0.14 4.19 l
0.15 5.04 l
0.14 1.49 l
0.15 -2.75 l
0.15 -5.68 l
0.14 0.85 l
0.15 5.67 l
0.14 0.85 l
0.15 0.84 l
0.14 -5.67 l
0.15 -2.54 l
0.14 3.60 l
0.15 2.50 l
0.15 3.81 l
0.14 -4.83 l
0.15 -4.66 l
0.14 2.75 l
0.15 2.12 l
0.14 2.08 l
0.15 0.42 l
0.15 -5.04 l
0.14 -2.12 l
0.15 4.83 l
0.14 1.48 l
0.15 0.43 l
0.14 -3.14 l
0.15 -1.90 l
0.14 1.90 l
0.15 2.29 l
0.15 -0.21 l
0.14 0 l
0.15 -2.08 l
0.14 -1.06 l
0.15 2.51 l
0.14 0 l
0.15 0.63 l
0.14 -2.71 l
0.15 1.26 l
0.15 0 l
0.14 1.45 l
0.15 -1.66 l
0.14 0.81 l
0.15 -2.08 l
0.14 0.85 l
0.15 1.06 l
0.14 0.17 l
0.15 -1.44 l
0.15 0.84 l
0.14 0.22 l
0.15 0.81 l
0.14 0 l
0.15 0 l
0.14 -0.60 l
0.15 0 l
0.15 -0.64 l
0.14 0.43 l
0.15 0 l
0.14 0.21 l
0.15 -0.64 l
0.14 -0.42 l
0.15 0.42 l
0.14 1.45 l
0.15 -1.02 l
0.15 1.02 l
0.14 -1.02 l
0.15 0.81 l
0.14 -0.81 l
0.15 0.21 l
0.14 2.08 l
0.15 -2.29 l
0.14 -0.43 l
0.15 0 l
0.15 -0.42 l
0.14 1.87 l
currentpoint o m
367.99 505.05 lineto
0.14 1.06 l
0.15 -1.66 l
0.14 2.08 l
0.15 -2.71 l
0.14 -0.85 l
0.15 3.35 l
0.15 4.02 l
0.14 -6.10 l
0.15 -0.21 l
0.14 -1.69 l
0.15 0.21 l
0.14 8.00 l
0.15 -1.69 l
0.15 -5.67 l
0.14 -0.43 l
0.15 -0.84 l
0.14 5.88 l
0.15 4.20 l
0.14 -6.52 l
0.15 -5.47 l
0.14 3.18 l
0.15 0.63 l
0.15 6.31 l
0.14 -3.81 l
0.15 -3.98 l
0.14 -0.85 l
0.15 4.62 l
0.14 0.85 l
0.15 3.17 l
0.14 -7.58 l
0.15 -0.63 l
0.15 2.96 l
0.14 1.87 l
0.15 2.75 l
0.14 -6.10 l
0.15 -2.12 l
0.14 1.69 l
0.15 2.72 l
0.14 3.81 l
0.15 -4.02 l
0.15 -3.35 l
0.14 0.63 l
0.15 4.41 l
0.14 0.21 l
0.15 0.42 l
0.14 -2.53 l
0.15 -2.72 l
0.15 2.33 l
0.14 1.65 l
0.15 0.22 l
0.14 0 l
0.15 -3.56 l
0.14 0.21 l
0.15 3.56 l
0.14 0 l
0.15 -0.21 l
0.15 -0.64 l
0.14 -2.29 l
0.15 2.08 l
0.14 1.06 l
0.15 0.84 l
0.14 -1.69 l
0.15 -1.06 l
0.14 0.64 l
0.15 -0.64 l
0.15 0.22 l
0.14 1.26 l
0.15 -0.63 l
0.14 -1.02 l
0.15 0.81 l
0.14 0.63 l
0.15 0 l
0.14 0 l
0.15 -0.21 l
0.15 -1.06 l
0.14 1.91 l
0.15 -0.64 l
0.14 0 l
0.15 0 l
0.14 -0.63 l
0.15 0.42 l
0.15 -1.44 l
0.14 1.44 l
0.15 0 l
0.14 -0.63 l
0.15 0 l
0.14 0.84 l
0.15 0.21 l
0.14 0.22 l
0.15 -0.85 l
0.15 -0.42 l
0.14 0.21 l
0.15 0.42 l
0.14 -1.06 l
0.15 1.91 l
0.14 -0.85 l
0.15 0.42 l
0.14 -1.05 l
0.15 0.42 l
o
/bg { 1 1 1 srgb } def
222.40 501.92 0.43 c p3
222.55 502.76 0.43 c p3
222.69 501.92 0.43 c p3
222.84 501.28 0.43 c p3
222.98 501.92 0.43 c p3
223.13 501.92 0.43 c p3
223.27 501.70 0.43 c p3
223.42 503.40 0.43 c p3
223.56 501.70 0.43 c p3
223.71 501.70 0.43 c p3
223.86 502.34 0.43 c p3
224.00 501.28 0.43 c p3
224.15 501.70 0.43 c p3
224.29 501.92 0.43 c p3
224.44 502.97 0.43 c p3
224.58 502.55 0.43 c p3
224.73 501.49 0.43 c p3
224.87 501.70 0.43 c p3
225.02 502.76 0.43 c p3
225.17 502.13 0.43 c p3
225.31 502.13 0.43 c p3
225.46 502.13 0.43 c p3
225.60 503.19 0.43 c p3
225.75 501.49 0.43 c p3
225.89 501.49 0.43 c p3
226.04 502.55 0.43 c p3
226.19 501.92 0.43 c p3
226.33 502.13 0.43 c p3
226.48 502.97 0.43 c p3
226.62 501.92 0.43 c p3
226.77 503.19 0.43 c p3
226.91 503.19 0.43 c p3
227.06 502.97 0.43 c p3
227.20 502.34 0.43 c p3
227.35 501.70 0.43 c p3
227.50 502.34 0.43 c p3
227.64 502.97 0.43 c p3
227.79 502.55 0.43 c p3
227.93 502.55 0.43 c p3
228.08 502.34 0.43 c p3
228.22 501.28 0.43 c p3
228.37 502.97 0.43 c p3
228.51 503.19 0.43 c p3
228.66 502.55 0.43 c p3
228.81 502.76 0.43 c p3
228.95 501.92 0.43 c p3
229.10 502.55 0.43 c p3
229.24 503.61 0.43 c p3
229.39 502.55 0.43 c p3
229.53 504.24 0.43 c p3
229.68 501.49 0.43 c p3
229.82 502.13 0.43 c p3
229.97 502.97 0.43 c p3
230.12 502.55 0.43 c p3
230.26 503.61 0.43 c p3
230.41 501.49 0.43 c p3
230.55 502.34 0.43 c p3
230.70 502.55 0.43 c p3
230.84 502.34 0.43 c p3
230.99 502.55 0.43 c p3
231.14 501.92 0.43 c p3
231.28 502.13 0.43 c p3
231.43 502.55 0.43 c p3
231.57 502.97 0.43 c p3
231.72 502.97 0.43 c p3
231.86 503.61 0.43 c p3
232.01 501.70 0.43 c p3
232.15 502.55 0.43 c p3
232.30 502.34 0.43 c p3
232.45 503.19 0.43 c p3
232.59 503.40 0.43 c p3
232.74 501.70 0.43 c p3
232.88 502.13 0.43 c p3
233.03 501.92 0.43 c p3
233.17 502.13 0.43 c p3
233.32 503.40 0.43 c p3
233.46 501.92 0.43 c p3
233.61 501.28 0.43 c p3
233.76 502.34 0.43 c p3
233.90 501.07 0.43 c p3
234.05 503.40 0.43 c p3
234.19 503.19 0.43 c p3
234.34 503.40 0.43 c p3
234.48 502.76 0.43 c p3
234.63 503.19 0.43 c p3
234.77 501.28 0.43 c p3
234.92 502.76 0.43 c p3
235.07 503.19 0.43 c p3
235.21 501.70 0.43 c p3
235.36 501.92 0.43 c p3
235.50 502.34 0.43 c p3
235.65 501.70 0.43 c p3
235.79 502.97 0.43 c p3
235.94 502.76 0.43 c p3
236.09 503.40 0.43 c p3
236.23 503.19 0.43 c p3
236.38 502.55 0.43 c p3
236.52 503.19 0.43 c p3
236.67 503.19 0.43 c p3
236.81 502.97 0.43 c p3
236.96 424.77 0.43 c p3
237.10 425.78 0.43 c p3
237.25 427.28 0.43 c p3
237.40 426.43 0.43 c p3
237.54 427.06 0.43 c p3
237.69 428.54 0.43 c p3
237.83 426.43 0.43 c p3
237.98 428.33 0.43 c p3
238.12 427.70 0.43 c p3
238.27 427.91 0.43 c p3
238.41 428.12 0.43 c p3
238.56 429.60 0.43 c p3
238.71 428.76 0.43 c p3
238.85 429.18 0.43 c p3
239.00 430.03 0.43 c p3
239.14 428.76 0.43 c p3
239.29 430.03 0.43 c p3
239.43 430.87 0.43 c p3
239.58 430.87 0.43 c p3
239.72 429.39 0.43 c p3
239.87 432.11 0.43 c p3
240.02 431.29 0.43 c p3
240.16 431.89 0.43 c p3
240.31 432.32 0.43 c p3
240.45 431.89 0.43 c p3
240.60 432.11 0.43 c p3
240.74 434.01 0.43 c p3
240.89 432.53 0.43 c p3
241.04 433.59 0.43 c p3
241.18 434.22 0.43 c p3
241.33 434.22 0.43 c p3
241.47 434.64 0.43 c p3
241.62 434.01 0.43 c p3
241.76 435.07 0.43 c p3
241.91 435.70 0.43 c p3
242.05 435.07 0.43 c p3
242.20 435.91 0.43 c p3
242.35 435.91 0.43 c p3
242.49 434.86 0.43 c p3
242.64 436.97 0.43 c p3
242.78 436.34 0.43 c p3
242.93 437.15 0.43 c p3
243.07 437.78 0.43 c p3
243.22 436.12 0.43 c p3
243.36 437.57 0.43 c p3
243.51 437.36 0.43 c p3
243.66 438.21 0.43 c p3
243.80 439.90 0.43 c p3
243.95 438.21 0.43 c p3
244.09 438.84 0.43 c p3
244.24 438.84 0.43 c p3
244.38 437.99 0.43 c p3
244.53 440.32 0.43 c p3
244.67 438.84 0.43 c p3
244.82 440.53 0.43 c p3
244.97 440.96 0.43 c p3
245.11 439.69 0.43 c p3
245.26 440.96 0.43 c p3
245.40 440.74 0.43 c p3
245.55 440.53 0.43 c p3
245.69 442.44 0.43 c p3
245.84 442.44 0.43 c p3
245.99 441.17 0.43 c p3
246.13 441.80 0.43 c p3
246.28 442.44 0.43 c p3
246.42 442.44 0.43 c p3
246.57 443.88 0.43 c p3
246.71 442.82 0.43 c p3
246.86 442.65 0.43 c p3
247.00 442.22 0.43 c p3
247.15 444.09 0.43 c p3
247.30 444.09 0.43 c p3
247.44 445.79 0.43 c p3
247.59 444.94 0.43 c p3
247.73 444.09 0.43 c p3
247.88 445.36 0.43 c p3
248.02 444.73 0.43 c p3
248.17 446.00 0.43 c p3
248.31 446.42 0.43 c p3
248.46 445.57 0.43 c p3
248.61 446.84 0.43 c p3
248.75 446.42 0.43 c p3
248.90 444.94 0.43 c p3
249.04 446.63 0.43 c p3
249.19 447.06 0.43 c p3
249.33 447.06 0.43 c p3
249.48 446.84 0.43 c p3
249.62 447.90 0.43 c p3
249.77 447.06 0.43 c p3
249.92 449.14 0.43 c p3
250.06 448.32 0.43 c p3
250.21 448.71 0.43 c p3
250.35 449.35 0.43 c p3
250.50 448.71 0.43 c p3
250.64 449.35 0.43 c p3
250.79 450.40 0.43 c p3
250.94 449.98 0.43 c p3
251.08 449.56 0.43 c p3
251.23 449.98 0.43 c p3
251.37 449.35 0.43 c p3
251.52 450.40 0.43 c p3
251.66 450.83 0.43 c p3
251.81 451.67 0.43 c p3
251.95 450.62 0.43 c p3
252.10 450.83 0.43 c p3
252.25 452.10 0.43 c p3
252.39 452.10 0.43 c p3
252.54 452.94 0.43 c p3
252.68 450.83 0.43 c p3
252.83 452.52 0.43 c p3
252.97 453.15 0.43 c p3
253.12 452.94 0.43 c p3
253.26 453.58 0.43 c p3
253.41 454.18 0.43 c p3
253.56 454.18 0.43 c p3
253.70 454.18 0.43 c p3
253.85 454.00 0.43 c p3
253.99 454.18 0.43 c p3
254.14 454.18 0.43 c p3
254.28 454.60 0.43 c p3
254.43 454.60 0.43 c p3
254.57 455.87 0.43 c p3
254.72 455.66 0.43 c p3
254.87 456.08 0.43 c p3
255.01 454.81 0.43 c p3
255.16 455.87 0.43 c p3
255.30 456.50 0.43 c p3
255.45 456.29 0.43 c p3
255.59 456.29 0.43 c p3
255.74 456.08 0.43 c p3
255.88 457.35 0.43 c p3
256.03 456.93 0.43 c p3
256.18 457.77 0.43 c p3
256.32 456.72 0.43 c p3
256.47 456.93 0.43 c p3
256.61 457.98 0.43 c p3
256.76 457.14 0.43 c p3
256.90 459.04 0.43 c p3
257.05 458.62 0.43 c p3
257.20 458.20 0.43 c p3
257.34 460.06 0.43 c p3
257.49 459.47 0.43 c p3
257.63 458.83 0.43 c p3
257.78 460.28 0.43 c p3
257.92 460.06 0.43 c p3
258.07 458.41 0.43 c p3
258.21 459.64 0.43 c p3
258.36 459.25 0.43 c p3
258.51 459.47 0.43 c p3
258.65 461.55 0.43 c p3
258.80 460.91 0.43 c p3
258.94 461.12 0.43 c p3
259.09 460.49 0.43 c p3
259.23 460.70 0.43 c p3
259.38 460.91 0.43 c p3
259.52 462.18 0.43 c p3
259.67 461.55 0.43 c p3
259.82 461.33 0.43 c p3
259.96 462.18 0.43 c p3
260.11 463.24 0.43 c p3
260.25 462.82 0.43 c p3
260.40 463.45 0.43 c p3
260.54 462.39 0.43 c p3
260.69 461.76 0.43 c p3
260.83 463.66 0.43 c p3
260.98 463.24 0.43 c p3
261.13 464.08 0.43 c p3
261.27 463.45 0.43 c p3
261.42 464.30 0.43 c p3
261.56 463.66 0.43 c p3
261.71 465.53 0.43 c p3
261.85 465.32 0.43 c p3
262.00 465.14 0.43 c p3
262.15 464.30 0.43 c p3
262.29 465.53 0.43 c p3
262.44 465.53 0.43 c p3
262.58 466.80 0.43 c p3
262.73 467.65 0.43 c p3
262.87 465.32 0.43 c p3
263.02 464.72 0.43 c p3
263.16 467.43 0.43 c p3
263.31 466.59 0.43 c p3
263.46 467.01 0.43 c p3
263.60 465.14 0.43 c p3
263.75 465.53 0.43 c p3
263.89 467.86 0.43 c p3
264.04 468.07 0.43 c p3
264.18 468.07 0.43 c p3
264.33 467.22 0.43 c p3
264.47 466.80 0.43 c p3
264.62 466.80 0.43 c p3
264.77 468.92 0.43 c p3
264.91 470.61 0.43 c p3
265.06 469.13 0.43 c p3
265.20 468.07 0.43 c p3
265.35 468.07 0.43 c p3
265.49 468.92 0.43 c p3
265.64 470.18 0.43 c p3
265.78 470.18 0.43 c p3
265.93 468.49 0.43 c p3
266.08 468.92 0.43 c p3
266.22 469.34 0.43 c p3
266.37 470.18 0.43 c p3
266.51 469.34 0.43 c p3
266.66 470.82 0.43 c p3
266.80 470.61 0.43 c p3
266.95 469.55 0.43 c p3
267.10 470.82 0.43 c p3
267.24 471.21 0.43 c p3
267.39 471.21 0.43 c p3
267.53 471.42 0.43 c p3
267.68 470.18 0.43 c p3
267.82 471.63 0.43 c p3
267.97 471.63 0.43 c p3
268.11 472.90 0.43 c p3
268.26 472.48 0.43 c p3
268.41 471.84 0.43 c p3
268.55 472.48 0.43 c p3
268.70 472.05 0.43 c p3
268.84 473.53 0.43 c p3
268.99 473.32 0.43 c p3
269.13 472.26 0.43 c p3
269.28 473.75 0.43 c p3
269.42 473.32 0.43 c p3
269.57 473.75 0.43 c p3
269.72 472.90 0.43 c p3
269.86 473.75 0.43 c p3
270.01 474.59 0.43 c p3
270.15 473.75 0.43 c p3
270.30 474.17 0.43 c p3
270.44 475.65 0.43 c p3
270.59 474.38 0.43 c p3
270.73 475.44 0.43 c p3
270.88 475.65 0.43 c p3
271.03 475.65 0.43 c p3
271.17 474.59 0.43 c p3
271.32 475.86 0.43 c p3
271.46 475.86 0.43 c p3
271.61 475.65 0.43 c p3
271.75 476.50 0.43 c p3
271.90 475.44 0.43 c p3
272.05 475.86 0.43 c p3
272.19 476.88 0.43 c p3
272.34 475.86 0.43 c p3
272.48 476.67 0.43 c p3
272.63 476.67 0.43 c p3
272.77 475.86 0.43 c p3
272.92 476.88 0.43 c p3
273.06 477.31 0.43 c p3
273.21 477.52 0.43 c p3
273.36 478.58 0.43 c p3
273.50 478.15 0.43 c p3
273.65 477.31 0.43 c p3
273.79 477.94 0.43 c p3
273.94 477.52 0.43 c p3
274.08 478.58 0.43 c p3
274.23 477.73 0.43 c p3
274.37 479.42 0.43 c p3
274.52 477.94 0.43 c p3
274.67 477.73 0.43 c p3
274.81 479.84 0.43 c p3
274.96 479.00 0.43 c p3
275.10 478.79 0.43 c p3
275.25 479.63 0.43 c p3
275.39 479.21 0.43 c p3
275.54 479.42 0.43 c p3
275.68 480.06 0.43 c p3
275.83 480.48 0.43 c p3
275.98 480.06 0.43 c p3
276.12 480.27 0.43 c p3
276.27 479.84 0.43 c p3
276.41 480.06 0.43 c p3
276.56 480.69 0.43 c p3
276.70 480.06 0.43 c p3
276.85 479.84 0.43 c p3
277.00 481.75 0.43 c p3
277.14 481.54 0.43 c p3
277.29 480.48 0.43 c p3
277.43 480.69 0.43 c p3
277.58 481.54 0.43 c p3
277.72 481.11 0.43 c p3
277.87 481.96 0.43 c p3
278.01 481.54 0.43 c p3
278.16 481.75 0.43 c p3
278.31 483.62 0.43 c p3
278.45 482.17 0.43 c p3
278.60 482.56 0.43 c p3
278.74 482.56 0.43 c p3
278.89 483.19 0.43 c p3
279.03 482.77 0.43 c p3
279.18 482.98 0.43 c p3
279.32 482.77 0.43 c p3
279.47 484.04 0.43 c p3
279.62 484.04 0.43 c p3
279.76 483.41 0.43 c p3
279.91 484.46 0.43 c p3
280.05 483.41 0.43 c p3
280.20 483.19 0.43 c p3
280.34 482.77 0.43 c p3
280.49 484.89 0.43 c p3
280.63 483.83 0.43 c p3
280.78 483.62 0.43 c p3
280.93 484.46 0.43 c p3
281.07 483.83 0.43 c p3
281.22 485.10 0.43 c p3
281.36 485.10 0.43 c p3
281.51 484.25 0.43 c p3
281.65 485.52 0.43 c p3
281.80 484.25 0.43 c p3
281.95 485.52 0.43 c p3
282.09 485.52 0.43 c p3
282.24 485.31 0.43 c p3
282.38 484.68 0.43 c p3
282.53 486.16 0.43 c p3
282.67 486.79 0.43 c p3
282.82 486.58 0.43 c p3
282.96 485.52 0.43 c p3
283.11 486.16 0.43 c p3
283.26 486.16 0.43 c p3
283.40 486.16 0.43 c p3
283.55 487.21 0.43 c p3
283.69 485.73 0.43 c p3
283.84 488.24 0.43 c p3
283.98 486.16 0.43 c p3
284.13 487.00 0.43 c p3
284.27 486.58 0.43 c p3
284.42 488.24 0.43 c p3
284.57 488.02 0.43 c p3
284.71 486.79 0.43 c p3
284.86 487.00 0.43 c p3
285.00 487.21 0.43 c p3
285.15 488.02 0.43 c p3
285.29 488.66 0.43 c p3
285.44 488.02 0.43 c p3
285.58 488.02 0.43 c p3
285.73 487.64 0.43 c p3
285.88 488.66 0.43 c p3
286.02 488.45 0.43 c p3
286.17 488.24 0.43 c p3
286.31 489.93 0.43 c p3
286.46 488.24 0.43 c p3
286.60 488.45 0.43 c p3
286.75 488.87 0.43 c p3
286.89 489.29 0.43 c p3
287.04 489.29 0.43 c p3
287.19 489.72 0.43 c p3
287.33 488.87 0.43 c p3
287.48 489.93 0.43 c p3
287.62 489.51 0.43 c p3
287.77 489.93 0.43 c p3
287.91 490.35 0.43 c p3
288.06 489.93 0.43 c p3
288.21 489.72 0.43 c p3
288.35 489.93 0.43 c p3
288.50 489.72 0.43 c p3
288.64 492.04 0.43 c p3
288.79 490.35 0.43 c p3
288.93 489.93 0.43 c p3
289.08 491.20 0.43 c p3
289.22 491.41 0.43 c p3
289.37 490.35 0.43 c p3
289.52 489.93 0.43 c p3
289.66 490.56 0.43 c p3
289.81 490.77 0.43 c p3
289.95 492.26 0.43 c p3
290.10 491.41 0.43 c p3
290.24 491.20 0.43 c p3
290.39 491.62 0.43 c p3
290.53 490.56 0.43 c p3
290.68 492.26 0.43 c p3
290.83 492.68 0.43 c p3
290.97 491.62 0.43 c p3
291.12 491.83 0.43 c p3
291.26 492.26 0.43 c p3
291.41 492.04 0.43 c p3
291.55 491.62 0.43 c p3
291.70 492.04 0.43 c p3
291.84 491.83 0.43 c p3
291.99 491.20 0.43 c p3
292.14 492.26 0.43 c p3
292.28 491.41 0.43 c p3
292.43 493.10 0.43 c p3
292.57 493.31 0.43 c p3
292.72 492.47 0.43 c p3
292.86 492.68 0.43 c p3
293.01 492.04 0.43 c p3
293.16 492.47 0.43 c p3
293.30 494.12 0.43 c p3
293.45 492.47 0.43 c p3
293.59 492.26 0.43 c p3
293.74 493.91 0.43 c p3
293.88 492.89 0.43 c p3
294.03 493.31 0.43 c p3
294.17 493.10 0.43 c p3
294.32 492.47 0.43 c p3
294.47 493.53 0.43 c p3
294.61 493.31 0.43 c p3
294.76 494.55 0.43 c p3
294.90 493.91 0.43 c p3
295.05 493.70 0.43 c p3
295.19 493.31 0.43 c p3
295.34 494.97 0.43 c p3
295.48 495.18 0.43 c p3
295.63 493.31 0.43 c p3
295.78 494.55 0.43 c p3
295.92 494.97 0.43 c p3
296.07 494.55 0.43 c p3
296.21 495.61 0.43 c p3
296.36 495.18 0.43 c p3
296.50 494.97 0.43 c p3
296.65 494.55 0.43 c p3
296.79 494.34 0.43 c p3
296.94 494.76 0.43 c p3
297.09 494.97 0.43 c p3
297.23 494.55 0.43 c p3
297.38 494.97 0.43 c p3
297.52 495.39 0.43 c p3
297.67 495.18 0.43 c p3
297.81 494.97 0.43 c p3
297.96 496.66 0.43 c p3
298.11 496.24 0.43 c p3
298.25 495.61 0.43 c p3
298.40 494.97 0.43 c p3
298.54 495.82 0.43 c p3
298.69 494.76 0.43 c p3
298.83 496.45 0.43 c p3
298.98 494.97 0.43 c p3
299.12 496.45 0.43 c p3
299.27 495.82 0.43 c p3
299.42 495.39 0.43 c p3
299.56 496.24 0.43 c p3
299.71 496.45 0.43 c p3
299.85 496.45 0.43 c p3
300.00 496.87 0.43 c p3
300.14 498.14 0.43 c p3
300.29 497.09 0.43 c p3
300.43 496.45 0.43 c p3
300.58 496.45 0.43 c p3
300.73 496.87 0.43 c p3
300.87 498.36 0.43 c p3
301.02 496.03 0.43 c p3
301.16 496.24 0.43 c p3
301.31 496.24 0.43 c p3
301.45 495.61 0.43 c p3
301.60 497.09 0.43 c p3
301.74 497.93 0.43 c p3
301.89 496.24 0.43 c p3
302.04 497.72 0.43 c p3
302.18 497.09 0.43 c p3
302.33 498.36 0.43 c p3
302.47 497.72 0.43 c p3
302.62 497.51 0.43 c p3
302.76 497.30 0.43 c p3
302.91 497.09 0.43 c p3
303.06 496.87 0.43 c p3
303.20 498.14 0.43 c p3
303.35 497.72 0.43 c p3
303.49 498.14 0.43 c p3
303.64 496.45 0.43 c p3
303.78 497.51 0.43 c p3
303.93 497.93 0.43 c p3
304.07 498.14 0.43 c p3
304.22 498.57 0.43 c p3
304.37 497.51 0.43 c p3
304.51 497.72 0.43 c p3
304.66 499.59 0.43 c p3
304.80 498.99 0.43 c p3
304.95 497.51 0.43 c p3
305.09 498.57 0.43 c p3
305.24 497.51 0.43 c p3
305.38 499.20 0.43 c p3
305.53 497.93 0.43 c p3
305.68 499.38 0.43 c p3
305.82 498.99 0.43 c p3
305.97 499.59 0.43 c p3
306.11 498.14 0.43 c p3
306.26 497.93 0.43 c p3
306.40 499.38 0.43 c p3
306.55 497.93 0.43 c p3
306.69 499.38 0.43 c p3
306.84 499.80 0.43 c p3
306.99 498.36 0.43 c p3
307.13 499.20 0.43 c p3
307.28 499.80 0.43 c p3
307.42 497.72 0.43 c p3
307.57 498.99 0.43 c p3
307.71 498.57 0.43 c p3
307.86 498.99 0.43 c p3
308.01 498.78 0.43 c p3
308.15 499.38 0.43 c p3
308.30 498.78 0.43 c p3
308.44 498.78 0.43 c p3
308.59 500.86 0.43 c p3
308.73 498.57 0.43 c p3
308.88 498.14 0.43 c p3
309.02 499.38 0.43 c p3
309.17 500.01 0.43 c p3
309.32 499.80 0.43 c p3
309.46 499.59 0.43 c p3
309.61 501.07 0.43 c p3
309.75 499.59 0.43 c p3
309.90 499.38 0.43 c p3
310.04 498.99 0.43 c p3
310.19 499.80 0.43 c p3
310.33 500.86 0.43 c p3
310.48 498.99 0.43 c p3
310.63 499.20 0.43 c p3
310.77 500.86 0.43 c p3
310.92 498.14 0.43 c p3
311.06 500.86 0.43 c p3
311.21 500.01 0.43 c p3
311.35 500.22 0.43 c p3
311.50 500.44 0.43 c p3
311.64 499.38 0.43 c p3
311.79 500.44 0.43 c p3
311.94 500.22 0.43 c p3
312.08 500.44 0.43 c p3
312.23 499.80 0.43 c p3
312.37 500.01 0.43 c p3
312.52 500.65 0.43 c p3
312.66 499.59 0.43 c p3
312.81 499.80 0.43 c p3
312.96 501.07 0.43 c p3
313.10 500.01 0.43 c p3
313.25 500.44 0.43 c p3
313.39 500.44 0.43 c p3
313.54 500.22 0.43 c p3
313.68 501.92 0.43 c p3
313.83 501.07 0.43 c p3
313.97 501.49 0.43 c p3
314.12 498.99 0.43 c p3
314.27 499.59 0.43 c p3
314.41 501.49 0.43 c p3
314.56 501.49 0.43 c p3
314.70 502.13 0.43 c p3
314.85 499.59 0.43 c p3
314.99 500.86 0.43 c p3
315.14 499.59 0.43 c p3
315.28 500.86 0.43 c p3
315.43 501.28 0.43 c p3
315.58 500.86 0.43 c p3
315.72 500.22 0.43 c p3
315.87 501.49 0.43 c p3
316.01 500.86 0.43 c p3
316.16 501.70 0.43 c p3
316.30 500.65 0.43 c p3
316.45 501.28 0.43 c p3
316.59 501.92 0.43 c p3
316.74 499.80 0.43 c p3
316.89 501.28 0.43 c p3
317.03 501.92 0.43 c p3
317.18 500.86 0.43 c p3
317.32 500.65 0.43 c p3
317.47 501.28 0.43 c p3
317.61 501.49 0.43 c p3
317.76 501.92 0.43 c p3
317.91 501.07 0.43 c p3
318.05 502.13 0.43 c p3
318.20 500.86 0.43 c p3
318.34 502.34 0.43 c p3
318.49 501.92 0.43 c p3
318.63 501.92 0.43 c p3
318.78 501.70 0.43 c p3
318.92 501.92 0.43 c p3
319.07 500.22 0.43 c p3
319.22 500.22 0.43 c p3
319.36 501.70 0.43 c p3
319.51 501.07 0.43 c p3
319.65 502.76 0.43 c p3
319.80 501.49 0.43 c p3
319.94 501.28 0.43 c p3
320.09 502.34 0.43 c p3
320.23 502.13 0.43 c p3
320.38 501.92 0.43 c p3
320.53 500.22 0.43 c p3
320.67 502.13 0.43 c p3
320.82 502.34 0.43 c p3
320.96 501.70 0.43 c p3
321.11 501.70 0.43 c p3
321.25 501.28 0.43 c p3
321.40 501.70 0.43 c p3
321.54 500.44 0.43 c p3
321.69 502.97 0.43 c p3
321.84 501.70 0.43 c p3
321.98 501.07 0.43 c p3
322.13 501.70 0.43 c p3
322.27 501.07 0.43 c p3
322.42 501.07 0.43 c p3
322.56 501.28 0.43 c p3
322.71 501.07 0.43 c p3
322.85 501.92 0.43 c p3
323.00 501.92 0.43 c p3
323.15 501.07 0.43 c p3
323.29 502.13 0.43 c p3
323.44 503.19 0.43 c p3
323.58 501.49 0.43 c p3
323.73 502.13 0.43 c p3
323.87 501.49 0.43 c p3
324.02 500.65 0.43 c p3
324.17 501.49 0.43 c p3
324.31 501.07 0.43 c p3
324.46 503.40 0.43 c p3
324.60 501.07 0.43 c p3
324.75 502.55 0.43 c p3
324.89 501.92 0.43 c p3
325.04 502.13 0.43 c p3
325.18 501.70 0.43 c p3
325.33 502.97 0.43 c p3
325.48 502.34 0.43 c p3
325.62 500.65 0.43 c p3
325.77 502.13 0.43 c p3
325.91 502.55 0.43 c p3
326.06 502.76 0.43 c p3
326.20 501.92 0.43 c p3
326.35 502.13 0.43 c p3
326.49 502.13 0.43 c p3
326.64 501.92 0.43 c p3
326.79 503.19 0.43 c p3
326.93 503.40 0.43 c p3
327.08 501.92 0.43 c p3
327.22 502.34 0.43 c p3
327.37 502.97 0.43 c p3
327.51 502.97 0.43 c p3
327.66 502.55 0.43 c p3
327.80 501.70 0.43 c p3
327.95 502.55 0.43 c p3
328.10 501.70 0.43 c p3
328.24 502.97 0.43 c p3
328.39 502.76 0.43 c p3
328.53 502.76 0.43 c p3
328.68 501.92 0.43 c p3
328.82 501.49 0.43 c p3
328.97 501.49 0.43 c p3
329.12 501.92 0.43 c p3
329.26 502.76 0.43 c p3
329.41 502.76 0.43 c p3
329.55 501.70 0.43 c p3
329.70 502.13 0.43 c p3
329.84 501.92 0.43 c p3
329.99 502.76 0.43 c p3
330.13 502.55 0.43 c p3
330.28 501.07 0.43 c p3
330.43 501.49 0.43 c p3
330.57 503.40 0.43 c p3
330.72 503.82 0.43 c p3
330.86 502.13 0.43 c p3
331.01 502.55 0.43 c p3
331.15 503.19 0.43 c p3
331.30 501.92 0.43 c p3
331.44 502.76 0.43 c p3
331.59 502.76 0.43 c p3
331.74 501.92 0.43 c p3
331.88 502.34 0.43 c p3
332.03 501.70 0.43 c p3
332.17 503.61 0.43 c p3
332.32 502.55 0.43 c p3
332.46 503.82 0.43 c p3
332.61 502.34 0.43 c p3
332.75 501.70 0.43 c p3
332.90 503.40 0.43 c p3
333.05 502.34 0.43 c p3
333.19 502.76 0.43 c p3
333.34 502.97 0.43 c p3
333.48 502.34 0.43 c p3
333.63 503.19 0.43 c p3
333.77 503.61 0.43 c p3
333.92 502.97 0.43 c p3
334.07 503.40 0.43 c p3
334.21 501.92 0.43 c p3
334.36 503.19 0.43 c p3
334.50 502.76 0.43 c p3
334.65 502.34 0.43 c p3
334.79 503.19 0.43 c p3
334.94 502.76 0.43 c p3
335.08 503.19 0.43 c p3
335.23 502.13 0.43 c p3
335.38 502.13 0.43 c p3
335.52 501.92 0.43 c p3
335.67 501.28 0.43 c p3
335.81 502.13 0.43 c p3
335.96 503.82 0.43 c p3
336.10 501.92 0.43 c p3
336.25 501.92 0.43 c p3
336.39 502.76 0.43 c p3
336.54 502.55 0.43 c p3
336.69 502.13 0.43 c p3
336.83 503.19 0.43 c p3
336.98 502.55 0.43 c p3
337.12 502.13 0.43 c p3
337.27 503.40 0.43 c p3
337.41 504.03 0.43 c p3
337.56 502.76 0.43 c p3
337.70 503.61 0.43 c p3
337.85 502.13 0.43 c p3
338.00 503.40 0.43 c p3
338.14 503.61 0.43 c p3
338.29 503.40 0.43 c p3
338.43 503.40 0.43 c p3
338.58 501.49 0.43 c p3
338.72 502.55 0.43 c p3
338.87 502.55 0.43 c p3
339.02 502.76 0.43 c p3
339.16 504.03 0.43 c p3
339.31 502.55 0.43 c p3
339.45 503.40 0.43 c p3
339.60 502.34 0.43 c p3
339.74 502.97 0.43 c p3
339.89 502.76 0.43 c p3
340.03 503.82 0.43 c p3
340.18 502.97 0.43 c p3
340.33 503.40 0.43 c p3
340.47 504.03 0.43 c p3
340.62 503.61 0.43 c p3
340.76 504.03 0.43 c p3
340.91 503.82 0.43 c p3
341.05 502.76 0.43 c p3
341.20 503.19 0.43 c p3
341.34 503.82 0.43 c p3
341.49 502.76 0.43 c p3
341.64 504.03 0.43 c p3
341.78 502.97 0.43 c p3
341.93 502.34 0.43 c p3
342.07 502.55 0.43 c p3
342.22 503.82 0.43 c p3
342.36 502.76 0.43 c p3
342.51 502.13 0.43 c p3
342.65 503.40 0.43 c p3
342.80 503.19 0.43 c p3
342.95 503.19 0.43 c p3
343.09 502.76 0.43 c p3
343.24 503.40 0.43 c p3
343.38 503.61 0.43 c p3
343.53 503.61 0.43 c p3
343.67 503.40 0.43 c p3
343.82 503.61 0.43 c p3
343.97 502.97 0.43 c p3
344.11 502.55 0.43 c p3
344.26 504.67 0.43 c p3
344.40 503.61 0.43 c p3
344.55 504.03 0.43 c p3
344.69 502.97 0.43 c p3
344.84 503.82 0.43 c p3
344.98 502.97 0.43 c p3
345.13 502.76 0.43 c p3
345.28 503.40 0.43 c p3
345.42 502.34 0.43 c p3
345.57 503.40 0.43 c p3
345.71 504.67 0.43 c p3
345.86 502.76 0.43 c p3
346.00 504.03 0.43 c p3
346.15 504.03 0.43 c p3
346.29 502.97 0.43 c p3
346.44 503.61 0.43 c p3
346.59 502.13 0.43 c p3
346.73 503.19 0.43 c p3
346.88 503.19 0.43 c p3
347.02 504.03 0.43 c p3
347.17 502.55 0.43 c p3
347.31 503.40 0.43 c p3
347.46 502.97 0.43 c p3
347.60 502.55 0.43 c p3
347.75 503.19 0.43 c p3
347.90 504.03 0.43 c p3
348.04 502.97 0.43 c p3
348.19 503.61 0.43 c p3
348.33 502.97 0.43 c p3
348.48 503.61 0.43 c p3
348.62 504.03 0.43 c p3
348.77 503.61 0.43 c p3
348.92 503.40 0.43 c p3
349.06 503.19 0.43 c p3
349.21 503.40 0.43 c p3
349.35 503.61 0.43 c p3
349.50 502.76 0.43 c p3
349.64 503.82 0.43 c p3
349.79 502.55 0.43 c p3
349.93 504.88 0.43 c p3
350.08 503.40 0.43 c p3
350.23 503.19 0.43 c p3
350.37 504.45 0.43 c p3
350.52 503.19 0.43 c p3
350.66 503.82 0.43 c p3
350.81 504.24 0.43 c p3
350.95 502.76 0.43 c p3
351.10 504.45 0.43 c p3
351.24 504.24 0.43 c p3
351.39 503.61 0.43 c p3
351.54 503.40 0.43 c p3
351.68 504.67 0.43 c p3
351.83 503.61 0.43 c p3
351.97 504.24 0.43 c p3
352.12 504.67 0.43 c p3
352.26 503.61 0.43 c p3
352.41 504.24 0.43 c p3
352.55 503.82 0.43 c p3
352.70 502.97 0.43 c p3
352.85 504.88 0.43 c p3
352.99 506.96 0.43 c p3
353.14 501.49 0.43 c p3
353.28 502.97 0.43 c p3
353.43 502.13 0.43 c p3
353.57 505.69 0.43 c p3
353.72 511.58 0.43 c p3
353.86 500.65 0.43 c p3
354.01 495.18 0.43 c p3
354.16 503.82 0.43 c p3
354.30 506.96 0.43 c p3
354.45 511.37 0.43 c p3
354.59 502.76 0.43 c p3
354.74 496.24 0.43 c p3
354.88 500.86 0.43 c p3
355.03 504.67 0.43 c p3
355.18 510.94 0.43 c p3
355.32 504.67 0.43 c p3
355.47 497.09 0.43 c p3
355.61 499.38 0.43 c p3
355.76 505.69 0.43 c p3
355.90 506.75 0.43 c p3
356.05 507.38 0.43 c p3
356.19 499.38 0.43 c p3
356.34 496.87 0.43 c p3
356.49 504.03 0.43 c p3
356.63 505.90 0.43 c p3
356.78 509.50 0.43 c p3
356.92 503.61 0.43 c p3
357.07 497.30 0.43 c p3
357.21 501.49 0.43 c p3
357.36 506.53 0.43 c p3
357.50 508.02 0.43 c p3
357.65 505.27 0.43 c p3
357.80 499.59 0.43 c p3
357.94 500.44 0.43 c p3
358.09 506.11 0.43 c p3
358.23 506.96 0.43 c p3
358.38 507.80 0.43 c p3
358.52 502.13 0.43 c p3
358.67 499.59 0.43 c p3
358.81 503.19 0.43 c p3
358.96 505.69 0.43 c p3
359.11 509.50 0.43 c p3
359.25 504.67 0.43 c p3
359.40 500.01 0.43 c p3
359.54 502.76 0.43 c p3
359.69 504.88 0.43 c p3
359.83 506.96 0.43 c p3
359.98 507.38 0.43 c p3
360.13 502.34 0.43 c p3
360.27 500.22 0.43 c p3
360.42 505.05 0.43 c p3
360.56 506.53 0.43 c p3
360.71 506.96 0.43 c p3
360.85 503.82 0.43 c p3
361.00 501.92 0.43 c p3
361.14 503.82 0.43 c p3
361.29 506.11 0.43 c p3
361.44 505.90 0.43 c p3
361.58 505.90 0.43 c p3
361.73 503.82 0.43 c p3
361.87 502.76 0.43 c p3
362.02 505.27 0.43 c p3
362.16 505.27 0.43 c p3
362.31 505.90 0.43 c p3
362.45 503.19 0.43 c p3
362.60 504.45 0.43 c p3
362.75 504.45 0.43 c p3
362.89 505.90 0.43 c p3
363.04 504.24 0.43 c p3
363.18 505.05 0.43 c p3
363.33 502.97 0.43 c p3
363.47 503.82 0.43 c p3
363.62 504.88 0.43 c p3
363.76 505.05 0.43 c p3
363.91 503.61 0.43 c p3
364.06 504.45 0.43 c p3
364.20 504.67 0.43 c p3
364.35 505.48 0.43 c p3
364.49 505.48 0.43 c p3
364.64 505.48 0.43 c p3
364.78 504.88 0.43 c p3
364.93 504.88 0.43 c p3
365.08 504.24 0.43 c p3
365.22 504.67 0.43 c p3
365.37 504.67 0.43 c p3
365.51 504.88 0.43 c p3
365.66 504.24 0.43 c p3
365.80 503.82 0.43 c p3
365.95 504.24 0.43 c p3
366.09 505.69 0.43 c p3
366.24 504.67 0.43 c p3
366.39 505.69 0.43 c p3
366.53 504.67 0.43 c p3
366.68 505.48 0.43 c p3
366.82 504.67 0.43 c p3
366.97 504.88 0.43 c p3
367.11 506.96 0.43 c p3
367.26 504.67 0.43 c p3
367.40 504.24 0.43 c p3
367.55 504.24 0.43 c p3
367.70 503.82 0.43 c p3
367.84 505.69 0.43 c p3
367.99 505.05 0.43 c p3
368.13 506.11 0.43 c p3
368.28 504.45 0.43 c p3
368.42 506.53 0.43 c p3
368.57 503.82 0.43 c p3
368.71 502.97 0.43 c p3
368.86 506.32 0.43 c p3
369.01 510.34 0.43 c p3
369.15 504.24 0.43 c p3
369.30 504.03 0.43 c p3
369.44 502.34 0.43 c p3
369.59 502.55 0.43 c p3
369.73 510.55 0.43 c p3
369.88 508.86 0.43 c p3
370.03 503.19 0.43 c p3
370.17 502.76 0.43 c p3
370.32 501.92 0.43 c p3
370.46 507.80 0.43 c p3
370.61 512.00 0.43 c p3
370.75 505.48 0.43 c p3
370.90 500.01 0.43 c p3
371.04 503.19 0.43 c p3
371.19 503.82 0.43 c p3
371.34 510.13 0.43 c p3
371.48 506.32 0.43 c p3
371.63 502.34 0.43 c p3
371.77 501.49 0.43 c p3
371.92 506.11 0.43 c p3
372.06 506.96 0.43 c p3
372.21 510.13 0.43 c p3
372.35 502.55 0.43 c p3
372.50 501.92 0.43 c p3
372.65 504.88 0.43 c p3
372.79 506.75 0.43 c p3
372.94 509.50 0.43 c p3
373.08 503.40 0.43 c p3
373.23 501.28 0.43 c p3
373.37 502.97 0.43 c p3
373.52 505.69 0.43 c p3
373.66 509.50 0.43 c p3
373.81 505.48 0.43 c p3
373.96 502.13 0.43 c p3
374.10 502.76 0.43 c p3
374.25 507.17 0.43 c p3
374.39 507.38 0.43 c p3
374.54 507.80 0.43 c p3
374.68 505.27 0.43 c p3
374.83 502.55 0.43 c p3
374.98 504.88 0.43 c p3
375.12 506.53 0.43 c p3
375.27 506.75 0.43 c p3
375.41 506.75 0.43 c p3
375.56 503.19 0.43 c p3
375.70 503.40 0.43 c p3
375.85 506.96 0.43 c p3
375.99 506.96 0.43 c p3
376.14 506.75 0.43 c p3
376.29 506.11 0.43 c p3
376.43 503.82 0.43 c p3
376.58 505.90 0.43 c p3
376.72 506.96 0.43 c p3
376.87 507.80 0.43 c p3
377.01 506.11 0.43 c p3
377.16 505.05 0.43 c p3
377.30 505.69 0.43 c p3
377.45 505.05 0.43 c p3
377.60 505.27 0.43 c p3
377.74 506.53 0.43 c p3
377.89 505.90 0.43 c p3
378.03 504.88 0.43 c p3
378.18 505.69 0.43 c p3
378.32 506.32 0.43 c p3
378.47 506.32 0.43 c p3
378.61 506.32 0.43 c p3
378.76 506.11 0.43 c p3
378.91 505.05 0.43 c p3
379.05 506.96 0.43 c p3
379.20 506.32 0.43 c p3
379.34 506.32 0.43 c p3
379.49 506.32 0.43 c p3
379.63 505.69 0.43 c p3
379.78 506.11 0.43 c p3
379.93 504.67 0.43 c p3
380.07 506.11 0.43 c p3
380.22 506.11 0.43 c p3
380.36 505.48 0.43 c p3
380.51 505.48 0.43 c p3
380.65 506.32 0.43 c p3
380.80 506.53 0.43 c p3
380.94 506.75 0.43 c p3
381.09 505.90 0.43 c p3
381.24 505.48 0.43 c p3
381.38 505.69 0.43 c p3
381.53 506.11 0.43 c p3
381.67 505.05 0.43 c p3
381.82 506.96 0.43 c p3
381.96 506.11 0.43 c p3
382.11 506.53 0.43 c p3
382.25 505.48 0.43 c p3
382.40 505.90 0.43 c p3
0.00 0.00 432.00 576.00 cl
0 0 0 srgb
0.75 setlinewidth
[] 0 setdash
1 setlinecap
1 setlinejoin
10.00 setmiterlimit
np
236.96 345.60 m
145.59 0 l
o
np
236.96 345.60 m
0 -5.76 l
o
np
261.22 345.60 m
0 -5.76 l
o
np
285.49 345.60 m
0 -5.76 l
o
np
309.75 345.60 m
0 -5.76 l
o
np
334.02 345.60 m
0 -5.76 l
o
np
358.28 345.60 m
0 -5.76 l
o
np
382.55 345.60 m
0 -5.76 l
o
/Font1 findfont 10 s
236.96 329.47 (0) .5 0 t
261.22 329.47 (2000) .5 0 t
309.75 329.47 (6000) .5 0 t
358.28 329.47 (10000) .5 0 t
np
216.00 352.00 m
0 144.41 l
o
np
216.00 352.00 m
-5.76 0 l
o
np
216.00 380.88 m
-5.76 0 l
o
np
216.00 409.76 m
-5.76 0 l
o
np
216.00 438.65 m
-5.76 0 l
o
np
216.00 467.53 m
-5.76 0 l
o
np
216.00 496.41 m
-5.76 0 l
o
209.09 348.41 (0.00) 1 0 t
209.09 377.29 (0.05) 1 0 t
209.09 406.17 (0.10) 1 0 t
209.09 435.06 (0.15) 1 0 t
209.09 463.94 (0.20) 1 0 t
209.09 492.82 (0.25) 1 0 t
np
216.00 345.60 m
172.80 0 l
0 172.80 l
-172.80 0 l
0 -172.80 l
o
0.00 0.00 432.00 576.00 cl
/Font1 findfont 10 s
0 0 0 srgb
302.40 313.34 (Time / ms \(total\)) .5 0 t
190.66 432.00 (U / V) .5 90 t
216.00 345.60 388.80 518.40 cl
0 0 0 srgb
0.38 setlinewidth
[ 1.13 1.88] 0 setdash
1 setlinecap
1 setlinejoin
10.00 setmiterlimit
np
222.69 345.60 m
0 172.80 l
o
np
235.65 345.60 m
0 172.80 l
o
np
238.85 345.60 m
0 172.80 l
o
np
318.49 345.60 m
0 172.80 l
o
86.40 57.60 388.80 288.00 cl
1 0 0 srgb
1.50 setlinewidth
[] 0 setdash
1 setlinecap
1 setlinejoin
10.00 setmiterlimit
np
97.60 279.47 m
1.41 -5.03 l
1.40 -4.92 l
1.41 -4.80 l
1.41 -4.69 l
1.41 -4.57 l
1.40 -4.47 l
1.41 -4.37 l
1.41 -4.26 l
1.40 -4.17 l
1.41 -4.06 l
1.41 -3.98 l
1.40 -3.87 l
1.41 -3.79 l
1.41 -3.70 l
1.41 -3.62 l
1.40 -3.53 l
1.41 -3.44 l
1.41 -3.37 l
1.40 -3.28 l
1.41 -3.22 l
1.41 -3.13 l
1.40 -3.06 l
1.41 -2.99 l
1.41 -2.92 l
1.41 -2.86 l
1.40 -2.78 l
1.41 -2.72 l
1.41 -2.66 l
1.40 -2.59 l
1.41 -2.54 l
1.41 -2.47 l
1.41 -2.42 l
1.40 -2.36 l
1.41 -2.31 l
1.41 -2.25 l
1.40 -2.20 l
1.41 -2.14 l
1.41 -2.10 l
1.40 -2.05 l
1.41 -2.00 l
1.41 -1.95 l
1.41 -1.91 l
1.40 -1.87 l
1.41 -1.82 l
1.41 -1.77 l
1.40 -1.74 l
1.41 -1.69 l
1.41 -1.66 l
1.40 -1.62 l
1.41 -1.58 l
1.41 -1.54 l
1.41 -1.51 l
1.40 -1.47 l
1.41 -1.43 l
1.41 -1.41 l
1.40 -1.37 l
1.41 -1.33 l
1.41 -1.31 l
1.41 -1.28 l
1.40 -1.24 l
1.41 -1.22 l
1.41 -1.19 l
1.40 -1.16 l
1.41 -1.14 l
1.41 -1.10 l
1.40 -1.08 l
1.41 -1.06 l
1.41 -1.03 l
1.41 -1.01 l
1.40 -0.98 l
1.41 -0.97 l
1.41 -0.93 l
1.40 -0.92 l
1.41 -0.90 l
1.41 -0.87 l
1.40 -0.85 l
1.41 -0.84 l
1.41 -0.81 l
1.41 -0.80 l
1.40 -0.77 l
1.41 -0.76 l
1.41 -0.74 l
1.40 -0.73 l
1.41 -0.70 l
1.41 -0.69 l
1.41 -0.68 l
1.40 -0.66 l
1.41 -0.64 l
1.41 -0.63 l
1.40 -0.61 l
1.41 -0.60 l
1.41 -0.58 l
1.40 -0.58 l
1.41 -0.55 l
1.41 -0.55 l
1.41 -0.53 l
1.40 -0.52 l
1.41 -0.51 l
1.41 -0.49 l
238.30 84.41 lineto
1.41 -0.47 l
1.41 -0.46 l
1.40 -0.45 l
1.41 -0.44 l
1.41 -0.43 l
1.41 -0.42 l
1.40 -0.41 l
1.41 -0.40 l
1.41 -0.39 l
1.40 -0.39 l
1.41 -0.37 l
1.41 -0.36 l
1.40 -0.36 l
1.41 -0.35 l
1.41 -0.34 l
1.41 -0.33 l
1.40 -0.32 l
1.41 -0.32 l
1.41 -0.31 l
1.40 -0.30 l
1.41 -0.29 l
1.41 -0.29 l
1.41 -0.28 l
1.40 -0.28 l
1.41 -0.26 l
1.41 -0.27 l
1.40 -0.25 l
1.41 -0.25 l
1.41 -0.25 l
1.40 -0.23 l
1.41 -0.24 l
1.41 -0.22 l
1.41 -0.22 l
1.40 -0.22 l
1.41 -0.21 l
1.41 -0.21 l
1.40 -0.20 l
1.41 -0.20 l
1.41 -0.19 l
1.40 -0.19 l
1.41 -0.18 l
1.41 -0.18 l
1.41 -0.18 l
1.40 -0.17 l
1.41 -0.16 l
1.41 -0.17 l
1.40 -0.16 l
1.41 -0.15 l
1.41 -0.15 l
1.41 -0.15 l
1.40 -0.15 l
1.41 -0.14 l
1.41 -0.14 l
1.40 -0.13 l
1.41 -0.13 l
1.41 -0.13 l
1.40 -0.13 l
1.41 -0.12 l
1.41 -0.12 l
1.41 -0.12 l
1.40 -0.11 l
1.41 -0.11 l
1.41 -0.11 l
1.40 -0.11 l
1.41 -0.10 l
1.41 -0.11 l
1.40 -0.10 l
1.41 -0.09 l
1.41 -0.10 l
1.41 -0.09 l
1.40 -0.09 l
1.41 -0.09 l
1.41 -0.08 l
1.40 -0.09 l
1.41 -0.08 l
1.41 -0.08 l
1.41 -0.08 l
1.40 -0.08 l
1.41 -0.07 l
1.41 -0.07 l
1.40 -0.07 l
1.41 -0.07 l
1.41 -0.07 l
1.40 -0.07 l
1.41 -0.06 l
1.41 -0.07 l
1.41 -0.06 l
1.40 -0.06 l
1.41 -0.06 l
1.41 -0.06 l
1.40 -0.05 l
1.41 -0.06 l
1.41 -0.05 l
1.40 -0.05 l
1.41 -0.05 l
1.41 -0.05 l
1.41 -0.05 l
1.40 -0.05 l
1.41 -0.05 l
o
0.00 0.00 432.00 576.00 cl
0 0 0 srgb
0.75 setlinewidth
[] 0 setdash
1 setlinecap
1 setlinejoin
10.00 setmiterlimit
np
97.60 57.60 m
280.00 0 l
o
np
97.60 57.60 m
0 -5.76 l
o
np
144.27 57.60 m
0 -5.76 l
o
np
190.93 57.60 m
0 -5.76 l
o
np
237.60 57.60 m
0 -5.76 l
o
np
284.27 57.60 m
0 -5.76 l
o
np
330.93 57.60 m
0 -5.76 l
o
np
377.60 57.60 m
0 -5.76 l
o
/Font1 findfont 10 s
97.60 41.47 (0) .5 0 t
144.27 41.47 (2000) .5 0 t
190.93 41.47 (4000) .5 0 t
237.60 41.47 (6000) .5 0 t
284.27 41.47 (8000) .5 0 t
330.93 41.47 (10000) .5 0 t
377.60 41.47 (12000) .5 0 t
np
86.40 79.90 m
0 193.34 l
o
np
86.40 79.90 m
-5.76 0 l
o
np
86.40 112.13 m
-5.76 0 l
o
np
86.40 144.35 m
-5.76 0 l
o
np
86.40 176.57 m
-5.76 0 l
o
np
86.40 208.80 m
-5.76 0 l
o
np
86.40 241.02 m
-5.76 0 l
o
np
86.40 273.24 m
-5.76 0 l
o
79.49 76.31 (0.00) 1 0 t
79.49 108.54 (0.05) 1 0 t
79.49 140.76 (0.10) 1 0 t
79.49 172.98 (0.15) 1 0 t
79.49 205.21 (0.20) 1 0 t
79.49 237.43 (0.25) 1 0 t
79.49 269.65 (0.30) 1 0 t
np
86.40 57.60 m
302.40 0 l
0 230.40 l
-302.40 0 l
0 -230.40 l
o
0.00 0.00 432.00 576.00 cl
/Font1 findfont 10 s
0 0 0 srgb
237.60 13.82 (Time / ms \(after pulse\)) .5 0 t
49.54 172.80 (Absorbance A) .5 90 t
86.40 57.60 388.80 288.00 cl
/bg { 1 1 1 srgb } def
0 0 0 srgb
0.75 setlinewidth
[] 0 setdash
1 setlinecap
1 setlinejoin
10.00 setmiterlimit
101.52 266.60 0.65 c p3
101.80 263.54 0.65 c p3
102.08 268.13 0.65 c p3
102.36 263.54 0.65 c p3
102.64 260.52 0.65 c p3
102.92 260.52 0.65 c p3
103.20 265.83 0.65 c p3
103.48 256.18 0.65 c p3
103.76 259.03 0.65 c p3
104.04 256.92 0.65 c p3
104.32 255.44 0.65 c p3
104.60 256.92 0.65 c p3
104.88 256.18 0.65 c p3
105.16 249.61 0.65 c p3
105.44 254.70 0.65 c p3
105.72 251.05 0.65 c p3
106.00 248.88 0.65 c p3
106.28 248.88 0.65 c p3
106.56 247.45 0.65 c p3
106.84 249.61 0.65 c p3
107.12 246.02 0.65 c p3
107.40 243.89 0.65 c p3
107.68 246.02 0.65 c p3
107.96 243.18 0.65 c p3
108.24 243.18 0.65 c p3
108.52 246.73 0.65 c p3
108.80 239.68 0.65 c p3
109.08 241.77 0.65 c p3
109.36 239.10 0.65 c p3
109.64 237.02 0.65 c p3
109.92 242.48 0.65 c p3
110.20 237.71 0.65 c p3
110.48 238.40 0.65 c p3
110.76 235.64 0.65 c p3
111.04 230.20 0.65 c p3
111.32 235.64 0.65 c p3
111.60 233.59 0.65 c p3
111.88 233.59 0.65 c p3
112.16 236.33 0.65 c p3
112.44 228.85 0.65 c p3
112.72 233.59 0.65 c p3
113.00 228.18 0.65 c p3
113.28 226.85 0.65 c p3
113.56 230.87 0.65 c p3
113.84 226.85 0.65 c p3
114.12 227.52 0.65 c p3
114.40 228.18 0.65 c p3
114.68 222.23 0.65 c p3
114.96 222.23 0.65 c p3
115.24 226.18 0.65 c p3
115.52 224.20 0.65 c p3
115.80 222.23 0.65 c p3
116.08 222.23 0.65 c p3
116.36 217.79 0.65 c p3
116.64 221.03 0.65 c p3
116.92 221.58 0.65 c p3
117.20 222.88 0.65 c p3
117.48 217.15 0.65 c p3
117.76 217.15 0.65 c p3
118.04 212.05 0.65 c p3
118.32 214.59 0.65 c p3
118.60 217.15 0.65 c p3
118.88 213.32 0.65 c p3
119.16 215.23 0.65 c p3
119.44 211.42 0.65 c p3
119.72 210.16 0.65 c p3
120.00 212.68 0.65 c p3
120.28 208.91 0.65 c p3
120.56 210.16 0.65 c p3
120.84 214.59 0.65 c p3
121.12 209.54 0.65 c p3
121.40 208.29 0.65 c p3
121.68 208.29 0.65 c p3
121.96 208.91 0.65 c p3
122.24 205.81 0.65 c p3
122.52 208.29 0.65 c p3
122.80 202.23 0.65 c p3
123.08 204.58 0.65 c p3
123.36 203.45 0.65 c p3
123.64 201.62 0.65 c p3
123.92 203.45 0.65 c p3
124.20 201.62 0.65 c p3
124.48 198.60 0.65 c p3
124.76 199.80 0.65 c p3
125.04 201.01 0.65 c p3
125.32 199.80 0.65 c p3
125.60 201.62 0.65 c p3
125.88 198.60 0.65 c p3
126.16 197.39 0.65 c p3
126.44 195.01 0.65 c p3
126.72 197.99 0.65 c p3
127.00 197.39 0.65 c p3
127.28 193.82 0.65 c p3
127.56 193.82 0.65 c p3
127.84 191.47 0.65 c p3
128.12 197.39 0.65 c p3
128.40 192.64 0.65 c p3
128.68 190.88 0.65 c p3
128.96 191.47 0.65 c p3
129.24 189.71 0.65 c p3
129.52 188.07 0.65 c p3
129.80 188.07 0.65 c p3
130.08 188.07 0.65 c p3
130.36 188.55 0.65 c p3
130.64 188.07 0.65 c p3
130.92 188.07 0.65 c p3
131.20 186.91 0.65 c p3
131.48 186.91 0.65 c p3
131.76 183.47 0.65 c p3
132.04 184.04 0.65 c p3
132.32 182.90 0.65 c p3
132.60 186.33 0.65 c p3
132.88 183.47 0.65 c p3
133.16 181.76 0.65 c p3
133.44 182.33 0.65 c p3
133.72 182.33 0.65 c p3
134.00 182.90 0.65 c p3
134.28 179.51 0.65 c p3
134.56 180.63 0.65 c p3
134.84 178.38 0.65 c p3
135.12 181.20 0.65 c p3
135.40 180.63 0.65 c p3
135.68 177.83 0.65 c p3
135.96 180.07 0.65 c p3
136.24 175.05 0.65 c p3
136.52 176.15 0.65 c p3
136.80 177.27 0.65 c p3
137.08 172.39 0.65 c p3
137.36 173.94 0.65 c p3
137.64 175.60 0.65 c p3
137.92 171.84 0.65 c p3
138.20 172.39 0.65 c p3
138.48 176.71 0.65 c p3
138.76 173.48 0.65 c p3
139.04 174.49 0.65 c p3
139.32 173.94 0.65 c p3
139.60 168.58 0.65 c p3
139.88 170.20 0.65 c p3
140.16 169.66 0.65 c p3
140.44 171.29 0.65 c p3
140.72 170.75 0.65 c p3
141.00 170.20 0.65 c p3
141.28 166.96 0.65 c p3
141.56 168.58 0.65 c p3
141.84 169.12 0.65 c p3
142.12 166.96 0.65 c p3
142.40 164.28 0.65 c p3
142.68 165.35 0.65 c p3
142.96 163.75 0.65 c p3
143.24 166.42 0.65 c p3
143.52 168.04 0.65 c p3
143.80 163.22 0.65 c p3
144.08 164.28 0.65 c p3
144.36 162.16 0.65 c p3
144.64 163.75 0.65 c p3
144.92 161.64 0.65 c p3
145.20 163.22 0.65 c p3
145.48 158.58 0.65 c p3
145.76 159.10 0.65 c p3
146.04 159.53 0.65 c p3
146.32 161.64 0.65 c p3
146.60 158.58 0.65 c p3
146.88 158.58 0.65 c p3
147.16 155.46 0.65 c p3
147.44 153.41 0.65 c p3
147.72 159.10 0.65 c p3
148.00 160.58 0.65 c p3
148.28 153.92 0.65 c p3
148.56 155.98 0.65 c p3
148.84 154.95 0.65 c p3
149.12 159.53 0.65 c p3
149.40 158.58 0.65 c p3
149.68 152.90 0.65 c p3
149.96 152.39 0.65 c p3
150.24 152.39 0.65 c p3
150.52 154.43 0.65 c p3
150.80 155.46 0.65 c p3
151.08 155.46 0.65 c p3
151.36 150.35 0.65 c p3
151.64 146.33 0.65 c p3
151.92 149.85 0.65 c p3
152.20 152.39 0.65 c p3
152.48 152.39 0.65 c p3
152.76 150.35 0.65 c p3
153.04 147.33 0.65 c p3
153.32 147.33 0.65 c p3
153.60 151.37 0.65 c p3
153.88 150.35 0.65 c p3
154.16 149.34 0.65 c p3
154.44 147.33 0.65 c p3
154.72 149.34 0.65 c p3
155.00 145.83 0.65 c p3
155.28 146.33 0.65 c p3
155.56 148.84 0.65 c p3
155.84 145.83 0.65 c p3
156.12 144.92 0.65 c p3
156.40 144.92 0.65 c p3
156.68 144.42 0.65 c p3
156.96 147.33 0.65 c p3
157.24 143.93 0.65 c p3
157.52 143.93 0.65 c p3
157.80 140.97 0.65 c p3
158.08 141.96 0.65 c p3
158.36 143.43 0.65 c p3
158.64 141.96 0.65 c p3
158.92 142.94 0.65 c p3
159.20 139.51 0.65 c p3
159.48 140.00 0.65 c p3
159.76 142.45 0.65 c p3
160.04 139.02 0.65 c p3
160.32 140.00 0.65 c p3
160.60 139.02 0.65 c p3
160.88 140.97 0.65 c p3
161.16 139.02 0.65 c p3
161.44 137.08 0.65 c p3
161.72 139.02 0.65 c p3
162.00 138.05 0.65 c p3
162.28 134.68 0.65 c p3
162.56 137.57 0.65 c p3
162.84 135.16 0.65 c p3
163.12 134.68 0.65 c p3
163.40 134.68 0.65 c p3
163.68 137.08 0.65 c p3
163.96 134.20 0.65 c p3
164.24 134.20 0.65 c p3
164.52 134.68 0.65 c p3
164.80 132.77 0.65 c p3
165.08 135.16 0.65 c p3
165.36 134.20 0.65 c p3
165.64 131.90 0.65 c p3
165.92 134.20 0.65 c p3
166.20 132.37 0.65 c p3
166.48 132.37 0.65 c p3
166.76 134.20 0.65 c p3
167.04 131.90 0.65 c p3
167.32 130.95 0.65 c p3
167.60 130.48 0.65 c p3
167.88 128.13 0.65 c p3
168.16 129.07 0.65 c p3
168.44 130.95 0.65 c p3
168.72 129.54 0.65 c p3
169.00 130.48 0.65 c p3
169.28 128.13 0.65 c p3
169.56 130.01 0.65 c p3
169.84 126.27 0.65 c p3
170.12 129.54 0.65 c p3
170.40 130.01 0.65 c p3
170.68 125.34 0.65 c p3
170.96 127.20 0.65 c p3
171.24 127.67 0.65 c p3
171.52 125.80 0.65 c p3
171.80 126.73 0.65 c p3
172.08 126.27 0.65 c p3
172.36 124.88 0.65 c p3
172.64 123.95 0.65 c p3
172.92 124.88 0.65 c p3
173.20 124.41 0.65 c p3
173.48 125.34 0.65 c p3
173.76 124.88 0.65 c p3
174.04 123.49 0.65 c p3
174.32 124.88 0.65 c p3
174.60 125.34 0.65 c p3
174.88 121.20 0.65 c p3
175.16 121.66 0.65 c p3
175.44 123.95 0.65 c p3
175.72 123.49 0.65 c p3
176.00 121.66 0.65 c p3
176.28 122.57 0.65 c p3
176.56 120.75 0.65 c p3
176.84 121.66 0.65 c p3
177.12 121.20 0.65 c p3
177.40 117.20 0.65 c p3
177.68 120.29 0.65 c p3
177.96 119.46 0.65 c p3
178.24 119.46 0.65 c p3
178.52 118.10 0.65 c p3
178.80 119.01 0.65 c p3
179.08 118.55 0.65 c p3
179.36 119.01 0.65 c p3
179.64 116.30 0.65 c p3
179.92 116.30 0.65 c p3
180.20 117.65 0.65 c p3
180.48 115.41 0.65 c p3
180.76 117.65 0.65 c p3
181.04 118.10 0.65 c p3
181.32 119.01 0.65 c p3
181.60 114.51 0.65 c p3
181.88 116.75 0.65 c p3
182.16 117.20 0.65 c p3
182.44 115.41 0.65 c p3
182.72 116.75 0.65 c p3
183.00 114.07 0.65 c p3
183.28 114.07 0.65 c p3
183.56 115.85 0.65 c p3
183.84 113.18 0.65 c p3
184.12 115.85 0.65 c p3
184.40 113.18 0.65 c p3
184.68 113.18 0.65 c p3
184.96 113.62 0.65 c p3
185.24 114.96 0.65 c p3
185.52 111.85 0.65 c p3
185.80 110.53 0.65 c p3
186.08 110.97 0.65 c p3
186.36 113.18 0.65 c p3
186.64 111.85 0.65 c p3
186.92 111.85 0.65 c p3
187.20 111.85 0.65 c p3
187.48 109.66 0.65 c p3
187.76 112.74 0.65 c p3
188.04 107.55 0.65 c p3
188.32 111.85 0.65 c p3
188.60 110.09 0.65 c p3
188.88 110.97 0.65 c p3
189.16 107.55 0.65 c p3
189.44 107.98 0.65 c p3
189.72 110.53 0.65 c p3
190.00 110.09 0.65 c p3
190.28 109.66 0.65 c p3
190.56 107.98 0.65 c p3
190.84 106.68 0.65 c p3
191.12 107.98 0.65 c p3
191.40 107.98 0.65 c p3
191.68 108.78 0.65 c p3
191.96 106.68 0.65 c p3
192.24 107.11 0.65 c p3
192.52 107.55 0.65 c p3
192.80 104.09 0.65 c p3
193.08 107.55 0.65 c p3
193.36 107.11 0.65 c p3
193.64 106.25 0.65 c p3
193.92 105.38 0.65 c p3
194.20 105.38 0.65 c p3
194.48 104.52 0.65 c p3
194.76 106.25 0.65 c p3
195.04 104.09 0.65 c p3
195.32 104.95 0.65 c p3
195.60 104.09 0.65 c p3
195.88 103.23 0.65 c p3
196.16 104.09 0.65 c p3
196.44 104.52 0.65 c p3
196.72 104.09 0.65 c p3
197.00 104.52 0.65 c p3
197.28 99.83 0.65 c p3
197.56 103.23 0.65 c p3
197.84 104.09 0.65 c p3
198.12 101.53 0.65 c p3
198.40 101.10 0.65 c p3
198.68 103.23 0.65 c p3
198.96 104.09 0.65 c p3
199.24 102.81 0.65 c p3
199.52 102.38 0.65 c p3
199.80 99.41 0.65 c p3
200.08 101.10 0.65 c p3
200.36 101.53 0.65 c p3
200.64 100.68 0.65 c p3
200.92 102.81 0.65 c p3
201.20 99.41 0.65 c p3
201.48 98.57 0.65 c p3
201.76 100.68 0.65 c p3
202.04 100.25 0.65 c p3
202.32 99.41 0.65 c p3
202.60 99.83 0.65 c p3
202.88 100.68 0.65 c p3
203.16 99.83 0.65 c p3
203.44 100.25 0.65 c p3
203.72 101.53 0.65 c p3
204.00 99.41 0.65 c p3
204.28 101.10 0.65 c p3
204.56 97.73 0.65 c p3
204.84 97.31 0.65 c p3
205.12 98.99 0.65 c p3
205.40 98.57 0.65 c p3
205.68 99.83 0.65 c p3
205.96 98.99 0.65 c p3
206.24 95.70 0.65 c p3
206.52 98.99 0.65 c p3
206.80 99.41 0.65 c p3
207.08 96.12 0.65 c p3
207.36 98.14 0.65 c p3
207.64 97.31 0.65 c p3
207.92 97.73 0.65 c p3
208.20 98.99 0.65 c p3
208.48 96.89 0.65 c p3
208.76 97.31 0.65 c p3
209.04 94.87 0.65 c p3
209.32 96.12 0.65 c p3
209.60 96.54 0.65 c p3
209.88 97.31 0.65 c p3
210.16 94.04 0.65 c p3
210.44 93.63 0.65 c p3
210.72 97.31 0.65 c p3
211.00 94.87 0.65 c p3
211.28 94.04 0.65 c p3
211.56 94.87 0.65 c p3
211.84 92.80 0.65 c p3
212.12 93.63 0.65 c p3
212.40 94.04 0.65 c p3
212.68 94.87 0.65 c p3
212.96 95.29 0.65 c p3
213.24 94.46 0.65 c p3
213.52 94.04 0.65 c p3
213.80 94.87 0.65 c p3
214.08 94.04 0.65 c p3
214.36 93.22 0.65 c p3
214.64 93.63 0.65 c p3
214.92 94.04 0.65 c p3
215.20 90.75 0.65 c p3
215.48 91.57 0.65 c p3
215.76 92.80 0.65 c p3
216.04 94.04 0.65 c p3
216.32 92.39 0.65 c p3
216.60 94.46 0.65 c p3
216.88 91.16 0.65 c p3
217.16 94.04 0.65 c p3
217.44 91.16 0.65 c p3
217.72 92.39 0.65 c p3
218.00 93.22 0.65 c p3
218.28 91.57 0.65 c p3
218.56 91.16 0.65 c p3
218.84 91.16 0.65 c p3
219.12 90.34 0.65 c p3
219.40 87.90 0.65 c p3
219.68 89.93 0.65 c p3
219.96 91.16 0.65 c p3
220.24 91.16 0.65 c p3
220.52 90.34 0.65 c p3
220.80 87.49 0.65 c p3
221.08 91.98 0.65 c p3
221.36 91.57 0.65 c p3
221.64 91.57 0.65 c p3
221.92 92.80 0.65 c p3
222.20 89.93 0.65 c p3
222.48 88.30 0.65 c p3
222.76 91.57 0.65 c p3
223.04 88.71 0.65 c p3
223.32 89.93 0.65 c p3
223.60 87.49 0.65 c p3
223.88 88.71 0.65 c p3
224.16 89.12 0.65 c p3
224.44 89.52 0.65 c p3
224.72 89.93 0.65 c p3
225.00 90.34 0.65 c p3
225.28 87.90 0.65 c p3
225.56 88.71 0.65 c p3
225.84 87.90 0.65 c p3
226.12 91.16 0.65 c p3
226.40 89.12 0.65 c p3
226.68 88.30 0.65 c p3
226.96 87.90 0.65 c p3
227.24 87.09 0.65 c p3
227.52 89.12 0.65 c p3
227.80 88.71 0.65 c p3
228.08 85.14 0.65 c p3
228.36 86.28 0.65 c p3
228.64 89.12 0.65 c p3
228.92 87.09 0.65 c p3
229.20 89.12 0.65 c p3
229.48 85.88 0.65 c p3
229.76 88.30 0.65 c p3
230.04 85.54 0.65 c p3
230.32 86.28 0.65 c p3
230.60 85.14 0.65 c p3
230.88 87.90 0.65 c p3
231.16 88.30 0.65 c p3
231.44 85.54 0.65 c p3
231.72 88.30 0.65 c p3
232.00 85.54 0.65 c p3
232.28 84.74 0.65 c p3
232.56 87.49 0.65 c p3
232.84 85.88 0.65 c p3
233.12 84.74 0.65 c p3
233.40 88.71 0.65 c p3
233.68 86.28 0.65 c p3
233.96 87.09 0.65 c p3
234.24 86.28 0.65 c p3
234.52 86.69 0.65 c p3
234.80 85.54 0.65 c p3
235.08 86.69 0.65 c p3
235.36 86.69 0.65 c p3
235.64 82.75 0.65 c p3
235.92 87.09 0.65 c p3
236.20 87.90 0.65 c p3
236.48 85.54 0.65 c p3
236.76 84.34 0.65 c p3
237.04 84.74 0.65 c p3
237.32 85.14 0.65 c p3
237.60 82.35 0.65 c p3
237.88 85.14 0.65 c p3
238.16 85.54 0.65 c p3
238.44 86.28 0.65 c p3
238.72 84.74 0.65 c p3
239.00 82.75 0.65 c p3
239.28 86.28 0.65 c p3
239.56 85.88 0.65 c p3
239.84 82.75 0.65 c p3
240.12 87.90 0.65 c p3
240.40 82.75 0.65 c p3
240.68 84.34 0.65 c p3
240.96 83.94 0.65 c p3
241.24 83.54 0.65 c p3
241.52 85.54 0.65 c p3
241.80 83.54 0.65 c p3
242.08 83.94 0.65 c p3
242.36 83.54 0.65 c p3
242.64 84.74 0.65 c p3
242.92 84.34 0.65 c p3
243.20 83.14 0.65 c p3
243.48 85.14 0.65 c p3
243.76 84.74 0.65 c p3
244.04 82.35 0.65 c p3
244.32 84.34 0.65 c p3
244.60 83.54 0.65 c p3
244.88 83.54 0.65 c p3
245.16 83.94 0.65 c p3
245.44 80.77 0.65 c p3
245.72 82.35 0.65 c p3
246.00 81.56 0.65 c p3
246.28 86.28 0.65 c p3
246.56 85.14 0.65 c p3
246.84 81.56 0.65 c p3
247.12 81.56 0.65 c p3
247.40 80.37 0.65 c p3
247.68 85.14 0.65 c p3
247.96 82.75 0.65 c p3
248.24 85.14 0.65 c p3
248.52 82.75 0.65 c p3
248.80 81.95 0.65 c p3
249.08 82.75 0.65 c p3
249.36 83.94 0.65 c p3
249.64 81.56 0.65 c p3
249.92 82.75 0.65 c p3
250.20 81.16 0.65 c p3
250.48 83.14 0.65 c p3
250.76 81.95 0.65 c p3
251.04 80.77 0.65 c p3
251.32 84.74 0.65 c p3
251.60 81.95 0.65 c p3
251.88 80.77 0.65 c p3
252.16 82.75 0.65 c p3
252.44 83.14 0.65 c p3
252.72 81.95 0.65 c p3
253.00 81.56 0.65 c p3
253.28 80.77 0.65 c p3
253.56 82.35 0.65 c p3
253.84 80.37 0.65 c p3
254.12 82.75 0.65 c p3
254.40 79.98 0.65 c p3
254.68 80.77 0.65 c p3
216.00 201.60 367.20 247.68 cl
0 0 0 srgb
0.75 setlinewidth
[] 0 setdash
1 setlinecap
1 setlinejoin
10.00 setmiterlimit
221.60 226.76 0.43 c p1
221.86 221.54 0.43 c p1
222.11 235.26 0.43 c p1
222.37 226.20 0.43 c p1
222.62 221.03 0.43 c p1
222.88 223.33 0.43 c p1
223.14 238.78 0.43 c p1
223.39 217.13 0.43 c p1
223.65 226.46 0.43 c p1
223.90 223.50 0.43 c p1
224.16 222.08 0.43 c p1
224.42 227.98 0.43 c p1
224.67 228.38 0.43 c p1
224.93 214.30 0.43 c p1
225.18 229.14 0.43 c p1
225.44 222.29 0.43 c p1
225.70 219.10 0.43 c p1
225.95 221.28 0.43 c p1
226.21 219.88 0.43 c p1
226.46 227.38 0.43 c p1
226.72 220.64 0.43 c p1
226.97 217.49 0.43 c p1
227.23 224.90 0.43 c p1
227.49 219.98 0.43 c p1
227.74 222.08 0.43 c p1
228.00 232.98 0.43 c p1
228.25 217.58 0.43 c p1
228.51 224.85 0.43 c p1
228.77 220.28 0.43 c p1
229.02 217.18 0.43 c p1
229.28 232.76 0.43 c p1
229.53 222.98 0.43 c p1
229.79 226.72 0.43 c p1
230.05 221.89 0.43 c p1
230.30 210.42 0.43 c p1
230.56 225.90 0.43 c p1
230.81 222.81 0.43 c p1
231.07 224.79 0.43 c p1
231.33 233.55 0.43 c p1
231.58 216.99 0.43 c p1
231.84 230.67 0.43 c p1
232.09 219.22 0.43 c p1
232.35 217.85 0.43 c p1
232.61 229.75 0.43 c p1
232.86 221.69 0.43 c p1
233.12 225.25 0.43 c p1
233.37 228.80 0.43 c p1
233.63 215.93 0.43 c p1
233.89 217.81 0.43 c p1
234.14 229.49 0.43 c p1
234.40 226.43 0.43 c p1
234.65 223.40 0.43 c p1
234.91 225.24 0.43 c p1
235.16 216.08 0.43 c p1
235.42 225.94 0.43 c p1
235.68 229.11 0.43 c p1
235.93 234.16 0.43 c p1
236.19 221.74 0.43 c p1
236.44 223.54 0.43 c p1
236.70 212.69 0.43 c p1
236.96 220.75 0.43 c p1
237.21 228.87 0.43 c p1
237.47 221.13 0.43 c p1
237.72 227.62 0.43 c p1
237.98 219.93 0.43 c p1
238.24 218.55 0.43 c p1
238.49 226.52 0.43 c p1
238.75 218.89 0.43 c p1
239.00 223.71 0.43 c p1
239.26 236.38 0.43 c p1
239.52 225.55 0.43 c p1
239.77 224.14 0.43 c p1
240.03 225.82 0.43 c p1
240.28 229.04 0.43 c p1
240.54 223.01 0.43 c p1
240.80 230.81 0.43 c p1
241.05 217.44 0.43 c p1
241.31 224.90 0.43 c p1
241.56 223.74 0.43 c p1
241.82 220.83 0.43 c p1
242.08 226.99 0.43 c p1
242.33 224.06 0.43 c p1
242.59 218.17 0.43 c p1
242.84 222.75 0.43 c p1
243.10 227.34 0.43 c p1
243.36 225.92 0.43 c p1
243.61 232.00 0.43 c p1
243.87 226.06 0.43 c p1
244.12 224.64 0.43 c p1
244.38 220.28 0.43 c p1
244.63 229.22 0.43 c p1
244.89 229.27 0.43 c p1
245.15 221.95 0.43 c p1
245.40 223.47 0.43 c p1
245.66 219.14 0.43 c p1
245.91 235.34 0.43 c p1
246.17 225.06 0.43 c p1
246.43 222.19 0.43 c p1
246.68 225.13 0.43 c p1
246.94 222.26 0.43 c p1
247.19 219.65 0.43 c p1
247.45 221.12 0.43 c p1
247.71 222.58 0.43 c p1
247.96 225.22 0.43 c p1
248.22 225.47 0.43 c p1
248.47 226.91 0.43 c p1
248.73 225.47 0.43 c p1
248.99 226.90 0.43 c p1
249.24 219.78 0.43 c p1
249.50 222.61 0.43 c p1
249.75 221.19 0.43 c p1
250.01 231.10 0.43 c p1
250.27 225.39 0.43 c p1
250.52 222.55 0.43 c p1
250.78 225.33 0.43 c p1
251.03 226.70 0.43 c p1
251.29 229.48 0.43 c p1
251.55 222.43 0.43 c p1
251.80 226.57 0.43 c p1
252.06 222.35 0.43 c p1
252.31 230.66 0.43 c p1
252.57 230.59 0.43 c p1
252.82 224.96 0.43 c p1
253.08 231.84 0.43 c p1
253.34 220.71 0.43 c p1
253.59 224.76 0.43 c p1
253.85 228.82 0.43 c p1
254.10 218.02 0.43 c p1
254.36 223.17 0.43 c p1
254.62 228.56 0.43 c p1
254.87 220.51 0.43 c p1
255.13 223.14 0.43 c p1
255.38 235.13 0.43 c p1
255.64 228.39 0.43 c p1
255.90 232.15 0.43 c p1
256.15 232.03 0.43 c p1
256.41 219.97 0.43 c p1
256.66 225.24 0.43 c p1
256.92 225.12 0.43 c p1
257.18 230.40 0.43 c p1
257.43 230.27 0.43 c p1
257.69 230.13 0.43 c p1
257.94 223.30 0.43 c p1
258.20 228.51 0.43 c p1
258.46 231.05 0.43 c p1
258.71 226.89 0.43 c p1
258.97 221.45 0.43 c p1
259.22 225.27 0.43 c p1
259.48 222.48 0.43 c p1
259.74 230.27 0.43 c p1
259.99 235.43 0.43 c p1
260.25 224.66 0.43 c p1
260.50 228.44 0.43 c p1
260.76 224.33 0.43 c p1
261.01 229.42 0.43 c p1
261.27 225.30 0.43 c p1
261.53 230.37 0.43 c p1
261.78 219.98 0.43 c p1
262.04 222.39 0.43 c p1
262.29 224.59 0.43 c p1
262.55 230.91 0.43 c p1
262.81 224.43 0.43 c p1
263.06 225.53 0.43 c p1
263.32 218.91 0.43 c p1
263.57 214.90 0.43 c p1
263.83 230.09 0.43 c p1
264.09 234.85 0.43 c p1
264.34 219.41 0.43 c p1
264.60 225.58 0.43 c p1
264.85 224.09 0.43 c p1
265.11 236.51 0.43 c p1
265.37 235.20 0.43 c p1
265.62 222.17 0.43 c p1
265.88 221.94 0.43 c p1
266.13 222.98 0.43 c p1
266.39 229.10 0.43 c p1
266.65 232.68 0.43 c p1
266.90 233.70 0.43 c p1
267.16 222.05 0.43 c p1
267.41 213.09 0.43 c p1
267.67 222.82 0.43 c p1
267.93 230.12 0.43 c p1
268.18 231.12 0.43 c p1
268.44 227.08 0.43 c p1
268.69 220.58 0.43 c p1
268.95 221.57 0.43 c p1
269.21 232.56 0.43 c p1
269.46 231.02 0.43 c p1
269.72 229.49 0.43 c p1
269.97 225.47 0.43 c p1
270.23 231.42 0.43 c p1
270.48 223.67 0.43 c p1
270.74 225.86 0.43 c p1
271.00 233.03 0.43 c p1
271.25 226.53 0.43 c p1
271.51 225.21 0.43 c p1
271.76 226.14 0.43 c p1
272.02 225.85 0.43 c p1
272.28 233.98 0.43 c p1
272.53 226.47 0.43 c p1
272.79 227.39 0.43 c p1
273.04 220.98 0.43 c p1
273.30 224.33 0.43 c p1
273.56 228.90 0.43 c p1
273.81 226.14 0.43 c p1
274.07 229.47 0.43 c p1
274.32 221.86 0.43 c p1
274.58 223.96 0.43 c p1
274.84 230.92 0.43 c p1
275.09 223.31 0.43 c p1
275.35 226.61 0.43 c p1
275.60 225.06 0.43 c p1
275.86 230.77 0.43 c p1
276.12 226.80 0.43 c p1
276.37 222.85 0.43 c p1
276.63 228.51 0.43 c p1
276.88 226.96 0.43 c p1
277.14 219.45 0.43 c p1
277.40 227.45 0.43 c p1
277.65 222.32 0.43 c p1
277.91 221.97 0.43 c p1
278.16 222.80 0.43 c p1
278.42 229.59 0.43 c p1
278.67 223.27 0.43 c p1
278.93 224.09 0.43 c p1
279.19 226.10 0.43 c p1
279.44 222.18 0.43 c p1
279.70 228.91 0.43 c p1
279.95 227.34 0.43 c p1
280.21 222.44 0.43 c p1
280.47 228.94 0.43 c p1
280.72 225.21 0.43 c p1
280.98 226.00 0.43 c p1
281.23 231.32 0.43 c p1
281.49 226.39 0.43 c p1
281.75 224.83 0.43 c p1
282.00 224.43 0.43 c p1
282.26 219.38 0.43 c p1
282.51 222.48 0.43 c p1
282.77 227.91 0.43 c p1
283.03 225.17 0.43 c p1
283.28 228.26 0.43 c p1
283.54 223.19 0.43 c p1
283.79 228.60 0.43 c p1
284.05 220.07 0.43 c p1
284.31 228.92 0.43 c p1
284.56 230.83 0.43 c p1
284.82 219.99 0.43 c p1
285.07 225.33 0.43 c p1
285.33 227.22 0.43 c p1
285.59 223.33 0.43 c p1
285.84 226.36 0.43 c p1
286.10 225.92 0.43 c p1
286.35 223.19 0.43 c p1
286.61 221.62 0.43 c p1
286.87 224.62 0.43 c p1
287.12 224.18 0.43 c p1
287.38 227.17 0.43 c p1
287.63 226.73 0.43 c p1
287.89 223.99 0.43 c p1
288.14 228.12 0.43 c p1
288.40 229.95 0.43 c p1
288.66 220.38 0.43 c p1
288.91 222.20 0.43 c p1
289.17 228.57 0.43 c p1
289.42 228.10 0.43 c p1
289.68 224.23 0.43 c p1
289.94 227.17 0.43 c p1
290.19 223.31 0.43 c p1
290.45 226.23 0.43 c p1
290.70 225.76 0.43 c p1
290.96 216.50 0.43 c p1
291.22 224.82 0.43 c p1
291.47 223.41 0.43 c p1
291.73 224.05 0.43 c p1
291.98 221.34 0.43 c p1
292.24 224.22 0.43 c p1
292.50 223.74 0.43 c p1
292.75 225.50 0.43 c p1
293.01 219.43 0.43 c p1
293.26 220.06 0.43 c p1
293.52 224.03 0.43 c p1
293.78 219.09 0.43 c p1
294.03 225.28 0.43 c p1
294.29 227.02 0.43 c p1
294.54 229.87 0.43 c p1
294.80 219.35 0.43 c p1
295.06 225.51 0.43 c p1
295.31 227.23 0.43 c p1
295.57 223.39 0.43 c p1
295.82 227.32 0.43 c p1
296.08 221.27 0.43 c p1
296.33 221.87 0.43 c p1
296.59 226.89 0.43 c p1
296.85 220.85 0.43 c p1
297.10 228.07 0.43 c p1
297.36 222.03 0.43 c p1
297.61 222.61 0.43 c p1
297.87 224.29 0.43 c p1
298.13 228.18 0.43 c p1
298.38 221.05 0.43 c p1
298.64 218.35 0.43 c p1
298.89 220.01 0.43 c p1
299.15 226.05 0.43 c p1
299.41 223.32 0.43 c p1
299.66 223.88 0.43 c p1
299.92 224.44 0.43 c p1
300.17 219.55 0.43 c p1
300.43 227.74 0.43 c p1
300.69 215.42 0.43 c p1
300.94 226.65 0.43 c p1
301.20 222.83 0.43 c p1
301.45 225.55 0.43 c p1
301.71 217.60 0.43 c p1
301.97 219.21 0.43 c p1
302.22 226.07 0.43 c p1
302.48 225.52 0.43 c p1
302.73 224.96 0.43 c p1
302.99 221.34 0.43 c p1
303.25 218.64 0.43 c p1
303.50 222.39 0.43 c p1
303.76 222.91 0.43 c p1
304.01 225.41 0.43 c p1
304.27 220.71 0.43 c p1
304.53 222.30 0.43 c p1
304.78 223.89 0.43 c p1
305.04 215.83 0.43 c p1
305.29 224.90 0.43 c p1
305.55 224.33 0.43 c p1
305.80 222.68 0.43 c p1
306.06 221.04 0.43 c p1
306.32 221.54 0.43 c p1
306.57 219.89 0.43 c p1
306.83 224.66 0.43 c p1
307.08 219.81 0.43 c p1
307.34 222.43 0.43 c p1
307.60 220.78 0.43 c p1
307.85 219.14 0.43 c p1
308.11 221.75 0.43 c p1
308.36 223.29 0.43 c p1
308.62 222.70 0.43 c p1
308.88 224.24 0.43 c p1
309.13 213.08 0.43 c p1
309.39 221.99 0.43 c p1
309.64 224.58 0.43 c p1
309.90 218.69 0.43 c p1
310.16 218.10 0.43 c p1
310.41 223.84 0.43 c p1
310.67 226.43 0.43 c p1
310.92 223.70 0.43 c p1
311.18 223.09 0.43 c p1
311.44 216.18 0.43 c p1
311.69 220.83 0.43 c p1
311.95 222.33 0.43 c p1
312.20 220.67 0.43 c p1
312.46 226.39 0.43 c p1
312.72 218.41 0.43 c p1
312.97 216.76 0.43 c p1
313.23 222.43 0.43 c p1
313.48 221.81 0.43 c p1
313.74 220.15 0.43 c p1
313.99 221.63 0.43 c p1
314.25 224.16 0.43 c p1
314.51 222.49 0.43 c p1
314.76 223.96 0.43 c p1
315.02 227.54 0.43 c p1
315.27 222.71 0.43 c p1
315.53 227.33 0.43 c p1
315.79 219.37 0.43 c p1
316.04 218.75 0.43 c p1
316.30 223.33 0.43 c p1
316.55 222.69 0.43 c p1
316.81 226.24 0.43 c p1
317.07 224.56 0.43 c p1
317.32 216.82 0.43 c p1
317.58 225.36 0.43 c p1
317.83 226.81 0.43 c p1
318.09 219.06 0.43 c p1
318.35 224.48 0.43 c p1
318.60 222.79 0.43 c p1
318.86 224.23 0.43 c p1
319.11 227.75 0.43 c p1
319.37 222.93 0.43 c p1
319.63 224.36 0.43 c p1
319.88 218.71 0.43 c p1
320.14 222.19 0.43 c p1
320.39 223.61 0.43 c p1
320.65 225.89 0.43 c p1
320.91 218.18 0.43 c p1
321.16 217.54 0.43 c p1
321.42 227.03 0.43 c p1
321.67 221.37 0.43 c p1
321.93 219.68 0.43 c p1
322.19 222.11 0.43 c p1
322.44 217.35 0.43 c p1
322.70 219.77 0.43 c p1
322.95 221.16 0.43 c p1
323.21 223.58 0.43 c p1
323.46 224.97 0.43 c p1
323.72 223.27 0.43 c p1
323.98 222.60 0.43 c p1
324.23 225.01 0.43 c p1
324.49 223.32 0.43 c p1
324.74 221.62 0.43 c p1
325.00 223.00 0.43 c p1
325.26 224.37 0.43 c p1
325.51 216.55 0.43 c p1
325.77 218.94 0.43 c p1
326.02 222.34 0.43 c p1
326.28 225.76 0.43 c p1
326.54 222.00 0.43 c p1
326.79 227.47 0.43 c p1
327.05 219.63 0.43 c p1
327.30 227.12 0.43 c p1
327.56 220.30 0.43 c p1
327.82 223.69 0.43 c p1
328.07 226.07 0.43 c p1
328.33 222.32 0.43 c p1
328.58 221.63 0.43 c p1
328.84 221.96 0.43 c p1
329.10 220.26 0.43 c p1
329.35 214.53 0.43 c p1
329.61 219.89 0.43 c p1
329.86 223.25 0.43 c p1
330.12 223.57 0.43 c p1
330.38 221.87 0.43 c p1
330.63 215.13 0.43 c p1
330.89 226.56 0.43 c p1
331.14 225.86 0.43 c p1
331.40 226.17 0.43 c p1
331.65 229.54 0.43 c p1
331.91 222.74 0.43 c p1
332.17 219.01 0.43 c p1
332.42 227.41 0.43 c p1
332.68 220.63 0.43 c p1
332.93 223.96 0.43 c p1
333.19 218.22 0.43 c p1
333.45 221.54 0.43 c p1
333.70 222.84 0.43 c p1
333.96 224.15 0.43 c p1
334.21 225.46 0.43 c p1
334.47 226.77 0.43 c p1
334.73 221.01 0.43 c p1
334.98 223.32 0.43 c p1
335.24 221.60 0.43 c p1
335.49 229.97 0.43 c p1
335.75 225.19 0.43 c p1
336.01 223.47 0.43 c p1
336.26 222.75 0.43 c p1
336.52 221.03 0.43 c p1
336.77 226.34 0.43 c p1
337.03 225.61 0.43 c p1
337.29 217.05 0.43 c p1
337.54 220.15 0.43 c p1
337.80 227.46 0.43 c p1
338.05 222.71 0.43 c p1
338.31 228.01 0.43 c p1
338.57 220.26 0.43 c p1
338.82 226.54 0.43 c p1
339.08 219.97 0.43 c p1
339.33 222.07 0.43 c p1
339.59 219.52 0.43 c p1
339.84 226.62 0.43 c p1
340.10 227.89 0.43 c p1
340.36 221.31 0.43 c p1
340.61 228.42 0.43 c p1
340.87 221.84 0.43 c p1
341.12 220.12 0.43 c p1
341.38 227.19 0.43 c p1
341.64 223.45 0.43 c p1
341.89 220.89 0.43 c p1
342.15 230.98 0.43 c p1
342.40 225.22 0.43 c p1
342.66 227.48 0.43 c p1
342.92 225.73 0.43 c p1
343.17 226.98 0.43 c p1
343.43 224.40 0.43 c p1
343.68 227.48 0.43 c p1
343.94 227.73 0.43 c p1
344.20 218.21 0.43 c p1
344.45 229.22 0.43 c p1
344.71 231.48 0.43 c p1
344.96 225.88 0.43 c p1
345.22 223.15 0.43 c p1
345.48 224.38 0.43 c p1
345.73 225.61 0.43 c p1
345.99 218.93 0.43 c p1
346.24 226.09 0.43 c p1
346.50 227.32 0.43 c p1
346.76 229.39 0.43 c p1
347.01 225.81 0.43 c p1
347.27 221.09 0.43 c p1
347.52 230.09 0.43 c p1
347.78 229.32 0.43 c p1
348.04 221.79 0.43 c p1
348.29 234.79 0.43 c p1
348.55 222.25 0.43 c p1
348.80 226.43 0.43 c p1
349.06 225.66 0.43 c p1
349.31 224.90 0.43 c p1
349.57 230.08 0.43 c p1
349.83 225.35 0.43 c p1
350.08 226.56 0.43 c p1
350.34 225.79 0.43 c p1
350.59 228.98 0.43 c p1
350.85 228.21 0.43 c p1
351.11 225.46 0.43 c p1
351.36 230.63 0.43 c p1
351.62 229.85 0.43 c p1
351.87 224.13 0.43 c p1
352.13 229.29 0.43 c p1
352.39 227.52 0.43 c p1
352.64 227.73 0.43 c p1
352.90 228.93 0.43 c p1
353.15 221.27 0.43 c p1
353.41 225.40 0.43 c p1
353.67 223.64 0.43 c p1
353.92 235.57 0.43 c p1
354.18 232.95 0.43 c p1
354.43 224.26 0.43 c p1
354.69 224.46 0.43 c p1
354.95 221.73 0.43 c p1
355.20 233.76 0.43 c p1
355.46 228.02 0.43 c p1
355.71 234.16 0.43 c p1
355.97 228.42 0.43 c p1
356.23 226.65 0.43 c p1
356.48 228.82 0.43 c p1
356.74 231.98 0.43 c p1
356.99 226.26 0.43 c p1
357.25 229.40 0.43 c p1
357.50 225.66 0.43 c p1
357.76 230.78 0.43 c p1
358.02 228.01 0.43 c p1
358.27 225.26 0.43 c p1
358.53 235.31 0.43 c p1
358.78 228.58 0.43 c p1
359.04 225.83 0.43 c p1
359.30 230.93 0.43 c p1
359.55 232.10 0.43 c p1
359.81 229.33 0.43 c p1
360.06 228.53 0.43 c p1
360.32 226.76 0.43 c p1
360.58 230.86 0.43 c p1
360.83 226.14 0.43 c p1
361.09 232.21 0.43 c p1
361.34 225.53 0.43 c p1
361.60 227.66 0.43 c p1
0.00 0.00 432.00 576.00 cl
0 0 0 srgb
0.75 setlinewidth
[] 0 setdash
1 setlinecap
1 setlinejoin
10.00 setmiterlimit
np
218.02 201.60 m
127.97 0 l
o
np
218.02 201.60 m
0 -5.76 l
o
np
239.35 201.60 m
0 -5.76 l
o
np
260.67 201.60 m
0 -5.76 l
o
np
282.00 201.60 m
0 -5.76 l
o
np
303.33 201.60 m
0 -5.76 l
o
np
324.66 201.60 m
0 -5.76 l
o
np
345.99 201.60 m
0 -5.76 l
o
/Font1 findfont 6 s
218.02 185.47 (0) .5 0 t
239.35 185.47 (1000) .5 0 t
260.67 185.47 (2000) .5 0 t
282.00 185.47 (3000) .5 0 t
303.33 185.47 (4000) .5 0 t
324.66 185.47 (5000) .5 0 t
345.99 185.47 (6000) .5 0 t
np
216.00 208.66 m
0 31.96 l
o
np
216.00 208.66 m
-5.76 0 l
o
np
216.00 216.65 m
-5.76 0 l
o
np
216.00 224.64 m
-5.76 0 l
o
np
216.00 232.63 m
-5.76 0 l
o
np
216.00 240.62 m
-5.76 0 l
o
209.09 206.51 (-0.010) 1 0 t
209.09 214.50 (-0.005) 1 0 t
209.09 222.49 (0.000) 1 0 t
209.09 230.47 (0.005) 1 0 t
209.09 238.46 (0.010) 1 0 t
np
216.00 201.60 m
151.20 0 l
0 46.08 l
-151.20 0 l
0 -46.08 l
o
0.00 0.00 432.00 576.00 cl
/Font1 findfont 9 s
0 0 0 srgb
291.60 262.88 (Residuals) .5 0 t
59.04 73.44 401.76 516.96 cl
ep
%%Trailer
%%Pages: 1
%%EOF
