%!PS-Adobe-3.0 EPSF-3.0
%%DocumentNeededResources: font Helvetica
%%+ font Helvetica-Bold
%%+ font Helvetica-Oblique
%%+ font Helvetica-BoldOblique
%%+ font Symbol
%%Title: R Graphics Output
%%Creator: R Software
%%Pages: (atend)
%%BoundingBox: 0 0 432 576
%%EndComments
%%BeginProlog
/bp  { gs sRGB gs } def
% begin .ps.prolog
/gs  { gsave } bind def
/gr  { grestore } bind def
/ep  { showpage gr gr } bind def
/m   { moveto } bind def
/l  { rlineto } bind def
/np  { newpath } bind def
/cp  { closepath } bind def
/f   { fill } bind def
/o   { stroke } bind def
/c   { newpath 0 360 arc } bind def
/r   { 4 2 roll moveto 1 copy 3 -1 roll exch 0 exch rlineto 0 rlineto -1 mul 0 exch rlineto closepath } bind def
/p1  { stroke } bind def
/p2  { gsave bg fill grestore newpath } bind def
/p3  { gsave bg fill grestore stroke } bind def
/p6  { gsave bg eofill grestore newpath } bind def
/p7  { gsave bg eofill grestore stroke } bind def
/t   { 5 -2 roll moveto gsave rotate
       1 index stringwidth pop
       mul neg 0 rmoveto show grestore } bind def
/ta  { 4 -2 roll moveto gsave rotate show } bind def
/tb  { 2 -1 roll 0 rmoveto show } bind def
/cl  { grestore gsave newpath 3 index 3 index moveto 1 index
       4 -1 roll lineto  exch 1 index lineto lineto
       closepath clip newpath } bind def
/rgb { setrgbcolor } bind def
/s   { scalefont setfont } bind def
% end   .ps.prolog
/sRGB { [ /CIEBasedABC
          << /DecodeLMN
               [ { dup 0.03928 le
                        {12.92321 div}
                        {0.055 add 1.055 div 2.4 exp }
                     ifelse
                 } bind dup dup
               ]
             /MatrixLMN [0.412457 0.212673 0.019334
                         0.357576 0.715152 0.119192
                         0.180437 0.072175 0.950301]
             /WhitePoint [0.9505 1.0 1.0890]
           >>
         ] setcolorspace } bind def
/srgb { setcolor } bind def
% begin encoding
/WinAnsiEncoding [
 /.notdef /.notdef /.notdef /.notdef /.notdef /.notdef /.notdef /.notdef
 /.notdef /.notdef /.notdef /.notdef /.notdef /.notdef /.notdef /.notdef
 /.notdef /.notdef /.notdef /.notdef /.notdef /.notdef /.notdef /.notdef
 /.notdef /.notdef /.notdef /.notdef /.notdef /.notdef /.notdef /.notdef
 /space /exclam /quotedbl /numbersign /dollar /percent /ampersand /quoteright
 /parenleft /parenright /asterisk /plus /comma /minus /period /slash
 /zero /one /two /three /four /five /six /seven
 /eight /nine /colon /semicolon /less /equal /greater /question
 /at /A /B /C /D /E /F /G
 /H /I /J /K /L /M /N /O
 /P /Q /R /S /T /U /V /W
 /X /Y /Z /bracketleft /backslash /bracketright /asciicircum /underscore
 /grave /a /b /c /d /e /f /g
 /h /i /j /k /l /m /n /o
 /p /q /r /s /t /u /v /w
 /x /y /z /braceleft /bar /braceright /asciitilde /.notdef
 /Euro /.notdef /quotesinglbase /florin /quotedblbase /ellipsis /dagger /daggerdbl
 /circumflex /perthousand /Scaron /guilsinglleft /OE /.notdef /Zcaron /.notdef
 /.notdef /quoteleft /quoteright /quotedblleft /quotedblright /bullet /endash /emdash
 /tilde /trademark /scaron /guilsinglright /oe /.notdef /zcaron /Ydieresis
 /space /exclamdown /cent /sterling /currency /yen /brokenbar /section
 /dieresis /copyright /ordfeminine /guillemotleft /logicalnot /hyphen /registered /macron
 /degree /plusminus /twosuperior /threesuperior /acute /mu /paragraph /periodcentered
 /cedilla /onesuperior /ordmasculine /guillemotright /onequarter /onehalf /threequarters /questiondown
 /Agrave /Aacute /Acircumflex /Atilde /Adieresis /Aring /AE /Ccedilla
 /Egrave /Eacute /Ecircumflex /Edieresis /Igrave /Iacute /Icircumflex /Idieresis
 /Eth /Ntilde /Ograve /Oacute /Ocircumflex /Otilde /Odieresis /multiply
 /Oslash /Ugrave /Uacute /Ucircumflex /Udieresis /Yacute /Thorn /germandbls
 /agrave /aacute /acircumflex /atilde /adieresis /aring /ae /ccedilla
 /egrave /eacute /ecircumflex /edieresis /igrave /iacute /icircumflex /idieresis
 /eth /ntilde /ograve /oacute /ocircumflex /otilde /odieresis /divide
 /oslash /ugrave /uacute /ucircumflex /udieresis /yacute /thorn /ydieresis
]
 def
% end encoding
%%IncludeResource: font Helvetica
/Helvetica findfont
dup length dict begin
  {1 index /FID ne {def} {pop pop} ifelse} forall
  /Encoding WinAnsiEncoding def
  currentdict
  end
/Font1 exch definefont pop
%%IncludeResource: font Helvetica-Bold
/Helvetica-Bold findfont
dup length dict begin
  {1 index /FID ne {def} {pop pop} ifelse} forall
  /Encoding WinAnsiEncoding def
  currentdict
  end
/Font2 exch definefont pop
%%IncludeResource: font Helvetica-Oblique
/Helvetica-Oblique findfont
dup length dict begin
  {1 index /FID ne {def} {pop pop} ifelse} forall
  /Encoding WinAnsiEncoding def
  currentdict
  end
/Font3 exch definefont pop
%%IncludeResource: font Helvetica-BoldOblique
/Helvetica-BoldOblique findfont
dup length dict begin
  {1 index /FID ne {def} {pop pop} ifelse} forall
  /Encoding WinAnsiEncoding def
  currentdict
  end
/Font4 exch definefont pop
%%IncludeResource: font Symbol
/Symbol findfont
dup length dict begin
  {1 index /FID ne {def} {pop pop} ifelse} forall
  currentdict
  end
/Font5 exch definefont pop
%%EndProlog
%%Page: 1 1
bp
/bg { 1 1 1 srgb } def
0.00 0.00 432.00 576.00 r p2
0.00 0.00 432.00 576.00 cl
0.00 0.00 432.00 576.00 cl
0.00 0.00 432.00 576.00 cl
/Font1 findfont 12 s
0 0 0 srgb
48.00 508.72 (PCP-ETH) 0 0 t
48.00 494.89 (Flash light photolysis) 0 0 t
/Font1 findfont 9 s
48.00 457.54 (File: Solv) 0 ta
-0.225 (ent_debendence_sol4_2_MSLM.dat) tb gr
48.00 334.87 (Sat Mar 05 15:16:41 2022) 0 0 t
48.00 430.87 (Fit function:  a + b * e) 0 ta
-0.270 (xp\(-c * t\)) tb gr
48.00 420.50 (t-Inter) 0 ta
0.270 (v) tb
-0.225 (all: 510.000 ... 18224.000 ms) tb gr
48.00 410.14 (P) 0 ta
-0.360 (ar) tb
-0.090 (ameters \(Standard de) tb
-0.270 (viation\):) tb gr
48.00 399.77 (  a = 0.00107 \(0.00050\)) 0 0 t
48.00 389.40 (  b = 0.16048 \(0.00091\)) 0 0 t
48.00 379.03 (  c = 2.127e-01 \(2.898e-03\) s^-1) 0 0 t
48.00 368.66 (  tau = 4.701e+00 \(6.404e-02\) s) 0 0 t
216.00 345.60 388.80 518.40 cl
0 0 0 srgb
0.75 setlinewidth
[] 0 setdash
1 setlinecap
1 setlinejoin
10.00 setmiterlimit
np
222.40 506.16 m
0.15 -1.08 l
0.14 0.21 l
0.15 0.22 l
0.14 0.65 l
0.15 -0.21 l
0.14 -0.44 l
0.15 0.22 l
0.14 -0.22 l
0.15 -0.22 l
0.15 -0.43 l
0.14 0.65 l
0.15 -0.43 l
0.14 1.52 l
0.15 -1.09 l
0.14 1.96 l
0.15 -3.27 l
0.14 1.53 l
0.15 0 l
0.15 0.22 l
0.14 0 l
0.15 0.43 l
0.14 0.22 l
0.15 -1.09 l
0.14 -0.22 l
0.15 -0.87 l
0.15 1.96 l
0.14 0.87 l
0.15 -0.87 l
0.14 -0.22 l
0.15 -0.43 l
0.14 0.65 l
0.15 -0.65 l
0.14 0.65 l
0.15 0.44 l
0.15 -0.87 l
0.14 0 l
0.15 0.21 l
0.14 -1.08 l
0.15 0 l
0.14 0.65 l
0.15 1.30 l
0.14 -1.30 l
0.15 -0.44 l
0.15 1.31 l
0.14 -1.09 l
0.15 0.87 l
0.14 -0.43 l
0.15 1.08 l
0.14 -1.08 l
0.15 0.43 l
0.14 -0.87 l
0.15 0.87 l
0.15 -0.87 l
0.14 1.52 l
0.15 -1.95 l
0.14 1.30 l
0.15 -0.65 l
0.14 0 l
0.15 1.09 l
0.15 -0.66 l
0.14 0.44 l
0.15 0.65 l
0.14 -1.52 l
0.15 0.43 l
0.14 -0.65 l
0.15 0 l
0.14 0.87 l
0.15 -0.43 l
0.15 -0.22 l
0.14 0.22 l
0.15 1.52 l
0.14 -1.74 l
0.15 1.09 l
0.14 -0.44 l
0.15 -0.87 l
0.14 -0.87 l
0.15 1.96 l
0.15 -0.44 l
0.14 -0.87 l
0.15 1.31 l
0.14 0 l
0.15 -0.65 l
0.14 0.87 l
0.15 0.65 l
0.14 -1.52 l
0.15 -0.44 l
0.15 1.09 l
0.14 -0.44 l
0.15 -0.87 l
0.14 1.09 l
0.15 0.22 l
0.14 -0.65 l
0.15 0 l
0.15 0.43 l
0.14 -0.65 l
0.15 1.09 l
0.14 0.43 l
0.15 -0.43 l
0.14 -0.22 l
236.96 451.45 lineto
0.14 -0.85 l
0.15 1.29 l
0.15 1.95 l
0.14 0.44 l
0.15 0.87 l
0.14 0.65 l
0.15 0 l
0.14 0.22 l
0.15 0.44 l
0.14 0.83 l
0.15 0.43 l
0.15 0.22 l
0.14 0 l
0.15 2.61 l
0.14 -0.65 l
0.15 -0.65 l
0.14 0.65 l
0.15 0.65 l
0.14 0.66 l
0.15 0.65 l
0.15 0.21 l
0.14 1.71 l
0.15 -0.44 l
0.14 -0.83 l
0.15 0.40 l
0.14 1.52 l
0.15 -0.87 l
0.15 1.09 l
0.14 1.30 l
0.15 -0.21 l
0.14 -0.66 l
0.15 0.22 l
0.14 0.87 l
0.15 -0.43 l
0.14 0.43 l
0.15 0 l
0.15 1.74 l
0.14 -0.43 l
0.15 0.87 l
0.14 0.61 l
0.15 0 l
0.14 0.22 l
0.15 0.65 l
0.14 -0.87 l
0.15 0.87 l
0.15 0.66 l
0.14 -0.66 l
0.15 0.87 l
0.14 0.87 l
0.15 0.22 l
0.14 -0.87 l
0.15 1.09 l
0.14 -0.22 l
0.15 0.65 l
0.15 0.22 l
0.14 -0.43 l
0.15 0.87 l
0.14 0.65 l
0.15 -0.65 l
0.14 1.08 l
0.15 -1.08 l
0.15 1.08 l
0.14 0.84 l
0.15 0.87 l
0.14 -1.52 l
0.15 1.08 l
0.14 0 l
0.15 -0.21 l
0.14 0.87 l
0.15 -0.22 l
0.15 0.22 l
0.14 -1.31 l
0.15 1.31 l
0.14 0 l
0.15 1.95 l
0.14 -1.30 l
0.15 0.22 l
0.14 0.43 l
0.15 0.22 l
0.15 0.43 l
0.14 -0.43 l
0.15 0.87 l
0.14 0.22 l
0.15 -0.44 l
0.14 1.31 l
0.15 0 l
0.14 -0.22 l
0.15 0.22 l
0.15 0.43 l
0.14 -0.87 l
0.15 1.92 l
0.14 -1.27 l
0.15 1.06 l
0.14 0.43 l
0.15 -0.87 l
0.15 -0.22 l
0.14 1.53 l
0.15 -0.44 l
0.14 0.44 l
251.52 483.03 lineto
0.14 -0.65 l
0.15 -0.44 l
0.14 0.66 l
0.15 1.08 l
0.15 -0.65 l
0.14 0.65 l
0.15 -0.65 l
0.14 0.65 l
0.15 0.22 l
0.14 0.65 l
0.15 -0.65 l
0.14 0 l
0.15 0 l
0.15 -0.22 l
0.14 0.87 l
0.15 -0.65 l
0.14 1.09 l
0.15 -0.22 l
0.14 0.22 l
0.15 0.43 l
0.14 0 l
0.15 0.62 l
0.15 -0.62 l
0.14 0 l
0.15 0.44 l
0.14 -0.65 l
0.15 1.48 l
0.14 -0.21 l
0.15 0.21 l
0.14 -0.65 l
0.15 0.44 l
0.15 -0.44 l
0.14 1.31 l
0.15 -0.44 l
0.14 0.22 l
0.15 -0.87 l
0.14 1.74 l
0.15 -0.65 l
0.15 -0.44 l
0.14 0.65 l
0.15 -0.21 l
0.14 0.87 l
0.15 -1.09 l
0.14 1.30 l
0.15 0.22 l
0.14 0 l
0.15 0.65 l
0.15 -0.65 l
0.14 0.44 l
0.15 0.87 l
0.14 -0.87 l
0.15 0 l
0.14 -0.87 l
0.15 1.95 l
0.14 -1.08 l
0.15 0 l
0.15 0.43 l
0.14 -0.87 l
0.15 2.18 l
0.14 -0.44 l
0.15 -1.30 l
0.14 1.30 l
0.15 0.22 l
0.14 0.43 l
0.15 -0.65 l
0.15 0 l
0.14 1.09 l
0.15 -0.65 l
0.14 -1.31 l
0.15 0.87 l
0.14 0.22 l
0.15 -0.22 l
0.15 1.31 l
0.14 -0.66 l
0.15 -0.21 l
0.14 0.21 l
0.15 1.27 l
0.14 -0.43 l
0.15 -0.84 l
0.14 1.06 l
0.15 -0.40 l
0.15 0.40 l
0.14 -0.22 l
0.15 0.22 l
0.14 -0.40 l
0.15 0.61 l
0.14 -0.83 l
0.15 0 l
0.14 1.49 l
0.15 -1.27 l
0.15 0.61 l
0.14 0 l
0.15 0 l
0.14 0.44 l
0.15 -1.27 l
0.14 1.27 l
0.15 -0.65 l
0.14 0.43 l
0.15 0.22 l
266.08 493.84 lineto
0.14 -2.14 l
0.15 1.27 l
0.14 -0.44 l
0.15 0.22 l
0.14 -0.22 l
0.15 0.44 l
0.15 0 l
0.14 0.21 l
0.15 0.66 l
0.14 -0.44 l
0.15 -0.22 l
0.14 -0.65 l
0.15 0 l
0.14 0.22 l
0.15 0.43 l
0.15 0.44 l
0.14 -0.87 l
0.15 0.65 l
0.14 -0.22 l
0.15 0.22 l
0.14 -0.87 l
0.15 0.44 l
0.14 1.30 l
0.15 0.22 l
0.15 -0.65 l
0.14 -0.44 l
0.15 0.44 l
0.14 -0.44 l
0.15 0.22 l
0.14 0 l
0.15 0.22 l
0.14 1.30 l
0.15 -0.87 l
0.15 -0.22 l
0.14 -0.87 l
0.15 0.66 l
0.14 0.43 l
0.15 0 l
0.14 -0.43 l
0.15 -0.44 l
0.15 1.09 l
0.14 -0.22 l
0.15 1.09 l
0.14 0.22 l
0.15 -1.31 l
0.14 1.09 l
0.15 -0.22 l
0.14 -0.65 l
0.15 0.87 l
0.15 0.65 l
0.14 -1.52 l
0.15 1.30 l
0.14 0.22 l
0.15 -1.30 l
0.14 1.08 l
0.15 -0.65 l
0.14 0.44 l
0.15 -0.44 l
0.15 0 l
0.14 0 l
0.15 0.87 l
0.14 -0.87 l
0.15 0.65 l
0.14 0.22 l
0.15 1.31 l
0.14 -0.87 l
0.15 -0.66 l
0.15 0.44 l
0.14 -1.52 l
0.15 1.74 l
0.14 -1.09 l
0.15 0.65 l
0.14 0.87 l
0.15 -1.30 l
0.15 0.43 l
0.14 0.44 l
0.15 0.87 l
0.14 -1.53 l
0.15 -0.43 l
0.14 0.87 l
0.15 1.49 l
0.14 -1.06 l
0.15 0.22 l
0.15 0 l
0.14 -0.87 l
0.15 -0.43 l
0.14 0.87 l
0.15 0.21 l
0.14 -0.43 l
0.15 1.30 l
0.14 0.40 l
0.15 -1.05 l
0.15 -0.22 l
0.14 0.22 l
0.15 0.65 l
0.14 -0.21 l
0.15 0.83 l
0.14 -1.27 l
0.15 -0.22 l
280.63 497.72 lineto
0.15 0 l
0.15 -0.62 l
0.14 -0.44 l
0.15 0.66 l
0.14 0.21 l
0.15 0 l
0.14 -0.21 l
0.15 0.61 l
0.15 0 l
0.14 -0.40 l
0.15 0.84 l
0.14 -1.05 l
0.15 1.92 l
0.14 -1.09 l
0.15 1.31 l
0.14 -0.44 l
0.15 0.44 l
0.15 -1.31 l
0.14 1.31 l
0.15 -1.74 l
0.14 2.39 l
0.15 -1.52 l
0.14 0.87 l
0.15 0.87 l
0.14 -1.31 l
0.15 -0.65 l
0.15 0.65 l
0.14 0 l
0.15 -1.09 l
0.14 3.05 l
0.15 -2.39 l
0.14 1.08 l
0.15 -0.21 l
0.14 0 l
0.15 0.65 l
0.15 -0.22 l
0.14 1.09 l
0.15 -1.31 l
0.14 0.66 l
0.15 -0.22 l
0.14 -0.44 l
0.15 0 l
0.14 -0.87 l
0.15 1.53 l
0.15 0.65 l
0.14 -1.96 l
0.15 1.09 l
0.14 0.22 l
0.15 0.87 l
0.14 -1.09 l
0.15 -0.87 l
0.15 0.87 l
0.14 -0.22 l
0.15 -0.43 l
0.14 1.52 l
0.15 -0.22 l
0.14 0.44 l
0.15 -1.31 l
0.14 1.09 l
0.15 -0.87 l
0.15 0.43 l
0.14 -0.87 l
0.15 1.09 l
0.14 -0.22 l
0.15 0.87 l
0.14 0.87 l
0.15 -1.95 l
0.14 0.87 l
0.15 -0.87 l
0.15 0.21 l
0.14 1.96 l
0.15 -1.30 l
0.14 1.30 l
0.15 -1.09 l
0.14 0.22 l
0.15 0.44 l
0.14 0.21 l
0.15 -0.65 l
0.15 -1.09 l
0.14 0.22 l
0.15 1.74 l
0.14 -1.30 l
0.15 1.08 l
0.14 -0.21 l
0.15 1.08 l
0.15 -0.87 l
0.14 -0.87 l
0.15 0.87 l
0.14 -1.08 l
0.15 0.65 l
0.14 0.22 l
0.15 0.21 l
0.14 -0.21 l
0.15 -0.22 l
0.15 0.87 l
0.14 0.22 l
0.15 0.61 l
0.14 -0.61 l
0.15 0.21 l
295.19 502.94 lineto
0.15 0 l
0.14 -0.44 l
0.15 0.44 l
0.15 0.21 l
0.14 0.22 l
0.15 -0.87 l
0.14 0.44 l
0.15 0.21 l
0.14 -0.43 l
0.15 0 l
0.14 0.83 l
0.15 -0.18 l
0.15 -1.74 l
0.14 0.22 l
0.15 1.09 l
0.14 0 l
0.15 0.43 l
0.14 0.40 l
0.15 -0.40 l
0.15 0.40 l
0.14 -0.22 l
0.15 -0.18 l
0.14 0 l
0.15 0.62 l
0.14 -1.05 l
0.15 2.14 l
0.14 -0.66 l
0.15 -1.92 l
0.15 1.05 l
0.14 0 l
0.15 0.65 l
0.14 -0.65 l
0.15 0.44 l
0.14 1.09 l
0.15 -0.66 l
0.14 -1.05 l
0.15 0.62 l
0.15 0.87 l
0.14 -1.31 l
0.15 0.65 l
0.14 -0.43 l
0.15 -0.40 l
0.14 1.27 l
0.15 -0.44 l
0.14 -0.65 l
0.15 1.09 l
0.15 -0.22 l
0.14 0.22 l
0.15 -0.87 l
0.14 1.09 l
0.15 -1.09 l
0.14 0.43 l
0.15 0 l
0.15 0.22 l
0.14 -0.43 l
0.15 -0.62 l
0.14 1.49 l
0.15 -0.22 l
0.14 0.22 l
0.15 0.43 l
0.14 0.22 l
0.15 -0.87 l
0.15 0.44 l
0.14 0.43 l
0.15 -3.44 l
0.14 -0.22 l
0.15 1.70 l
0.14 0.22 l
0.15 0.65 l
0.14 0.87 l
0.15 0 l
0.15 -1.74 l
0.14 0.22 l
0.15 1.31 l
0.14 -0.66 l
0.15 -0.43 l
0.14 1.52 l
0.15 -0.65 l
0.14 0 l
0.15 -1.09 l
0.15 1.31 l
0.14 -0.44 l
0.15 0.65 l
0.14 -0.21 l
0.15 0.21 l
0.14 1.31 l
0.15 -0.87 l
0.15 0 l
0.14 -0.22 l
0.15 0.22 l
0.14 -0.22 l
0.15 -0.65 l
0.14 0.43 l
0.15 0.44 l
0.14 -1.31 l
0.15 0.44 l
0.15 1.09 l
0.14 -0.44 l
0.15 -1.09 l
309.75 505.29 lineto
0.15 0.44 l
0.14 -0.22 l
0.15 0.87 l
0.14 0.65 l
0.15 -0.87 l
0.15 -0.87 l
0.14 0 l
0.15 0.22 l
0.14 0.22 l
0.15 0.22 l
0.14 0.43 l
0.15 -1.52 l
0.14 0 l
0.15 1.30 l
0.15 -0.43 l
0.14 0.43 l
0.15 1.53 l
0.14 -1.96 l
0.15 -0.65 l
0.14 0.87 l
0.15 0.87 l
0.15 0 l
0.14 -1.31 l
0.15 1.52 l
0.14 -0.43 l
0.15 -1.52 l
0.14 0.43 l
0.15 -0.43 l
0.14 0.65 l
0.15 -0.65 l
0.15 1.08 l
0.14 -0.43 l
0.15 0.43 l
0.14 0.44 l
0.15 -1.09 l
0.14 0 l
0.15 -0.22 l
0.14 1.31 l
0.15 0.65 l
0.15 -0.22 l
0.14 -1.52 l
0.15 0.44 l
0.14 0 l
0.15 0.21 l
0.14 1.31 l
0.15 -0.44 l
0.14 -0.21 l
0.15 -0.44 l
0.15 0 l
0.14 -0.87 l
0.15 -0.22 l
0.14 1.09 l
0.15 0 l
0.14 0.65 l
0.15 0.66 l
0.15 -1.53 l
0.14 0.22 l
0.15 0 l
0.14 -0.87 l
0.15 -0.22 l
0.14 1.53 l
0.15 -0.66 l
0.14 1.74 l
0.15 -1.08 l
0.15 -0.22 l
0.14 -0.65 l
0.15 0.65 l
0.14 -0.22 l
0.15 -0.65 l
0.14 0.87 l
0.15 -0.22 l
0.14 0.22 l
0.15 0 l
0.15 0.22 l
0.14 0 l
0.15 0 l
0.14 -0.22 l
0.15 0 l
0.14 0.43 l
0.15 0.66 l
0.14 -1.74 l
0.15 1.30 l
0.15 -0.87 l
0.14 1.09 l
0.15 0.43 l
0.14 -1.30 l
0.15 0 l
0.14 0.22 l
0.15 -0.22 l
0.14 0.87 l
0.15 0 l
0.15 0.65 l
0.14 -0.22 l
0.15 -0.43 l
0.14 0 l
0.15 -1.31 l
0.14 1.74 l
0.15 -1.08 l
0.15 0.21 l
324.31 507.69 lineto
0.15 0 l
0.14 0.43 l
0.15 -0.65 l
0.14 0 l
0.15 -0.44 l
0.14 -0.65 l
0.15 1.09 l
0.15 1.09 l
0.14 -1.31 l
0.15 1.74 l
0.14 -1.52 l
0.15 -0.87 l
0.14 0.43 l
0.15 0.66 l
0.14 -0.87 l
0.15 -0.66 l
0.15 0.66 l
0.14 0.65 l
0.15 4.10 l
0.14 -7.80 l
0.15 -1.92 l
0.14 3.88 l
0.15 2.83 l
0.14 2.13 l
0.15 -2.79 l
0.15 -0.87 l
0.14 0.22 l
0.15 -1.96 l
0.14 1.74 l
0.15 -0.87 l
0.14 2.18 l
0.15 -1.09 l
0.15 -0.87 l
0.14 1.31 l
0.15 0.65 l
0.14 -1.31 l
0.15 0.22 l
0.14 0.22 l
0.15 0.22 l
0.14 -1.96 l
0.15 1.52 l
0.15 1.31 l
0.14 -1.53 l
0.15 0.87 l
0.14 -0.43 l
0.15 0.43 l
0.14 -0.65 l
0.15 0.44 l
0.14 -0.22 l
0.15 -0.87 l
0.15 0.65 l
0.14 -1.30 l
0.15 1.74 l
0.14 -0.44 l
0.15 -0.43 l
0.14 -0.22 l
0.15 1.74 l
0.14 -1.09 l
0.15 0.22 l
0.15 0.87 l
0.14 -0.44 l
0.15 -0.43 l
0.14 -0.87 l
0.15 1.09 l
0.14 0.43 l
0.15 -0.87 l
0.15 0.22 l
0.14 -0.87 l
0.15 0.65 l
0.14 -0.65 l
0.15 0.65 l
0.14 0 l
0.15 0.65 l
0.14 -1.30 l
0.15 0.22 l
0.15 -1.31 l
0.14 1.31 l
0.15 1.95 l
0.14 -0.65 l
0.15 0.22 l
0.14 -0.22 l
0.15 -0.65 l
0.14 -0.44 l
0.15 1.31 l
0.15 0.65 l
0.14 -0.43 l
0.15 -1.09 l
0.14 -0.22 l
0.15 -0.65 l
0.14 0.43 l
0.15 0.87 l
0.14 0 l
0.15 -1.08 l
0.15 1.74 l
0.14 -0.66 l
0.15 -0.43 l
0.14 0.43 l
0.15 -1.08 l
0.14 -0.22 l
338.87 507.25 lineto
0.15 4.75 l
0.14 -2.39 l
0.15 -0.40 l
0.14 -0.87 l
0.15 -1.96 l
0.14 1.09 l
0.15 -0.22 l
0.14 -0.22 l
0.15 0.44 l
0.15 0 l
0.14 0.87 l
0.15 -0.44 l
0.14 0 l
0.15 -0.65 l
0.14 0.65 l
0.15 -0.21 l
0.14 0.21 l
0.15 -1.08 l
0.15 1.08 l
0.14 -0.21 l
0.15 -0.22 l
0.14 0.22 l
0.15 0.65 l
0.14 -0.65 l
0.15 0.21 l
0.14 -2.17 l
0.15 1.30 l
0.15 1.09 l
0.14 0.22 l
0.15 1.05 l
0.14 -1.05 l
0.15 -0.22 l
0.14 0.44 l
0.15 -0.66 l
0.15 0 l
0.14 -0.43 l
0.15 -0.22 l
0.14 0.22 l
0.15 0.65 l
0.14 -1.09 l
0.15 2.18 l
0.14 -2.18 l
0.15 1.09 l
0.15 0.65 l
0.14 -0.43 l
0.15 0.65 l
0.14 -0.87 l
0.15 0 l
0.14 -0.87 l
0.15 0.65 l
0.14 0.44 l
0.15 -0.65 l
0.15 0.21 l
0.14 0.44 l
0.15 -0.87 l
0.14 0.43 l
0.15 0.66 l
0.14 0 l
0.15 -0.22 l
0.14 -0.44 l
0.15 1.09 l
0.15 -0.43 l
0.14 -0.44 l
0.15 1.49 l
0.14 -0.22 l
0.15 -1.05 l
0.14 -1.31 l
0.15 0 l
0.15 1.09 l
0.14 -0.22 l
0.15 0.87 l
0.14 -0.43 l
0.15 -0.87 l
0.14 0.22 l
0.15 -0.22 l
0.14 0.22 l
0.15 0.65 l
0.15 0.65 l
0.14 -1.30 l
0.15 1.08 l
0.14 -0.43 l
0.15 -0.22 l
0.14 0 l
0.15 -0.65 l
0.14 0.43 l
0.15 1.49 l
0.15 -2.14 l
0.14 1.31 l
0.15 0 l
0.14 -0.22 l
0.15 0 l
0.14 0.43 l
0.15 -1.52 l
0.14 0.44 l
0.15 0 l
0.15 -0.22 l
0.14 0.65 l
0.15 -0.22 l
0.14 -0.21 l
353.43 507.90 lineto
0.14 0.87 l
0.15 -1.30 l
0.14 0.43 l
0.15 0.44 l
0.15 -0.44 l
0.14 -0.21 l
0.15 -0.44 l
0.14 1.09 l
0.15 0.22 l
0.14 -0.87 l
0.15 0.87 l
0.15 -0.66 l
0.14 -0.21 l
0.15 -0.87 l
0.14 1.30 l
0.15 0 l
0.14 -1.09 l
0.15 1.96 l
0.14 -1.09 l
0.15 0 l
0.15 0 l
0.14 -0.21 l
0.15 0.43 l
0.14 1.27 l
0.15 -0.40 l
0.14 -1.09 l
0.15 -1.08 l
0.14 1.74 l
0.15 0.21 l
0.15 -0.65 l
0.14 0.44 l
0.15 0 l
0.14 0 l
0.15 0.21 l
0.14 -1.30 l
0.15 0 l
0.14 1.09 l
0.15 -1.09 l
0.15 -0.22 l
0.14 0.65 l
0.15 0.22 l
0.14 -0.43 l
0.15 0 l
0.14 1.08 l
0.15 -1.95 l
0.15 -0.22 l
0.14 1.52 l
0.15 -0.22 l
0.14 0.87 l
0.15 0 l
0.14 0.62 l
0.15 -2.14 l
0.14 1.09 l
0.15 -0.65 l
0.15 0 l
0.14 0.65 l
0.15 -1.31 l
0.14 2.18 l
0.15 -0.87 l
0.14 0 l
0.15 0.22 l
0.14 0.21 l
0.15 -0.65 l
0.15 0.22 l
0.14 0.43 l
0.15 -1.74 l
0.14 1.53 l
0.15 0.43 l
0.14 0 l
0.15 -1.52 l
0.14 -0.22 l
0.15 1.31 l
0.15 -0.22 l
0.14 -1.09 l
0.15 0.44 l
0.14 0.65 l
0.15 0.87 l
0.14 -0.65 l
0.15 0 l
0.15 1.26 l
0.14 -0.83 l
0.15 -1.30 l
0.14 0.43 l
0.15 0 l
0.14 -0.22 l
0.15 -0.43 l
0.14 0.87 l
0.15 0.65 l
0.15 -0.22 l
0.14 0.62 l
0.15 -0.40 l
0.14 -1.30 l
0.15 0.43 l
0.14 -0.87 l
0.15 0.22 l
0.14 0.65 l
0.15 0 l
0.15 0.44 l
0.14 -0.87 l
currentpoint o m
367.99 508.99 lineto
0.14 -0.22 l
0.15 -1.52 l
0.14 0.44 l
0.15 0.87 l
0.14 -1.09 l
0.15 0.43 l
0.15 0.44 l
0.14 0 l
0.15 -0.22 l
0.14 0 l
0.15 1.70 l
0.14 -1.05 l
0.15 -0.65 l
0.15 0.22 l
0.14 0.65 l
0.15 -0.87 l
0.14 1.09 l
0.15 -1.31 l
0.14 0 l
0.15 0.22 l
0.14 -1.09 l
0.15 0.44 l
0.15 0 l
0.14 0 l
0.15 0.87 l
0.14 0 l
0.15 -0.22 l
0.14 -0.65 l
0.15 0.87 l
0.14 0.65 l
0.15 -0.87 l
0.15 -0.43 l
0.14 0.21 l
0.15 0 l
0.14 1.09 l
0.15 -1.09 l
0.14 1.09 l
0.15 -1.09 l
0.14 2.36 l
0.15 -3.01 l
0.15 1.09 l
0.14 1.48 l
0.15 -1.48 l
0.14 0 l
0.15 -0.65 l
0.14 -0.66 l
0.15 0.66 l
0.15 0.21 l
0.14 0.44 l
0.15 -1.31 l
0.14 1.09 l
0.15 1.27 l
0.14 -1.27 l
0.15 0.65 l
0.14 0 l
0.15 -1.74 l
0.15 -0.21 l
0.14 1.08 l
0.15 -0.21 l
0.14 -0.22 l
0.15 0.87 l
0.14 0 l
0.15 -0.44 l
0.14 0 l
0.15 -0.21 l
0.15 -0.22 l
0.14 0.22 l
0.15 0.87 l
0.14 -0.87 l
0.15 -0.44 l
0.14 1.31 l
0.15 -0.22 l
0.14 -1.31 l
0.15 1.09 l
0.15 0.44 l
0.14 -0.22 l
0.15 -0.44 l
0.14 0 l
0.15 0.87 l
0.14 -1.30 l
0.15 0.43 l
0.15 0 l
0.14 0.44 l
0.15 0 l
0.14 -1.09 l
0.15 0.22 l
0.14 0.43 l
0.15 -0.87 l
0.14 -0.21 l
0.15 1.95 l
0.15 -0.43 l
0.14 -0.65 l
0.15 0.21 l
0.14 -0.65 l
0.15 1.09 l
0.14 -0.65 l
0.15 -0.22 l
0.14 -0.22 l
0.15 1.09 l
o
/bg { 1 1 1 srgb } def
222.40 506.16 0.43 c p3
222.55 505.08 0.43 c p3
222.69 505.29 0.43 c p3
222.84 505.51 0.43 c p3
222.98 506.16 0.43 c p3
223.13 505.95 0.43 c p3
223.27 505.51 0.43 c p3
223.42 505.73 0.43 c p3
223.56 505.51 0.43 c p3
223.71 505.29 0.43 c p3
223.86 504.86 0.43 c p3
224.00 505.51 0.43 c p3
224.15 505.08 0.43 c p3
224.29 506.60 0.43 c p3
224.44 505.51 0.43 c p3
224.58 507.47 0.43 c p3
224.73 504.20 0.43 c p3
224.87 505.73 0.43 c p3
225.02 505.73 0.43 c p3
225.17 505.95 0.43 c p3
225.31 505.95 0.43 c p3
225.46 506.38 0.43 c p3
225.60 506.60 0.43 c p3
225.75 505.51 0.43 c p3
225.89 505.29 0.43 c p3
226.04 504.42 0.43 c p3
226.19 506.38 0.43 c p3
226.33 507.25 0.43 c p3
226.48 506.38 0.43 c p3
226.62 506.16 0.43 c p3
226.77 505.73 0.43 c p3
226.91 506.38 0.43 c p3
227.06 505.73 0.43 c p3
227.20 506.38 0.43 c p3
227.35 506.82 0.43 c p3
227.50 505.95 0.43 c p3
227.64 505.95 0.43 c p3
227.79 506.16 0.43 c p3
227.93 505.08 0.43 c p3
228.08 505.08 0.43 c p3
228.22 505.73 0.43 c p3
228.37 507.03 0.43 c p3
228.51 505.73 0.43 c p3
228.66 505.29 0.43 c p3
228.81 506.60 0.43 c p3
228.95 505.51 0.43 c p3
229.10 506.38 0.43 c p3
229.24 505.95 0.43 c p3
229.39 507.03 0.43 c p3
229.53 505.95 0.43 c p3
229.68 506.38 0.43 c p3
229.82 505.51 0.43 c p3
229.97 506.38 0.43 c p3
230.12 505.51 0.43 c p3
230.26 507.03 0.43 c p3
230.41 505.08 0.43 c p3
230.55 506.38 0.43 c p3
230.70 505.73 0.43 c p3
230.84 505.73 0.43 c p3
230.99 506.82 0.43 c p3
231.14 506.16 0.43 c p3
231.28 506.60 0.43 c p3
231.43 507.25 0.43 c p3
231.57 505.73 0.43 c p3
231.72 506.16 0.43 c p3
231.86 505.51 0.43 c p3
232.01 505.51 0.43 c p3
232.15 506.38 0.43 c p3
232.30 505.95 0.43 c p3
232.45 505.73 0.43 c p3
232.59 505.95 0.43 c p3
232.74 507.47 0.43 c p3
232.88 505.73 0.43 c p3
233.03 506.82 0.43 c p3
233.17 506.38 0.43 c p3
233.32 505.51 0.43 c p3
233.46 504.64 0.43 c p3
233.61 506.60 0.43 c p3
233.76 506.16 0.43 c p3
233.90 505.29 0.43 c p3
234.05 506.60 0.43 c p3
234.19 506.60 0.43 c p3
234.34 505.95 0.43 c p3
234.48 506.82 0.43 c p3
234.63 507.47 0.43 c p3
234.77 505.95 0.43 c p3
234.92 505.51 0.43 c p3
235.07 506.60 0.43 c p3
235.21 506.16 0.43 c p3
235.36 505.29 0.43 c p3
235.50 506.38 0.43 c p3
235.65 506.60 0.43 c p3
235.79 505.95 0.43 c p3
235.94 505.95 0.43 c p3
236.09 506.38 0.43 c p3
236.23 505.73 0.43 c p3
236.38 506.82 0.43 c p3
236.52 507.25 0.43 c p3
236.67 506.82 0.43 c p3
236.81 506.60 0.43 c p3
236.96 451.45 0.43 c p3
237.10 450.60 0.43 c p3
237.25 451.89 0.43 c p3
237.40 453.84 0.43 c p3
237.54 454.28 0.43 c p3
237.69 455.15 0.43 c p3
237.83 455.80 0.43 c p3
237.98 455.80 0.43 c p3
238.12 456.02 0.43 c p3
238.27 456.46 0.43 c p3
238.41 457.29 0.43 c p3
238.56 457.72 0.43 c p3
238.71 457.94 0.43 c p3
238.85 457.94 0.43 c p3
239.00 460.55 0.43 c p3
239.14 459.90 0.43 c p3
239.29 459.25 0.43 c p3
239.43 459.90 0.43 c p3
239.58 460.55 0.43 c p3
239.72 461.21 0.43 c p3
239.87 461.86 0.43 c p3
240.02 462.07 0.43 c p3
240.16 463.78 0.43 c p3
240.31 463.34 0.43 c p3
240.45 462.51 0.43 c p3
240.60 462.91 0.43 c p3
240.74 464.43 0.43 c p3
240.89 463.56 0.43 c p3
241.04 464.65 0.43 c p3
241.18 465.95 0.43 c p3
241.33 465.74 0.43 c p3
241.47 465.08 0.43 c p3
241.62 465.30 0.43 c p3
241.76 466.17 0.43 c p3
241.91 465.74 0.43 c p3
242.05 466.17 0.43 c p3
242.20 466.17 0.43 c p3
242.35 467.91 0.43 c p3
242.49 467.48 0.43 c p3
242.64 468.35 0.43 c p3
242.78 468.96 0.43 c p3
242.93 468.96 0.43 c p3
243.07 469.18 0.43 c p3
243.22 469.83 0.43 c p3
243.36 468.96 0.43 c p3
243.51 469.83 0.43 c p3
243.66 470.49 0.43 c p3
243.80 469.83 0.43 c p3
243.95 470.70 0.43 c p3
244.09 471.57 0.43 c p3
244.24 471.79 0.43 c p3
244.38 470.92 0.43 c p3
244.53 472.01 0.43 c p3
244.67 471.79 0.43 c p3
244.82 472.44 0.43 c p3
244.97 472.66 0.43 c p3
245.11 472.23 0.43 c p3
245.26 473.10 0.43 c p3
245.40 473.75 0.43 c p3
245.55 473.10 0.43 c p3
245.69 474.18 0.43 c p3
245.84 473.10 0.43 c p3
245.99 474.18 0.43 c p3
246.13 475.02 0.43 c p3
246.28 475.89 0.43 c p3
246.42 474.37 0.43 c p3
246.57 475.45 0.43 c p3
246.71 475.45 0.43 c p3
246.86 475.24 0.43 c p3
247.00 476.11 0.43 c p3
247.15 475.89 0.43 c p3
247.30 476.11 0.43 c p3
247.44 474.80 0.43 c p3
247.59 476.11 0.43 c p3
247.73 476.11 0.43 c p3
247.88 478.06 0.43 c p3
248.02 476.76 0.43 c p3
248.17 476.98 0.43 c p3
248.31 477.41 0.43 c p3
248.46 477.63 0.43 c p3
248.61 478.06 0.43 c p3
248.75 477.63 0.43 c p3
248.90 478.50 0.43 c p3
249.04 478.72 0.43 c p3
249.19 478.28 0.43 c p3
249.33 479.59 0.43 c p3
249.48 479.59 0.43 c p3
249.62 479.37 0.43 c p3
249.77 479.59 0.43 c p3
249.92 480.02 0.43 c p3
250.06 479.15 0.43 c p3
250.21 481.07 0.43 c p3
250.35 479.80 0.43 c p3
250.50 480.86 0.43 c p3
250.64 481.29 0.43 c p3
250.79 480.42 0.43 c p3
250.94 480.20 0.43 c p3
251.08 481.73 0.43 c p3
251.23 481.29 0.43 c p3
251.37 481.73 0.43 c p3
251.52 483.03 0.43 c p3
251.66 482.38 0.43 c p3
251.81 481.94 0.43 c p3
251.95 482.60 0.43 c p3
252.10 483.68 0.43 c p3
252.25 483.03 0.43 c p3
252.39 483.68 0.43 c p3
252.54 483.03 0.43 c p3
252.68 483.68 0.43 c p3
252.83 483.90 0.43 c p3
252.97 484.55 0.43 c p3
253.12 483.90 0.43 c p3
253.26 483.90 0.43 c p3
253.41 483.90 0.43 c p3
253.56 483.68 0.43 c p3
253.70 484.55 0.43 c p3
253.85 483.90 0.43 c p3
253.99 484.99 0.43 c p3
254.14 484.77 0.43 c p3
254.28 484.99 0.43 c p3
254.43 485.42 0.43 c p3
254.57 485.42 0.43 c p3
254.72 486.04 0.43 c p3
254.87 485.42 0.43 c p3
255.01 485.42 0.43 c p3
255.16 485.86 0.43 c p3
255.30 485.21 0.43 c p3
255.45 486.69 0.43 c p3
255.59 486.48 0.43 c p3
255.74 486.69 0.43 c p3
255.88 486.04 0.43 c p3
256.03 486.48 0.43 c p3
256.18 486.04 0.43 c p3
256.32 487.35 0.43 c p3
256.47 486.91 0.43 c p3
256.61 487.13 0.43 c p3
256.76 486.26 0.43 c p3
256.90 488.00 0.43 c p3
257.05 487.35 0.43 c p3
257.20 486.91 0.43 c p3
257.34 487.56 0.43 c p3
257.49 487.35 0.43 c p3
257.63 488.22 0.43 c p3
257.78 487.13 0.43 c p3
257.92 488.43 0.43 c p3
258.07 488.65 0.43 c p3
258.21 488.65 0.43 c p3
258.36 489.30 0.43 c p3
258.51 488.65 0.43 c p3
258.65 489.09 0.43 c p3
258.80 489.96 0.43 c p3
258.94 489.09 0.43 c p3
259.09 489.09 0.43 c p3
259.23 488.22 0.43 c p3
259.38 490.17 0.43 c p3
259.52 489.09 0.43 c p3
259.67 489.09 0.43 c p3
259.82 489.52 0.43 c p3
259.96 488.65 0.43 c p3
260.11 490.83 0.43 c p3
260.25 490.39 0.43 c p3
260.40 489.09 0.43 c p3
260.54 490.39 0.43 c p3
260.69 490.61 0.43 c p3
260.83 491.04 0.43 c p3
260.98 490.39 0.43 c p3
261.13 490.39 0.43 c p3
261.27 491.48 0.43 c p3
261.42 490.83 0.43 c p3
261.56 489.52 0.43 c p3
261.71 490.39 0.43 c p3
261.85 490.61 0.43 c p3
262.00 490.39 0.43 c p3
262.15 491.70 0.43 c p3
262.29 491.04 0.43 c p3
262.44 490.83 0.43 c p3
262.58 491.04 0.43 c p3
262.73 492.31 0.43 c p3
262.87 491.88 0.43 c p3
263.02 491.04 0.43 c p3
263.16 492.10 0.43 c p3
263.31 491.70 0.43 c p3
263.46 492.10 0.43 c p3
263.60 491.88 0.43 c p3
263.75 492.10 0.43 c p3
263.89 491.70 0.43 c p3
264.04 492.31 0.43 c p3
264.18 491.48 0.43 c p3
264.33 491.48 0.43 c p3
264.47 492.97 0.43 c p3
264.62 491.70 0.43 c p3
264.77 492.31 0.43 c p3
264.91 492.31 0.43 c p3
265.06 492.31 0.43 c p3
265.20 492.75 0.43 c p3
265.35 491.48 0.43 c p3
265.49 492.75 0.43 c p3
265.64 492.10 0.43 c p3
265.78 492.53 0.43 c p3
265.93 492.75 0.43 c p3
266.08 493.84 0.43 c p3
266.22 491.70 0.43 c p3
266.37 492.97 0.43 c p3
266.51 492.53 0.43 c p3
266.66 492.75 0.43 c p3
266.80 492.53 0.43 c p3
266.95 492.97 0.43 c p3
267.10 492.97 0.43 c p3
267.24 493.18 0.43 c p3
267.39 493.84 0.43 c p3
267.53 493.40 0.43 c p3
267.68 493.18 0.43 c p3
267.82 492.53 0.43 c p3
267.97 492.53 0.43 c p3
268.11 492.75 0.43 c p3
268.26 493.18 0.43 c p3
268.41 493.62 0.43 c p3
268.55 492.75 0.43 c p3
268.70 493.40 0.43 c p3
268.84 493.18 0.43 c p3
268.99 493.40 0.43 c p3
269.13 492.53 0.43 c p3
269.28 492.97 0.43 c p3
269.42 494.27 0.43 c p3
269.57 494.49 0.43 c p3
269.72 493.84 0.43 c p3
269.86 493.40 0.43 c p3
270.01 493.84 0.43 c p3
270.15 493.40 0.43 c p3
270.30 493.62 0.43 c p3
270.44 493.62 0.43 c p3
270.59 493.84 0.43 c p3
270.73 495.14 0.43 c p3
270.88 494.27 0.43 c p3
271.03 494.05 0.43 c p3
271.17 493.18 0.43 c p3
271.32 493.84 0.43 c p3
271.46 494.27 0.43 c p3
271.61 494.27 0.43 c p3
271.75 493.84 0.43 c p3
271.90 493.40 0.43 c p3
272.05 494.49 0.43 c p3
272.19 494.27 0.43 c p3
272.34 495.36 0.43 c p3
272.48 495.58 0.43 c p3
272.63 494.27 0.43 c p3
272.77 495.36 0.43 c p3
272.92 495.14 0.43 c p3
273.06 494.49 0.43 c p3
273.21 495.36 0.43 c p3
273.36 496.01 0.43 c p3
273.50 494.49 0.43 c p3
273.65 495.79 0.43 c p3
273.79 496.01 0.43 c p3
273.94 494.71 0.43 c p3
274.08 495.79 0.43 c p3
274.23 495.14 0.43 c p3
274.37 495.58 0.43 c p3
274.52 495.14 0.43 c p3
274.67 495.14 0.43 c p3
274.81 495.14 0.43 c p3
274.96 496.01 0.43 c p3
275.10 495.14 0.43 c p3
275.25 495.79 0.43 c p3
275.39 496.01 0.43 c p3
275.54 497.32 0.43 c p3
275.68 496.45 0.43 c p3
275.83 495.79 0.43 c p3
275.98 496.23 0.43 c p3
276.12 494.71 0.43 c p3
276.27 496.45 0.43 c p3
276.41 495.36 0.43 c p3
276.56 496.01 0.43 c p3
276.70 496.88 0.43 c p3
276.85 495.58 0.43 c p3
277.00 496.01 0.43 c p3
277.14 496.45 0.43 c p3
277.29 497.32 0.43 c p3
277.43 495.79 0.43 c p3
277.58 495.36 0.43 c p3
277.72 496.23 0.43 c p3
277.87 497.72 0.43 c p3
278.01 496.66 0.43 c p3
278.16 496.88 0.43 c p3
278.31 496.88 0.43 c p3
278.45 496.01 0.43 c p3
278.60 495.58 0.43 c p3
278.74 496.45 0.43 c p3
278.89 496.66 0.43 c p3
279.03 496.23 0.43 c p3
279.18 497.53 0.43 c p3
279.32 497.93 0.43 c p3
279.47 496.88 0.43 c p3
279.62 496.66 0.43 c p3
279.76 496.88 0.43 c p3
279.91 497.53 0.43 c p3
280.05 497.32 0.43 c p3
280.20 498.15 0.43 c p3
280.34 496.88 0.43 c p3
280.49 496.66 0.43 c p3
280.63 497.72 0.43 c p3
280.78 497.72 0.43 c p3
280.93 497.10 0.43 c p3
281.07 496.66 0.43 c p3
281.22 497.32 0.43 c p3
281.36 497.53 0.43 c p3
281.51 497.53 0.43 c p3
281.65 497.32 0.43 c p3
281.80 497.93 0.43 c p3
281.95 497.93 0.43 c p3
282.09 497.53 0.43 c p3
282.24 498.37 0.43 c p3
282.38 497.32 0.43 c p3
282.53 499.24 0.43 c p3
282.67 498.15 0.43 c p3
282.82 499.46 0.43 c p3
282.96 499.02 0.43 c p3
283.11 499.46 0.43 c p3
283.26 498.15 0.43 c p3
283.40 499.46 0.43 c p3
283.55 497.72 0.43 c p3
283.69 500.11 0.43 c p3
283.84 498.59 0.43 c p3
283.98 499.46 0.43 c p3
284.13 500.33 0.43 c p3
284.27 499.02 0.43 c p3
284.42 498.37 0.43 c p3
284.57 499.02 0.43 c p3
284.71 499.02 0.43 c p3
284.86 497.93 0.43 c p3
285.00 500.98 0.43 c p3
285.15 498.59 0.43 c p3
285.29 499.67 0.43 c p3
285.44 499.46 0.43 c p3
285.58 499.46 0.43 c p3
285.73 500.11 0.43 c p3
285.88 499.89 0.43 c p3
286.02 500.98 0.43 c p3
286.17 499.67 0.43 c p3
286.31 500.33 0.43 c p3
286.46 500.11 0.43 c p3
286.60 499.67 0.43 c p3
286.75 499.67 0.43 c p3
286.89 498.80 0.43 c p3
287.04 500.33 0.43 c p3
287.19 500.98 0.43 c p3
287.33 499.02 0.43 c p3
287.48 500.11 0.43 c p3
287.62 500.33 0.43 c p3
287.77 501.20 0.43 c p3
287.91 500.11 0.43 c p3
288.06 499.24 0.43 c p3
288.21 500.11 0.43 c p3
288.35 499.89 0.43 c p3
288.50 499.46 0.43 c p3
288.64 500.98 0.43 c p3
288.79 500.76 0.43 c p3
288.93 501.20 0.43 c p3
289.08 499.89 0.43 c p3
289.22 500.98 0.43 c p3
289.37 500.11 0.43 c p3
289.52 500.54 0.43 c p3
289.66 499.67 0.43 c p3
289.81 500.76 0.43 c p3
289.95 500.54 0.43 c p3
290.10 501.41 0.43 c p3
290.24 502.28 0.43 c p3
290.39 500.33 0.43 c p3
290.53 501.20 0.43 c p3
290.68 500.33 0.43 c p3
290.83 500.54 0.43 c p3
290.97 502.50 0.43 c p3
291.12 501.20 0.43 c p3
291.26 502.50 0.43 c p3
291.41 501.41 0.43 c p3
291.55 501.63 0.43 c p3
291.70 502.07 0.43 c p3
291.84 502.28 0.43 c p3
291.99 501.63 0.43 c p3
292.14 500.54 0.43 c p3
292.28 500.76 0.43 c p3
292.43 502.50 0.43 c p3
292.57 501.20 0.43 c p3
292.72 502.28 0.43 c p3
292.86 502.07 0.43 c p3
293.01 503.15 0.43 c p3
293.16 502.28 0.43 c p3
293.30 501.41 0.43 c p3
293.45 502.28 0.43 c p3
293.59 501.20 0.43 c p3
293.74 501.85 0.43 c p3
293.88 502.07 0.43 c p3
294.03 502.28 0.43 c p3
294.17 502.07 0.43 c p3
294.32 501.85 0.43 c p3
294.47 502.72 0.43 c p3
294.61 502.94 0.43 c p3
294.76 503.55 0.43 c p3
294.90 502.94 0.43 c p3
295.05 503.15 0.43 c p3
295.19 502.94 0.43 c p3
295.34 502.94 0.43 c p3
295.48 502.50 0.43 c p3
295.63 502.94 0.43 c p3
295.78 503.15 0.43 c p3
295.92 503.37 0.43 c p3
296.07 502.50 0.43 c p3
296.21 502.94 0.43 c p3
296.36 503.15 0.43 c p3
296.50 502.72 0.43 c p3
296.65 502.72 0.43 c p3
296.79 503.55 0.43 c p3
296.94 503.37 0.43 c p3
297.09 501.63 0.43 c p3
297.23 501.85 0.43 c p3
297.38 502.94 0.43 c p3
297.52 502.94 0.43 c p3
297.67 503.37 0.43 c p3
297.81 503.77 0.43 c p3
297.96 503.37 0.43 c p3
298.11 503.77 0.43 c p3
298.25 503.55 0.43 c p3
298.40 503.37 0.43 c p3
298.54 503.37 0.43 c p3
298.69 503.99 0.43 c p3
298.83 502.94 0.43 c p3
298.98 505.08 0.43 c p3
299.12 504.42 0.43 c p3
299.27 502.50 0.43 c p3
299.42 503.55 0.43 c p3
299.56 503.55 0.43 c p3
299.71 504.20 0.43 c p3
299.85 503.55 0.43 c p3
300.00 503.99 0.43 c p3
300.14 505.08 0.43 c p3
300.29 504.42 0.43 c p3
300.43 503.37 0.43 c p3
300.58 503.99 0.43 c p3
300.73 504.86 0.43 c p3
300.87 503.55 0.43 c p3
301.02 504.20 0.43 c p3
301.16 503.77 0.43 c p3
301.31 503.37 0.43 c p3
301.45 504.64 0.43 c p3
301.60 504.20 0.43 c p3
301.74 503.55 0.43 c p3
301.89 504.64 0.43 c p3
302.04 504.42 0.43 c p3
302.18 504.64 0.43 c p3
302.33 503.77 0.43 c p3
302.47 504.86 0.43 c p3
302.62 503.77 0.43 c p3
302.76 504.20 0.43 c p3
302.91 504.20 0.43 c p3
303.06 504.42 0.43 c p3
303.20 503.99 0.43 c p3
303.35 503.37 0.43 c p3
303.49 504.86 0.43 c p3
303.64 504.64 0.43 c p3
303.78 504.86 0.43 c p3
303.93 505.29 0.43 c p3
304.07 505.51 0.43 c p3
304.22 504.64 0.43 c p3
304.37 505.08 0.43 c p3
304.51 505.51 0.43 c p3
304.66 502.07 0.43 c p3
304.80 501.85 0.43 c p3
304.95 503.55 0.43 c p3
305.09 503.77 0.43 c p3
305.24 504.42 0.43 c p3
305.38 505.29 0.43 c p3
305.53 505.29 0.43 c p3
305.68 503.55 0.43 c p3
305.82 503.77 0.43 c p3
305.97 505.08 0.43 c p3
306.11 504.42 0.43 c p3
306.26 503.99 0.43 c p3
306.40 505.51 0.43 c p3
306.55 504.86 0.43 c p3
306.69 504.86 0.43 c p3
306.84 503.77 0.43 c p3
306.99 505.08 0.43 c p3
307.13 504.64 0.43 c p3
307.28 505.29 0.43 c p3
307.42 505.08 0.43 c p3
307.57 505.29 0.43 c p3
307.71 506.60 0.43 c p3
307.86 505.73 0.43 c p3
308.01 505.73 0.43 c p3
308.15 505.51 0.43 c p3
308.30 505.73 0.43 c p3
308.44 505.51 0.43 c p3
308.59 504.86 0.43 c p3
308.73 505.29 0.43 c p3
308.88 505.73 0.43 c p3
309.02 504.42 0.43 c p3
309.17 504.86 0.43 c p3
309.32 505.95 0.43 c p3
309.46 505.51 0.43 c p3
309.61 504.42 0.43 c p3
309.75 505.29 0.43 c p3
309.90 505.73 0.43 c p3
310.04 505.51 0.43 c p3
310.19 506.38 0.43 c p3
310.33 507.03 0.43 c p3
310.48 506.16 0.43 c p3
310.63 505.29 0.43 c p3
310.77 505.29 0.43 c p3
310.92 505.51 0.43 c p3
311.06 505.73 0.43 c p3
311.21 505.95 0.43 c p3
311.35 506.38 0.43 c p3
311.50 504.86 0.43 c p3
311.64 504.86 0.43 c p3
311.79 506.16 0.43 c p3
311.94 505.73 0.43 c p3
312.08 506.16 0.43 c p3
312.23 507.69 0.43 c p3
312.37 505.73 0.43 c p3
312.52 505.08 0.43 c p3
312.66 505.95 0.43 c p3
312.81 506.82 0.43 c p3
312.96 506.82 0.43 c p3
313.10 505.51 0.43 c p3
313.25 507.03 0.43 c p3
313.39 506.60 0.43 c p3
313.54 505.08 0.43 c p3
313.68 505.51 0.43 c p3
313.83 505.08 0.43 c p3
313.97 505.73 0.43 c p3
314.12 505.08 0.43 c p3
314.27 506.16 0.43 c p3
314.41 505.73 0.43 c p3
314.56 506.16 0.43 c p3
314.70 506.60 0.43 c p3
314.85 505.51 0.43 c p3
314.99 505.51 0.43 c p3
315.14 505.29 0.43 c p3
315.28 506.60 0.43 c p3
315.43 507.25 0.43 c p3
315.58 507.03 0.43 c p3
315.72 505.51 0.43 c p3
315.87 505.95 0.43 c p3
316.01 505.95 0.43 c p3
316.16 506.16 0.43 c p3
316.30 507.47 0.43 c p3
316.45 507.03 0.43 c p3
316.59 506.82 0.43 c p3
316.74 506.38 0.43 c p3
316.89 506.38 0.43 c p3
317.03 505.51 0.43 c p3
317.18 505.29 0.43 c p3
317.32 506.38 0.43 c p3
317.47 506.38 0.43 c p3
317.61 507.03 0.43 c p3
317.76 507.69 0.43 c p3
317.91 506.16 0.43 c p3
318.05 506.38 0.43 c p3
318.20 506.38 0.43 c p3
318.34 505.51 0.43 c p3
318.49 505.29 0.43 c p3
318.63 506.82 0.43 c p3
318.78 506.16 0.43 c p3
318.92 507.90 0.43 c p3
319.07 506.82 0.43 c p3
319.22 506.60 0.43 c p3
319.36 505.95 0.43 c p3
319.51 506.60 0.43 c p3
319.65 506.38 0.43 c p3
319.80 505.73 0.43 c p3
319.94 506.60 0.43 c p3
320.09 506.38 0.43 c p3
320.23 506.60 0.43 c p3
320.38 506.60 0.43 c p3
320.53 506.82 0.43 c p3
320.67 506.82 0.43 c p3
320.82 506.82 0.43 c p3
320.96 506.60 0.43 c p3
321.11 506.60 0.43 c p3
321.25 507.03 0.43 c p3
321.40 507.69 0.43 c p3
321.54 505.95 0.43 c p3
321.69 507.25 0.43 c p3
321.84 506.38 0.43 c p3
321.98 507.47 0.43 c p3
322.13 507.90 0.43 c p3
322.27 506.60 0.43 c p3
322.42 506.60 0.43 c p3
322.56 506.82 0.43 c p3
322.71 506.60 0.43 c p3
322.85 507.47 0.43 c p3
323.00 507.47 0.43 c p3
323.15 508.12 0.43 c p3
323.29 507.90 0.43 c p3
323.44 507.47 0.43 c p3
323.58 507.47 0.43 c p3
323.73 506.16 0.43 c p3
323.87 507.90 0.43 c p3
324.02 506.82 0.43 c p3
324.17 507.03 0.43 c p3
324.31 507.69 0.43 c p3
324.46 507.69 0.43 c p3
324.60 508.12 0.43 c p3
324.75 507.47 0.43 c p3
324.89 507.47 0.43 c p3
325.04 507.03 0.43 c p3
325.18 506.38 0.43 c p3
325.33 507.47 0.43 c p3
325.48 508.56 0.43 c p3
325.62 507.25 0.43 c p3
325.77 508.99 0.43 c p3
325.91 507.47 0.43 c p3
326.06 506.60 0.43 c p3
326.20 507.03 0.43 c p3
326.35 507.69 0.43 c p3
326.49 506.82 0.43 c p3
326.64 506.16 0.43 c p3
326.79 506.82 0.43 c p3
326.93 507.47 0.43 c p3
327.08 511.57 0.43 c p3
327.22 503.77 0.43 c p3
327.37 501.85 0.43 c p3
327.51 505.73 0.43 c p3
327.66 508.56 0.43 c p3
327.80 510.69 0.43 c p3
327.95 507.90 0.43 c p3
328.10 507.03 0.43 c p3
328.24 507.25 0.43 c p3
328.39 505.29 0.43 c p3
328.53 507.03 0.43 c p3
328.68 506.16 0.43 c p3
328.82 508.34 0.43 c p3
328.97 507.25 0.43 c p3
329.12 506.38 0.43 c p3
329.26 507.69 0.43 c p3
329.41 508.34 0.43 c p3
329.55 507.03 0.43 c p3
329.70 507.25 0.43 c p3
329.84 507.47 0.43 c p3
329.99 507.69 0.43 c p3
330.13 505.73 0.43 c p3
330.28 507.25 0.43 c p3
330.43 508.56 0.43 c p3
330.57 507.03 0.43 c p3
330.72 507.90 0.43 c p3
330.86 507.47 0.43 c p3
331.01 507.90 0.43 c p3
331.15 507.25 0.43 c p3
331.30 507.69 0.43 c p3
331.44 507.47 0.43 c p3
331.59 506.60 0.43 c p3
331.74 507.25 0.43 c p3
331.88 505.95 0.43 c p3
332.03 507.69 0.43 c p3
332.17 507.25 0.43 c p3
332.32 506.82 0.43 c p3
332.46 506.60 0.43 c p3
332.61 508.34 0.43 c p3
332.75 507.25 0.43 c p3
332.90 507.47 0.43 c p3
333.05 508.34 0.43 c p3
333.19 507.90 0.43 c p3
333.34 507.47 0.43 c p3
333.48 506.60 0.43 c p3
333.63 507.69 0.43 c p3
333.77 508.12 0.43 c p3
333.92 507.25 0.43 c p3
334.07 507.47 0.43 c p3
334.21 506.60 0.43 c p3
334.36 507.25 0.43 c p3
334.50 506.60 0.43 c p3
334.65 507.25 0.43 c p3
334.79 507.25 0.43 c p3
334.94 507.90 0.43 c p3
335.08 506.60 0.43 c p3
335.23 506.82 0.43 c p3
335.38 505.51 0.43 c p3
335.52 506.82 0.43 c p3
335.67 508.77 0.43 c p3
335.81 508.12 0.43 c p3
335.96 508.34 0.43 c p3
336.10 508.12 0.43 c p3
336.25 507.47 0.43 c p3
336.39 507.03 0.43 c p3
336.54 508.34 0.43 c p3
336.69 508.99 0.43 c p3
336.83 508.56 0.43 c p3
336.98 507.47 0.43 c p3
337.12 507.25 0.43 c p3
337.27 506.60 0.43 c p3
337.41 507.03 0.43 c p3
337.56 507.90 0.43 c p3
337.70 507.90 0.43 c p3
337.85 506.82 0.43 c p3
338.00 508.56 0.43 c p3
338.14 507.90 0.43 c p3
338.29 507.47 0.43 c p3
338.43 507.90 0.43 c p3
338.58 506.82 0.43 c p3
338.72 506.60 0.43 c p3
338.87 507.25 0.43 c p3
339.02 512.00 0.43 c p3
339.16 509.61 0.43 c p3
339.31 509.21 0.43 c p3
339.45 508.34 0.43 c p3
339.60 506.38 0.43 c p3
339.74 507.47 0.43 c p3
339.89 507.25 0.43 c p3
340.03 507.03 0.43 c p3
340.18 507.47 0.43 c p3
340.33 507.47 0.43 c p3
340.47 508.34 0.43 c p3
340.62 507.90 0.43 c p3
340.76 507.90 0.43 c p3
340.91 507.25 0.43 c p3
341.05 507.90 0.43 c p3
341.20 507.69 0.43 c p3
341.34 507.90 0.43 c p3
341.49 506.82 0.43 c p3
341.64 507.90 0.43 c p3
341.78 507.69 0.43 c p3
341.93 507.47 0.43 c p3
342.07 507.69 0.43 c p3
342.22 508.34 0.43 c p3
342.36 507.69 0.43 c p3
342.51 507.90 0.43 c p3
342.65 505.73 0.43 c p3
342.80 507.03 0.43 c p3
342.95 508.12 0.43 c p3
343.09 508.34 0.43 c p3
343.24 509.39 0.43 c p3
343.38 508.34 0.43 c p3
343.53 508.12 0.43 c p3
343.67 508.56 0.43 c p3
343.82 507.90 0.43 c p3
343.97 507.90 0.43 c p3
344.11 507.47 0.43 c p3
344.26 507.25 0.43 c p3
344.40 507.47 0.43 c p3
344.55 508.12 0.43 c p3
344.69 507.03 0.43 c p3
344.84 509.21 0.43 c p3
344.98 507.03 0.43 c p3
345.13 508.12 0.43 c p3
345.28 508.77 0.43 c p3
345.42 508.34 0.43 c p3
345.57 508.99 0.43 c p3
345.71 508.12 0.43 c p3
345.86 508.12 0.43 c p3
346.00 507.25 0.43 c p3
346.15 507.90 0.43 c p3
346.29 508.34 0.43 c p3
346.44 507.69 0.43 c p3
346.59 507.90 0.43 c p3
346.73 508.34 0.43 c p3
346.88 507.47 0.43 c p3
347.02 507.90 0.43 c p3
347.17 508.56 0.43 c p3
347.31 508.56 0.43 c p3
347.46 508.34 0.43 c p3
347.60 507.90 0.43 c p3
347.75 508.99 0.43 c p3
347.90 508.56 0.43 c p3
348.04 508.12 0.43 c p3
348.19 509.61 0.43 c p3
348.33 509.39 0.43 c p3
348.48 508.34 0.43 c p3
348.62 507.03 0.43 c p3
348.77 507.03 0.43 c p3
348.92 508.12 0.43 c p3
349.06 507.90 0.43 c p3
349.21 508.77 0.43 c p3
349.35 508.34 0.43 c p3
349.50 507.47 0.43 c p3
349.64 507.69 0.43 c p3
349.79 507.47 0.43 c p3
349.93 507.69 0.43 c p3
350.08 508.34 0.43 c p3
350.23 508.99 0.43 c p3
350.37 507.69 0.43 c p3
350.52 508.77 0.43 c p3
350.66 508.34 0.43 c p3
350.81 508.12 0.43 c p3
350.95 508.12 0.43 c p3
351.10 507.47 0.43 c p3
351.24 507.90 0.43 c p3
351.39 509.39 0.43 c p3
351.54 507.25 0.43 c p3
351.68 508.56 0.43 c p3
351.83 508.56 0.43 c p3
351.97 508.34 0.43 c p3
352.12 508.34 0.43 c p3
352.26 508.77 0.43 c p3
352.41 507.25 0.43 c p3
352.55 507.69 0.43 c p3
352.70 507.69 0.43 c p3
352.85 507.47 0.43 c p3
352.99 508.12 0.43 c p3
353.14 507.90 0.43 c p3
353.28 507.69 0.43 c p3
353.43 507.90 0.43 c p3
353.57 508.77 0.43 c p3
353.72 507.47 0.43 c p3
353.86 507.90 0.43 c p3
354.01 508.34 0.43 c p3
354.16 507.90 0.43 c p3
354.30 507.69 0.43 c p3
354.45 507.25 0.43 c p3
354.59 508.34 0.43 c p3
354.74 508.56 0.43 c p3
354.88 507.69 0.43 c p3
355.03 508.56 0.43 c p3
355.18 507.90 0.43 c p3
355.32 507.69 0.43 c p3
355.47 506.82 0.43 c p3
355.61 508.12 0.43 c p3
355.76 508.12 0.43 c p3
355.90 507.03 0.43 c p3
356.05 508.99 0.43 c p3
356.19 507.90 0.43 c p3
356.34 507.90 0.43 c p3
356.49 507.90 0.43 c p3
356.63 507.69 0.43 c p3
356.78 508.12 0.43 c p3
356.92 509.39 0.43 c p3
357.07 508.99 0.43 c p3
357.21 507.90 0.43 c p3
357.36 506.82 0.43 c p3
357.50 508.56 0.43 c p3
357.65 508.77 0.43 c p3
357.80 508.12 0.43 c p3
357.94 508.56 0.43 c p3
358.09 508.56 0.43 c p3
358.23 508.56 0.43 c p3
358.38 508.77 0.43 c p3
358.52 507.47 0.43 c p3
358.67 507.47 0.43 c p3
358.81 508.56 0.43 c p3
358.96 507.47 0.43 c p3
359.11 507.25 0.43 c p3
359.25 507.90 0.43 c p3
359.40 508.12 0.43 c p3
359.54 507.69 0.43 c p3
359.69 507.69 0.43 c p3
359.83 508.77 0.43 c p3
359.98 506.82 0.43 c p3
360.13 506.60 0.43 c p3
360.27 508.12 0.43 c p3
360.42 507.90 0.43 c p3
360.56 508.77 0.43 c p3
360.71 508.77 0.43 c p3
360.85 509.39 0.43 c p3
361.00 507.25 0.43 c p3
361.14 508.34 0.43 c p3
361.29 507.69 0.43 c p3
361.44 507.69 0.43 c p3
361.58 508.34 0.43 c p3
361.73 507.03 0.43 c p3
361.87 509.21 0.43 c p3
362.02 508.34 0.43 c p3
362.16 508.34 0.43 c p3
362.31 508.56 0.43 c p3
362.45 508.77 0.43 c p3
362.60 508.12 0.43 c p3
362.75 508.34 0.43 c p3
362.89 508.77 0.43 c p3
363.04 507.03 0.43 c p3
363.18 508.56 0.43 c p3
363.33 508.99 0.43 c p3
363.47 508.99 0.43 c p3
363.62 507.47 0.43 c p3
363.76 507.25 0.43 c p3
363.91 508.56 0.43 c p3
364.06 508.34 0.43 c p3
364.20 507.25 0.43 c p3
364.35 507.69 0.43 c p3
364.49 508.34 0.43 c p3
364.64 509.21 0.43 c p3
364.78 508.56 0.43 c p3
364.93 508.56 0.43 c p3
365.08 509.82 0.43 c p3
365.22 508.99 0.43 c p3
365.37 507.69 0.43 c p3
365.51 508.12 0.43 c p3
365.66 508.12 0.43 c p3
365.80 507.90 0.43 c p3
365.95 507.47 0.43 c p3
366.09 508.34 0.43 c p3
366.24 508.99 0.43 c p3
366.39 508.77 0.43 c p3
366.53 509.39 0.43 c p3
366.68 508.99 0.43 c p3
366.82 507.69 0.43 c p3
366.97 508.12 0.43 c p3
367.11 507.25 0.43 c p3
367.26 507.47 0.43 c p3
367.40 508.12 0.43 c p3
367.55 508.12 0.43 c p3
367.70 508.56 0.43 c p3
367.84 507.69 0.43 c p3
367.99 508.99 0.43 c p3
368.13 508.77 0.43 c p3
368.28 507.25 0.43 c p3
368.42 507.69 0.43 c p3
368.57 508.56 0.43 c p3
368.71 507.47 0.43 c p3
368.86 507.90 0.43 c p3
369.01 508.34 0.43 c p3
369.15 508.34 0.43 c p3
369.30 508.12 0.43 c p3
369.44 508.12 0.43 c p3
369.59 509.82 0.43 c p3
369.73 508.77 0.43 c p3
369.88 508.12 0.43 c p3
370.03 508.34 0.43 c p3
370.17 508.99 0.43 c p3
370.32 508.12 0.43 c p3
370.46 509.21 0.43 c p3
370.61 507.90 0.43 c p3
370.75 507.90 0.43 c p3
370.90 508.12 0.43 c p3
371.04 507.03 0.43 c p3
371.19 507.47 0.43 c p3
371.34 507.47 0.43 c p3
371.48 507.47 0.43 c p3
371.63 508.34 0.43 c p3
371.77 508.34 0.43 c p3
371.92 508.12 0.43 c p3
372.06 507.47 0.43 c p3
372.21 508.34 0.43 c p3
372.35 508.99 0.43 c p3
372.50 508.12 0.43 c p3
372.65 507.69 0.43 c p3
372.79 507.90 0.43 c p3
372.94 507.90 0.43 c p3
373.08 508.99 0.43 c p3
373.23 507.90 0.43 c p3
373.37 508.99 0.43 c p3
373.52 507.90 0.43 c p3
373.66 510.26 0.43 c p3
373.81 507.25 0.43 c p3
373.96 508.34 0.43 c p3
374.10 509.82 0.43 c p3
374.25 508.34 0.43 c p3
374.39 508.34 0.43 c p3
374.54 507.69 0.43 c p3
374.68 507.03 0.43 c p3
374.83 507.69 0.43 c p3
374.98 507.90 0.43 c p3
375.12 508.34 0.43 c p3
375.27 507.03 0.43 c p3
375.41 508.12 0.43 c p3
375.56 509.39 0.43 c p3
375.70 508.12 0.43 c p3
375.85 508.77 0.43 c p3
375.99 508.77 0.43 c p3
376.14 507.03 0.43 c p3
376.29 506.82 0.43 c p3
376.43 507.90 0.43 c p3
376.58 507.69 0.43 c p3
376.72 507.47 0.43 c p3
376.87 508.34 0.43 c p3
377.01 508.34 0.43 c p3
377.16 507.90 0.43 c p3
377.30 507.90 0.43 c p3
377.45 507.69 0.43 c p3
377.60 507.47 0.43 c p3
377.74 507.69 0.43 c p3
377.89 508.56 0.43 c p3
378.03 507.69 0.43 c p3
378.18 507.25 0.43 c p3
378.32 508.56 0.43 c p3
378.47 508.34 0.43 c p3
378.61 507.03 0.43 c p3
378.76 508.12 0.43 c p3
378.91 508.56 0.43 c p3
379.05 508.34 0.43 c p3
379.20 507.90 0.43 c p3
379.34 507.90 0.43 c p3
379.49 508.77 0.43 c p3
379.63 507.47 0.43 c p3
379.78 507.90 0.43 c p3
379.93 507.90 0.43 c p3
380.07 508.34 0.43 c p3
380.22 508.34 0.43 c p3
380.36 507.25 0.43 c p3
380.51 507.47 0.43 c p3
380.65 507.90 0.43 c p3
380.80 507.03 0.43 c p3
380.94 506.82 0.43 c p3
381.09 508.77 0.43 c p3
381.24 508.34 0.43 c p3
381.38 507.69 0.43 c p3
381.53 507.90 0.43 c p3
381.67 507.25 0.43 c p3
381.82 508.34 0.43 c p3
381.96 507.69 0.43 c p3
382.11 507.47 0.43 c p3
382.25 507.25 0.43 c p3
382.40 508.34 0.43 c p3
0.00 0.00 432.00 576.00 cl
0 0 0 srgb
0.75 setlinewidth
[] 0 setdash
1 setlinecap
1 setlinejoin
10.00 setmiterlimit
np
236.96 345.60 m
128.46 0 l
o
np
236.96 345.60 m
0 -5.76 l
o
np
279.78 345.60 m
0 -5.76 l
o
np
322.60 345.60 m
0 -5.76 l
o
np
365.42 345.60 m
0 -5.76 l
o
/Font1 findfont 10 s
236.96 329.47 (0) .5 0 t
279.78 329.47 (10000) .5 0 t
322.60 329.47 (20000) .5 0 t
365.42 329.47 (30000) .5 0 t
np
216.00 352.00 m
0 148.50 l
o
np
216.00 352.00 m
-5.76 0 l
o
np
216.00 381.70 m
-5.76 0 l
o
np
216.00 411.40 m
-5.76 0 l
o
np
216.00 441.10 m
-5.76 0 l
o
np
216.00 470.80 m
-5.76 0 l
o
np
216.00 500.50 m
-5.76 0 l
o
209.09 348.41 (0.00) 1 0 t
209.09 378.11 (0.05) 1 0 t
209.09 407.81 (0.10) 1 0 t
209.09 437.51 (0.15) 1 0 t
209.09 467.21 (0.20) 1 0 t
209.09 496.91 (0.25) 1 0 t
np
216.00 345.60 m
172.80 0 l
0 172.80 l
-172.80 0 l
0 -172.80 l
o
0.00 0.00 432.00 576.00 cl
/Font1 findfont 10 s
0 0 0 srgb
302.40 313.34 (Time / ms \(total\)) .5 0 t
190.66 432.00 (U / V) .5 90 t
216.00 345.60 388.80 518.40 cl
0 0 0 srgb
0.38 setlinewidth
[ 1.13 1.88] 0 setdash
1 setlinecap
1 setlinejoin
10.00 setmiterlimit
np
222.55 345.60 m
0 172.80 l
o
np
235.21 345.60 m
0 172.80 l
o
np
239.14 345.60 m
0 172.80 l
o
np
314.99 345.60 m
0 172.80 l
o
86.40 57.60 388.80 288.00 cl
1 0 0 srgb
1.50 setlinewidth
[] 0 setdash
1 setlinecap
1 setlinejoin
10.00 setmiterlimit
np
97.60 279.47 m
1.41 -7.57 l
1.40 -7.29 l
1.41 -7.04 l
1.41 -6.78 l
1.41 -6.54 l
1.40 -6.31 l
1.41 -6.08 l
1.41 -5.86 l
1.40 -5.66 l
1.41 -5.45 l
1.41 -5.26 l
1.40 -5.07 l
1.41 -4.89 l
1.41 -4.72 l
1.41 -4.55 l
1.40 -4.38 l
1.41 -4.23 l
1.41 -4.08 l
1.40 -3.93 l
1.41 -3.79 l
1.41 -3.66 l
1.40 -3.52 l
1.41 -3.40 l
1.41 -3.28 l
1.41 -3.16 l
1.40 -3.05 l
1.41 -2.94 l
1.41 -2.84 l
1.40 -2.73 l
1.41 -2.64 l
1.41 -2.54 l
1.41 -2.45 l
1.40 -2.37 l
1.41 -2.28 l
1.41 -2.19 l
1.40 -2.12 l
1.41 -2.05 l
1.41 -1.97 l
1.40 -1.90 l
1.41 -1.83 l
1.41 -1.77 l
1.41 -1.70 l
1.40 -1.65 l
1.41 -1.58 l
1.41 -1.53 l
1.40 -1.48 l
1.41 -1.42 l
1.41 -1.37 l
1.40 -1.32 l
1.41 -1.27 l
1.41 -1.23 l
1.41 -1.19 l
1.40 -1.14 l
1.41 -1.10 l
1.41 -1.06 l
1.40 -1.03 l
1.41 -0.99 l
1.41 -0.95 l
1.41 -0.92 l
1.40 -0.88 l
1.41 -0.86 l
1.41 -0.82 l
1.40 -0.80 l
1.41 -0.76 l
1.41 -0.74 l
1.40 -0.72 l
1.41 -0.68 l
1.41 -0.66 l
1.41 -0.64 l
1.40 -0.62 l
1.41 -0.59 l
1.41 -0.58 l
1.40 -0.55 l
1.41 -0.53 l
1.41 -0.52 l
1.40 -0.49 l
1.41 -0.48 l
1.41 -0.46 l
1.41 -0.44 l
1.40 -0.43 l
1.41 -0.41 l
1.41 -0.40 l
1.40 -0.39 l
1.41 -0.37 l
1.41 -0.35 l
1.41 -0.35 l
1.40 -0.33 l
1.41 -0.32 l
1.41 -0.31 l
1.40 -0.30 l
1.41 -0.29 l
1.41 -0.27 l
1.40 -0.27 l
1.41 -0.26 l
1.41 -0.24 l
1.41 -0.24 l
1.40 -0.24 l
1.41 -0.22 l
1.41 -0.21 l
238.30 73.14 lineto
1.41 -0.20 l
1.41 -0.19 l
1.40 -0.19 l
1.41 -0.18 l
1.41 -0.17 l
1.41 -0.17 l
1.40 -0.16 l
1.41 -0.15 l
1.41 -0.15 l
1.40 -0.14 l
1.41 -0.14 l
1.41 -0.14 l
1.40 -0.13 l
1.41 -0.12 l
1.41 -0.12 l
1.41 -0.12 l
1.40 -0.11 l
1.41 -0.11 l
1.41 -0.10 l
1.40 -0.10 l
1.41 -0.10 l
1.41 -0.09 l
1.41 -0.09 l
1.40 -0.09 l
1.41 -0.08 l
1.41 -0.08 l
1.40 -0.08 l
1.41 -0.07 l
1.41 -0.07 l
1.40 -0.07 l
1.41 -0.07 l
1.41 -0.07 l
1.41 -0.06 l
1.40 -0.06 l
1.41 -0.06 l
1.41 -0.05 l
1.40 -0.06 l
1.41 -0.05 l
1.41 -0.05 l
1.40 -0.05 l
1.41 -0.04 l
1.41 -0.05 l
1.41 -0.04 l
1.40 -0.04 l
1.41 -0.04 l
1.41 -0.04 l
1.40 -0.04 l
1.41 -0.04 l
1.41 -0.03 l
1.41 -0.03 l
1.40 -0.04 l
1.41 -0.03 l
1.41 -0.03 l
1.40 -0.03 l
1.41 -0.03 l
1.41 -0.02 l
1.40 -0.03 l
1.41 -0.02 l
1.41 -0.03 l
1.41 -0.02 l
1.40 -0.02 l
1.41 -0.03 l
1.41 -0.02 l
1.40 -0.02 l
1.41 -0.02 l
1.41 -0.02 l
1.40 -0.01 l
1.41 -0.02 l
1.41 -0.02 l
1.41 -0.01 l
1.40 -0.02 l
1.41 -0.01 l
1.41 -0.02 l
1.40 -0.01 l
1.41 -0.02 l
1.41 -0.01 l
1.41 -0.01 l
1.40 -0.02 l
1.41 -0.01 l
1.41 -0.01 l
1.40 -0.01 l
1.41 -0.01 l
1.41 -0.01 l
1.40 -0.01 l
1.41 -0.01 l
1.41 -0.01 l
1.41 -0.01 l
1.40 -0.01 l
1.41 0 l
1.41 -0.01 l
1.40 -0.01 l
1.41 -0.01 l
1.41 0 l
1.40 -0.01 l
1.41 -0.01 l
1.41 0 l
1.41 -0.01 l
1.40 0 l
1.41 -0.01 l
o
0.00 0.00 432.00 576.00 cl
0 0 0 srgb
0.75 setlinewidth
[] 0 setdash
1 setlinecap
1 setlinejoin
10.00 setmiterlimit
np
97.60 57.60 m
288.24 0 l
o
np
97.60 57.60 m
0 -5.76 l
o
np
138.78 57.60 m
0 -5.76 l
o
np
179.95 57.60 m
0 -5.76 l
o
np
221.13 57.60 m
0 -5.76 l
o
np
262.31 57.60 m
0 -5.76 l
o
np
303.48 57.60 m
0 -5.76 l
o
np
344.66 57.60 m
0 -5.76 l
o
np
385.84 57.60 m
0 -5.76 l
o
/Font1 findfont 10 s
97.60 41.47 (0) .5 0 t
138.78 41.47 (5000) .5 0 t
179.95 41.47 (10000) .5 0 t
221.13 41.47 (15000) .5 0 t
262.31 41.47 (20000) .5 0 t
303.48 41.47 (25000) .5 0 t
344.66 41.47 (30000) .5 0 t
385.84 41.47 (35000) .5 0 t
np
86.40 66.13 m
0 198.08 l
o
np
86.40 66.13 m
-5.76 0 l
o
np
86.40 132.16 m
-5.76 0 l
o
np
86.40 198.19 m
-5.76 0 l
o
np
86.40 264.21 m
-5.76 0 l
o
79.49 62.54 (0.00) 1 0 t
79.49 128.57 (0.05) 1 0 t
79.49 194.60 (0.10) 1 0 t
79.49 260.62 (0.15) 1 0 t
np
86.40 57.60 m
302.40 0 l
0 230.40 l
-302.40 0 l
0 -230.40 l
o
0.00 0.00 432.00 576.00 cl
/Font1 findfont 10 s
0 0 0 srgb
237.60 13.82 (Time / ms \(after pulse\)) .5 0 t
49.54 172.80 (Absorbance A) .5 90 t
86.40 57.60 388.80 288.00 cl
/bg { 1 1 1 srgb } def
0 0 0 srgb
0.75 setlinewidth
[] 0 setdash
1 setlinecap
1 setlinejoin
10.00 setmiterlimit
102.08 270.12 0.65 c p3
102.36 273.60 0.65 c p3
102.64 270.12 0.65 c p3
102.92 266.66 0.65 c p3
103.20 263.22 0.65 c p3
103.48 259.81 0.65 c p3
103.76 258.67 0.65 c p3
104.04 249.86 0.65 c p3
104.32 252.10 0.65 c p3
104.60 256.41 0.65 c p3
104.88 254.34 0.65 c p3
105.16 246.52 0.65 c p3
105.44 250.98 0.65 c p3
105.72 245.41 0.65 c p3
106.00 238.81 0.65 c p3
106.28 239.90 0.65 c p3
106.56 243.20 0.65 c p3
106.84 242.10 0.65 c p3
107.12 237.71 0.65 c p3
107.40 239.90 0.65 c p3
107.68 237.71 0.65 c p3
107.96 237.71 0.65 c p3
108.24 229.04 0.65 c p3
108.52 231.19 0.65 c p3
108.80 226.89 0.65 c p3
109.08 223.86 0.65 c p3
109.36 223.86 0.65 c p3
109.64 222.79 0.65 c p3
109.92 219.61 0.65 c p3
110.20 223.86 0.65 c p3
110.48 219.61 0.65 c p3
110.76 216.44 0.65 c p3
111.04 219.61 0.65 c p3
111.32 215.39 0.65 c p3
111.60 211.20 0.65 c p3
111.88 210.16 0.65 c p3
112.16 214.34 0.65 c p3
112.44 209.12 0.65 c p3
112.72 210.16 0.65 c p3
113.00 207.04 0.65 c p3
113.28 206.01 0.65 c p3
113.56 208.08 0.65 c p3
113.84 203.94 0.65 c p3
114.12 200.86 0.65 c p3
114.40 203.94 0.65 c p3
114.68 198.81 0.65 c p3
114.96 203.94 0.65 c p3
115.24 198.81 0.65 c p3
115.52 194.91 0.65 c p3
115.80 190.87 0.65 c p3
116.08 197.96 0.65 c p3
116.36 192.89 0.65 c p3
116.64 192.89 0.65 c p3
116.92 193.90 0.65 c p3
117.20 189.86 0.65 c p3
117.48 190.87 0.65 c p3
117.76 189.86 0.65 c p3
118.04 195.93 0.65 c p3
118.32 189.86 0.65 c p3
118.60 189.86 0.65 c p3
118.88 180.89 0.65 c p3
119.16 186.86 0.65 c p3
119.44 185.86 0.65 c p3
119.72 183.87 0.65 c p3
120.00 182.87 0.65 c p3
120.28 180.89 0.65 c p3
120.56 182.87 0.65 c p3
120.84 178.91 0.65 c p3
121.12 177.93 0.65 c p3
121.40 179.90 0.65 c p3
121.68 174.00 0.65 c p3
121.96 174.00 0.65 c p3
122.24 174.98 0.65 c p3
122.52 174.00 0.65 c p3
122.80 172.05 0.65 c p3
123.08 175.96 0.65 c p3
123.36 167.36 0.65 c p3
123.64 173.03 0.65 c p3
123.92 168.33 0.65 c p3
124.20 166.39 0.65 c p3
124.48 170.27 0.65 c p3
124.76 171.24 0.65 c p3
125.04 164.47 0.65 c p3
125.32 166.39 0.65 c p3
125.60 164.47 0.65 c p3
125.88 158.72 0.65 c p3
126.16 161.59 0.65 c p3
126.44 163.50 0.65 c p3
126.72 160.63 0.65 c p3
127.00 155.88 0.65 c p3
127.28 158.72 0.65 c p3
127.56 155.88 0.65 c p3
127.84 158.72 0.65 c p3
128.12 155.88 0.65 c p3
128.40 154.93 0.65 c p3
128.68 152.10 0.65 c p3
128.96 154.93 0.65 c p3
129.24 154.93 0.65 c p3
129.52 154.93 0.65 c p3
129.80 155.88 0.65 c p3
130.08 152.10 0.65 c p3
130.36 154.93 0.65 c p3
130.64 150.22 0.65 c p3
130.92 151.16 0.65 c p3
131.20 150.22 0.65 c p3
131.48 148.35 0.65 c p3
131.76 148.35 0.65 c p3
132.04 145.70 0.65 c p3
132.32 148.35 0.65 c p3
132.60 148.35 0.65 c p3
132.88 146.48 0.65 c p3
133.16 149.28 0.65 c p3
133.44 142.92 0.65 c p3
133.72 143.85 0.65 c p3
134.00 142.92 0.65 c p3
134.28 145.70 0.65 c p3
134.56 143.85 0.65 c p3
134.84 145.70 0.65 c p3
135.12 140.15 0.65 c p3
135.40 141.99 0.65 c p3
135.68 141.07 0.65 c p3
135.96 144.77 0.65 c p3
136.24 137.39 0.65 c p3
136.52 140.15 0.65 c p3
136.80 141.99 0.65 c p3
137.08 139.23 0.65 c p3
137.36 140.15 0.65 c p3
137.64 136.47 0.65 c p3
137.92 141.07 0.65 c p3
138.20 135.56 0.65 c p3
138.48 134.64 0.65 c p3
138.76 134.64 0.65 c p3
139.04 131.91 0.65 c p3
139.32 134.64 0.65 c p3
139.60 132.82 0.65 c p3
139.88 129.19 0.65 c p3
140.16 132.82 0.65 c p3
140.44 132.82 0.65 c p3
140.72 136.47 0.65 c p3
141.00 128.29 0.65 c p3
141.28 132.82 0.65 c p3
141.56 132.82 0.65 c p3
141.84 131.00 0.65 c p3
142.12 134.64 0.65 c p3
142.40 125.58 0.65 c p3
142.68 127.38 0.65 c p3
142.96 132.82 0.65 c p3
143.24 127.38 0.65 c p3
143.52 126.48 0.65 c p3
143.80 124.69 0.65 c p3
144.08 127.38 0.65 c p3
144.36 127.38 0.65 c p3
144.64 122.90 0.65 c p3
144.92 125.58 0.65 c p3
145.20 131.00 0.65 c p3
145.48 127.38 0.65 c p3
145.76 126.48 0.65 c p3
146.04 127.38 0.65 c p3
146.32 122.00 0.65 c p3
146.60 124.69 0.65 c p3
146.88 125.58 0.65 c p3
147.16 124.69 0.65 c p3
147.44 119.48 0.65 c p3
147.72 121.26 0.65 c p3
148.00 124.69 0.65 c p3
148.28 120.37 0.65 c p3
148.56 122.00 0.65 c p3
148.84 120.37 0.65 c p3
149.12 121.26 0.65 c p3
149.40 120.37 0.65 c p3
149.68 122.00 0.65 c p3
149.96 119.48 0.65 c p3
150.24 122.90 0.65 c p3
150.52 122.90 0.65 c p3
150.80 116.81 0.65 c p3
151.08 122.00 0.65 c p3
151.36 119.48 0.65 c p3
151.64 119.48 0.65 c p3
151.92 119.48 0.65 c p3
152.20 117.70 0.65 c p3
152.48 122.90 0.65 c p3
152.76 117.70 0.65 c p3
153.04 120.37 0.65 c p3
153.32 118.59 0.65 c p3
153.60 117.70 0.65 c p3
153.88 113.28 0.65 c p3
154.16 122.00 0.65 c p3
154.44 116.81 0.65 c p3
154.72 118.59 0.65 c p3
155.00 117.70 0.65 c p3
155.28 118.59 0.65 c p3
155.56 116.81 0.65 c p3
155.84 116.81 0.65 c p3
156.12 115.93 0.65 c p3
156.40 113.28 0.65 c p3
156.68 115.05 0.65 c p3
156.96 115.93 0.65 c p3
157.24 118.59 0.65 c p3
157.52 118.59 0.65 c p3
157.80 117.70 0.65 c p3
158.08 115.93 0.65 c p3
158.36 114.16 0.65 c p3
158.64 117.70 0.65 c p3
158.92 115.05 0.65 c p3
159.20 115.93 0.65 c p3
159.48 115.05 0.65 c p3
159.76 118.59 0.65 c p3
160.04 116.81 0.65 c p3
160.32 111.53 0.65 c p3
160.60 110.65 0.65 c p3
160.88 113.28 0.65 c p3
161.16 115.05 0.65 c p3
161.44 113.28 0.65 c p3
161.72 115.05 0.65 c p3
162.00 114.16 0.65 c p3
162.28 114.16 0.65 c p3
162.56 113.28 0.65 c p3
162.84 108.03 0.65 c p3
163.12 111.53 0.65 c p3
163.40 112.41 0.65 c p3
163.68 115.93 0.65 c p3
163.96 113.28 0.65 c p3
164.24 111.53 0.65 c p3
164.52 111.53 0.65 c p3
164.80 113.28 0.65 c p3
165.08 115.05 0.65 c p3
165.36 110.65 0.65 c p3
165.64 111.53 0.65 c p3
165.92 107.16 0.65 c p3
166.20 106.29 0.65 c p3
166.48 111.53 0.65 c p3
166.76 107.16 0.65 c p3
167.04 108.03 0.65 c p3
167.32 110.65 0.65 c p3
167.60 107.16 0.65 c p3
167.88 104.56 0.65 c p3
168.16 110.65 0.65 c p3
168.44 105.42 0.65 c p3
168.72 104.56 0.65 c p3
169.00 109.78 0.65 c p3
169.28 105.42 0.65 c p3
169.56 108.03 0.65 c p3
169.84 106.29 0.65 c p3
170.12 108.03 0.65 c p3
170.40 108.03 0.65 c p3
170.68 108.03 0.65 c p3
170.96 104.56 0.65 c p3
171.24 108.03 0.65 c p3
171.52 105.42 0.65 c p3
171.80 104.56 0.65 c p3
172.08 99.38 0.65 c p3
172.36 102.83 0.65 c p3
172.64 105.42 0.65 c p3
172.92 103.69 0.65 c p3
173.20 109.78 0.65 c p3
173.48 102.83 0.65 c p3
173.76 107.16 0.65 c p3
174.04 104.56 0.65 c p3
174.32 101.10 0.65 c p3
174.60 106.29 0.65 c p3
174.88 104.56 0.65 c p3
175.16 102.83 0.65 c p3
175.44 99.38 0.65 c p3
175.72 105.42 0.65 c p3
176.00 107.16 0.65 c p3
176.28 103.69 0.65 c p3
176.56 97.81 0.65 c p3
176.84 101.96 0.65 c p3
177.12 101.10 0.65 c p3
177.40 101.10 0.65 c p3
177.68 104.56 0.65 c p3
177.96 106.29 0.65 c p3
178.24 102.83 0.65 c p3
178.52 101.96 0.65 c p3
178.80 103.69 0.65 c p3
179.08 98.52 0.65 c p3
179.36 96.95 0.65 c p3
179.64 101.10 0.65 c p3
179.92 101.96 0.65 c p3
180.20 101.10 0.65 c p3
180.48 98.52 0.65 c p3
180.76 99.38 0.65 c p3
181.04 96.10 0.65 c p3
181.32 101.10 0.65 c p3
181.60 101.96 0.65 c p3
181.88 97.81 0.65 c p3
182.16 97.81 0.65 c p3
182.44 100.24 0.65 c p3
182.72 101.96 0.65 c p3
183.00 99.38 0.65 c p3
183.28 98.52 0.65 c p3
183.56 98.52 0.65 c p3
183.84 99.38 0.65 c p3
184.12 96.95 0.65 c p3
184.40 96.95 0.65 c p3
184.68 98.52 0.65 c p3
184.96 95.25 0.65 c p3
185.24 99.38 0.65 c p3
185.52 91.85 0.65 c p3
185.80 96.10 0.65 c p3
186.08 91.00 0.65 c p3
186.36 92.70 0.65 c p3
186.64 91.00 0.65 c p3
186.92 96.10 0.65 c p3
187.20 91.00 0.65 c p3
187.48 97.81 0.65 c p3
187.76 88.47 0.65 c p3
188.04 94.39 0.65 c p3
188.32 91.00 0.65 c p3
188.60 87.63 0.65 c p3
188.88 92.70 0.65 c p3
189.16 95.25 0.65 c p3
189.44 92.70 0.65 c p3
189.72 92.70 0.65 c p3
190.00 96.95 0.65 c p3
190.28 85.11 0.65 c p3
190.56 94.39 0.65 c p3
190.84 90.15 0.65 c p3
191.12 91.00 0.65 c p3
191.40 91.00 0.65 c p3
191.68 88.47 0.65 c p3
191.96 89.31 0.65 c p3
192.24 85.11 0.65 c p3
192.52 90.15 0.65 c p3
192.80 87.63 0.65 c p3
193.08 88.47 0.65 c p3
193.36 90.15 0.65 c p3
193.64 90.15 0.65 c p3
193.92 93.54 0.65 c p3
194.20 87.63 0.65 c p3
194.48 85.11 0.65 c p3
194.76 92.70 0.65 c p3
195.04 88.47 0.65 c p3
195.32 87.63 0.65 c p3
195.60 84.27 0.65 c p3
195.88 88.47 0.65 c p3
196.16 91.85 0.65 c p3
196.44 88.47 0.65 c p3
196.72 89.31 0.65 c p3
197.00 91.00 0.65 c p3
197.28 85.11 0.65 c p3
197.56 85.95 0.65 c p3
197.84 84.27 0.65 c p3
198.12 89.31 0.65 c p3
198.40 85.11 0.65 c p3
198.68 88.47 0.65 c p3
198.96 86.79 0.65 c p3
199.24 90.15 0.65 c p3
199.52 85.95 0.65 c p3
199.80 86.79 0.65 c p3
200.08 83.44 0.65 c p3
200.36 80.11 0.65 c p3
200.64 87.63 0.65 c p3
200.92 84.27 0.65 c p3
201.20 87.63 0.65 c p3
201.48 86.79 0.65 c p3
201.76 79.28 0.65 c p3
202.04 84.27 0.65 c p3
202.32 79.28 0.65 c p3
202.60 83.44 0.65 c p3
202.88 82.60 0.65 c p3
203.16 80.94 0.65 c p3
203.44 80.11 0.65 c p3
203.72 82.60 0.65 c p3
204.00 86.79 0.65 c p3
204.28 85.95 0.65 c p3
204.56 79.28 0.65 c p3
204.84 84.27 0.65 c p3
205.12 80.11 0.65 c p3
205.40 80.94 0.65 c p3
205.68 76.80 0.65 c p3
205.96 80.11 0.65 c p3
206.24 83.44 0.65 c p3
206.52 80.11 0.65 c p3
206.80 84.27 0.65 c p3
207.08 81.77 0.65 c p3
207.36 80.94 0.65 c p3
207.64 80.11 0.65 c p3
207.92 80.94 0.65 c p3
208.20 81.77 0.65 c p3
208.48 78.45 0.65 c p3
208.76 77.62 0.65 c p3
209.04 75.28 0.65 c p3
209.32 77.62 0.65 c p3
209.60 76.80 0.65 c p3
209.88 77.62 0.65 c p3
210.16 77.62 0.65 c p3
210.44 79.28 0.65 c p3
210.72 77.62 0.65 c p3
211.00 76.80 0.65 c p3
211.28 75.97 0.65 c p3
211.56 79.28 0.65 c p3
211.84 77.62 0.65 c p3
212.12 76.80 0.65 c p3
212.40 78.45 0.65 c p3
212.68 78.45 0.65 c p3
212.96 75.28 0.65 c p3
213.24 75.97 0.65 c p3
213.52 82.60 0.65 c p3
213.80 81.77 0.65 c p3
214.08 77.62 0.65 c p3
214.36 77.62 0.65 c p3
214.64 75.97 0.65 c p3
214.92 74.46 0.65 c p3
215.20 75.97 0.65 c p3
215.48 74.46 0.65 c p3
215.76 75.28 0.65 c p3
216.04 75.97 0.65 c p3
216.32 75.97 0.65 c p3
216.60 73.64 0.65 c p3
216.88 77.62 0.65 c p3
217.16 69.55 0.65 c p3
217.44 72.00 0.65 c p3
217.72 79.28 0.65 c p3
218.00 75.28 0.65 c p3
218.28 75.28 0.65 c p3
218.56 72.82 0.65 c p3
218.84 75.28 0.65 c p3
219.12 73.64 0.65 c p3
219.40 69.55 0.65 c p3
219.68 72.00 0.65 c p3
219.96 75.97 0.65 c p3
220.24 73.64 0.65 c p3
220.52 70.37 0.65 c p3
220.80 75.28 0.65 c p3
221.08 72.82 0.65 c p3
221.36 74.46 0.65 c p3
221.64 75.97 0.65 c p3
221.92 71.18 0.65 c p3
222.20 72.82 0.65 c p3
222.48 75.28 0.65 c p3
222.76 71.18 0.65 c p3
223.04 72.00 0.65 c p3
223.32 71.18 0.65 c p3
223.60 74.46 0.65 c p3
223.88 70.37 0.65 c p3
224.16 74.46 0.65 c p3
224.44 72.82 0.65 c p3
224.72 72.82 0.65 c p3
225.00 72.00 0.65 c p3
225.28 73.64 0.65 c p3
225.56 75.97 0.65 c p3
225.84 70.37 0.65 c p3
226.12 71.18 0.65 c p3
226.40 70.37 0.65 c p3
226.68 68.73 0.65 c p3
226.96 67.92 0.65 c p3
227.24 71.18 0.65 c p3
227.52 69.55 0.65 c p3
227.80 67.92 0.65 c p3
228.08 80.94 0.65 c p3
228.36 81.77 0.65 c p3
228.64 75.28 0.65 c p3
228.92 74.46 0.65 c p3
229.20 72.00 0.65 c p3
229.48 68.73 0.65 c p3
229.76 68.73 0.65 c p3
230.04 75.28 0.65 c p3
230.32 74.46 0.65 c p3
230.60 69.55 0.65 c p3
230.88 72.00 0.65 c p3
231.16 73.64 0.65 c p3
231.44 67.92 0.65 c p3
231.72 70.37 0.65 c p3
232.00 70.37 0.65 c p3
232.28 74.46 0.65 c p3
232.56 69.55 0.65 c p3
232.84 71.18 0.65 c p3
233.12 68.73 0.65 c p3
233.40 69.55 0.65 c p3
233.68 68.73 0.65 c p3
233.96 63.87 0.65 c p3
234.24 67.11 0.65 c p3
234.52 67.11 0.65 c p3
234.80 67.92 0.65 c p3
235.08 67.11 0.65 c p3
235.36 67.92 0.65 c p3
235.64 70.37 0.65 c p3
235.92 68.73 0.65 c p3
236.20 67.11 0.65 c p3
236.48 72.00 0.65 c p3
236.76 70.37 0.65 c p3
237.04 66.30 0.65 c p3
237.32 67.92 0.65 c p3
237.60 72.00 0.65 c p3
237.88 68.73 0.65 c p3
238.16 67.11 0.65 c p3
238.44 67.92 0.65 c p3
238.72 64.68 0.65 c p3
239.00 62.26 0.65 c p3
239.28 65.49 0.65 c p3
239.56 68.73 0.65 c p3
239.84 68.73 0.65 c p3
240.12 67.92 0.65 c p3
240.40 67.11 0.65 c p3
240.68 66.30 0.65 c p3
240.96 64.68 0.65 c p3
241.24 70.37 0.65 c p3
241.52 70.37 0.65 c p3
241.80 65.49 0.65 c p3
242.08 67.11 0.65 c p3
242.36 65.49 0.65 c p3
242.64 59.85 0.65 c p3
242.92 67.11 0.65 c p3
243.20 69.55 0.65 c p3
243.48 66.30 0.65 c p3
243.76 63.07 0.65 c p3
244.04 63.07 0.65 c p3
244.32 67.92 0.65 c p3
244.60 62.26 0.65 c p3
244.88 63.87 0.65 c p3
245.16 69.55 0.65 c p3
245.44 67.92 0.65 c p3
245.72 69.55 0.65 c p3
246.00 67.11 0.65 c p3
246.28 69.55 0.65 c p3
246.56 65.49 0.65 c p3
246.84 67.11 0.65 c p3
247.12 65.49 0.65 c p3
247.40 63.87 0.65 c p3
247.68 67.92 0.65 c p3
247.96 67.92 0.65 c p3
216.00 201.60 367.20 247.68 cl
0 0 0 srgb
0.75 setlinewidth
[] 0 setdash
1 setlinecap
1 setlinejoin
10.00 setmiterlimit
221.60 235.17 0.43 c p1
221.87 238.86 0.43 c p1
222.14 237.24 0.43 c p1
222.41 235.62 0.43 c p1
222.67 234.02 0.43 c p1
222.94 232.42 0.43 c p1
223.21 232.56 0.43 c p1
223.48 226.83 0.43 c p1
223.75 229.52 0.43 c p1
224.02 233.79 0.43 c p1
224.29 233.19 0.43 c p1
224.56 228.19 0.43 c p1
224.82 232.54 0.43 c p1
225.09 229.25 0.43 c p1
225.36 225.16 0.43 c p1
225.63 226.93 0.43 c p1
225.90 230.38 0.43 c p1
226.17 230.46 0.43 c p1
226.44 228.03 0.43 c p1
226.71 230.61 0.43 c p1
226.97 229.85 0.43 c p1
227.24 230.74 0.43 c p1
227.51 225.02 0.43 c p1
227.78 227.55 0.43 c p1
228.05 225.14 0.43 c p1
228.32 223.71 0.43 c p1
228.59 224.57 0.43 c p1
228.86 224.62 0.43 c p1
229.12 223.04 0.43 c p1
229.39 227.13 0.43 c p1
229.66 224.73 0.43 c p1
229.93 223.15 0.43 c p1
230.20 226.40 0.43 c p1
230.47 224.00 0.43 c p1
230.74 221.62 0.43 c p1
231.00 221.64 0.43 c p1
231.27 225.63 0.43 c p1
231.54 222.45 0.43 c p1
231.81 224.04 0.43 c p1
232.08 222.45 0.43 c p1
232.35 222.44 0.43 c p1
232.62 224.80 0.43 c p1
232.89 222.42 0.43 c p1
233.15 220.83 0.43 c p1
233.42 223.94 0.43 c p1
233.69 220.79 0.43 c p1
233.96 225.45 0.43 c p1
234.23 222.28 0.43 c p1
234.50 220.04 0.43 c p1
234.77 217.69 0.43 c p1
235.04 223.83 0.43 c p1
235.30 220.68 0.43 c p1
235.57 221.40 0.43 c p1
235.84 222.88 0.43 c p1
236.11 220.51 0.43 c p1
236.38 221.98 0.43 c p1
236.65 221.91 0.43 c p1
236.92 227.23 0.43 c p1
237.19 223.29 0.43 c p1
237.45 223.97 0.43 c p1
237.72 217.80 0.43 c p1
237.99 223.03 0.43 c p1
238.26 222.93 0.43 c p1
238.53 222.08 0.43 c p1
238.80 221.98 0.43 c p1
239.07 221.12 0.43 c p1
239.34 223.28 0.43 c p1
239.60 220.90 0.43 c p1
239.87 220.79 0.43 c p1
240.14 222.93 0.43 c p1
240.41 219.06 0.43 c p1
240.68 219.69 0.43 c p1
240.95 221.05 0.43 c p1
241.22 220.92 0.43 c p1
241.48 220.05 0.43 c p1
241.75 223.64 0.43 c p1
242.02 217.68 0.43 c p1
242.29 222.60 0.43 c p1
242.56 219.61 0.43 c p1
242.83 218.73 0.43 c p1
243.10 222.27 0.43 c p1
243.37 223.59 0.43 c p1
243.63 219.00 0.43 c p1
243.90 221.04 0.43 c p1
244.17 220.14 0.43 c p1
244.44 216.33 0.43 c p1
244.71 219.08 0.43 c p1
244.98 221.09 0.43 c p1
245.25 219.46 0.43 c p1
245.52 216.38 0.43 c p1
245.78 219.09 0.43 c p1
246.05 217.46 0.43 c p1
246.32 220.17 0.43 c p1
246.59 218.53 0.43 c p1
246.86 218.34 0.43 c p1
247.13 216.71 0.43 c p1
247.40 219.39 0.43 c p1
247.67 219.91 0.43 c p1
247.93 220.42 0.43 c p1
248.20 221.65 0.43 c p1
248.47 219.28 0.43 c p1
248.74 221.94 0.43 c p1
249.01 218.85 0.43 c p1
249.28 220.06 0.43 c p1
249.55 219.84 0.43 c p1
249.81 218.90 0.43 c p1
250.08 219.39 0.43 c p1
250.35 217.85 0.43 c p1
250.62 220.35 0.43 c p1
250.89 220.82 0.43 c p1
251.16 219.87 0.43 c p1
251.43 222.47 0.43 c p1
251.70 218.08 0.43 c p1
251.96 219.25 0.43 c p1
252.23 219.00 0.43 c p1
252.50 221.58 0.43 c p1
252.77 220.62 0.43 c p1
253.04 222.48 0.43 c p1
253.31 218.69 0.43 c p1
253.58 220.54 0.43 c p1
253.85 220.27 0.43 c p1
254.11 223.54 0.43 c p1
254.38 218.33 0.43 c p1
254.65 220.87 0.43 c p1
254.92 222.70 0.43 c p1
255.19 221.02 0.43 c p1
255.46 222.14 0.43 c p1
255.73 219.75 0.43 c p1
256.00 223.67 0.43 c p1
256.26 219.88 0.43 c p1
256.53 219.59 0.43 c p1
256.80 219.99 0.43 c p1
257.07 218.31 0.43 c p1
257.34 220.80 0.43 c p1
257.61 219.80 0.43 c p1
257.88 217.43 0.43 c p1
258.15 220.59 0.43 c p1
258.41 220.97 0.43 c p1
258.68 224.15 0.43 c p1
258.95 218.29 0.43 c p1
259.22 222.12 0.43 c p1
259.49 222.50 0.43 c p1
259.76 221.49 0.43 c p1
260.03 224.63 0.43 c p1
260.29 218.10 0.43 c p1
260.56 219.84 0.43 c p1
260.83 224.34 0.43 c p1
261.10 220.56 0.43 c p1
261.37 220.23 0.43 c p1
261.64 219.22 0.43 c p1
261.91 221.63 0.43 c p1
262.18 221.98 0.43 c p1
262.44 218.90 0.43 c p1
262.71 221.30 0.43 c p1
262.98 225.77 0.43 c p1
263.25 223.35 0.43 c p1
263.52 223.00 0.43 c p1
263.79 224.03 0.43 c p1
264.06 220.25 0.43 c p1
264.33 222.63 0.43 c p1
264.59 223.65 0.43 c p1
264.86 223.29 0.43 c p1
265.13 219.64 0.43 c p1
265.40 221.32 0.43 c p1
265.67 224.25 0.43 c p1
265.94 221.28 0.43 c p1
266.21 222.84 0.43 c p1
266.48 221.90 0.43 c p1
266.74 222.89 0.43 c p1
267.01 222.52 0.43 c p1
267.28 224.07 0.43 c p1
267.55 222.45 0.43 c p1
267.82 225.36 0.43 c p1
268.09 225.66 0.43 c p1
268.36 221.32 0.43 c p1
268.62 225.57 0.43 c p1
268.89 223.94 0.43 c p1
269.16 224.23 0.43 c p1
269.43 224.51 0.43 c p1
269.70 223.45 0.43 c p1
269.97 227.69 0.43 c p1
270.24 224.01 0.43 c p1
270.51 226.33 0.43 c p1
270.77 225.25 0.43 c p1
271.04 224.85 0.43 c p1
271.31 221.75 0.43 c p1
271.58 228.67 0.43 c p1
271.85 224.99 0.43 c p1
272.12 226.61 0.43 c p1
272.39 226.20 0.43 c p1
272.66 227.14 0.43 c p1
272.92 226.05 0.43 c p1
273.19 226.31 0.43 c p1
273.46 225.89 0.43 c p1
273.73 224.13 0.43 c p1
274.00 225.73 0.43 c p1
274.27 226.66 0.43 c p1
274.54 228.94 0.43 c p1
274.81 229.19 0.43 c p1
275.07 228.76 0.43 c p1
275.34 227.65 0.43 c p1
275.61 226.55 0.43 c p1
275.88 229.49 0.43 c p1
276.15 227.71 0.43 c p1
276.42 228.62 0.43 c p1
276.69 228.19 0.43 c p1
276.96 231.12 0.43 c p1
277.22 230.00 0.43 c p1
277.49 226.20 0.43 c p1
277.76 225.77 0.43 c p1
278.03 228.00 0.43 c p1
278.30 229.57 0.43 c p1
278.57 228.45 0.43 c p1
278.84 230.02 0.43 c p1
279.10 229.57 0.43 c p1
279.37 229.79 0.43 c p1
279.64 229.34 0.43 c p1
279.91 225.55 0.43 c p1
280.18 228.43 0.43 c p1
280.45 229.32 0.43 c p1
280.72 232.22 0.43 c p1
280.99 230.41 0.43 c p1
281.25 229.28 0.43 c p1
281.52 229.49 0.43 c p1
281.79 231.04 0.43 c p1
282.06 232.59 0.43 c p1
282.33 229.44 0.43 c p1
282.60 230.31 0.43 c p1
282.87 227.18 0.43 c p1
283.14 226.71 0.43 c p1
283.40 230.91 0.43 c p1
283.67 227.77 0.43 c p1
283.94 228.63 0.43 c p1
284.21 230.83 0.43 c p1
284.48 228.35 0.43 c p1
284.75 226.56 0.43 c p1
285.02 231.40 0.43 c p1
285.29 227.60 0.43 c p1
285.55 227.12 0.43 c p1
285.82 231.29 0.43 c p1
286.09 228.15 0.43 c p1
286.36 230.33 0.43 c p1
286.63 229.18 0.43 c p1
286.90 230.69 0.43 c p1
287.17 230.87 0.43 c p1
287.43 231.04 0.43 c p1
287.70 228.57 0.43 c p1
287.97 231.40 0.43 c p1
288.24 229.58 0.43 c p1
288.51 229.09 0.43 c p1
288.78 225.32 0.43 c p1
289.05 228.11 0.43 c p1
289.32 230.26 0.43 c p1
289.58 229.11 0.43 c p1
289.85 233.92 0.43 c p1
290.12 228.78 0.43 c p1
290.39 232.25 0.43 c p1
290.66 230.43 0.43 c p1
290.93 227.95 0.43 c p1
291.20 232.07 0.43 c p1
291.47 230.91 0.43 c p1
291.73 229.75 0.43 c p1
292.00 227.28 0.43 c p1
292.27 232.04 0.43 c p1
292.54 233.52 0.43 c p1
292.81 231.03 0.43 c p1
293.08 226.70 0.43 c p1
293.35 230.02 0.43 c p1
293.62 229.51 0.43 c p1
293.88 229.66 0.43 c p1
294.15 232.44 0.43 c p1
294.42 233.91 0.43 c p1
294.69 231.42 0.43 c p1
294.96 230.90 0.43 c p1
295.23 232.36 0.43 c p1
295.50 228.57 0.43 c p1
295.77 227.51 0.43 c p1
296.03 230.81 0.43 c p1
296.30 231.61 0.43 c p1
296.57 231.09 0.43 c p1
296.84 229.27 0.43 c p1
297.11 230.06 0.43 c p1
297.38 227.69 0.43 c p1
297.65 231.64 0.43 c p1
297.91 232.43 0.43 c p1
298.18 229.40 0.43 c p1
298.45 229.53 0.43 c p1
298.72 231.51 0.43 c p1
298.99 232.96 0.43 c p1
299.26 231.12 0.43 c p1
299.53 230.59 0.43 c p1
299.80 230.72 0.43 c p1
300.06 231.50 0.43 c p1
300.33 229.77 0.43 c p1
300.60 229.90 0.43 c p1
300.87 231.22 0.43 c p1
301.14 228.84 0.43 c p1
301.41 232.12 0.43 c p1
301.68 226.49 0.43 c p1
301.95 229.86 0.43 c p1
302.21 226.09 0.43 c p1
302.48 227.50 0.43 c p1
302.75 226.32 0.43 c p1
303.02 230.33 0.43 c p1
303.29 226.56 0.43 c p1
303.56 231.86 0.43 c p1
303.83 224.85 0.43 c p1
304.10 229.49 0.43 c p1
304.36 227.01 0.43 c p1
304.63 224.55 0.43 c p1
304.90 228.53 0.43 c p1
305.17 230.58 0.43 c p1
305.44 228.75 0.43 c p1
305.71 228.86 0.43 c p1
305.98 232.21 0.43 c p1
306.24 223.28 0.43 c p1
306.51 230.47 0.43 c p1
306.78 227.34 0.43 c p1
307.05 228.09 0.43 c p1
307.32 228.20 0.43 c p1
307.59 226.37 0.43 c p1
307.86 227.12 0.43 c p1
308.13 224.01 0.43 c p1
308.39 227.96 0.43 c p1
308.66 226.13 0.43 c p1
308.93 226.88 0.43 c p1
309.20 228.26 0.43 c p1
309.47 228.36 0.43 c p1
309.74 231.04 0.43 c p1
310.01 226.63 0.43 c p1
310.28 224.80 0.43 c p1
310.54 230.68 0.43 c p1
310.81 227.55 0.43 c p1
311.08 227.01 0.43 c p1
311.35 224.54 0.43 c p1
311.62 227.83 0.43 c p1
311.89 230.50 0.43 c p1
312.16 228.02 0.43 c p1
312.43 228.75 0.43 c p1
312.69 230.13 0.43 c p1
312.96 225.72 0.43 c p1
313.23 226.45 0.43 c p1
313.50 225.26 0.43 c p1
313.77 229.19 0.43 c p1
314.04 226.08 0.43 c p1
314.31 228.72 0.43 c p1
314.58 227.53 0.43 c p1
314.84 230.18 0.43 c p1
315.11 227.05 0.43 c p1
315.38 227.78 0.43 c p1
315.65 225.31 0.43 c p1
315.92 222.85 0.43 c p1
316.19 228.67 0.43 c p1
316.46 226.19 0.43 c p1
316.72 228.83 0.43 c p1
316.99 228.27 0.43 c p1
317.26 222.62 0.43 c p1
317.53 226.51 0.43 c p1
317.80 222.78 0.43 c p1
318.07 226.03 0.43 c p1
318.34 225.47 0.43 c p1
318.61 224.28 0.43 c p1
318.87 223.72 0.43 c p1
319.14 225.70 0.43 c p1
319.41 228.96 0.43 c p1
319.68 228.40 0.43 c p1
319.95 223.39 0.43 c p1
320.22 227.27 0.43 c p1
320.49 224.17 0.43 c p1
320.76 224.87 0.43 c p1
321.02 221.79 0.43 c p1
321.29 224.38 0.43 c p1
321.56 226.99 0.43 c p1
321.83 224.52 0.43 c p1
322.10 227.77 0.43 c p1
322.37 225.93 0.43 c p1
322.64 225.36 0.43 c p1
322.91 224.80 0.43 c p1
323.17 225.50 0.43 c p1
323.44 226.20 0.43 c p1
323.71 223.74 0.43 c p1
323.98 223.17 0.43 c p1
324.25 221.46 0.43 c p1
324.52 223.30 0.43 c p1
324.79 222.74 0.43 c p1
325.05 223.43 0.43 c p1
325.32 223.50 0.43 c p1
325.59 224.82 0.43 c p1
325.86 223.62 0.43 c p1
326.13 223.06 0.43 c p1
326.40 222.49 0.43 c p1
326.67 225.07 0.43 c p1
326.94 223.87 0.43 c p1
327.20 223.30 0.43 c p1
327.47 224.62 0.43 c p1
327.74 224.68 0.43 c p1
328.01 222.33 0.43 c p1
328.28 222.91 0.43 c p1
328.55 228.03 0.43 c p1
328.82 227.45 0.43 c p1
329.09 224.35 0.43 c p1
329.35 224.40 0.43 c p1
329.62 223.20 0.43 c p1
329.89 222.11 0.43 c p1
330.16 223.31 0.43 c p1
330.43 222.22 0.43 c p1
330.70 222.90 0.43 c p1
330.97 223.48 0.43 c p1
331.24 223.54 0.43 c p1
331.50 221.81 0.43 c p1
331.77 224.90 0.43 c p1
332.04 218.80 0.43 c p1
332.31 220.72 0.43 c p1
332.58 226.32 0.43 c p1
332.85 223.33 0.43 c p1
333.12 223.38 0.43 c p1
333.39 221.56 0.43 c p1
333.65 223.49 0.43 c p1
333.92 222.28 0.43 c p1
334.19 219.22 0.43 c p1
334.46 221.13 0.43 c p1
334.73 224.21 0.43 c p1
335.00 222.48 0.43 c p1
335.27 220.04 0.43 c p1
335.53 223.84 0.43 c p1
335.80 222.01 0.43 c p1
336.07 223.30 0.43 c p1
336.34 224.50 0.43 c p1
336.61 220.90 0.43 c p1
336.88 222.20 0.43 c p1
337.15 224.12 0.43 c p1
337.42 221.04 0.43 c p1
337.68 221.71 0.43 c p1
337.95 221.13 0.43 c p1
338.22 223.68 0.43 c p1
338.49 220.60 0.43 c p1
338.76 223.77 0.43 c p1
339.03 222.56 0.43 c p1
339.30 222.60 0.43 c p1
339.57 222.02 0.43 c p1
339.83 223.31 0.43 c p1
340.10 225.13 0.43 c p1
340.37 220.90 0.43 c p1
340.64 221.57 0.43 c p1
340.91 220.99 0.43 c p1
341.18 219.79 0.43 c p1
341.45 219.21 0.43 c p1
341.72 221.74 0.43 c p1
341.98 220.53 0.43 c p1
342.25 219.33 0.43 c p1
342.52 229.30 0.43 c p1
342.79 229.97 0.43 c p1
343.06 225.06 0.43 c p1
343.33 224.48 0.43 c p1
343.60 222.64 0.43 c p1
343.86 220.19 0.43 c p1
344.13 220.23 0.43 c p1
344.40 225.26 0.43 c p1
344.67 224.67 0.43 c p1
344.94 220.96 0.43 c p1
345.21 222.87 0.43 c p1
345.48 224.16 0.43 c p1
345.75 219.83 0.43 c p1
346.01 221.73 0.43 c p1
346.28 221.77 0.43 c p1
346.55 224.93 0.43 c p1
346.82 221.22 0.43 c p1
347.09 222.50 0.43 c p1
347.36 220.67 0.43 c p1
347.63 221.33 0.43 c p1
347.90 220.74 0.43 c p1
348.16 217.07 0.43 c p1
348.43 219.57 0.43 c p1
348.70 219.60 0.43 c p1
348.97 220.26 0.43 c p1
349.24 219.67 0.43 c p1
349.51 220.32 0.43 c p1
349.78 222.22 0.43 c p1
350.05 221.01 0.43 c p1
350.31 219.80 0.43 c p1
350.58 223.56 0.43 c p1
350.85 222.35 0.43 c p1
351.12 219.28 0.43 c p1
351.39 220.55 0.43 c p1
351.66 223.69 0.43 c p1
351.93 221.23 0.43 c p1
352.20 220.03 0.43 c p1
352.46 220.67 0.43 c p1
352.73 218.23 0.43 c p1
353.00 216.42 0.43 c p1
353.27 218.91 0.43 c p1
353.54 221.42 0.43 c p1
353.81 221.45 0.43 c p1
354.08 220.86 0.43 c p1
354.34 220.27 0.43 c p1
354.61 219.68 0.43 c p1
354.88 218.47 0.43 c p1
355.15 222.84 0.43 c p1
355.42 222.86 0.43 c p1
355.69 219.17 0.43 c p1
355.96 220.44 0.43 c p1
356.23 219.23 0.43 c p1
356.49 214.96 0.43 c p1
356.76 220.52 0.43 c p1
357.03 222.41 0.43 c p1
357.30 219.96 0.43 c p1
357.57 217.52 0.43 c p1
357.84 217.54 0.43 c p1
358.11 221.27 0.43 c p1
358.38 216.98 0.43 c p1
358.64 218.24 0.43 c p1
358.91 222.59 0.43 c p1
359.18 221.38 0.43 c p1
359.45 222.65 0.43 c p1
359.72 220.81 0.43 c p1
359.99 222.70 0.43 c p1
360.26 219.62 0.43 c p1
360.53 220.89 0.43 c p1
360.79 219.67 0.43 c p1
361.06 218.47 0.43 c p1
361.33 221.58 0.43 c p1
361.60 221.60 0.43 c p1
0.00 0.00 432.00 576.00 cl
0 0 0 srgb
0.75 setlinewidth
[] 0 setdash
1 setlinecap
1 setlinejoin
10.00 setmiterlimit
np
217.30 201.60 m
118.55 0 l
o
np
217.30 201.60 m
0 -5.76 l
o
np
256.82 201.60 m
0 -5.76 l
o
np
296.33 201.60 m
0 -5.76 l
o
np
335.85 201.60 m
0 -5.76 l
o
/Font1 findfont 6 s
217.30 185.47 (0) .5 0 t
256.82 185.47 (5000) .5 0 t
296.33 185.47 (10000) .5 0 t
335.85 185.47 (15000) .5 0 t
np
216.00 204.50 m
0 40.28 l
o
np
216.00 204.50 m
-5.76 0 l
o
np
216.00 214.57 m
-5.76 0 l
o
np
216.00 224.64 m
-5.76 0 l
o
np
216.00 234.71 m
-5.76 0 l
o
np
216.00 244.78 m
-5.76 0 l
o
209.09 202.34 (-0.02) 1 0 t
209.09 212.41 (-0.01) 1 0 t
209.09 222.49 (0.00) 1 0 t
209.09 232.56 (0.01) 1 0 t
209.09 242.63 (0.02) 1 0 t
np
216.00 201.60 m
151.20 0 l
0 46.08 l
-151.20 0 l
0 -46.08 l
o
0.00 0.00 432.00 576.00 cl
/Font1 findfont 9 s
0 0 0 srgb
291.60 262.88 (Residuals) .5 0 t
59.04 73.44 401.76 516.96 cl
ep
%%Trailer
%%Pages: 1
%%EOF
