%!PS-Adobe-3.0 EPSF-3.0
%%DocumentNeededResources: font Helvetica
%%+ font Helvetica-Bold
%%+ font Helvetica-Oblique
%%+ font Helvetica-BoldOblique
%%+ font Symbol
%%Title: R Graphics Output
%%Creator: R Software
%%Pages: (atend)
%%BoundingBox: 0 0 432 576
%%EndComments
%%BeginProlog
/bp  { gs sRGB gs } def
% begin .ps.prolog
/gs  { gsave } bind def
/gr  { grestore } bind def
/ep  { showpage gr gr } bind def
/m   { moveto } bind def
/l  { rlineto } bind def
/np  { newpath } bind def
/cp  { closepath } bind def
/f   { fill } bind def
/o   { stroke } bind def
/c   { newpath 0 360 arc } bind def
/r   { 4 2 roll moveto 1 copy 3 -1 roll exch 0 exch rlineto 0 rlineto -1 mul 0 exch rlineto closepath } bind def
/p1  { stroke } bind def
/p2  { gsave bg fill grestore newpath } bind def
/p3  { gsave bg fill grestore stroke } bind def
/p6  { gsave bg eofill grestore newpath } bind def
/p7  { gsave bg eofill grestore stroke } bind def
/t   { 5 -2 roll moveto gsave rotate
       1 index stringwidth pop
       mul neg 0 rmoveto show grestore } bind def
/ta  { 4 -2 roll moveto gsave rotate show } bind def
/tb  { 2 -1 roll 0 rmoveto show } bind def
/cl  { grestore gsave newpath 3 index 3 index moveto 1 index
       4 -1 roll lineto  exch 1 index lineto lineto
       closepath clip newpath } bind def
/rgb { setrgbcolor } bind def
/s   { scalefont setfont } bind def
% end   .ps.prolog
/sRGB { [ /CIEBasedABC
          << /DecodeLMN
               [ { dup 0.03928 le
                        {12.92321 div}
                        {0.055 add 1.055 div 2.4 exp }
                     ifelse
                 } bind dup dup
               ]
             /MatrixLMN [0.412457 0.212673 0.019334
                         0.357576 0.715152 0.119192
                         0.180437 0.072175 0.950301]
             /WhitePoint [0.9505 1.0 1.0890]
           >>
         ] setcolorspace } bind def
/srgb { setcolor } bind def
% begin encoding
/WinAnsiEncoding [
 /.notdef /.notdef /.notdef /.notdef /.notdef /.notdef /.notdef /.notdef
 /.notdef /.notdef /.notdef /.notdef /.notdef /.notdef /.notdef /.notdef
 /.notdef /.notdef /.notdef /.notdef /.notdef /.notdef /.notdef /.notdef
 /.notdef /.notdef /.notdef /.notdef /.notdef /.notdef /.notdef /.notdef
 /space /exclam /quotedbl /numbersign /dollar /percent /ampersand /quoteright
 /parenleft /parenright /asterisk /plus /comma /minus /period /slash
 /zero /one /two /three /four /five /six /seven
 /eight /nine /colon /semicolon /less /equal /greater /question
 /at /A /B /C /D /E /F /G
 /H /I /J /K /L /M /N /O
 /P /Q /R /S /T /U /V /W
 /X /Y /Z /bracketleft /backslash /bracketright /asciicircum /underscore
 /grave /a /b /c /d /e /f /g
 /h /i /j /k /l /m /n /o
 /p /q /r /s /t /u /v /w
 /x /y /z /braceleft /bar /braceright /asciitilde /.notdef
 /Euro /.notdef /quotesinglbase /florin /quotedblbase /ellipsis /dagger /daggerdbl
 /circumflex /perthousand /Scaron /guilsinglleft /OE /.notdef /Zcaron /.notdef
 /.notdef /quoteleft /quoteright /quotedblleft /quotedblright /bullet /endash /emdash
 /tilde /trademark /scaron /guilsinglright /oe /.notdef /zcaron /Ydieresis
 /space /exclamdown /cent /sterling /currency /yen /brokenbar /section
 /dieresis /copyright /ordfeminine /guillemotleft /logicalnot /hyphen /registered /macron
 /degree /plusminus /twosuperior /threesuperior /acute /mu /paragraph /periodcentered
 /cedilla /onesuperior /ordmasculine /guillemotright /onequarter /onehalf /threequarters /questiondown
 /Agrave /Aacute /Acircumflex /Atilde /Adieresis /Aring /AE /Ccedilla
 /Egrave /Eacute /Ecircumflex /Edieresis /Igrave /Iacute /Icircumflex /Idieresis
 /Eth /Ntilde /Ograve /Oacute /Ocircumflex /Otilde /Odieresis /multiply
 /Oslash /Ugrave /Uacute /Ucircumflex /Udieresis /Yacute /Thorn /germandbls
 /agrave /aacute /acircumflex /atilde /adieresis /aring /ae /ccedilla
 /egrave /eacute /ecircumflex /edieresis /igrave /iacute /icircumflex /idieresis
 /eth /ntilde /ograve /oacute /ocircumflex /otilde /odieresis /divide
 /oslash /ugrave /uacute /ucircumflex /udieresis /yacute /thorn /ydieresis
]
 def
% end encoding
%%IncludeResource: font Helvetica
/Helvetica findfont
dup length dict begin
  {1 index /FID ne {def} {pop pop} ifelse} forall
  /Encoding WinAnsiEncoding def
  currentdict
  end
/Font1 exch definefont pop
%%IncludeResource: font Helvetica-Bold
/Helvetica-Bold findfont
dup length dict begin
  {1 index /FID ne {def} {pop pop} ifelse} forall
  /Encoding WinAnsiEncoding def
  currentdict
  end
/Font2 exch definefont pop
%%IncludeResource: font Helvetica-Oblique
/Helvetica-Oblique findfont
dup length dict begin
  {1 index /FID ne {def} {pop pop} ifelse} forall
  /Encoding WinAnsiEncoding def
  currentdict
  end
/Font3 exch definefont pop
%%IncludeResource: font Helvetica-BoldOblique
/Helvetica-BoldOblique findfont
dup length dict begin
  {1 index /FID ne {def} {pop pop} ifelse} forall
  /Encoding WinAnsiEncoding def
  currentdict
  end
/Font4 exch definefont pop
%%IncludeResource: font Symbol
/Symbol findfont
dup length dict begin
  {1 index /FID ne {def} {pop pop} ifelse} forall
  currentdict
  end
/Font5 exch definefont pop
%%EndProlog
%%Page: 1 1
bp
/bg { 1 1 1 srgb } def
0.00 0.00 432.00 576.00 r p2
0.00 0.00 432.00 576.00 cl
0.00 0.00 432.00 576.00 cl
0.00 0.00 432.00 576.00 cl
/Font1 findfont 12 s
0 0 0 srgb
48.00 508.72 (PCP-ETH) 0 0 t
48.00 494.89 (Flash light photolysis) 0 0 t
/Font1 findfont 9 s
48.00 457.54 (File: Solv) 0 ta
-0.225 (ent_debendence_sol2_3_MSLM.dat) tb gr
48.00 334.87 (Sat Mar 05 15:12:30 2022) 0 0 t
48.00 430.87 (Fit function:  a + b * e) 0 ta
-0.270 (xp\(-c * t\)) tb gr
48.00 420.50 (t-Inter) 0 ta
0.270 (v) tb
-0.225 (all: 144.000 ... 7284.000 ms) tb gr
48.00 410.14 (P) 0 ta
-0.360 (ar) tb
-0.090 (ameters \(Standard de) tb
-0.270 (viation\):) tb gr
48.00 399.77 (  a = -0.02125 \(0.00048\)) 0 0 t
48.00 389.40 (  b = 0.33226 \(0.00050\)) 0 0 t
48.00 379.03 (  c = 4.015e-01 \(1.930e-03\) s^-1) 0 0 t
48.00 368.66 (  tau = 2.491e+00 \(1.197e-02\) s) 0 0 t
216.00 345.60 388.80 518.40 cl
0 0 0 srgb
0.75 setlinewidth
[] 0 setdash
1 setlinecap
1 setlinejoin
10.00 setmiterlimit
np
222.40 501.92 m
0.15 0.84 l
0.14 -0.84 l
0.15 -0.64 l
0.14 0.64 l
0.15 0 l
0.14 -0.22 l
0.15 1.70 l
0.14 -1.70 l
0.15 0 l
0.15 0.64 l
0.14 -1.06 l
0.15 0.42 l
0.14 0.22 l
0.15 1.05 l
0.14 -0.42 l
0.15 -1.06 l
0.14 0.21 l
0.15 1.06 l
0.15 -0.63 l
0.14 0 l
0.15 0 l
0.14 1.06 l
0.15 -1.70 l
0.14 0 l
0.15 1.06 l
0.15 -0.63 l
0.14 0.21 l
0.15 0.84 l
0.14 -1.05 l
0.15 1.27 l
0.14 0 l
0.15 -0.22 l
0.14 -0.63 l
0.15 -0.64 l
0.15 0.64 l
0.14 0.63 l
0.15 -0.42 l
0.14 0 l
0.15 -0.21 l
0.14 -1.06 l
0.15 1.69 l
0.14 0.22 l
0.15 -0.64 l
0.15 0.21 l
0.14 -0.84 l
0.15 0.63 l
0.14 1.06 l
0.15 -1.06 l
0.14 1.69 l
0.15 -2.75 l
0.14 0.64 l
0.15 0.84 l
0.15 -0.42 l
0.14 1.06 l
0.15 -2.12 l
0.14 0.85 l
0.15 0.21 l
0.14 -0.21 l
0.15 0.21 l
0.15 -0.63 l
0.14 0.21 l
0.15 0.42 l
0.14 0.42 l
0.15 0 l
0.14 0.64 l
0.15 -1.91 l
0.14 0.85 l
0.15 -0.21 l
0.15 0.85 l
0.14 0.21 l
0.15 -1.70 l
0.14 0.43 l
0.15 -0.21 l
0.14 0.21 l
0.15 1.27 l
0.14 -1.48 l
0.15 -0.64 l
0.15 1.06 l
0.14 -1.27 l
0.15 2.33 l
0.14 -0.21 l
0.15 0.21 l
0.14 -0.64 l
0.15 0.43 l
0.14 -1.91 l
0.15 1.48 l
0.15 0.43 l
0.14 -1.49 l
0.15 0.22 l
0.14 0.42 l
0.15 -0.64 l
0.14 1.27 l
0.15 -0.21 l
0.15 0.64 l
0.14 -0.21 l
0.15 -0.64 l
0.14 0.64 l
0.15 0 l
0.14 -0.22 l
236.96 424.77 lineto
0.14 1.01 l
0.15 1.50 l
0.15 -0.85 l
0.14 0.63 l
0.15 1.48 l
0.14 -2.11 l
0.15 1.90 l
0.14 -0.63 l
0.15 0.21 l
0.14 0.21 l
0.15 1.48 l
0.15 -0.84 l
0.14 0.42 l
0.15 0.85 l
0.14 -1.27 l
0.15 1.27 l
0.14 0.84 l
0.15 0 l
0.14 -1.48 l
0.15 2.72 l
0.15 -0.82 l
0.14 0.60 l
0.15 0.43 l
0.14 -0.43 l
0.15 0.22 l
0.14 1.90 l
0.15 -1.48 l
0.15 1.06 l
0.14 0.63 l
0.15 0 l
0.14 0.42 l
0.15 -0.63 l
0.14 1.06 l
0.15 0.63 l
0.14 -0.63 l
0.15 0.84 l
0.15 0 l
0.14 -1.05 l
0.15 2.11 l
0.14 -0.63 l
0.15 0.81 l
0.14 0.63 l
0.15 -1.66 l
0.14 1.45 l
0.15 -0.21 l
0.15 0.85 l
0.14 1.69 l
0.15 -1.69 l
0.14 0.63 l
0.15 0 l
0.14 -0.85 l
0.15 2.33 l
0.14 -1.48 l
0.15 1.69 l
0.15 0.43 l
0.14 -1.27 l
0.15 1.27 l
0.14 -0.22 l
0.15 -0.21 l
0.14 1.91 l
0.15 0 l
0.15 -1.27 l
0.14 0.63 l
0.15 0.64 l
0.14 0 l
0.15 1.44 l
0.14 -1.06 l
0.15 -0.17 l
0.14 -0.43 l
0.15 1.87 l
0.15 0 l
0.14 1.70 l
0.15 -0.85 l
0.14 -0.85 l
0.15 1.27 l
0.14 -0.63 l
0.15 1.27 l
0.14 0.42 l
0.15 -0.85 l
0.15 1.27 l
0.14 -0.42 l
0.15 -1.48 l
0.14 1.69 l
0.15 0.43 l
0.14 0 l
0.15 -0.22 l
0.14 1.06 l
0.15 -0.84 l
0.15 2.08 l
0.14 -0.82 l
0.15 0.39 l
0.14 0.64 l
0.15 -0.64 l
0.14 0.64 l
0.15 1.05 l
0.15 -0.42 l
0.14 -0.42 l
0.15 0.42 l
0.14 -0.63 l
251.52 450.40 lineto
0.14 0.43 l
0.15 0.84 l
0.14 -1.05 l
0.15 0.21 l
0.15 1.27 l
0.14 0 l
0.15 0.84 l
0.14 -2.11 l
0.15 1.69 l
0.14 0.63 l
0.15 -0.21 l
0.14 0.64 l
0.15 0.60 l
0.15 0 l
0.14 0 l
0.15 -0.18 l
0.14 0.18 l
0.15 0 l
0.14 0.42 l
0.15 0 l
0.14 1.27 l
0.15 -0.21 l
0.15 0.42 l
0.14 -1.27 l
0.15 1.06 l
0.14 0.63 l
0.15 -0.21 l
0.14 0 l
0.15 -0.21 l
0.14 1.27 l
0.15 -0.42 l
0.15 0.84 l
0.14 -1.05 l
0.15 0.21 l
0.14 1.05 l
0.15 -0.84 l
0.14 1.90 l
0.15 -0.42 l
0.15 -0.42 l
0.14 1.86 l
0.15 -0.59 l
0.14 -0.64 l
0.15 1.45 l
0.14 -0.22 l
0.15 -1.65 l
0.14 1.23 l
0.15 -0.39 l
0.15 0.22 l
0.14 2.08 l
0.15 -0.64 l
0.14 0.21 l
0.15 -0.63 l
0.14 0.21 l
0.15 0.21 l
0.14 1.27 l
0.15 -0.63 l
0.15 -0.22 l
0.14 0.85 l
0.15 1.06 l
0.14 -0.42 l
0.15 0.63 l
0.14 -1.06 l
0.15 -0.63 l
0.14 1.90 l
0.15 -0.42 l
0.15 0.84 l
0.14 -0.63 l
0.15 0.85 l
0.14 -0.64 l
0.15 1.87 l
0.14 -0.21 l
0.15 -0.18 l
0.15 -0.84 l
0.14 1.23 l
0.15 0 l
0.14 1.27 l
0.15 0.85 l
0.14 -2.33 l
0.15 -0.60 l
0.14 2.71 l
0.15 -0.84 l
0.15 0.42 l
0.14 -1.87 l
0.15 0.39 l
0.14 2.33 l
0.15 0.21 l
0.14 0 l
0.15 -0.85 l
0.14 -0.42 l
0.15 0 l
0.15 2.12 l
0.14 1.69 l
0.15 -1.48 l
0.14 -1.06 l
0.15 0 l
0.14 0.85 l
0.15 1.26 l
0.14 0 l
0.15 -1.69 l
266.08 468.92 lineto
0.14 0.42 l
0.15 0.84 l
0.14 -0.84 l
0.15 1.48 l
0.14 -0.21 l
0.15 -1.06 l
0.15 1.27 l
0.14 0.39 l
0.15 0 l
0.14 0.21 l
0.15 -1.24 l
0.14 1.45 l
0.15 0 l
0.14 1.27 l
0.15 -0.42 l
0.15 -0.64 l
0.14 0.64 l
0.15 -0.43 l
0.14 1.48 l
0.15 -0.21 l
0.14 -1.06 l
0.15 1.49 l
0.14 -0.43 l
0.15 0.43 l
0.15 -0.85 l
0.14 0.85 l
0.15 0.84 l
0.14 -0.84 l
0.15 0.42 l
0.14 1.48 l
0.15 -1.27 l
0.14 1.06 l
0.15 0.21 l
0.15 0 l
0.14 -1.06 l
0.15 1.27 l
0.14 0 l
0.15 -0.21 l
0.14 0.85 l
0.15 -1.06 l
0.15 0.42 l
0.14 1.02 l
0.15 -1.02 l
0.14 0.81 l
0.15 0 l
0.14 -0.81 l
0.15 1.02 l
0.14 0.43 l
0.15 0.21 l
0.15 1.06 l
0.14 -0.43 l
0.15 -0.84 l
0.14 0.63 l
0.15 -0.42 l
0.14 1.06 l
0.15 -0.85 l
0.14 1.69 l
0.15 -1.48 l
0.15 -0.21 l
0.14 2.11 l
0.15 -0.84 l
0.14 -0.21 l
0.15 0.84 l
0.14 -0.42 l
0.15 0.21 l
0.14 0.64 l
0.15 0.42 l
0.15 -0.42 l
0.14 0.21 l
0.15 -0.43 l
0.14 0.22 l
0.15 0.63 l
0.14 -0.63 l
0.15 -0.22 l
0.15 1.91 l
0.14 -0.21 l
0.15 -1.06 l
0.14 0.21 l
0.15 0.85 l
0.14 -0.43 l
0.15 0.85 l
0.14 -0.42 l
0.15 0.21 l
0.15 1.87 l
0.14 -1.45 l
0.15 0.39 l
0.14 0 l
0.15 0.63 l
0.14 -0.42 l
0.15 0.21 l
0.14 -0.21 l
0.15 1.27 l
0.15 0 l
0.14 -0.63 l
0.15 1.05 l
0.14 -1.05 l
0.15 -0.22 l
0.14 -0.42 l
0.15 2.12 l
280.63 483.83 lineto
0.15 -0.21 l
0.15 0.84 l
0.14 -0.63 l
0.15 1.27 l
0.14 0 l
0.15 -0.85 l
0.14 1.27 l
0.15 -1.27 l
0.15 1.27 l
0.14 0 l
0.15 -0.21 l
0.14 -0.63 l
0.15 1.48 l
0.14 0.63 l
0.15 -0.21 l
0.14 -1.06 l
0.15 0.64 l
0.15 0 l
0.14 0 l
0.15 1.05 l
0.14 -1.48 l
0.15 2.51 l
0.14 -2.08 l
0.15 0.84 l
0.14 -0.42 l
0.15 1.66 l
0.15 -0.22 l
0.14 -1.23 l
0.15 0.21 l
0.14 0.21 l
0.15 0.81 l
0.14 0.64 l
0.15 -0.64 l
0.14 0 l
0.15 -0.38 l
0.15 1.02 l
0.14 -0.21 l
0.15 -0.21 l
0.14 1.69 l
0.15 -1.69 l
0.14 0.21 l
0.15 0.42 l
0.14 0.42 l
0.15 0 l
0.15 0.43 l
0.14 -0.85 l
0.15 1.06 l
0.14 -0.42 l
0.15 0.42 l
0.14 0.42 l
0.15 -0.42 l
0.15 -0.21 l
0.14 0.21 l
0.15 -0.21 l
0.14 2.32 l
0.15 -1.69 l
0.14 -0.42 l
0.15 1.27 l
0.14 0.21 l
0.15 -1.06 l
0.15 -0.42 l
0.14 0.63 l
0.15 0.21 l
0.14 1.49 l
0.15 -0.85 l
0.14 -0.21 l
0.15 0.42 l
0.14 -1.06 l
0.15 1.70 l
0.15 0.42 l
0.14 -1.06 l
0.15 0.21 l
0.14 0.43 l
0.15 -0.22 l
0.14 -0.42 l
0.15 0.42 l
0.14 -0.21 l
0.15 -0.63 l
0.15 1.06 l
0.14 -0.85 l
0.15 1.69 l
0.14 0.21 l
0.15 -0.84 l
0.14 0.21 l
0.15 -0.64 l
0.15 0.43 l
0.14 1.65 l
0.15 -1.65 l
0.14 -0.21 l
0.15 1.65 l
0.14 -1.02 l
0.15 0.42 l
0.14 -0.21 l
0.15 -0.63 l
0.15 1.06 l
0.14 -0.22 l
0.15 1.24 l
0.14 -0.64 l
0.15 -0.21 l
295.19 493.31 lineto
0.15 1.66 l
0.14 0.21 l
0.15 -1.87 l
0.15 1.24 l
0.14 0.42 l
0.15 -0.42 l
0.14 1.06 l
0.15 -0.43 l
0.14 -0.21 l
0.15 -0.42 l
0.14 -0.21 l
0.15 0.42 l
0.15 0.21 l
0.14 -0.42 l
0.15 0.42 l
0.14 0.42 l
0.15 -0.21 l
0.14 -0.21 l
0.15 1.69 l
0.15 -0.42 l
0.14 -0.63 l
0.15 -0.64 l
0.14 0.85 l
0.15 -1.06 l
0.14 1.69 l
0.15 -1.48 l
0.14 1.48 l
0.15 -0.63 l
0.15 -0.43 l
0.14 0.85 l
0.15 0.21 l
0.14 0 l
0.15 0.42 l
0.14 1.27 l
0.15 -1.05 l
0.14 -0.64 l
0.15 0 l
0.15 0.42 l
0.14 1.49 l
0.15 -2.33 l
0.14 0.21 l
0.15 0 l
0.14 -0.63 l
0.15 1.48 l
0.14 0.84 l
0.15 -1.69 l
0.15 1.48 l
0.14 -0.63 l
0.15 1.27 l
0.14 -0.64 l
0.15 -0.21 l
0.14 -0.21 l
0.15 -0.21 l
0.15 -0.22 l
0.14 1.27 l
0.15 -0.42 l
0.14 0.42 l
0.15 -1.69 l
0.14 1.06 l
0.15 0.42 l
0.14 0.21 l
0.15 0.43 l
0.15 -1.06 l
0.14 0.21 l
0.15 1.87 l
0.14 -0.60 l
0.15 -1.48 l
0.14 1.06 l
0.15 -1.06 l
0.14 1.69 l
0.15 -1.27 l
0.15 1.45 l
0.14 -0.39 l
0.15 0.60 l
0.14 -1.45 l
0.15 -0.21 l
0.14 1.45 l
0.15 -1.45 l
0.14 1.45 l
0.15 0.42 l
0.15 -1.44 l
0.14 0.84 l
0.15 0.60 l
0.14 -2.08 l
0.15 1.27 l
0.14 -0.42 l
0.15 0.42 l
0.15 -0.21 l
0.14 0.60 l
0.15 -0.60 l
0.14 0 l
0.15 2.08 l
0.14 -2.29 l
0.15 -0.43 l
0.14 1.24 l
0.15 0.63 l
0.15 -0.21 l
0.14 -0.21 l
0.15 1.48 l
309.75 499.59 lineto
0.15 -0.21 l
0.14 -0.39 l
0.15 0.81 l
0.14 1.06 l
0.15 -1.87 l
0.15 0.21 l
0.14 1.66 l
0.15 -2.72 l
0.14 2.72 l
0.15 -0.85 l
0.14 0.21 l
0.15 0.22 l
0.14 -1.06 l
0.15 1.06 l
0.15 -0.22 l
0.14 0.22 l
0.15 -0.64 l
0.14 0.21 l
0.15 0.64 l
0.14 -1.06 l
0.15 0.21 l
0.15 1.27 l
0.14 -1.06 l
0.15 0.43 l
0.14 0 l
0.15 -0.22 l
0.14 1.70 l
0.15 -0.85 l
0.14 0.42 l
0.15 -2.50 l
0.15 0.60 l
0.14 1.90 l
0.15 0 l
0.14 0.64 l
0.15 -2.54 l
0.14 1.27 l
0.15 -1.27 l
0.14 1.27 l
0.15 0.42 l
0.15 -0.42 l
0.14 -0.64 l
0.15 1.27 l
0.14 -0.63 l
0.15 0.84 l
0.14 -1.05 l
0.15 0.63 l
0.14 0.64 l
0.15 -2.12 l
0.15 1.48 l
0.14 0.64 l
0.15 -1.06 l
0.14 -0.21 l
0.15 0.63 l
0.14 0.21 l
0.15 0.43 l
0.15 -0.85 l
0.14 1.06 l
0.15 -1.27 l
0.14 1.48 l
0.15 -0.42 l
0.14 0 l
0.15 -0.22 l
0.14 0.22 l
0.15 -1.70 l
0.15 0 l
0.14 1.48 l
0.15 -0.63 l
0.14 1.69 l
0.15 -1.27 l
0.14 -0.21 l
0.15 1.06 l
0.14 -0.21 l
0.15 -0.21 l
0.15 -1.70 l
0.14 1.91 l
0.15 0.21 l
0.14 -0.64 l
0.15 0 l
0.14 -0.42 l
0.15 0.42 l
0.14 -1.26 l
0.15 2.53 l
0.15 -1.27 l
0.14 -0.63 l
0.15 0.63 l
0.14 -0.63 l
0.15 0 l
0.14 0.21 l
0.15 -0.21 l
0.14 0.85 l
0.15 0 l
0.15 -0.85 l
0.14 1.06 l
0.15 1.06 l
0.14 -1.70 l
0.15 0.64 l
0.14 -0.64 l
0.15 -0.84 l
0.15 0.84 l
324.31 501.07 lineto
0.15 2.33 l
0.14 -2.33 l
0.15 1.48 l
0.14 -0.63 l
0.15 0.21 l
0.14 -0.43 l
0.15 1.27 l
0.15 -0.63 l
0.14 -1.69 l
0.15 1.48 l
0.14 0.42 l
0.15 0.21 l
0.14 -0.84 l
0.15 0.21 l
0.14 0 l
0.15 -0.21 l
0.15 1.27 l
0.14 0.21 l
0.15 -1.48 l
0.14 0.42 l
0.15 0.63 l
0.14 0 l
0.15 -0.42 l
0.14 -0.85 l
0.15 0.85 l
0.15 -0.85 l
0.14 1.27 l
0.15 -0.21 l
0.14 0 l
0.15 -0.84 l
0.14 -0.43 l
0.15 0 l
0.15 0.43 l
0.14 0.84 l
0.15 0 l
0.14 -1.06 l
0.15 0.43 l
0.14 -0.21 l
0.15 0.84 l
0.14 -0.21 l
0.15 -1.48 l
0.15 0.42 l
0.14 1.91 l
0.15 0.42 l
0.14 -1.69 l
0.15 0.42 l
0.14 0.64 l
0.15 -1.27 l
0.14 0.84 l
0.15 0 l
0.15 -0.84 l
0.14 0.42 l
0.15 -0.64 l
0.14 1.91 l
0.15 -1.06 l
0.14 1.27 l
0.15 -1.48 l
0.14 -0.64 l
0.15 1.70 l
0.15 -1.06 l
0.14 0.42 l
0.15 0.21 l
0.14 -0.63 l
0.15 0.85 l
0.14 0.42 l
0.15 -0.64 l
0.15 0.43 l
0.14 -1.48 l
0.15 1.27 l
0.14 -0.43 l
0.15 -0.42 l
0.14 0.85 l
0.15 -0.43 l
0.14 0.43 l
0.15 -1.06 l
0.15 0 l
0.14 -0.21 l
0.15 -0.64 l
0.14 0.85 l
0.15 1.69 l
0.14 -1.90 l
0.15 0 l
0.14 0.84 l
0.15 -0.21 l
0.15 -0.42 l
0.14 1.06 l
0.15 -0.64 l
0.14 -0.42 l
0.15 1.27 l
0.14 0.63 l
0.15 -1.27 l
0.14 0.85 l
0.15 -1.48 l
0.15 1.27 l
0.14 0.21 l
0.15 -0.21 l
0.14 0 l
0.15 -1.91 l
0.14 1.06 l
338.87 502.55 lineto
0.15 0.21 l
0.14 1.27 l
0.15 -1.48 l
0.14 0.85 l
0.15 -1.06 l
0.14 0.63 l
0.15 -0.21 l
0.14 1.06 l
0.15 -0.85 l
0.15 0.43 l
0.14 0.63 l
0.15 -0.42 l
0.14 0.42 l
0.15 -0.21 l
0.14 -1.06 l
0.15 0.43 l
0.14 0.63 l
0.15 -1.06 l
0.15 1.27 l
0.14 -1.06 l
0.15 -0.63 l
0.14 0.21 l
0.15 1.27 l
0.14 -1.06 l
0.15 -0.63 l
0.14 1.27 l
0.15 -0.21 l
0.15 0 l
0.14 -0.43 l
0.15 0.64 l
0.14 0.21 l
0.15 0 l
0.14 -0.21 l
0.15 0.21 l
0.15 -0.64 l
0.14 -0.42 l
0.15 2.12 l
0.14 -1.06 l
0.15 0.42 l
0.14 -1.06 l
0.15 0.85 l
0.14 -0.85 l
0.15 -0.21 l
0.15 0.64 l
0.14 -1.06 l
0.15 1.06 l
0.14 1.27 l
0.15 -1.91 l
0.14 1.27 l
0.15 0 l
0.14 -1.06 l
0.15 0.64 l
0.15 -1.48 l
0.14 1.06 l
0.15 0 l
0.14 0.84 l
0.15 -1.48 l
0.14 0.85 l
0.15 -0.43 l
0.14 -0.42 l
0.15 0.64 l
0.15 0.84 l
0.14 -1.06 l
0.15 0.64 l
0.14 -0.64 l
0.15 0.64 l
0.14 0.42 l
0.15 -0.42 l
0.15 -0.21 l
0.14 -0.21 l
0.15 0.21 l
0.14 0.21 l
0.15 -0.85 l
0.14 1.06 l
0.15 -1.27 l
0.14 2.33 l
0.15 -1.48 l
0.15 -0.21 l
0.14 1.26 l
0.15 -1.26 l
0.14 0.63 l
0.15 0.42 l
0.14 -1.48 l
0.15 1.69 l
0.14 -0.21 l
0.15 -0.63 l
0.15 -0.21 l
0.14 1.27 l
0.15 -1.06 l
0.14 0.63 l
0.15 0.43 l
0.14 -1.06 l
0.15 0.63 l
0.14 -0.42 l
0.15 -0.85 l
0.15 1.91 l
0.14 2.08 l
0.15 -5.47 l
0.14 1.48 l
353.43 502.13 lineto
0.14 3.56 l
0.15 5.89 l
0.14 -10.93 l
0.15 -5.47 l
0.15 8.64 l
0.14 3.14 l
0.15 4.41 l
0.14 -8.61 l
0.15 -6.52 l
0.14 4.62 l
0.15 3.81 l
0.15 6.27 l
0.14 -6.27 l
0.15 -7.58 l
0.14 2.29 l
0.15 6.31 l
0.14 1.06 l
0.15 0.63 l
0.14 -8.00 l
0.15 -2.51 l
0.15 7.16 l
0.14 1.87 l
0.15 3.60 l
0.14 -5.89 l
0.15 -6.31 l
0.14 4.19 l
0.15 5.04 l
0.14 1.49 l
0.15 -2.75 l
0.15 -5.68 l
0.14 0.85 l
0.15 5.67 l
0.14 0.85 l
0.15 0.84 l
0.14 -5.67 l
0.15 -2.54 l
0.14 3.60 l
0.15 2.50 l
0.15 3.81 l
0.14 -4.83 l
0.15 -4.66 l
0.14 2.75 l
0.15 2.12 l
0.14 2.08 l
0.15 0.42 l
0.15 -5.04 l
0.14 -2.12 l
0.15 4.83 l
0.14 1.48 l
0.15 0.43 l
0.14 -3.14 l
0.15 -1.90 l
0.14 1.90 l
0.15 2.29 l
0.15 -0.21 l
0.14 0 l
0.15 -2.08 l
0.14 -1.06 l
0.15 2.51 l
0.14 0 l
0.15 0.63 l
0.14 -2.71 l
0.15 1.26 l
0.15 0 l
0.14 1.45 l
0.15 -1.66 l
0.14 0.81 l
0.15 -2.08 l
0.14 0.85 l
0.15 1.06 l
0.14 0.17 l
0.15 -1.44 l
0.15 0.84 l
0.14 0.22 l
0.15 0.81 l
0.14 0 l
0.15 0 l
0.14 -0.60 l
0.15 0 l
0.15 -0.64 l
0.14 0.43 l
0.15 0 l
0.14 0.21 l
0.15 -0.64 l
0.14 -0.42 l
0.15 0.42 l
0.14 1.45 l
0.15 -1.02 l
0.15 1.02 l
0.14 -1.02 l
0.15 0.81 l
0.14 -0.81 l
0.15 0.21 l
0.14 2.08 l
0.15 -2.29 l
0.14 -0.43 l
0.15 0 l
0.15 -0.42 l
0.14 1.87 l
currentpoint o m
367.99 505.05 lineto
0.14 1.06 l
0.15 -1.66 l
0.14 2.08 l
0.15 -2.71 l
0.14 -0.85 l
0.15 3.35 l
0.15 4.02 l
0.14 -6.10 l
0.15 -0.21 l
0.14 -1.69 l
0.15 0.21 l
0.14 8.00 l
0.15 -1.69 l
0.15 -5.67 l
0.14 -0.43 l
0.15 -0.84 l
0.14 5.88 l
0.15 4.20 l
0.14 -6.52 l
0.15 -5.47 l
0.14 3.18 l
0.15 0.63 l
0.15 6.31 l
0.14 -3.81 l
0.15 -3.98 l
0.14 -0.85 l
0.15 4.62 l
0.14 0.85 l
0.15 3.17 l
0.14 -7.58 l
0.15 -0.63 l
0.15 2.96 l
0.14 1.87 l
0.15 2.75 l
0.14 -6.10 l
0.15 -2.12 l
0.14 1.69 l
0.15 2.72 l
0.14 3.81 l
0.15 -4.02 l
0.15 -3.35 l
0.14 0.63 l
0.15 4.41 l
0.14 0.21 l
0.15 0.42 l
0.14 -2.53 l
0.15 -2.72 l
0.15 2.33 l
0.14 1.65 l
0.15 0.22 l
0.14 0 l
0.15 -3.56 l
0.14 0.21 l
0.15 3.56 l
0.14 0 l
0.15 -0.21 l
0.15 -0.64 l
0.14 -2.29 l
0.15 2.08 l
0.14 1.06 l
0.15 0.84 l
0.14 -1.69 l
0.15 -1.06 l
0.14 0.64 l
0.15 -0.64 l
0.15 0.22 l
0.14 1.26 l
0.15 -0.63 l
0.14 -1.02 l
0.15 0.81 l
0.14 0.63 l
0.15 0 l
0.14 0 l
0.15 -0.21 l
0.15 -1.06 l
0.14 1.91 l
0.15 -0.64 l
0.14 0 l
0.15 0 l
0.14 -0.63 l
0.15 0.42 l
0.15 -1.44 l
0.14 1.44 l
0.15 0 l
0.14 -0.63 l
0.15 0 l
0.14 0.84 l
0.15 0.21 l
0.14 0.22 l
0.15 -0.85 l
0.15 -0.42 l
0.14 0.21 l
0.15 0.42 l
0.14 -1.06 l
0.15 1.91 l
0.14 -0.85 l
0.15 0.42 l
0.14 -1.05 l
0.15 0.42 l
o
/bg { 1 1 1 srgb } def
222.40 501.92 0.43 c p3
222.55 502.76 0.43 c p3
222.69 501.92 0.43 c p3
222.84 501.28 0.43 c p3
222.98 501.92 0.43 c p3
223.13 501.92 0.43 c p3
223.27 501.70 0.43 c p3
223.42 503.40 0.43 c p3
223.56 501.70 0.43 c p3
223.71 501.70 0.43 c p3
223.86 502.34 0.43 c p3
224.00 501.28 0.43 c p3
224.15 501.70 0.43 c p3
224.29 501.92 0.43 c p3
224.44 502.97 0.43 c p3
224.58 502.55 0.43 c p3
224.73 501.49 0.43 c p3
224.87 501.70 0.43 c p3
225.02 502.76 0.43 c p3
225.17 502.13 0.43 c p3
225.31 502.13 0.43 c p3
225.46 502.13 0.43 c p3
225.60 503.19 0.43 c p3
225.75 501.49 0.43 c p3
225.89 501.49 0.43 c p3
226.04 502.55 0.43 c p3
226.19 501.92 0.43 c p3
226.33 502.13 0.43 c p3
226.48 502.97 0.43 c p3
226.62 501.92 0.43 c p3
226.77 503.19 0.43 c p3
226.91 503.19 0.43 c p3
227.06 502.97 0.43 c p3
227.20 502.34 0.43 c p3
227.35 501.70 0.43 c p3
227.50 502.34 0.43 c p3
227.64 502.97 0.43 c p3
227.79 502.55 0.43 c p3
227.93 502.55 0.43 c p3
228.08 502.34 0.43 c p3
228.22 501.28 0.43 c p3
228.37 502.97 0.43 c p3
228.51 503.19 0.43 c p3
228.66 502.55 0.43 c p3
228.81 502.76 0.43 c p3
228.95 501.92 0.43 c p3
229.10 502.55 0.43 c p3
229.24 503.61 0.43 c p3
229.39 502.55 0.43 c p3
229.53 504.24 0.43 c p3
229.68 501.49 0.43 c p3
229.82 502.13 0.43 c p3
229.97 502.97 0.43 c p3
230.12 502.55 0.43 c p3
230.26 503.61 0.43 c p3
230.41 501.49 0.43 c p3
230.55 502.34 0.43 c p3
230.70 502.55 0.43 c p3
230.84 502.34 0.43 c p3
230.99 502.55 0.43 c p3
231.14 501.92 0.43 c p3
231.28 502.13 0.43 c p3
231.43 502.55 0.43 c p3
231.57 502.97 0.43 c p3
231.72 502.97 0.43 c p3
231.86 503.61 0.43 c p3
232.01 501.70 0.43 c p3
232.15 502.55 0.43 c p3
232.30 502.34 0.43 c p3
232.45 503.19 0.43 c p3
232.59 503.40 0.43 c p3
232.74 501.70 0.43 c p3
232.88 502.13 0.43 c p3
233.03 501.92 0.43 c p3
233.17 502.13 0.43 c p3
233.32 503.40 0.43 c p3
233.46 501.92 0.43 c p3
233.61 501.28 0.43 c p3
233.76 502.34 0.43 c p3
233.90 501.07 0.43 c p3
234.05 503.40 0.43 c p3
234.19 503.19 0.43 c p3
234.34 503.40 0.43 c p3
234.48 502.76 0.43 c p3
234.63 503.19 0.43 c p3
234.77 501.28 0.43 c p3
234.92 502.76 0.43 c p3
235.07 503.19 0.43 c p3
235.21 501.70 0.43 c p3
235.36 501.92 0.43 c p3
235.50 502.34 0.43 c p3
235.65 501.70 0.43 c p3
235.79 502.97 0.43 c p3
235.94 502.76 0.43 c p3
236.09 503.40 0.43 c p3
236.23 503.19 0.43 c p3
236.38 502.55 0.43 c p3
236.52 503.19 0.43 c p3
236.67 503.19 0.43 c p3
236.81 502.97 0.43 c p3
236.96 424.77 0.43 c p3
237.10 425.78 0.43 c p3
237.25 427.28 0.43 c p3
237.40 426.43 0.43 c p3
237.54 427.06 0.43 c p3
237.69 428.54 0.43 c p3
237.83 426.43 0.43 c p3
237.98 428.33 0.43 c p3
238.12 427.70 0.43 c p3
238.27 427.91 0.43 c p3
238.41 428.12 0.43 c p3
238.56 429.60 0.43 c p3
238.71 428.76 0.43 c p3
238.85 429.18 0.43 c p3
239.00 430.03 0.43 c p3
239.14 428.76 0.43 c p3
239.29 430.03 0.43 c p3
239.43 430.87 0.43 c p3
239.58 430.87 0.43 c p3
239.72 429.39 0.43 c p3
239.87 432.11 0.43 c p3
240.02 431.29 0.43 c p3
240.16 431.89 0.43 c p3
240.31 432.32 0.43 c p3
240.45 431.89 0.43 c p3
240.60 432.11 0.43 c p3
240.74 434.01 0.43 c p3
240.89 432.53 0.43 c p3
241.04 433.59 0.43 c p3
241.18 434.22 0.43 c p3
241.33 434.22 0.43 c p3
241.47 434.64 0.43 c p3
241.62 434.01 0.43 c p3
241.76 435.07 0.43 c p3
241.91 435.70 0.43 c p3
242.05 435.07 0.43 c p3
242.20 435.91 0.43 c p3
242.35 435.91 0.43 c p3
242.49 434.86 0.43 c p3
242.64 436.97 0.43 c p3
242.78 436.34 0.43 c p3
242.93 437.15 0.43 c p3
243.07 437.78 0.43 c p3
243.22 436.12 0.43 c p3
243.36 437.57 0.43 c p3
243.51 437.36 0.43 c p3
243.66 438.21 0.43 c p3
243.80 439.90 0.43 c p3
243.95 438.21 0.43 c p3
244.09 438.84 0.43 c p3
244.24 438.84 0.43 c p3
244.38 437.99 0.43 c p3
244.53 440.32 0.43 c p3
244.67 438.84 0.43 c p3
244.82 440.53 0.43 c p3
244.97 440.96 0.43 c p3
245.11 439.69 0.43 c p3
245.26 440.96 0.43 c p3
245.40 440.74 0.43 c p3
245.55 440.53 0.43 c p3
245.69 442.44 0.43 c p3
245.84 442.44 0.43 c p3
245.99 441.17 0.43 c p3
246.13 441.80 0.43 c p3
246.28 442.44 0.43 c p3
246.42 442.44 0.43 c p3
246.57 443.88 0.43 c p3
246.71 442.82 0.43 c p3
246.86 442.65 0.43 c p3
247.00 442.22 0.43 c p3
247.15 444.09 0.43 c p3
247.30 444.09 0.43 c p3
247.44 445.79 0.43 c p3
247.59 444.94 0.43 c p3
247.73 444.09 0.43 c p3
247.88 445.36 0.43 c p3
248.02 444.73 0.43 c p3
248.17 446.00 0.43 c p3
248.31 446.42 0.43 c p3
248.46 445.57 0.43 c p3
248.61 446.84 0.43 c p3
248.75 446.42 0.43 c p3
248.90 444.94 0.43 c p3
249.04 446.63 0.43 c p3
249.19 447.06 0.43 c p3
249.33 447.06 0.43 c p3
249.48 446.84 0.43 c p3
249.62 447.90 0.43 c p3
249.77 447.06 0.43 c p3
249.92 449.14 0.43 c p3
250.06 448.32 0.43 c p3
250.21 448.71 0.43 c p3
250.35 449.35 0.43 c p3
250.50 448.71 0.43 c p3
250.64 449.35 0.43 c p3
250.79 450.40 0.43 c p3
250.94 449.98 0.43 c p3
251.08 449.56 0.43 c p3
251.23 449.98 0.43 c p3
251.37 449.35 0.43 c p3
251.52 450.40 0.43 c p3
251.66 450.83 0.43 c p3
251.81 451.67 0.43 c p3
251.95 450.62 0.43 c p3
252.10 450.83 0.43 c p3
252.25 452.10 0.43 c p3
252.39 452.10 0.43 c p3
252.54 452.94 0.43 c p3
252.68 450.83 0.43 c p3
252.83 452.52 0.43 c p3
252.97 453.15 0.43 c p3
253.12 452.94 0.43 c p3
253.26 453.58 0.43 c p3
253.41 454.18 0.43 c p3
253.56 454.18 0.43 c p3
253.70 454.18 0.43 c p3
253.85 454.00 0.43 c p3
253.99 454.18 0.43 c p3
254.14 454.18 0.43 c p3
254.28 454.60 0.43 c p3
254.43 454.60 0.43 c p3
254.57 455.87 0.43 c p3
254.72 455.66 0.43 c p3
254.87 456.08 0.43 c p3
255.01 454.81 0.43 c p3
255.16 455.87 0.43 c p3
255.30 456.50 0.43 c p3
255.45 456.29 0.43 c p3
255.59 456.29 0.43 c p3
255.74 456.08 0.43 c p3
255.88 457.35 0.43 c p3
256.03 456.93 0.43 c p3
256.18 457.77 0.43 c p3
256.32 456.72 0.43 c p3
256.47 456.93 0.43 c p3
256.61 457.98 0.43 c p3
256.76 457.14 0.43 c p3
256.90 459.04 0.43 c p3
257.05 458.62 0.43 c p3
257.20 458.20 0.43 c p3
257.34 460.06 0.43 c p3
257.49 459.47 0.43 c p3
257.63 458.83 0.43 c p3
257.78 460.28 0.43 c p3
257.92 460.06 0.43 c p3
258.07 458.41 0.43 c p3
258.21 459.64 0.43 c p3
258.36 459.25 0.43 c p3
258.51 459.47 0.43 c p3
258.65 461.55 0.43 c p3
258.80 460.91 0.43 c p3
258.94 461.12 0.43 c p3
259.09 460.49 0.43 c p3
259.23 460.70 0.43 c p3
259.38 460.91 0.43 c p3
259.52 462.18 0.43 c p3
259.67 461.55 0.43 c p3
259.82 461.33 0.43 c p3
259.96 462.18 0.43 c p3
260.11 463.24 0.43 c p3
260.25 462.82 0.43 c p3
260.40 463.45 0.43 c p3
260.54 462.39 0.43 c p3
260.69 461.76 0.43 c p3
260.83 463.66 0.43 c p3
260.98 463.24 0.43 c p3
261.13 464.08 0.43 c p3
261.27 463.45 0.43 c p3
261.42 464.30 0.43 c p3
261.56 463.66 0.43 c p3
261.71 465.53 0.43 c p3
261.85 465.32 0.43 c p3
262.00 465.14 0.43 c p3
262.15 464.30 0.43 c p3
262.29 465.53 0.43 c p3
262.44 465.53 0.43 c p3
262.58 466.80 0.43 c p3
262.73 467.65 0.43 c p3
262.87 465.32 0.43 c p3
263.02 464.72 0.43 c p3
263.16 467.43 0.43 c p3
263.31 466.59 0.43 c p3
263.46 467.01 0.43 c p3
263.60 465.14 0.43 c p3
263.75 465.53 0.43 c p3
263.89 467.86 0.43 c p3
264.04 468.07 0.43 c p3
264.18 468.07 0.43 c p3
264.33 467.22 0.43 c p3
264.47 466.80 0.43 c p3
264.62 466.80 0.43 c p3
264.77 468.92 0.43 c p3
264.91 470.61 0.43 c p3
265.06 469.13 0.43 c p3
265.20 468.07 0.43 c p3
265.35 468.07 0.43 c p3
265.49 468.92 0.43 c p3
265.64 470.18 0.43 c p3
265.78 470.18 0.43 c p3
265.93 468.49 0.43 c p3
266.08 468.92 0.43 c p3
266.22 469.34 0.43 c p3
266.37 470.18 0.43 c p3
266.51 469.34 0.43 c p3
266.66 470.82 0.43 c p3
266.80 470.61 0.43 c p3
266.95 469.55 0.43 c p3
267.10 470.82 0.43 c p3
267.24 471.21 0.43 c p3
267.39 471.21 0.43 c p3
267.53 471.42 0.43 c p3
267.68 470.18 0.43 c p3
267.82 471.63 0.43 c p3
267.97 471.63 0.43 c p3
268.11 472.90 0.43 c p3
268.26 472.48 0.43 c p3
268.41 471.84 0.43 c p3
268.55 472.48 0.43 c p3
268.70 472.05 0.43 c p3
268.84 473.53 0.43 c p3
268.99 473.32 0.43 c p3
269.13 472.26 0.43 c p3
269.28 473.75 0.43 c p3
269.42 473.32 0.43 c p3
269.57 473.75 0.43 c p3
269.72 472.90 0.43 c p3
269.86 473.75 0.43 c p3
270.01 474.59 0.43 c p3
270.15 473.75 0.43 c p3
270.30 474.17 0.43 c p3
270.44 475.65 0.43 c p3
270.59 474.38 0.43 c p3
270.73 475.44 0.43 c p3
270.88 475.65 0.43 c p3
271.03 475.65 0.43 c p3
271.17 474.59 0.43 c p3
271.32 475.86 0.43 c p3
271.46 475.86 0.43 c p3
271.61 475.65 0.43 c p3
271.75 476.50 0.43 c p3
271.90 475.44 0.43 c p3
272.05 475.86 0.43 c p3
272.19 476.88 0.43 c p3
272.34 475.86 0.43 c p3
272.48 476.67 0.43 c p3
272.63 476.67 0.43 c p3
272.77 475.86 0.43 c p3
272.92 476.88 0.43 c p3
273.06 477.31 0.43 c p3
273.21 477.52 0.43 c p3
273.36 478.58 0.43 c p3
273.50 478.15 0.43 c p3
273.65 477.31 0.43 c p3
273.79 477.94 0.43 c p3
273.94 477.52 0.43 c p3
274.08 478.58 0.43 c p3
274.23 477.73 0.43 c p3
274.37 479.42 0.43 c p3
274.52 477.94 0.43 c p3
274.67 477.73 0.43 c p3
274.81 479.84 0.43 c p3
274.96 479.00 0.43 c p3
275.10 478.79 0.43 c p3
275.25 479.63 0.43 c p3
275.39 479.21 0.43 c p3
275.54 479.42 0.43 c p3
275.68 480.06 0.43 c p3
275.83 480.48 0.43 c p3
275.98 480.06 0.43 c p3
276.12 480.27 0.43 c p3
276.27 479.84 0.43 c p3
276.41 480.06 0.43 c p3
276.56 480.69 0.43 c p3
276.70 480.06 0.43 c p3
276.85 479.84 0.43 c p3
277.00 481.75 0.43 c p3
277.14 481.54 0.43 c p3
277.29 480.48 0.43 c p3
277.43 480.69 0.43 c p3
277.58 481.54 0.43 c p3
277.72 481.11 0.43 c p3
277.87 481.96 0.43 c p3
278.01 481.54 0.43 c p3
278.16 481.75 0.43 c p3
278.31 483.62 0.43 c p3
278.45 482.17 0.43 c p3
278.60 482.56 0.43 c p3
278.74 482.56 0.43 c p3
278.89 483.19 0.43 c p3
279.03 482.77 0.43 c p3
279.18 482.98 0.43 c p3
279.32 482.77 0.43 c p3
279.47 484.04 0.43 c p3
279.62 484.04 0.43 c p3
279.76 483.41 0.43 c p3
279.91 484.46 0.43 c p3
280.05 483.41 0.43 c p3
280.20 483.19 0.43 c p3
280.34 482.77 0.43 c p3
280.49 484.89 0.43 c p3
280.63 483.83 0.43 c p3
280.78 483.62 0.43 c p3
280.93 484.46 0.43 c p3
281.07 483.83 0.43 c p3
281.22 485.10 0.43 c p3
281.36 485.10 0.43 c p3
281.51 484.25 0.43 c p3
281.65 485.52 0.43 c p3
281.80 484.25 0.43 c p3
281.95 485.52 0.43 c p3
282.09 485.52 0.43 c p3
282.24 485.31 0.43 c p3
282.38 484.68 0.43 c p3
282.53 486.16 0.43 c p3
282.67 486.79 0.43 c p3
282.82 486.58 0.43 c p3
282.96 485.52 0.43 c p3
283.11 486.16 0.43 c p3
283.26 486.16 0.43 c p3
283.40 486.16 0.43 c p3
283.55 487.21 0.43 c p3
283.69 485.73 0.43 c p3
283.84 488.24 0.43 c p3
283.98 486.16 0.43 c p3
284.13 487.00 0.43 c p3
284.27 486.58 0.43 c p3
284.42 488.24 0.43 c p3
284.57 488.02 0.43 c p3
284.71 486.79 0.43 c p3
284.86 487.00 0.43 c p3
285.00 487.21 0.43 c p3
285.15 488.02 0.43 c p3
285.29 488.66 0.43 c p3
285.44 488.02 0.43 c p3
285.58 488.02 0.43 c p3
285.73 487.64 0.43 c p3
285.88 488.66 0.43 c p3
286.02 488.45 0.43 c p3
286.17 488.24 0.43 c p3
286.31 489.93 0.43 c p3
286.46 488.24 0.43 c p3
286.60 488.45 0.43 c p3
286.75 488.87 0.43 c p3
286.89 489.29 0.43 c p3
287.04 489.29 0.43 c p3
287.19 489.72 0.43 c p3
287.33 488.87 0.43 c p3
287.48 489.93 0.43 c p3
287.62 489.51 0.43 c p3
287.77 489.93 0.43 c p3
287.91 490.35 0.43 c p3
288.06 489.93 0.43 c p3
288.21 489.72 0.43 c p3
288.35 489.93 0.43 c p3
288.50 489.72 0.43 c p3
288.64 492.04 0.43 c p3
288.79 490.35 0.43 c p3
288.93 489.93 0.43 c p3
289.08 491.20 0.43 c p3
289.22 491.41 0.43 c p3
289.37 490.35 0.43 c p3
289.52 489.93 0.43 c p3
289.66 490.56 0.43 c p3
289.81 490.77 0.43 c p3
289.95 492.26 0.43 c p3
290.10 491.41 0.43 c p3
290.24 491.20 0.43 c p3
290.39 491.62 0.43 c p3
290.53 490.56 0.43 c p3
290.68 492.26 0.43 c p3
290.83 492.68 0.43 c p3
290.97 491.62 0.43 c p3
291.12 491.83 0.43 c p3
291.26 492.26 0.43 c p3
291.41 492.04 0.43 c p3
291.55 491.62 0.43 c p3
291.70 492.04 0.43 c p3
291.84 491.83 0.43 c p3
291.99 491.20 0.43 c p3
292.14 492.26 0.43 c p3
292.28 491.41 0.43 c p3
292.43 493.10 0.43 c p3
292.57 493.31 0.43 c p3
292.72 492.47 0.43 c p3
292.86 492.68 0.43 c p3
293.01 492.04 0.43 c p3
293.16 492.47 0.43 c p3
293.30 494.12 0.43 c p3
293.45 492.47 0.43 c p3
293.59 492.26 0.43 c p3
293.74 493.91 0.43 c p3
293.88 492.89 0.43 c p3
294.03 493.31 0.43 c p3
294.17 493.10 0.43 c p3
294.32 492.47 0.43 c p3
294.47 493.53 0.43 c p3
294.61 493.31 0.43 c p3
294.76 494.55 0.43 c p3
294.90 493.91 0.43 c p3
295.05 493.70 0.43 c p3
295.19 493.31 0.43 c p3
295.34 494.97 0.43 c p3
295.48 495.18 0.43 c p3
295.63 493.31 0.43 c p3
295.78 494.55 0.43 c p3
295.92 494.97 0.43 c p3
296.07 494.55 0.43 c p3
296.21 495.61 0.43 c p3
296.36 495.18 0.43 c p3
296.50 494.97 0.43 c p3
296.65 494.55 0.43 c p3
296.79 494.34 0.43 c p3
296.94 494.76 0.43 c p3
297.09 494.97 0.43 c p3
297.23 494.55 0.43 c p3
297.38 494.97 0.43 c p3
297.52 495.39 0.43 c p3
297.67 495.18 0.43 c p3
297.81 494.97 0.43 c p3
297.96 496.66 0.43 c p3
298.11 496.24 0.43 c p3
298.25 495.61 0.43 c p3
298.40 494.97 0.43 c p3
298.54 495.82 0.43 c p3
298.69 494.76 0.43 c p3
298.83 496.45 0.43 c p3
298.98 494.97 0.43 c p3
299.12 496.45 0.43 c p3
299.27 495.82 0.43 c p3
299.42 495.39 0.43 c p3
299.56 496.24 0.43 c p3
299.71 496.45 0.43 c p3
299.85 496.45 0.43 c p3
300.00 496.87 0.43 c p3
300.14 498.14 0.43 c p3
300.29 497.09 0.43 c p3
300.43 496.45 0.43 c p3
300.58 496.45 0.43 c p3
300.73 496.87 0.43 c p3
300.87 498.36 0.43 c p3
301.02 496.03 0.43 c p3
301.16 496.24 0.43 c p3
301.31 496.24 0.43 c p3
301.45 495.61 0.43 c p3
301.60 497.09 0.43 c p3
301.74 497.93 0.43 c p3
301.89 496.24 0.43 c p3
302.04 497.72 0.43 c p3
302.18 497.09 0.43 c p3
302.33 498.36 0.43 c p3
302.47 497.72 0.43 c p3
302.62 497.51 0.43 c p3
302.76 497.30 0.43 c p3
302.91 497.09 0.43 c p3
303.06 496.87 0.43 c p3
303.20 498.14 0.43 c p3
303.35 497.72 0.43 c p3
303.49 498.14 0.43 c p3
303.64 496.45 0.43 c p3
303.78 497.51 0.43 c p3
303.93 497.93 0.43 c p3
304.07 498.14 0.43 c p3
304.22 498.57 0.43 c p3
304.37 497.51 0.43 c p3
304.51 497.72 0.43 c p3
304.66 499.59 0.43 c p3
304.80 498.99 0.43 c p3
304.95 497.51 0.43 c p3
305.09 498.57 0.43 c p3
305.24 497.51 0.43 c p3
305.38 499.20 0.43 c p3
305.53 497.93 0.43 c p3
305.68 499.38 0.43 c p3
305.82 498.99 0.43 c p3
305.97 499.59 0.43 c p3
306.11 498.14 0.43 c p3
306.26 497.93 0.43 c p3
306.40 499.38 0.43 c p3
306.55 497.93 0.43 c p3
306.69 499.38 0.43 c p3
306.84 499.80 0.43 c p3
306.99 498.36 0.43 c p3
307.13 499.20 0.43 c p3
307.28 499.80 0.43 c p3
307.42 497.72 0.43 c p3
307.57 498.99 0.43 c p3
307.71 498.57 0.43 c p3
307.86 498.99 0.43 c p3
308.01 498.78 0.43 c p3
308.15 499.38 0.43 c p3
308.30 498.78 0.43 c p3
308.44 498.78 0.43 c p3
308.59 500.86 0.43 c p3
308.73 498.57 0.43 c p3
308.88 498.14 0.43 c p3
309.02 499.38 0.43 c p3
309.17 500.01 0.43 c p3
309.32 499.80 0.43 c p3
309.46 499.59 0.43 c p3
309.61 501.07 0.43 c p3
309.75 499.59 0.43 c p3
309.90 499.38 0.43 c p3
310.04 498.99 0.43 c p3
310.19 499.80 0.43 c p3
310.33 500.86 0.43 c p3
310.48 498.99 0.43 c p3
310.63 499.20 0.43 c p3
310.77 500.86 0.43 c p3
310.92 498.14 0.43 c p3
311.06 500.86 0.43 c p3
311.21 500.01 0.43 c p3
311.35 500.22 0.43 c p3
311.50 500.44 0.43 c p3
311.64 499.38 0.43 c p3
311.79 500.44 0.43 c p3
311.94 500.22 0.43 c p3
312.08 500.44 0.43 c p3
312.23 499.80 0.43 c p3
312.37 500.01 0.43 c p3
312.52 500.65 0.43 c p3
312.66 499.59 0.43 c p3
312.81 499.80 0.43 c p3
312.96 501.07 0.43 c p3
313.10 500.01 0.43 c p3
313.25 500.44 0.43 c p3
313.39 500.44 0.43 c p3
313.54 500.22 0.43 c p3
313.68 501.92 0.43 c p3
313.83 501.07 0.43 c p3
313.97 501.49 0.43 c p3
314.12 498.99 0.43 c p3
314.27 499.59 0.43 c p3
314.41 501.49 0.43 c p3
314.56 501.49 0.43 c p3
314.70 502.13 0.43 c p3
314.85 499.59 0.43 c p3
314.99 500.86 0.43 c p3
315.14 499.59 0.43 c p3
315.28 500.86 0.43 c p3
315.43 501.28 0.43 c p3
315.58 500.86 0.43 c p3
315.72 500.22 0.43 c p3
315.87 501.49 0.43 c p3
316.01 500.86 0.43 c p3
316.16 501.70 0.43 c p3
316.30 500.65 0.43 c p3
316.45 501.28 0.43 c p3
316.59 501.92 0.43 c p3
316.74 499.80 0.43 c p3
316.89 501.28 0.43 c p3
317.03 501.92 0.43 c p3
317.18 500.86 0.43 c p3
317.32 500.65 0.43 c p3
317.47 501.28 0.43 c p3
317.61 501.49 0.43 c p3
317.76 501.92 0.43 c p3
317.91 501.07 0.43 c p3
318.05 502.13 0.43 c p3
318.20 500.86 0.43 c p3
318.34 502.34 0.43 c p3
318.49 501.92 0.43 c p3
318.63 501.92 0.43 c p3
318.78 501.70 0.43 c p3
318.92 501.92 0.43 c p3
319.07 500.22 0.43 c p3
319.22 500.22 0.43 c p3
319.36 501.70 0.43 c p3
319.51 501.07 0.43 c p3
319.65 502.76 0.43 c p3
319.80 501.49 0.43 c p3
319.94 501.28 0.43 c p3
320.09 502.34 0.43 c p3
320.23 502.13 0.43 c p3
320.38 501.92 0.43 c p3
320.53 500.22 0.43 c p3
320.67 502.13 0.43 c p3
320.82 502.34 0.43 c p3
320.96 501.70 0.43 c p3
321.11 501.70 0.43 c p3
321.25 501.28 0.43 c p3
321.40 501.70 0.43 c p3
321.54 500.44 0.43 c p3
321.69 502.97 0.43 c p3
321.84 501.70 0.43 c p3
321.98 501.07 0.43 c p3
322.13 501.70 0.43 c p3
322.27 501.07 0.43 c p3
322.42 501.07 0.43 c p3
322.56 501.28 0.43 c p3
322.71 501.07 0.43 c p3
322.85 501.92 0.43 c p3
323.00 501.92 0.43 c p3
323.15 501.07 0.43 c p3
323.29 502.13 0.43 c p3
323.44 503.19 0.43 c p3
323.58 501.49 0.43 c p3
323.73 502.13 0.43 c p3
323.87 501.49 0.43 c p3
324.02 500.65 0.43 c p3
324.17 501.49 0.43 c p3
324.31 501.07 0.43 c p3
324.46 503.40 0.43 c p3
324.60 501.07 0.43 c p3
324.75 502.55 0.43 c p3
324.89 501.92 0.43 c p3
325.04 502.13 0.43 c p3
325.18 501.70 0.43 c p3
325.33 502.97 0.43 c p3
325.48 502.34 0.43 c p3
325.62 500.65 0.43 c p3
325.77 502.13 0.43 c p3
325.91 502.55 0.43 c p3
326.06 502.76 0.43 c p3
326.20 501.92 0.43 c p3
326.35 502.13 0.43 c p3
326.49 502.13 0.43 c p3
326.64 501.92 0.43 c p3
326.79 503.19 0.43 c p3
326.93 503.40 0.43 c p3
327.08 501.92 0.43 c p3
327.22 502.34 0.43 c p3
327.37 502.97 0.43 c p3
327.51 502.97 0.43 c p3
327.66 502.55 0.43 c p3
327.80 501.70 0.43 c p3
327.95 502.55 0.43 c p3
328.10 501.70 0.43 c p3
328.24 502.97 0.43 c p3
328.39 502.76 0.43 c p3
328.53 502.76 0.43 c p3
328.68 501.92 0.43 c p3
328.82 501.49 0.43 c p3
328.97 501.49 0.43 c p3
329.12 501.92 0.43 c p3
329.26 502.76 0.43 c p3
329.41 502.76 0.43 c p3
329.55 501.70 0.43 c p3
329.70 502.13 0.43 c p3
329.84 501.92 0.43 c p3
329.99 502.76 0.43 c p3
330.13 502.55 0.43 c p3
330.28 501.07 0.43 c p3
330.43 501.49 0.43 c p3
330.57 503.40 0.43 c p3
330.72 503.82 0.43 c p3
330.86 502.13 0.43 c p3
331.01 502.55 0.43 c p3
331.15 503.19 0.43 c p3
331.30 501.92 0.43 c p3
331.44 502.76 0.43 c p3
331.59 502.76 0.43 c p3
331.74 501.92 0.43 c p3
331.88 502.34 0.43 c p3
332.03 501.70 0.43 c p3
332.17 503.61 0.43 c p3
332.32 502.55 0.43 c p3
332.46 503.82 0.43 c p3
332.61 502.34 0.43 c p3
332.75 501.70 0.43 c p3
332.90 503.40 0.43 c p3
333.05 502.34 0.43 c p3
333.19 502.76 0.43 c p3
333.34 502.97 0.43 c p3
333.48 502.34 0.43 c p3
333.63 503.19 0.43 c p3
333.77 503.61 0.43 c p3
333.92 502.97 0.43 c p3
334.07 503.40 0.43 c p3
334.21 501.92 0.43 c p3
334.36 503.19 0.43 c p3
334.50 502.76 0.43 c p3
334.65 502.34 0.43 c p3
334.79 503.19 0.43 c p3
334.94 502.76 0.43 c p3
335.08 503.19 0.43 c p3
335.23 502.13 0.43 c p3
335.38 502.13 0.43 c p3
335.52 501.92 0.43 c p3
335.67 501.28 0.43 c p3
335.81 502.13 0.43 c p3
335.96 503.82 0.43 c p3
336.10 501.92 0.43 c p3
336.25 501.92 0.43 c p3
336.39 502.76 0.43 c p3
336.54 502.55 0.43 c p3
336.69 502.13 0.43 c p3
336.83 503.19 0.43 c p3
336.98 502.55 0.43 c p3
337.12 502.13 0.43 c p3
337.27 503.40 0.43 c p3
337.41 504.03 0.43 c p3
337.56 502.76 0.43 c p3
337.70 503.61 0.43 c p3
337.85 502.13 0.43 c p3
338.00 503.40 0.43 c p3
338.14 503.61 0.43 c p3
338.29 503.40 0.43 c p3
338.43 503.40 0.43 c p3
338.58 501.49 0.43 c p3
338.72 502.55 0.43 c p3
338.87 502.55 0.43 c p3
339.02 502.76 0.43 c p3
339.16 504.03 0.43 c p3
339.31 502.55 0.43 c p3
339.45 503.40 0.43 c p3
339.60 502.34 0.43 c p3
339.74 502.97 0.43 c p3
339.89 502.76 0.43 c p3
340.03 503.82 0.43 c p3
340.18 502.97 0.43 c p3
340.33 503.40 0.43 c p3
340.47 504.03 0.43 c p3
340.62 503.61 0.43 c p3
340.76 504.03 0.43 c p3
340.91 503.82 0.43 c p3
341.05 502.76 0.43 c p3
341.20 503.19 0.43 c p3
341.34 503.82 0.43 c p3
341.49 502.76 0.43 c p3
341.64 504.03 0.43 c p3
341.78 502.97 0.43 c p3
341.93 502.34 0.43 c p3
342.07 502.55 0.43 c p3
342.22 503.82 0.43 c p3
342.36 502.76 0.43 c p3
342.51 502.13 0.43 c p3
342.65 503.40 0.43 c p3
342.80 503.19 0.43 c p3
342.95 503.19 0.43 c p3
343.09 502.76 0.43 c p3
343.24 503.40 0.43 c p3
343.38 503.61 0.43 c p3
343.53 503.61 0.43 c p3
343.67 503.40 0.43 c p3
343.82 503.61 0.43 c p3
343.97 502.97 0.43 c p3
344.11 502.55 0.43 c p3
344.26 504.67 0.43 c p3
344.40 503.61 0.43 c p3
344.55 504.03 0.43 c p3
344.69 502.97 0.43 c p3
344.84 503.82 0.43 c p3
344.98 502.97 0.43 c p3
345.13 502.76 0.43 c p3
345.28 503.40 0.43 c p3
345.42 502.34 0.43 c p3
345.57 503.40 0.43 c p3
345.71 504.67 0.43 c p3
345.86 502.76 0.43 c p3
346.00 504.03 0.43 c p3
346.15 504.03 0.43 c p3
346.29 502.97 0.43 c p3
346.44 503.61 0.43 c p3
346.59 502.13 0.43 c p3
346.73 503.19 0.43 c p3
346.88 503.19 0.43 c p3
347.02 504.03 0.43 c p3
347.17 502.55 0.43 c p3
347.31 503.40 0.43 c p3
347.46 502.97 0.43 c p3
347.60 502.55 0.43 c p3
347.75 503.19 0.43 c p3
347.90 504.03 0.43 c p3
348.04 502.97 0.43 c p3
348.19 503.61 0.43 c p3
348.33 502.97 0.43 c p3
348.48 503.61 0.43 c p3
348.62 504.03 0.43 c p3
348.77 503.61 0.43 c p3
348.92 503.40 0.43 c p3
349.06 503.19 0.43 c p3
349.21 503.40 0.43 c p3
349.35 503.61 0.43 c p3
349.50 502.76 0.43 c p3
349.64 503.82 0.43 c p3
349.79 502.55 0.43 c p3
349.93 504.88 0.43 c p3
350.08 503.40 0.43 c p3
350.23 503.19 0.43 c p3
350.37 504.45 0.43 c p3
350.52 503.19 0.43 c p3
350.66 503.82 0.43 c p3
350.81 504.24 0.43 c p3
350.95 502.76 0.43 c p3
351.10 504.45 0.43 c p3
351.24 504.24 0.43 c p3
351.39 503.61 0.43 c p3
351.54 503.40 0.43 c p3
351.68 504.67 0.43 c p3
351.83 503.61 0.43 c p3
351.97 504.24 0.43 c p3
352.12 504.67 0.43 c p3
352.26 503.61 0.43 c p3
352.41 504.24 0.43 c p3
352.55 503.82 0.43 c p3
352.70 502.97 0.43 c p3
352.85 504.88 0.43 c p3
352.99 506.96 0.43 c p3
353.14 501.49 0.43 c p3
353.28 502.97 0.43 c p3
353.43 502.13 0.43 c p3
353.57 505.69 0.43 c p3
353.72 511.58 0.43 c p3
353.86 500.65 0.43 c p3
354.01 495.18 0.43 c p3
354.16 503.82 0.43 c p3
354.30 506.96 0.43 c p3
354.45 511.37 0.43 c p3
354.59 502.76 0.43 c p3
354.74 496.24 0.43 c p3
354.88 500.86 0.43 c p3
355.03 504.67 0.43 c p3
355.18 510.94 0.43 c p3
355.32 504.67 0.43 c p3
355.47 497.09 0.43 c p3
355.61 499.38 0.43 c p3
355.76 505.69 0.43 c p3
355.90 506.75 0.43 c p3
356.05 507.38 0.43 c p3
356.19 499.38 0.43 c p3
356.34 496.87 0.43 c p3
356.49 504.03 0.43 c p3
356.63 505.90 0.43 c p3
356.78 509.50 0.43 c p3
356.92 503.61 0.43 c p3
357.07 497.30 0.43 c p3
357.21 501.49 0.43 c p3
357.36 506.53 0.43 c p3
357.50 508.02 0.43 c p3
357.65 505.27 0.43 c p3
357.80 499.59 0.43 c p3
357.94 500.44 0.43 c p3
358.09 506.11 0.43 c p3
358.23 506.96 0.43 c p3
358.38 507.80 0.43 c p3
358.52 502.13 0.43 c p3
358.67 499.59 0.43 c p3
358.81 503.19 0.43 c p3
358.96 505.69 0.43 c p3
359.11 509.50 0.43 c p3
359.25 504.67 0.43 c p3
359.40 500.01 0.43 c p3
359.54 502.76 0.43 c p3
359.69 504.88 0.43 c p3
359.83 506.96 0.43 c p3
359.98 507.38 0.43 c p3
360.13 502.34 0.43 c p3
360.27 500.22 0.43 c p3
360.42 505.05 0.43 c p3
360.56 506.53 0.43 c p3
360.71 506.96 0.43 c p3
360.85 503.82 0.43 c p3
361.00 501.92 0.43 c p3
361.14 503.82 0.43 c p3
361.29 506.11 0.43 c p3
361.44 505.90 0.43 c p3
361.58 505.90 0.43 c p3
361.73 503.82 0.43 c p3
361.87 502.76 0.43 c p3
362.02 505.27 0.43 c p3
362.16 505.27 0.43 c p3
362.31 505.90 0.43 c p3
362.45 503.19 0.43 c p3
362.60 504.45 0.43 c p3
362.75 504.45 0.43 c p3
362.89 505.90 0.43 c p3
363.04 504.24 0.43 c p3
363.18 505.05 0.43 c p3
363.33 502.97 0.43 c p3
363.47 503.82 0.43 c p3
363.62 504.88 0.43 c p3
363.76 505.05 0.43 c p3
363.91 503.61 0.43 c p3
364.06 504.45 0.43 c p3
364.20 504.67 0.43 c p3
364.35 505.48 0.43 c p3
364.49 505.48 0.43 c p3
364.64 505.48 0.43 c p3
364.78 504.88 0.43 c p3
364.93 504.88 0.43 c p3
365.08 504.24 0.43 c p3
365.22 504.67 0.43 c p3
365.37 504.67 0.43 c p3
365.51 504.88 0.43 c p3
365.66 504.24 0.43 c p3
365.80 503.82 0.43 c p3
365.95 504.24 0.43 c p3
366.09 505.69 0.43 c p3
366.24 504.67 0.43 c p3
366.39 505.69 0.43 c p3
366.53 504.67 0.43 c p3
366.68 505.48 0.43 c p3
366.82 504.67 0.43 c p3
366.97 504.88 0.43 c p3
367.11 506.96 0.43 c p3
367.26 504.67 0.43 c p3
367.40 504.24 0.43 c p3
367.55 504.24 0.43 c p3
367.70 503.82 0.43 c p3
367.84 505.69 0.43 c p3
367.99 505.05 0.43 c p3
368.13 506.11 0.43 c p3
368.28 504.45 0.43 c p3
368.42 506.53 0.43 c p3
368.57 503.82 0.43 c p3
368.71 502.97 0.43 c p3
368.86 506.32 0.43 c p3
369.01 510.34 0.43 c p3
369.15 504.24 0.43 c p3
369.30 504.03 0.43 c p3
369.44 502.34 0.43 c p3
369.59 502.55 0.43 c p3
369.73 510.55 0.43 c p3
369.88 508.86 0.43 c p3
370.03 503.19 0.43 c p3
370.17 502.76 0.43 c p3
370.32 501.92 0.43 c p3
370.46 507.80 0.43 c p3
370.61 512.00 0.43 c p3
370.75 505.48 0.43 c p3
370.90 500.01 0.43 c p3
371.04 503.19 0.43 c p3
371.19 503.82 0.43 c p3
371.34 510.13 0.43 c p3
371.48 506.32 0.43 c p3
371.63 502.34 0.43 c p3
371.77 501.49 0.43 c p3
371.92 506.11 0.43 c p3
372.06 506.96 0.43 c p3
372.21 510.13 0.43 c p3
372.35 502.55 0.43 c p3
372.50 501.92 0.43 c p3
372.65 504.88 0.43 c p3
372.79 506.75 0.43 c p3
372.94 509.50 0.43 c p3
373.08 503.40 0.43 c p3
373.23 501.28 0.43 c p3
373.37 502.97 0.43 c p3
373.52 505.69 0.43 c p3
373.66 509.50 0.43 c p3
373.81 505.48 0.43 c p3
373.96 502.13 0.43 c p3
374.10 502.76 0.43 c p3
374.25 507.17 0.43 c p3
374.39 507.38 0.43 c p3
374.54 507.80 0.43 c p3
374.68 505.27 0.43 c p3
374.83 502.55 0.43 c p3
374.98 504.88 0.43 c p3
375.12 506.53 0.43 c p3
375.27 506.75 0.43 c p3
375.41 506.75 0.43 c p3
375.56 503.19 0.43 c p3
375.70 503.40 0.43 c p3
375.85 506.96 0.43 c p3
375.99 506.96 0.43 c p3
376.14 506.75 0.43 c p3
376.29 506.11 0.43 c p3
376.43 503.82 0.43 c p3
376.58 505.90 0.43 c p3
376.72 506.96 0.43 c p3
376.87 507.80 0.43 c p3
377.01 506.11 0.43 c p3
377.16 505.05 0.43 c p3
377.30 505.69 0.43 c p3
377.45 505.05 0.43 c p3
377.60 505.27 0.43 c p3
377.74 506.53 0.43 c p3
377.89 505.90 0.43 c p3
378.03 504.88 0.43 c p3
378.18 505.69 0.43 c p3
378.32 506.32 0.43 c p3
378.47 506.32 0.43 c p3
378.61 506.32 0.43 c p3
378.76 506.11 0.43 c p3
378.91 505.05 0.43 c p3
379.05 506.96 0.43 c p3
379.20 506.32 0.43 c p3
379.34 506.32 0.43 c p3
379.49 506.32 0.43 c p3
379.63 505.69 0.43 c p3
379.78 506.11 0.43 c p3
379.93 504.67 0.43 c p3
380.07 506.11 0.43 c p3
380.22 506.11 0.43 c p3
380.36 505.48 0.43 c p3
380.51 505.48 0.43 c p3
380.65 506.32 0.43 c p3
380.80 506.53 0.43 c p3
380.94 506.75 0.43 c p3
381.09 505.90 0.43 c p3
381.24 505.48 0.43 c p3
381.38 505.69 0.43 c p3
381.53 506.11 0.43 c p3
381.67 505.05 0.43 c p3
381.82 506.96 0.43 c p3
381.96 506.11 0.43 c p3
382.11 506.53 0.43 c p3
382.25 505.48 0.43 c p3
382.40 505.90 0.43 c p3
0.00 0.00 432.00 576.00 cl
0 0 0 srgb
0.75 setlinewidth
[] 0 setdash
1 setlinecap
1 setlinejoin
10.00 setmiterlimit
np
236.96 345.60 m
145.59 0 l
o
np
236.96 345.60 m
0 -5.76 l
o
np
261.22 345.60 m
0 -5.76 l
o
np
285.49 345.60 m
0 -5.76 l
o
np
309.75 345.60 m
0 -5.76 l
o
np
334.02 345.60 m
0 -5.76 l
o
np
358.28 345.60 m
0 -5.76 l
o
np
382.55 345.60 m
0 -5.76 l
o
/Font1 findfont 10 s
236.96 329.47 (0) .5 0 t
261.22 329.47 (2000) .5 0 t
309.75 329.47 (6000) .5 0 t
358.28 329.47 (10000) .5 0 t
np
216.00 352.00 m
0 144.41 l
o
np
216.00 352.00 m
-5.76 0 l
o
np
216.00 380.88 m
-5.76 0 l
o
np
216.00 409.76 m
-5.76 0 l
o
np
216.00 438.65 m
-5.76 0 l
o
np
216.00 467.53 m
-5.76 0 l
o
np
216.00 496.41 m
-5.76 0 l
o
209.09 348.41 (0.00) 1 0 t
209.09 377.29 (0.05) 1 0 t
209.09 406.17 (0.10) 1 0 t
209.09 435.06 (0.15) 1 0 t
209.09 463.94 (0.20) 1 0 t
209.09 492.82 (0.25) 1 0 t
np
216.00 345.60 m
172.80 0 l
0 172.80 l
-172.80 0 l
0 -172.80 l
o
0.00 0.00 432.00 576.00 cl
/Font1 findfont 10 s
0 0 0 srgb
302.40 313.34 (Time / ms \(total\)) .5 0 t
190.66 432.00 (U / V) .5 90 t
216.00 345.60 388.80 518.40 cl
0 0 0 srgb
0.38 setlinewidth
[ 1.13 1.88] 0 setdash
1 setlinecap
1 setlinejoin
10.00 setmiterlimit
np
222.55 345.60 m
0 172.80 l
o
np
235.65 345.60 m
0 172.80 l
o
np
238.71 345.60 m
0 172.80 l
o
np
325.33 345.60 m
0 172.80 l
o
86.40 57.60 388.80 288.00 cl
1 0 0 srgb
1.50 setlinewidth
[] 0 setdash
1 setlinecap
1 setlinejoin
10.00 setmiterlimit
np
97.60 279.47 m
1.41 -5.15 l
1.40 -5.02 l
1.41 -4.90 l
1.41 -4.79 l
1.41 -4.67 l
1.40 -4.55 l
1.41 -4.45 l
1.41 -4.35 l
1.40 -4.23 l
1.41 -4.14 l
1.41 -4.04 l
1.40 -3.94 l
1.41 -3.85 l
1.41 -3.76 l
1.41 -3.66 l
1.40 -3.58 l
1.41 -3.49 l
1.41 -3.41 l
1.40 -3.33 l
1.41 -3.25 l
1.41 -3.17 l
1.40 -3.09 l
1.41 -3.02 l
1.41 -2.95 l
1.41 -2.88 l
1.40 -2.80 l
1.41 -2.75 l
1.41 -2.67 l
1.40 -2.61 l
1.41 -2.55 l
1.41 -2.49 l
1.41 -2.43 l
1.40 -2.37 l
1.41 -2.31 l
1.41 -2.26 l
1.40 -2.21 l
1.41 -2.15 l
1.41 -2.10 l
1.40 -2.05 l
1.41 -2.00 l
1.41 -1.95 l
1.41 -1.91 l
1.40 -1.86 l
1.41 -1.82 l
1.41 -1.77 l
1.40 -1.73 l
1.41 -1.69 l
1.41 -1.65 l
1.40 -1.61 l
1.41 -1.57 l
1.41 -1.53 l
1.41 -1.50 l
1.40 -1.46 l
1.41 -1.43 l
1.41 -1.39 l
1.40 -1.36 l
1.41 -1.32 l
1.41 -1.30 l
1.41 -1.26 l
1.40 -1.23 l
1.41 -1.21 l
1.41 -1.17 l
1.40 -1.15 l
1.41 -1.12 l
1.41 -1.09 l
1.40 -1.07 l
1.41 -1.04 l
1.41 -1.01 l
1.41 -0.99 l
1.40 -0.97 l
1.41 -0.95 l
1.41 -0.92 l
1.40 -0.90 l
1.41 -0.88 l
1.41 -0.85 l
1.40 -0.84 l
1.41 -0.82 l
1.41 -0.80 l
1.41 -0.77 l
1.40 -0.76 l
1.41 -0.75 l
1.41 -0.72 l
1.40 -0.71 l
1.41 -0.69 l
1.41 -0.67 l
1.41 -0.66 l
1.40 -0.64 l
1.41 -0.62 l
1.41 -0.61 l
1.40 -0.60 l
1.41 -0.58 l
1.41 -0.57 l
1.40 -0.56 l
1.41 -0.54 l
1.41 -0.53 l
1.41 -0.51 l
1.40 -0.50 l
1.41 -0.50 l
1.41 -0.48 l
238.30 83.50 lineto
1.41 -0.46 l
1.41 -0.45 l
1.40 -0.43 l
1.41 -0.43 l
1.41 -0.41 l
1.41 -0.41 l
1.40 -0.39 l
1.41 -0.39 l
1.41 -0.37 l
1.40 -0.37 l
1.41 -0.36 l
1.41 -0.35 l
1.40 -0.34 l
1.41 -0.33 l
1.41 -0.33 l
1.41 -0.32 l
1.40 -0.31 l
1.41 -0.30 l
1.41 -0.30 l
1.40 -0.29 l
1.41 -0.28 l
1.41 -0.27 l
1.41 -0.27 l
1.40 -0.26 l
1.41 -0.26 l
1.41 -0.25 l
1.40 -0.24 l
1.41 -0.24 l
1.41 -0.23 l
1.40 -0.23 l
1.41 -0.22 l
1.41 -0.21 l
1.41 -0.21 l
1.40 -0.21 l
1.41 -0.20 l
1.41 -0.20 l
1.40 -0.19 l
1.41 -0.18 l
1.41 -0.19 l
1.40 -0.17 l
1.41 -0.18 l
1.41 -0.17 l
1.41 -0.16 l
1.40 -0.16 l
1.41 -0.16 l
1.41 -0.15 l
1.40 -0.15 l
1.41 -0.15 l
1.41 -0.14 l
1.41 -0.14 l
1.40 -0.14 l
1.41 -0.13 l
1.41 -0.13 l
1.40 -0.13 l
1.41 -0.12 l
1.41 -0.12 l
1.40 -0.12 l
1.41 -0.11 l
1.41 -0.12 l
1.41 -0.11 l
1.40 -0.10 l
1.41 -0.11 l
1.41 -0.10 l
1.40 -0.10 l
1.41 -0.10 l
1.41 -0.09 l
1.40 -0.09 l
1.41 -0.09 l
1.41 -0.09 l
1.41 -0.09 l
1.40 -0.08 l
1.41 -0.08 l
1.41 -0.08 l
1.40 -0.08 l
1.41 -0.08 l
1.41 -0.07 l
1.41 -0.07 l
1.40 -0.07 l
1.41 -0.07 l
1.41 -0.07 l
1.40 -0.07 l
1.41 -0.06 l
1.41 -0.06 l
1.40 -0.07 l
1.41 -0.06 l
1.41 -0.05 l
1.41 -0.06 l
1.40 -0.06 l
1.41 -0.05 l
1.41 -0.05 l
1.40 -0.06 l
1.41 -0.05 l
1.41 -0.04 l
1.40 -0.05 l
1.41 -0.05 l
1.41 -0.05 l
1.41 -0.04 l
1.40 -0.04 l
1.41 -0.05 l
o
0.00 0.00 432.00 576.00 cl
0 0 0 srgb
0.75 setlinewidth
[] 0 setdash
1 setlinecap
1 setlinejoin
10.00 setmiterlimit
np
97.60 57.60 m
280.00 0 l
o
np
97.60 57.60 m
0 -5.76 l
o
np
144.27 57.60 m
0 -5.76 l
o
np
190.93 57.60 m
0 -5.76 l
o
np
237.60 57.60 m
0 -5.76 l
o
np
284.27 57.60 m
0 -5.76 l
o
np
330.93 57.60 m
0 -5.76 l
o
np
377.60 57.60 m
0 -5.76 l
o
/Font1 findfont 10 s
97.60 41.47 (0) .5 0 t
144.27 41.47 (2000) .5 0 t
190.93 41.47 (4000) .5 0 t
237.60 41.47 (6000) .5 0 t
284.27 41.47 (8000) .5 0 t
330.93 41.47 (10000) .5 0 t
377.60 41.47 (12000) .5 0 t
np
86.40 78.15 m
0 194.19 l
o
np
86.40 78.15 m
-5.76 0 l
o
np
86.40 110.51 m
-5.76 0 l
o
np
86.40 142.88 m
-5.76 0 l
o
np
86.40 175.24 m
-5.76 0 l
o
np
86.40 207.61 m
-5.76 0 l
o
np
86.40 239.97 m
-5.76 0 l
o
np
86.40 272.34 m
-5.76 0 l
o
79.49 74.56 (0.00) 1 0 t
79.49 106.92 (0.05) 1 0 t
79.49 139.29 (0.10) 1 0 t
79.49 171.65 (0.15) 1 0 t
79.49 204.02 (0.20) 1 0 t
79.49 236.38 (0.25) 1 0 t
79.49 268.75 (0.30) 1 0 t
np
86.40 57.60 m
302.40 0 l
0 230.40 l
-302.40 0 l
0 -230.40 l
o
0.00 0.00 432.00 576.00 cl
/Font1 findfont 10 s
0 0 0 srgb
237.60 13.82 (Time / ms \(after pulse\)) .5 0 t
49.54 172.80 (Absorbance A) .5 90 t
86.40 57.60 388.80 288.00 cl
/bg { 1 1 1 srgb } def
0 0 0 srgb
0.75 setlinewidth
[] 0 setdash
1 setlinecap
1 setlinejoin
10.00 setmiterlimit
101.24 267.21 0.65 c p3
101.52 265.67 0.65 c p3
101.80 262.60 0.65 c p3
102.08 267.21 0.65 c p3
102.36 262.60 0.65 c p3
102.64 259.57 0.65 c p3
102.92 259.57 0.65 c p3
103.20 264.90 0.65 c p3
103.48 255.21 0.65 c p3
103.76 258.07 0.65 c p3
104.04 255.95 0.65 c p3
104.32 254.47 0.65 c p3
104.60 255.95 0.65 c p3
104.88 255.21 0.65 c p3
105.16 248.60 0.65 c p3
105.44 253.73 0.65 c p3
105.72 250.06 0.65 c p3
106.00 247.88 0.65 c p3
106.28 247.88 0.65 c p3
106.56 246.44 0.65 c p3
106.84 248.60 0.65 c p3
107.12 245.00 0.65 c p3
107.40 242.86 0.65 c p3
107.68 245.00 0.65 c p3
107.96 242.15 0.65 c p3
108.24 242.15 0.65 c p3
108.52 245.72 0.65 c p3
108.80 238.63 0.65 c p3
109.08 240.74 0.65 c p3
109.36 238.05 0.65 c p3
109.64 235.96 0.65 c p3
109.92 241.45 0.65 c p3
110.20 236.65 0.65 c p3
110.48 237.35 0.65 c p3
110.76 234.58 0.65 c p3
111.04 229.11 0.65 c p3
111.32 234.58 0.65 c p3
111.60 232.52 0.65 c p3
111.88 232.52 0.65 c p3
112.16 235.27 0.65 c p3
112.44 227.76 0.65 c p3
112.72 232.52 0.65 c p3
113.00 227.09 0.65 c p3
113.28 225.75 0.65 c p3
113.56 229.79 0.65 c p3
113.84 225.75 0.65 c p3
114.12 226.42 0.65 c p3
114.40 227.09 0.65 c p3
114.68 221.11 0.65 c p3
114.96 221.11 0.65 c p3
115.24 225.08 0.65 c p3
115.52 223.09 0.65 c p3
115.80 221.11 0.65 c p3
116.08 221.11 0.65 c p3
116.36 216.65 0.65 c p3
116.64 219.91 0.65 c p3
116.92 220.45 0.65 c p3
117.20 221.77 0.65 c p3
117.48 216.00 0.65 c p3
117.76 216.00 0.65 c p3
118.04 210.89 0.65 c p3
118.32 213.43 0.65 c p3
118.60 216.00 0.65 c p3
118.88 212.16 0.65 c p3
119.16 214.07 0.65 c p3
119.44 210.25 0.65 c p3
119.72 208.99 0.65 c p3
120.00 211.52 0.65 c p3
120.28 207.73 0.65 c p3
120.56 208.99 0.65 c p3
120.84 213.43 0.65 c p3
121.12 208.36 0.65 c p3
121.40 207.11 0.65 c p3
121.68 207.11 0.65 c p3
121.96 207.73 0.65 c p3
122.24 204.61 0.65 c p3
122.52 207.11 0.65 c p3
122.80 201.02 0.65 c p3
123.08 203.38 0.65 c p3
123.36 202.25 0.65 c p3
123.64 200.41 0.65 c p3
123.92 202.25 0.65 c p3
124.20 200.41 0.65 c p3
124.48 197.37 0.65 c p3
124.76 198.58 0.65 c p3
125.04 199.80 0.65 c p3
125.32 198.58 0.65 c p3
125.60 200.41 0.65 c p3
125.88 197.37 0.65 c p3
126.16 196.16 0.65 c p3
126.44 193.77 0.65 c p3
126.72 196.77 0.65 c p3
127.00 196.16 0.65 c p3
127.28 192.58 0.65 c p3
127.56 192.58 0.65 c p3
127.84 190.21 0.65 c p3
128.12 196.16 0.65 c p3
128.40 191.39 0.65 c p3
128.68 189.62 0.65 c p3
128.96 190.21 0.65 c p3
129.24 188.45 0.65 c p3
129.52 186.80 0.65 c p3
129.80 186.80 0.65 c p3
130.08 186.80 0.65 c p3
130.36 187.28 0.65 c p3
130.64 186.80 0.65 c p3
130.92 186.80 0.65 c p3
131.20 185.63 0.65 c p3
131.48 185.63 0.65 c p3
131.76 182.18 0.65 c p3
132.04 182.75 0.65 c p3
132.32 181.61 0.65 c p3
132.60 185.05 0.65 c p3
132.88 182.18 0.65 c p3
133.16 180.46 0.65 c p3
133.44 181.03 0.65 c p3
133.72 181.03 0.65 c p3
134.00 181.61 0.65 c p3
134.28 178.20 0.65 c p3
134.56 179.33 0.65 c p3
134.84 177.07 0.65 c p3
135.12 179.90 0.65 c p3
135.40 179.33 0.65 c p3
135.68 176.51 0.65 c p3
135.96 178.76 0.65 c p3
136.24 173.72 0.65 c p3
136.52 174.83 0.65 c p3
136.80 175.95 0.65 c p3
137.08 171.05 0.65 c p3
137.36 172.61 0.65 c p3
137.64 174.27 0.65 c p3
137.92 170.49 0.65 c p3
138.20 171.05 0.65 c p3
138.48 175.39 0.65 c p3
138.76 172.15 0.65 c p3
139.04 173.16 0.65 c p3
139.32 172.61 0.65 c p3
139.60 167.22 0.65 c p3
139.88 168.85 0.65 c p3
140.16 168.31 0.65 c p3
140.44 169.95 0.65 c p3
140.72 169.40 0.65 c p3
141.00 168.85 0.65 c p3
141.28 165.59 0.65 c p3
141.56 167.22 0.65 c p3
141.84 167.76 0.65 c p3
142.12 165.59 0.65 c p3
142.40 162.91 0.65 c p3
142.68 163.98 0.65 c p3
142.96 162.37 0.65 c p3
143.24 165.06 0.65 c p3
143.52 166.68 0.65 c p3
143.80 161.84 0.65 c p3
144.08 162.91 0.65 c p3
144.36 160.78 0.65 c p3
144.64 162.37 0.65 c p3
144.92 160.25 0.65 c p3
145.20 161.84 0.65 c p3
145.48 157.18 0.65 c p3
145.76 157.70 0.65 c p3
146.04 158.14 0.65 c p3
146.32 160.25 0.65 c p3
146.60 157.18 0.65 c p3
146.88 157.18 0.65 c p3
147.16 154.05 0.65 c p3
147.44 151.99 0.65 c p3
147.72 157.70 0.65 c p3
148.00 159.19 0.65 c p3
148.28 152.50 0.65 c p3
148.56 154.57 0.65 c p3
148.84 153.53 0.65 c p3
149.12 158.14 0.65 c p3
149.40 157.18 0.65 c p3
149.68 151.47 0.65 c p3
149.96 150.96 0.65 c p3
150.24 150.96 0.65 c p3
150.52 153.02 0.65 c p3
150.80 154.05 0.65 c p3
151.08 154.05 0.65 c p3
151.36 148.92 0.65 c p3
151.64 144.88 0.65 c p3
151.92 148.41 0.65 c p3
152.20 150.96 0.65 c p3
152.48 150.96 0.65 c p3
152.76 148.92 0.65 c p3
153.04 145.88 0.65 c p3
153.32 145.88 0.65 c p3
153.60 149.94 0.65 c p3
153.88 148.92 0.65 c p3
154.16 147.90 0.65 c p3
154.44 145.88 0.65 c p3
154.72 147.90 0.65 c p3
155.00 144.38 0.65 c p3
155.28 144.88 0.65 c p3
155.56 147.40 0.65 c p3
155.84 144.38 0.65 c p3
156.12 143.46 0.65 c p3
156.40 143.46 0.65 c p3
156.68 142.96 0.65 c p3
156.96 145.88 0.65 c p3
157.24 142.46 0.65 c p3
157.52 142.46 0.65 c p3
157.80 139.50 0.65 c p3
158.08 140.48 0.65 c p3
158.36 141.97 0.65 c p3
158.64 140.48 0.65 c p3
158.92 141.47 0.65 c p3
159.20 138.03 0.65 c p3
159.48 138.52 0.65 c p3
159.76 140.98 0.65 c p3
160.04 137.54 0.65 c p3
160.32 138.52 0.65 c p3
160.60 137.54 0.65 c p3
160.88 139.50 0.65 c p3
161.16 137.54 0.65 c p3
161.44 135.59 0.65 c p3
161.72 137.54 0.65 c p3
162.00 136.56 0.65 c p3
162.28 133.17 0.65 c p3
162.56 136.08 0.65 c p3
162.84 133.66 0.65 c p3
163.12 133.17 0.65 c p3
163.40 133.17 0.65 c p3
163.68 135.59 0.65 c p3
163.96 132.69 0.65 c p3
164.24 132.69 0.65 c p3
164.52 133.17 0.65 c p3
164.80 131.26 0.65 c p3
165.08 133.66 0.65 c p3
165.36 132.69 0.65 c p3
165.64 130.38 0.65 c p3
165.92 132.69 0.65 c p3
166.20 130.86 0.65 c p3
166.48 130.86 0.65 c p3
166.76 132.69 0.65 c p3
167.04 130.38 0.65 c p3
167.32 129.43 0.65 c p3
167.60 128.96 0.65 c p3
167.88 126.60 0.65 c p3
168.16 127.54 0.65 c p3
168.44 129.43 0.65 c p3
168.72 128.01 0.65 c p3
169.00 128.96 0.65 c p3
169.28 126.60 0.65 c p3
169.56 128.48 0.65 c p3
169.84 124.73 0.65 c p3
170.12 128.01 0.65 c p3
170.40 128.48 0.65 c p3
170.68 123.79 0.65 c p3
170.96 125.66 0.65 c p3
171.24 126.13 0.65 c p3
171.52 124.26 0.65 c p3
171.80 125.19 0.65 c p3
172.08 124.73 0.65 c p3
172.36 123.33 0.65 c p3
172.64 122.40 0.65 c p3
172.92 123.33 0.65 c p3
173.20 122.86 0.65 c p3
173.48 123.79 0.65 c p3
173.76 123.33 0.65 c p3
174.04 121.94 0.65 c p3
174.32 123.33 0.65 c p3
174.60 123.79 0.65 c p3
174.88 119.64 0.65 c p3
175.16 120.10 0.65 c p3
175.44 122.40 0.65 c p3
175.72 121.94 0.65 c p3
176.00 120.10 0.65 c p3
176.28 121.02 0.65 c p3
176.56 119.18 0.65 c p3
176.84 120.10 0.65 c p3
177.12 119.64 0.65 c p3
177.40 115.62 0.65 c p3
177.68 118.72 0.65 c p3
177.96 117.89 0.65 c p3
178.24 117.89 0.65 c p3
178.52 116.52 0.65 c p3
178.80 117.43 0.65 c p3
179.08 116.98 0.65 c p3
179.36 117.43 0.65 c p3
179.64 114.72 0.65 c p3
179.92 114.72 0.65 c p3
180.20 116.07 0.65 c p3
180.48 113.82 0.65 c p3
180.76 116.07 0.65 c p3
181.04 116.52 0.65 c p3
181.32 117.43 0.65 c p3
181.60 112.92 0.65 c p3
181.88 115.17 0.65 c p3
182.16 115.62 0.65 c p3
182.44 113.82 0.65 c p3
182.72 115.17 0.65 c p3
183.00 112.47 0.65 c p3
183.28 112.47 0.65 c p3
183.56 114.27 0.65 c p3
183.84 111.58 0.65 c p3
184.12 114.27 0.65 c p3
184.40 111.58 0.65 c p3
184.68 111.58 0.65 c p3
184.96 112.03 0.65 c p3
185.24 113.37 0.65 c p3
185.52 110.25 0.65 c p3
185.80 108.92 0.65 c p3
186.08 109.36 0.65 c p3
186.36 111.58 0.65 c p3
186.64 110.25 0.65 c p3
186.92 110.25 0.65 c p3
187.20 110.25 0.65 c p3
187.48 108.04 0.65 c p3
187.76 111.14 0.65 c p3
188.04 105.92 0.65 c p3
188.32 110.25 0.65 c p3
188.60 108.48 0.65 c p3
188.88 109.36 0.65 c p3
189.16 105.92 0.65 c p3
189.44 106.36 0.65 c p3
189.72 108.92 0.65 c p3
190.00 108.48 0.65 c p3
190.28 108.04 0.65 c p3
190.56 106.36 0.65 c p3
190.84 105.05 0.65 c p3
191.12 106.36 0.65 c p3
191.40 106.36 0.65 c p3
191.68 107.16 0.65 c p3
191.96 105.05 0.65 c p3
192.24 105.49 0.65 c p3
192.52 105.92 0.65 c p3
192.80 102.45 0.65 c p3
193.08 105.92 0.65 c p3
193.36 105.49 0.65 c p3
193.64 104.62 0.65 c p3
193.92 103.75 0.65 c p3
194.20 103.75 0.65 c p3
194.48 102.88 0.65 c p3
194.76 104.62 0.65 c p3
195.04 102.45 0.65 c p3
195.32 103.32 0.65 c p3
195.60 102.45 0.65 c p3
195.88 101.59 0.65 c p3
196.16 102.45 0.65 c p3
196.44 102.88 0.65 c p3
196.72 102.45 0.65 c p3
197.00 102.88 0.65 c p3
197.28 98.17 0.65 c p3
197.56 101.59 0.65 c p3
197.84 102.45 0.65 c p3
198.12 99.88 0.65 c p3
198.40 99.45 0.65 c p3
198.68 101.59 0.65 c p3
198.96 102.45 0.65 c p3
199.24 101.16 0.65 c p3
199.52 100.73 0.65 c p3
199.80 97.75 0.65 c p3
200.08 99.45 0.65 c p3
200.36 99.88 0.65 c p3
200.64 99.02 0.65 c p3
200.92 101.16 0.65 c p3
201.20 97.75 0.65 c p3
201.48 96.90 0.65 c p3
201.76 99.02 0.65 c p3
202.04 98.60 0.65 c p3
202.32 97.75 0.65 c p3
202.60 98.17 0.65 c p3
202.88 99.02 0.65 c p3
203.16 98.17 0.65 c p3
203.44 98.60 0.65 c p3
203.72 99.88 0.65 c p3
204.00 97.75 0.65 c p3
204.28 99.45 0.65 c p3
204.56 96.06 0.65 c p3
204.84 95.64 0.65 c p3
205.12 97.33 0.65 c p3
205.40 96.90 0.65 c p3
205.68 98.17 0.65 c p3
205.96 97.33 0.65 c p3
206.24 94.03 0.65 c p3
206.52 97.33 0.65 c p3
206.80 97.75 0.65 c p3
207.08 94.45 0.65 c p3
207.36 96.48 0.65 c p3
207.64 95.64 0.65 c p3
207.92 96.06 0.65 c p3
208.20 97.33 0.65 c p3
208.48 95.22 0.65 c p3
208.76 95.64 0.65 c p3
209.04 93.19 0.65 c p3
209.32 94.45 0.65 c p3
209.60 94.87 0.65 c p3
209.88 95.64 0.65 c p3
210.16 92.36 0.65 c p3
210.44 91.94 0.65 c p3
210.72 95.64 0.65 c p3
211.00 93.19 0.65 c p3
211.28 92.36 0.65 c p3
211.56 93.19 0.65 c p3
211.84 91.11 0.65 c p3
212.12 91.94 0.65 c p3
212.40 92.36 0.65 c p3
212.68 93.19 0.65 c p3
212.96 93.61 0.65 c p3
213.24 92.78 0.65 c p3
213.52 92.36 0.65 c p3
213.80 93.19 0.65 c p3
214.08 92.36 0.65 c p3
214.36 91.53 0.65 c p3
214.64 91.94 0.65 c p3
214.92 92.36 0.65 c p3
215.20 89.05 0.65 c p3
215.48 89.87 0.65 c p3
215.76 91.11 0.65 c p3
216.04 92.36 0.65 c p3
216.32 90.70 0.65 c p3
216.60 92.78 0.65 c p3
216.88 89.46 0.65 c p3
217.16 92.36 0.65 c p3
217.44 89.46 0.65 c p3
217.72 90.70 0.65 c p3
218.00 91.53 0.65 c p3
218.28 89.87 0.65 c p3
218.56 89.46 0.65 c p3
218.84 89.46 0.65 c p3
219.12 88.64 0.65 c p3
219.40 86.19 0.65 c p3
219.68 88.23 0.65 c p3
219.96 89.46 0.65 c p3
220.24 89.46 0.65 c p3
220.52 88.64 0.65 c p3
220.80 85.78 0.65 c p3
221.08 90.29 0.65 c p3
221.36 89.87 0.65 c p3
221.64 89.87 0.65 c p3
221.92 91.11 0.65 c p3
222.20 88.23 0.65 c p3
222.48 86.60 0.65 c p3
222.76 89.87 0.65 c p3
223.04 87.00 0.65 c p3
223.32 88.23 0.65 c p3
223.60 85.78 0.65 c p3
223.88 87.00 0.65 c p3
224.16 87.41 0.65 c p3
224.44 87.82 0.65 c p3
224.72 88.23 0.65 c p3
225.00 88.64 0.65 c p3
225.28 86.19 0.65 c p3
225.56 87.00 0.65 c p3
225.84 86.19 0.65 c p3
226.12 89.46 0.65 c p3
226.40 87.41 0.65 c p3
226.68 86.60 0.65 c p3
226.96 86.19 0.65 c p3
227.24 85.38 0.65 c p3
227.52 87.41 0.65 c p3
227.80 87.00 0.65 c p3
228.08 83.42 0.65 c p3
228.36 84.57 0.65 c p3
228.64 87.41 0.65 c p3
228.92 85.38 0.65 c p3
229.20 87.41 0.65 c p3
229.48 84.16 0.65 c p3
229.76 86.60 0.65 c p3
230.04 83.82 0.65 c p3
230.32 84.57 0.65 c p3
230.60 83.42 0.65 c p3
230.88 86.19 0.65 c p3
231.16 86.60 0.65 c p3
231.44 83.82 0.65 c p3
231.72 86.60 0.65 c p3
232.00 83.82 0.65 c p3
232.28 83.02 0.65 c p3
232.56 85.78 0.65 c p3
232.84 84.16 0.65 c p3
233.12 83.02 0.65 c p3
233.40 87.00 0.65 c p3
233.68 84.57 0.65 c p3
233.96 85.38 0.65 c p3
234.24 84.57 0.65 c p3
234.52 84.97 0.65 c p3
234.80 83.82 0.65 c p3
235.08 84.97 0.65 c p3
235.36 84.97 0.65 c p3
235.64 81.01 0.65 c p3
235.92 85.38 0.65 c p3
236.20 86.19 0.65 c p3
236.48 83.82 0.65 c p3
236.76 82.62 0.65 c p3
237.04 83.02 0.65 c p3
237.32 83.42 0.65 c p3
237.60 80.61 0.65 c p3
237.88 83.42 0.65 c p3
238.16 83.82 0.65 c p3
238.44 84.57 0.65 c p3
238.72 83.02 0.65 c p3
239.00 81.01 0.65 c p3
239.28 84.57 0.65 c p3
239.56 84.16 0.65 c p3
239.84 81.01 0.65 c p3
240.12 86.19 0.65 c p3
240.40 81.01 0.65 c p3
240.68 82.62 0.65 c p3
240.96 82.21 0.65 c p3
241.24 81.81 0.65 c p3
241.52 83.82 0.65 c p3
241.80 81.81 0.65 c p3
242.08 82.21 0.65 c p3
242.36 81.81 0.65 c p3
242.64 83.02 0.65 c p3
242.92 82.62 0.65 c p3
243.20 81.41 0.65 c p3
243.48 83.42 0.65 c p3
243.76 83.02 0.65 c p3
244.04 80.61 0.65 c p3
244.32 82.62 0.65 c p3
244.60 81.81 0.65 c p3
244.88 81.81 0.65 c p3
245.16 82.21 0.65 c p3
245.44 79.02 0.65 c p3
245.72 80.61 0.65 c p3
246.00 79.82 0.65 c p3
246.28 84.57 0.65 c p3
246.56 83.42 0.65 c p3
246.84 79.82 0.65 c p3
247.12 79.82 0.65 c p3
247.40 78.63 0.65 c p3
247.68 83.42 0.65 c p3
247.96 81.01 0.65 c p3
248.24 83.42 0.65 c p3
248.52 81.01 0.65 c p3
248.80 80.22 0.65 c p3
249.08 81.01 0.65 c p3
249.36 82.21 0.65 c p3
249.64 79.82 0.65 c p3
249.92 81.01 0.65 c p3
250.20 79.42 0.65 c p3
250.48 81.41 0.65 c p3
250.76 80.22 0.65 c p3
251.04 79.02 0.65 c p3
251.32 83.02 0.65 c p3
251.60 80.22 0.65 c p3
251.88 79.02 0.65 c p3
252.16 81.01 0.65 c p3
252.44 81.41 0.65 c p3
252.72 80.22 0.65 c p3
253.00 79.82 0.65 c p3
253.28 79.02 0.65 c p3
253.56 80.61 0.65 c p3
253.84 78.63 0.65 c p3
254.12 81.01 0.65 c p3
254.40 78.23 0.65 c p3
254.68 79.02 0.65 c p3
254.96 79.02 0.65 c p3
255.24 79.42 0.65 c p3
255.52 79.02 0.65 c p3
255.80 82.21 0.65 c p3
256.08 82.21 0.65 c p3
256.36 79.42 0.65 c p3
256.64 80.61 0.65 c p3
256.92 77.44 0.65 c p3
257.20 79.82 0.65 c p3
257.48 80.22 0.65 c p3
257.76 78.23 0.65 c p3
258.04 78.63 0.65 c p3
258.32 79.02 0.65 c p3
258.60 82.21 0.65 c p3
258.88 78.63 0.65 c p3
259.16 78.23 0.65 c p3
259.44 79.42 0.65 c p3
259.72 79.42 0.65 c p3
260.00 80.22 0.65 c p3
260.28 79.42 0.65 c p3
260.56 81.81 0.65 c p3
260.84 77.05 0.65 c p3
261.12 79.42 0.65 c p3
261.40 80.61 0.65 c p3
261.68 79.42 0.65 c p3
261.96 80.61 0.65 c p3
262.24 80.61 0.65 c p3
262.52 80.22 0.65 c p3
262.80 80.61 0.65 c p3
263.08 79.02 0.65 c p3
263.36 79.02 0.65 c p3
263.64 80.61 0.65 c p3
263.92 78.63 0.65 c p3
264.20 76.65 0.65 c p3
264.48 79.82 0.65 c p3
264.76 78.63 0.65 c p3
265.04 79.82 0.65 c p3
265.32 81.41 0.65 c p3
265.60 79.82 0.65 c p3
265.88 80.61 0.65 c p3
266.16 76.26 0.65 c p3
266.44 80.61 0.65 c p3
266.72 77.84 0.65 c p3
267.00 79.02 0.65 c p3
267.28 78.63 0.65 c p3
267.56 79.42 0.65 c p3
267.84 77.05 0.65 c p3
216.00 201.60 367.20 247.68 cl
0 0 0 srgb
0.75 setlinewidth
[] 0 setdash
1 setlinecap
1 setlinejoin
10.00 setmiterlimit
221.60 226.57 0.43 c p1
221.84 225.20 0.43 c p1
222.07 220.17 0.43 c p1
222.31 233.50 0.43 c p1
222.54 224.76 0.43 c p1
222.78 219.79 0.43 c p1
223.01 222.06 0.43 c p1
223.25 237.06 0.43 c p1
223.48 216.12 0.43 c p1
223.72 225.20 0.43 c p1
223.95 222.36 0.43 c p1
224.19 221.02 0.43 c p1
224.42 226.77 0.43 c p1
224.66 227.19 0.43 c p1
224.89 213.57 0.43 c p1
225.13 227.99 0.43 c p1
225.36 221.38 0.43 c p1
225.60 218.32 0.43 c p1
225.84 220.46 0.43 c p1
226.07 219.14 0.43 c p1
226.31 226.44 0.43 c p1
226.54 219.94 0.43 c p1
226.78 216.92 0.43 c p1
227.01 224.13 0.43 c p1
227.25 219.39 0.43 c p1
227.48 221.46 0.43 c p1
227.72 232.05 0.43 c p1
227.95 217.14 0.43 c p1
228.19 224.22 0.43 c p1
228.42 219.82 0.43 c p1
228.66 216.84 0.43 c p1
228.89 231.97 0.43 c p1
229.13 222.51 0.43 c p1
229.36 226.17 0.43 c p1
229.60 221.52 0.43 c p1
229.84 210.42 0.43 c p1
230.07 225.45 0.43 c p1
230.31 222.47 0.43 c p1
230.54 224.42 0.43 c p1
230.78 232.93 0.43 c p1
231.01 216.90 0.43 c p1
231.25 230.19 0.43 c p1
231.48 219.12 0.43 c p1
231.72 217.81 0.43 c p1
231.95 229.36 0.43 c p1
232.19 221.58 0.43 c p1
232.42 225.05 0.43 c p1
232.66 228.51 0.43 c p1
232.89 216.06 0.43 c p1
233.13 217.90 0.43 c p1
233.36 229.24 0.43 c p1
233.60 226.30 0.43 c p1
233.84 223.38 0.43 c p1
234.07 225.18 0.43 c p1
234.31 216.32 0.43 c p1
234.54 225.90 0.43 c p1
234.78 228.98 0.43 c p1
235.01 233.90 0.43 c p1
235.25 221.88 0.43 c p1
235.48 223.64 0.43 c p1
235.72 213.15 0.43 c p1
235.95 220.98 0.43 c p1
236.19 228.86 0.43 c p1
236.42 221.38 0.43 c p1
236.66 227.68 0.43 c p1
236.89 220.24 0.43 c p1
237.13 218.92 0.43 c p1
237.36 226.66 0.43 c p1
237.60 219.28 0.43 c p1
237.84 223.97 0.43 c p1
238.07 236.26 0.43 c p1
238.31 225.79 0.43 c p1
238.54 224.43 0.43 c p1
238.78 226.08 0.43 c p1
239.01 229.21 0.43 c p1
239.25 223.38 0.43 c p1
239.48 230.95 0.43 c p1
239.72 218.01 0.43 c p1
239.95 225.25 0.43 c p1
240.19 224.14 0.43 c p1
240.42 221.33 0.43 c p1
240.66 227.31 0.43 c p1
240.89 224.48 0.43 c p1
241.13 218.78 0.43 c p1
241.36 223.23 0.43 c p1
241.60 227.70 0.43 c p1
241.84 226.33 0.43 c p1
242.07 232.23 0.43 c p1
242.31 226.49 0.43 c p1
242.54 225.12 0.43 c p1
242.78 220.90 0.43 c p1
243.01 229.58 0.43 c p1
243.25 229.64 0.43 c p1
243.48 222.55 0.43 c p1
243.72 224.04 0.43 c p1
243.95 219.85 0.43 c p1
244.19 235.56 0.43 c p1
244.42 225.61 0.43 c p1
244.66 222.83 0.43 c p1
244.89 225.69 0.43 c p1
245.13 222.91 0.43 c p1
245.36 220.39 0.43 c p1
245.60 221.82 0.43 c p1
245.84 223.24 0.43 c p1
246.07 225.82 0.43 c p1
246.31 226.06 0.43 c p1
246.54 227.46 0.43 c p1
246.78 226.08 0.43 c p1
247.01 227.46 0.43 c p1
247.25 220.58 0.43 c p1
247.48 223.32 0.43 c p1
247.72 221.95 0.43 c p1
247.95 231.56 0.43 c p1
248.19 226.03 0.43 c p1
248.42 223.28 0.43 c p1
248.66 225.99 0.43 c p1
248.89 227.32 0.43 c p1
249.13 230.02 0.43 c p1
249.36 223.19 0.43 c p1
249.60 227.21 0.43 c p1
249.84 223.12 0.43 c p1
250.07 231.18 0.43 c p1
250.31 231.12 0.43 c p1
250.54 225.66 0.43 c p1
250.78 232.34 0.43 c p1
251.01 221.55 0.43 c p1
251.25 225.48 0.43 c p1
251.48 229.42 0.43 c p1
251.72 218.95 0.43 c p1
251.95 223.94 0.43 c p1
252.19 229.18 0.43 c p1
252.42 221.38 0.43 c p1
252.66 223.93 0.43 c p1
252.89 235.55 0.43 c p1
253.13 229.02 0.43 c p1
253.36 232.66 0.43 c p1
253.60 232.55 0.43 c p1
253.84 220.87 0.43 c p1
254.07 225.98 0.43 c p1
254.31 225.86 0.43 c p1
254.54 230.97 0.43 c p1
254.78 230.85 0.43 c p1
255.01 230.72 0.43 c p1
255.25 224.10 0.43 c p1
255.48 229.15 0.43 c p1
255.72 231.61 0.43 c p1
255.95 227.58 0.43 c p1
256.19 222.30 0.43 c p1
256.42 226.01 0.43 c p1
256.66 223.31 0.43 c p1
256.89 230.85 0.43 c p1
257.13 235.86 0.43 c p1
257.36 225.42 0.43 c p1
257.60 229.09 0.43 c p1
257.84 225.10 0.43 c p1
258.07 230.03 0.43 c p1
258.31 226.04 0.43 c p1
258.54 230.95 0.43 c p1
258.78 220.88 0.43 c p1
259.01 223.22 0.43 c p1
259.25 225.34 0.43 c p1
259.48 231.46 0.43 c p1
259.72 225.19 0.43 c p1
259.95 226.25 0.43 c p1
260.19 219.83 0.43 c p1
260.42 215.95 0.43 c p1
260.66 230.66 0.43 c p1
260.89 235.28 0.43 c p1
261.13 220.31 0.43 c p1
261.36 226.29 0.43 c p1
261.60 224.84 0.43 c p1
261.84 236.88 0.43 c p1
262.07 235.60 0.43 c p1
262.31 222.97 0.43 c p1
262.54 222.75 0.43 c p1
262.78 223.76 0.43 c p1
263.01 229.68 0.43 c p1
263.25 233.14 0.43 c p1
263.48 234.13 0.43 c p1
263.72 222.84 0.43 c p1
263.95 214.16 0.43 c p1
264.19 223.58 0.43 c p1
264.42 230.65 0.43 c p1
264.66 231.62 0.43 c p1
264.89 227.70 0.43 c p1
265.13 221.39 0.43 c p1
265.36 222.35 0.43 c p1
265.60 232.99 0.43 c p1
265.84 231.50 0.43 c p1
266.07 230.01 0.43 c p1
266.31 226.11 0.43 c p1
266.54 231.87 0.43 c p1
266.78 224.36 0.43 c p1
267.01 226.48 0.43 c p1
267.25 233.42 0.43 c p1
267.48 227.11 0.43 c p1
267.72 225.83 0.43 c p1
267.95 226.73 0.43 c p1
268.19 226.44 0.43 c p1
268.42 234.32 0.43 c p1
268.66 227.03 0.43 c p1
268.89 227.92 0.43 c p1
269.13 221.71 0.43 c p1
269.36 224.94 0.43 c p1
269.60 229.36 0.43 c p1
269.84 226.68 0.43 c p1
270.07 229.91 0.43 c p1
270.31 222.53 0.43 c p1
270.54 224.56 0.43 c p1
270.78 231.30 0.43 c p1
271.01 223.92 0.43 c p1
271.25 227.11 0.43 c p1
271.48 225.60 0.43 c p1
271.72 231.13 0.43 c p1
271.95 227.27 0.43 c p1
272.19 223.44 0.43 c p1
272.42 228.92 0.43 c p1
272.66 227.41 0.43 c p1
272.89 220.13 0.43 c p1
273.13 227.88 0.43 c p1
273.36 222.90 0.43 c p1
273.60 222.55 0.43 c p1
273.84 223.35 0.43 c p1
274.07 229.93 0.43 c p1
274.31 223.79 0.43 c p1
274.54 224.58 0.43 c p1
274.78 226.52 0.43 c p1
275.01 222.71 0.43 c p1
275.25 229.23 0.43 c p1
275.48 227.70 0.43 c p1
275.72 222.95 0.43 c p1
275.95 229.24 0.43 c p1
276.19 225.62 0.43 c p1
276.42 226.37 0.43 c p1
276.66 231.52 0.43 c p1
276.89 226.74 0.43 c p1
277.13 225.22 0.43 c p1
277.36 224.83 0.43 c p1
277.60 219.93 0.43 c p1
277.84 222.92 0.43 c p1
278.07 228.17 0.43 c p1
278.31 225.51 0.43 c p1
278.54 228.50 0.43 c p1
278.78 223.58 0.43 c p1
279.01 228.81 0.43 c p1
279.25 220.54 0.43 c p1
279.48 229.11 0.43 c p1
279.72 230.95 0.43 c p1
279.95 220.44 0.43 c p1
280.19 225.61 0.43 c p1
280.42 227.43 0.43 c p1
280.66 223.65 0.43 c p1
280.89 226.58 0.43 c p1
281.13 226.15 0.43 c p1
281.36 223.50 0.43 c p1
281.60 221.96 0.43 c p1
281.84 224.86 0.43 c p1
282.07 224.42 0.43 c p1
282.31 227.32 0.43 c p1
282.54 226.88 0.43 c p1
282.78 224.22 0.43 c p1
283.01 228.21 0.43 c p1
283.25 229.98 0.43 c p1
283.48 220.70 0.43 c p1
283.72 222.45 0.43 c p1
283.95 228.61 0.43 c p1
284.19 228.15 0.43 c p1
284.42 224.39 0.43 c p1
284.66 227.23 0.43 c p1
284.89 223.48 0.43 c p1
285.13 226.31 0.43 c p1
285.36 225.84 0.43 c p1
285.60 216.86 0.43 c p1
285.84 224.91 0.43 c p1
286.07 223.53 0.43 c p1
286.31 224.15 0.43 c p1
286.54 221.51 0.43 c p1
286.78 224.30 0.43 c p1
287.01 223.82 0.43 c p1
287.25 225.52 0.43 c p1
287.48 219.62 0.43 c p1
287.72 220.23 0.43 c p1
287.95 224.07 0.43 c p1
288.19 219.27 0.43 c p1
288.42 225.26 0.43 c p1
288.66 226.93 0.43 c p1
288.89 229.69 0.43 c p1
289.13 219.49 0.43 c p1
289.36 225.45 0.43 c p1
289.60 227.11 0.43 c p1
289.84 223.37 0.43 c p1
290.07 227.18 0.43 c p1
290.31 221.30 0.43 c p1
290.54 221.87 0.43 c p1
290.78 226.73 0.43 c p1
291.01 220.87 0.43 c p1
291.25 227.85 0.43 c p1
291.48 221.99 0.43 c p1
291.72 222.54 0.43 c p1
291.95 224.16 0.43 c p1
292.19 227.92 0.43 c p1
292.42 221.00 0.43 c p1
292.66 218.37 0.43 c p1
292.89 219.97 0.43 c p1
293.13 225.82 0.43 c p1
293.36 223.17 0.43 c p1
293.60 223.70 0.43 c p1
293.84 224.23 0.43 c p1
294.07 219.48 0.43 c p1
294.31 227.41 0.43 c p1
294.54 215.47 0.43 c p1
294.78 226.33 0.43 c p1
295.01 222.62 0.43 c p1
295.25 225.25 0.43 c p1
295.48 217.54 0.43 c p1
295.72 219.09 0.43 c p1
295.95 225.73 0.43 c p1
296.19 225.18 0.43 c p1
296.42 224.63 0.43 c p1
296.66 221.12 0.43 c p1
296.89 218.49 0.43 c p1
297.13 222.11 0.43 c p1
297.36 222.61 0.43 c p1
297.60 225.02 0.43 c p1
297.84 220.46 0.43 c p1
298.07 221.99 0.43 c p1
298.31 223.52 0.43 c p1
298.54 215.70 0.43 c p1
298.78 224.48 0.43 c p1
299.01 223.92 0.43 c p1
299.25 222.31 0.43 c p1
299.48 220.71 0.43 c p1
299.72 221.18 0.43 c p1
299.95 219.58 0.43 c p1
300.19 224.19 0.43 c p1
300.42 219.48 0.43 c p1
300.66 222.01 0.43 c p1
300.89 220.40 0.43 c p1
301.13 218.80 0.43 c p1
301.36 221.31 0.43 c p1
301.60 222.80 0.43 c p1
301.84 222.22 0.43 c p1
302.07 223.70 0.43 c p1
302.31 212.88 0.43 c p1
302.54 221.50 0.43 c p1
302.78 224.00 0.43 c p1
303.01 218.28 0.43 c p1
303.25 217.70 0.43 c p1
303.48 223.26 0.43 c p1
303.72 225.75 0.43 c p1
303.95 223.10 0.43 c p1
304.19 222.50 0.43 c p1
304.42 215.79 0.43 c p1
304.66 220.29 0.43 c p1
304.89 221.73 0.43 c p1
305.13 220.11 0.43 c p1
305.36 225.65 0.43 c p1
305.60 217.90 0.43 c p1
305.84 216.29 0.43 c p1
306.07 221.78 0.43 c p1
306.31 221.18 0.43 c p1
306.54 219.55 0.43 c p1
306.78 220.98 0.43 c p1
307.01 223.42 0.43 c p1
307.25 221.79 0.43 c p1
307.48 223.20 0.43 c p1
307.72 226.66 0.43 c p1
307.95 221.97 0.43 c p1
308.19 226.44 0.43 c p1
308.42 218.72 0.43 c p1
308.66 218.10 0.43 c p1
308.89 222.53 0.43 c p1
309.13 221.91 0.43 c p1
309.36 225.34 0.43 c p1
309.60 223.69 0.43 c p1
309.84 216.19 0.43 c p1
310.07 224.46 0.43 c p1
310.31 225.85 0.43 c p1
310.54 218.33 0.43 c p1
310.78 223.57 0.43 c p1
311.01 221.93 0.43 c p1
311.25 223.31 0.43 c p1
311.48 226.71 0.43 c p1
311.72 222.03 0.43 c p1
311.95 223.41 0.43 c p1
312.19 217.92 0.43 c p1
312.42 221.29 0.43 c p1
312.66 222.65 0.43 c p1
312.89 224.86 0.43 c p1
313.13 217.37 0.43 c p1
313.36 216.74 0.43 c p1
313.60 225.92 0.43 c p1
313.84 220.43 0.43 c p1
314.07 218.79 0.43 c p1
314.31 221.13 0.43 c p1
314.54 216.51 0.43 c p1
314.78 218.84 0.43 c p1
315.01 220.18 0.43 c p1
315.25 222.51 0.43 c p1
315.48 223.85 0.43 c p1
315.72 222.20 0.43 c p1
315.95 221.54 0.43 c p1
316.19 223.87 0.43 c p1
316.42 222.21 0.43 c p1
316.66 220.56 0.43 c p1
316.89 221.88 0.43 c p1
317.13 223.21 0.43 c p1
317.36 215.62 0.43 c p1
317.60 217.92 0.43 c p1
317.84 221.21 0.43 c p1
318.07 224.51 0.43 c p1
318.31 220.86 0.43 c p1
318.54 226.15 0.43 c p1
318.78 218.54 0.43 c p1
319.01 225.79 0.43 c p1
319.25 219.17 0.43 c p1
319.48 222.45 0.43 c p1
319.72 224.74 0.43 c p1
319.95 221.10 0.43 c p1
320.19 220.42 0.43 c p1
320.42 220.73 0.43 c p1
320.66 219.07 0.43 c p1
320.89 213.51 0.43 c p1
321.13 218.70 0.43 c p1
321.36 221.95 0.43 c p1
321.60 222.25 0.43 c p1
321.84 220.59 0.43 c p1
322.07 214.05 0.43 c p1
322.31 225.12 0.43 c p1
322.54 224.43 0.43 c p1
322.78 224.72 0.43 c p1
323.01 227.98 0.43 c p1
323.25 221.37 0.43 c p1
323.48 217.75 0.43 c p1
323.72 225.89 0.43 c p1
323.95 219.30 0.43 c p1
324.19 222.52 0.43 c p1
324.42 216.95 0.43 c p1
324.66 220.16 0.43 c p1
324.89 221.41 0.43 c p1
325.13 222.67 0.43 c p1
325.36 223.93 0.43 c p1
325.60 225.19 0.43 c p1
325.84 219.60 0.43 c p1
326.07 221.82 0.43 c p1
326.31 220.15 0.43 c p1
326.54 228.25 0.43 c p1
326.78 223.62 0.43 c p1
327.01 221.94 0.43 c p1
327.25 221.23 0.43 c p1
327.48 219.55 0.43 c p1
327.72 224.69 0.43 c p1
327.95 223.98 0.43 c p1
328.19 215.67 0.43 c p1
328.42 218.67 0.43 c p1
328.66 225.74 0.43 c p1
328.89 221.13 0.43 c p1
329.13 226.26 0.43 c p1
329.36 218.74 0.43 c p1
329.60 224.82 0.43 c p1
329.84 218.44 0.43 c p1
330.07 220.47 0.43 c p1
330.31 217.98 0.43 c p1
330.54 224.85 0.43 c p1
330.78 226.08 0.43 c p1
331.01 219.70 0.43 c p1
331.25 226.57 0.43 c p1
331.48 220.19 0.43 c p1
331.72 218.51 0.43 c p1
331.95 225.36 0.43 c p1
332.19 221.72 0.43 c p1
332.42 219.23 0.43 c p1
332.66 229.00 0.43 c p1
332.89 223.41 0.43 c p1
333.13 225.59 0.43 c p1
333.36 223.89 0.43 c p1
333.60 225.09 0.43 c p1
333.84 222.58 0.43 c p1
334.07 225.56 0.43 c p1
334.31 225.79 0.43 c p1
334.54 216.56 0.43 c p1
334.78 227.22 0.43 c p1
335.01 229.39 0.43 c p1
335.25 223.97 0.43 c p1
335.48 221.31 0.43 c p1
335.72 222.49 0.43 c p1
335.95 223.68 0.43 c p1
336.19 217.19 0.43 c p1
336.42 224.12 0.43 c p1
336.66 225.31 0.43 c p1
336.89 227.30 0.43 c p1
337.13 223.82 0.43 c p1
337.36 219.25 0.43 c p1
337.60 227.96 0.43 c p1
337.84 227.20 0.43 c p1
338.07 219.89 0.43 c p1
338.31 232.48 0.43 c p1
338.54 220.32 0.43 c p1
338.78 224.37 0.43 c p1
339.01 223.61 0.43 c p1
339.25 222.87 0.43 c p1
339.48 227.88 0.43 c p1
339.72 223.28 0.43 c p1
339.95 224.45 0.43 c p1
340.19 223.70 0.43 c p1
340.42 226.78 0.43 c p1
340.66 226.02 0.43 c p1
340.89 223.35 0.43 c p1
341.13 228.35 0.43 c p1
341.36 227.59 0.43 c p1
341.60 222.04 0.43 c p1
341.84 227.03 0.43 c p1
342.07 225.31 0.43 c p1
342.31 225.50 0.43 c p1
342.54 226.66 0.43 c p1
342.78 219.22 0.43 c p1
343.01 223.22 0.43 c p1
343.25 221.51 0.43 c p1
343.48 233.06 0.43 c p1
343.72 230.51 0.43 c p1
343.95 222.08 0.43 c p1
344.19 222.27 0.43 c p1
344.42 219.61 0.43 c p1
344.66 231.27 0.43 c p1
344.89 225.70 0.43 c p1
345.13 231.64 0.43 c p1
345.36 226.07 0.43 c p1
345.60 224.34 0.43 c p1
345.84 226.44 0.43 c p1
346.07 229.49 0.43 c p1
346.31 223.94 0.43 c p1
346.54 226.98 0.43 c p1
346.78 223.35 0.43 c p1
347.01 228.29 0.43 c p1
347.25 225.61 0.43 c p1
347.48 222.93 0.43 c p1
347.72 232.67 0.43 c p1
347.95 226.14 0.43 c p1
348.19 223.46 0.43 c p1
348.42 228.39 0.43 c p1
348.66 229.52 0.43 c p1
348.89 226.83 0.43 c p1
349.13 226.05 0.43 c p1
349.36 224.32 0.43 c p1
349.60 228.29 0.43 c p1
349.84 223.71 0.43 c p1
350.07 229.59 0.43 c p1
350.31 223.10 0.43 c p1
350.54 225.16 0.43 c p1
350.78 225.33 0.43 c p1
351.01 226.44 0.43 c p1
351.25 225.66 0.43 c p1
351.48 233.45 0.43 c p1
351.72 233.61 0.43 c p1
351.95 227.09 0.43 c p1
352.19 230.11 0.43 c p1
352.42 222.68 0.43 c p1
352.66 228.52 0.43 c p1
352.89 229.63 0.43 c p1
353.13 225.04 0.43 c p1
353.36 226.15 0.43 c p1
353.60 227.25 0.43 c p1
353.84 235.04 0.43 c p1
354.07 226.61 0.43 c p1
354.31 225.82 0.43 c p1
354.54 228.82 0.43 c p1
354.78 228.97 0.43 c p1
355.01 231.03 0.43 c p1
355.25 229.28 0.43 c p1
355.48 235.15 0.43 c p1
355.72 223.90 0.43 c p1
355.95 229.73 0.43 c p1
356.19 232.73 0.43 c p1
356.42 230.02 0.43 c p1
356.66 233.02 0.43 c p1
356.89 233.17 0.43 c p1
357.13 232.36 0.43 c p1
357.36 233.46 0.43 c p1
357.60 229.80 0.43 c p1
357.84 229.94 0.43 c p1
358.07 233.89 0.43 c p1
358.31 229.28 0.43 c p1
358.54 224.70 0.43 c p1
358.78 232.41 0.43 c p1
359.01 229.70 0.43 c p1
359.25 232.69 0.43 c p1
359.48 236.64 0.43 c p1
359.72 232.97 0.43 c p1
359.95 235.01 0.43 c p1
360.19 224.73 0.43 c p1
360.42 235.28 0.43 c p1
360.66 228.77 0.43 c p1
360.89 231.75 0.43 c p1
361.13 230.93 0.43 c p1
361.36 232.96 0.43 c p1
361.60 227.42 0.43 c p1
0.00 0.00 432.00 576.00 cl
0 0 0 srgb
0.75 setlinewidth
[] 0 setdash
1 setlinecap
1 setlinejoin
10.00 setmiterlimit
np
218.54 201.60 m
137.26 0 l
o
np
218.54 201.60 m
0 -5.76 l
o
np
238.15 201.60 m
0 -5.76 l
o
np
257.76 201.60 m
0 -5.76 l
o
np
277.36 201.60 m
0 -5.76 l
o
np
296.97 201.60 m
0 -5.76 l
o
np
316.58 201.60 m
0 -5.76 l
o
np
336.19 201.60 m
0 -5.76 l
o
np
355.80 201.60 m
0 -5.76 l
o
/Font1 findfont 6 s
218.54 185.47 (0) .5 0 t
238.15 185.47 (1000) .5 0 t
257.76 185.47 (2000) .5 0 t
277.36 185.47 (3000) .5 0 t
296.97 185.47 (4000) .5 0 t
316.58 185.47 (5000) .5 0 t
336.19 185.47 (6000) .5 0 t
355.80 185.47 (7000) .5 0 t
np
216.00 209.16 m
0 30.96 l
o
np
216.00 209.16 m
-5.76 0 l
o
np
216.00 216.90 m
-5.76 0 l
o
np
216.00 224.64 m
-5.76 0 l
o
np
216.00 232.38 m
-5.76 0 l
o
np
216.00 240.12 m
-5.76 0 l
o
209.09 207.00 (-0.010) 1 0 t
209.09 214.74 (-0.005) 1 0 t
209.09 222.49 (0.000) 1 0 t
209.09 230.23 (0.005) 1 0 t
209.09 237.97 (0.010) 1 0 t
np
216.00 201.60 m
151.20 0 l
0 46.08 l
-151.20 0 l
0 -46.08 l
o
0.00 0.00 432.00 576.00 cl
/Font1 findfont 9 s
0 0 0 srgb
291.60 262.88 (Residuals) .5 0 t
59.04 73.44 401.76 516.96 cl
ep
%%Trailer
%%Pages: 1
%%EOF
