%!PS-Adobe-3.0 EPSF-3.0
%%DocumentNeededResources: font Helvetica
%%+ font Helvetica-Bold
%%+ font Helvetica-Oblique
%%+ font Helvetica-BoldOblique
%%+ font Symbol
%%Title: R Graphics Output
%%Creator: R Software
%%Pages: (atend)
%%BoundingBox: 0 0 432 576
%%EndComments
%%BeginProlog
/bp  { gs sRGB gs } def
% begin .ps.prolog
/gs  { gsave } bind def
/gr  { grestore } bind def
/ep  { showpage gr gr } bind def
/m   { moveto } bind def
/l  { rlineto } bind def
/np  { newpath } bind def
/cp  { closepath } bind def
/f   { fill } bind def
/o   { stroke } bind def
/c   { newpath 0 360 arc } bind def
/r   { 4 2 roll moveto 1 copy 3 -1 roll exch 0 exch rlineto 0 rlineto -1 mul 0 exch rlineto closepath } bind def
/p1  { stroke } bind def
/p2  { gsave bg fill grestore newpath } bind def
/p3  { gsave bg fill grestore stroke } bind def
/p6  { gsave bg eofill grestore newpath } bind def
/p7  { gsave bg eofill grestore stroke } bind def
/t   { 5 -2 roll moveto gsave rotate
       1 index stringwidth pop
       mul neg 0 rmoveto show grestore } bind def
/ta  { 4 -2 roll moveto gsave rotate show } bind def
/tb  { 2 -1 roll 0 rmoveto show } bind def
/cl  { grestore gsave newpath 3 index 3 index moveto 1 index
       4 -1 roll lineto  exch 1 index lineto lineto
       closepath clip newpath } bind def
/rgb { setrgbcolor } bind def
/s   { scalefont setfont } bind def
% end   .ps.prolog
/sRGB { [ /CIEBasedABC
          << /DecodeLMN
               [ { dup 0.03928 le
                        {12.92321 div}
                        {0.055 add 1.055 div 2.4 exp }
                     ifelse
                 } bind dup dup
               ]
             /MatrixLMN [0.412457 0.212673 0.019334
                         0.357576 0.715152 0.119192
                         0.180437 0.072175 0.950301]
             /WhitePoint [0.9505 1.0 1.0890]
           >>
         ] setcolorspace } bind def
/srgb { setcolor } bind def
% begin encoding
/WinAnsiEncoding [
 /.notdef /.notdef /.notdef /.notdef /.notdef /.notdef /.notdef /.notdef
 /.notdef /.notdef /.notdef /.notdef /.notdef /.notdef /.notdef /.notdef
 /.notdef /.notdef /.notdef /.notdef /.notdef /.notdef /.notdef /.notdef
 /.notdef /.notdef /.notdef /.notdef /.notdef /.notdef /.notdef /.notdef
 /space /exclam /quotedbl /numbersign /dollar /percent /ampersand /quoteright
 /parenleft /parenright /asterisk /plus /comma /minus /period /slash
 /zero /one /two /three /four /five /six /seven
 /eight /nine /colon /semicolon /less /equal /greater /question
 /at /A /B /C /D /E /F /G
 /H /I /J /K /L /M /N /O
 /P /Q /R /S /T /U /V /W
 /X /Y /Z /bracketleft /backslash /bracketright /asciicircum /underscore
 /grave /a /b /c /d /e /f /g
 /h /i /j /k /l /m /n /o
 /p /q /r /s /t /u /v /w
 /x /y /z /braceleft /bar /braceright /asciitilde /.notdef
 /Euro /.notdef /quotesinglbase /florin /quotedblbase /ellipsis /dagger /daggerdbl
 /circumflex /perthousand /Scaron /guilsinglleft /OE /.notdef /Zcaron /.notdef
 /.notdef /quoteleft /quoteright /quotedblleft /quotedblright /bullet /endash /emdash
 /tilde /trademark /scaron /guilsinglright /oe /.notdef /zcaron /Ydieresis
 /space /exclamdown /cent /sterling /currency /yen /brokenbar /section
 /dieresis /copyright /ordfeminine /guillemotleft /logicalnot /hyphen /registered /macron
 /degree /plusminus /twosuperior /threesuperior /acute /mu /paragraph /periodcentered
 /cedilla /onesuperior /ordmasculine /guillemotright /onequarter /onehalf /threequarters /questiondown
 /Agrave /Aacute /Acircumflex /Atilde /Adieresis /Aring /AE /Ccedilla
 /Egrave /Eacute /Ecircumflex /Edieresis /Igrave /Iacute /Icircumflex /Idieresis
 /Eth /Ntilde /Ograve /Oacute /Ocircumflex /Otilde /Odieresis /multiply
 /Oslash /Ugrave /Uacute /Ucircumflex /Udieresis /Yacute /Thorn /germandbls
 /agrave /aacute /acircumflex /atilde /adieresis /aring /ae /ccedilla
 /egrave /eacute /ecircumflex /edieresis /igrave /iacute /icircumflex /idieresis
 /eth /ntilde /ograve /oacute /ocircumflex /otilde /odieresis /divide
 /oslash /ugrave /uacute /ucircumflex /udieresis /yacute /thorn /ydieresis
]
 def
% end encoding
%%IncludeResource: font Helvetica
/Helvetica findfont
dup length dict begin
  {1 index /FID ne {def} {pop pop} ifelse} forall
  /Encoding WinAnsiEncoding def
  currentdict
  end
/Font1 exch definefont pop
%%IncludeResource: font Helvetica-Bold
/Helvetica-Bold findfont
dup length dict begin
  {1 index /FID ne {def} {pop pop} ifelse} forall
  /Encoding WinAnsiEncoding def
  currentdict
  end
/Font2 exch definefont pop
%%IncludeResource: font Helvetica-Oblique
/Helvetica-Oblique findfont
dup length dict begin
  {1 index /FID ne {def} {pop pop} ifelse} forall
  /Encoding WinAnsiEncoding def
  currentdict
  end
/Font3 exch definefont pop
%%IncludeResource: font Helvetica-BoldOblique
/Helvetica-BoldOblique findfont
dup length dict begin
  {1 index /FID ne {def} {pop pop} ifelse} forall
  /Encoding WinAnsiEncoding def
  currentdict
  end
/Font4 exch definefont pop
%%IncludeResource: font Symbol
/Symbol findfont
dup length dict begin
  {1 index /FID ne {def} {pop pop} ifelse} forall
  currentdict
  end
/Font5 exch definefont pop
%%EndProlog
%%Page: 1 1
bp
/bg { 1 1 1 srgb } def
0.00 0.00 432.00 576.00 r p2
0.00 0.00 432.00 576.00 cl
0.00 0.00 432.00 576.00 cl
0.00 0.00 432.00 576.00 cl
/Font1 findfont 12 s
0 0 0 srgb
48.00 508.72 (PCP-ETH) 0 0 t
48.00 494.89 (Flash light photolysis) 0 0 t
/Font1 findfont 9 s
48.00 457.54 (File: Solv) 0 ta
-0.225 (ent_debendence_sol5_2_MSLM.dat) tb gr
48.00 334.87 (Sat Mar 05 15:18:33 2022) 0 0 t
48.00 430.87 (Fit function:  a + b * e) 0 ta
-0.270 (xp\(-c * t\)) tb gr
48.00 420.50 (t-Inter) 0 ta
0.270 (v) tb
-0.225 (all: 225.000 ... 23670.000 ms) tb gr
48.00 410.14 (P) 0 ta
-0.360 (ar) tb
-0.090 (ameters \(Standard de) tb
-0.270 (viation\):) tb gr
48.00 399.77 (  a = -0.01371 \(0.00048\)) 0 0 t
48.00 389.40 (  b = 0.15339 \(0.00114\)) 0 0 t
48.00 379.03 (  c = 2.040e-01 \(3.214e-03\) s^-1) 0 0 t
48.00 368.66 (  tau = 4.901e+00 \(7.721e-02\) s) 0 0 t
216.00 345.60 388.80 518.40 cl
0 0 0 srgb
0.75 setlinewidth
[] 0 setdash
1 setlinecap
1 setlinejoin
10.00 setmiterlimit
np
222.40 489.52 m
0.15 -0.13 l
0.14 -0.16 l
0.15 0.78 l
0.14 0 l
0.15 -0.78 l
0.14 -1.12 l
0.15 2.06 l
0.14 -0.65 l
0.15 -1.25 l
0.15 0.64 l
0.14 0.94 l
0.15 0.80 l
0.14 -1.26 l
0.15 -0.64 l
0.14 0.48 l
0.15 0.45 l
0.14 -0.16 l
0.15 0.81 l
0.15 -0.65 l
0.14 -0.45 l
0.15 -0.80 l
0.14 -0.16 l
0.15 2.06 l
0.14 -0.48 l
0.15 -0.17 l
0.15 -0.45 l
0.14 0 l
0.15 0.16 l
0.14 0 l
0.15 0.46 l
0.14 -0.62 l
0.15 0.16 l
0.14 0.94 l
0.15 0 l
0.15 -0.32 l
0.14 -0.33 l
0.15 0.49 l
0.14 -0.65 l
0.15 0.49 l
0.14 -0.62 l
0.15 -0.96 l
0.14 1.09 l
0.15 0.33 l
0.15 0.32 l
0.14 -0.94 l
0.15 1.10 l
0.14 -0.32 l
0.15 0.32 l
0.14 -1.26 l
0.15 -0.16 l
0.14 1.10 l
0.15 -0.78 l
0.15 0.62 l
0.14 -0.17 l
0.15 0.65 l
0.14 -0.16 l
0.15 -0.32 l
0.14 -0.62 l
0.15 2.06 l
0.15 -0.80 l
0.14 -0.64 l
0.15 0.32 l
0.14 0.64 l
0.15 -0.96 l
0.14 0.48 l
0.15 -1.10 l
0.14 0.29 l
0.15 0 l
0.15 0.33 l
0.14 0.48 l
0.15 -0.16 l
0.14 -0.78 l
0.15 0.13 l
0.14 0.33 l
0.15 0.80 l
0.14 -0.32 l
0.15 0 l
0.15 0.96 l
0.14 0.16 l
0.15 -1.44 l
0.14 0.48 l
0.15 -0.64 l
0.14 0.96 l
0.15 -0.32 l
0.14 0 l
0.15 0.64 l
0.15 -1.74 l
0.14 1.10 l
0.15 0 l
0.14 -0.48 l
0.15 0.64 l
0.14 0 l
0.15 0 l
0.15 -0.80 l
0.14 0.48 l
0.15 0.48 l
0.14 -0.16 l
0.15 0.16 l
0.14 -0.16 l
236.96 441.42 lineto
0.14 -0.17 l
0.15 2.39 l
0.15 1.44 l
0.14 -0.16 l
0.15 2.22 l
0.14 0.96 l
0.15 0.80 l
0.14 1.13 l
0.15 0.77 l
0.14 1.76 l
0.15 -1.12 l
0.15 1.12 l
0.14 0.97 l
0.15 1.57 l
0.14 0.32 l
0.15 0.16 l
0.14 0.16 l
0.15 1.13 l
0.14 -0.16 l
0.15 0.96 l
0.15 -0.32 l
0.14 1.12 l
0.15 0.48 l
0.14 0.78 l
0.15 -0.78 l
0.14 1.90 l
0.15 0 l
0.15 0.32 l
0.14 0.80 l
0.15 -0.32 l
0.14 0.48 l
0.15 -0.48 l
0.14 1.28 l
0.15 -0.48 l
0.14 0.48 l
0.15 -0.16 l
0.15 0.81 l
0.14 0.13 l
0.15 1.28 l
0.14 0.48 l
0.15 0.48 l
0.14 -0.64 l
0.15 0.80 l
0.14 0.65 l
0.15 -0.81 l
0.15 0.32 l
0.14 0.97 l
0.15 0.16 l
0.14 0.16 l
0.15 0.16 l
0.14 0.77 l
0.15 -0.16 l
0.14 0.16 l
0.15 -0.61 l
0.15 0.77 l
0.14 0.64 l
0.15 -0.48 l
0.14 0.64 l
0.15 0.49 l
0.14 0 l
0.15 0.16 l
0.15 -0.33 l
0.14 0.65 l
0.15 1.28 l
0.14 -0.48 l
0.15 0.16 l
0.14 0.16 l
0.15 0.77 l
0.14 -0.93 l
0.15 0.80 l
0.15 0.13 l
0.14 0.65 l
0.15 -0.17 l
0.14 -0.16 l
0.15 0.16 l
0.14 0.17 l
0.15 1.60 l
0.14 -0.96 l
0.15 0.64 l
0.15 -0.16 l
0.14 -0.48 l
0.15 0.80 l
0.14 0.32 l
0.15 -0.96 l
0.14 0.48 l
0.15 1.12 l
0.14 0.32 l
0.15 0.16 l
0.15 -0.64 l
0.14 0.48 l
0.15 0.32 l
0.14 0 l
0.15 -0.16 l
0.14 -0.48 l
0.15 1.74 l
0.15 -0.78 l
0.14 0.30 l
0.15 0.48 l
0.14 0.16 l
251.52 478.22 lineto
0.14 -0.16 l
0.15 -0.48 l
0.14 0.16 l
0.15 0 l
0.15 -0.16 l
0.14 0.16 l
0.15 0.48 l
0.14 0.32 l
0.15 -0.64 l
0.14 0 l
0.15 0.80 l
0.14 0.32 l
0.15 -0.48 l
0.15 0.32 l
0.14 -0.48 l
0.15 1.12 l
0.14 0.64 l
0.15 -0.80 l
0.14 0.16 l
0.15 0.80 l
0.14 -1.44 l
0.15 0.64 l
0.15 0.48 l
0.14 0.81 l
0.15 -1.45 l
0.14 0.96 l
0.15 -0.16 l
0.14 0.32 l
0.15 0.33 l
0.14 -0.65 l
0.15 -0.16 l
0.15 1.10 l
0.14 -0.45 l
0.15 0.61 l
0.14 -0.45 l
0.15 0.77 l
0.14 -1.10 l
0.15 0.62 l
0.15 0.80 l
0.14 0.16 l
0.15 -1.41 l
0.14 1.73 l
0.15 -0.64 l
0.14 0.16 l
0.15 0.64 l
0.14 -0.80 l
0.15 0.64 l
0.15 0.48 l
0.14 -1.12 l
0.15 1.28 l
0.14 -1.28 l
0.15 0.16 l
0.14 0.48 l
0.15 0.16 l
0.14 0.64 l
0.15 0.16 l
0.15 -0.96 l
0.14 0 l
0.15 0.96 l
0.14 -0.32 l
0.15 0.32 l
0.14 0.16 l
0.15 -0.32 l
0.14 0.16 l
0.15 0 l
0.15 0.49 l
0.14 -0.49 l
0.15 0.16 l
0.14 -0.80 l
0.15 0.80 l
0.14 -0.80 l
0.15 1.77 l
0.15 -0.81 l
0.14 -0.80 l
0.15 0.64 l
0.14 0.33 l
0.15 0.32 l
0.14 -0.49 l
0.15 0.97 l
0.14 -0.48 l
0.15 -0.49 l
0.15 0.65 l
0.14 -0.16 l
0.15 0.48 l
0.14 -0.80 l
0.15 0.32 l
0.14 0.48 l
0.15 0.16 l
0.14 -1.13 l
0.15 0.97 l
0.15 0.48 l
0.14 0.29 l
0.15 -0.61 l
0.14 -0.16 l
0.15 0.61 l
0.14 -0.45 l
0.15 0 l
0.14 -0.16 l
0.15 0.48 l
266.08 485.38 lineto
0.14 -0.29 l
0.15 0.13 l
0.14 -0.13 l
0.15 0.13 l
0.14 -0.61 l
0.15 0.48 l
0.15 0.61 l
0.14 0 l
0.15 0.32 l
0.14 -0.80 l
0.15 0.16 l
0.14 0.16 l
0.15 0.32 l
0.14 -0.93 l
0.15 0.61 l
0.15 0.32 l
0.14 0 l
0.15 1.13 l
0.14 -1.45 l
0.15 0.64 l
0.14 0.32 l
0.15 0.49 l
0.14 -1.45 l
0.15 -0.16 l
0.15 0.80 l
0.14 0 l
0.15 0.49 l
0.14 -0.33 l
0.15 0.16 l
0.14 -1.12 l
0.15 0.48 l
0.14 0.48 l
0.15 0.65 l
0.15 -0.49 l
0.14 0.17 l
0.15 0.64 l
0.14 -0.97 l
0.15 0.81 l
0.14 -0.32 l
0.15 0.64 l
0.15 -1.13 l
0.14 0.16 l
0.15 0 l
0.14 0.49 l
0.15 -0.16 l
0.14 0.16 l
0.15 0.32 l
0.14 0.16 l
0.15 -0.64 l
0.15 0 l
0.14 0.48 l
0.15 1.12 l
0.14 0.32 l
0.15 -1.60 l
0.14 0.64 l
0.15 -0.16 l
0.14 0 l
0.15 -0.32 l
0.15 0.48 l
0.14 0.64 l
0.15 -0.96 l
0.14 0 l
0.15 0.80 l
0.14 -0.32 l
0.15 -0.48 l
0.14 0.48 l
0.15 1.44 l
0.15 -0.80 l
0.14 -0.16 l
0.15 0.32 l
0.14 -0.48 l
0.15 -0.32 l
0.14 -0.64 l
0.15 1.44 l
0.15 0.16 l
0.14 -0.16 l
0.15 -0.16 l
0.14 -0.80 l
0.15 1.12 l
0.14 -0.48 l
0.15 0.48 l
0.14 -0.64 l
0.15 0.96 l
0.15 0.16 l
0.14 0 l
0.15 -0.48 l
0.14 -0.48 l
0.15 0.80 l
0.14 0 l
0.15 0 l
0.14 0.62 l
0.15 0.32 l
0.15 -0.78 l
0.14 -0.32 l
0.15 0.61 l
0.14 0 l
0.15 0.17 l
0.14 -0.46 l
0.15 -0.32 l
280.63 490.01 lineto
0.15 -0.78 l
0.15 0.45 l
0.14 0.33 l
0.15 -0.49 l
0.14 0.65 l
0.15 -0.32 l
0.14 -0.33 l
0.15 1.45 l
0.15 -1.45 l
0.14 0.81 l
0.15 0.48 l
0.14 -0.32 l
0.15 -0.16 l
0.14 -0.81 l
0.15 0.49 l
0.14 0.96 l
0.15 -0.96 l
0.15 0 l
0.14 0.48 l
0.15 0.48 l
0.14 -0.32 l
0.15 0.16 l
0.14 0.16 l
0.15 0.16 l
0.14 -1.12 l
0.15 -0.33 l
0.15 1.29 l
0.14 -0.16 l
0.15 -0.32 l
0.14 0.32 l
0.15 0.48 l
0.14 0.16 l
0.15 -0.48 l
0.14 -0.16 l
0.15 0.48 l
0.15 0.32 l
0.14 -1.28 l
0.15 1.60 l
0.14 -0.16 l
0.15 0 l
0.14 -0.32 l
0.15 -0.48 l
0.14 1.92 l
0.15 -1.12 l
0.15 -0.16 l
0.14 -0.16 l
0.15 0.32 l
0.14 0.16 l
0.15 -0.32 l
0.14 -0.80 l
0.15 0 l
0.15 0.96 l
0.14 0.16 l
0.15 -0.16 l
0.14 0.80 l
0.15 -0.64 l
0.14 0.16 l
0.15 -0.80 l
0.14 0.16 l
0.15 0.48 l
0.15 0.32 l
0.14 0 l
0.15 -0.16 l
0.14 0.64 l
0.15 -0.80 l
0.14 -0.32 l
0.15 -0.32 l
0.14 0.96 l
0.15 0.32 l
0.15 -0.80 l
0.14 0.64 l
0.15 -0.64 l
0.14 0.64 l
0.15 0.32 l
0.14 0.16 l
0.15 0 l
0.14 -1.76 l
0.15 1.28 l
0.15 0.64 l
0.14 -0.32 l
0.15 0.32 l
0.14 -0.64 l
0.15 -0.16 l
0.14 -0.16 l
0.15 -0.16 l
0.15 1.12 l
0.14 -0.64 l
0.15 0.80 l
0.14 -0.64 l
0.15 0.48 l
0.14 -0.32 l
0.15 0.48 l
0.14 -0.16 l
0.15 0.16 l
0.15 -0.16 l
0.14 0.48 l
0.15 -0.96 l
0.14 -0.16 l
0.15 0.64 l
295.19 492.57 lineto
0.15 0.64 l
0.14 -0.48 l
0.15 0.96 l
0.15 -0.80 l
0.14 0.48 l
0.15 0.46 l
0.14 -0.46 l
0.15 0.32 l
0.14 -0.16 l
0.15 0.16 l
0.14 -0.48 l
0.15 0.78 l
0.15 -0.62 l
0.14 0.62 l
0.15 -0.78 l
0.14 -0.16 l
0.15 0.64 l
0.14 -0.64 l
0.15 0.78 l
0.15 -0.46 l
0.14 0.78 l
0.15 -0.94 l
0.14 0.48 l
0.15 0 l
0.14 1.10 l
0.15 -0.96 l
0.14 -0.46 l
0.15 0.16 l
0.15 0.30 l
0.14 0 l
0.15 0 l
0.14 0.96 l
0.15 -1.26 l
0.14 0.46 l
0.15 0.16 l
0.14 0.80 l
0.15 -1.58 l
0.15 0.94 l
0.14 0 l
0.15 0.48 l
0.14 0.96 l
0.15 -1.28 l
0.14 0 l
0.15 0.96 l
0.14 -0.64 l
0.15 0.16 l
0.15 0.32 l
0.14 -1.74 l
0.15 0.16 l
0.14 0.94 l
0.15 0.32 l
0.14 0.16 l
0.15 -0.64 l
0.15 0.32 l
0.14 -0.32 l
0.15 0.80 l
0.14 -1.28 l
0.15 0.16 l
0.14 1.28 l
0.15 0 l
0.14 -0.96 l
0.15 -0.64 l
0.15 0.96 l
0.14 0.16 l
0.15 1.60 l
0.14 -3.18 l
0.15 2.38 l
0.14 -1.28 l
0.15 1.28 l
0.14 -0.96 l
0.15 0.16 l
0.15 0.80 l
0.14 -0.80 l
0.15 0.16 l
0.14 0.64 l
0.15 -0.80 l
0.14 0 l
0.15 0 l
0.14 0.80 l
0.15 0 l
0.15 -0.96 l
0.14 1.12 l
0.15 0 l
0.14 -0.48 l
0.15 -0.32 l
0.14 -0.48 l
0.15 1.12 l
0.15 -0.16 l
0.14 0.32 l
0.15 -0.32 l
0.14 0.64 l
0.15 0.80 l
0.14 -1.60 l
0.15 -1.74 l
0.14 1.26 l
0.15 -0.16 l
0.15 1.76 l
0.14 -1.60 l
0.15 0.80 l
309.75 497.03 lineto
0.15 -1.28 l
0.14 -0.64 l
0.15 1.60 l
0.14 -1.28 l
0.15 0 l
0.15 0.16 l
0.14 0.48 l
0.15 0.64 l
0.14 -1.12 l
0.15 -0.16 l
0.14 0.96 l
0.15 -0.48 l
0.14 -0.32 l
0.15 -0.64 l
0.15 0.80 l
0.14 -0.16 l
0.15 0.48 l
0.14 -0.96 l
0.15 1.28 l
0.14 -0.16 l
0.15 -0.32 l
0.15 0.16 l
0.14 0.64 l
0.15 0.16 l
0.14 0.16 l
0.15 -1.44 l
0.14 0.32 l
0.15 1.12 l
0.14 -1.28 l
0.15 -0.16 l
0.15 0.32 l
0.14 1.93 l
0.15 -0.97 l
0.14 0.16 l
0.15 -0.48 l
0.14 0.16 l
0.15 -0.64 l
0.14 1.28 l
0.15 -0.64 l
0.15 0.48 l
0.14 -0.48 l
0.15 0.32 l
0.14 -0.32 l
0.15 1.13 l
0.14 0 l
0.15 -1.13 l
0.14 -0.80 l
0.15 1.44 l
0.15 -0.16 l
0.14 -0.64 l
0.15 1.13 l
0.14 1.09 l
0.15 3.53 l
0.14 1.74 l
0.15 1.76 l
0.15 0.48 l
0.14 4.46 l
0.15 1.26 l
0.14 -1.10 l
0.15 -0.64 l
0.14 0 l
0.15 0 l
0.14 0.16 l
0.15 0 l
0.15 0.48 l
0.14 -1.60 l
0.15 0.96 l
0.14 -0.16 l
0.15 -1.60 l
0.14 0.64 l
0.15 0.64 l
0.14 -0.32 l
0.15 -0.48 l
0.15 -1.12 l
0.14 2.08 l
0.15 -0.32 l
0.14 0.32 l
0.15 -0.96 l
0.14 0.64 l
0.15 -0.48 l
0.14 -10.05 l
0.15 0 l
0.15 1.28 l
0.14 -2.24 l
0.15 2.73 l
0.14 0.16 l
0.15 -1.45 l
0.14 0 l
0.15 1.29 l
0.14 1.44 l
0.15 -1.44 l
0.15 -1.61 l
0.14 0.96 l
0.15 0 l
0.14 0 l
0.15 0.97 l
0.14 0.16 l
0.15 -0.16 l
0.15 0.16 l
324.31 501.18 lineto
0.15 0.80 l
0.14 -0.64 l
0.15 -0.32 l
0.14 0.16 l
0.15 -0.97 l
0.14 0.81 l
0.15 -0.16 l
0.15 0.16 l
0.14 0.16 l
0.15 -0.97 l
0.14 0.16 l
0.15 -1.28 l
0.14 -0.32 l
0.15 -0.16 l
0.14 1.12 l
0.15 -0.16 l
0.15 -1.73 l
0.14 0.45 l
0.15 -0.94 l
0.14 0.65 l
0.15 0.77 l
0.14 -0.64 l
0.15 0.32 l
0.14 1.12 l
0.15 -2.05 l
0.15 0.48 l
0.14 0.61 l
0.15 0.32 l
0.14 -0.16 l
0.15 0 l
0.14 1.12 l
0.15 -1.44 l
0.15 1.28 l
0.14 -0.80 l
0.15 0.32 l
0.14 0.32 l
0.15 -0.16 l
0.14 0.64 l
0.15 -0.96 l
0.14 0.16 l
0.15 -0.32 l
0.15 1.61 l
0.14 -1.77 l
0.15 1.28 l
0.14 -0.16 l
0.15 0.48 l
0.14 0.81 l
0.15 -0.64 l
0.14 -1.13 l
0.15 1.93 l
0.15 2.21 l
0.14 0.81 l
0.15 1.12 l
0.14 -2.25 l
0.15 -0.80 l
0.14 -0.45 l
0.15 -2.25 l
0.14 -0.16 l
0.15 -1.73 l
0.15 -0.81 l
0.14 0.65 l
0.15 -0.81 l
0.14 0.97 l
0.15 0.16 l
0.14 0.13 l
0.15 -0.29 l
0.15 0 l
0.14 0.77 l
0.15 -0.48 l
0.14 -0.13 l
0.15 0.13 l
0.14 0 l
0.15 0 l
0.14 -0.78 l
0.15 0.33 l
0.15 0.16 l
0.14 0.16 l
0.15 -0.65 l
0.14 0.17 l
0.15 0.77 l
0.14 -0.29 l
0.15 0.13 l
0.14 -0.61 l
0.15 0.48 l
0.15 -5.91 l
0.14 -8.28 l
0.15 0.96 l
0.14 -1.13 l
0.15 -1.60 l
0.14 -2.38 l
0.15 -3.98 l
0.14 -2.40 l
0.15 -0.49 l
0.15 1.61 l
0.14 3.18 l
0.15 0.80 l
0.14 -0.96 l
0.15 -6.84 l
0.14 -1.45 l
338.87 470.10 lineto
0.15 4.46 l
0.14 2.54 l
0.15 8.60 l
0.14 10.21 l
0.15 0 l
0.14 0.96 l
0.15 0 l
0.14 0.16 l
0.15 -0.32 l
0.15 0.48 l
0.14 0.94 l
0.15 -0.45 l
0.14 0 l
0.15 -0.81 l
0.14 -1.60 l
0.15 2.73 l
0.14 -0.16 l
0.15 0.45 l
0.15 -0.45 l
0.14 -0.32 l
0.15 -0.81 l
0.14 -0.16 l
0.15 -0.32 l
0.14 2.06 l
0.15 -1.42 l
0.14 0.65 l
0.15 -1.13 l
0.15 1.74 l
0.14 -0.61 l
0.15 0.32 l
0.14 -0.65 l
0.15 0.81 l
0.14 -0.48 l
0.15 -0.17 l
0.15 0.49 l
0.14 0.61 l
0.15 -0.61 l
0.14 0.16 l
0.15 -0.65 l
0.14 0.65 l
0.15 -1.13 l
0.14 0.48 l
0.15 0.17 l
0.15 0.16 l
0.14 0.16 l
0.15 -0.49 l
0.14 0 l
0.15 0.65 l
0.14 -1.13 l
0.15 0.48 l
0.14 0 l
0.15 0.33 l
0.15 -0.33 l
0.14 -0.16 l
0.15 0.65 l
0.14 -0.16 l
0.15 0.45 l
0.14 -0.61 l
0.15 -0.17 l
0.14 0 l
0.15 1.26 l
0.15 -1.58 l
0.14 0 l
0.15 0.97 l
0.14 -0.16 l
0.15 -0.81 l
0.14 0.65 l
0.15 0.61 l
0.15 -0.94 l
0.14 0 l
0.15 0.49 l
0.14 -0.32 l
0.15 0.32 l
0.14 -0.65 l
0.15 1.10 l
0.14 -1.58 l
0.15 0.64 l
0.15 0.65 l
0.14 0 l
0.15 0.13 l
0.14 -0.78 l
0.15 0 l
0.14 0.94 l
0.15 -0.77 l
0.14 0.61 l
0.15 -0.45 l
0.15 0.45 l
0.14 -0.29 l
0.15 0.45 l
0.14 -0.45 l
0.15 0 l
0.14 1.25 l
0.15 -0.96 l
0.14 -0.78 l
0.15 0.65 l
0.15 0 l
0.14 0 l
0.15 -1.77 l
0.14 1.90 l
353.43 498.13 lineto
0.14 -0.13 l
0.15 -1.93 l
0.14 1.28 l
0.15 1.10 l
0.15 -0.93 l
0.14 0.48 l
0.15 -0.16 l
0.14 1.25 l
0.15 -0.32 l
0.14 0.32 l
0.15 0.16 l
0.15 0.48 l
0.14 0.16 l
0.15 -0.48 l
0.14 1.13 l
0.15 0.80 l
0.14 0.48 l
0.15 -0.80 l
0.14 0.80 l
0.15 -0.80 l
0.15 1.28 l
0.14 -1.28 l
0.15 0.96 l
0.14 0.16 l
0.15 0.29 l
0.14 -1.09 l
0.15 0.16 l
0.14 0 l
0.15 0.32 l
0.15 -2.25 l
0.14 0 l
0.15 1.93 l
0.14 -1.29 l
0.15 -0.96 l
0.14 0.32 l
0.15 0.32 l
0.14 -0.96 l
0.15 0 l
0.15 -0.48 l
0.14 1.76 l
0.15 -1.60 l
0.14 0.48 l
0.15 -0.16 l
0.14 0.16 l
0.15 1.61 l
0.15 0.96 l
0.14 0.77 l
0.15 1.61 l
0.14 -1.29 l
0.15 -0.16 l
0.14 -0.29 l
0.15 -2.25 l
0.14 -0.32 l
0.15 0.16 l
0.15 0 l
0.14 -0.64 l
0.15 0.96 l
0.14 0.16 l
0.15 -0.32 l
0.14 -0.64 l
0.15 0 l
0.14 0.48 l
0.15 0.48 l
0.15 0.49 l
0.14 0.80 l
0.15 -0.96 l
0.14 0.16 l
0.15 0.48 l
0.14 0.80 l
0.15 -0.48 l
0.14 -0.96 l
0.15 1.60 l
0.15 -0.16 l
0.14 -1.12 l
0.15 -0.32 l
0.14 0 l
0.15 1.28 l
0.14 -0.48 l
0.15 0.32 l
0.15 1.09 l
0.14 0.48 l
0.15 -0.32 l
0.14 -0.48 l
0.15 0.96 l
0.14 0 l
0.15 0 l
0.14 -0.48 l
0.15 0.32 l
0.15 0 l
0.14 -0.96 l
0.15 -0.61 l
0.14 0 l
0.15 0.32 l
0.14 -0.32 l
0.15 -0.16 l
0.14 -0.80 l
0.15 0.16 l
0.15 0.48 l
0.14 -0.96 l
currentpoint o m
367.99 500.21 lineto
0.14 1.93 l
0.15 -1.44 l
0.14 0.64 l
0.15 -0.48 l
0.14 1.57 l
0.15 -1.41 l
0.15 0.48 l
0.14 1.41 l
0.15 -1.09 l
0.14 -0.16 l
0.15 -0.16 l
0.14 -0.64 l
0.15 0.48 l
0.15 -1.13 l
0.14 1.13 l
0.15 0 l
0.14 0.16 l
0.15 -1.13 l
0.14 0 l
0.15 1.45 l
0.14 0.61 l
0.15 -0.29 l
0.15 0.16 l
0.14 0 l
0.15 1.09 l
0.14 -0.64 l
0.15 -0.61 l
0.14 0.93 l
0.15 -0.64 l
0.14 -0.29 l
0.15 0.16 l
0.15 0.13 l
0.14 0.32 l
0.15 -0.61 l
0.14 0.93 l
0.15 0.32 l
0.14 -0.96 l
0.15 -0.45 l
0.14 0.32 l
0.15 1.09 l
0.15 -0.32 l
0.14 1.61 l
0.15 -0.96 l
0.14 -1.13 l
0.15 0.32 l
0.14 -1.73 l
0.15 1.12 l
0.15 0.13 l
0.14 0.80 l
0.15 -0.64 l
0.14 0.16 l
0.15 -1.09 l
0.14 1.73 l
0.15 -1.57 l
0.14 0.77 l
0.15 -0.45 l
0.15 0.45 l
0.14 -1.57 l
0.15 0.96 l
0.14 -0.16 l
0.15 -0.16 l
0.14 -1.29 l
0.15 1.45 l
0.14 -0.16 l
0.15 0.93 l
0.15 -0.29 l
0.14 -1.12 l
0.15 0.80 l
0.14 -0.48 l
0.15 -0.96 l
0.14 0.48 l
0.15 0.80 l
0.14 0.16 l
0.15 -1.12 l
0.15 0.48 l
0.14 0.64 l
0.15 0 l
0.14 1.09 l
0.15 -1.41 l
0.14 0 l
0.15 -0.32 l
0.15 0.16 l
0.14 -0.64 l
0.15 1.44 l
0.14 -0.96 l
0.15 -0.32 l
0.14 0.32 l
0.15 0.64 l
0.14 0.77 l
0.15 -1.25 l
0.15 -0.32 l
0.14 1.25 l
0.15 -0.93 l
0.14 -0.64 l
0.15 0.48 l
0.14 0.16 l
0.15 -0.64 l
0.14 0.80 l
0.15 -0.32 l
o
/bg { 1 1 1 srgb } def
222.40 489.52 0.43 c p3
222.55 489.39 0.43 c p3
222.69 489.23 0.43 c p3
222.84 490.01 0.43 c p3
222.98 490.01 0.43 c p3
223.13 489.23 0.43 c p3
223.27 488.11 0.43 c p3
223.42 490.17 0.43 c p3
223.56 489.52 0.43 c p3
223.71 488.27 0.43 c p3
223.86 488.91 0.43 c p3
224.00 489.85 0.43 c p3
224.15 490.65 0.43 c p3
224.29 489.39 0.43 c p3
224.44 488.75 0.43 c p3
224.58 489.23 0.43 c p3
224.73 489.68 0.43 c p3
224.87 489.52 0.43 c p3
225.02 490.33 0.43 c p3
225.17 489.68 0.43 c p3
225.31 489.23 0.43 c p3
225.46 488.43 0.43 c p3
225.60 488.27 0.43 c p3
225.75 490.33 0.43 c p3
225.89 489.85 0.43 c p3
226.04 489.68 0.43 c p3
226.19 489.23 0.43 c p3
226.33 489.23 0.43 c p3
226.48 489.39 0.43 c p3
226.62 489.39 0.43 c p3
226.77 489.85 0.43 c p3
226.91 489.23 0.43 c p3
227.06 489.39 0.43 c p3
227.20 490.33 0.43 c p3
227.35 490.33 0.43 c p3
227.50 490.01 0.43 c p3
227.64 489.68 0.43 c p3
227.79 490.17 0.43 c p3
227.93 489.52 0.43 c p3
228.08 490.01 0.43 c p3
228.22 489.39 0.43 c p3
228.37 488.43 0.43 c p3
228.51 489.52 0.43 c p3
228.66 489.85 0.43 c p3
228.81 490.17 0.43 c p3
228.95 489.23 0.43 c p3
229.10 490.33 0.43 c p3
229.24 490.01 0.43 c p3
229.39 490.33 0.43 c p3
229.53 489.07 0.43 c p3
229.68 488.91 0.43 c p3
229.82 490.01 0.43 c p3
229.97 489.23 0.43 c p3
230.12 489.85 0.43 c p3
230.26 489.68 0.43 c p3
230.41 490.33 0.43 c p3
230.55 490.17 0.43 c p3
230.70 489.85 0.43 c p3
230.84 489.23 0.43 c p3
230.99 491.29 0.43 c p3
231.14 490.49 0.43 c p3
231.28 489.85 0.43 c p3
231.43 490.17 0.43 c p3
231.57 490.81 0.43 c p3
231.72 489.85 0.43 c p3
231.86 490.33 0.43 c p3
232.01 489.23 0.43 c p3
232.15 489.52 0.43 c p3
232.30 489.52 0.43 c p3
232.45 489.85 0.43 c p3
232.59 490.33 0.43 c p3
232.74 490.17 0.43 c p3
232.88 489.39 0.43 c p3
233.03 489.52 0.43 c p3
233.17 489.85 0.43 c p3
233.32 490.65 0.43 c p3
233.46 490.33 0.43 c p3
233.61 490.33 0.43 c p3
233.76 491.29 0.43 c p3
233.90 491.45 0.43 c p3
234.05 490.01 0.43 c p3
234.19 490.49 0.43 c p3
234.34 489.85 0.43 c p3
234.48 490.81 0.43 c p3
234.63 490.49 0.43 c p3
234.77 490.49 0.43 c p3
234.92 491.13 0.43 c p3
235.07 489.39 0.43 c p3
235.21 490.49 0.43 c p3
235.36 490.49 0.43 c p3
235.50 490.01 0.43 c p3
235.65 490.65 0.43 c p3
235.79 490.65 0.43 c p3
235.94 490.65 0.43 c p3
236.09 489.85 0.43 c p3
236.23 490.33 0.43 c p3
236.38 490.81 0.43 c p3
236.52 490.65 0.43 c p3
236.67 490.81 0.43 c p3
236.81 490.65 0.43 c p3
236.96 441.42 0.43 c p3
237.10 441.25 0.43 c p3
237.25 443.64 0.43 c p3
237.40 445.08 0.43 c p3
237.54 444.92 0.43 c p3
237.69 447.14 0.43 c p3
237.83 448.10 0.43 c p3
237.98 448.90 0.43 c p3
238.12 450.03 0.43 c p3
238.27 450.80 0.43 c p3
238.41 452.56 0.43 c p3
238.56 451.44 0.43 c p3
238.71 452.56 0.43 c p3
238.85 453.53 0.43 c p3
239.00 455.10 0.43 c p3
239.14 455.42 0.43 c p3
239.29 455.58 0.43 c p3
239.43 455.74 0.43 c p3
239.58 456.87 0.43 c p3
239.72 456.71 0.43 c p3
239.87 457.67 0.43 c p3
240.02 457.35 0.43 c p3
240.16 458.47 0.43 c p3
240.31 458.95 0.43 c p3
240.45 459.73 0.43 c p3
240.60 458.95 0.43 c p3
240.74 460.85 0.43 c p3
240.89 460.85 0.43 c p3
241.04 461.17 0.43 c p3
241.18 461.97 0.43 c p3
241.33 461.65 0.43 c p3
241.47 462.13 0.43 c p3
241.62 461.65 0.43 c p3
241.76 462.93 0.43 c p3
241.91 462.45 0.43 c p3
242.05 462.93 0.43 c p3
242.20 462.77 0.43 c p3
242.35 463.58 0.43 c p3
242.49 463.71 0.43 c p3
242.64 464.99 0.43 c p3
242.78 465.47 0.43 c p3
242.93 465.95 0.43 c p3
243.07 465.31 0.43 c p3
243.22 466.11 0.43 c p3
243.36 466.76 0.43 c p3
243.51 465.95 0.43 c p3
243.66 466.27 0.43 c p3
243.80 467.24 0.43 c p3
243.95 467.40 0.43 c p3
244.09 467.56 0.43 c p3
244.24 467.72 0.43 c p3
244.38 468.49 0.43 c p3
244.53 468.33 0.43 c p3
244.67 468.49 0.43 c p3
244.82 467.88 0.43 c p3
244.97 468.65 0.43 c p3
245.11 469.29 0.43 c p3
245.26 468.81 0.43 c p3
245.40 469.45 0.43 c p3
245.55 469.94 0.43 c p3
245.69 469.94 0.43 c p3
245.84 470.10 0.43 c p3
245.99 469.77 0.43 c p3
246.13 470.42 0.43 c p3
246.28 471.70 0.43 c p3
246.42 471.22 0.43 c p3
246.57 471.38 0.43 c p3
246.71 471.54 0.43 c p3
246.86 472.31 0.43 c p3
247.00 471.38 0.43 c p3
247.15 472.18 0.43 c p3
247.30 472.31 0.43 c p3
247.44 472.96 0.43 c p3
247.59 472.79 0.43 c p3
247.73 472.63 0.43 c p3
247.88 472.79 0.43 c p3
248.02 472.96 0.43 c p3
248.17 474.56 0.43 c p3
248.31 473.60 0.43 c p3
248.46 474.24 0.43 c p3
248.61 474.08 0.43 c p3
248.75 473.60 0.43 c p3
248.90 474.40 0.43 c p3
249.04 474.72 0.43 c p3
249.19 473.76 0.43 c p3
249.33 474.24 0.43 c p3
249.48 475.36 0.43 c p3
249.62 475.68 0.43 c p3
249.77 475.84 0.43 c p3
249.92 475.20 0.43 c p3
250.06 475.68 0.43 c p3
250.21 476.00 0.43 c p3
250.35 476.00 0.43 c p3
250.50 475.84 0.43 c p3
250.64 475.36 0.43 c p3
250.79 477.10 0.43 c p3
250.94 476.32 0.43 c p3
251.08 476.62 0.43 c p3
251.23 477.10 0.43 c p3
251.37 477.26 0.43 c p3
251.52 478.22 0.43 c p3
251.66 478.06 0.43 c p3
251.81 477.58 0.43 c p3
251.95 477.74 0.43 c p3
252.10 477.74 0.43 c p3
252.25 477.58 0.43 c p3
252.39 477.74 0.43 c p3
252.54 478.22 0.43 c p3
252.68 478.54 0.43 c p3
252.83 477.90 0.43 c p3
252.97 477.90 0.43 c p3
253.12 478.70 0.43 c p3
253.26 479.02 0.43 c p3
253.41 478.54 0.43 c p3
253.56 478.86 0.43 c p3
253.70 478.38 0.43 c p3
253.85 479.50 0.43 c p3
253.99 480.14 0.43 c p3
254.14 479.34 0.43 c p3
254.28 479.50 0.43 c p3
254.43 480.30 0.43 c p3
254.57 478.86 0.43 c p3
254.72 479.50 0.43 c p3
254.87 479.98 0.43 c p3
255.01 480.79 0.43 c p3
255.16 479.34 0.43 c p3
255.30 480.30 0.43 c p3
255.45 480.14 0.43 c p3
255.59 480.46 0.43 c p3
255.74 480.79 0.43 c p3
255.88 480.14 0.43 c p3
256.03 479.98 0.43 c p3
256.18 481.08 0.43 c p3
256.32 480.63 0.43 c p3
256.47 481.24 0.43 c p3
256.61 480.79 0.43 c p3
256.76 481.56 0.43 c p3
256.90 480.46 0.43 c p3
257.05 481.08 0.43 c p3
257.20 481.88 0.43 c p3
257.34 482.04 0.43 c p3
257.49 480.63 0.43 c p3
257.63 482.36 0.43 c p3
257.78 481.72 0.43 c p3
257.92 481.88 0.43 c p3
258.07 482.52 0.43 c p3
258.21 481.72 0.43 c p3
258.36 482.36 0.43 c p3
258.51 482.84 0.43 c p3
258.65 481.72 0.43 c p3
258.80 483.00 0.43 c p3
258.94 481.72 0.43 c p3
259.09 481.88 0.43 c p3
259.23 482.36 0.43 c p3
259.38 482.52 0.43 c p3
259.52 483.16 0.43 c p3
259.67 483.32 0.43 c p3
259.82 482.36 0.43 c p3
259.96 482.36 0.43 c p3
260.11 483.32 0.43 c p3
260.25 483.00 0.43 c p3
260.40 483.32 0.43 c p3
260.54 483.48 0.43 c p3
260.69 483.16 0.43 c p3
260.83 483.32 0.43 c p3
260.98 483.32 0.43 c p3
261.13 483.81 0.43 c p3
261.27 483.32 0.43 c p3
261.42 483.48 0.43 c p3
261.56 482.68 0.43 c p3
261.71 483.48 0.43 c p3
261.85 482.68 0.43 c p3
262.00 484.45 0.43 c p3
262.15 483.64 0.43 c p3
262.29 482.84 0.43 c p3
262.44 483.48 0.43 c p3
262.58 483.81 0.43 c p3
262.73 484.13 0.43 c p3
262.87 483.64 0.43 c p3
263.02 484.61 0.43 c p3
263.16 484.13 0.43 c p3
263.31 483.64 0.43 c p3
263.46 484.29 0.43 c p3
263.60 484.13 0.43 c p3
263.75 484.61 0.43 c p3
263.89 483.81 0.43 c p3
264.04 484.13 0.43 c p3
264.18 484.61 0.43 c p3
264.33 484.77 0.43 c p3
264.47 483.64 0.43 c p3
264.62 484.61 0.43 c p3
264.77 485.09 0.43 c p3
264.91 485.38 0.43 c p3
265.06 484.77 0.43 c p3
265.20 484.61 0.43 c p3
265.35 485.22 0.43 c p3
265.49 484.77 0.43 c p3
265.64 484.77 0.43 c p3
265.78 484.61 0.43 c p3
265.93 485.09 0.43 c p3
266.08 485.38 0.43 c p3
266.22 485.09 0.43 c p3
266.37 485.22 0.43 c p3
266.51 485.09 0.43 c p3
266.66 485.22 0.43 c p3
266.80 484.61 0.43 c p3
266.95 485.09 0.43 c p3
267.10 485.70 0.43 c p3
267.24 485.70 0.43 c p3
267.39 486.02 0.43 c p3
267.53 485.22 0.43 c p3
267.68 485.38 0.43 c p3
267.82 485.54 0.43 c p3
267.97 485.86 0.43 c p3
268.11 484.93 0.43 c p3
268.26 485.54 0.43 c p3
268.41 485.86 0.43 c p3
268.55 485.86 0.43 c p3
268.70 486.99 0.43 c p3
268.84 485.54 0.43 c p3
268.99 486.18 0.43 c p3
269.13 486.50 0.43 c p3
269.28 486.99 0.43 c p3
269.42 485.54 0.43 c p3
269.57 485.38 0.43 c p3
269.72 486.18 0.43 c p3
269.86 486.18 0.43 c p3
270.01 486.67 0.43 c p3
270.15 486.34 0.43 c p3
270.30 486.50 0.43 c p3
270.44 485.38 0.43 c p3
270.59 485.86 0.43 c p3
270.73 486.34 0.43 c p3
270.88 486.99 0.43 c p3
271.03 486.50 0.43 c p3
271.17 486.67 0.43 c p3
271.32 487.31 0.43 c p3
271.46 486.34 0.43 c p3
271.61 487.15 0.43 c p3
271.75 486.83 0.43 c p3
271.90 487.47 0.43 c p3
272.05 486.34 0.43 c p3
272.19 486.50 0.43 c p3
272.34 486.50 0.43 c p3
272.48 486.99 0.43 c p3
272.63 486.83 0.43 c p3
272.77 486.99 0.43 c p3
272.92 487.31 0.43 c p3
273.06 487.47 0.43 c p3
273.21 486.83 0.43 c p3
273.36 486.83 0.43 c p3
273.50 487.31 0.43 c p3
273.65 488.43 0.43 c p3
273.79 488.75 0.43 c p3
273.94 487.15 0.43 c p3
274.08 487.79 0.43 c p3
274.23 487.63 0.43 c p3
274.37 487.63 0.43 c p3
274.52 487.31 0.43 c p3
274.67 487.79 0.43 c p3
274.81 488.43 0.43 c p3
274.96 487.47 0.43 c p3
275.10 487.47 0.43 c p3
275.25 488.27 0.43 c p3
275.39 487.95 0.43 c p3
275.54 487.47 0.43 c p3
275.68 487.95 0.43 c p3
275.83 489.39 0.43 c p3
275.98 488.59 0.43 c p3
276.12 488.43 0.43 c p3
276.27 488.75 0.43 c p3
276.41 488.27 0.43 c p3
276.56 487.95 0.43 c p3
276.70 487.31 0.43 c p3
276.85 488.75 0.43 c p3
277.00 488.91 0.43 c p3
277.14 488.75 0.43 c p3
277.29 488.59 0.43 c p3
277.43 487.79 0.43 c p3
277.58 488.91 0.43 c p3
277.72 488.43 0.43 c p3
277.87 488.91 0.43 c p3
278.01 488.27 0.43 c p3
278.16 489.23 0.43 c p3
278.31 489.39 0.43 c p3
278.45 489.39 0.43 c p3
278.60 488.91 0.43 c p3
278.74 488.43 0.43 c p3
278.89 489.23 0.43 c p3
279.03 489.23 0.43 c p3
279.18 489.23 0.43 c p3
279.32 489.85 0.43 c p3
279.47 490.17 0.43 c p3
279.62 489.39 0.43 c p3
279.76 489.07 0.43 c p3
279.91 489.68 0.43 c p3
280.05 489.68 0.43 c p3
280.20 489.85 0.43 c p3
280.34 489.39 0.43 c p3
280.49 489.07 0.43 c p3
280.63 490.01 0.43 c p3
280.78 489.23 0.43 c p3
280.93 489.68 0.43 c p3
281.07 490.01 0.43 c p3
281.22 489.52 0.43 c p3
281.36 490.17 0.43 c p3
281.51 489.85 0.43 c p3
281.65 489.52 0.43 c p3
281.80 490.97 0.43 c p3
281.95 489.52 0.43 c p3
282.09 490.33 0.43 c p3
282.24 490.81 0.43 c p3
282.38 490.49 0.43 c p3
282.53 490.33 0.43 c p3
282.67 489.52 0.43 c p3
282.82 490.01 0.43 c p3
282.96 490.97 0.43 c p3
283.11 490.01 0.43 c p3
283.26 490.01 0.43 c p3
283.40 490.49 0.43 c p3
283.55 490.97 0.43 c p3
283.69 490.65 0.43 c p3
283.84 490.81 0.43 c p3
283.98 490.97 0.43 c p3
284.13 491.13 0.43 c p3
284.27 490.01 0.43 c p3
284.42 489.68 0.43 c p3
284.57 490.97 0.43 c p3
284.71 490.81 0.43 c p3
284.86 490.49 0.43 c p3
285.00 490.81 0.43 c p3
285.15 491.29 0.43 c p3
285.29 491.45 0.43 c p3
285.44 490.97 0.43 c p3
285.58 490.81 0.43 c p3
285.73 491.29 0.43 c p3
285.88 491.61 0.43 c p3
286.02 490.33 0.43 c p3
286.17 491.93 0.43 c p3
286.31 491.77 0.43 c p3
286.46 491.77 0.43 c p3
286.60 491.45 0.43 c p3
286.75 490.97 0.43 c p3
286.89 492.89 0.43 c p3
287.04 491.77 0.43 c p3
287.19 491.61 0.43 c p3
287.33 491.45 0.43 c p3
287.48 491.77 0.43 c p3
287.62 491.93 0.43 c p3
287.77 491.61 0.43 c p3
287.91 490.81 0.43 c p3
288.06 490.81 0.43 c p3
288.21 491.77 0.43 c p3
288.35 491.93 0.43 c p3
288.50 491.77 0.43 c p3
288.64 492.57 0.43 c p3
288.79 491.93 0.43 c p3
288.93 492.09 0.43 c p3
289.08 491.29 0.43 c p3
289.22 491.45 0.43 c p3
289.37 491.93 0.43 c p3
289.52 492.25 0.43 c p3
289.66 492.25 0.43 c p3
289.81 492.09 0.43 c p3
289.95 492.73 0.43 c p3
290.10 491.93 0.43 c p3
290.24 491.61 0.43 c p3
290.39 491.29 0.43 c p3
290.53 492.25 0.43 c p3
290.68 492.57 0.43 c p3
290.83 491.77 0.43 c p3
290.97 492.41 0.43 c p3
291.12 491.77 0.43 c p3
291.26 492.41 0.43 c p3
291.41 492.73 0.43 c p3
291.55 492.89 0.43 c p3
291.70 492.89 0.43 c p3
291.84 491.13 0.43 c p3
291.99 492.41 0.43 c p3
292.14 493.05 0.43 c p3
292.28 492.73 0.43 c p3
292.43 493.05 0.43 c p3
292.57 492.41 0.43 c p3
292.72 492.25 0.43 c p3
292.86 492.09 0.43 c p3
293.01 491.93 0.43 c p3
293.16 493.05 0.43 c p3
293.30 492.41 0.43 c p3
293.45 493.21 0.43 c p3
293.59 492.57 0.43 c p3
293.74 493.05 0.43 c p3
293.88 492.73 0.43 c p3
294.03 493.21 0.43 c p3
294.17 493.05 0.43 c p3
294.32 493.21 0.43 c p3
294.47 493.05 0.43 c p3
294.61 493.53 0.43 c p3
294.76 492.57 0.43 c p3
294.90 492.41 0.43 c p3
295.05 493.05 0.43 c p3
295.19 492.57 0.43 c p3
295.34 493.21 0.43 c p3
295.48 492.73 0.43 c p3
295.63 493.69 0.43 c p3
295.78 492.89 0.43 c p3
295.92 493.37 0.43 c p3
296.07 493.83 0.43 c p3
296.21 493.37 0.43 c p3
296.36 493.69 0.43 c p3
296.50 493.53 0.43 c p3
296.65 493.69 0.43 c p3
296.79 493.21 0.43 c p3
296.94 493.99 0.43 c p3
297.09 493.37 0.43 c p3
297.23 493.99 0.43 c p3
297.38 493.21 0.43 c p3
297.52 493.05 0.43 c p3
297.67 493.69 0.43 c p3
297.81 493.05 0.43 c p3
297.96 493.83 0.43 c p3
298.11 493.37 0.43 c p3
298.25 494.15 0.43 c p3
298.40 493.21 0.43 c p3
298.54 493.69 0.43 c p3
298.69 493.69 0.43 c p3
298.83 494.79 0.43 c p3
298.98 493.83 0.43 c p3
299.12 493.37 0.43 c p3
299.27 493.53 0.43 c p3
299.42 493.83 0.43 c p3
299.56 493.83 0.43 c p3
299.71 493.83 0.43 c p3
299.85 494.79 0.43 c p3
300.00 493.53 0.43 c p3
300.14 493.99 0.43 c p3
300.29 494.15 0.43 c p3
300.43 494.95 0.43 c p3
300.58 493.37 0.43 c p3
300.73 494.31 0.43 c p3
300.87 494.31 0.43 c p3
301.02 494.79 0.43 c p3
301.16 495.75 0.43 c p3
301.31 494.47 0.43 c p3
301.45 494.47 0.43 c p3
301.60 495.43 0.43 c p3
301.74 494.79 0.43 c p3
301.89 494.95 0.43 c p3
302.04 495.27 0.43 c p3
302.18 493.53 0.43 c p3
302.33 493.69 0.43 c p3
302.47 494.63 0.43 c p3
302.62 494.95 0.43 c p3
302.76 495.11 0.43 c p3
302.91 494.47 0.43 c p3
303.06 494.79 0.43 c p3
303.20 494.47 0.43 c p3
303.35 495.27 0.43 c p3
303.49 493.99 0.43 c p3
303.64 494.15 0.43 c p3
303.78 495.43 0.43 c p3
303.93 495.43 0.43 c p3
304.07 494.47 0.43 c p3
304.22 493.83 0.43 c p3
304.37 494.79 0.43 c p3
304.51 494.95 0.43 c p3
304.66 496.55 0.43 c p3
304.80 493.37 0.43 c p3
304.95 495.75 0.43 c p3
305.09 494.47 0.43 c p3
305.24 495.75 0.43 c p3
305.38 494.79 0.43 c p3
305.53 494.95 0.43 c p3
305.68 495.75 0.43 c p3
305.82 494.95 0.43 c p3
305.97 495.11 0.43 c p3
306.11 495.75 0.43 c p3
306.26 494.95 0.43 c p3
306.40 494.95 0.43 c p3
306.55 494.95 0.43 c p3
306.69 495.75 0.43 c p3
306.84 495.75 0.43 c p3
306.99 494.79 0.43 c p3
307.13 495.91 0.43 c p3
307.28 495.91 0.43 c p3
307.42 495.43 0.43 c p3
307.57 495.11 0.43 c p3
307.71 494.63 0.43 c p3
307.86 495.75 0.43 c p3
308.01 495.59 0.43 c p3
308.15 495.91 0.43 c p3
308.30 495.59 0.43 c p3
308.44 496.23 0.43 c p3
308.59 497.03 0.43 c p3
308.73 495.43 0.43 c p3
308.88 493.69 0.43 c p3
309.02 494.95 0.43 c p3
309.17 494.79 0.43 c p3
309.32 496.55 0.43 c p3
309.46 494.95 0.43 c p3
309.61 495.75 0.43 c p3
309.75 497.03 0.43 c p3
309.90 495.75 0.43 c p3
310.04 495.11 0.43 c p3
310.19 496.71 0.43 c p3
310.33 495.43 0.43 c p3
310.48 495.43 0.43 c p3
310.63 495.59 0.43 c p3
310.77 496.07 0.43 c p3
310.92 496.71 0.43 c p3
311.06 495.59 0.43 c p3
311.21 495.43 0.43 c p3
311.35 496.39 0.43 c p3
311.50 495.91 0.43 c p3
311.64 495.59 0.43 c p3
311.79 494.95 0.43 c p3
311.94 495.75 0.43 c p3
312.08 495.59 0.43 c p3
312.23 496.07 0.43 c p3
312.37 495.11 0.43 c p3
312.52 496.39 0.43 c p3
312.66 496.23 0.43 c p3
312.81 495.91 0.43 c p3
312.96 496.07 0.43 c p3
313.10 496.71 0.43 c p3
313.25 496.87 0.43 c p3
313.39 497.03 0.43 c p3
313.54 495.59 0.43 c p3
313.68 495.91 0.43 c p3
313.83 497.03 0.43 c p3
313.97 495.75 0.43 c p3
314.12 495.59 0.43 c p3
314.27 495.91 0.43 c p3
314.41 497.84 0.43 c p3
314.56 496.87 0.43 c p3
314.70 497.03 0.43 c p3
314.85 496.55 0.43 c p3
314.99 496.71 0.43 c p3
315.14 496.07 0.43 c p3
315.28 497.35 0.43 c p3
315.43 496.71 0.43 c p3
315.58 497.19 0.43 c p3
315.72 496.71 0.43 c p3
315.87 497.03 0.43 c p3
316.01 496.71 0.43 c p3
316.16 497.84 0.43 c p3
316.30 497.84 0.43 c p3
316.45 496.71 0.43 c p3
316.59 495.91 0.43 c p3
316.74 497.35 0.43 c p3
316.89 497.19 0.43 c p3
317.03 496.55 0.43 c p3
317.18 497.68 0.43 c p3
317.32 498.77 0.43 c p3
317.47 502.30 0.43 c p3
317.61 504.04 0.43 c p3
317.76 505.80 0.43 c p3
317.91 506.28 0.43 c p3
318.05 510.74 0.43 c p3
318.20 512.00 0.43 c p3
318.34 510.90 0.43 c p3
318.49 510.26 0.43 c p3
318.63 510.26 0.43 c p3
318.78 510.26 0.43 c p3
318.92 510.42 0.43 c p3
319.07 510.42 0.43 c p3
319.22 510.90 0.43 c p3
319.36 509.30 0.43 c p3
319.51 510.26 0.43 c p3
319.65 510.10 0.43 c p3
319.80 508.50 0.43 c p3
319.94 509.14 0.43 c p3
320.09 509.78 0.43 c p3
320.23 509.46 0.43 c p3
320.38 508.98 0.43 c p3
320.53 507.86 0.43 c p3
320.67 509.94 0.43 c p3
320.82 509.62 0.43 c p3
320.96 509.94 0.43 c p3
321.11 508.98 0.43 c p3
321.25 509.62 0.43 c p3
321.40 509.14 0.43 c p3
321.54 499.09 0.43 c p3
321.69 499.09 0.43 c p3
321.84 500.37 0.43 c p3
321.98 498.13 0.43 c p3
322.13 500.86 0.43 c p3
322.27 501.02 0.43 c p3
322.42 499.57 0.43 c p3
322.56 499.57 0.43 c p3
322.71 500.86 0.43 c p3
322.85 502.30 0.43 c p3
323.00 500.86 0.43 c p3
323.15 499.25 0.43 c p3
323.29 500.21 0.43 c p3
323.44 500.21 0.43 c p3
323.58 500.21 0.43 c p3
323.73 501.18 0.43 c p3
323.87 501.34 0.43 c p3
324.02 501.18 0.43 c p3
324.17 501.34 0.43 c p3
324.31 501.18 0.43 c p3
324.46 501.98 0.43 c p3
324.60 501.34 0.43 c p3
324.75 501.02 0.43 c p3
324.89 501.18 0.43 c p3
325.04 500.21 0.43 c p3
325.18 501.02 0.43 c p3
325.33 500.86 0.43 c p3
325.48 501.02 0.43 c p3
325.62 501.18 0.43 c p3
325.77 500.21 0.43 c p3
325.91 500.37 0.43 c p3
326.06 499.09 0.43 c p3
326.20 498.77 0.43 c p3
326.35 498.61 0.43 c p3
326.49 499.73 0.43 c p3
326.64 499.57 0.43 c p3
326.79 497.84 0.43 c p3
326.93 498.29 0.43 c p3
327.08 497.35 0.43 c p3
327.22 498.00 0.43 c p3
327.37 498.77 0.43 c p3
327.51 498.13 0.43 c p3
327.66 498.45 0.43 c p3
327.80 499.57 0.43 c p3
327.95 497.52 0.43 c p3
328.10 498.00 0.43 c p3
328.24 498.61 0.43 c p3
328.39 498.93 0.43 c p3
328.53 498.77 0.43 c p3
328.68 498.77 0.43 c p3
328.82 499.89 0.43 c p3
328.97 498.45 0.43 c p3
329.12 499.73 0.43 c p3
329.26 498.93 0.43 c p3
329.41 499.25 0.43 c p3
329.55 499.57 0.43 c p3
329.70 499.41 0.43 c p3
329.84 500.05 0.43 c p3
329.99 499.09 0.43 c p3
330.13 499.25 0.43 c p3
330.28 498.93 0.43 c p3
330.43 500.54 0.43 c p3
330.57 498.77 0.43 c p3
330.72 500.05 0.43 c p3
330.86 499.89 0.43 c p3
331.01 500.37 0.43 c p3
331.15 501.18 0.43 c p3
331.30 500.54 0.43 c p3
331.44 499.41 0.43 c p3
331.59 501.34 0.43 c p3
331.74 503.55 0.43 c p3
331.88 504.36 0.43 c p3
332.03 505.48 0.43 c p3
332.17 503.23 0.43 c p3
332.32 502.43 0.43 c p3
332.46 501.98 0.43 c p3
332.61 499.73 0.43 c p3
332.75 499.57 0.43 c p3
332.90 497.84 0.43 c p3
333.05 497.03 0.43 c p3
333.19 497.68 0.43 c p3
333.34 496.87 0.43 c p3
333.48 497.84 0.43 c p3
333.63 498.00 0.43 c p3
333.77 498.13 0.43 c p3
333.92 497.84 0.43 c p3
334.07 497.84 0.43 c p3
334.21 498.61 0.43 c p3
334.36 498.13 0.43 c p3
334.50 498.00 0.43 c p3
334.65 498.13 0.43 c p3
334.79 498.13 0.43 c p3
334.94 498.13 0.43 c p3
335.08 497.35 0.43 c p3
335.23 497.68 0.43 c p3
335.38 497.84 0.43 c p3
335.52 498.00 0.43 c p3
335.67 497.35 0.43 c p3
335.81 497.52 0.43 c p3
335.96 498.29 0.43 c p3
336.10 498.00 0.43 c p3
336.25 498.13 0.43 c p3
336.39 497.52 0.43 c p3
336.54 498.00 0.43 c p3
336.69 492.09 0.43 c p3
336.83 483.81 0.43 c p3
336.98 484.77 0.43 c p3
337.12 483.64 0.43 c p3
337.27 482.04 0.43 c p3
337.41 479.66 0.43 c p3
337.56 475.68 0.43 c p3
337.70 473.28 0.43 c p3
337.85 472.79 0.43 c p3
338.00 474.40 0.43 c p3
338.14 477.58 0.43 c p3
338.29 478.38 0.43 c p3
338.43 477.42 0.43 c p3
338.58 470.58 0.43 c p3
338.72 469.13 0.43 c p3
338.87 470.10 0.43 c p3
339.02 474.56 0.43 c p3
339.16 477.10 0.43 c p3
339.31 485.70 0.43 c p3
339.45 495.91 0.43 c p3
339.60 495.91 0.43 c p3
339.74 496.87 0.43 c p3
339.89 496.87 0.43 c p3
340.03 497.03 0.43 c p3
340.18 496.71 0.43 c p3
340.33 497.19 0.43 c p3
340.47 498.13 0.43 c p3
340.62 497.68 0.43 c p3
340.76 497.68 0.43 c p3
340.91 496.87 0.43 c p3
341.05 495.27 0.43 c p3
341.20 498.00 0.43 c p3
341.34 497.84 0.43 c p3
341.49 498.29 0.43 c p3
341.64 497.84 0.43 c p3
341.78 497.52 0.43 c p3
341.93 496.71 0.43 c p3
342.07 496.55 0.43 c p3
342.22 496.23 0.43 c p3
342.36 498.29 0.43 c p3
342.51 496.87 0.43 c p3
342.65 497.52 0.43 c p3
342.80 496.39 0.43 c p3
342.95 498.13 0.43 c p3
343.09 497.52 0.43 c p3
343.24 497.84 0.43 c p3
343.38 497.19 0.43 c p3
343.53 498.00 0.43 c p3
343.67 497.52 0.43 c p3
343.82 497.35 0.43 c p3
343.97 497.84 0.43 c p3
344.11 498.45 0.43 c p3
344.26 497.84 0.43 c p3
344.40 498.00 0.43 c p3
344.55 497.35 0.43 c p3
344.69 498.00 0.43 c p3
344.84 496.87 0.43 c p3
344.98 497.35 0.43 c p3
345.13 497.52 0.43 c p3
345.28 497.68 0.43 c p3
345.42 497.84 0.43 c p3
345.57 497.35 0.43 c p3
345.71 497.35 0.43 c p3
345.86 498.00 0.43 c p3
346.00 496.87 0.43 c p3
346.15 497.35 0.43 c p3
346.29 497.35 0.43 c p3
346.44 497.68 0.43 c p3
346.59 497.35 0.43 c p3
346.73 497.19 0.43 c p3
346.88 497.84 0.43 c p3
347.02 497.68 0.43 c p3
347.17 498.13 0.43 c p3
347.31 497.52 0.43 c p3
347.46 497.35 0.43 c p3
347.60 497.35 0.43 c p3
347.75 498.61 0.43 c p3
347.90 497.03 0.43 c p3
348.04 497.03 0.43 c p3
348.19 498.00 0.43 c p3
348.33 497.84 0.43 c p3
348.48 497.03 0.43 c p3
348.62 497.68 0.43 c p3
348.77 498.29 0.43 c p3
348.92 497.35 0.43 c p3
349.06 497.35 0.43 c p3
349.21 497.84 0.43 c p3
349.35 497.52 0.43 c p3
349.50 497.84 0.43 c p3
349.64 497.19 0.43 c p3
349.79 498.29 0.43 c p3
349.93 496.71 0.43 c p3
350.08 497.35 0.43 c p3
350.23 498.00 0.43 c p3
350.37 498.00 0.43 c p3
350.52 498.13 0.43 c p3
350.66 497.35 0.43 c p3
350.81 497.35 0.43 c p3
350.95 498.29 0.43 c p3
351.10 497.52 0.43 c p3
351.24 498.13 0.43 c p3
351.39 497.68 0.43 c p3
351.54 498.13 0.43 c p3
351.68 497.84 0.43 c p3
351.83 498.29 0.43 c p3
351.97 497.84 0.43 c p3
352.12 497.84 0.43 c p3
352.26 499.09 0.43 c p3
352.41 498.13 0.43 c p3
352.55 497.35 0.43 c p3
352.70 498.00 0.43 c p3
352.85 498.00 0.43 c p3
352.99 498.00 0.43 c p3
353.14 496.23 0.43 c p3
353.28 498.13 0.43 c p3
353.43 498.13 0.43 c p3
353.57 498.00 0.43 c p3
353.72 496.07 0.43 c p3
353.86 497.35 0.43 c p3
354.01 498.45 0.43 c p3
354.16 497.52 0.43 c p3
354.30 498.00 0.43 c p3
354.45 497.84 0.43 c p3
354.59 499.09 0.43 c p3
354.74 498.77 0.43 c p3
354.88 499.09 0.43 c p3
355.03 499.25 0.43 c p3
355.18 499.73 0.43 c p3
355.32 499.89 0.43 c p3
355.47 499.41 0.43 c p3
355.61 500.54 0.43 c p3
355.76 501.34 0.43 c p3
355.90 501.82 0.43 c p3
356.05 501.02 0.43 c p3
356.19 501.82 0.43 c p3
356.34 501.02 0.43 c p3
356.49 502.30 0.43 c p3
356.63 501.02 0.43 c p3
356.78 501.98 0.43 c p3
356.92 502.14 0.43 c p3
357.07 502.43 0.43 c p3
357.21 501.34 0.43 c p3
357.36 501.50 0.43 c p3
357.50 501.50 0.43 c p3
357.65 501.82 0.43 c p3
357.80 499.57 0.43 c p3
357.94 499.57 0.43 c p3
358.09 501.50 0.43 c p3
358.23 500.21 0.43 c p3
358.38 499.25 0.43 c p3
358.52 499.57 0.43 c p3
358.67 499.89 0.43 c p3
358.81 498.93 0.43 c p3
358.96 498.93 0.43 c p3
359.11 498.45 0.43 c p3
359.25 500.21 0.43 c p3
359.40 498.61 0.43 c p3
359.54 499.09 0.43 c p3
359.69 498.93 0.43 c p3
359.83 499.09 0.43 c p3
359.98 500.70 0.43 c p3
360.13 501.66 0.43 c p3
360.27 502.43 0.43 c p3
360.42 504.04 0.43 c p3
360.56 502.75 0.43 c p3
360.71 502.59 0.43 c p3
360.85 502.30 0.43 c p3
361.00 500.05 0.43 c p3
361.14 499.73 0.43 c p3
361.29 499.89 0.43 c p3
361.44 499.89 0.43 c p3
361.58 499.25 0.43 c p3
361.73 500.21 0.43 c p3
361.87 500.37 0.43 c p3
362.02 500.05 0.43 c p3
362.16 499.41 0.43 c p3
362.31 499.41 0.43 c p3
362.45 499.89 0.43 c p3
362.60 500.37 0.43 c p3
362.75 500.86 0.43 c p3
362.89 501.66 0.43 c p3
363.04 500.70 0.43 c p3
363.18 500.86 0.43 c p3
363.33 501.34 0.43 c p3
363.47 502.14 0.43 c p3
363.62 501.66 0.43 c p3
363.76 500.70 0.43 c p3
363.91 502.30 0.43 c p3
364.06 502.14 0.43 c p3
364.20 501.02 0.43 c p3
364.35 500.70 0.43 c p3
364.49 500.70 0.43 c p3
364.64 501.98 0.43 c p3
364.78 501.50 0.43 c p3
364.93 501.82 0.43 c p3
365.08 502.91 0.43 c p3
365.22 503.39 0.43 c p3
365.37 503.07 0.43 c p3
365.51 502.59 0.43 c p3
365.66 503.55 0.43 c p3
365.80 503.55 0.43 c p3
365.95 503.55 0.43 c p3
366.09 503.07 0.43 c p3
366.24 503.39 0.43 c p3
366.39 503.39 0.43 c p3
366.53 502.43 0.43 c p3
366.68 501.82 0.43 c p3
366.82 501.82 0.43 c p3
366.97 502.14 0.43 c p3
367.11 501.82 0.43 c p3
367.26 501.66 0.43 c p3
367.40 500.86 0.43 c p3
367.55 501.02 0.43 c p3
367.70 501.50 0.43 c p3
367.84 500.54 0.43 c p3
367.99 500.21 0.43 c p3
368.13 502.14 0.43 c p3
368.28 500.70 0.43 c p3
368.42 501.34 0.43 c p3
368.57 500.86 0.43 c p3
368.71 502.43 0.43 c p3
368.86 501.02 0.43 c p3
369.01 501.50 0.43 c p3
369.15 502.91 0.43 c p3
369.30 501.82 0.43 c p3
369.44 501.66 0.43 c p3
369.59 501.50 0.43 c p3
369.73 500.86 0.43 c p3
369.88 501.34 0.43 c p3
370.03 500.21 0.43 c p3
370.17 501.34 0.43 c p3
370.32 501.34 0.43 c p3
370.46 501.50 0.43 c p3
370.61 500.37 0.43 c p3
370.75 500.37 0.43 c p3
370.90 501.82 0.43 c p3
371.04 502.43 0.43 c p3
371.19 502.14 0.43 c p3
371.34 502.30 0.43 c p3
371.48 502.30 0.43 c p3
371.63 503.39 0.43 c p3
371.77 502.75 0.43 c p3
371.92 502.14 0.43 c p3
372.06 503.07 0.43 c p3
372.21 502.43 0.43 c p3
372.35 502.14 0.43 c p3
372.50 502.30 0.43 c p3
372.65 502.43 0.43 c p3
372.79 502.75 0.43 c p3
372.94 502.14 0.43 c p3
373.08 503.07 0.43 c p3
373.23 503.39 0.43 c p3
373.37 502.43 0.43 c p3
373.52 501.98 0.43 c p3
373.66 502.30 0.43 c p3
373.81 503.39 0.43 c p3
373.96 503.07 0.43 c p3
374.10 504.68 0.43 c p3
374.25 503.72 0.43 c p3
374.39 502.59 0.43 c p3
374.54 502.91 0.43 c p3
374.68 501.18 0.43 c p3
374.83 502.30 0.43 c p3
374.98 502.43 0.43 c p3
375.12 503.23 0.43 c p3
375.27 502.59 0.43 c p3
375.41 502.75 0.43 c p3
375.56 501.66 0.43 c p3
375.70 503.39 0.43 c p3
375.85 501.82 0.43 c p3
375.99 502.59 0.43 c p3
376.14 502.14 0.43 c p3
376.29 502.59 0.43 c p3
376.43 501.02 0.43 c p3
376.58 501.98 0.43 c p3
376.72 501.82 0.43 c p3
376.87 501.66 0.43 c p3
377.01 500.37 0.43 c p3
377.16 501.82 0.43 c p3
377.30 501.66 0.43 c p3
377.45 502.59 0.43 c p3
377.60 502.30 0.43 c p3
377.74 501.18 0.43 c p3
377.89 501.98 0.43 c p3
378.03 501.50 0.43 c p3
378.18 500.54 0.43 c p3
378.32 501.02 0.43 c p3
378.47 501.82 0.43 c p3
378.61 501.98 0.43 c p3
378.76 500.86 0.43 c p3
378.91 501.34 0.43 c p3
379.05 501.98 0.43 c p3
379.20 501.98 0.43 c p3
379.34 503.07 0.43 c p3
379.49 501.66 0.43 c p3
379.63 501.66 0.43 c p3
379.78 501.34 0.43 c p3
379.93 501.50 0.43 c p3
380.07 500.86 0.43 c p3
380.22 502.30 0.43 c p3
380.36 501.34 0.43 c p3
380.51 501.02 0.43 c p3
380.65 501.34 0.43 c p3
380.80 501.98 0.43 c p3
380.94 502.75 0.43 c p3
381.09 501.50 0.43 c p3
381.24 501.18 0.43 c p3
381.38 502.43 0.43 c p3
381.53 501.50 0.43 c p3
381.67 500.86 0.43 c p3
381.82 501.34 0.43 c p3
381.96 501.50 0.43 c p3
382.11 500.86 0.43 c p3
382.25 501.66 0.43 c p3
382.40 501.34 0.43 c p3
0.00 0.00 432.00 576.00 cl
0 0 0 srgb
0.75 setlinewidth
[] 0 setdash
1 setlinecap
1 setlinejoin
10.00 setmiterlimit
np
236.96 345.60 m
129.41 0 l
o
np
236.96 345.60 m
0 -5.76 l
o
np
269.31 345.60 m
0 -5.76 l
o
np
301.66 345.60 m
0 -5.76 l
o
np
334.02 345.60 m
0 -5.76 l
o
np
366.37 345.60 m
0 -5.76 l
o
/Font1 findfont 10 s
236.96 329.47 (0) .5 0 t
269.31 329.47 (10000) .5 0 t
334.02 329.47 (30000) .5 0 t
np
216.00 352.00 m
0 131.35 l
o
np
216.00 352.00 m
-5.76 0 l
o
np
216.00 395.78 m
-5.76 0 l
o
np
216.00 439.57 m
-5.76 0 l
o
np
216.00 483.35 m
-5.76 0 l
o
209.09 348.41 (0.0) 1 0 t
209.09 392.19 (0.1) 1 0 t
209.09 435.98 (0.2) 1 0 t
209.09 479.76 (0.3) 1 0 t
np
216.00 345.60 m
172.80 0 l
0 172.80 l
-172.80 0 l
0 -172.80 l
o
0.00 0.00 432.00 576.00 cl
/Font1 findfont 10 s
0 0 0 srgb
302.40 313.34 (Time / ms \(total\)) .5 0 t
190.66 432.00 (U / V) .5 90 t
216.00 345.60 388.80 518.40 cl
0 0 0 srgb
0.38 setlinewidth
[ 1.13 1.88] 0 setdash
1 setlinecap
1 setlinejoin
10.00 setmiterlimit
np
222.40 345.60 m
0 172.80 l
o
np
235.21 345.60 m
0 172.80 l
o
np
237.69 345.60 m
0 172.80 l
o
np
313.54 345.60 m
0 172.80 l
o
86.40 57.60 388.80 288.00 cl
1 0 0 srgb
1.50 setlinewidth
[] 0 setdash
1 setlinecap
1 setlinejoin
10.00 setmiterlimit
np
97.60 279.47 m
1.41 -9.62 l
1.40 -9.19 l
1.41 -8.77 l
1.41 -8.38 l
1.41 -8.00 l
1.40 -7.64 l
1.41 -7.29 l
1.41 -6.96 l
1.40 -6.66 l
1.41 -6.35 l
1.41 -6.06 l
1.40 -5.79 l
1.41 -5.53 l
1.41 -5.28 l
1.41 -5.05 l
1.40 -4.81 l
1.41 -4.60 l
1.41 -4.39 l
1.40 -4.19 l
1.41 -4.01 l
1.41 -3.82 l
1.40 -3.65 l
1.41 -3.49 l
1.41 -3.33 l
1.41 -3.17 l
1.40 -3.04 l
1.41 -2.90 l
1.41 -2.77 l
1.40 -2.64 l
1.41 -2.52 l
1.41 -2.41 l
1.41 -2.31 l
1.40 -2.19 l
1.41 -2.10 l
1.41 -2.01 l
1.40 -1.91 l
1.41 -1.83 l
1.41 -1.74 l
1.40 -1.67 l
1.41 -1.59 l
1.41 -1.52 l
1.41 -1.45 l
1.40 -1.39 l
1.41 -1.32 l
1.41 -1.26 l
1.40 -1.21 l
1.41 -1.15 l
1.41 -1.10 l
1.40 -1.05 l
1.41 -1.00 l
1.41 -0.96 l
1.41 -0.92 l
1.40 -0.87 l
1.41 -0.83 l
1.41 -0.80 l
1.40 -0.76 l
1.41 -0.73 l
1.41 -0.69 l
1.41 -0.66 l
1.40 -0.64 l
1.41 -0.60 l
1.41 -0.58 l
1.40 -0.55 l
1.41 -0.52 l
1.41 -0.51 l
1.40 -0.47 l
1.41 -0.46 l
1.41 -0.44 l
1.41 -0.42 l
1.40 -0.40 l
1.41 -0.38 l
1.41 -0.36 l
1.40 -0.35 l
1.41 -0.33 l
1.41 -0.32 l
1.40 -0.30 l
1.41 -0.29 l
1.41 -0.27 l
1.41 -0.26 l
1.40 -0.26 l
1.41 -0.24 l
1.41 -0.23 l
1.40 -0.21 l
1.41 -0.21 l
1.41 -0.20 l
1.41 -0.19 l
1.40 -0.19 l
1.41 -0.17 l
1.41 -0.16 l
1.40 -0.16 l
1.41 -0.15 l
1.41 -0.15 l
1.40 -0.14 l
1.41 -0.13 l
1.41 -0.12 l
1.41 -0.12 l
1.40 -0.12 l
1.41 -0.11 l
1.41 -0.10 l
238.30 68.23 lineto
1.41 -0.10 l
1.41 -0.09 l
1.40 -0.09 l
1.41 -0.08 l
1.41 -0.08 l
1.41 -0.07 l
1.40 -0.08 l
1.41 -0.07 l
1.41 -0.06 l
1.40 -0.07 l
1.41 -0.06 l
1.41 -0.05 l
1.40 -0.06 l
1.41 -0.05 l
1.41 -0.05 l
1.41 -0.05 l
1.40 -0.04 l
1.41 -0.05 l
1.41 -0.04 l
1.40 -0.04 l
1.41 -0.04 l
1.41 -0.03 l
1.41 -0.04 l
1.40 -0.03 l
1.41 -0.03 l
1.41 -0.03 l
1.40 -0.03 l
1.41 -0.03 l
1.41 -0.02 l
1.40 -0.03 l
1.41 -0.02 l
1.41 -0.03 l
1.41 -0.02 l
1.40 -0.02 l
1.41 -0.02 l
1.41 -0.02 l
1.40 -0.01 l
1.41 -0.02 l
1.41 -0.02 l
1.40 -0.01 l
1.41 -0.02 l
1.41 -0.01 l
1.41 -0.02 l
1.40 -0.01 l
1.41 -0.01 l
1.41 -0.02 l
1.40 -0.01 l
1.41 -0.01 l
1.41 -0.01 l
1.41 -0.01 l
1.40 -0.01 l
1.41 -0.01 l
1.41 -0.01 l
1.40 0 l
1.41 -0.01 l
1.41 -0.01 l
1.40 -0.01 l
1.41 0 l
1.41 -0.01 l
1.41 -0.01 l
1.40 0 l
1.41 -0.01 l
1.41 0 l
1.40 -0.01 l
1.41 0 l
1.41 -0.01 l
1.40 0 l
1.41 -0.01 l
1.41 0 l
1.41 0 l
1.40 -0.01 l
1.41 0 l
1.41 -0.01 l
1.40 0 l
1.41 0 l
1.41 -0.01 l
1.41 0 l
1.40 0 l
1.41 0 l
1.41 -0.01 l
1.40 0 l
1.41 0 l
1.41 0 l
1.40 0 l
1.41 -0.01 l
1.41 0 l
1.41 0 l
1.40 0 l
1.41 0 l
1.41 -0.01 l
1.40 0 l
1.41 0 l
1.41 0 l
1.40 0 l
1.41 0 l
1.41 0 l
1.41 0 l
1.40 -0.01 l
1.41 0 l
o
0.00 0.00 432.00 576.00 cl
0 0 0 srgb
0.75 setlinewidth
[] 0 setdash
1 setlinecap
1 setlinejoin
10.00 setmiterlimit
np
97.60 57.60 m
248.89 0 l
o
np
97.60 57.60 m
0 -5.76 l
o
np
159.82 57.60 m
0 -5.76 l
o
np
222.04 57.60 m
0 -5.76 l
o
np
284.27 57.60 m
0 -5.76 l
o
np
346.49 57.60 m
0 -5.76 l
o
/Font1 findfont 10 s
97.60 41.47 (0) .5 0 t
159.82 41.47 (10000) .5 0 t
222.04 41.47 (20000) .5 0 t
284.27 41.47 (30000) .5 0 t
346.49 41.47 (40000) .5 0 t
np
86.40 85.18 m
0 139.09 l
o
np
86.40 85.18 m
-5.76 0 l
o
np
86.40 154.73 m
-5.76 0 l
o
np
86.40 224.27 m
-5.76 0 l
o
79.49 81.59 (0.00) 1 0 t
79.49 151.14 (0.05) 1 0 t
79.49 220.68 (0.10) 1 0 t
np
86.40 57.60 m
302.40 0 l
0 230.40 l
-302.40 0 l
0 -230.40 l
o
0.00 0.00 432.00 576.00 cl
/Font1 findfont 10 s
0 0 0 srgb
237.60 13.82 (Time / ms \(after pulse\)) .5 0 t
49.54 172.80 (Absorbance A) .5 90 t
86.40 57.60 388.80 288.00 cl
/bg { 1 1 1 srgb } def
0 0 0 srgb
0.75 setlinewidth
[] 0 setdash
1 setlinecap
1 setlinejoin
10.00 setmiterlimit
99.28 308.94 0.65 c p3
99.56 302.87 0.65 c p3
99.84 297.85 0.65 c p3
100.12 290.89 0.65 c p3
100.40 286.13 0.65 c p3
100.68 275.45 0.65 c p3
100.96 282.23 0.65 c p3
101.24 275.45 0.65 c p3
101.52 269.69 0.65 c p3
101.80 260.38 0.65 c p3
102.08 258.51 0.65 c p3
102.36 257.57 0.65 c p3
102.64 256.64 0.65 c p3
102.92 250.14 0.65 c p3
103.20 251.06 0.65 c p3
103.48 245.54 0.65 c p3
103.76 247.37 0.65 c p3
104.04 240.97 0.65 c p3
104.32 238.25 0.65 c p3
104.60 233.89 0.65 c p3
104.88 238.25 0.65 c p3
105.16 227.63 0.65 c p3
105.44 227.63 0.65 c p3
105.72 225.85 0.65 c p3
106.00 221.43 0.65 c p3
106.28 223.19 0.65 c p3
106.56 220.55 0.65 c p3
106.84 223.19 0.65 c p3
107.12 216.17 0.65 c p3
107.40 218.79 0.65 c p3
107.68 216.17 0.65 c p3
107.96 217.04 0.65 c p3
108.24 212.68 0.65 c p3
108.52 211.96 0.65 c p3
108.80 205.06 0.65 c p3
109.08 202.50 0.65 c p3
109.36 199.94 0.65 c p3
109.64 203.35 0.65 c p3
109.92 199.09 0.65 c p3
110.20 195.71 0.65 c p3
110.48 199.94 0.65 c p3
110.76 198.25 0.65 c p3
111.04 193.18 0.65 c p3
111.32 192.34 0.65 c p3
111.60 191.50 0.65 c p3
111.88 190.67 0.65 c p3
112.16 186.63 0.65 c p3
112.44 187.46 0.65 c p3
112.72 186.63 0.65 c p3
113.00 189.83 0.65 c p3
113.28 185.80 0.65 c p3
113.56 182.49 0.65 c p3
113.84 184.97 0.65 c p3
114.12 181.66 0.65 c p3
114.40 179.20 0.65 c p3
114.68 179.20 0.65 c p3
114.96 178.37 0.65 c p3
115.24 180.02 0.65 c p3
115.52 176.74 0.65 c p3
115.80 170.23 0.65 c p3
116.08 172.66 0.65 c p3
116.36 171.85 0.65 c p3
116.64 171.04 0.65 c p3
116.92 167.13 0.65 c p3
117.20 171.85 0.65 c p3
117.48 167.81 0.65 c p3
117.76 167.13 0.65 c p3
118.04 163.92 0.65 c p3
118.32 164.72 0.65 c p3
118.60 165.53 0.65 c p3
118.88 164.72 0.65 c p3
119.16 163.92 0.65 c p3
119.44 155.97 0.65 c p3
119.72 160.73 0.65 c p3
120.00 157.55 0.65 c p3
120.28 158.34 0.65 c p3
120.56 160.73 0.65 c p3
120.84 156.76 0.65 c p3
121.12 155.18 0.65 c p3
121.40 159.93 0.65 c p3
121.68 157.55 0.65 c p3
121.96 152.03 0.65 c p3
122.24 150.46 0.65 c p3
122.52 149.68 0.65 c p3
122.80 152.81 0.65 c p3
123.08 150.46 0.65 c p3
123.36 148.90 0.65 c p3
123.64 148.90 0.65 c p3
123.92 149.68 0.65 c p3
124.20 152.03 0.65 c p3
124.48 143.58 0.65 c p3
124.76 147.34 0.65 c p3
125.04 145.91 0.65 c p3
125.32 143.58 0.65 c p3
125.60 142.81 0.65 c p3
125.88 138.19 0.65 c p3
126.16 138.95 0.65 c p3
126.44 141.26 0.65 c p3
126.72 140.49 0.65 c p3
127.00 140.49 0.65 c p3
127.28 141.26 0.65 c p3
127.56 140.49 0.65 c p3
127.84 138.19 0.65 c p3
128.12 136.65 0.65 c p3
128.40 139.72 0.65 c p3
128.68 139.72 0.65 c p3
128.96 135.89 0.65 c p3
129.24 134.36 0.65 c p3
129.52 136.65 0.65 c p3
129.80 135.12 0.65 c p3
130.08 137.42 0.65 c p3
130.36 132.08 0.65 c p3
130.64 129.05 0.65 c p3
130.92 132.84 0.65 c p3
131.20 132.08 0.65 c p3
131.48 128.29 0.65 c p3
131.76 135.12 0.65 c p3
132.04 132.08 0.65 c p3
132.32 129.80 0.65 c p3
132.60 126.03 0.65 c p3
132.88 132.84 0.65 c p3
133.16 128.29 0.65 c p3
133.44 129.05 0.65 c p3
133.72 127.54 0.65 c p3
134.00 126.03 0.65 c p3
134.28 129.05 0.65 c p3
134.56 129.80 0.65 c p3
134.84 124.65 0.65 c p3
135.12 126.78 0.65 c p3
135.40 123.90 0.65 c p3
135.68 126.03 0.65 c p3
135.96 122.41 0.65 c p3
136.24 127.54 0.65 c p3
136.52 124.65 0.65 c p3
136.80 120.91 0.65 c p3
137.08 120.17 0.65 c p3
137.36 126.78 0.65 c p3
137.64 118.68 0.65 c p3
137.92 121.66 0.65 c p3
138.20 120.91 0.65 c p3
138.48 117.94 0.65 c p3
138.76 121.66 0.65 c p3
139.04 118.68 0.65 c p3
139.32 116.46 0.65 c p3
139.60 121.66 0.65 c p3
139.88 115.72 0.65 c p3
140.16 121.66 0.65 c p3
140.44 120.91 0.65 c p3
140.72 118.68 0.65 c p3
141.00 117.94 0.65 c p3
141.28 114.98 0.65 c p3
141.56 114.24 0.65 c p3
141.84 118.68 0.65 c p3
142.12 118.68 0.65 c p3
142.40 114.24 0.65 c p3
142.68 115.72 0.65 c p3
142.96 114.24 0.65 c p3
143.24 113.50 0.65 c p3
143.52 114.98 0.65 c p3
143.80 114.24 0.65 c p3
144.08 114.24 0.65 c p3
144.36 112.03 0.65 c p3
144.64 114.24 0.65 c p3
144.92 113.50 0.65 c p3
145.20 117.20 0.65 c p3
145.48 113.50 0.65 c p3
145.76 117.20 0.65 c p3
146.04 109.10 0.65 c p3
146.32 112.77 0.65 c p3
146.60 116.46 0.65 c p3
146.88 113.50 0.65 c p3
147.16 112.03 0.65 c p3
147.44 110.56 0.65 c p3
147.72 112.77 0.65 c p3
148.00 108.37 0.65 c p3
148.28 110.56 0.65 c p3
148.56 112.77 0.65 c p3
148.84 109.83 0.65 c p3
149.12 110.56 0.65 c p3
149.40 108.37 0.65 c p3
149.68 112.03 0.65 c p3
149.96 110.56 0.65 c p3
150.24 108.37 0.65 c p3
150.52 107.64 0.65 c p3
150.80 112.77 0.65 c p3
151.08 108.37 0.65 c p3
151.36 106.18 0.65 c p3
151.64 104.85 0.65 c p3
151.92 107.64 0.65 c p3
152.20 108.37 0.65 c p3
152.48 105.57 0.65 c p3
152.76 107.64 0.65 c p3
153.04 107.64 0.65 c p3
153.32 108.37 0.65 c p3
153.60 106.18 0.65 c p3
153.88 104.85 0.65 c p3
154.16 106.18 0.65 c p3
154.44 105.57 0.65 c p3
154.72 106.18 0.65 c p3
155.00 105.57 0.65 c p3
155.28 108.37 0.65 c p3
155.56 106.18 0.65 c p3
155.84 103.40 0.65 c p3
156.12 103.40 0.65 c p3
156.40 101.95 0.65 c p3
156.68 105.57 0.65 c p3
156.96 104.85 0.65 c p3
157.24 104.12 0.65 c p3
157.52 102.67 0.65 c p3
157.80 106.91 0.65 c p3
158.08 104.12 0.65 c p3
158.36 102.67 0.65 c p3
158.64 102.67 0.65 c p3
158.92 97.63 0.65 c p3
159.20 104.12 0.65 c p3
159.48 101.23 0.65 c p3
159.76 99.78 0.65 c p3
160.04 97.63 0.65 c p3
160.32 104.12 0.65 c p3
160.60 104.85 0.65 c p3
160.88 101.23 0.65 c p3
161.16 101.23 0.65 c p3
161.44 99.06 0.65 c p3
161.72 100.50 0.65 c p3
162.00 99.78 0.65 c p3
162.28 104.85 0.65 c p3
162.56 102.67 0.65 c p3
162.84 100.50 0.65 c p3
163.12 97.63 0.65 c p3
163.40 99.78 0.65 c p3
163.68 99.06 0.65 c p3
163.96 96.19 0.65 c p3
164.24 100.50 0.65 c p3
164.52 96.91 0.65 c p3
164.80 98.34 0.65 c p3
165.08 95.48 0.65 c p3
165.36 100.50 0.65 c p3
165.64 99.78 0.65 c p3
165.92 99.78 0.65 c p3
166.20 97.63 0.65 c p3
166.48 98.34 0.65 c p3
166.76 97.63 0.65 c p3
167.04 96.19 0.65 c p3
167.32 95.48 0.65 c p3
167.60 98.34 0.65 c p3
167.88 98.34 0.65 c p3
168.16 96.19 0.65 c p3
168.44 91.20 0.65 c p3
168.72 89.79 0.65 c p3
169.00 96.91 0.65 c p3
169.28 94.05 0.65 c p3
169.56 94.76 0.65 c p3
169.84 94.76 0.65 c p3
170.12 96.19 0.65 c p3
170.40 94.05 0.65 c p3
170.68 91.20 0.65 c p3
170.96 95.48 0.65 c p3
171.24 95.48 0.65 c p3
171.52 91.91 0.65 c p3
171.80 93.34 0.65 c p3
172.08 95.48 0.65 c p3
172.36 93.34 0.65 c p3
172.64 86.96 0.65 c p3
172.92 90.49 0.65 c p3
173.20 91.20 0.65 c p3
173.48 89.79 0.65 c p3
173.76 91.91 0.65 c p3
174.04 93.34 0.65 c p3
174.32 96.19 0.65 c p3
174.60 89.79 0.65 c p3
174.88 89.08 0.65 c p3
175.16 89.79 0.65 c p3
175.44 90.49 0.65 c p3
175.72 94.05 0.65 c p3
176.00 89.08 0.65 c p3
176.28 91.20 0.65 c p3
176.56 89.08 0.65 c p3
176.84 91.91 0.65 c p3
177.12 87.66 0.65 c p3
177.40 86.96 0.65 c p3
177.68 86.96 0.65 c p3
177.96 89.08 0.65 c p3
178.24 91.20 0.65 c p3
178.52 87.66 0.65 c p3
178.80 87.66 0.65 c p3
179.08 87.66 0.65 c p3
179.36 84.96 0.65 c p3
179.64 83.56 0.65 c p3
179.92 86.96 0.65 c p3
180.20 88.37 0.65 c p3
180.48 85.67 0.65 c p3
180.76 85.67 0.65 c p3
181.04 84.96 0.65 c p3
181.32 86.96 0.65 c p3
181.60 88.37 0.65 c p3
181.88 84.26 0.65 c p3
182.16 87.66 0.65 c p3
182.44 85.67 0.65 c p3
182.72 84.26 0.65 c p3
183.00 86.37 0.65 c p3
183.28 83.56 0.65 c p3
183.56 84.96 0.65 c p3
183.84 86.37 0.65 c p3
184.12 80.07 0.65 c p3
184.40 86.37 0.65 c p3
184.68 82.86 0.65 c p3
184.96 80.76 0.65 c p3
185.24 82.16 0.65 c p3
185.52 82.86 0.65 c p3
185.80 86.37 0.65 c p3
186.08 84.26 0.65 c p3
186.36 80.07 0.65 c p3
186.64 84.26 0.65 c p3
186.92 84.26 0.65 c p3
187.20 82.16 0.65 c p3
187.48 80.07 0.65 c p3
187.76 81.46 0.65 c p3
188.04 80.76 0.65 c p3
188.32 80.07 0.65 c p3
188.60 79.37 0.65 c p3
188.88 84.26 0.65 c p3
189.16 85.67 0.65 c p3
189.44 80.07 0.65 c p3
189.72 80.76 0.65 c p3
190.00 82.16 0.65 c p3
190.28 80.76 0.65 c p3
190.56 78.67 0.65 c p3
190.84 77.98 0.65 c p3
191.12 80.07 0.65 c p3
191.40 80.76 0.65 c p3
191.68 78.67 0.65 c p3
191.96 77.28 0.65 c p3
192.24 82.86 0.65 c p3
192.52 75.90 0.65 c p3
192.80 76.59 0.65 c p3
193.08 76.59 0.65 c p3
193.36 77.98 0.65 c p3
193.64 80.07 0.65 c p3
193.92 71.76 0.65 c p3
194.20 76.59 0.65 c p3
194.48 77.28 0.65 c p3
194.76 77.98 0.65 c p3
195.04 76.59 0.65 c p3
195.32 75.90 0.65 c p3
195.60 77.28 0.65 c p3
195.88 80.76 0.65 c p3
196.16 80.76 0.65 c p3
196.44 76.59 0.65 c p3
196.72 75.90 0.65 c p3
197.00 76.59 0.65 c p3
197.28 73.14 0.65 c p3
197.56 75.90 0.65 c p3
197.84 75.21 0.65 c p3
198.12 78.67 0.65 c p3
198.40 77.98 0.65 c p3
198.68 75.90 0.65 c p3
198.96 74.52 0.65 c p3
199.24 74.52 0.65 c p3
199.52 75.21 0.65 c p3
199.80 72.45 0.65 c p3
200.08 75.90 0.65 c p3
200.36 77.28 0.65 c p3
200.64 78.67 0.65 c p3
200.92 74.52 0.65 c p3
201.20 73.14 0.65 c p3
201.48 76.59 0.65 c p3
201.76 73.83 0.65 c p3
202.04 76.59 0.65 c p3
202.32 73.83 0.65 c p3
202.60 72.45 0.65 c p3
202.88 71.76 0.65 c p3
203.16 71.76 0.65 c p3
203.44 79.37 0.65 c p3
203.72 73.83 0.65 c p3
204.00 71.07 0.65 c p3
204.28 72.45 0.65 c p3
204.56 71.07 0.65 c p3
204.84 73.83 0.65 c p3
205.12 74.52 0.65 c p3
205.40 75.21 0.65 c p3
205.68 75.90 0.65 c p3
205.96 71.07 0.65 c p3
206.24 73.83 0.65 c p3
206.52 70.38 0.65 c p3
206.80 73.14 0.65 c p3
207.08 71.07 0.65 c p3
207.36 72.45 0.65 c p3
207.64 70.38 0.65 c p3
207.92 71.07 0.65 c p3
208.20 70.38 0.65 c p3
208.48 71.07 0.65 c p3
208.76 69.02 0.65 c p3
209.04 73.14 0.65 c p3
209.32 73.83 0.65 c p3
209.60 71.07 0.65 c p3
209.88 73.14 0.65 c p3
210.16 70.38 0.65 c p3
210.44 72.45 0.65 c p3
210.72 68.33 0.65 c p3
211.00 71.76 0.65 c p3
211.28 69.70 0.65 c p3
211.56 67.76 0.65 c p3
211.84 69.70 0.65 c p3
212.12 68.33 0.65 c p3
212.40 69.02 0.65 c p3
212.68 68.33 0.65 c p3
212.96 70.38 0.65 c p3
213.24 67.08 0.65 c p3
213.52 69.70 0.65 c p3
213.80 67.08 0.65 c p3
214.08 70.38 0.65 c p3
214.36 71.07 0.65 c p3
214.64 68.33 0.65 c p3
214.92 71.07 0.65 c p3
215.20 67.76 0.65 c p3
215.48 69.70 0.65 c p3
215.76 66.40 0.65 c p3
216.04 70.38 0.65 c p3
216.32 68.33 0.65 c p3
216.60 68.33 0.65 c p3
216.88 63.68 0.65 c p3
217.16 67.76 0.65 c p3
217.44 69.70 0.65 c p3
217.72 69.02 0.65 c p3
218.00 67.76 0.65 c p3
218.28 67.76 0.65 c p3
218.56 67.76 0.65 c p3
218.84 63.68 0.65 c p3
219.12 69.02 0.65 c p3
219.40 67.08 0.65 c p3
219.68 66.40 0.65 c p3
219.96 63.00 0.65 c p3
220.24 69.70 0.65 c p3
220.52 65.72 0.65 c p3
220.80 65.72 0.65 c p3
221.08 63.68 0.65 c p3
221.36 59.62 0.65 c p3
221.64 65.04 0.65 c p3
221.92 65.04 0.65 c p3
222.20 60.97 0.65 c p3
222.48 63.68 0.65 c p3
222.76 63.00 0.65 c p3
223.04 61.65 0.65 c p3
223.32 69.02 0.65 c p3
223.60 68.33 0.65 c p3
223.88 64.36 0.65 c p3
224.16 63.00 0.65 c p3
224.44 62.32 0.65 c p3
224.72 65.04 0.65 c p3
225.00 63.68 0.65 c p3
225.28 65.04 0.65 c p3
225.56 61.65 0.65 c p3
225.84 67.08 0.65 c p3
226.12 66.40 0.65 c p3
226.40 60.97 0.65 c p3
226.68 60.97 0.65 c p3
226.96 65.04 0.65 c p3
227.24 67.76 0.65 c p3
227.52 63.68 0.65 c p3
227.80 63.00 0.65 c p3
228.08 56.26 0.65 c p3
228.36 69.70 0.65 c p3
228.64 59.62 0.65 c p3
228.92 65.04 0.65 c p3
229.20 59.62 0.65 c p3
229.48 63.68 0.65 c p3
229.76 63.00 0.65 c p3
230.04 59.62 0.65 c p3
230.32 63.00 0.65 c p3
230.60 62.32 0.65 c p3
230.88 59.62 0.65 c p3
231.16 63.00 0.65 c p3
231.44 63.00 0.65 c p3
231.72 63.00 0.65 c p3
232.00 59.62 0.65 c p3
232.28 59.62 0.65 c p3
232.56 63.68 0.65 c p3
232.84 58.95 0.65 c p3
233.12 58.95 0.65 c p3
233.40 60.97 0.65 c p3
233.68 62.32 0.65 c p3
233.96 64.36 0.65 c p3
234.24 59.62 0.65 c p3
234.52 60.30 0.65 c p3
234.80 58.95 0.65 c p3
235.08 60.30 0.65 c p3
235.36 57.60 0.65 c p3
235.64 54.26 0.65 c p3
235.92 60.97 0.65 c p3
236.20 68.33 0.65 c p3
236.48 63.00 0.65 c p3
236.76 63.68 0.65 c p3
237.04 56.26 0.65 c p3
237.32 63.00 0.65 c p3
237.60 59.62 0.65 c p3
237.88 54.26 0.65 c p3
238.16 59.62 0.65 c p3
238.44 62.32 0.65 c p3
238.72 55.59 0.65 c p3
239.00 60.97 0.65 c p3
239.28 60.97 0.65 c p3
239.56 60.30 0.65 c p3
239.84 58.27 0.65 c p3
240.12 55.59 0.65 c p3
240.40 60.30 0.65 c p3
240.68 60.97 0.65 c p3
240.96 56.93 0.65 c p3
241.24 58.95 0.65 c p3
241.52 60.30 0.65 c p3
241.80 63.00 0.65 c p3
242.08 59.62 0.65 c p3
242.36 60.30 0.65 c p3
242.64 58.27 0.65 c p3
242.92 62.32 0.65 c p3
243.20 56.93 0.65 c p3
243.48 57.60 0.65 c p3
243.76 58.95 0.65 c p3
244.04 58.27 0.65 c p3
244.32 55.59 0.65 c p3
244.60 54.92 0.65 c p3
244.88 54.26 0.65 c p3
245.16 60.30 0.65 c p3
216.00 201.60 367.20 247.68 cl
0 0 0 srgb
0.75 setlinewidth
[] 0 setdash
1 setlinecap
1 setlinejoin
10.00 setmiterlimit
221.60 238.86 0.43 c p1
221.87 237.39 0.43 c p1
222.14 236.28 0.43 c p1
222.41 234.49 0.43 c p1
222.67 233.46 0.43 c p1
222.94 230.37 0.43 c p1
223.21 233.34 0.43 c p1
223.48 231.59 0.43 c p1
223.75 230.19 0.43 c p1
224.02 227.55 0.43 c p1
224.29 227.49 0.43 c p1
224.56 227.75 0.43 c p1
224.82 228.00 0.43 c p1
225.09 226.32 0.43 c p1
225.36 227.21 0.43 c p1
225.63 225.85 0.43 c p1
225.90 227.05 0.43 c p1
226.17 225.38 0.43 c p1
226.44 224.98 0.43 c p1
226.71 224.01 0.43 c p1
226.97 226.06 0.43 c p1
227.24 222.90 0.43 c p1
227.51 223.43 0.43 c p1
227.78 223.34 0.43 c p1
228.05 222.32 0.43 c p1
228.32 223.45 0.43 c p1
228.59 223.04 0.43 c p1
228.86 224.46 0.43 c p1
229.12 222.52 0.43 c p1
229.39 223.93 0.43 c p1
229.66 223.51 0.43 c p1
229.93 224.30 0.43 c p1
230.20 223.27 0.43 c p1
230.47 223.50 0.43 c p1
230.74 221.57 0.43 c p1
231.00 221.15 0.43 c p1
231.27 220.73 0.43 c p1
231.54 222.37 0.43 c p1
231.81 221.35 0.43 c p1
232.08 220.63 0.43 c p1
232.35 222.55 0.43 c p1
232.62 222.40 0.43 c p1
232.89 221.08 0.43 c p1
233.15 221.22 0.43 c p1
233.42 221.36 0.43 c p1
233.69 221.50 0.43 c p1
233.96 220.52 0.43 c p1
234.23 221.23 0.43 c p1
234.50 221.36 0.43 c p1
234.77 222.89 0.43 c p1
235.04 221.89 0.43 c p1
235.30 221.15 0.43 c p1
235.57 222.41 0.43 c p1
235.84 221.66 0.43 c p1
236.11 221.20 0.43 c p1
236.38 221.59 0.43 c p1
236.65 221.69 0.43 c p1
236.92 222.65 0.43 c p1
237.19 221.88 0.43 c p1
237.45 220.00 0.43 c p1
237.72 221.22 0.43 c p1
237.99 221.31 0.43 c p1
238.26 221.39 0.43 c p1
238.53 220.40 0.43 c p1
238.80 222.39 0.43 c p1
239.07 221.35 0.43 c p1
239.34 221.46 0.43 c p1
239.60 220.70 0.43 c p1
239.87 221.32 0.43 c p1
240.14 221.95 0.43 c p1
240.41 222.01 0.43 c p1
240.68 222.07 0.43 c p1
240.95 219.64 0.43 c p1
241.22 221.62 0.43 c p1
241.48 220.85 0.43 c p1
241.75 221.45 0.43 c p1
242.02 222.60 0.43 c p1
242.29 221.54 0.43 c p1
242.56 221.30 0.43 c p1
242.83 223.27 0.43 c p1
243.10 222.75 0.43 c p1
243.37 221.14 0.43 c p1
243.63 220.90 0.43 c p1
243.90 220.93 0.43 c p1
244.17 222.32 0.43 c p1
244.44 221.80 0.43 c p1
244.71 221.55 0.43 c p1
244.98 221.84 0.43 c p1
245.25 222.40 0.43 c p1
245.52 223.50 0.43 c p1
245.78 220.85 0.43 c p1
246.05 222.44 0.43 c p1
246.32 222.22 0.43 c p1
246.59 221.69 0.43 c p1
246.86 221.69 0.43 c p1
247.13 220.35 0.43 c p1
247.40 220.89 0.43 c p1
247.67 221.96 0.43 c p1
247.93 221.95 0.43 c p1
248.20 222.21 0.43 c p1
248.47 222.74 0.43 c p1
248.74 222.73 0.43 c p1
249.01 222.18 0.43 c p1
249.28 221.90 0.43 c p1
249.55 223.21 0.43 c p1
249.81 223.46 0.43 c p1
250.08 222.37 0.43 c p1
250.35 222.08 0.43 c p1
250.62 223.12 0.43 c p1
250.89 222.83 0.43 c p1
251.16 223.86 0.43 c p1
251.43 222.24 0.43 c p1
251.70 221.42 0.43 c p1
251.96 222.96 0.43 c p1
252.23 222.93 0.43 c p1
252.50 221.84 0.43 c p1
252.77 224.43 0.43 c p1
253.04 223.60 0.43 c p1
253.31 223.03 0.43 c p1
253.58 221.93 0.43 c p1
253.85 224.51 0.43 c p1
254.11 223.14 0.43 c p1
254.38 223.62 0.43 c p1
254.65 223.30 0.43 c p1
254.92 222.99 0.43 c p1
255.19 224.24 0.43 c p1
255.46 224.71 0.43 c p1
255.73 223.12 0.43 c p1
256.00 224.06 0.43 c p1
256.26 223.26 0.43 c p1
256.53 224.19 0.43 c p1
256.80 223.13 0.43 c p1
257.07 225.10 0.43 c p1
257.34 224.29 0.43 c p1
257.61 223.18 0.43 c p1
257.88 223.11 0.43 c p1
258.15 225.59 0.43 c p1
258.41 222.96 0.43 c p1
258.68 224.18 0.43 c p1
258.95 224.10 0.43 c p1
259.22 223.24 0.43 c p1
259.49 224.72 0.43 c p1
259.76 223.86 0.43 c p1
260.03 223.26 0.43 c p1
260.29 225.24 0.43 c p1
260.56 223.34 0.43 c p1
260.83 225.58 0.43 c p1
261.10 225.49 0.43 c p1
261.37 224.88 0.43 c p1
261.64 224.78 0.43 c p1
261.91 223.92 0.43 c p1
262.18 223.82 0.43 c p1
262.44 225.53 0.43 c p1
262.71 225.69 0.43 c p1
262.98 224.30 0.43 c p1
263.25 224.97 0.43 c p1
263.52 224.61 0.43 c p1
263.79 224.51 0.43 c p1
264.06 225.17 0.43 c p1
264.33 225.07 0.43 c p1
264.59 225.22 0.43 c p1
264.86 224.59 0.43 c p1
265.13 225.51 0.43 c p1
265.40 225.40 0.43 c p1
265.67 226.83 0.43 c p1
265.94 225.68 0.43 c p1
266.21 227.11 0.43 c p1
266.48 224.43 0.43 c p1
266.74 225.85 0.43 c p1
267.01 227.27 0.43 c p1
267.28 226.38 0.43 c p1
267.55 226.00 0.43 c p1
267.82 225.62 0.43 c p1
268.09 226.52 0.43 c p1
268.36 225.12 0.43 c p1
268.62 226.02 0.43 c p1
268.89 226.91 0.43 c p1
269.16 226.02 0.43 c p1
269.43 226.40 0.43 c p1
269.70 225.76 0.43 c p1
269.97 227.16 0.43 c p1
270.24 226.77 0.43 c p1
270.51 226.13 0.43 c p1
270.77 226.00 0.43 c p1
271.04 227.90 0.43 c p1
271.31 226.49 0.43 c p1
271.58 225.84 0.43 c p1
271.85 225.50 0.43 c p1
272.12 226.58 0.43 c p1
272.39 226.95 0.43 c p1
272.66 226.09 0.43 c p1
272.92 226.92 0.43 c p1
273.19 227.03 0.43 c p1
273.46 227.40 0.43 c p1
273.73 226.75 0.43 c p1
274.00 226.39 0.43 c p1
274.27 226.96 0.43 c p1
274.54 226.86 0.43 c p1
274.81 227.17 0.43 c p1
275.07 227.06 0.43 c p1
275.34 228.14 0.43 c p1
275.61 227.48 0.43 c p1
275.88 226.62 0.43 c p1
276.15 226.72 0.43 c p1
276.42 226.31 0.43 c p1
276.69 227.67 0.43 c p1
276.96 227.52 0.43 c p1
277.22 227.36 0.43 c p1
277.49 226.95 0.43 c p1
277.76 228.52 0.43 c p1
278.03 227.65 0.43 c p1
278.30 227.23 0.43 c p1
278.57 227.33 0.43 c p1
278.84 225.67 0.43 c p1
279.10 228.01 0.43 c p1
279.37 227.10 0.43 c p1
279.64 226.69 0.43 c p1
279.91 226.02 0.43 c p1
280.18 228.37 0.43 c p1
280.45 228.71 0.43 c p1
280.72 227.53 0.43 c p1
280.99 227.62 0.43 c p1
281.25 226.95 0.43 c p1
281.52 227.54 0.43 c p1
281.79 227.37 0.43 c p1
282.06 229.21 0.43 c p1
282.33 228.54 0.43 c p1
282.60 227.86 0.43 c p1
282.87 226.94 0.43 c p1
283.14 227.77 0.43 c p1
283.40 227.60 0.43 c p1
283.67 226.68 0.43 c p1
283.94 228.26 0.43 c p1
284.21 227.08 0.43 c p1
284.48 227.66 0.43 c p1
284.75 226.73 0.43 c p1
285.02 228.56 0.43 c p1
285.29 228.38 0.43 c p1
285.55 228.45 0.43 c p1
285.82 227.77 0.43 c p1
286.09 228.10 0.43 c p1
286.36 227.92 0.43 c p1
286.63 227.49 0.43 c p1
286.90 227.31 0.43 c p1
287.17 228.37 0.43 c p1
287.43 228.44 0.43 c p1
287.70 227.76 0.43 c p1
287.97 226.10 0.43 c p1
288.24 225.67 0.43 c p1
288.51 228.21 0.43 c p1
288.78 227.28 0.43 c p1
289.05 227.59 0.43 c p1
289.32 227.66 0.43 c p1
289.58 228.22 0.43 c p1
289.85 227.54 0.43 c p1
290.12 226.61 0.43 c p1
290.39 228.16 0.43 c p1
290.66 228.22 0.43 c p1
290.93 227.04 0.43 c p1
291.20 227.60 0.43 c p1
291.47 228.40 0.43 c p1
291.73 227.71 0.43 c p1
292.00 225.55 0.43 c p1
292.27 226.84 0.43 c p1
292.54 227.15 0.43 c p1
292.81 226.71 0.43 c p1
293.08 227.51 0.43 c p1
293.35 228.06 0.43 c p1
293.62 229.10 0.43 c p1
293.88 226.93 0.43 c p1
294.15 226.74 0.43 c p1
294.42 227.04 0.43 c p1
294.69 227.34 0.43 c p1
294.96 228.63 0.43 c p1
295.23 226.95 0.43 c p1
295.50 227.74 0.43 c p1
295.77 227.05 0.43 c p1
296.03 228.09 0.43 c p1
296.30 226.66 0.43 c p1
296.57 226.47 0.43 c p1
296.84 226.52 0.43 c p1
297.11 227.30 0.43 c p1
297.38 228.09 0.43 c p1
297.65 226.91 0.43 c p1
297.91 226.96 0.43 c p1
298.18 227.01 0.43 c p1
298.45 226.11 0.43 c p1
298.72 225.67 0.43 c p1
298.99 226.90 0.43 c p1
299.26 227.44 0.43 c p1
299.53 226.54 0.43 c p1
299.80 226.59 0.43 c p1
300.06 226.39 0.43 c p1
300.33 227.12 0.43 c p1
300.60 227.66 0.43 c p1
300.87 226.27 0.43 c p1
301.14 227.50 0.43 c p1
301.41 226.85 0.43 c p1
301.68 226.40 0.43 c p1
301.95 227.17 0.43 c p1
302.21 226.24 0.43 c p1
302.48 226.77 0.43 c p1
302.75 227.30 0.43 c p1
303.02 225.15 0.43 c p1
303.29 227.38 0.43 c p1
303.56 226.20 0.43 c p1
303.83 225.51 0.43 c p1
304.10 226.03 0.43 c p1
304.36 226.31 0.43 c p1
304.63 227.57 0.43 c p1
304.90 226.87 0.43 c p1
305.17 225.45 0.43 c p1
305.44 226.95 0.43 c p1
305.71 226.98 0.43 c p1
305.98 226.29 0.43 c p1
306.24 225.60 0.43 c p1
306.51 226.12 0.43 c p1
306.78 225.91 0.43 c p1
307.05 225.70 0.43 c p1
307.32 225.50 0.43 c p1
307.59 227.23 0.43 c p1
307.86 227.75 0.43 c p1
308.13 225.84 0.43 c p1
308.39 226.12 0.43 c p1
308.66 226.63 0.43 c p1
308.93 226.18 0.43 c p1
309.20 225.49 0.43 c p1
309.47 225.28 0.43 c p1
309.74 226.04 0.43 c p1
310.01 226.31 0.43 c p1
310.28 225.61 0.43 c p1
310.54 225.16 0.43 c p1
310.81 227.13 0.43 c p1
311.08 224.74 0.43 c p1
311.35 225.01 0.43 c p1
311.62 225.04 0.43 c p1
311.89 225.56 0.43 c p1
312.16 226.31 0.43 c p1
312.43 223.45 0.43 c p1
312.69 225.16 0.43 c p1
312.96 225.43 0.43 c p1
313.23 225.70 0.43 c p1
313.50 225.24 0.43 c p1
313.77 225.03 0.43 c p1
314.04 225.54 0.43 c p1
314.31 226.78 0.43 c p1
314.58 226.81 0.43 c p1
314.84 225.38 0.43 c p1
315.11 225.17 0.43 c p1
315.38 225.43 0.43 c p1
315.65 224.26 0.43 c p1
315.92 225.24 0.43 c p1
316.19 225.03 0.43 c p1
316.46 226.26 0.43 c p1
316.72 226.04 0.43 c p1
316.99 225.35 0.43 c p1
317.26 224.89 0.43 c p1
317.53 224.91 0.43 c p1
317.80 225.18 0.43 c p1
318.07 224.24 0.43 c p1
318.34 225.47 0.43 c p1
318.61 225.97 0.43 c p1
318.87 226.48 0.43 c p1
319.14 225.06 0.43 c p1
319.41 224.60 0.43 c p1
319.68 225.82 0.43 c p1
319.95 224.88 0.43 c p1
320.22 225.87 0.43 c p1
320.49 224.93 0.43 c p1
320.76 224.47 0.43 c p1
321.02 224.25 0.43 c p1
321.29 224.28 0.43 c p1
321.56 226.94 0.43 c p1
321.83 225.04 0.43 c p1
322.10 224.10 0.43 c p1
322.37 224.60 0.43 c p1
322.64 224.14 0.43 c p1
322.91 225.12 0.43 c p1
323.17 225.38 0.43 c p1
323.44 225.64 0.43 c p1
323.71 225.90 0.43 c p1
323.98 224.24 0.43 c p1
324.25 225.22 0.43 c p1
324.52 224.04 0.43 c p1
324.79 225.02 0.43 c p1
325.05 224.32 0.43 c p1
325.32 224.81 0.43 c p1
325.59 224.12 0.43 c p1
325.86 224.37 0.43 c p1
326.13 224.15 0.43 c p1
326.40 224.41 0.43 c p1
326.67 223.71 0.43 c p1
326.94 225.16 0.43 c p1
327.20 225.42 0.43 c p1
327.47 224.48 0.43 c p1
327.74 225.21 0.43 c p1
328.01 224.28 0.43 c p1
328.28 225.01 0.43 c p1
328.55 223.60 0.43 c p1
328.82 224.80 0.43 c p1
329.09 224.10 0.43 c p1
329.35 223.45 0.43 c p1
329.62 224.14 0.43 c p1
329.89 223.68 0.43 c p1
330.16 223.93 0.43 c p1
330.43 223.71 0.43 c p1
330.70 224.44 0.43 c p1
330.97 223.30 0.43 c p1
331.24 224.23 0.43 c p1
331.50 223.33 0.43 c p1
331.77 224.50 0.43 c p1
332.04 224.75 0.43 c p1
332.31 223.81 0.43 c p1
332.58 224.78 0.43 c p1
332.85 223.65 0.43 c p1
333.12 224.33 0.43 c p1
333.39 223.20 0.43 c p1
333.65 224.60 0.43 c p1
333.92 223.90 0.43 c p1
334.19 223.91 0.43 c p1
334.46 222.31 0.43 c p1
334.73 223.74 0.43 c p1
335.00 224.43 0.43 c p1
335.27 224.21 0.43 c p1
335.53 223.78 0.43 c p1
335.80 223.80 0.43 c p1
336.07 223.81 0.43 c p1
336.34 222.40 0.43 c p1
336.61 224.27 0.43 c p1
336.88 223.61 0.43 c p1
337.15 223.39 0.43 c p1
337.42 222.22 0.43 c p1
337.68 224.56 0.43 c p1
337.95 223.19 0.43 c p1
338.22 223.20 0.43 c p1
338.49 222.50 0.43 c p1
338.76 221.10 0.43 c p1
339.03 223.00 0.43 c p1
339.30 223.01 0.43 c p1
339.57 221.61 0.43 c p1
339.83 222.56 0.43 c p1
340.10 222.33 0.43 c p1
340.37 221.88 0.43 c p1
340.64 224.45 0.43 c p1
340.91 224.22 0.43 c p1
341.18 222.85 0.43 c p1
341.45 222.39 0.43 c p1
341.72 222.16 0.43 c p1
341.98 223.12 0.43 c p1
342.25 222.66 0.43 c p1
342.52 223.14 0.43 c p1
342.79 221.97 0.43 c p1
343.06 223.87 0.43 c p1
343.33 223.64 0.43 c p1
343.60 221.77 0.43 c p1
343.86 221.78 0.43 c p1
344.13 223.20 0.43 c p1
344.40 224.16 0.43 c p1
344.67 222.75 0.43 c p1
344.94 222.52 0.43 c p1
345.21 220.19 0.43 c p1
345.48 224.87 0.43 c p1
345.75 221.37 0.43 c p1
346.01 223.27 0.43 c p1
346.28 221.39 0.43 c p1
346.55 222.81 0.43 c p1
346.82 222.59 0.43 c p1
347.09 221.42 0.43 c p1
347.36 222.60 0.43 c p1
347.63 222.38 0.43 c p1
347.90 221.45 0.43 c p1
348.16 222.63 0.43 c p1
348.43 222.64 0.43 c p1
348.70 222.65 0.43 c p1
348.97 221.48 0.43 c p1
349.24 221.49 0.43 c p1
349.51 222.91 0.43 c p1
349.78 221.27 0.43 c p1
350.05 221.28 0.43 c p1
350.31 221.99 0.43 c p1
350.58 222.47 0.43 c p1
350.85 223.18 0.43 c p1
351.12 221.54 0.43 c p1
351.39 221.79 0.43 c p1
351.66 221.33 0.43 c p1
351.93 221.80 0.43 c p1
352.20 220.87 0.43 c p1
352.46 219.72 0.43 c p1
352.73 222.06 0.43 c p1
353.00 224.62 0.43 c p1
353.27 222.78 0.43 c p1
353.54 223.02 0.43 c p1
353.81 220.45 0.43 c p1
354.08 222.80 0.43 c p1
354.34 221.63 0.43 c p1
354.61 219.77 0.43 c p1
354.88 221.65 0.43 c p1
355.15 222.59 0.43 c p1
355.42 220.26 0.43 c p1
355.69 222.13 0.43 c p1
355.96 222.14 0.43 c p1
356.23 221.91 0.43 c p1
356.49 221.22 0.43 c p1
356.76 220.29 0.43 c p1
357.03 221.93 0.43 c p1
357.30 222.17 0.43 c p1
357.57 220.78 0.43 c p1
357.84 221.48 0.43 c p1
358.11 221.96 0.43 c p1
358.38 222.90 0.43 c p1
358.64 221.73 0.43 c p1
358.91 221.97 0.43 c p1
359.18 221.28 0.43 c p1
359.45 222.69 0.43 c p1
359.72 220.82 0.43 c p1
359.99 221.06 0.43 c p1
360.26 221.54 0.43 c p1
360.53 221.31 0.43 c p1
360.79 220.38 0.43 c p1
361.06 220.15 0.43 c p1
361.33 219.93 0.43 c p1
361.60 222.03 0.43 c p1
0.00 0.00 432.00 576.00 cl
0 0 0 srgb
0.75 setlinewidth
[] 0 setdash
1 setlinecap
1 setlinejoin
10.00 setmiterlimit
np
219.99 201.60 m
119.43 0 l
o
np
219.99 201.60 m
0 -5.76 l
o
np
249.84 201.60 m
0 -5.76 l
o
np
279.70 201.60 m
0 -5.76 l
o
np
309.56 201.60 m
0 -5.76 l
o
np
339.42 201.60 m
0 -5.76 l
o
/Font1 findfont 6 s
219.99 185.47 (0) .5 0 t
249.84 185.47 (5000) .5 0 t
279.70 185.47 (10000) .5 0 t
309.56 185.47 (15000) .5 0 t
339.42 185.47 (20000) .5 0 t
np
216.00 205.30 m
0 38.68 l
o
np
216.00 205.30 m
-5.76 0 l
o
np
216.00 214.97 m
-5.76 0 l
o
np
216.00 224.64 m
-5.76 0 l
o
np
216.00 234.31 m
-5.76 0 l
o
np
216.00 243.98 m
-5.76 0 l
o
209.09 203.15 (-0.04) 1 0 t
209.09 212.82 (-0.02) 1 0 t
209.09 222.49 (0.00) 1 0 t
209.09 232.16 (0.02) 1 0 t
209.09 241.83 (0.04) 1 0 t
np
216.00 201.60 m
151.20 0 l
0 46.08 l
-151.20 0 l
0 -46.08 l
o
0.00 0.00 432.00 576.00 cl
/Font1 findfont 9 s
0 0 0 srgb
291.60 262.88 (Residuals) .5 0 t
59.04 73.44 401.76 516.96 cl
ep
%%Trailer
%%Pages: 1
%%EOF
