%!PS-Adobe-3.0 EPSF-3.0
%%DocumentNeededResources: font Helvetica
%%+ font Helvetica-Bold
%%+ font Helvetica-Oblique
%%+ font Helvetica-BoldOblique
%%+ font Symbol
%%Title: R Graphics Output
%%Creator: R Software
%%Pages: (atend)
%%BoundingBox: 0 0 432 576
%%EndComments
%%BeginProlog
/bp  { gs sRGB gs } def
% begin .ps.prolog
/gs  { gsave } bind def
/gr  { grestore } bind def
/ep  { showpage gr gr } bind def
/m   { moveto } bind def
/l  { rlineto } bind def
/np  { newpath } bind def
/cp  { closepath } bind def
/f   { fill } bind def
/o   { stroke } bind def
/c   { newpath 0 360 arc } bind def
/r   { 4 2 roll moveto 1 copy 3 -1 roll exch 0 exch rlineto 0 rlineto -1 mul 0 exch rlineto closepath } bind def
/p1  { stroke } bind def
/p2  { gsave bg fill grestore newpath } bind def
/p3  { gsave bg fill grestore stroke } bind def
/p6  { gsave bg eofill grestore newpath } bind def
/p7  { gsave bg eofill grestore stroke } bind def
/t   { 5 -2 roll moveto gsave rotate
       1 index stringwidth pop
       mul neg 0 rmoveto show grestore } bind def
/ta  { 4 -2 roll moveto gsave rotate show } bind def
/tb  { 2 -1 roll 0 rmoveto show } bind def
/cl  { grestore gsave newpath 3 index 3 index moveto 1 index
       4 -1 roll lineto  exch 1 index lineto lineto
       closepath clip newpath } bind def
/rgb { setrgbcolor } bind def
/s   { scalefont setfont } bind def
% end   .ps.prolog
/sRGB { [ /CIEBasedABC
          << /DecodeLMN
               [ { dup 0.03928 le
                        {12.92321 div}
                        {0.055 add 1.055 div 2.4 exp }
                     ifelse
                 } bind dup dup
               ]
             /MatrixLMN [0.412457 0.212673 0.019334
                         0.357576 0.715152 0.119192
                         0.180437 0.072175 0.950301]
             /WhitePoint [0.9505 1.0 1.0890]
           >>
         ] setcolorspace } bind def
/srgb { setcolor } bind def
% begin encoding
/WinAnsiEncoding [
 /.notdef /.notdef /.notdef /.notdef /.notdef /.notdef /.notdef /.notdef
 /.notdef /.notdef /.notdef /.notdef /.notdef /.notdef /.notdef /.notdef
 /.notdef /.notdef /.notdef /.notdef /.notdef /.notdef /.notdef /.notdef
 /.notdef /.notdef /.notdef /.notdef /.notdef /.notdef /.notdef /.notdef
 /space /exclam /quotedbl /numbersign /dollar /percent /ampersand /quoteright
 /parenleft /parenright /asterisk /plus /comma /minus /period /slash
 /zero /one /two /three /four /five /six /seven
 /eight /nine /colon /semicolon /less /equal /greater /question
 /at /A /B /C /D /E /F /G
 /H /I /J /K /L /M /N /O
 /P /Q /R /S /T /U /V /W
 /X /Y /Z /bracketleft /backslash /bracketright /asciicircum /underscore
 /grave /a /b /c /d /e /f /g
 /h /i /j /k /l /m /n /o
 /p /q /r /s /t /u /v /w
 /x /y /z /braceleft /bar /braceright /asciitilde /.notdef
 /Euro /.notdef /quotesinglbase /florin /quotedblbase /ellipsis /dagger /daggerdbl
 /circumflex /perthousand /Scaron /guilsinglleft /OE /.notdef /Zcaron /.notdef
 /.notdef /quoteleft /quoteright /quotedblleft /quotedblright /bullet /endash /emdash
 /tilde /trademark /scaron /guilsinglright /oe /.notdef /zcaron /Ydieresis
 /space /exclamdown /cent /sterling /currency /yen /brokenbar /section
 /dieresis /copyright /ordfeminine /guillemotleft /logicalnot /hyphen /registered /macron
 /degree /plusminus /twosuperior /threesuperior /acute /mu /paragraph /periodcentered
 /cedilla /onesuperior /ordmasculine /guillemotright /onequarter /onehalf /threequarters /questiondown
 /Agrave /Aacute /Acircumflex /Atilde /Adieresis /Aring /AE /Ccedilla
 /Egrave /Eacute /Ecircumflex /Edieresis /Igrave /Iacute /Icircumflex /Idieresis
 /Eth /Ntilde /Ograve /Oacute /Ocircumflex /Otilde /Odieresis /multiply
 /Oslash /Ugrave /Uacute /Ucircumflex /Udieresis /Yacute /Thorn /germandbls
 /agrave /aacute /acircumflex /atilde /adieresis /aring /ae /ccedilla
 /egrave /eacute /ecircumflex /edieresis /igrave /iacute /icircumflex /idieresis
 /eth /ntilde /ograve /oacute /ocircumflex /otilde /odieresis /divide
 /oslash /ugrave /uacute /ucircumflex /udieresis /yacute /thorn /ydieresis
]
 def
% end encoding
%%IncludeResource: font Helvetica
/Helvetica findfont
dup length dict begin
  {1 index /FID ne {def} {pop pop} ifelse} forall
  /Encoding WinAnsiEncoding def
  currentdict
  end
/Font1 exch definefont pop
%%IncludeResource: font Helvetica-Bold
/Helvetica-Bold findfont
dup length dict begin
  {1 index /FID ne {def} {pop pop} ifelse} forall
  /Encoding WinAnsiEncoding def
  currentdict
  end
/Font2 exch definefont pop
%%IncludeResource: font Helvetica-Oblique
/Helvetica-Oblique findfont
dup length dict begin
  {1 index /FID ne {def} {pop pop} ifelse} forall
  /Encoding WinAnsiEncoding def
  currentdict
  end
/Font3 exch definefont pop
%%IncludeResource: font Helvetica-BoldOblique
/Helvetica-BoldOblique findfont
dup length dict begin
  {1 index /FID ne {def} {pop pop} ifelse} forall
  /Encoding WinAnsiEncoding def
  currentdict
  end
/Font4 exch definefont pop
%%IncludeResource: font Symbol
/Symbol findfont
dup length dict begin
  {1 index /FID ne {def} {pop pop} ifelse} forall
  currentdict
  end
/Font5 exch definefont pop
%%EndProlog
%%Page: 1 1
bp
/bg { 1 1 1 srgb } def
0.00 0.00 432.00 576.00 r p2
0.00 0.00 432.00 576.00 cl
0.00 0.00 432.00 576.00 cl
0.00 0.00 432.00 576.00 cl
/Font1 findfont 12 s
0 0 0 srgb
48.00 508.72 (PCP-ETH) 0 0 t
48.00 494.89 (Flash light photolysis) 0 0 t
/Font1 findfont 9 s
48.00 457.54 (File: Solv) 0 ta
-0.225 (ent_dependence_solv1-2_MSLM.dat) tb gr
48.00 334.87 (Sat Mar 05 15:04:44 2022) 0 0 t
48.00 430.87 (Fit function:  a + b * e) 0 ta
-0.270 (xp\(-c * t\)) tb gr
48.00 420.50 (t-Inter) 0 ta
0.270 (v) tb
-0.225 (all: 27.500 ... 1975.000 ms) tb gr
48.00 410.14 (P) 0 ta
-0.360 (ar) tb
-0.090 (ameters \(Standard de) tb
-0.270 (viation\):) tb gr
48.00 399.77 (  a = -0.00344 \(0.00020\)) 0 0 t
48.00 389.40 (  b = 0.29747 \(0.00035\)) 0 0 t
48.00 379.03 (  c = 2.021e+00 \(5.764e-03\) s^-1) 0 0 t
48.00 368.66 (  tau = 4.948e-01 \(1.411e-03\) s) 0 0 t
216.00 345.60 388.80 518.40 cl
0 0 0 srgb
0.75 setlinewidth
[] 0 setdash
1 setlinecap
1 setlinejoin
10.00 setmiterlimit
np
222.40 506.20 m
0.15 1.73 l
0.14 0.77 l
0.15 -1.39 l
0.14 0.47 l
0.15 0.44 l
0.14 0.16 l
0.15 -0.60 l
0.14 1.39 l
0.15 -0.95 l
0.15 0 l
0.14 -1.07 l
0.15 0.31 l
0.14 0.16 l
0.15 -0.79 l
0.14 0.48 l
0.15 1.07 l
0.14 -0.60 l
0.15 -0.79 l
0.15 0 l
0.14 -0.31 l
0.15 -0.48 l
0.14 1.42 l
0.15 0.45 l
0.14 -0.45 l
0.15 -0.16 l
0.15 0.32 l
0.14 0.15 l
0.15 -0.62 l
0.14 0 l
0.15 0 l
0.14 0.91 l
0.15 0.16 l
0.14 0.16 l
0.15 -0.76 l
0.15 -0.79 l
0.14 0.63 l
0.15 -1.73 l
0.14 1.57 l
0.15 -0.47 l
0.14 -1.10 l
0.15 1.89 l
0.14 -0.47 l
0.15 -0.32 l
0.15 0 l
0.14 0.94 l
0.15 0.14 l
0.14 -0.45 l
0.15 1.23 l
0.14 -1.23 l
0.15 0.60 l
0.14 -0.91 l
0.15 0.31 l
0.15 -0.47 l
0.14 0.31 l
0.15 0.92 l
0.14 -0.45 l
0.15 -1.57 l
0.14 0.32 l
0.15 0.47 l
0.15 -0.32 l
0.14 -0.15 l
0.15 1.10 l
0.14 0.29 l
0.15 0 l
0.14 0.63 l
0.15 -1.87 l
0.14 0.48 l
0.15 0.62 l
0.15 -0.15 l
0.14 0 l
0.15 0.44 l
0.14 0.16 l
0.15 -0.60 l
0.14 0.15 l
0.15 0.14 l
0.14 -0.92 l
0.15 -0.47 l
0.15 1.54 l
0.14 -0.44 l
0.15 0.76 l
0.14 0 l
0.15 -1.39 l
0.14 1.07 l
0.15 -0.60 l
0.14 -0.63 l
0.15 1.55 l
0.15 -0.92 l
0.14 -0.31 l
0.15 0.31 l
0.14 1.86 l
0.15 -2.02 l
0.14 0.32 l
0.15 0.15 l
0.15 0.45 l
0.14 -0.45 l
0.15 0 l
0.14 0.45 l
0.15 -1.23 l
0.14 -0.63 l
236.96 427.71 lineto
0.14 0.15 l
0.15 2.03 l
0.15 1.73 l
0.14 -1.73 l
0.15 1.10 l
0.14 0.32 l
0.15 0.47 l
0.14 1.54 l
0.15 -0.63 l
0.14 -0.62 l
0.15 2.51 l
0.15 -0.15 l
0.14 -1.42 l
0.15 1.42 l
0.14 0.63 l
0.15 -0.63 l
0.14 0.94 l
0.15 0.79 l
0.14 0.60 l
0.15 0 l
0.15 -0.31 l
0.14 0.78 l
0.15 -0.47 l
0.14 1.26 l
0.15 -0.79 l
0.14 0.47 l
0.15 1.58 l
0.15 -0.63 l
0.14 -0.47 l
0.15 0.94 l
0.14 0.31 l
0.15 0.48 l
0.14 -1.10 l
0.15 1.25 l
0.14 1.24 l
0.15 -0.63 l
0.15 0.15 l
0.14 0.63 l
0.15 0.16 l
0.14 0.32 l
0.15 0.31 l
0.14 0 l
0.15 1.26 l
0.14 -0.79 l
0.15 -0.78 l
0.15 1.88 l
0.14 -0.15 l
0.15 -0.16 l
0.14 -0.16 l
0.15 0.79 l
0.14 1.07 l
0.15 -0.91 l
0.14 0.76 l
0.15 0.47 l
0.15 -0.63 l
0.14 0.31 l
0.15 0.95 l
0.14 0.47 l
0.15 -0.31 l
0.14 1.10 l
0.15 -0.32 l
0.15 0.79 l
0.14 0.47 l
0.15 0 l
0.14 -0.79 l
0.15 1.71 l
0.14 -0.45 l
0.15 0.13 l
0.14 -0.13 l
0.15 0.61 l
0.15 -0.16 l
0.14 0.16 l
0.15 0.15 l
0.14 0.63 l
0.15 0.32 l
0.14 0.16 l
0.15 -0.63 l
0.14 0.63 l
0.15 1.57 l
0.15 -0.79 l
0.14 -0.63 l
0.15 1.58 l
0.14 1.23 l
0.15 -1.08 l
0.14 -0.31 l
0.15 1.55 l
0.14 0.63 l
0.15 -0.32 l
0.15 -1.70 l
0.14 1.39 l
0.15 0 l
0.14 0.47 l
0.15 0.16 l
0.14 0.31 l
0.15 0.79 l
0.15 -0.79 l
0.14 -0.63 l
0.15 1.26 l
0.14 0.94 l
251.52 455.85 lineto
0.14 0.16 l
0.15 0.79 l
0.14 0 l
0.15 0.15 l
0.15 0.16 l
0.14 0.45 l
0.15 1.41 l
0.14 -0.47 l
0.15 -0.31 l
0.14 0.63 l
0.15 0 l
0.14 -1.11 l
0.15 0.95 l
0.15 1.41 l
0.14 0.16 l
0.15 -1.26 l
0.14 0.16 l
0.15 0.47 l
0.14 0.79 l
0.15 -0.79 l
0.14 0.63 l
0.15 2.02 l
0.15 -0.92 l
0.14 0.29 l
0.15 -0.29 l
0.14 0.61 l
0.15 -0.45 l
0.14 0.29 l
0.15 0.63 l
0.14 0.31 l
0.15 0.16 l
0.15 -0.63 l
0.14 1.26 l
0.15 0 l
0.14 -0.79 l
0.15 0.32 l
0.14 0.63 l
0.15 0.94 l
0.15 0.16 l
0.14 -1.10 l
0.15 1.41 l
0.14 -0.31 l
0.15 -0.63 l
0.14 0.16 l
0.15 1.86 l
0.14 -0.61 l
0.15 -0.31 l
0.15 0.92 l
0.14 0.31 l
0.15 -0.76 l
0.14 -0.47 l
0.15 1.39 l
0.14 0.47 l
0.15 -0.16 l
0.14 0.16 l
0.15 0.32 l
0.15 0.15 l
0.14 -0.31 l
0.15 0 l
0.14 0.31 l
0.15 0.79 l
0.14 0.16 l
0.15 0.16 l
0.14 0.15 l
0.15 1.24 l
0.15 -1.08 l
0.14 1.23 l
0.15 -0.29 l
0.14 0.14 l
0.15 -0.61 l
0.14 0.76 l
0.15 0.63 l
0.15 -0.15 l
0.14 -0.48 l
0.15 -0.15 l
0.14 0.78 l
0.15 0 l
0.14 0 l
0.15 0 l
0.14 1.73 l
0.15 -0.47 l
0.15 -1.57 l
0.14 1.57 l
0.15 0.16 l
0.14 0.16 l
0.15 -0.48 l
0.14 1.11 l
0.15 0.15 l
0.14 0.48 l
0.15 -1.74 l
0.15 1.11 l
0.14 1.10 l
0.15 -0.95 l
0.14 0 l
0.15 0.79 l
0.14 0.16 l
0.15 0.29 l
0.14 -0.16 l
0.15 0.31 l
266.08 474.29 lineto
0.14 0.16 l
0.15 -0.76 l
0.14 1.23 l
0.15 0.94 l
0.14 -0.63 l
0.15 0.32 l
0.15 0.78 l
0.14 0.32 l
0.15 -0.32 l
0.14 -1.10 l
0.15 1.89 l
0.14 -0.79 l
0.15 0.79 l
0.14 -0.94 l
0.15 0.47 l
0.15 1.10 l
0.14 -0.31 l
0.15 -1.26 l
0.14 1.73 l
0.15 0 l
0.14 0.15 l
0.15 -0.78 l
0.14 0 l
0.15 1.10 l
0.15 -0.79 l
0.14 0.16 l
0.15 0.92 l
0.14 1.41 l
0.15 -0.78 l
0.14 -0.63 l
0.15 0.31 l
0.14 0.63 l
0.15 -1.10 l
0.15 1.10 l
0.14 0.32 l
0.15 0 l
0.14 -0.48 l
0.15 0.16 l
0.14 0.95 l
0.15 0.15 l
0.15 -0.31 l
0.14 1.26 l
0.15 -1.42 l
0.14 1.10 l
0.15 -0.78 l
0.14 0 l
0.15 0.94 l
0.14 0.16 l
0.15 -1.10 l
0.15 1.10 l
0.14 0.78 l
0.15 -0.31 l
0.14 -0.32 l
0.15 -0.31 l
0.14 0.79 l
0.15 -0.16 l
0.14 -0.16 l
0.15 0.92 l
0.15 0.31 l
0.14 0.16 l
0.15 -1.07 l
0.14 0.91 l
0.15 0.16 l
0.14 0.32 l
0.15 -1.24 l
0.14 1.24 l
0.15 0.78 l
0.15 -0.31 l
0.14 -0.32 l
0.15 0.32 l
0.14 -0.47 l
0.15 1.10 l
0.14 -1.10 l
0.15 0.94 l
0.15 1.10 l
0.14 0.47 l
0.15 -2.20 l
0.14 0.47 l
0.15 0 l
0.14 -0.63 l
0.15 0.48 l
0.14 -0.16 l
0.15 1.10 l
0.15 0.32 l
0.14 -0.79 l
0.15 1.26 l
0.14 -0.16 l
0.15 -0.47 l
0.14 -0.32 l
0.15 0.63 l
0.14 0.79 l
0.15 0.16 l
0.15 -0.48 l
0.14 -0.62 l
0.15 0.94 l
0.14 0.60 l
0.15 -1.70 l
0.14 1.41 l
0.15 1.39 l
280.63 487.74 lineto
0.15 -0.79 l
0.15 0.32 l
0.14 -0.16 l
0.15 0.16 l
0.14 -0.76 l
0.15 1.07 l
0.14 1.11 l
0.15 -1.26 l
0.15 0 l
0.14 0.78 l
0.15 0 l
0.14 -1.10 l
0.15 0.32 l
0.14 1.57 l
0.15 -0.79 l
0.14 0.95 l
0.15 -0.95 l
0.15 0.16 l
0.14 1.42 l
0.15 -1.89 l
0.14 0.63 l
0.15 0.31 l
0.14 0 l
0.15 -0.15 l
0.14 0.47 l
0.15 1.26 l
0.15 -0.95 l
0.14 -0.47 l
0.15 0.32 l
0.14 0.94 l
0.15 -0.94 l
0.14 0.62 l
0.15 -0.31 l
0.14 -0.94 l
0.15 0.63 l
0.15 0.94 l
0.14 0.16 l
0.15 -0.48 l
0.14 0.95 l
0.15 -0.16 l
0.14 0 l
0.15 0.32 l
0.14 -1.26 l
0.15 1.10 l
0.15 -0.79 l
0.14 0.95 l
0.15 -0.16 l
0.14 0.44 l
0.15 0.32 l
0.14 -0.47 l
0.15 -0.92 l
0.15 1.39 l
0.14 0 l
0.15 0 l
0.14 -0.16 l
0.15 0.32 l
0.14 0.31 l
0.15 -0.79 l
0.14 0.95 l
0.15 0.47 l
0.15 0.16 l
0.14 -0.95 l
0.15 0.95 l
0.14 0.47 l
0.15 0.31 l
0.14 -2.36 l
0.15 1.74 l
0.14 0 l
0.15 -1.11 l
0.15 1.26 l
0.14 -0.94 l
0.15 0.63 l
0.14 -0.63 l
0.15 0.79 l
0.14 -0.32 l
0.15 0.94 l
0.14 0 l
0.15 -0.31 l
0.15 0.31 l
0.14 0.48 l
0.15 -0.48 l
0.14 1.11 l
0.15 0 l
0.14 -0.95 l
0.15 -0.63 l
0.15 1.10 l
0.14 0.79 l
0.15 -0.47 l
0.14 -0.63 l
0.15 0.79 l
0.14 0.15 l
0.15 -1.10 l
0.14 0 l
0.15 0.63 l
0.15 1.23 l
0.14 -2.02 l
0.15 0.32 l
0.14 1.39 l
0.15 -0.60 l
295.19 494.64 lineto
0.15 0.76 l
0.14 -0.92 l
0.15 1.55 l
0.15 0 l
0.14 -0.16 l
0.15 -0.47 l
0.14 0 l
0.15 -1.23 l
0.14 1.70 l
0.15 -0.16 l
0.14 0.63 l
0.15 -0.78 l
0.15 0.78 l
0.14 -0.78 l
0.15 0.15 l
0.14 0.16 l
0.15 0.16 l
0.14 1.26 l
0.15 -1.10 l
0.15 0 l
0.14 0.47 l
0.15 -0.32 l
0.14 0.79 l
0.15 -1.57 l
0.14 0.94 l
0.15 0.63 l
0.14 -1.57 l
0.15 1.10 l
0.15 -0.47 l
0.14 0.94 l
0.15 -0.79 l
0.14 0.63 l
0.15 0.47 l
0.14 -0.15 l
0.15 -0.47 l
0.14 1.10 l
0.15 -0.32 l
0.15 -0.16 l
0.14 0 l
0.15 -0.15 l
0.14 0.31 l
0.15 0.63 l
0.14 -1.73 l
0.15 0.32 l
0.14 1.41 l
0.15 -0.63 l
0.15 -0.63 l
0.14 0.63 l
0.15 0.47 l
0.14 -0.15 l
0.15 0 l
0.14 1.10 l
0.15 -0.32 l
0.15 -1.26 l
0.14 1.74 l
0.15 -1.89 l
0.14 0.47 l
0.15 0.63 l
0.14 0.47 l
0.15 -0.79 l
0.14 0.79 l
0.15 -1.42 l
0.15 -0.15 l
0.14 0.78 l
0.15 0 l
0.14 0.32 l
0.15 0.47 l
0.14 0.32 l
0.15 0.44 l
0.14 -1.39 l
0.15 1.26 l
0.15 -0.31 l
0.14 0.60 l
0.15 -2.18 l
0.14 1.58 l
0.15 0 l
0.14 0.15 l
0.15 -0.31 l
0.14 0.47 l
0.15 -0.47 l
0.15 0.60 l
0.14 -0.60 l
0.15 0.92 l
0.14 0.15 l
0.15 0.16 l
0.14 -1.55 l
0.15 0.79 l
0.15 0.13 l
0.14 -0.76 l
0.15 1.23 l
0.14 0.79 l
0.15 -0.94 l
0.14 0.31 l
0.15 -0.47 l
0.14 0.31 l
0.15 -0.31 l
0.15 0 l
0.14 1.26 l
0.15 -0.79 l
309.75 500.41 lineto
0.15 0.16 l
0.14 0.47 l
0.15 -0.47 l
0.14 -0.63 l
0.15 -0.45 l
0.15 0.60 l
0.14 1.11 l
0.15 -0.32 l
0.14 0.16 l
0.15 -0.79 l
0.14 0.16 l
0.15 0.16 l
0.14 0.31 l
0.15 -0.16 l
0.15 0 l
0.14 -0.15 l
0.15 -0.16 l
0.14 -0.32 l
0.15 0.79 l
0.14 -0.47 l
0.15 0 l
0.15 1.10 l
0.14 -1.10 l
0.15 0.79 l
0.14 -0.32 l
0.15 0.79 l
0.14 -0.32 l
0.15 -1.41 l
0.14 1.57 l
0.15 -1.26 l
0.15 1.26 l
0.14 0.79 l
0.15 -0.16 l
0.14 0.16 l
0.15 -1.10 l
0.14 0.31 l
0.15 0 l
0.14 0.16 l
0.15 0.31 l
0.15 -0.47 l
0.14 -0.79 l
0.15 0.95 l
0.14 0.15 l
0.15 -1.25 l
0.14 1.10 l
0.15 -0.47 l
0.14 0.31 l
0.15 0.63 l
0.15 0.16 l
0.14 -1.10 l
0.15 0.62 l
0.14 0.79 l
0.15 -0.63 l
0.14 1.26 l
0.15 -1.42 l
0.15 1.11 l
0.14 -0.63 l
0.15 -0.32 l
0.14 0.32 l
0.15 -0.63 l
0.14 0.47 l
0.15 0.63 l
0.14 -0.16 l
0.15 0.79 l
0.15 -0.79 l
0.14 0 l
0.15 -0.16 l
0.14 0.48 l
0.15 -0.48 l
0.14 0.16 l
0.15 0.47 l
0.14 0.16 l
0.15 0.16 l
0.15 -0.16 l
0.14 0.60 l
0.15 -2.02 l
0.14 1.58 l
0.15 -0.79 l
0.14 0.16 l
0.15 0.31 l
0.14 0.16 l
0.15 0.16 l
0.15 -1.10 l
0.14 0 l
0.15 0.47 l
0.14 0.63 l
0.15 0.44 l
0.14 0.48 l
0.15 -0.92 l
0.14 -0.32 l
0.15 0 l
0.15 -0.31 l
0.14 1.07 l
0.15 0.16 l
0.14 0.47 l
0.15 -0.47 l
0.14 -0.29 l
0.15 -0.47 l
0.15 0.76 l
324.31 504.32 lineto
0.15 -0.61 l
0.14 -0.15 l
0.15 0.15 l
0.14 0.29 l
0.15 0.32 l
0.14 -0.92 l
0.15 -0.16 l
0.15 0.47 l
0.14 -0.63 l
0.15 0.92 l
0.14 0 l
0.15 0 l
0.14 0.47 l
0.15 -0.31 l
0.14 -0.76 l
0.15 1.55 l
0.15 -0.79 l
0.14 0.47 l
0.15 -0.63 l
0.14 -0.29 l
0.15 -0.15 l
0.14 0.76 l
0.15 -0.32 l
0.14 0 l
0.15 0.16 l
0.15 0.47 l
0.14 -0.16 l
0.15 0.16 l
0.14 0 l
0.15 -1.23 l
0.14 1.07 l
0.15 0 l
0.15 0.48 l
0.14 -0.79 l
0.15 0.79 l
0.14 0.62 l
0.15 -0.62 l
0.14 0.31 l
0.15 0 l
0.14 -0.63 l
0.15 0 l
0.15 -0.92 l
0.14 1.08 l
0.15 -0.47 l
0.14 0.63 l
0.15 -0.16 l
0.14 -0.32 l
0.15 0.48 l
0.14 -0.16 l
0.15 -0.32 l
0.15 1.26 l
0.14 -0.94 l
0.15 -0.47 l
0.14 -0.16 l
0.15 0.63 l
0.14 -0.16 l
0.15 0.63 l
0.14 -0.79 l
0.15 1.26 l
0.15 0 l
0.14 0 l
0.15 -0.63 l
0.14 0.32 l
0.15 -0.16 l
0.14 0 l
0.15 -0.94 l
0.15 1.57 l
0.14 0.31 l
0.15 -1.10 l
0.14 1.10 l
0.15 -1.73 l
0.14 1.42 l
0.15 -0.47 l
0.14 0.63 l
0.15 -0.32 l
0.15 -0.78 l
0.14 0.62 l
0.15 0 l
0.14 -0.31 l
0.15 0.63 l
0.14 -0.32 l
0.15 0.48 l
0.14 -0.48 l
0.15 1.11 l
0.15 -0.95 l
0.14 0.16 l
0.15 0 l
0.14 -0.63 l
0.15 -0.47 l
0.14 0.31 l
0.15 0.95 l
0.14 0.31 l
0.15 0 l
0.15 -0.16 l
0.14 0.48 l
0.15 0.15 l
0.14 -1.26 l
0.15 0.79 l
0.14 1.10 l
338.87 506.68 lineto
0.15 -0.16 l
0.14 0.16 l
0.15 -0.48 l
0.14 -1.25 l
0.15 1.88 l
0.14 -0.47 l
0.15 -0.63 l
0.14 0.32 l
0.15 0.78 l
0.15 -0.47 l
0.14 -0.31 l
0.15 -0.95 l
0.14 0.47 l
0.15 0 l
0.14 0.16 l
0.15 1.10 l
0.14 0 l
0.15 0.48 l
0.15 -0.16 l
0.14 -1.26 l
0.15 0.79 l
0.14 -0.16 l
0.15 0 l
0.14 1.10 l
0.15 -1.73 l
0.14 1.73 l
0.15 -0.94 l
0.15 -0.79 l
0.14 -0.32 l
0.15 0.32 l
0.14 0.47 l
0.15 1.42 l
0.14 -0.95 l
0.15 0.32 l
0.15 0.63 l
0.14 -1.89 l
0.15 0.79 l
0.14 1.25 l
0.15 -2.20 l
0.14 2.97 l
0.15 -1.24 l
0.14 -0.63 l
0.15 -0.15 l
0.15 -0.16 l
0.14 0.47 l
0.15 -0.16 l
0.14 1.55 l
0.15 -0.60 l
0.14 -1.26 l
0.15 0.16 l
0.14 0.78 l
0.15 -0.78 l
0.15 0.47 l
0.14 -0.79 l
0.15 0.32 l
0.14 1.39 l
0.15 -1.71 l
0.14 -0.16 l
0.15 1.42 l
0.14 0.76 l
0.15 -1.07 l
0.15 -0.32 l
0.14 0.63 l
0.15 -0.47 l
0.14 0.16 l
0.15 0.62 l
0.14 -0.31 l
0.15 -0.47 l
0.15 0.78 l
0.14 -1.25 l
0.15 0.78 l
0.14 0.61 l
0.15 -0.61 l
0.14 -0.47 l
0.15 0.63 l
0.14 0 l
0.15 -0.94 l
0.15 1.10 l
0.14 -0.32 l
0.15 1.39 l
0.14 -1.86 l
0.15 0.63 l
0.14 -0.31 l
0.15 0.47 l
0.14 0 l
0.15 0 l
0.15 -0.16 l
0.14 0.31 l
0.15 -0.15 l
0.14 -0.47 l
0.15 0 l
0.14 0.15 l
0.15 0.16 l
0.14 0 l
0.15 0.60 l
0.15 -0.15 l
0.14 -0.61 l
0.15 1.71 l
0.14 -1.71 l
353.43 507.31 lineto
0.14 0.15 l
0.15 1.08 l
0.14 -0.92 l
0.15 0.60 l
0.15 -0.76 l
0.14 0.76 l
0.15 -0.44 l
0.14 0 l
0.15 0.60 l
0.14 0.63 l
0.15 -0.63 l
0.15 -0.16 l
0.14 0.48 l
0.15 -1.55 l
0.14 0.31 l
0.15 0.61 l
0.14 0.47 l
0.15 0.16 l
0.14 -0.48 l
0.15 -0.44 l
0.15 0.44 l
0.14 0 l
0.15 0.63 l
0.14 -0.92 l
0.15 -0.62 l
0.14 1.39 l
0.15 -0.77 l
0.14 1.08 l
0.15 -1.23 l
0.15 0.76 l
0.14 0.31 l
0.15 -0.15 l
0.14 -0.16 l
0.15 0.16 l
0.14 -1.08 l
0.15 1.08 l
0.14 0.47 l
0.15 -0.79 l
0.15 0.32 l
0.14 -1.08 l
0.15 -0.47 l
0.14 0.92 l
0.15 0.47 l
0.14 0.47 l
0.15 0.31 l
0.15 -1.25 l
0.14 -0.14 l
0.15 0.14 l
0.14 0.63 l
0.15 0.31 l
0.14 -0.63 l
0.15 0.32 l
0.14 0.15 l
0.15 -1.07 l
0.15 1.39 l
0.14 -0.63 l
0.15 0.78 l
0.14 0.48 l
0.15 -0.63 l
0.14 -0.16 l
0.15 0.47 l
0.14 0 l
0.15 -1.26 l
0.15 0.48 l
0.14 0.15 l
0.15 0.16 l
0.14 0.47 l
0.15 0.32 l
0.14 -0.16 l
0.15 -1.10 l
0.14 0.78 l
0.15 -0.15 l
0.15 -0.47 l
0.14 0.47 l
0.15 0.47 l
0.14 -0.94 l
0.15 0 l
0.14 0.94 l
0.15 -0.94 l
0.15 -0.32 l
0.14 1.42 l
0.15 -1.26 l
0.14 0.94 l
0.15 0.79 l
0.14 -0.32 l
0.15 -0.47 l
0.14 0.16 l
0.15 -0.47 l
0.15 -0.47 l
0.14 0 l
0.15 0.94 l
0.14 -1.10 l
0.15 1.57 l
0.14 0 l
0.15 -1.89 l
0.14 0.79 l
0.15 1.10 l
0.15 -1.10 l
0.14 0.47 l
currentpoint o m
367.99 510.43 lineto
0.14 -1.26 l
0.15 0.31 l
0.14 1.26 l
0.15 -0.94 l
0.14 -0.63 l
0.15 1.41 l
0.15 0.79 l
0.14 -0.47 l
0.15 -1.26 l
0.14 0.63 l
0.15 -0.95 l
0.14 0.16 l
0.15 0.47 l
0.15 -0.94 l
0.14 0.16 l
0.15 0.31 l
0.14 0.32 l
0.15 -0.79 l
0.14 0.16 l
0.15 0.31 l
0.14 0.47 l
0.15 -0.63 l
0.15 1.11 l
0.14 -0.16 l
0.15 -0.16 l
0.14 0.95 l
0.15 -0.63 l
0.14 -1.58 l
0.15 0.47 l
0.14 -0.31 l
0.15 1.89 l
0.15 -1.26 l
0.14 0 l
0.15 0 l
0.14 0.16 l
0.15 -0.48 l
0.14 0.79 l
0.15 -0.63 l
0.14 1.10 l
0.15 1.42 l
0.15 -1.42 l
0.14 -0.47 l
0.15 0.63 l
0.14 -0.47 l
0.15 -0.16 l
0.14 -0.79 l
0.15 0.79 l
0.15 1.26 l
0.14 -1.89 l
0.15 0.63 l
0.14 -0.94 l
0.15 1.73 l
0.14 -1.42 l
0.15 1.26 l
0.14 -0.94 l
0.15 -0.63 l
0.15 1.41 l
0.14 0 l
0.15 -1.73 l
0.14 1.58 l
0.15 0.47 l
0.14 -0.16 l
0.15 0.32 l
0.14 -0.79 l
0.15 1.42 l
0.15 -0.79 l
0.14 -0.16 l
0.15 -1.10 l
0.14 0.47 l
0.15 0 l
0.14 0.16 l
0.15 0.63 l
0.14 -0.95 l
0.15 0.32 l
0.15 -0.32 l
0.14 1.11 l
0.15 -0.48 l
0.14 0.63 l
0.15 0 l
0.14 0 l
0.15 -0.94 l
0.15 0.31 l
0.14 0.32 l
0.15 -0.79 l
0.14 -0.47 l
0.15 0.94 l
0.14 -0.63 l
0.15 0.32 l
0.14 0.31 l
0.15 -0.31 l
0.15 0 l
0.14 0.79 l
0.15 -0.16 l
0.14 0.47 l
0.15 -0.47 l
0.14 0.63 l
0.15 0 l
0.14 -0.47 l
0.15 -0.32 l
o
/bg { 1 1 1 srgb } def
222.40 506.20 0.43 c p3
222.55 507.93 0.43 c p3
222.69 508.70 0.43 c p3
222.84 507.31 0.43 c p3
222.98 507.78 0.43 c p3
223.13 508.22 0.43 c p3
223.27 508.38 0.43 c p3
223.42 507.78 0.43 c p3
223.56 509.17 0.43 c p3
223.71 508.22 0.43 c p3
223.86 508.22 0.43 c p3
224.00 507.15 0.43 c p3
224.15 507.46 0.43 c p3
224.29 507.62 0.43 c p3
224.44 506.83 0.43 c p3
224.58 507.31 0.43 c p3
224.73 508.38 0.43 c p3
224.87 507.78 0.43 c p3
225.02 506.99 0.43 c p3
225.17 506.99 0.43 c p3
225.31 506.68 0.43 c p3
225.46 506.20 0.43 c p3
225.60 507.62 0.43 c p3
225.75 508.07 0.43 c p3
225.89 507.62 0.43 c p3
226.04 507.46 0.43 c p3
226.19 507.78 0.43 c p3
226.33 507.93 0.43 c p3
226.48 507.31 0.43 c p3
226.62 507.31 0.43 c p3
226.77 507.31 0.43 c p3
226.91 508.22 0.43 c p3
227.06 508.38 0.43 c p3
227.20 508.54 0.43 c p3
227.35 507.78 0.43 c p3
227.50 506.99 0.43 c p3
227.64 507.62 0.43 c p3
227.79 505.89 0.43 c p3
227.93 507.46 0.43 c p3
228.08 506.99 0.43 c p3
228.22 505.89 0.43 c p3
228.37 507.78 0.43 c p3
228.51 507.31 0.43 c p3
228.66 506.99 0.43 c p3
228.81 506.99 0.43 c p3
228.95 507.93 0.43 c p3
229.10 508.07 0.43 c p3
229.24 507.62 0.43 c p3
229.39 508.85 0.43 c p3
229.53 507.62 0.43 c p3
229.68 508.22 0.43 c p3
229.82 507.31 0.43 c p3
229.97 507.62 0.43 c p3
230.12 507.15 0.43 c p3
230.26 507.46 0.43 c p3
230.41 508.38 0.43 c p3
230.55 507.93 0.43 c p3
230.70 506.36 0.43 c p3
230.84 506.68 0.43 c p3
230.99 507.15 0.43 c p3
231.14 506.83 0.43 c p3
231.28 506.68 0.43 c p3
231.43 507.78 0.43 c p3
231.57 508.07 0.43 c p3
231.72 508.07 0.43 c p3
231.86 508.70 0.43 c p3
232.01 506.83 0.43 c p3
232.15 507.31 0.43 c p3
232.30 507.93 0.43 c p3
232.45 507.78 0.43 c p3
232.59 507.78 0.43 c p3
232.74 508.22 0.43 c p3
232.88 508.38 0.43 c p3
233.03 507.78 0.43 c p3
233.17 507.93 0.43 c p3
233.32 508.07 0.43 c p3
233.46 507.15 0.43 c p3
233.61 506.68 0.43 c p3
233.76 508.22 0.43 c p3
233.90 507.78 0.43 c p3
234.05 508.54 0.43 c p3
234.19 508.54 0.43 c p3
234.34 507.15 0.43 c p3
234.48 508.22 0.43 c p3
234.63 507.62 0.43 c p3
234.77 506.99 0.43 c p3
234.92 508.54 0.43 c p3
235.07 507.62 0.43 c p3
235.21 507.31 0.43 c p3
235.36 507.62 0.43 c p3
235.50 509.48 0.43 c p3
235.65 507.46 0.43 c p3
235.79 507.78 0.43 c p3
235.94 507.93 0.43 c p3
236.09 508.38 0.43 c p3
236.23 507.93 0.43 c p3
236.38 507.93 0.43 c p3
236.52 508.38 0.43 c p3
236.67 507.15 0.43 c p3
236.81 506.52 0.43 c p3
236.96 427.71 0.43 c p3
237.10 427.86 0.43 c p3
237.25 429.89 0.43 c p3
237.40 431.62 0.43 c p3
237.54 429.89 0.43 c p3
237.69 430.99 0.43 c p3
237.83 431.31 0.43 c p3
237.98 431.78 0.43 c p3
238.12 433.32 0.43 c p3
238.27 432.69 0.43 c p3
238.41 432.07 0.43 c p3
238.56 434.58 0.43 c p3
238.71 434.43 0.43 c p3
238.85 433.01 0.43 c p3
239.00 434.43 0.43 c p3
239.14 435.06 0.43 c p3
239.29 434.43 0.43 c p3
239.43 435.37 0.43 c p3
239.58 436.16 0.43 c p3
239.72 436.76 0.43 c p3
239.87 436.76 0.43 c p3
240.02 436.45 0.43 c p3
240.16 437.23 0.43 c p3
240.31 436.76 0.43 c p3
240.45 438.02 0.43 c p3
240.60 437.23 0.43 c p3
240.74 437.70 0.43 c p3
240.89 439.28 0.43 c p3
241.04 438.65 0.43 c p3
241.18 438.18 0.43 c p3
241.33 439.12 0.43 c p3
241.47 439.43 0.43 c p3
241.62 439.91 0.43 c p3
241.76 438.81 0.43 c p3
241.91 440.06 0.43 c p3
242.05 441.30 0.43 c p3
242.20 440.67 0.43 c p3
242.35 440.82 0.43 c p3
242.49 441.45 0.43 c p3
242.64 441.61 0.43 c p3
242.78 441.93 0.43 c p3
242.93 442.24 0.43 c p3
243.07 442.24 0.43 c p3
243.22 443.50 0.43 c p3
243.36 442.71 0.43 c p3
243.51 441.93 0.43 c p3
243.66 443.81 0.43 c p3
243.80 443.66 0.43 c p3
243.95 443.50 0.43 c p3
244.09 443.34 0.43 c p3
244.24 444.13 0.43 c p3
244.38 445.20 0.43 c p3
244.53 444.29 0.43 c p3
244.67 445.05 0.43 c p3
244.82 445.52 0.43 c p3
244.97 444.89 0.43 c p3
245.11 445.20 0.43 c p3
245.26 446.15 0.43 c p3
245.40 446.62 0.43 c p3
245.55 446.31 0.43 c p3
245.69 447.41 0.43 c p3
245.84 447.09 0.43 c p3
245.99 447.88 0.43 c p3
246.13 448.35 0.43 c p3
246.28 448.35 0.43 c p3
246.42 447.56 0.43 c p3
246.57 449.27 0.43 c p3
246.71 448.82 0.43 c p3
246.86 448.95 0.43 c p3
247.00 448.82 0.43 c p3
247.15 449.43 0.43 c p3
247.30 449.27 0.43 c p3
247.44 449.43 0.43 c p3
247.59 449.58 0.43 c p3
247.73 450.21 0.43 c p3
247.88 450.53 0.43 c p3
248.02 450.69 0.43 c p3
248.17 450.06 0.43 c p3
248.31 450.69 0.43 c p3
248.46 452.26 0.43 c p3
248.61 451.47 0.43 c p3
248.75 450.84 0.43 c p3
248.90 452.42 0.43 c p3
249.04 453.65 0.43 c p3
249.19 452.57 0.43 c p3
249.33 452.26 0.43 c p3
249.48 453.81 0.43 c p3
249.62 454.44 0.43 c p3
249.77 454.12 0.43 c p3
249.92 452.42 0.43 c p3
250.06 453.81 0.43 c p3
250.21 453.81 0.43 c p3
250.35 454.28 0.43 c p3
250.50 454.44 0.43 c p3
250.64 454.75 0.43 c p3
250.79 455.54 0.43 c p3
250.94 454.75 0.43 c p3
251.08 454.12 0.43 c p3
251.23 455.38 0.43 c p3
251.37 456.32 0.43 c p3
251.52 455.85 0.43 c p3
251.66 456.01 0.43 c p3
251.81 456.80 0.43 c p3
251.95 456.80 0.43 c p3
252.10 456.95 0.43 c p3
252.25 457.11 0.43 c p3
252.39 457.56 0.43 c p3
252.54 458.97 0.43 c p3
252.68 458.50 0.43 c p3
252.83 458.19 0.43 c p3
252.97 458.82 0.43 c p3
253.12 458.82 0.43 c p3
253.26 457.71 0.43 c p3
253.41 458.66 0.43 c p3
253.56 460.07 0.43 c p3
253.70 460.23 0.43 c p3
253.85 458.97 0.43 c p3
253.99 459.13 0.43 c p3
254.14 459.60 0.43 c p3
254.28 460.39 0.43 c p3
254.43 459.60 0.43 c p3
254.57 460.23 0.43 c p3
254.72 462.25 0.43 c p3
254.87 461.33 0.43 c p3
255.01 461.62 0.43 c p3
255.16 461.33 0.43 c p3
255.30 461.94 0.43 c p3
255.45 461.49 0.43 c p3
255.59 461.78 0.43 c p3
255.74 462.41 0.43 c p3
255.88 462.72 0.43 c p3
256.03 462.88 0.43 c p3
256.18 462.25 0.43 c p3
256.32 463.51 0.43 c p3
256.47 463.51 0.43 c p3
256.61 462.72 0.43 c p3
256.76 463.04 0.43 c p3
256.90 463.67 0.43 c p3
257.05 464.61 0.43 c p3
257.20 464.77 0.43 c p3
257.34 463.67 0.43 c p3
257.49 465.08 0.43 c p3
257.63 464.77 0.43 c p3
257.78 464.14 0.43 c p3
257.92 464.30 0.43 c p3
258.07 466.16 0.43 c p3
258.21 465.55 0.43 c p3
258.36 465.24 0.43 c p3
258.51 466.16 0.43 c p3
258.65 466.47 0.43 c p3
258.80 465.71 0.43 c p3
258.94 465.24 0.43 c p3
259.09 466.63 0.43 c p3
259.23 467.10 0.43 c p3
259.38 466.94 0.43 c p3
259.52 467.10 0.43 c p3
259.67 467.42 0.43 c p3
259.82 467.57 0.43 c p3
259.96 467.26 0.43 c p3
260.11 467.26 0.43 c p3
260.25 467.57 0.43 c p3
260.40 468.36 0.43 c p3
260.54 468.52 0.43 c p3
260.69 468.68 0.43 c p3
260.83 468.83 0.43 c p3
260.98 470.07 0.43 c p3
261.13 468.99 0.43 c p3
261.27 470.22 0.43 c p3
261.42 469.93 0.43 c p3
261.56 470.07 0.43 c p3
261.71 469.46 0.43 c p3
261.85 470.22 0.43 c p3
262.00 470.85 0.43 c p3
262.15 470.70 0.43 c p3
262.29 470.22 0.43 c p3
262.44 470.07 0.43 c p3
262.58 470.85 0.43 c p3
262.73 470.85 0.43 c p3
262.87 470.85 0.43 c p3
263.02 470.85 0.43 c p3
263.16 472.58 0.43 c p3
263.31 472.11 0.43 c p3
263.46 470.54 0.43 c p3
263.60 472.11 0.43 c p3
263.75 472.27 0.43 c p3
263.89 472.43 0.43 c p3
264.04 471.95 0.43 c p3
264.18 473.06 0.43 c p3
264.33 473.21 0.43 c p3
264.47 473.69 0.43 c p3
264.62 471.95 0.43 c p3
264.77 473.06 0.43 c p3
264.91 474.16 0.43 c p3
265.06 473.21 0.43 c p3
265.20 473.21 0.43 c p3
265.35 474.00 0.43 c p3
265.49 474.16 0.43 c p3
265.64 474.45 0.43 c p3
265.78 474.29 0.43 c p3
265.93 474.60 0.43 c p3
266.08 474.29 0.43 c p3
266.22 474.45 0.43 c p3
266.37 473.69 0.43 c p3
266.51 474.92 0.43 c p3
266.66 475.86 0.43 c p3
266.80 475.23 0.43 c p3
266.95 475.55 0.43 c p3
267.10 476.33 0.43 c p3
267.24 476.65 0.43 c p3
267.39 476.33 0.43 c p3
267.53 475.23 0.43 c p3
267.68 477.12 0.43 c p3
267.82 476.33 0.43 c p3
267.97 477.12 0.43 c p3
268.11 476.18 0.43 c p3
268.26 476.65 0.43 c p3
268.41 477.75 0.43 c p3
268.55 477.44 0.43 c p3
268.70 476.18 0.43 c p3
268.84 477.91 0.43 c p3
268.99 477.91 0.43 c p3
269.13 478.06 0.43 c p3
269.28 477.28 0.43 c p3
269.42 477.28 0.43 c p3
269.57 478.38 0.43 c p3
269.72 477.59 0.43 c p3
269.86 477.75 0.43 c p3
270.01 478.67 0.43 c p3
270.15 480.08 0.43 c p3
270.30 479.30 0.43 c p3
270.44 478.67 0.43 c p3
270.59 478.98 0.43 c p3
270.73 479.61 0.43 c p3
270.88 478.51 0.43 c p3
271.03 479.61 0.43 c p3
271.17 479.93 0.43 c p3
271.32 479.93 0.43 c p3
271.46 479.45 0.43 c p3
271.61 479.61 0.43 c p3
271.75 480.56 0.43 c p3
271.90 480.71 0.43 c p3
272.05 480.40 0.43 c p3
272.19 481.66 0.43 c p3
272.34 480.24 0.43 c p3
272.48 481.34 0.43 c p3
272.63 480.56 0.43 c p3
272.77 480.56 0.43 c p3
272.92 481.50 0.43 c p3
273.06 481.66 0.43 c p3
273.21 480.56 0.43 c p3
273.36 481.66 0.43 c p3
273.50 482.44 0.43 c p3
273.65 482.13 0.43 c p3
273.79 481.81 0.43 c p3
273.94 481.50 0.43 c p3
274.08 482.29 0.43 c p3
274.23 482.13 0.43 c p3
274.37 481.97 0.43 c p3
274.52 482.89 0.43 c p3
274.67 483.20 0.43 c p3
274.81 483.36 0.43 c p3
274.96 482.29 0.43 c p3
275.10 483.20 0.43 c p3
275.25 483.36 0.43 c p3
275.39 483.68 0.43 c p3
275.54 482.44 0.43 c p3
275.68 483.68 0.43 c p3
275.83 484.46 0.43 c p3
275.98 484.15 0.43 c p3
276.12 483.83 0.43 c p3
276.27 484.15 0.43 c p3
276.41 483.68 0.43 c p3
276.56 484.78 0.43 c p3
276.70 483.68 0.43 c p3
276.85 484.62 0.43 c p3
277.00 485.72 0.43 c p3
277.14 486.19 0.43 c p3
277.29 483.99 0.43 c p3
277.43 484.46 0.43 c p3
277.58 484.46 0.43 c p3
277.72 483.83 0.43 c p3
277.87 484.31 0.43 c p3
278.01 484.15 0.43 c p3
278.16 485.25 0.43 c p3
278.31 485.57 0.43 c p3
278.45 484.78 0.43 c p3
278.60 486.04 0.43 c p3
278.74 485.88 0.43 c p3
278.89 485.41 0.43 c p3
279.03 485.09 0.43 c p3
279.18 485.72 0.43 c p3
279.32 486.51 0.43 c p3
279.47 486.67 0.43 c p3
279.62 486.19 0.43 c p3
279.76 485.57 0.43 c p3
279.91 486.51 0.43 c p3
280.05 487.11 0.43 c p3
280.20 485.41 0.43 c p3
280.34 486.82 0.43 c p3
280.49 488.21 0.43 c p3
280.63 487.74 0.43 c p3
280.78 486.95 0.43 c p3
280.93 487.27 0.43 c p3
281.07 487.11 0.43 c p3
281.22 487.27 0.43 c p3
281.36 486.51 0.43 c p3
281.51 487.58 0.43 c p3
281.65 488.69 0.43 c p3
281.80 487.43 0.43 c p3
281.95 487.43 0.43 c p3
282.09 488.21 0.43 c p3
282.24 488.21 0.43 c p3
282.38 487.11 0.43 c p3
282.53 487.43 0.43 c p3
282.67 489.00 0.43 c p3
282.82 488.21 0.43 c p3
282.96 489.16 0.43 c p3
283.11 488.21 0.43 c p3
283.26 488.37 0.43 c p3
283.40 489.79 0.43 c p3
283.55 487.90 0.43 c p3
283.69 488.53 0.43 c p3
283.84 488.84 0.43 c p3
283.98 488.84 0.43 c p3
284.13 488.69 0.43 c p3
284.27 489.16 0.43 c p3
284.42 490.42 0.43 c p3
284.57 489.47 0.43 c p3
284.71 489.00 0.43 c p3
284.86 489.32 0.43 c p3
285.00 490.26 0.43 c p3
285.15 489.32 0.43 c p3
285.29 489.94 0.43 c p3
285.44 489.63 0.43 c p3
285.58 488.69 0.43 c p3
285.73 489.32 0.43 c p3
285.88 490.26 0.43 c p3
286.02 490.42 0.43 c p3
286.17 489.94 0.43 c p3
286.31 490.89 0.43 c p3
286.46 490.73 0.43 c p3
286.60 490.73 0.43 c p3
286.75 491.05 0.43 c p3
286.89 489.79 0.43 c p3
287.04 490.89 0.43 c p3
287.19 490.10 0.43 c p3
287.33 491.05 0.43 c p3
287.48 490.89 0.43 c p3
287.62 491.33 0.43 c p3
287.77 491.65 0.43 c p3
287.91 491.18 0.43 c p3
288.06 490.26 0.43 c p3
288.21 491.65 0.43 c p3
288.35 491.65 0.43 c p3
288.50 491.65 0.43 c p3
288.64 491.49 0.43 c p3
288.79 491.81 0.43 c p3
288.93 492.12 0.43 c p3
289.08 491.33 0.43 c p3
289.22 492.28 0.43 c p3
289.37 492.75 0.43 c p3
289.52 492.91 0.43 c p3
289.66 491.96 0.43 c p3
289.81 492.91 0.43 c p3
289.95 493.38 0.43 c p3
290.10 493.69 0.43 c p3
290.24 491.33 0.43 c p3
290.39 493.07 0.43 c p3
290.53 493.07 0.43 c p3
290.68 491.96 0.43 c p3
290.83 493.22 0.43 c p3
290.97 492.28 0.43 c p3
291.12 492.91 0.43 c p3
291.26 492.28 0.43 c p3
291.41 493.07 0.43 c p3
291.55 492.75 0.43 c p3
291.70 493.69 0.43 c p3
291.84 493.69 0.43 c p3
291.99 493.38 0.43 c p3
292.14 493.69 0.43 c p3
292.28 494.17 0.43 c p3
292.43 493.69 0.43 c p3
292.57 494.80 0.43 c p3
292.72 494.80 0.43 c p3
292.86 493.85 0.43 c p3
293.01 493.22 0.43 c p3
293.16 494.32 0.43 c p3
293.30 495.11 0.43 c p3
293.45 494.64 0.43 c p3
293.59 494.01 0.43 c p3
293.74 494.80 0.43 c p3
293.88 494.95 0.43 c p3
294.03 493.85 0.43 c p3
294.17 493.85 0.43 c p3
294.32 494.48 0.43 c p3
294.47 495.71 0.43 c p3
294.61 493.69 0.43 c p3
294.76 494.01 0.43 c p3
294.90 495.40 0.43 c p3
295.05 494.80 0.43 c p3
295.19 494.64 0.43 c p3
295.34 495.40 0.43 c p3
295.48 494.48 0.43 c p3
295.63 496.03 0.43 c p3
295.78 496.03 0.43 c p3
295.92 495.87 0.43 c p3
296.07 495.40 0.43 c p3
296.21 495.40 0.43 c p3
296.36 494.17 0.43 c p3
296.50 495.87 0.43 c p3
296.65 495.71 0.43 c p3
296.79 496.34 0.43 c p3
296.94 495.56 0.43 c p3
297.09 496.34 0.43 c p3
297.23 495.56 0.43 c p3
297.38 495.71 0.43 c p3
297.52 495.87 0.43 c p3
297.67 496.03 0.43 c p3
297.81 497.29 0.43 c p3
297.96 496.19 0.43 c p3
298.11 496.19 0.43 c p3
298.25 496.66 0.43 c p3
298.40 496.34 0.43 c p3
298.54 497.13 0.43 c p3
298.69 495.56 0.43 c p3
298.83 496.50 0.43 c p3
298.98 497.13 0.43 c p3
299.12 495.56 0.43 c p3
299.27 496.66 0.43 c p3
299.42 496.19 0.43 c p3
299.56 497.13 0.43 c p3
299.71 496.34 0.43 c p3
299.85 496.97 0.43 c p3
300.00 497.44 0.43 c p3
300.14 497.29 0.43 c p3
300.29 496.82 0.43 c p3
300.43 497.92 0.43 c p3
300.58 497.60 0.43 c p3
300.73 497.44 0.43 c p3
300.87 497.44 0.43 c p3
301.02 497.29 0.43 c p3
301.16 497.60 0.43 c p3
301.31 498.23 0.43 c p3
301.45 496.50 0.43 c p3
301.60 496.82 0.43 c p3
301.74 498.23 0.43 c p3
301.89 497.60 0.43 c p3
302.04 496.97 0.43 c p3
302.18 497.60 0.43 c p3
302.33 498.07 0.43 c p3
302.47 497.92 0.43 c p3
302.62 497.92 0.43 c p3
302.76 499.02 0.43 c p3
302.91 498.70 0.43 c p3
303.06 497.44 0.43 c p3
303.20 499.18 0.43 c p3
303.35 497.29 0.43 c p3
303.49 497.76 0.43 c p3
303.64 498.39 0.43 c p3
303.78 498.86 0.43 c p3
303.93 498.07 0.43 c p3
304.07 498.86 0.43 c p3
304.22 497.44 0.43 c p3
304.37 497.29 0.43 c p3
304.51 498.07 0.43 c p3
304.66 498.07 0.43 c p3
304.80 498.39 0.43 c p3
304.95 498.86 0.43 c p3
305.09 499.18 0.43 c p3
305.24 499.62 0.43 c p3
305.38 498.23 0.43 c p3
305.53 499.49 0.43 c p3
305.68 499.18 0.43 c p3
305.82 499.78 0.43 c p3
305.97 497.60 0.43 c p3
306.11 499.18 0.43 c p3
306.26 499.18 0.43 c p3
306.40 499.33 0.43 c p3
306.55 499.02 0.43 c p3
306.69 499.49 0.43 c p3
306.84 499.02 0.43 c p3
306.99 499.62 0.43 c p3
307.13 499.02 0.43 c p3
307.28 499.94 0.43 c p3
307.42 500.09 0.43 c p3
307.57 500.25 0.43 c p3
307.71 498.70 0.43 c p3
307.86 499.49 0.43 c p3
308.01 499.62 0.43 c p3
308.15 498.86 0.43 c p3
308.30 500.09 0.43 c p3
308.44 500.88 0.43 c p3
308.59 499.94 0.43 c p3
308.73 500.25 0.43 c p3
308.88 499.78 0.43 c p3
309.02 500.09 0.43 c p3
309.17 499.78 0.43 c p3
309.32 499.78 0.43 c p3
309.46 501.04 0.43 c p3
309.61 500.25 0.43 c p3
309.75 500.41 0.43 c p3
309.90 500.57 0.43 c p3
310.04 501.04 0.43 c p3
310.19 500.57 0.43 c p3
310.33 499.94 0.43 c p3
310.48 499.49 0.43 c p3
310.63 500.09 0.43 c p3
310.77 501.20 0.43 c p3
310.92 500.88 0.43 c p3
311.06 501.04 0.43 c p3
311.21 500.25 0.43 c p3
311.35 500.41 0.43 c p3
311.50 500.57 0.43 c p3
311.64 500.88 0.43 c p3
311.79 500.72 0.43 c p3
311.94 500.72 0.43 c p3
312.08 500.57 0.43 c p3
312.23 500.41 0.43 c p3
312.37 500.09 0.43 c p3
312.52 500.88 0.43 c p3
312.66 500.41 0.43 c p3
312.81 500.41 0.43 c p3
312.96 501.51 0.43 c p3
313.10 500.41 0.43 c p3
313.25 501.20 0.43 c p3
313.39 500.88 0.43 c p3
313.54 501.67 0.43 c p3
313.68 501.35 0.43 c p3
313.83 499.94 0.43 c p3
313.97 501.51 0.43 c p3
314.12 500.25 0.43 c p3
314.27 501.51 0.43 c p3
314.41 502.30 0.43 c p3
314.56 502.14 0.43 c p3
314.70 502.30 0.43 c p3
314.85 501.20 0.43 c p3
314.99 501.51 0.43 c p3
315.14 501.51 0.43 c p3
315.28 501.67 0.43 c p3
315.43 501.98 0.43 c p3
315.58 501.51 0.43 c p3
315.72 500.72 0.43 c p3
315.87 501.67 0.43 c p3
316.01 501.82 0.43 c p3
316.16 500.57 0.43 c p3
316.30 501.67 0.43 c p3
316.45 501.20 0.43 c p3
316.59 501.51 0.43 c p3
316.74 502.14 0.43 c p3
316.89 502.30 0.43 c p3
317.03 501.20 0.43 c p3
317.18 501.82 0.43 c p3
317.32 502.61 0.43 c p3
317.47 501.98 0.43 c p3
317.61 503.24 0.43 c p3
317.76 501.82 0.43 c p3
317.91 502.93 0.43 c p3
318.05 502.30 0.43 c p3
318.20 501.98 0.43 c p3
318.34 502.30 0.43 c p3
318.49 501.67 0.43 c p3
318.63 502.14 0.43 c p3
318.78 502.77 0.43 c p3
318.92 502.61 0.43 c p3
319.07 503.40 0.43 c p3
319.22 502.61 0.43 c p3
319.36 502.61 0.43 c p3
319.51 502.45 0.43 c p3
319.65 502.93 0.43 c p3
319.80 502.45 0.43 c p3
319.94 502.61 0.43 c p3
320.09 503.08 0.43 c p3
320.23 503.24 0.43 c p3
320.38 503.40 0.43 c p3
320.53 503.24 0.43 c p3
320.67 503.84 0.43 c p3
320.82 501.82 0.43 c p3
320.96 503.40 0.43 c p3
321.11 502.61 0.43 c p3
321.25 502.77 0.43 c p3
321.40 503.08 0.43 c p3
321.54 503.24 0.43 c p3
321.69 503.40 0.43 c p3
321.84 502.30 0.43 c p3
321.98 502.30 0.43 c p3
322.13 502.77 0.43 c p3
322.27 503.40 0.43 c p3
322.42 503.84 0.43 c p3
322.56 504.32 0.43 c p3
322.71 503.40 0.43 c p3
322.85 503.08 0.43 c p3
323.00 503.08 0.43 c p3
323.15 502.77 0.43 c p3
323.29 503.84 0.43 c p3
323.44 504.00 0.43 c p3
323.58 504.47 0.43 c p3
323.73 504.00 0.43 c p3
323.87 503.71 0.43 c p3
324.02 503.24 0.43 c p3
324.17 504.00 0.43 c p3
324.31 504.32 0.43 c p3
324.46 503.71 0.43 c p3
324.60 503.56 0.43 c p3
324.75 503.71 0.43 c p3
324.89 504.00 0.43 c p3
325.04 504.32 0.43 c p3
325.18 503.40 0.43 c p3
325.33 503.24 0.43 c p3
325.48 503.71 0.43 c p3
325.62 503.08 0.43 c p3
325.77 504.00 0.43 c p3
325.91 504.00 0.43 c p3
326.06 504.00 0.43 c p3
326.20 504.47 0.43 c p3
326.35 504.16 0.43 c p3
326.49 503.40 0.43 c p3
326.64 504.95 0.43 c p3
326.79 504.16 0.43 c p3
326.93 504.63 0.43 c p3
327.08 504.00 0.43 c p3
327.22 503.71 0.43 c p3
327.37 503.56 0.43 c p3
327.51 504.32 0.43 c p3
327.66 504.00 0.43 c p3
327.80 504.00 0.43 c p3
327.95 504.16 0.43 c p3
328.10 504.63 0.43 c p3
328.24 504.47 0.43 c p3
328.39 504.63 0.43 c p3
328.53 504.63 0.43 c p3
328.68 503.40 0.43 c p3
328.82 504.47 0.43 c p3
328.97 504.47 0.43 c p3
329.12 504.95 0.43 c p3
329.26 504.16 0.43 c p3
329.41 504.95 0.43 c p3
329.55 505.57 0.43 c p3
329.70 504.95 0.43 c p3
329.84 505.26 0.43 c p3
329.99 505.26 0.43 c p3
330.13 504.63 0.43 c p3
330.28 504.63 0.43 c p3
330.43 503.71 0.43 c p3
330.57 504.79 0.43 c p3
330.72 504.32 0.43 c p3
330.86 504.95 0.43 c p3
331.01 504.79 0.43 c p3
331.15 504.47 0.43 c p3
331.30 504.95 0.43 c p3
331.44 504.79 0.43 c p3
331.59 504.47 0.43 c p3
331.74 505.73 0.43 c p3
331.88 504.79 0.43 c p3
332.03 504.32 0.43 c p3
332.17 504.16 0.43 c p3
332.32 504.79 0.43 c p3
332.46 504.63 0.43 c p3
332.61 505.26 0.43 c p3
332.75 504.47 0.43 c p3
332.90 505.73 0.43 c p3
333.05 505.73 0.43 c p3
333.19 505.73 0.43 c p3
333.34 505.10 0.43 c p3
333.48 505.42 0.43 c p3
333.63 505.26 0.43 c p3
333.77 505.26 0.43 c p3
333.92 504.32 0.43 c p3
334.07 505.89 0.43 c p3
334.21 506.20 0.43 c p3
334.36 505.10 0.43 c p3
334.50 506.20 0.43 c p3
334.65 504.47 0.43 c p3
334.79 505.89 0.43 c p3
334.94 505.42 0.43 c p3
335.08 506.05 0.43 c p3
335.23 505.73 0.43 c p3
335.38 504.95 0.43 c p3
335.52 505.57 0.43 c p3
335.67 505.57 0.43 c p3
335.81 505.26 0.43 c p3
335.96 505.89 0.43 c p3
336.10 505.57 0.43 c p3
336.25 506.05 0.43 c p3
336.39 505.57 0.43 c p3
336.54 506.68 0.43 c p3
336.69 505.73 0.43 c p3
336.83 505.89 0.43 c p3
336.98 505.89 0.43 c p3
337.12 505.26 0.43 c p3
337.27 504.79 0.43 c p3
337.41 505.10 0.43 c p3
337.56 506.05 0.43 c p3
337.70 506.36 0.43 c p3
337.85 506.36 0.43 c p3
338.00 506.20 0.43 c p3
338.14 506.68 0.43 c p3
338.29 506.83 0.43 c p3
338.43 505.57 0.43 c p3
338.58 506.36 0.43 c p3
338.72 507.46 0.43 c p3
338.87 506.68 0.43 c p3
339.02 506.52 0.43 c p3
339.16 506.68 0.43 c p3
339.31 506.20 0.43 c p3
339.45 504.95 0.43 c p3
339.60 506.83 0.43 c p3
339.74 506.36 0.43 c p3
339.89 505.73 0.43 c p3
340.03 506.05 0.43 c p3
340.18 506.83 0.43 c p3
340.33 506.36 0.43 c p3
340.47 506.05 0.43 c p3
340.62 505.10 0.43 c p3
340.76 505.57 0.43 c p3
340.91 505.57 0.43 c p3
341.05 505.73 0.43 c p3
341.20 506.83 0.43 c p3
341.34 506.83 0.43 c p3
341.49 507.31 0.43 c p3
341.64 507.15 0.43 c p3
341.78 505.89 0.43 c p3
341.93 506.68 0.43 c p3
342.07 506.52 0.43 c p3
342.22 506.52 0.43 c p3
342.36 507.62 0.43 c p3
342.51 505.89 0.43 c p3
342.65 507.62 0.43 c p3
342.80 506.68 0.43 c p3
342.95 505.89 0.43 c p3
343.09 505.57 0.43 c p3
343.24 505.89 0.43 c p3
343.38 506.36 0.43 c p3
343.53 507.78 0.43 c p3
343.67 506.83 0.43 c p3
343.82 507.15 0.43 c p3
343.97 507.78 0.43 c p3
344.11 505.89 0.43 c p3
344.26 506.68 0.43 c p3
344.40 507.93 0.43 c p3
344.55 505.73 0.43 c p3
344.69 508.70 0.43 c p3
344.84 507.46 0.43 c p3
344.98 506.83 0.43 c p3
345.13 506.68 0.43 c p3
345.28 506.52 0.43 c p3
345.42 506.99 0.43 c p3
345.57 506.83 0.43 c p3
345.71 508.38 0.43 c p3
345.86 507.78 0.43 c p3
346.00 506.52 0.43 c p3
346.15 506.68 0.43 c p3
346.29 507.46 0.43 c p3
346.44 506.68 0.43 c p3
346.59 507.15 0.43 c p3
346.73 506.36 0.43 c p3
346.88 506.68 0.43 c p3
347.02 508.07 0.43 c p3
347.17 506.36 0.43 c p3
347.31 506.20 0.43 c p3
347.46 507.62 0.43 c p3
347.60 508.38 0.43 c p3
347.75 507.31 0.43 c p3
347.90 506.99 0.43 c p3
348.04 507.62 0.43 c p3
348.19 507.15 0.43 c p3
348.33 507.31 0.43 c p3
348.48 507.93 0.43 c p3
348.62 507.62 0.43 c p3
348.77 507.15 0.43 c p3
348.92 507.93 0.43 c p3
349.06 506.68 0.43 c p3
349.21 507.46 0.43 c p3
349.35 508.07 0.43 c p3
349.50 507.46 0.43 c p3
349.64 506.99 0.43 c p3
349.79 507.62 0.43 c p3
349.93 507.62 0.43 c p3
350.08 506.68 0.43 c p3
350.23 507.78 0.43 c p3
350.37 507.46 0.43 c p3
350.52 508.85 0.43 c p3
350.66 506.99 0.43 c p3
350.81 507.62 0.43 c p3
350.95 507.31 0.43 c p3
351.10 507.78 0.43 c p3
351.24 507.78 0.43 c p3
351.39 507.78 0.43 c p3
351.54 507.62 0.43 c p3
351.68 507.93 0.43 c p3
351.83 507.78 0.43 c p3
351.97 507.31 0.43 c p3
352.12 507.31 0.43 c p3
352.26 507.46 0.43 c p3
352.41 507.62 0.43 c p3
352.55 507.62 0.43 c p3
352.70 508.22 0.43 c p3
352.85 508.07 0.43 c p3
352.99 507.46 0.43 c p3
353.14 509.17 0.43 c p3
353.28 507.46 0.43 c p3
353.43 507.31 0.43 c p3
353.57 507.46 0.43 c p3
353.72 508.54 0.43 c p3
353.86 507.62 0.43 c p3
354.01 508.22 0.43 c p3
354.16 507.46 0.43 c p3
354.30 508.22 0.43 c p3
354.45 507.78 0.43 c p3
354.59 507.78 0.43 c p3
354.74 508.38 0.43 c p3
354.88 509.01 0.43 c p3
355.03 508.38 0.43 c p3
355.18 508.22 0.43 c p3
355.32 508.70 0.43 c p3
355.47 507.15 0.43 c p3
355.61 507.46 0.43 c p3
355.76 508.07 0.43 c p3
355.90 508.54 0.43 c p3
356.05 508.70 0.43 c p3
356.19 508.22 0.43 c p3
356.34 507.78 0.43 c p3
356.49 508.22 0.43 c p3
356.63 508.22 0.43 c p3
356.78 508.85 0.43 c p3
356.92 507.93 0.43 c p3
357.07 507.31 0.43 c p3
357.21 508.70 0.43 c p3
357.36 507.93 0.43 c p3
357.50 509.01 0.43 c p3
357.65 507.78 0.43 c p3
357.80 508.54 0.43 c p3
357.94 508.85 0.43 c p3
358.09 508.70 0.43 c p3
358.23 508.54 0.43 c p3
358.38 508.70 0.43 c p3
358.52 507.62 0.43 c p3
358.67 508.70 0.43 c p3
358.81 509.17 0.43 c p3
358.96 508.38 0.43 c p3
359.11 508.70 0.43 c p3
359.25 507.62 0.43 c p3
359.40 507.15 0.43 c p3
359.54 508.07 0.43 c p3
359.69 508.54 0.43 c p3
359.83 509.01 0.43 c p3
359.98 509.32 0.43 c p3
360.13 508.07 0.43 c p3
360.27 507.93 0.43 c p3
360.42 508.07 0.43 c p3
360.56 508.70 0.43 c p3
360.71 509.01 0.43 c p3
360.85 508.38 0.43 c p3
361.00 508.70 0.43 c p3
361.14 508.85 0.43 c p3
361.29 507.78 0.43 c p3
361.44 509.17 0.43 c p3
361.58 508.54 0.43 c p3
361.73 509.32 0.43 c p3
361.87 509.80 0.43 c p3
362.02 509.17 0.43 c p3
362.16 509.01 0.43 c p3
362.31 509.48 0.43 c p3
362.45 509.48 0.43 c p3
362.60 508.22 0.43 c p3
362.75 508.70 0.43 c p3
362.89 508.85 0.43 c p3
363.04 509.01 0.43 c p3
363.18 509.48 0.43 c p3
363.33 509.80 0.43 c p3
363.47 509.64 0.43 c p3
363.62 508.54 0.43 c p3
363.76 509.32 0.43 c p3
363.91 509.17 0.43 c p3
364.06 508.70 0.43 c p3
364.20 509.17 0.43 c p3
364.35 509.64 0.43 c p3
364.49 508.70 0.43 c p3
364.64 508.70 0.43 c p3
364.78 509.64 0.43 c p3
364.93 508.70 0.43 c p3
365.08 508.38 0.43 c p3
365.22 509.80 0.43 c p3
365.37 508.54 0.43 c p3
365.51 509.48 0.43 c p3
365.66 510.27 0.43 c p3
365.80 509.95 0.43 c p3
365.95 509.48 0.43 c p3
366.09 509.64 0.43 c p3
366.24 509.17 0.43 c p3
366.39 508.70 0.43 c p3
366.53 508.70 0.43 c p3
366.68 509.64 0.43 c p3
366.82 508.54 0.43 c p3
366.97 510.11 0.43 c p3
367.11 510.11 0.43 c p3
367.26 508.22 0.43 c p3
367.40 509.01 0.43 c p3
367.55 510.11 0.43 c p3
367.70 509.01 0.43 c p3
367.84 509.48 0.43 c p3
367.99 510.43 0.43 c p3
368.13 509.17 0.43 c p3
368.28 509.48 0.43 c p3
368.42 510.74 0.43 c p3
368.57 509.80 0.43 c p3
368.71 509.17 0.43 c p3
368.86 510.58 0.43 c p3
369.01 511.37 0.43 c p3
369.15 510.90 0.43 c p3
369.30 509.64 0.43 c p3
369.44 510.27 0.43 c p3
369.59 509.32 0.43 c p3
369.73 509.48 0.43 c p3
369.88 509.95 0.43 c p3
370.03 509.01 0.43 c p3
370.17 509.17 0.43 c p3
370.32 509.48 0.43 c p3
370.46 509.80 0.43 c p3
370.61 509.01 0.43 c p3
370.75 509.17 0.43 c p3
370.90 509.48 0.43 c p3
371.04 509.95 0.43 c p3
371.19 509.32 0.43 c p3
371.34 510.43 0.43 c p3
371.48 510.27 0.43 c p3
371.63 510.11 0.43 c p3
371.77 511.06 0.43 c p3
371.92 510.43 0.43 c p3
372.06 508.85 0.43 c p3
372.21 509.32 0.43 c p3
372.35 509.01 0.43 c p3
372.50 510.90 0.43 c p3
372.65 509.64 0.43 c p3
372.79 509.64 0.43 c p3
372.94 509.64 0.43 c p3
373.08 509.80 0.43 c p3
373.23 509.32 0.43 c p3
373.37 510.11 0.43 c p3
373.52 509.48 0.43 c p3
373.66 510.58 0.43 c p3
373.81 512.00 0.43 c p3
373.96 510.58 0.43 c p3
374.10 510.11 0.43 c p3
374.25 510.74 0.43 c p3
374.39 510.27 0.43 c p3
374.54 510.11 0.43 c p3
374.68 509.32 0.43 c p3
374.83 510.11 0.43 c p3
374.98 511.37 0.43 c p3
375.12 509.48 0.43 c p3
375.27 510.11 0.43 c p3
375.41 509.17 0.43 c p3
375.56 510.90 0.43 c p3
375.70 509.48 0.43 c p3
375.85 510.74 0.43 c p3
375.99 509.80 0.43 c p3
376.14 509.17 0.43 c p3
376.29 510.58 0.43 c p3
376.43 510.58 0.43 c p3
376.58 508.85 0.43 c p3
376.72 510.43 0.43 c p3
376.87 510.90 0.43 c p3
377.01 510.74 0.43 c p3
377.16 511.06 0.43 c p3
377.30 510.27 0.43 c p3
377.45 511.69 0.43 c p3
377.60 510.90 0.43 c p3
377.74 510.74 0.43 c p3
377.89 509.64 0.43 c p3
378.03 510.11 0.43 c p3
378.18 510.11 0.43 c p3
378.32 510.27 0.43 c p3
378.47 510.90 0.43 c p3
378.61 509.95 0.43 c p3
378.76 510.27 0.43 c p3
378.91 509.95 0.43 c p3
379.05 511.06 0.43 c p3
379.20 510.58 0.43 c p3
379.34 511.21 0.43 c p3
379.49 511.21 0.43 c p3
379.63 511.21 0.43 c p3
379.78 510.27 0.43 c p3
379.93 510.58 0.43 c p3
380.07 510.90 0.43 c p3
380.22 510.11 0.43 c p3
380.36 509.64 0.43 c p3
380.51 510.58 0.43 c p3
380.65 509.95 0.43 c p3
380.80 510.27 0.43 c p3
380.94 510.58 0.43 c p3
381.09 510.27 0.43 c p3
381.24 510.27 0.43 c p3
381.38 511.06 0.43 c p3
381.53 510.90 0.43 c p3
381.67 511.37 0.43 c p3
381.82 510.90 0.43 c p3
381.96 511.53 0.43 c p3
382.11 511.53 0.43 c p3
382.25 511.06 0.43 c p3
382.40 510.74 0.43 c p3
0.00 0.00 432.00 576.00 cl
0 0 0 srgb
0.75 setlinewidth
[] 0 setdash
1 setlinecap
1 setlinejoin
10.00 setmiterlimit
np
236.96 345.60 m
145.59 0 l
o
np
236.96 345.60 m
0 -5.76 l
o
np
266.08 345.60 m
0 -5.76 l
o
np
295.19 345.60 m
0 -5.76 l
o
np
324.31 345.60 m
0 -5.76 l
o
np
353.43 345.60 m
0 -5.76 l
o
np
382.55 345.60 m
0 -5.76 l
o
/Font1 findfont 10 s
236.96 329.47 (0) .5 0 t
266.08 329.47 (500) .5 0 t
295.19 329.47 (1000) .5 0 t
353.43 329.47 (2000) .5 0 t
np
216.00 352.00 m
0 128.90 l
o
np
216.00 352.00 m
-5.76 0 l
o
np
216.00 394.97 m
-5.76 0 l
o
np
216.00 437.93 m
-5.76 0 l
o
np
216.00 480.90 m
-5.76 0 l
o
209.09 348.41 (0.0) 1 0 t
209.09 391.38 (0.1) 1 0 t
209.09 434.34 (0.2) 1 0 t
209.09 477.31 (0.3) 1 0 t
np
216.00 345.60 m
172.80 0 l
0 172.80 l
-172.80 0 l
0 -172.80 l
o
0.00 0.00 432.00 576.00 cl
/Font1 findfont 10 s
0 0 0 srgb
302.40 313.34 (Time / ms \(total\)) .5 0 t
190.66 432.00 (U / V) .5 90 t
216.00 345.60 388.80 518.40 cl
0 0 0 srgb
0.38 setlinewidth
[ 1.13 1.88] 0 setdash
1 setlinecap
1 setlinejoin
10.00 setmiterlimit
np
222.55 345.60 m
0 172.80 l
o
np
235.07 345.60 m
0 172.80 l
o
np
238.56 345.60 m
0 172.80 l
o
np
351.97 345.60 m
0 172.80 l
o
86.40 57.60 388.80 288.00 cl
1 0 0 srgb
1.50 setlinewidth
[] 0 setdash
1 setlinecap
1 setlinejoin
10.00 setmiterlimit
np
97.60 279.47 m
1.41 -5.39 l
1.40 -5.24 l
1.41 -5.12 l
1.41 -4.99 l
1.41 -4.86 l
1.40 -4.74 l
1.41 -4.62 l
1.41 -4.51 l
1.40 -4.39 l
1.41 -4.29 l
1.41 -4.17 l
1.40 -4.07 l
1.41 -3.97 l
1.41 -3.87 l
1.41 -3.77 l
1.40 -3.68 l
1.41 -3.59 l
1.41 -3.49 l
1.40 -3.41 l
1.41 -3.32 l
1.41 -3.24 l
1.40 -3.16 l
1.41 -3.08 l
1.41 -3.00 l
1.41 -2.93 l
1.40 -2.85 l
1.41 -2.78 l
1.41 -2.72 l
1.40 -2.64 l
1.41 -2.58 l
1.41 -2.51 l
1.41 -2.45 l
1.40 -2.39 l
1.41 -2.33 l
1.41 -2.27 l
1.40 -2.21 l
1.41 -2.16 l
1.41 -2.10 l
1.40 -2.06 l
1.41 -1.99 l
1.41 -1.95 l
1.41 -1.91 l
1.40 -1.85 l
1.41 -1.80 l
1.41 -1.77 l
1.40 -1.71 l
1.41 -1.68 l
1.41 -1.63 l
1.40 -1.59 l
1.41 -1.55 l
1.41 -1.51 l
1.41 -1.48 l
1.40 -1.44 l
1.41 -1.40 l
1.41 -1.36 l
1.40 -1.34 l
1.41 -1.29 l
1.41 -1.27 l
1.41 -1.24 l
1.40 -1.20 l
1.41 -1.17 l
1.41 -1.15 l
1.40 -1.11 l
1.41 -1.09 l
1.41 -1.06 l
1.40 -1.03 l
1.41 -1.01 l
1.41 -0.98 l
1.41 -0.96 l
1.40 -0.93 l
1.41 -0.91 l
1.41 -0.89 l
1.40 -0.87 l
1.41 -0.84 l
1.41 -0.82 l
1.40 -0.80 l
1.41 -0.78 l
1.41 -0.77 l
1.41 -0.74 l
1.40 -0.72 l
1.41 -0.71 l
1.41 -0.69 l
1.40 -0.67 l
1.41 -0.65 l
1.41 -0.64 l
1.41 -0.62 l
1.40 -0.61 l
1.41 -0.59 l
1.41 -0.58 l
1.40 -0.56 l
1.41 -0.55 l
1.41 -0.53 l
1.40 -0.52 l
1.41 -0.51 l
1.41 -0.49 l
1.41 -0.49 l
1.40 -0.47 l
1.41 -0.46 l
1.41 -0.44 l
238.30 81.71 lineto
1.41 -0.42 l
1.41 -0.42 l
1.40 -0.40 l
1.41 -0.40 l
1.41 -0.38 l
1.41 -0.37 l
1.40 -0.37 l
1.41 -0.35 l
1.41 -0.35 l
1.40 -0.34 l
1.41 -0.33 l
1.41 -0.32 l
1.40 -0.31 l
1.41 -0.31 l
1.41 -0.30 l
1.41 -0.29 l
1.40 -0.28 l
1.41 -0.28 l
1.41 -0.27 l
1.40 -0.26 l
1.41 -0.25 l
1.41 -0.25 l
1.41 -0.25 l
1.40 -0.23 l
1.41 -0.23 l
1.41 -0.23 l
1.40 -0.22 l
1.41 -0.21 l
1.41 -0.21 l
1.40 -0.21 l
1.41 -0.19 l
1.41 -0.20 l
1.41 -0.19 l
1.40 -0.18 l
1.41 -0.18 l
1.41 -0.17 l
1.40 -0.17 l
1.41 -0.17 l
1.41 -0.16 l
1.40 -0.16 l
1.41 -0.15 l
1.41 -0.15 l
1.41 -0.15 l
1.40 -0.14 l
1.41 -0.14 l
1.41 -0.14 l
1.40 -0.13 l
1.41 -0.13 l
1.41 -0.12 l
1.41 -0.13 l
1.40 -0.12 l
1.41 -0.11 l
1.41 -0.12 l
1.40 -0.11 l
1.41 -0.10 l
1.41 -0.11 l
1.40 -0.10 l
1.41 -0.10 l
1.41 -0.10 l
1.41 -0.09 l
1.40 -0.10 l
1.41 -0.09 l
1.41 -0.09 l
1.40 -0.08 l
1.41 -0.08 l
1.41 -0.09 l
1.40 -0.08 l
1.41 -0.07 l
1.41 -0.08 l
1.41 -0.07 l
1.40 -0.07 l
1.41 -0.07 l
1.41 -0.07 l
1.40 -0.07 l
1.41 -0.06 l
1.41 -0.07 l
1.41 -0.06 l
1.40 -0.06 l
1.41 -0.06 l
1.41 -0.06 l
1.40 -0.05 l
1.41 -0.06 l
1.41 -0.05 l
1.40 -0.05 l
1.41 -0.05 l
1.41 -0.05 l
1.41 -0.05 l
1.40 -0.04 l
1.41 -0.05 l
1.41 -0.04 l
1.40 -0.05 l
1.41 -0.04 l
1.41 -0.04 l
1.40 -0.04 l
1.41 -0.04 l
1.41 -0.04 l
1.41 -0.04 l
1.40 -0.03 l
1.41 -0.04 l
o
0.00 0.00 432.00 576.00 cl
0 0 0 srgb
0.75 setlinewidth
[] 0 setdash
1 setlinecap
1 setlinejoin
10.00 setmiterlimit
np
97.60 57.60 m
280.00 0 l
o
np
97.60 57.60 m
0 -5.76 l
o
np
153.60 57.60 m
0 -5.76 l
o
np
209.60 57.60 m
0 -5.76 l
o
np
265.60 57.60 m
0 -5.76 l
o
np
321.60 57.60 m
0 -5.76 l
o
np
377.60 57.60 m
0 -5.76 l
o
/Font1 findfont 10 s
97.60 41.47 (0) .5 0 t
153.60 41.47 (500) .5 0 t
209.60 41.47 (1000) .5 0 t
265.60 41.47 (1500) .5 0 t
321.60 41.47 (2000) .5 0 t
377.60 41.47 (2500) .5 0 t
np
86.40 67.24 m
0 216.54 l
o
np
86.40 67.24 m
-5.76 0 l
o
np
86.40 103.33 m
-5.76 0 l
o
np
86.40 139.42 m
-5.76 0 l
o
np
86.40 175.51 m
-5.76 0 l
o
np
86.40 211.60 m
-5.76 0 l
o
np
86.40 247.69 m
-5.76 0 l
o
np
86.40 283.78 m
-5.76 0 l
o
79.49 63.65 (0.00) 1 0 t
79.49 99.74 (0.05) 1 0 t
79.49 135.83 (0.10) 1 0 t
79.49 171.92 (0.15) 1 0 t
79.49 208.01 (0.20) 1 0 t
79.49 244.10 (0.25) 1 0 t
79.49 280.19 (0.30) 1 0 t
np
86.40 57.60 m
302.40 0 l
0 230.40 l
-302.40 0 l
0 -230.40 l
o
0.00 0.00 432.00 576.00 cl
/Font1 findfont 10 s
0 0 0 srgb
237.60 13.82 (Time / ms \(after pulse\)) .5 0 t
49.54 172.80 (Absorbance A) .5 90 t
86.40 57.60 388.80 288.00 cl
/bg { 1 1 1 srgb } def
0 0 0 srgb
0.75 setlinewidth
[] 0 setdash
1 setlinecap
1 setlinejoin
10.00 setmiterlimit
100.96 265.88 0.65 c p3
101.24 266.48 0.65 c p3
101.52 271.91 0.65 c p3
101.80 266.48 0.65 c p3
102.08 264.09 0.65 c p3
102.36 266.48 0.65 c p3
102.64 262.91 0.65 c p3
102.92 259.96 0.65 c p3
103.20 257.72 0.65 c p3
103.48 257.72 0.65 c p3
103.76 258.89 0.65 c p3
104.04 255.98 0.65 c p3
104.32 257.72 0.65 c p3
104.60 253.10 0.65 c p3
104.88 255.98 0.65 c p3
105.16 254.25 0.65 c p3
105.44 248.55 0.65 c p3
105.72 250.82 0.65 c p3
106.00 252.53 0.65 c p3
106.28 249.11 0.65 c p3
106.56 247.98 0.65 c p3
106.84 246.30 0.65 c p3
107.12 250.25 0.65 c p3
107.40 245.74 0.65 c p3
107.68 241.38 0.65 c p3
107.96 243.60 0.65 c p3
108.24 243.04 0.65 c p3
108.52 240.83 0.65 c p3
108.80 240.28 0.65 c p3
109.08 239.18 0.65 c p3
109.36 238.08 0.65 c p3
109.64 238.08 0.65 c p3
109.92 233.74 0.65 c p3
110.20 236.45 0.65 c p3
110.48 239.18 0.65 c p3
110.76 232.66 0.65 c p3
111.04 233.20 0.65 c p3
111.32 233.74 0.65 c p3
111.60 234.28 0.65 c p3
111.88 231.59 0.65 c p3
112.16 227.95 0.65 c p3
112.44 231.06 0.65 c p3
112.72 228.48 0.65 c p3
113.00 226.90 0.65 c p3
113.28 229.01 0.65 c p3
113.56 227.95 0.65 c p3
113.84 224.79 0.65 c p3
114.12 223.23 0.65 c p3
114.40 224.27 0.65 c p3
114.68 220.63 0.65 c p3
114.96 221.67 0.65 c p3
115.24 219.08 0.65 c p3
115.52 217.54 0.65 c p3
115.80 217.54 0.65 c p3
116.08 220.11 0.65 c p3
116.36 214.57 0.65 c p3
116.64 216.01 0.65 c p3
116.92 215.59 0.65 c p3
117.20 216.01 0.65 c p3
117.48 214.06 0.65 c p3
117.76 214.57 0.65 c p3
118.04 214.06 0.65 c p3
118.32 213.56 0.65 c p3
118.60 211.54 0.65 c p3
118.88 210.54 0.65 c p3
119.16 210.04 0.65 c p3
119.44 212.05 0.65 c p3
119.72 210.04 0.65 c p3
120.00 205.08 0.65 c p3
120.28 207.55 0.65 c p3
120.56 209.54 0.65 c p3
120.84 204.59 0.65 c p3
121.12 200.77 0.65 c p3
121.40 204.10 0.65 c p3
121.68 205.08 0.65 c p3
121.96 200.28 0.65 c p3
122.24 198.35 0.65 c p3
122.52 199.31 0.65 c p3
122.80 204.59 0.65 c p3
123.08 200.28 0.65 c p3
123.36 200.28 0.65 c p3
123.64 198.83 0.65 c p3
123.92 198.35 0.65 c p3
124.20 197.39 0.65 c p3
124.48 195.00 0.65 c p3
124.76 197.39 0.65 c p3
125.04 199.31 0.65 c p3
125.32 195.47 0.65 c p3
125.60 192.62 0.65 c p3
125.88 194.05 0.65 c p3
126.16 193.57 0.65 c p3
126.44 191.21 0.65 c p3
126.72 191.21 0.65 c p3
127.00 190.74 0.65 c p3
127.28 190.27 0.65 c p3
127.56 188.94 0.65 c p3
127.84 184.76 0.65 c p3
128.12 186.15 0.65 c p3
128.40 187.08 0.65 c p3
128.68 185.23 0.65 c p3
128.96 185.23 0.65 c p3
129.24 188.48 0.65 c p3
129.52 185.69 0.65 c p3
129.80 181.55 0.65 c p3
130.08 181.10 0.65 c p3
130.36 184.76 0.65 c p3
130.64 184.30 0.65 c p3
130.92 182.93 0.65 c p3
131.20 180.64 0.65 c p3
131.48 182.93 0.65 c p3
131.76 181.10 0.65 c p3
132.04 175.30 0.65 c p3
132.32 177.92 0.65 c p3
132.60 177.10 0.65 c p3
132.88 177.92 0.65 c p3
133.16 176.20 0.65 c p3
133.44 177.47 0.65 c p3
133.72 176.65 0.65 c p3
134.00 174.86 0.65 c p3
134.28 173.96 0.65 c p3
134.56 173.52 0.65 c p3
134.84 175.30 0.65 c p3
135.12 171.75 0.65 c p3
135.40 171.75 0.65 c p3
135.68 173.96 0.65 c p3
135.96 173.07 0.65 c p3
136.24 171.30 0.65 c p3
136.52 168.66 0.65 c p3
136.80 168.23 0.65 c p3
137.08 171.30 0.65 c p3
137.36 167.35 0.65 c p3
137.64 168.23 0.65 c p3
137.92 169.98 0.65 c p3
138.20 169.54 0.65 c p3
138.48 164.39 0.65 c p3
138.76 166.05 0.65 c p3
139.04 166.92 0.65 c p3
139.32 164.39 0.65 c p3
139.60 163.52 0.65 c p3
139.88 165.61 0.65 c p3
140.16 166.92 0.65 c p3
140.44 163.09 0.65 c p3
140.72 161.80 0.65 c p3
141.00 162.23 0.65 c p3
141.28 161.80 0.65 c p3
141.56 160.95 0.65 c p3
141.84 160.52 0.65 c p3
142.12 161.38 0.65 c p3
142.40 161.38 0.65 c p3
142.68 160.52 0.65 c p3
142.96 158.39 0.65 c p3
143.24 157.97 0.65 c p3
143.52 157.55 0.65 c p3
143.80 157.13 0.65 c p3
144.08 153.84 0.65 c p3
144.36 156.70 0.65 c p3
144.64 153.42 0.65 c p3
144.92 154.18 0.65 c p3
145.20 153.84 0.65 c p3
145.48 155.44 0.65 c p3
145.76 153.42 0.65 c p3
146.04 151.75 0.65 c p3
146.32 152.17 0.65 c p3
146.60 153.42 0.65 c p3
146.88 153.84 0.65 c p3
147.16 151.75 0.65 c p3
147.44 151.75 0.65 c p3
147.72 151.75 0.65 c p3
148.00 151.75 0.65 c p3
148.28 147.22 0.65 c p3
148.56 148.45 0.65 c p3
148.84 152.59 0.65 c p3
149.12 148.45 0.65 c p3
149.40 148.04 0.65 c p3
149.68 147.63 0.65 c p3
149.96 148.86 0.65 c p3
150.24 146.00 0.65 c p3
150.52 145.59 0.65 c p3
150.80 144.37 0.65 c p3
151.08 148.86 0.65 c p3
151.36 146.00 0.65 c p3
151.64 143.16 0.65 c p3
151.92 145.59 0.65 c p3
152.20 145.59 0.65 c p3
152.48 143.56 0.65 c p3
152.76 143.16 0.65 c p3
153.04 142.42 0.65 c p3
153.32 142.82 0.65 c p3
153.60 142.02 0.65 c p3
153.88 142.82 0.65 c p3
154.16 142.42 0.65 c p3
154.44 144.37 0.65 c p3
154.72 141.21 0.65 c p3
155.00 138.81 0.65 c p3
155.28 140.41 0.65 c p3
155.56 139.61 0.65 c p3
155.84 137.62 0.65 c p3
156.12 136.83 0.65 c p3
156.40 137.62 0.65 c p3
156.68 140.41 0.65 c p3
156.96 135.64 0.65 c p3
157.24 137.62 0.65 c p3
157.52 135.64 0.65 c p3
157.80 138.02 0.65 c p3
158.08 136.83 0.65 c p3
158.36 134.07 0.65 c p3
158.64 134.86 0.65 c p3
158.92 138.02 0.65 c p3
159.20 133.68 0.65 c p3
159.48 133.68 0.65 c p3
159.76 133.29 0.65 c p3
160.04 135.25 0.65 c p3
160.32 135.25 0.65 c p3
160.60 132.51 0.65 c p3
160.88 134.46 0.65 c p3
161.16 134.07 0.65 c p3
161.44 131.79 0.65 c p3
161.72 128.31 0.65 c p3
162.00 130.24 0.65 c p3
162.28 131.79 0.65 c p3
162.56 131.01 0.65 c p3
162.84 129.46 0.65 c p3
163.12 132.18 0.65 c p3
163.40 129.46 0.65 c p3
163.68 128.69 0.65 c p3
163.96 128.69 0.65 c p3
164.24 129.85 0.65 c p3
164.52 129.46 0.65 c p3
164.80 127.15 0.65 c p3
165.08 126.77 0.65 c p3
165.36 127.54 0.65 c p3
165.64 124.48 0.65 c p3
165.92 127.92 0.65 c p3
166.20 125.24 0.65 c p3
166.48 127.15 0.65 c p3
166.76 127.15 0.65 c p3
167.04 124.86 0.65 c p3
167.32 124.48 0.65 c p3
167.60 127.15 0.65 c p3
167.88 124.48 0.65 c p3
168.16 122.58 0.65 c p3
168.44 123.34 0.65 c p3
168.72 124.10 0.65 c p3
169.00 124.86 0.65 c p3
169.28 122.96 0.65 c p3
169.56 123.34 0.65 c p3
169.84 123.72 0.65 c p3
170.12 121.51 0.65 c p3
170.40 120.76 0.65 c p3
170.68 120.39 0.65 c p3
170.96 122.96 0.65 c p3
171.24 120.76 0.65 c p3
171.52 120.39 0.65 c p3
171.80 119.63 0.65 c p3
172.08 122.58 0.65 c p3
172.36 119.63 0.65 c p3
172.64 117.77 0.65 c p3
172.92 118.51 0.65 c p3
173.20 119.26 0.65 c p3
173.48 118.51 0.65 c p3
173.76 119.63 0.65 c p3
174.04 117.02 0.65 c p3
174.32 119.63 0.65 c p3
174.60 117.40 0.65 c p3
174.88 114.80 0.65 c p3
175.16 113.70 0.65 c p3
175.44 118.89 0.65 c p3
175.72 117.77 0.65 c p3
176.00 117.77 0.65 c p3
176.28 119.26 0.65 c p3
176.56 118.14 0.65 c p3
176.84 118.51 0.65 c p3
177.12 115.91 0.65 c p3
177.40 115.17 0.65 c p3
177.68 117.02 0.65 c p3
177.96 114.07 0.65 c p3
178.24 114.43 0.65 c p3
178.52 115.54 0.65 c p3
178.80 116.28 0.65 c p3
179.08 114.80 0.65 c p3
179.36 112.96 0.65 c p3
179.64 112.60 0.65 c p3
179.92 113.70 0.65 c p3
180.20 115.17 0.65 c p3
180.48 112.96 0.65 c p3
180.76 111.56 0.65 c p3
181.04 115.54 0.65 c p3
181.32 112.23 0.65 c p3
181.60 109.02 0.65 c p3
181.88 110.10 0.65 c p3
182.16 111.93 0.65 c p3
182.44 111.20 0.65 c p3
182.72 111.56 0.65 c p3
183.00 111.20 0.65 c p3
183.28 112.96 0.65 c p3
183.56 110.47 0.65 c p3
183.84 107.93 0.65 c p3
184.12 110.83 0.65 c p3
184.40 110.83 0.65 c p3
184.68 109.02 0.65 c p3
184.96 109.02 0.65 c p3
185.24 111.56 0.65 c p3
185.52 110.83 0.65 c p3
185.80 107.21 0.65 c p3
186.08 109.02 0.65 c p3
186.36 106.85 0.65 c p3
186.64 109.02 0.65 c p3
186.92 108.66 0.65 c p3
187.20 105.42 0.65 c p3
187.48 109.74 0.65 c p3
187.76 108.29 0.65 c p3
188.04 107.57 0.65 c p3
188.32 107.57 0.65 c p3
188.60 107.93 0.65 c p3
188.88 106.85 0.65 c p3
189.16 103.99 0.65 c p3
189.44 106.13 0.65 c p3
189.72 107.21 0.65 c p3
190.00 106.49 0.65 c p3
190.28 104.34 0.65 c p3
190.56 106.49 0.65 c p3
190.84 105.06 0.65 c p3
191.12 105.77 0.65 c p3
191.40 107.93 0.65 c p3
191.68 106.49 0.65 c p3
191.96 104.34 0.65 c p3
192.24 103.99 0.65 c p3
192.52 105.06 0.65 c p3
192.80 102.92 0.65 c p3
193.08 103.28 0.65 c p3
193.36 103.28 0.65 c p3
193.64 102.57 0.65 c p3
193.92 105.42 0.65 c p3
194.20 102.92 0.65 c p3
194.48 104.70 0.65 c p3
194.76 102.57 0.65 c p3
195.04 102.92 0.65 c p3
195.32 101.92 0.65 c p3
195.60 101.21 0.65 c p3
195.88 102.27 0.65 c p3
196.16 104.34 0.65 c p3
196.44 101.21 0.65 c p3
196.72 101.21 0.65 c p3
197.00 101.21 0.65 c p3
197.28 101.56 0.65 c p3
197.56 100.86 0.65 c p3
197.84 100.15 0.65 c p3
198.12 101.92 0.65 c p3
198.40 99.80 0.65 c p3
198.68 98.75 0.65 c p3
198.96 98.40 0.65 c p3
199.24 100.50 0.65 c p3
199.52 98.40 0.65 c p3
199.80 97.35 0.65 c p3
200.08 96.65 0.65 c p3
200.36 101.92 0.65 c p3
200.64 98.05 0.65 c p3
200.92 98.05 0.65 c p3
201.20 100.50 0.65 c p3
201.48 97.70 0.65 c p3
201.76 99.80 0.65 c p3
202.04 98.40 0.65 c p3
202.32 99.80 0.65 c p3
202.60 98.05 0.65 c p3
202.88 98.75 0.65 c p3
203.16 96.65 0.65 c p3
203.44 96.65 0.65 c p3
203.72 97.35 0.65 c p3
204.00 96.65 0.65 c p3
204.28 95.61 0.65 c p3
204.56 96.65 0.65 c p3
204.84 94.22 0.65 c p3
205.12 94.22 0.65 c p3
205.40 96.30 0.65 c p3
205.68 97.70 0.65 c p3
205.96 95.26 0.65 c p3
206.24 93.53 0.65 c p3
206.52 94.57 0.65 c p3
206.80 95.96 0.65 c p3
207.08 94.22 0.65 c p3
207.36 93.88 0.65 c p3
207.64 96.30 0.65 c p3
207.92 96.30 0.65 c p3
208.20 94.91 0.65 c p3
208.48 92.21 0.65 c p3
208.76 96.65 0.65 c p3
209.04 95.96 0.65 c p3
209.32 92.90 0.65 c p3
209.60 94.22 0.65 c p3
209.88 94.57 0.65 c p3
210.16 92.90 0.65 c p3
210.44 94.91 0.65 c p3
210.72 91.53 0.65 c p3
211.00 91.53 0.65 c p3
211.28 91.87 0.65 c p3
211.56 92.90 0.65 c p3
211.84 92.90 0.65 c p3
212.12 95.61 0.65 c p3
212.40 91.87 0.65 c p3
212.68 92.21 0.65 c p3
212.96 90.84 0.65 c p3
213.24 92.56 0.65 c p3
213.52 90.84 0.65 c p3
213.80 92.56 0.65 c p3
214.08 92.21 0.65 c p3
214.36 91.87 0.65 c p3
214.64 91.53 0.65 c p3
214.92 88.80 0.65 c p3
215.20 91.19 0.65 c p3
215.48 91.19 0.65 c p3
215.76 90.16 0.65 c p3
216.04 90.84 0.65 c p3
216.32 89.14 0.65 c p3
216.60 92.56 0.65 c p3
216.88 90.50 0.65 c p3
217.16 89.14 0.65 c p3
217.44 92.56 0.65 c p3
217.72 90.16 0.65 c p3
218.00 91.19 0.65 c p3
218.28 89.14 0.65 c p3
218.56 90.84 0.65 c p3
218.84 89.48 0.65 c p3
219.12 88.46 0.65 c p3
219.40 88.80 0.65 c p3
219.68 89.82 0.65 c p3
219.96 87.45 0.65 c p3
220.24 88.12 0.65 c p3
220.52 88.46 0.65 c p3
220.80 88.46 0.65 c p3
221.08 88.80 0.65 c p3
221.36 88.12 0.65 c p3
221.64 86.77 0.65 c p3
221.92 90.50 0.65 c p3
222.20 89.82 0.65 c p3
222.48 86.77 0.65 c p3
222.76 88.12 0.65 c p3
223.04 89.48 0.65 c p3
223.32 88.12 0.65 c p3
223.60 87.11 0.65 c p3
223.88 87.45 0.65 c p3
224.16 87.45 0.65 c p3
224.44 85.09 0.65 c p3
224.72 85.76 0.65 c p3
225.00 88.46 0.65 c p3
225.28 84.75 0.65 c p3
225.56 88.80 0.65 c p3
225.84 87.78 0.65 c p3
226.12 86.43 0.65 c p3
226.40 85.43 0.65 c p3
226.68 87.11 0.65 c p3
226.96 85.43 0.65 c p3
227.24 88.46 0.65 c p3
227.52 88.80 0.65 c p3
227.80 87.11 0.65 c p3
228.08 87.11 0.65 c p3
228.36 86.43 0.65 c p3
228.64 85.43 0.65 c p3
228.92 84.75 0.65 c p3
229.20 83.81 0.65 c p3
229.48 86.77 0.65 c p3
229.76 84.08 0.65 c p3
230.04 84.75 0.65 c p3
230.32 83.47 0.65 c p3
230.60 88.12 0.65 c p3
230.88 84.75 0.65 c p3
231.16 84.75 0.65 c p3
231.44 84.42 0.65 c p3
231.72 85.09 0.65 c p3
232.00 84.08 0.65 c p3
232.28 85.09 0.65 c p3
232.56 83.81 0.65 c p3
232.84 85.09 0.65 c p3
233.12 83.14 0.65 c p3
233.40 82.80 0.65 c p3
233.68 82.47 0.65 c p3
233.96 85.76 0.65 c p3
234.24 84.08 0.65 c p3
234.52 83.81 0.65 c p3
234.80 85.43 0.65 c p3
235.08 82.80 0.65 c p3
235.36 81.14 0.65 c p3
235.64 83.14 0.65 c p3
235.92 82.47 0.65 c p3
236.20 83.47 0.65 c p3
236.48 82.80 0.65 c p3
236.76 83.47 0.65 c p3
237.04 83.47 0.65 c p3
237.32 80.81 0.65 c p3
237.60 82.47 0.65 c p3
237.88 82.14 0.65 c p3
238.16 81.81 0.65 c p3
238.44 80.81 0.65 c p3
238.72 81.81 0.65 c p3
239.00 83.14 0.65 c p3
239.28 84.08 0.65 c p3
239.56 82.80 0.65 c p3
239.84 80.48 0.65 c p3
240.12 81.14 0.65 c p3
240.40 80.81 0.65 c p3
240.68 82.47 0.65 c p3
240.96 82.14 0.65 c p3
241.24 81.81 0.65 c p3
241.52 81.14 0.65 c p3
241.80 81.48 0.65 c p3
242.08 81.48 0.65 c p3
242.36 81.81 0.65 c p3
242.64 82.14 0.65 c p3
242.92 82.80 0.65 c p3
243.20 81.14 0.65 c p3
243.48 82.14 0.65 c p3
243.76 82.14 0.65 c p3
244.04 79.82 0.65 c p3
244.32 82.14 0.65 c p3
244.60 80.48 0.65 c p3
244.88 81.14 0.65 c p3
245.16 79.49 0.65 c p3
245.44 80.15 0.65 c p3
245.72 83.14 0.65 c p3
246.00 79.82 0.65 c p3
246.28 82.47 0.65 c p3
246.56 79.82 0.65 c p3
246.84 78.18 0.65 c p3
247.12 78.50 0.65 c p3
247.40 78.18 0.65 c p3
247.68 80.48 0.65 c p3
247.96 79.82 0.65 c p3
248.24 79.82 0.65 c p3
248.52 79.49 0.65 c p3
248.80 78.83 0.65 c p3
249.08 79.82 0.65 c p3
249.36 81.48 0.65 c p3
249.64 79.49 0.65 c p3
249.92 79.16 0.65 c p3
250.20 81.81 0.65 c p3
250.48 79.49 0.65 c p3
250.76 80.48 0.65 c p3
251.04 79.82 0.65 c p3
251.32 78.50 0.65 c p3
251.60 78.18 0.65 c p3
251.88 80.48 0.65 c p3
252.16 79.16 0.65 c p3
252.44 77.52 0.65 c p3
252.72 78.83 0.65 c p3
253.00 76.21 0.65 c p3
253.28 79.16 0.65 c p3
253.56 76.87 0.65 c p3
253.84 78.18 0.65 c p3
254.12 78.83 0.65 c p3
254.40 78.18 0.65 c p3
254.68 79.49 0.65 c p3
254.96 78.50 0.65 c p3
255.24 77.19 0.65 c p3
255.52 77.52 0.65 c p3
255.80 75.89 0.65 c p3
256.08 77.52 0.65 c p3
256.36 77.52 0.65 c p3
256.64 77.85 0.65 c p3
256.92 76.87 0.65 c p3
257.20 77.85 0.65 c p3
257.48 77.52 0.65 c p3
257.76 76.54 0.65 c p3
258.04 76.21 0.65 c p3
258.32 75.89 0.65 c p3
258.60 76.21 0.65 c p3
258.88 74.97 0.65 c p3
259.16 79.16 0.65 c p3
259.44 75.89 0.65 c p3
259.72 77.52 0.65 c p3
260.00 77.19 0.65 c p3
260.28 76.54 0.65 c p3
260.56 76.21 0.65 c p3
260.84 75.89 0.65 c p3
261.12 78.18 0.65 c p3
261.40 78.18 0.65 c p3
261.68 77.19 0.65 c p3
261.96 75.89 0.65 c p3
262.24 74.97 0.65 c p3
262.52 73.99 0.65 c p3
262.80 75.89 0.65 c p3
263.08 76.54 0.65 c p3
263.36 76.54 0.65 c p3
263.64 77.19 0.65 c p3
263.92 74.97 0.65 c p3
264.20 74.64 0.65 c p3
264.48 73.67 0.65 c p3
264.76 74.64 0.65 c p3
265.04 75.24 0.65 c p3
265.32 76.21 0.65 c p3
265.60 74.64 0.65 c p3
265.88 73.99 0.65 c p3
266.16 75.24 0.65 c p3
266.44 75.56 0.65 c p3
266.72 75.24 0.65 c p3
267.00 74.64 0.65 c p3
267.28 73.99 0.65 c p3
267.56 75.89 0.65 c p3
267.84 76.21 0.65 c p3
268.12 75.24 0.65 c p3
268.40 76.54 0.65 c p3
268.68 74.64 0.65 c p3
268.96 74.64 0.65 c p3
269.24 74.64 0.65 c p3
269.52 73.67 0.65 c p3
269.80 74.32 0.65 c p3
270.08 75.89 0.65 c p3
270.36 72.70 0.65 c p3
270.64 74.32 0.65 c p3
270.92 73.35 0.65 c p3
271.20 74.64 0.65 c p3
271.48 75.24 0.65 c p3
271.76 75.56 0.65 c p3
272.04 73.99 0.65 c p3
272.32 74.64 0.65 c p3
272.60 74.64 0.65 c p3
272.88 74.32 0.65 c p3
273.16 73.35 0.65 c p3
273.44 73.67 0.65 c p3
273.72 73.35 0.65 c p3
274.00 73.35 0.65 c p3
274.28 75.89 0.65 c p3
274.56 73.67 0.65 c p3
274.84 73.67 0.65 c p3
275.12 72.70 0.65 c p3
275.40 74.32 0.65 c p3
275.68 72.70 0.65 c p3
275.96 71.41 0.65 c p3
276.24 72.70 0.65 c p3
276.52 72.06 0.65 c p3
276.80 72.06 0.65 c p3
277.08 73.35 0.65 c p3
277.36 73.35 0.65 c p3
277.64 75.24 0.65 c p3
277.92 73.02 0.65 c p3
278.20 73.99 0.65 c p3
278.48 72.70 0.65 c p3
278.76 73.02 0.65 c p3
279.04 73.67 0.65 c p3
279.32 72.70 0.65 c p3
279.60 73.02 0.65 c p3
279.88 73.67 0.65 c p3
280.16 71.09 0.65 c p3
280.44 73.02 0.65 c p3
280.72 73.99 0.65 c p3
281.00 74.32 0.65 c p3
281.28 73.02 0.65 c p3
281.56 73.35 0.65 c p3
281.84 72.06 0.65 c p3
282.12 73.67 0.65 c p3
282.40 71.09 0.65 c p3
282.68 71.09 0.65 c p3
282.96 71.09 0.65 c p3
283.24 72.38 0.65 c p3
283.52 71.73 0.65 c p3
283.80 72.06 0.65 c p3
284.08 72.06 0.65 c p3
284.36 73.99 0.65 c p3
284.64 70.77 0.65 c p3
284.92 70.13 0.65 c p3
285.20 72.38 0.65 c p3
285.48 70.13 0.65 c p3
285.76 73.67 0.65 c p3
286.04 70.77 0.65 c p3
286.32 71.73 0.65 c p3
286.60 70.45 0.65 c p3
286.88 71.09 0.65 c p3
287.16 72.70 0.65 c p3
287.44 71.41 0.65 c p3
287.72 71.41 0.65 c p3
288.00 72.06 0.65 c p3
288.28 70.77 0.65 c p3
288.56 71.41 0.65 c p3
288.84 70.45 0.65 c p3
289.12 71.41 0.65 c p3
289.40 69.17 0.65 c p3
289.68 71.09 0.65 c p3
289.96 70.77 0.65 c p3
290.24 70.77 0.65 c p3
290.52 72.06 0.65 c p3
290.80 73.02 0.65 c p3
291.08 72.38 0.65 c p3
291.36 70.45 0.65 c p3
291.64 69.81 0.65 c p3
291.92 69.81 0.65 c p3
292.20 70.13 0.65 c p3
292.48 69.17 0.65 c p3
292.76 68.85 0.65 c p3
293.04 71.41 0.65 c p3
293.32 69.81 0.65 c p3
293.60 67.58 0.65 c p3
293.88 69.17 0.65 c p3
294.16 69.49 0.65 c p3
294.44 69.17 0.65 c p3
294.72 70.13 0.65 c p3
295.00 72.70 0.65 c p3
295.28 68.85 0.65 c p3
295.56 69.81 0.65 c p3
295.84 71.09 0.65 c p3
296.12 70.45 0.65 c p3
296.40 68.85 0.65 c p3
296.68 69.81 0.65 c p3
296.96 70.45 0.65 c p3
297.24 72.38 0.65 c p3
297.52 71.41 0.65 c p3
297.80 71.41 0.65 c p3
298.08 71.09 0.65 c p3
298.36 68.85 0.65 c p3
298.64 68.85 0.65 c p3
298.92 67.90 0.65 c p3
299.20 68.22 0.65 c p3
299.48 70.77 0.65 c p3
299.76 69.17 0.65 c p3
300.04 69.49 0.65 c p3
300.32 69.49 0.65 c p3
300.60 67.27 0.65 c p3
300.88 70.77 0.65 c p3
301.16 67.27 0.65 c p3
301.44 69.17 0.65 c p3
301.72 70.77 0.65 c p3
302.00 71.41 0.65 c p3
302.28 70.77 0.65 c p3
302.56 69.81 0.65 c p3
302.84 66.95 0.65 c p3
303.12 68.85 0.65 c p3
303.40 68.22 0.65 c p3
303.68 66.95 0.65 c p3
303.96 70.77 0.65 c p3
304.24 69.17 0.65 c p3
304.52 66.63 0.65 c p3
304.80 71.09 0.65 c p3
305.08 65.11 0.65 c p3
305.36 67.58 0.65 c p3
305.64 68.85 0.65 c p3
305.92 69.17 0.65 c p3
306.20 69.49 0.65 c p3
306.48 68.54 0.65 c p3
306.76 68.85 0.65 c p3
307.04 65.74 0.65 c p3
307.32 66.95 0.65 c p3
307.60 69.49 0.65 c p3
307.88 69.17 0.65 c p3
308.16 67.58 0.65 c p3
308.44 69.17 0.65 c p3
308.72 68.22 0.65 c p3
309.00 69.81 0.65 c p3
309.28 69.17 0.65 c p3
309.56 66.37 0.65 c p3
309.84 69.81 0.65 c p3
310.12 70.13 0.65 c p3
310.40 67.27 0.65 c p3
310.68 65.74 0.65 c p3
310.96 67.90 0.65 c p3
311.24 68.54 0.65 c p3
311.52 67.27 0.65 c p3
311.80 68.22 0.65 c p3
312.08 67.90 0.65 c p3
312.36 66.63 0.65 c p3
312.64 67.27 0.65 c p3
312.92 68.22 0.65 c p3
313.20 66.63 0.65 c p3
313.48 69.17 0.65 c p3
313.76 67.58 0.65 c p3
314.04 66.37 0.65 c p3
314.32 67.58 0.65 c p3
314.60 68.54 0.65 c p3
314.88 67.27 0.65 c p3
315.16 67.27 0.65 c p3
315.44 69.17 0.65 c p3
315.72 66.95 0.65 c p3
316.00 67.58 0.65 c p3
316.28 64.79 0.65 c p3
316.56 68.54 0.65 c p3
316.84 67.27 0.65 c p3
317.12 67.90 0.65 c p3
317.40 66.95 0.65 c p3
317.68 66.95 0.65 c p3
317.96 66.95 0.65 c p3
318.24 67.27 0.65 c p3
318.52 66.63 0.65 c p3
318.80 66.95 0.65 c p3
319.08 67.90 0.65 c p3
216.00 201.60 367.20 247.68 cl
0 0 0 srgb
0.75 setlinewidth
[] 0 setdash
1 setlinecap
1 setlinejoin
10.00 setmiterlimit
221.60 222.72 0.43 c p1
221.78 225.96 0.43 c p1
221.96 238.86 0.43 c p1
222.14 230.01 0.43 c p1
222.32 227.24 0.43 c p1
222.50 234.01 0.43 c p1
222.68 228.85 0.43 c p1
222.86 224.94 0.43 c p1
223.04 222.42 0.43 c p1
223.22 224.38 0.43 c p1
223.40 228.66 0.43 c p1
223.58 224.78 0.43 c p1
223.76 230.19 0.43 c p1
223.94 222.87 0.43 c p1
224.12 230.54 0.43 c p1
224.30 228.97 0.43 c p1
224.48 219.45 0.43 c p1
224.66 225.87 0.43 c p1
224.83 231.17 0.43 c p1
225.01 226.19 0.43 c p1
225.19 225.78 0.43 c p1
225.37 224.24 0.43 c p1
225.55 233.99 0.43 c p1
225.73 226.78 0.43 c p1
225.91 219.87 0.43 c p1
226.09 226.12 0.43 c p1
226.27 226.80 0.43 c p1
226.45 224.16 0.43 c p1
226.63 224.84 0.43 c p1
226.81 224.40 0.43 c p1
226.99 223.97 0.43 c p1
227.17 225.73 0.43 c p1
227.35 218.78 0.43 c p1
227.53 225.93 0.43 c p1
227.71 233.12 0.43 c p1
227.89 221.80 0.43 c p1
228.07 224.58 0.43 c p1
228.25 227.36 0.43 c p1
228.43 230.13 0.43 c p1
228.61 226.43 0.43 c p1
228.79 220.82 0.43 c p1
228.97 228.70 0.43 c p1
229.15 225.21 0.43 c p1
229.33 223.68 0.43 c p1
229.51 229.56 0.43 c p1
229.69 229.07 0.43 c p1
229.87 224.37 0.43 c p1
230.05 222.85 0.43 c p1
230.23 226.55 0.43 c p1
230.41 220.86 0.43 c p1
230.59 224.52 0.43 c p1
230.77 220.94 0.43 c p1
230.95 219.43 0.43 c p1
231.13 221.00 0.43 c p1
231.30 227.70 0.43 c p1
231.48 218.16 0.43 c p1
231.66 222.59 0.43 c p1
231.84 223.27 0.43 c p1
232.02 225.65 0.43 c p1
232.20 223.28 0.43 c p1
232.38 225.80 0.43 c p1
232.56 226.29 0.43 c p1
232.74 226.78 0.43 c p1
232.92 224.24 0.43 c p1
233.10 223.71 0.43 c p1
233.28 224.19 0.43 c p1
233.46 229.67 0.43 c p1
233.64 227.12 0.43 c p1
233.82 218.64 0.43 c p1
234.00 225.03 0.43 c p1
234.18 230.45 0.43 c p1
234.36 221.97 0.43 c p1
234.54 215.74 0.43 c p1
234.72 223.83 0.43 c p1
234.90 227.21 0.43 c p1
235.08 219.00 0.43 c p1
235.26 216.53 0.43 c p1
235.44 219.85 0.43 c p1
235.62 231.79 0.43 c p1
235.80 224.54 0.43 c p1
235.98 225.91 0.43 c p1
236.16 224.37 0.43 c p1
236.34 224.76 0.43 c p1
236.52 224.18 0.43 c p1
236.70 220.73 0.43 c p1
236.88 226.85 0.43 c p1
237.06 232.04 0.43 c p1
237.24 225.67 0.43 c p1
237.42 221.28 0.43 c p1
237.59 225.43 0.43 c p1
237.77 225.78 0.43 c p1
237.95 222.35 0.43 c p1
238.13 223.63 0.43 c p1
238.31 223.97 0.43 c p1
238.49 224.31 0.43 c p1
238.67 222.92 0.43 c p1
238.85 215.82 0.43 c p1
239.03 219.85 0.43 c p1
239.21 222.95 0.43 c p1
239.39 220.49 0.43 c p1
239.57 221.72 0.43 c p1
239.75 229.46 0.43 c p1
239.93 225.10 0.43 c p1
240.11 218.04 0.43 c p1
240.29 218.34 0.43 c p1
240.47 226.89 0.43 c p1
240.65 227.17 0.43 c p1
240.83 225.60 0.43 c p1
241.01 222.22 0.43 c p1
241.19 227.97 0.43 c p1
241.37 225.48 0.43 c p1
241.55 215.05 0.43 c p1
241.73 221.46 0.43 c p1
241.91 220.97 0.43 c p1
242.09 223.77 0.43 c p1
242.27 221.47 0.43 c p1
242.45 225.16 0.43 c p1
242.63 224.64 0.43 c p1
242.81 222.18 0.43 c p1
242.99 221.52 0.43 c p1
243.17 221.74 0.43 c p1
243.35 226.43 0.43 c p1
243.53 220.41 0.43 c p1
243.71 221.51 0.43 c p1
243.88 227.05 0.43 c p1
244.06 226.36 0.43 c p1
244.24 223.90 0.43 c p1
244.42 219.69 0.43 c p1
244.60 219.89 0.43 c p1
244.78 227.11 0.43 c p1
244.96 220.27 0.43 c p1
245.14 223.08 0.43 c p1
245.32 227.64 0.43 c p1
245.50 227.81 0.43 c p1
245.68 218.53 0.43 c p1
245.86 222.89 0.43 c p1
246.04 225.66 0.43 c p1
246.22 221.62 0.43 c p1
246.40 220.91 0.43 c p1
246.58 226.11 0.43 c p1
246.76 229.73 0.43 c p1
246.94 223.08 0.43 c p1
247.12 221.50 0.43 c p1
247.30 223.36 0.43 c p1
247.48 223.49 0.43 c p1
247.66 222.76 0.43 c p1
247.84 222.88 0.43 c p1
248.02 225.57 0.43 c p1
248.20 226.54 0.43 c p1
248.38 225.79 0.43 c p1
248.56 222.50 0.43 c p1
248.74 222.61 0.43 c p1
248.92 222.71 0.43 c p1
249.10 222.81 0.43 c p1
249.28 217.16 0.43 c p1
249.46 223.84 0.43 c p1
249.64 218.20 0.43 c p1
249.82 220.66 0.43 c p1
250.00 220.88 0.43 c p1
250.18 225.01 0.43 c p1
250.35 221.88 0.43 c p1
250.53 219.45 0.43 c p1
250.71 221.19 0.43 c p1
250.89 224.59 0.43 c p1
251.07 226.32 0.43 c p1
251.25 223.04 0.43 c p1
251.43 223.93 0.43 c p1
251.61 224.81 0.43 c p1
251.79 225.68 0.43 c p1
251.97 217.49 0.43 c p1
252.15 220.81 0.43 c p1
252.33 229.95 0.43 c p1
252.51 222.54 0.43 c p1
252.69 222.57 0.43 c p1
252.87 222.60 0.43 c p1
253.05 225.91 0.43 c p1
253.23 221.02 0.43 c p1
253.41 221.04 0.43 c p1
253.59 219.44 0.43 c p1
253.77 229.26 0.43 c p1
253.95 224.34 0.43 c p1
254.13 219.48 0.43 c p1
254.31 225.17 0.43 c p1
254.49 225.98 0.43 c p1
254.67 222.73 0.43 c p1
254.85 222.73 0.43 c p1
255.03 222.05 0.43 c p1
255.21 223.65 0.43 c p1
255.39 222.83 0.43 c p1
255.57 225.23 0.43 c p1
255.75 225.21 0.43 c p1
255.93 229.90 0.43 c p1
256.11 224.35 0.43 c p1
256.29 220.32 0.43 c p1
256.47 224.29 0.43 c p1
256.64 223.45 0.43 c p1
256.82 220.23 0.43 c p1
257.00 219.40 0.43 c p1
257.18 221.74 0.43 c p1
257.36 228.07 0.43 c p1
257.54 219.28 0.43 c p1
257.72 223.98 0.43 c p1
257.90 220.76 0.43 c p1
258.08 226.25 0.43 c p1
258.26 224.60 0.43 c p1
258.44 219.80 0.43 c p1
258.62 222.10 0.43 c p1
258.80 229.15 0.43 c p1
258.98 221.18 0.43 c p1
259.16 221.89 0.43 c p1
259.34 221.82 0.43 c p1
259.52 226.45 0.43 c p1
259.70 227.15 0.43 c p1
259.88 222.36 0.43 c p1
260.06 226.97 0.43 c p1
260.24 226.88 0.43 c p1
260.42 223.00 0.43 c p1
260.60 216.71 0.43 c p1
260.78 221.26 0.43 c p1
260.96 225.04 0.43 c p1
261.14 224.16 0.43 c p1
261.32 221.73 0.43 c p1
261.50 227.84 0.43 c p1
261.68 223.06 0.43 c p1
261.86 222.18 0.43 c p1
262.04 222.83 0.43 c p1
262.22 225.81 0.43 c p1
262.40 225.69 0.43 c p1
262.58 221.71 0.43 c p1
262.76 221.58 0.43 c p1
262.94 223.76 0.43 c p1
263.11 218.28 0.43 c p1
263.29 225.80 0.43 c p1
263.47 221.07 0.43 c p1
263.65 225.53 0.43 c p1
263.83 226.15 0.43 c p1
264.01 222.18 0.43 c p1
264.19 222.04 0.43 c p1
264.37 228.01 0.43 c p1
264.55 223.26 0.43 c p1
264.73 220.08 0.43 c p1
264.91 222.20 0.43 c p1
265.09 224.32 0.43 c p1
265.27 226.45 0.43 c p1
265.45 223.24 0.43 c p1
265.63 224.59 0.43 c p1
265.81 225.95 0.43 c p1
265.99 222.12 0.43 c p1
266.17 221.20 0.43 c p1
266.35 221.03 0.43 c p1
266.53 226.76 0.43 c p1
266.71 222.94 0.43 c p1
266.89 222.76 0.43 c p1
267.07 221.83 0.43 c p1
267.25 228.29 0.43 c p1
267.43 222.96 0.43 c p1
267.61 219.78 0.43 c p1
267.79 221.83 0.43 c p1
267.97 223.89 0.43 c p1
268.15 222.94 0.43 c p1
268.33 225.74 0.43 c p1
268.51 221.06 0.43 c p1
268.69 226.83 0.43 c p1
268.87 222.89 0.43 c p1
269.05 218.24 0.43 c p1
269.23 216.57 0.43 c p1
269.40 227.49 0.43 c p1
269.58 225.78 0.43 c p1
269.76 226.31 0.43 c p1
269.94 229.83 0.43 c p1
270.12 228.11 0.43 c p1
270.30 229.37 0.43 c p1
270.48 224.68 0.43 c p1
270.66 223.72 0.43 c p1
270.84 227.94 0.43 c p1
271.02 222.53 0.43 c p1
271.20 223.77 0.43 c p1
271.38 226.50 0.43 c p1
271.56 228.48 0.43 c p1
271.74 226.02 0.43 c p1
271.92 222.84 0.43 c p1
272.10 222.60 0.43 c p1
272.28 225.30 0.43 c p1
272.46 228.74 0.43 c p1
272.64 224.80 0.43 c p1
272.82 222.48 0.43 c p1
273.00 230.93 0.43 c p1
273.18 224.79 0.43 c p1
273.36 218.83 0.43 c p1
273.54 221.48 0.43 c p1
273.72 225.61 0.43 c p1
273.90 224.61 0.43 c p1
274.08 225.81 0.43 c p1
274.26 225.55 0.43 c p1
274.44 229.55 0.43 c p1
274.62 225.02 0.43 c p1
274.80 220.40 0.43 c p1
274.98 226.66 0.43 c p1
275.16 227.12 0.43 c p1
275.34 223.93 0.43 c p1
275.52 224.38 0.43 c p1
275.69 229.93 0.43 c p1
275.87 228.91 0.43 c p1
276.05 222.11 0.43 c p1
276.23 226.16 0.43 c p1
276.41 222.27 0.43 c p1
276.59 227.04 0.43 c p1
276.77 226.75 0.43 c p1
276.95 220.70 0.43 c p1
277.13 229.78 0.43 c p1
277.31 227.31 0.43 c p1
277.49 226.29 0.43 c p1
277.67 226.72 0.43 c p1
277.85 227.86 0.43 c p1
278.03 226.12 0.43 c p1
278.21 220.80 0.43 c p1
278.39 225.51 0.43 c p1
278.57 228.08 0.43 c p1
278.75 227.05 0.43 c p1
278.93 223.16 0.43 c p1
279.11 227.87 0.43 c p1
279.29 225.40 0.43 c p1
279.47 227.24 0.43 c p1
279.65 231.96 0.43 c p1
279.83 229.48 0.43 c p1
280.01 225.57 0.43 c p1
280.19 225.25 0.43 c p1
280.37 227.79 0.43 c p1
280.55 223.90 0.43 c p1
280.73 225.00 0.43 c p1
280.91 225.39 0.43 c p1
281.09 224.35 0.43 c p1
281.27 230.44 0.43 c p1
281.45 225.83 0.43 c p1
281.63 229.77 0.43 c p1
281.81 225.87 0.43 c p1
281.99 226.96 0.43 c p1
282.16 225.32 0.43 c p1
282.34 224.27 0.43 c p1
282.52 226.77 0.43 c p1
282.70 231.29 0.43 c p1
282.88 225.38 0.43 c p1
283.06 225.74 0.43 c p1
283.24 226.10 0.43 c p1
283.42 227.17 0.43 c p1
283.60 226.12 0.43 c p1
283.78 225.06 0.43 c p1
283.96 228.95 0.43 c p1
284.14 225.07 0.43 c p1
284.32 223.31 0.43 c p1
284.50 222.96 0.43 c p1
284.68 227.52 0.43 c p1
284.86 223.65 0.43 c p1
285.04 221.90 0.43 c p1
285.22 220.84 0.43 c p1
285.40 231.72 0.43 c p1
285.58 224.32 0.43 c p1
285.76 224.66 0.43 c p1
285.94 229.91 0.43 c p1
286.12 224.63 0.43 c p1
286.30 229.17 0.43 c p1
286.48 226.69 0.43 c p1
286.66 229.83 0.43 c p1
286.84 226.64 0.43 c p1
287.02 228.37 0.43 c p1
287.20 224.50 0.43 c p1
287.38 224.82 0.43 c p1
287.56 226.54 0.43 c p1
287.74 225.46 0.43 c p1
287.92 223.69 0.43 c p1
288.10 226.10 0.43 c p1
288.28 221.55 0.43 c p1
288.45 221.86 0.43 c p1
288.63 226.34 0.43 c p1
288.81 229.44 0.43 c p1
288.99 224.87 0.43 c p1
289.17 221.72 0.43 c p1
289.35 224.10 0.43 c p1
289.53 227.18 0.43 c p1
289.71 224.01 0.43 c p1
289.89 223.62 0.43 c p1
290.07 228.77 0.43 c p1
290.25 229.07 0.43 c p1
290.43 226.59 0.43 c p1
290.61 221.48 0.43 c p1
290.79 230.65 0.43 c p1
290.97 229.55 0.43 c p1
291.15 223.73 0.43 c p1
291.33 226.66 0.43 c p1
291.51 227.64 0.43 c p1
291.69 224.59 0.43 c p1
291.87 228.90 0.43 c p1
292.05 222.41 0.43 c p1
292.23 222.69 0.43 c p1
292.41 223.65 0.43 c p1
292.59 226.00 0.43 c p1
292.77 226.27 0.43 c p1
292.95 231.96 0.43 c p1
293.13 224.76 0.43 c p1
293.31 225.72 0.43 c p1
293.49 223.25 0.43 c p1
293.67 226.95 0.43 c p1
293.85 223.79 0.43 c p1
294.03 227.48 0.43 c p1
294.21 227.06 0.43 c p1
294.39 226.64 0.43 c p1
294.57 226.22 0.43 c p1
294.75 221.02 0.43 c p1
294.92 226.06 0.43 c p1
295.10 226.32 0.43 c p1
295.28 224.52 0.43 c p1
295.46 226.15 0.43 c p1
295.64 222.99 0.43 c p1
295.82 230.09 0.43 c p1
296.00 226.23 0.43 c p1
296.18 223.75 0.43 c p1
296.36 230.84 0.43 c p1
296.54 226.29 0.43 c p1
296.72 228.59 0.43 c p1
296.90 224.74 0.43 c p1
297.08 228.40 0.43 c p1
297.26 225.91 0.43 c p1
297.44 224.12 0.43 c p1
297.62 225.04 0.43 c p1
297.80 227.32 0.43 c p1
297.98 222.81 0.43 c p1
298.16 224.40 0.43 c p1
298.34 225.32 0.43 c p1
298.52 225.55 0.43 c p1
298.70 226.46 0.43 c p1
298.88 225.34 0.43 c p1
299.06 222.87 0.43 c p1
299.24 230.57 0.43 c p1
299.42 229.43 0.43 c p1
299.60 223.56 0.43 c p1
299.78 226.49 0.43 c p1
299.96 229.43 0.43 c p1
300.14 226.94 0.43 c p1
300.32 225.13 0.43 c p1
300.50 226.03 0.43 c p1
300.68 226.25 0.43 c p1
300.86 221.76 0.43 c p1
301.04 223.32 0.43 c p1
301.21 228.95 0.43 c p1
301.39 221.74 0.43 c p1
301.57 230.06 0.43 c p1
301.75 228.24 0.43 c p1
301.93 225.75 0.43 c p1
302.11 223.94 0.43 c p1
302.29 227.53 0.43 c p1
302.47 224.37 0.43 c p1
302.65 230.66 0.43 c p1
302.83 231.54 0.43 c p1
303.01 228.36 0.43 c p1
303.19 228.57 0.43 c p1
303.37 227.42 0.43 c p1
303.55 225.61 0.43 c p1
303.73 224.47 0.43 c p1
303.91 222.78 0.43 c p1
304.09 228.91 0.43 c p1
304.27 223.73 0.43 c p1
304.45 225.27 0.43 c p1
304.63 222.91 0.43 c p1
304.81 232.41 0.43 c p1
304.99 225.87 0.43 c p1
305.17 226.06 0.43 c p1
305.35 225.59 0.43 c p1
305.53 227.12 0.43 c p1
305.71 225.30 0.43 c p1
305.89 227.50 0.43 c p1
306.07 225.13 0.43 c p1
306.25 227.88 0.43 c p1
306.43 224.17 0.43 c p1
306.61 223.69 0.43 c p1
306.79 223.21 0.43 c p1
306.97 229.98 0.43 c p1
307.15 226.81 0.43 c p1
307.33 226.44 0.43 c p1
307.51 229.86 0.43 c p1
307.68 224.80 0.43 c p1
307.86 221.65 0.43 c p1
308.04 225.83 0.43 c p1
308.22 224.67 0.43 c p1
308.40 226.85 0.43 c p1
308.58 225.69 0.43 c p1
308.76 227.20 0.43 c p1
308.94 227.38 0.43 c p1
309.12 222.23 0.43 c p1
309.30 225.73 0.43 c p1
309.48 225.24 0.43 c p1
309.66 224.74 0.43 c p1
309.84 222.93 0.43 c p1
310.02 225.09 0.43 c p1
310.20 227.92 0.43 c p1
310.38 229.98 0.43 c p1
310.56 227.59 0.43 c p1
310.74 223.11 0.43 c p1
310.92 224.60 0.43 c p1
311.10 224.10 0.43 c p1
311.28 227.59 0.43 c p1
311.46 227.09 0.43 c p1
311.64 226.58 0.43 c p1
311.82 225.42 0.43 c p1
312.00 226.24 0.43 c p1
312.18 226.40 0.43 c p1
312.36 227.23 0.43 c p1
312.54 228.05 0.43 c p1
312.72 229.54 0.43 c p1
312.90 226.37 0.43 c p1
313.08 228.52 0.43 c p1
313.26 228.68 0.43 c p1
313.44 224.19 0.43 c p1
313.62 228.99 0.43 c p1
313.80 225.82 0.43 c p1
313.97 227.30 0.43 c p1
314.15 224.15 0.43 c p1
314.33 225.62 0.43 c p1
314.51 231.75 0.43 c p1
314.69 225.26 0.43 c p1
314.87 230.71 0.43 c p1
315.05 225.55 0.43 c p1
315.23 222.41 0.43 c p1
315.41 223.21 0.43 c p1
315.59 222.70 0.43 c p1
315.77 227.46 0.43 c p1
315.95 226.28 0.43 c p1
316.13 226.43 0.43 c p1
316.31 225.91 0.43 c p1
316.49 224.73 0.43 c p1
316.67 226.85 0.43 c p1
316.85 230.30 0.43 c p1
317.03 226.47 0.43 c p1
317.21 225.96 0.43 c p1
317.39 231.39 0.43 c p1
317.57 226.89 0.43 c p1
317.75 229.01 0.43 c p1
317.93 227.82 0.43 c p1
318.11 225.32 0.43 c p1
318.29 224.80 0.43 c p1
318.47 229.55 0.43 c p1
318.65 227.05 0.43 c p1
318.83 223.89 0.43 c p1
319.01 226.65 0.43 c p1
319.19 221.54 0.43 c p1
319.37 227.57 0.43 c p1
319.55 223.11 0.43 c p1
319.73 225.86 0.43 c p1
319.91 227.30 0.43 c p1
320.09 226.12 0.43 c p1
320.26 228.88 0.43 c p1
320.44 227.03 0.43 c p1
320.62 224.53 0.43 c p1
320.80 225.31 0.43 c p1
320.98 222.17 0.43 c p1
321.16 225.56 0.43 c p1
321.34 225.69 0.43 c p1
321.52 226.47 0.43 c p1
321.70 224.62 0.43 c p1
321.88 226.71 0.43 c p1
322.06 226.18 0.43 c p1
322.24 224.33 0.43 c p1
322.42 223.80 0.43 c p1
322.60 223.27 0.43 c p1
322.78 224.04 0.43 c p1
322.96 221.66 0.43 c p1
323.14 230.18 0.43 c p1
323.32 223.74 0.43 c p1
323.50 227.13 0.43 c p1
323.68 226.59 0.43 c p1
323.86 225.40 0.43 c p1
324.04 224.86 0.43 c p1
324.22 224.32 0.43 c p1
324.40 229.02 0.43 c p1
324.58 229.13 0.43 c p1
324.76 227.27 0.43 c p1
324.94 224.77 0.43 c p1
325.12 223.04 0.43 c p1
325.30 221.20 0.43 c p1
325.48 225.10 0.43 c p1
325.66 226.52 0.43 c p1
325.84 226.63 0.43 c p1
326.02 228.05 0.43 c p1
326.20 223.70 0.43 c p1
326.38 223.15 0.43 c p1
326.56 221.32 0.43 c p1
326.73 223.37 0.43 c p1
326.91 224.67 0.43 c p1
327.09 226.73 0.43 c p1
327.27 223.68 0.43 c p1
327.45 222.49 0.43 c p1
327.63 225.09 0.43 c p1
327.81 225.84 0.43 c p1
327.99 225.29 0.43 c p1
328.17 224.20 0.43 c p1
328.35 223.01 0.43 c p1
328.53 226.90 0.43 c p1
328.71 227.65 0.43 c p1
328.89 225.80 0.43 c p1
329.07 228.51 0.43 c p1
329.25 224.80 0.43 c p1
329.43 224.90 0.43 c p1
329.61 225.00 0.43 c p1
329.79 223.16 0.43 c p1
329.97 224.55 0.43 c p1
330.15 227.79 0.43 c p1
330.33 221.51 0.43 c p1
330.51 224.84 0.43 c p1
330.69 222.99 0.43 c p1
330.87 225.68 0.43 c p1
331.05 226.96 0.43 c p1
331.23 227.71 0.43 c p1
331.41 224.66 0.43 c p1
331.59 226.05 0.43 c p1
331.77 226.14 0.43 c p1
331.95 225.59 0.43 c p1
332.13 223.74 0.43 c p1
332.31 224.47 0.43 c p1
332.49 223.92 0.43 c p1
332.67 224.01 0.43 c p1
332.85 229.18 0.43 c p1
333.02 224.83 0.43 c p1
333.20 224.92 0.43 c p1
333.38 223.07 0.43 c p1
333.56 226.40 0.43 c p1
333.74 223.25 0.43 c p1
333.92 220.76 0.43 c p1
334.10 223.42 0.43 c p1
334.28 222.22 0.43 c p1
334.46 222.30 0.43 c p1
334.64 224.97 0.43 c p1
334.82 225.06 0.43 c p1
335.00 228.93 0.43 c p1
335.18 224.58 0.43 c p1
335.36 226.60 0.43 c p1
335.54 224.10 0.43 c p1
335.72 224.83 0.43 c p1
335.90 226.20 0.43 c p1
336.08 224.35 0.43 c p1
336.26 225.07 0.43 c p1
336.44 226.45 0.43 c p1
336.62 221.37 0.43 c p1
336.80 225.32 0.43 c p1
336.98 227.34 0.43 c p1
337.16 228.07 0.43 c p1
337.34 225.55 0.43 c p1
337.52 226.28 0.43 c p1
337.70 223.78 0.43 c p1
337.88 227.08 0.43 c p1
338.06 222.00 0.43 c p1
338.24 222.08 0.43 c p1
338.42 222.16 0.43 c p1
338.60 224.81 0.43 c p1
338.78 223.59 0.43 c p1
338.96 224.31 0.43 c p1
339.14 224.39 0.43 c p1
339.32 228.34 0.43 c p1
339.49 221.97 0.43 c p1
339.67 220.76 0.43 c p1
339.85 225.33 0.43 c p1
340.03 220.91 0.43 c p1
340.21 228.06 0.43 c p1
340.39 222.33 0.43 c p1
340.57 224.33 0.43 c p1
340.75 221.84 0.43 c p1
340.93 223.19 0.43 c p1
341.11 226.48 0.43 c p1
341.29 223.98 0.43 c p1
341.47 224.05 0.43 c p1
341.65 225.40 0.43 c p1
341.83 222.90 0.43 c p1
342.01 224.26 0.43 c p1
342.19 222.40 0.43 c p1
342.37 224.39 0.43 c p1
342.55 219.98 0.43 c p1
342.73 223.89 0.43 c p1
342.91 223.31 0.43 c p1
343.09 223.38 0.43 c p1
343.27 226.02 0.43 c p1
343.45 228.02 0.43 c p1
343.63 226.80 0.43 c p1
343.81 223.01 0.43 c p1
343.99 221.79 0.43 c p1
344.17 221.85 0.43 c p1
344.35 222.56 0.43 c p1
344.53 220.71 0.43 c p1
344.71 220.13 0.43 c p1
344.89 225.32 0.43 c p1
345.07 222.18 0.43 c p1
345.25 217.78 0.43 c p1
345.43 221.03 0.43 c p1
345.61 221.73 0.43 c p1
345.78 221.15 0.43 c p1
345.96 223.13 0.43 c p1
346.14 228.34 0.43 c p1
346.32 220.70 0.43 c p1
346.50 222.67 0.43 c p1
346.68 225.30 0.43 c p1
346.86 224.08 0.43 c p1
347.04 220.94 0.43 c p1
347.22 222.92 0.43 c p1
347.40 224.26 0.43 c p1
347.58 228.17 0.43 c p1
347.76 226.30 0.43 c p1
347.94 226.36 0.43 c p1
348.12 225.78 0.43 c p1
348.30 221.35 0.43 c p1
348.48 221.41 0.43 c p1
348.66 219.56 0.43 c p1
348.84 220.25 0.43 c p1
349.02 225.42 0.43 c p1
349.20 222.28 0.43 c p1
349.38 222.97 0.43 c p1
349.56 223.03 0.43 c p1
349.74 218.63 0.43 c p1
349.92 225.70 0.43 c p1
350.10 218.74 0.43 c p1
350.28 222.61 0.43 c p1
350.46 225.87 0.43 c p1
350.64 227.21 0.43 c p1
350.82 225.98 0.43 c p1
351.00 224.11 0.43 c p1
351.18 218.43 0.43 c p1
351.36 222.30 0.43 c p1
351.54 221.08 0.43 c p1
351.72 218.59 0.43 c p1
351.90 226.30 0.43 c p1
352.07 223.15 0.43 c p1
352.25 218.11 0.43 c p1
352.43 227.09 0.43 c p1
352.61 215.16 0.43 c p1
352.79 220.17 0.43 c p1
352.97 222.77 0.43 c p1
353.15 223.46 0.43 c p1
353.33 224.15 0.43 c p1
353.51 222.28 0.43 c p1
353.69 222.97 0.43 c p1
353.87 216.78 0.43 c p1
354.05 219.25 0.43 c p1
354.23 224.39 0.43 c p1
354.41 223.80 0.43 c p1
354.59 220.67 0.43 c p1
354.77 223.90 0.43 c p1
354.95 222.04 0.43 c p1
355.13 225.28 0.43 c p1
355.31 224.05 0.43 c p1
355.49 218.48 0.43 c p1
355.67 225.42 0.43 c p1
355.85 226.10 0.43 c p1
356.03 220.41 0.43 c p1
356.21 217.40 0.43 c p1
356.39 221.78 0.43 c p1
356.57 223.10 0.43 c p1
356.75 220.60 0.43 c p1
356.93 222.55 0.43 c p1
357.11 221.96 0.43 c p1
357.29 219.47 0.43 c p1
357.47 220.78 0.43 c p1
357.65 222.73 0.43 c p1
357.83 219.60 0.43 c p1
358.01 224.73 0.43 c p1
358.19 221.59 0.43 c p1
358.37 219.21 0.43 c p1
358.54 221.68 0.43 c p1
358.72 223.63 0.43 c p1
358.90 221.13 0.43 c p1
359.08 221.18 0.43 c p1
359.26 225.04 0.43 c p1
359.44 220.63 0.43 c p1
359.62 221.94 0.43 c p1
359.80 216.40 0.43 c p1
359.98 223.93 0.43 c p1
360.16 221.43 0.43 c p1
360.34 222.74 0.43 c p1
360.52 220.88 0.43 c p1
360.70 220.92 0.43 c p1
360.88 220.96 0.43 c p1
361.06 221.63 0.43 c p1
361.24 220.41 0.43 c p1
361.42 221.08 0.43 c p1
361.60 223.03 0.43 c p1
0.00 0.00 432.00 576.00 cl
0 0 0 srgb
0.75 setlinewidth
[] 0 setdash
1 setlinecap
1 setlinejoin
10.00 setmiterlimit
np
219.44 201.60 m
143.78 0 l
o
np
219.44 201.60 m
0 -5.76 l
o
np
255.39 201.60 m
0 -5.76 l
o
np
291.33 201.60 m
0 -5.76 l
o
np
327.27 201.60 m
0 -5.76 l
o
np
363.22 201.60 m
0 -5.76 l
o
/Font1 findfont 6 s
219.44 185.47 (0) .5 0 t
255.39 185.47 (500) .5 0 t
291.33 185.47 (1000) .5 0 t
327.27 185.47 (1500) .5 0 t
363.22 185.47 (2000) .5 0 t
np
216.00 202.97 m
0 43.34 l
o
np
216.00 202.97 m
-5.76 0 l
o
np
216.00 210.19 m
-5.76 0 l
o
np
216.00 217.42 m
-5.76 0 l
o
np
216.00 224.64 m
-5.76 0 l
o
np
216.00 231.86 m
-5.76 0 l
o
np
216.00 239.09 m
-5.76 0 l
o
np
216.00 246.31 m
-5.76 0 l
o
209.09 200.81 (-0.015) 1 0 t
209.09 208.04 (-0.010) 1 0 t
209.09 215.26 (-0.005) 1 0 t
209.09 222.49 (0.000) 1 0 t
209.09 229.71 (0.005) 1 0 t
209.09 236.93 (0.010) 1 0 t
209.09 244.16 (0.015) 1 0 t
np
216.00 201.60 m
151.20 0 l
0 46.08 l
-151.20 0 l
0 -46.08 l
o
0.00 0.00 432.00 576.00 cl
/Font1 findfont 9 s
0 0 0 srgb
291.60 262.88 (Residuals) .5 0 t
59.04 73.44 401.76 516.96 cl
ep
%%Trailer
%%Pages: 1
%%EOF
