%!PS-Adobe-3.0 EPSF-3.0
%%DocumentNeededResources: font Helvetica
%%+ font Helvetica-Bold
%%+ font Helvetica-Oblique
%%+ font Helvetica-BoldOblique
%%+ font Symbol
%%Title: R Graphics Output
%%Creator: R Software
%%Pages: (atend)
%%BoundingBox: 0 0 432 576
%%EndComments
%%BeginProlog
/bp  { gs sRGB gs } def
% begin .ps.prolog
/gs  { gsave } bind def
/gr  { grestore } bind def
/ep  { showpage gr gr } bind def
/m   { moveto } bind def
/l  { rlineto } bind def
/np  { newpath } bind def
/cp  { closepath } bind def
/f   { fill } bind def
/o   { stroke } bind def
/c   { newpath 0 360 arc } bind def
/r   { 4 2 roll moveto 1 copy 3 -1 roll exch 0 exch rlineto 0 rlineto -1 mul 0 exch rlineto closepath } bind def
/p1  { stroke } bind def
/p2  { gsave bg fill grestore newpath } bind def
/p3  { gsave bg fill grestore stroke } bind def
/p6  { gsave bg eofill grestore newpath } bind def
/p7  { gsave bg eofill grestore stroke } bind def
/t   { 5 -2 roll moveto gsave rotate
       1 index stringwidth pop
       mul neg 0 rmoveto show grestore } bind def
/ta  { 4 -2 roll moveto gsave rotate show } bind def
/tb  { 2 -1 roll 0 rmoveto show } bind def
/cl  { grestore gsave newpath 3 index 3 index moveto 1 index
       4 -1 roll lineto  exch 1 index lineto lineto
       closepath clip newpath } bind def
/rgb { setrgbcolor } bind def
/s   { scalefont setfont } bind def
% end   .ps.prolog
/sRGB { [ /CIEBasedABC
          << /DecodeLMN
               [ { dup 0.03928 le
                        {12.92321 div}
                        {0.055 add 1.055 div 2.4 exp }
                     ifelse
                 } bind dup dup
               ]
             /MatrixLMN [0.412457 0.212673 0.019334
                         0.357576 0.715152 0.119192
                         0.180437 0.072175 0.950301]
             /WhitePoint [0.9505 1.0 1.0890]
           >>
         ] setcolorspace } bind def
/srgb { setcolor } bind def
% begin encoding
/WinAnsiEncoding [
 /.notdef /.notdef /.notdef /.notdef /.notdef /.notdef /.notdef /.notdef
 /.notdef /.notdef /.notdef /.notdef /.notdef /.notdef /.notdef /.notdef
 /.notdef /.notdef /.notdef /.notdef /.notdef /.notdef /.notdef /.notdef
 /.notdef /.notdef /.notdef /.notdef /.notdef /.notdef /.notdef /.notdef
 /space /exclam /quotedbl /numbersign /dollar /percent /ampersand /quoteright
 /parenleft /parenright /asterisk /plus /comma /minus /period /slash
 /zero /one /two /three /four /five /six /seven
 /eight /nine /colon /semicolon /less /equal /greater /question
 /at /A /B /C /D /E /F /G
 /H /I /J /K /L /M /N /O
 /P /Q /R /S /T /U /V /W
 /X /Y /Z /bracketleft /backslash /bracketright /asciicircum /underscore
 /grave /a /b /c /d /e /f /g
 /h /i /j /k /l /m /n /o
 /p /q /r /s /t /u /v /w
 /x /y /z /braceleft /bar /braceright /asciitilde /.notdef
 /Euro /.notdef /quotesinglbase /florin /quotedblbase /ellipsis /dagger /daggerdbl
 /circumflex /perthousand /Scaron /guilsinglleft /OE /.notdef /Zcaron /.notdef
 /.notdef /quoteleft /quoteright /quotedblleft /quotedblright /bullet /endash /emdash
 /tilde /trademark /scaron /guilsinglright /oe /.notdef /zcaron /Ydieresis
 /space /exclamdown /cent /sterling /currency /yen /brokenbar /section
 /dieresis /copyright /ordfeminine /guillemotleft /logicalnot /hyphen /registered /macron
 /degree /plusminus /twosuperior /threesuperior /acute /mu /paragraph /periodcentered
 /cedilla /onesuperior /ordmasculine /guillemotright /onequarter /onehalf /threequarters /questiondown
 /Agrave /Aacute /Acircumflex /Atilde /Adieresis /Aring /AE /Ccedilla
 /Egrave /Eacute /Ecircumflex /Edieresis /Igrave /Iacute /Icircumflex /Idieresis
 /Eth /Ntilde /Ograve /Oacute /Ocircumflex /Otilde /Odieresis /multiply
 /Oslash /Ugrave /Uacute /Ucircumflex /Udieresis /Yacute /Thorn /germandbls
 /agrave /aacute /acircumflex /atilde /adieresis /aring /ae /ccedilla
 /egrave /eacute /ecircumflex /edieresis /igrave /iacute /icircumflex /idieresis
 /eth /ntilde /ograve /oacute /ocircumflex /otilde /odieresis /divide
 /oslash /ugrave /uacute /ucircumflex /udieresis /yacute /thorn /ydieresis
]
 def
% end encoding
%%IncludeResource: font Helvetica
/Helvetica findfont
dup length dict begin
  {1 index /FID ne {def} {pop pop} ifelse} forall
  /Encoding WinAnsiEncoding def
  currentdict
  end
/Font1 exch definefont pop
%%IncludeResource: font Helvetica-Bold
/Helvetica-Bold findfont
dup length dict begin
  {1 index /FID ne {def} {pop pop} ifelse} forall
  /Encoding WinAnsiEncoding def
  currentdict
  end
/Font2 exch definefont pop
%%IncludeResource: font Helvetica-Oblique
/Helvetica-Oblique findfont
dup length dict begin
  {1 index /FID ne {def} {pop pop} ifelse} forall
  /Encoding WinAnsiEncoding def
  currentdict
  end
/Font3 exch definefont pop
%%IncludeResource: font Helvetica-BoldOblique
/Helvetica-BoldOblique findfont
dup length dict begin
  {1 index /FID ne {def} {pop pop} ifelse} forall
  /Encoding WinAnsiEncoding def
  currentdict
  end
/Font4 exch definefont pop
%%IncludeResource: font Symbol
/Symbol findfont
dup length dict begin
  {1 index /FID ne {def} {pop pop} ifelse} forall
  currentdict
  end
/Font5 exch definefont pop
%%EndProlog
%%Page: 1 1
bp
/bg { 1 1 1 srgb } def
0.00 0.00 432.00 576.00 r p2
0.00 0.00 432.00 576.00 cl
0.00 0.00 432.00 576.00 cl
0.00 0.00 432.00 576.00 cl
/Font1 findfont 12 s
0 0 0 srgb
48.00 508.72 (PCP-ETH) 0 0 t
48.00 494.89 (Flash light photolysis) 0 0 t
/Font1 findfont 9 s
48.00 457.54 (File: Solv) 0 ta
-0.225 (ent_debendence_sol5_1_MSLM.dat) tb gr
48.00 334.87 (Sat Mar 05 15:18:00 2022) 0 0 t
48.00 430.87 (Fit function:  a + b * e) 0 ta
-0.270 (xp\(-c * t\)) tb gr
48.00 420.50 (t-Inter) 0 ta
0.270 (v) tb
-0.225 (all: 405.000 ... 26685.000 ms) tb gr
48.00 410.14 (P) 0 ta
-0.360 (ar) tb
-0.090 (ameters \(Standard de) tb
-0.270 (viation\):) tb gr
48.00 399.77 (  a = -0.03238 \(0.00047\)) 0 0 t
48.00 389.40 (  b = 0.16864 \(0.00089\)) 0 0 t
48.00 379.03 (  c = 1.549e-01 \(1.939e-03\) s^-1) 0 0 t
48.00 368.66 (  tau = 6.456e+00 \(8.083e-02\) s) 0 0 t
216.00 345.60 388.80 518.40 cl
0 0 0 srgb
0.75 setlinewidth
[] 0 setdash
1 setlinecap
1 setlinejoin
10.00 setmiterlimit
np
222.40 495.71 m
0.15 0.29 l
0.14 -1.46 l
0.15 -0.88 l
0.14 1.46 l
0.15 1.47 l
0.14 -2.05 l
0.15 0 l
0.14 1.17 l
0.15 -0.59 l
0.15 0 l
0.14 -0.29 l
0.15 0.29 l
0.14 0.30 l
0.15 0 l
0.14 0.29 l
0.15 -0.59 l
0.14 -0.58 l
0.15 0 l
0.15 0.58 l
0.14 -1.17 l
0.15 0.59 l
0.14 0.58 l
0.15 -0.88 l
0.14 0.88 l
0.15 0 l
0.15 0.30 l
0.14 -0.59 l
0.15 0.29 l
0.14 -0.29 l
0.15 -0.59 l
0.14 2.35 l
0.15 -0.30 l
0.14 -1.75 l
0.15 0 l
0.15 -1.17 l
0.14 0.58 l
0.15 0.29 l
0.14 -0.29 l
0.15 -0.58 l
0.14 2.05 l
0.15 -0.30 l
0.14 -0.29 l
0.15 -1.17 l
0.15 1.17 l
0.14 0.29 l
0.15 -0.88 l
0.14 0 l
0.15 0.30 l
0.14 -0.30 l
0.15 0.88 l
0.14 -0.29 l
0.15 -0.29 l
0.15 0.58 l
0.14 -1.46 l
0.15 -0.54 l
0.14 2.00 l
0.15 0 l
0.14 -2.29 l
0.15 2.29 l
0.15 0.88 l
0.14 -0.58 l
0.15 -1.76 l
0.14 1.17 l
0.15 0.59 l
0.14 -0.30 l
0.15 -0.29 l
0.14 0.29 l
0.15 0.30 l
0.15 0 l
0.14 -1.47 l
0.15 0.29 l
0.14 0.59 l
0.15 -0.29 l
0.14 -0.30 l
0.15 1.18 l
0.14 -1.18 l
0.15 -0.29 l
0.15 -0.58 l
0.14 0 l
0.15 2.34 l
0.14 -2.05 l
0.15 0.88 l
0.14 2.05 l
0.15 -0.88 l
0.14 -1.47 l
0.15 0 l
0.15 0.88 l
0.14 0.59 l
0.15 -0.29 l
0.14 0 l
0.15 -0.30 l
0.14 -0.88 l
0.15 0 l
0.15 0.88 l
0.14 -1.46 l
0.15 3.22 l
0.14 -2.34 l
0.15 0.29 l
0.14 -0.29 l
236.96 448.88 lineto
0.14 0.56 l
0.15 1.19 l
0.15 -0.29 l
0.14 0 l
0.15 0.29 l
0.14 2.05 l
0.15 0.88 l
0.14 2.00 l
0.15 -1.46 l
0.14 -0.83 l
0.15 4.05 l
0.15 -1.17 l
0.14 0.58 l
0.15 2.05 l
0.14 -1.17 l
0.15 1.46 l
0.14 -0.29 l
0.15 0.29 l
0.14 1.17 l
0.15 -1.46 l
0.15 3.17 l
0.14 -1.41 l
0.15 -0.30 l
0.14 1.17 l
0.15 0.30 l
0.14 1.41 l
0.15 0 l
0.15 -0.29 l
0.14 0.59 l
0.15 1.17 l
0.14 -0.59 l
0.15 0.59 l
0.14 0.29 l
0.15 0.29 l
0.14 0.29 l
0.15 0.88 l
0.15 -0.29 l
0.14 -0.29 l
0.15 0.87 l
0.14 0.30 l
0.15 0 l
0.14 0 l
0.15 -0.30 l
0.14 2.35 l
0.15 -0.88 l
0.15 0.58 l
0.14 0 l
0.15 1.42 l
0.14 -0.83 l
0.15 1.12 l
0.14 0.29 l
0.15 -1.41 l
0.14 0.29 l
0.15 1.42 l
0.15 0.58 l
0.14 1.17 l
0.15 -0.58 l
0.14 0 l
0.15 0.29 l
0.14 -1.46 l
0.15 1.46 l
0.15 0.58 l
0.14 0.59 l
0.15 -0.29 l
0.14 0 l
0.15 1.75 l
0.14 -1.46 l
0.15 0.59 l
0.14 0.29 l
0.15 0.29 l
0.15 0 l
0.14 0 l
0.15 0.59 l
0.14 0.29 l
0.15 1.17 l
0.14 0 l
0.15 -1.46 l
0.14 1.46 l
0.15 0 l
0.15 0 l
0.14 -0.88 l
0.15 0.88 l
0.14 1.12 l
0.15 0.29 l
0.14 0.59 l
0.15 -1.17 l
0.14 0.88 l
0.15 -0.59 l
0.15 2.05 l
0.14 -1.46 l
0.15 1.75 l
0.14 -1.46 l
0.15 0.29 l
0.14 0.59 l
0.15 0.88 l
0.15 -2.35 l
0.14 2.35 l
0.15 -0.30 l
0.14 1.47 l
251.52 479.71 lineto
0.14 0.29 l
0.15 0.59 l
0.14 0.58 l
0.15 0.59 l
0.15 -0.59 l
0.14 1.76 l
0.15 0.29 l
0.14 0 l
0.15 -0.88 l
0.14 0.29 l
0.15 0 l
0.14 0 l
0.15 1.18 l
0.15 0.58 l
0.14 -0.88 l
0.15 1.17 l
0.14 -2.63 l
0.15 2.93 l
0.14 -0.30 l
0.15 -0.58 l
0.14 -0.29 l
0.15 1.46 l
0.15 -0.29 l
0.14 -0.59 l
0.15 0 l
0.14 0.59 l
0.15 0 l
0.14 -1.17 l
0.15 1.70 l
0.14 -1.12 l
0.15 0.88 l
0.15 0.54 l
0.14 0.29 l
0.15 -0.29 l
0.14 0.58 l
0.15 -1.12 l
0.14 0 l
0.15 2.29 l
0.15 -1.17 l
0.14 -0.29 l
0.15 -1.12 l
0.14 1.41 l
0.15 -0.58 l
0.14 0 l
0.15 0.29 l
0.14 1.17 l
0.15 0.88 l
0.15 -0.88 l
0.14 -1.17 l
0.15 2.92 l
0.14 -1.46 l
0.15 0.59 l
0.14 0 l
0.15 0.58 l
0.14 -0.58 l
0.15 0 l
0.15 -1.17 l
0.14 0.58 l
0.15 0.88 l
0.14 -0.29 l
0.15 1.17 l
0.14 -0.59 l
0.15 -0.29 l
0.14 1.46 l
0.15 -2.05 l
0.15 1.17 l
0.14 -0.87 l
0.15 1.75 l
0.14 -1.17 l
0.15 0.59 l
0.14 0 l
0.15 -0.88 l
0.15 -0.29 l
0.14 0.58 l
0.15 0.88 l
0.14 -1.76 l
0.15 1.17 l
0.14 0.30 l
0.15 1.46 l
0.14 -0.58 l
0.15 -0.30 l
0.15 0.59 l
0.14 -0.88 l
0.15 1.17 l
0.14 0.59 l
0.15 0.29 l
0.14 -1.76 l
0.15 -0.88 l
0.14 1.76 l
0.15 0 l
0.15 -0.58 l
0.14 0.58 l
0.15 -1.17 l
0.14 0.59 l
0.15 0.29 l
0.14 -0.29 l
0.15 0.87 l
0.14 -0.29 l
0.15 0.29 l
266.08 491.07 lineto
0.14 -0.58 l
0.15 2.05 l
0.14 -1.76 l
0.15 0.59 l
0.14 -0.30 l
0.15 -0.29 l
0.15 0 l
0.14 0.59 l
0.15 1.17 l
0.14 0.58 l
0.15 -2.05 l
0.14 0.30 l
0.15 -0.30 l
0.14 0 l
0.15 1.17 l
0.15 -0.87 l
0.14 0 l
0.15 1.46 l
0.14 -0.29 l
0.15 -0.30 l
0.14 1.13 l
0.15 -1.13 l
0.14 1.13 l
0.15 -1.42 l
0.15 0.59 l
0.14 -1.17 l
0.15 2.29 l
0.14 -1.12 l
0.15 0 l
0.14 0 l
0.15 0 l
0.14 0 l
0.15 0.58 l
0.15 1.71 l
0.14 -1.46 l
0.15 -0.83 l
0.14 2.00 l
0.15 -1.17 l
0.14 -0.54 l
0.15 0.29 l
0.15 0.54 l
0.14 0.29 l
0.15 -1.71 l
0.14 1.42 l
0.15 0.88 l
0.14 -1.42 l
0.15 -0.29 l
0.14 0.29 l
0.15 1.12 l
0.15 0.30 l
0.14 0.58 l
0.15 -1.17 l
0.14 0.88 l
0.15 -0.88 l
0.14 0.59 l
0.15 -0.59 l
0.14 1.17 l
0.15 -1.46 l
0.15 1.46 l
0.14 -0.29 l
0.15 -0.29 l
0.14 0.29 l
0.15 -0.29 l
0.14 -0.30 l
0.15 1.18 l
0.14 0 l
0.15 0.29 l
0.15 -0.88 l
0.14 1.46 l
0.15 -1.46 l
0.14 0.29 l
0.15 -0.58 l
0.14 2.63 l
0.15 -2.05 l
0.15 0.59 l
0.14 0 l
0.15 0.29 l
0.14 0.88 l
0.15 -1.17 l
0.14 0.29 l
0.15 1.46 l
0.14 -0.87 l
0.15 -0.88 l
0.15 1.17 l
0.14 -1.46 l
0.15 0.29 l
0.14 1.46 l
0.15 -0.88 l
0.14 0.30 l
0.15 -0.30 l
0.14 0 l
0.15 -0.87 l
0.15 1.46 l
0.14 -1.17 l
0.15 2.05 l
0.14 -1.17 l
0.15 -0.59 l
0.14 -0.29 l
0.15 2.34 l
280.63 496.88 lineto
0.15 0.88 l
0.15 -0.30 l
0.14 1.17 l
0.15 -1.46 l
0.14 -0.88 l
0.15 1.76 l
0.14 0.29 l
0.15 0.29 l
0.15 -0.29 l
0.14 0.29 l
0.15 -0.87 l
0.14 0.58 l
0.15 -1.17 l
0.14 0.29 l
0.15 0 l
0.14 -0.58 l
0.15 -0.59 l
0.15 1.76 l
0.14 -0.29 l
0.15 1.17 l
0.14 -0.88 l
0.15 0.88 l
0.14 -1.47 l
0.15 1.17 l
0.14 -0.58 l
0.15 1.17 l
0.15 0.88 l
0.14 -0.88 l
0.15 -0.59 l
0.14 0 l
0.15 0.88 l
0.14 -0.88 l
0.15 1.18 l
0.14 -2.35 l
0.15 1.76 l
0.15 1.71 l
0.14 -2.30 l
0.15 0.59 l
0.14 -0.29 l
0.15 -0.30 l
0.14 0.88 l
0.15 -0.88 l
0.14 0.30 l
0.15 1.17 l
0.15 -0.29 l
0.14 -1.18 l
0.15 1.47 l
0.14 -1.17 l
0.15 1.75 l
0.14 -0.29 l
0.15 1.12 l
0.15 -0.83 l
0.14 -0.29 l
0.15 0 l
0.14 0 l
0.15 -0.29 l
0.14 -0.59 l
0.15 0.30 l
0.14 0.29 l
0.15 0 l
0.15 -0.59 l
0.14 1.17 l
0.15 -0.87 l
0.14 0.87 l
0.15 -0.29 l
0.14 -0.88 l
0.15 0.30 l
0.14 2.58 l
0.15 -1.71 l
0.15 -0.29 l
0.14 -0.88 l
0.15 1.17 l
0.14 1.71 l
0.15 -1.71 l
0.14 -0.29 l
0.15 0.54 l
0.14 0.29 l
0.15 -1.41 l
0.15 0.87 l
0.14 0.83 l
0.15 0 l
0.14 -1.12 l
0.15 0.54 l
0.14 0.29 l
0.15 -0.29 l
0.15 0.29 l
0.14 0.88 l
0.15 -1.17 l
0.14 0.88 l
0.15 -1.13 l
0.14 0.54 l
0.15 0.59 l
0.14 0.58 l
0.15 -1.71 l
0.15 0.54 l
0.14 0.29 l
0.15 0 l
0.14 -1.12 l
0.15 2.29 l
295.19 502.39 lineto
0.15 -0.29 l
0.14 1.17 l
0.15 -1.17 l
0.15 0.88 l
0.14 -1.17 l
0.15 0.29 l
0.14 -0.59 l
0.15 1.76 l
0.14 -1.76 l
0.15 0.88 l
0.14 -0.58 l
0.15 0.58 l
0.15 0.59 l
0.14 -0.88 l
0.15 0 l
0.14 0.29 l
0.15 0.59 l
0.14 0 l
0.15 -0.88 l
0.15 -0.59 l
0.14 0.59 l
0.15 -0.29 l
0.14 0.87 l
0.15 0.30 l
0.14 -0.88 l
0.15 -0.88 l
0.14 2.05 l
0.15 -0.59 l
0.15 0.59 l
0.14 -0.88 l
0.15 0.59 l
0.14 0.58 l
0.15 -0.88 l
0.14 1.17 l
0.15 -0.29 l
0.14 -0.88 l
0.15 1.17 l
0.15 -0.58 l
0.14 0.29 l
0.15 0 l
0.14 0.88 l
0.15 -0.59 l
0.14 -0.58 l
0.15 0.29 l
0.14 1.17 l
0.15 -0.88 l
0.15 -1.17 l
0.14 1.76 l
0.15 -1.46 l
0.14 0.58 l
0.15 -0.88 l
0.14 0.88 l
0.15 0 l
0.15 -0.29 l
0.14 0.88 l
0.15 0.29 l
0.14 0.58 l
0.15 -1.17 l
0.14 0.30 l
0.15 0 l
0.14 0.29 l
0.15 -0.29 l
0.15 1.17 l
0.14 -1.17 l
0.15 -0.59 l
0.14 0.88 l
0.15 -1.17 l
0.14 0.29 l
0.15 0.29 l
0.14 -0.29 l
0.15 0.88 l
0.15 -0.59 l
0.14 -0.29 l
0.15 0 l
0.14 0.29 l
0.15 1.47 l
0.14 -0.30 l
0.15 -1.75 l
0.14 1.75 l
0.15 -1.46 l
0.15 0.88 l
0.14 -0.59 l
0.15 0.88 l
0.14 0.29 l
0.15 0 l
0.14 -0.87 l
0.15 0.87 l
0.15 0 l
0.14 -0.29 l
0.15 -1.17 l
0.14 2.34 l
0.15 -2.05 l
0.14 0 l
0.15 0.59 l
0.14 -0.29 l
0.15 1.17 l
0.15 0.58 l
0.14 -1.46 l
0.15 0.88 l
309.75 504.15 lineto
0.15 0.29 l
0.14 2.34 l
0.15 -2.05 l
0.14 -0.29 l
0.15 0.58 l
0.15 0.30 l
0.14 0 l
0.15 -0.88 l
0.14 1.17 l
0.15 0.29 l
0.14 0 l
0.15 -0.88 l
0.14 0 l
0.15 -0.58 l
0.15 1.76 l
0.14 -1.76 l
0.15 1.76 l
0.14 -0.59 l
0.15 -1.46 l
0.14 0.87 l
0.15 -0.58 l
0.15 0.58 l
0.14 0.88 l
0.15 -2.05 l
0.14 0.59 l
0.15 1.17 l
0.14 -0.29 l
0.15 0.29 l
0.14 0.59 l
0.15 -1.76 l
0.15 0.58 l
0.14 0 l
0.15 1.47 l
0.14 0.58 l
0.15 -0.58 l
0.14 0.29 l
0.15 -1.17 l
0.14 0.29 l
0.15 1.17 l
0.15 -1.75 l
0.14 1.46 l
0.15 -1.17 l
0.14 -0.88 l
0.15 0.59 l
0.14 0 l
0.15 -0.30 l
0.14 1.47 l
0.15 -1.17 l
0.15 1.46 l
0.14 -1.76 l
0.15 0.88 l
0.14 1.17 l
0.15 -0.58 l
0.14 -1.17 l
0.15 1.46 l
0.15 -0.58 l
0.14 -1.47 l
0.15 0.59 l
0.14 0.88 l
0.15 -0.59 l
0.14 -0.59 l
0.15 0.30 l
0.14 1.46 l
0.15 -0.29 l
0.15 -0.59 l
0.14 -0.88 l
0.15 0.88 l
0.14 -0.58 l
0.15 0.29 l
0.14 0.59 l
0.15 0.29 l
0.14 -1.17 l
0.15 0.88 l
0.15 -0.59 l
0.14 0 l
0.15 1.46 l
0.14 0 l
0.15 -0.87 l
0.14 0.29 l
0.15 -0.88 l
0.14 0.29 l
0.15 0 l
0.15 0.59 l
0.14 -0.59 l
0.15 -0.29 l
0.14 0.29 l
0.15 0.88 l
0.14 -1.46 l
0.15 1.17 l
0.14 0.88 l
0.15 0 l
0.15 -1.47 l
0.14 0.59 l
0.15 0 l
0.14 0 l
0.15 -1.47 l
0.14 1.76 l
0.15 1.76 l
0.15 -2.34 l
324.31 507.66 lineto
0.15 -1.76 l
0.14 0.88 l
0.15 -1.17 l
0.14 -0.88 l
0.15 2.05 l
0.14 0.59 l
0.15 -0.59 l
0.15 0 l
0.14 -0.58 l
0.15 1.46 l
0.14 -0.59 l
0.15 -0.87 l
0.14 -0.30 l
0.15 0.30 l
0.14 0 l
0.15 -1.47 l
0.15 2.05 l
0.14 1.17 l
0.15 -2.05 l
0.14 -0.29 l
0.15 -0.88 l
0.14 0.29 l
0.15 1.47 l
0.14 -0.88 l
0.15 0.29 l
0.15 0 l
0.14 0.88 l
0.15 -1.76 l
0.14 0.59 l
0.15 0.29 l
0.14 -0.58 l
0.15 2.05 l
0.15 -1.47 l
0.14 0.88 l
0.15 0 l
0.14 0.88 l
0.15 0.29 l
0.14 -1.46 l
0.15 -0.59 l
0.14 0.30 l
0.15 0.29 l
0.15 -0.29 l
0.14 -0.30 l
0.15 -0.29 l
0.14 -0.88 l
0.15 1.76 l
0.14 0.58 l
0.15 -0.29 l
0.14 -0.88 l
0.15 1.17 l
0.15 0.30 l
0.14 -0.88 l
0.15 -0.29 l
0.14 0.29 l
0.15 -1.17 l
0.14 0.58 l
0.15 0 l
0.14 0.88 l
0.15 -0.58 l
0.15 -0.88 l
0.14 0.29 l
0.15 0.88 l
0.14 0 l
0.15 -0.88 l
0.14 1.17 l
0.15 0.59 l
0.15 -0.59 l
0.14 -1.17 l
0.15 -0.59 l
0.14 0.30 l
0.15 0.58 l
0.14 2.05 l
0.15 -1.75 l
0.14 0 l
0.15 -1.18 l
0.15 1.47 l
0.14 -0.88 l
0.15 2.34 l
0.14 -1.17 l
0.15 -1.46 l
0.14 2.05 l
0.15 -0.59 l
0.14 -0.88 l
0.15 0.59 l
0.15 -0.59 l
0.14 0.59 l
0.15 -1.17 l
0.14 1.46 l
0.15 0 l
0.14 -0.29 l
0.15 -0.59 l
0.14 0 l
0.15 0.30 l
0.15 -0.30 l
0.14 0.30 l
0.15 0.29 l
0.14 0 l
0.15 0.29 l
0.14 -2.05 l
338.87 505.02 lineto
0.15 0.30 l
0.14 0.58 l
0.15 0.30 l
0.14 -0.88 l
0.15 0.88 l
0.14 -0.59 l
0.15 -0.59 l
0.14 0 l
0.15 -0.58 l
0.15 2.05 l
0.14 -0.29 l
0.15 -0.59 l
0.14 0.59 l
0.15 0.29 l
0.14 -1.76 l
0.15 1.17 l
0.14 0.30 l
0.15 0 l
0.15 0.29 l
0.14 -1.47 l
0.15 0.88 l
0.14 -0.58 l
0.15 0 l
0.14 0.58 l
0.15 -1.17 l
0.14 -0.88 l
0.15 0.59 l
0.15 2.34 l
0.14 -1.46 l
0.15 1.75 l
0.14 -2.63 l
0.15 0.88 l
0.14 0 l
0.15 0.88 l
0.15 -1.47 l
0.14 -1.46 l
0.15 2.93 l
0.14 -1.76 l
0.15 1.76 l
0.14 -0.30 l
0.15 -0.29 l
0.14 -0.59 l
0.15 0.30 l
0.15 0 l
0.14 1.17 l
0.15 0 l
0.14 -7.56 l
0.15 13.07 l
0.14 -8.15 l
0.15 2.64 l
0.14 -3.22 l
0.15 0.88 l
0.15 2.92 l
0.14 -0.87 l
0.15 -1.18 l
0.14 0.59 l
0.15 -0.59 l
0.14 0 l
0.15 0 l
0.14 0.59 l
0.15 -1.17 l
0.15 0.29 l
0.14 0.59 l
0.15 -0.88 l
0.14 0 l
0.15 0 l
0.14 0.29 l
0.15 0 l
0.15 1.47 l
0.14 -2.35 l
0.15 1.17 l
0.14 -0.58 l
0.15 1.46 l
0.14 0.59 l
0.15 -1.47 l
0.14 0.30 l
0.15 0 l
0.15 -0.30 l
0.14 0.59 l
0.15 -0.59 l
0.14 1.18 l
0.15 -1.47 l
0.14 0.88 l
0.15 0 l
0.14 -0.29 l
0.15 -0.30 l
0.15 -2.04 l
0.14 1.46 l
0.15 0.29 l
0.14 0.29 l
0.15 -1.75 l
0.14 1.17 l
0.15 1.17 l
0.14 -0.88 l
0.15 0.29 l
0.15 -0.58 l
0.14 0.29 l
0.15 -0.58 l
0.14 0.87 l
353.43 505.32 lineto
0.14 -0.30 l
0.15 0.30 l
0.14 -2.34 l
0.15 0.87 l
0.15 2.35 l
0.14 -0.88 l
0.15 -1.76 l
0.14 1.46 l
0.15 0.30 l
0.14 -1.47 l
0.15 0.59 l
0.15 -0.88 l
0.14 1.17 l
0.15 -1.46 l
0.14 0.88 l
0.15 -0.59 l
0.14 1.46 l
0.15 0 l
0.14 0.30 l
0.15 -2.05 l
0.15 1.17 l
0.14 -0.59 l
0.15 -1.17 l
0.14 2.05 l
0.15 0.88 l
0.14 -2.34 l
0.15 0.29 l
0.14 1.76 l
0.15 0 l
0.15 -2.05 l
0.14 0.88 l
0.15 0.29 l
0.14 -0.88 l
0.15 -0.29 l
0.14 1.46 l
0.15 -2.34 l
0.14 1.76 l
0.15 0 l
0.15 -0.30 l
0.14 0 l
0.15 0 l
0.14 2.05 l
0.15 -0.88 l
0.14 -0.87 l
0.15 0.58 l
0.15 -0.29 l
0.14 0 l
0.15 -1.76 l
0.14 1.17 l
0.15 -0.58 l
0.14 2.63 l
0.15 -0.58 l
0.14 -1.17 l
0.15 -0.88 l
0.15 1.46 l
0.14 -1.46 l
0.15 1.17 l
0.14 -1.46 l
0.15 0.29 l
0.14 1.75 l
0.15 -0.87 l
0.14 -1.76 l
0.15 1.76 l
0.15 0 l
0.14 -0.30 l
0.15 1.17 l
0.14 -1.75 l
0.15 1.46 l
0.14 -0.58 l
0.15 0.58 l
0.14 -1.75 l
0.15 0.87 l
0.15 -0.29 l
0.14 0 l
0.15 0.59 l
0.14 0.87 l
0.15 -1.46 l
0.14 0.29 l
0.15 -1.46 l
0.15 0 l
0.14 0.88 l
0.15 -1.17 l
0.14 1.17 l
0.15 0.29 l
0.14 0.88 l
0.15 -0.59 l
0.14 -0.29 l
0.15 -1.17 l
0.15 0.59 l
0.14 -0.30 l
0.15 0.88 l
0.14 -0.88 l
0.15 0.30 l
0.14 0.29 l
0.15 1.17 l
0.14 -1.46 l
0.15 0.58 l
0.15 -0.88 l
0.14 1.17 l
currentpoint o m
367.99 504.44 lineto
0.14 -2.63 l
0.15 0.87 l
0.14 -1.17 l
0.15 2.05 l
0.14 1.17 l
0.15 -2.05 l
0.15 0.88 l
0.14 0 l
0.15 -0.29 l
0.14 -0.88 l
0.15 1.76 l
0.14 -0.88 l
0.15 0.29 l
0.15 -0.58 l
0.14 1.17 l
0.15 -0.88 l
0.14 -0.29 l
0.15 -0.88 l
0.14 1.17 l
0.15 0 l
0.14 0.58 l
0.15 -1.46 l
0.15 1.76 l
0.14 -0.88 l
0.15 -1.76 l
0.14 1.17 l
0.15 0.88 l
0.14 -0.58 l
0.15 -0.30 l
0.14 0.88 l
0.15 0 l
0.15 2.05 l
0.14 -2.93 l
0.15 -0.58 l
0.14 0.58 l
0.15 0.59 l
0.14 0.29 l
0.15 -0.29 l
0.14 0 l
0.15 0 l
0.15 0 l
0.14 -0.59 l
0.15 -0.29 l
0.14 0.29 l
0.15 -0.87 l
0.14 2.04 l
0.15 -2.04 l
0.15 0.29 l
0.14 0.58 l
0.15 -0.58 l
0.14 2.05 l
0.15 -1.47 l
0.14 1.17 l
0.15 -0.29 l
0.14 -1.75 l
0.15 0.87 l
0.15 0.30 l
0.14 -1.47 l
0.15 1.76 l
0.14 0.29 l
0.15 -0.58 l
0.14 -0.59 l
0.15 1.76 l
0.14 -0.88 l
0.15 -1.46 l
0.15 1.17 l
0.14 0 l
0.15 0.87 l
0.14 -1.75 l
0.15 0.29 l
0.14 0 l
0.15 0.88 l
0.14 -0.29 l
0.15 -0.88 l
0.15 0.29 l
0.14 0.59 l
0.15 -0.88 l
0.14 1.46 l
0.15 -0.88 l
0.14 1.47 l
0.15 -0.30 l
0.15 -2.04 l
0.14 1.46 l
0.15 0 l
0.14 0 l
0.15 -0.59 l
0.14 0.88 l
0.15 -1.75 l
0.14 -0.30 l
0.15 1.17 l
0.15 0.88 l
0.14 -1.17 l
0.15 -1.46 l
0.14 2.34 l
0.15 0.58 l
0.14 -0.58 l
0.15 0 l
0.14 -1.17 l
0.15 0 l
o
/bg { 1 1 1 srgb } def
222.40 495.71 0.43 c p3
222.55 496.00 0.43 c p3
222.69 494.54 0.43 c p3
222.84 493.66 0.43 c p3
222.98 495.12 0.43 c p3
223.13 496.59 0.43 c p3
223.27 494.54 0.43 c p3
223.42 494.54 0.43 c p3
223.56 495.71 0.43 c p3
223.71 495.12 0.43 c p3
223.86 495.12 0.43 c p3
224.00 494.83 0.43 c p3
224.15 495.12 0.43 c p3
224.29 495.42 0.43 c p3
224.44 495.42 0.43 c p3
224.58 495.71 0.43 c p3
224.73 495.12 0.43 c p3
224.87 494.54 0.43 c p3
225.02 494.54 0.43 c p3
225.17 495.12 0.43 c p3
225.31 493.95 0.43 c p3
225.46 494.54 0.43 c p3
225.60 495.12 0.43 c p3
225.75 494.24 0.43 c p3
225.89 495.12 0.43 c p3
226.04 495.12 0.43 c p3
226.19 495.42 0.43 c p3
226.33 494.83 0.43 c p3
226.48 495.12 0.43 c p3
226.62 494.83 0.43 c p3
226.77 494.24 0.43 c p3
226.91 496.59 0.43 c p3
227.06 496.29 0.43 c p3
227.20 494.54 0.43 c p3
227.35 494.54 0.43 c p3
227.50 493.37 0.43 c p3
227.64 493.95 0.43 c p3
227.79 494.24 0.43 c p3
227.93 493.95 0.43 c p3
228.08 493.37 0.43 c p3
228.22 495.42 0.43 c p3
228.37 495.12 0.43 c p3
228.51 494.83 0.43 c p3
228.66 493.66 0.43 c p3
228.81 494.83 0.43 c p3
228.95 495.12 0.43 c p3
229.10 494.24 0.43 c p3
229.24 494.24 0.43 c p3
229.39 494.54 0.43 c p3
229.53 494.24 0.43 c p3
229.68 495.12 0.43 c p3
229.82 494.83 0.43 c p3
229.97 494.54 0.43 c p3
230.12 495.12 0.43 c p3
230.26 493.66 0.43 c p3
230.41 493.12 0.43 c p3
230.55 495.12 0.43 c p3
230.70 495.12 0.43 c p3
230.84 492.83 0.43 c p3
230.99 495.12 0.43 c p3
231.14 496.00 0.43 c p3
231.28 495.42 0.43 c p3
231.43 493.66 0.43 c p3
231.57 494.83 0.43 c p3
231.72 495.42 0.43 c p3
231.86 495.12 0.43 c p3
232.01 494.83 0.43 c p3
232.15 495.12 0.43 c p3
232.30 495.42 0.43 c p3
232.45 495.42 0.43 c p3
232.59 493.95 0.43 c p3
232.74 494.24 0.43 c p3
232.88 494.83 0.43 c p3
233.03 494.54 0.43 c p3
233.17 494.24 0.43 c p3
233.32 495.42 0.43 c p3
233.46 494.24 0.43 c p3
233.61 493.95 0.43 c p3
233.76 493.37 0.43 c p3
233.90 493.37 0.43 c p3
234.05 495.71 0.43 c p3
234.19 493.66 0.43 c p3
234.34 494.54 0.43 c p3
234.48 496.59 0.43 c p3
234.63 495.71 0.43 c p3
234.77 494.24 0.43 c p3
234.92 494.24 0.43 c p3
235.07 495.12 0.43 c p3
235.21 495.71 0.43 c p3
235.36 495.42 0.43 c p3
235.50 495.42 0.43 c p3
235.65 495.12 0.43 c p3
235.79 494.24 0.43 c p3
235.94 494.24 0.43 c p3
236.09 495.12 0.43 c p3
236.23 493.66 0.43 c p3
236.38 496.88 0.43 c p3
236.52 494.54 0.43 c p3
236.67 494.83 0.43 c p3
236.81 494.54 0.43 c p3
236.96 448.88 0.43 c p3
237.10 449.44 0.43 c p3
237.25 450.63 0.43 c p3
237.40 450.34 0.43 c p3
237.54 450.34 0.43 c p3
237.69 450.63 0.43 c p3
237.83 452.68 0.43 c p3
237.98 453.56 0.43 c p3
238.12 455.56 0.43 c p3
238.27 454.10 0.43 c p3
238.41 453.27 0.43 c p3
238.56 457.32 0.43 c p3
238.71 456.15 0.43 c p3
238.85 456.73 0.43 c p3
239.00 458.78 0.43 c p3
239.14 457.61 0.43 c p3
239.29 459.07 0.43 c p3
239.43 458.78 0.43 c p3
239.58 459.07 0.43 c p3
239.72 460.24 0.43 c p3
239.87 458.78 0.43 c p3
240.02 461.95 0.43 c p3
240.16 460.54 0.43 c p3
240.31 460.24 0.43 c p3
240.45 461.41 0.43 c p3
240.60 461.71 0.43 c p3
240.74 463.12 0.43 c p3
240.89 463.12 0.43 c p3
241.04 462.83 0.43 c p3
241.18 463.42 0.43 c p3
241.33 464.59 0.43 c p3
241.47 464.00 0.43 c p3
241.62 464.59 0.43 c p3
241.76 464.88 0.43 c p3
241.91 465.17 0.43 c p3
242.05 465.46 0.43 c p3
242.20 466.34 0.43 c p3
242.35 466.05 0.43 c p3
242.49 465.76 0.43 c p3
242.64 466.63 0.43 c p3
242.78 466.93 0.43 c p3
242.93 466.93 0.43 c p3
243.07 466.93 0.43 c p3
243.22 466.63 0.43 c p3
243.36 468.98 0.43 c p3
243.51 468.10 0.43 c p3
243.66 468.68 0.43 c p3
243.80 468.68 0.43 c p3
243.95 470.10 0.43 c p3
244.09 469.27 0.43 c p3
244.24 470.39 0.43 c p3
244.38 470.68 0.43 c p3
244.53 469.27 0.43 c p3
244.67 469.56 0.43 c p3
244.82 470.98 0.43 c p3
244.97 471.56 0.43 c p3
245.11 472.73 0.43 c p3
245.26 472.15 0.43 c p3
245.40 472.15 0.43 c p3
245.55 472.44 0.43 c p3
245.69 470.98 0.43 c p3
245.84 472.44 0.43 c p3
245.99 473.02 0.43 c p3
246.13 473.61 0.43 c p3
246.28 473.32 0.43 c p3
246.42 473.32 0.43 c p3
246.57 475.07 0.43 c p3
246.71 473.61 0.43 c p3
246.86 474.20 0.43 c p3
247.00 474.49 0.43 c p3
247.15 474.78 0.43 c p3
247.30 474.78 0.43 c p3
247.44 474.78 0.43 c p3
247.59 475.37 0.43 c p3
247.73 475.66 0.43 c p3
247.88 476.83 0.43 c p3
248.02 476.83 0.43 c p3
248.17 475.37 0.43 c p3
248.31 476.83 0.43 c p3
248.46 476.83 0.43 c p3
248.61 476.83 0.43 c p3
248.75 475.95 0.43 c p3
248.90 476.83 0.43 c p3
249.04 477.95 0.43 c p3
249.19 478.24 0.43 c p3
249.33 478.83 0.43 c p3
249.48 477.66 0.43 c p3
249.62 478.54 0.43 c p3
249.77 477.95 0.43 c p3
249.92 480.00 0.43 c p3
250.06 478.54 0.43 c p3
250.21 480.29 0.43 c p3
250.35 478.83 0.43 c p3
250.50 479.12 0.43 c p3
250.64 479.71 0.43 c p3
250.79 480.59 0.43 c p3
250.94 478.24 0.43 c p3
251.08 480.59 0.43 c p3
251.23 480.29 0.43 c p3
251.37 481.76 0.43 c p3
251.52 479.71 0.43 c p3
251.66 480.00 0.43 c p3
251.81 480.59 0.43 c p3
251.95 481.17 0.43 c p3
252.10 481.76 0.43 c p3
252.25 481.17 0.43 c p3
252.39 482.93 0.43 c p3
252.54 483.22 0.43 c p3
252.68 483.22 0.43 c p3
252.83 482.34 0.43 c p3
252.97 482.63 0.43 c p3
253.12 482.63 0.43 c p3
253.26 482.63 0.43 c p3
253.41 483.81 0.43 c p3
253.56 484.39 0.43 c p3
253.70 483.51 0.43 c p3
253.85 484.68 0.43 c p3
253.99 482.05 0.43 c p3
254.14 484.98 0.43 c p3
254.28 484.68 0.43 c p3
254.43 484.10 0.43 c p3
254.57 483.81 0.43 c p3
254.72 485.27 0.43 c p3
254.87 484.98 0.43 c p3
255.01 484.39 0.43 c p3
255.16 484.39 0.43 c p3
255.30 484.98 0.43 c p3
255.45 484.98 0.43 c p3
255.59 483.81 0.43 c p3
255.74 485.51 0.43 c p3
255.88 484.39 0.43 c p3
256.03 485.27 0.43 c p3
256.18 485.81 0.43 c p3
256.32 486.10 0.43 c p3
256.47 485.81 0.43 c p3
256.61 486.39 0.43 c p3
256.76 485.27 0.43 c p3
256.90 485.27 0.43 c p3
257.05 487.56 0.43 c p3
257.20 486.39 0.43 c p3
257.34 486.10 0.43 c p3
257.49 484.98 0.43 c p3
257.63 486.39 0.43 c p3
257.78 485.81 0.43 c p3
257.92 485.81 0.43 c p3
258.07 486.10 0.43 c p3
258.21 487.27 0.43 c p3
258.36 488.15 0.43 c p3
258.51 487.27 0.43 c p3
258.65 486.10 0.43 c p3
258.80 489.02 0.43 c p3
258.94 487.56 0.43 c p3
259.09 488.15 0.43 c p3
259.23 488.15 0.43 c p3
259.38 488.73 0.43 c p3
259.52 488.15 0.43 c p3
259.67 488.15 0.43 c p3
259.82 486.98 0.43 c p3
259.96 487.56 0.43 c p3
260.11 488.44 0.43 c p3
260.25 488.15 0.43 c p3
260.40 489.32 0.43 c p3
260.54 488.73 0.43 c p3
260.69 488.44 0.43 c p3
260.83 489.90 0.43 c p3
260.98 487.85 0.43 c p3
261.13 489.02 0.43 c p3
261.27 488.15 0.43 c p3
261.42 489.90 0.43 c p3
261.56 488.73 0.43 c p3
261.71 489.32 0.43 c p3
261.85 489.32 0.43 c p3
262.00 488.44 0.43 c p3
262.15 488.15 0.43 c p3
262.29 488.73 0.43 c p3
262.44 489.61 0.43 c p3
262.58 487.85 0.43 c p3
262.73 489.02 0.43 c p3
262.87 489.32 0.43 c p3
263.02 490.78 0.43 c p3
263.16 490.20 0.43 c p3
263.31 489.90 0.43 c p3
263.46 490.49 0.43 c p3
263.60 489.61 0.43 c p3
263.75 490.78 0.43 c p3
263.89 491.37 0.43 c p3
264.04 491.66 0.43 c p3
264.18 489.90 0.43 c p3
264.33 489.02 0.43 c p3
264.47 490.78 0.43 c p3
264.62 490.78 0.43 c p3
264.77 490.20 0.43 c p3
264.91 490.78 0.43 c p3
265.06 489.61 0.43 c p3
265.20 490.20 0.43 c p3
265.35 490.49 0.43 c p3
265.49 490.20 0.43 c p3
265.64 491.07 0.43 c p3
265.78 490.78 0.43 c p3
265.93 491.07 0.43 c p3
266.08 491.07 0.43 c p3
266.22 490.49 0.43 c p3
266.37 492.54 0.43 c p3
266.51 490.78 0.43 c p3
266.66 491.37 0.43 c p3
266.80 491.07 0.43 c p3
266.95 490.78 0.43 c p3
267.10 490.78 0.43 c p3
267.24 491.37 0.43 c p3
267.39 492.54 0.43 c p3
267.53 493.12 0.43 c p3
267.68 491.07 0.43 c p3
267.82 491.37 0.43 c p3
267.97 491.07 0.43 c p3
268.11 491.07 0.43 c p3
268.26 492.24 0.43 c p3
268.41 491.37 0.43 c p3
268.55 491.37 0.43 c p3
268.70 492.83 0.43 c p3
268.84 492.54 0.43 c p3
268.99 492.24 0.43 c p3
269.13 493.37 0.43 c p3
269.28 492.24 0.43 c p3
269.42 493.37 0.43 c p3
269.57 491.95 0.43 c p3
269.72 492.54 0.43 c p3
269.86 491.37 0.43 c p3
270.01 493.66 0.43 c p3
270.15 492.54 0.43 c p3
270.30 492.54 0.43 c p3
270.44 492.54 0.43 c p3
270.59 492.54 0.43 c p3
270.73 492.54 0.43 c p3
270.88 493.12 0.43 c p3
271.03 494.83 0.43 c p3
271.17 493.37 0.43 c p3
271.32 492.54 0.43 c p3
271.46 494.54 0.43 c p3
271.61 493.37 0.43 c p3
271.75 492.83 0.43 c p3
271.90 493.12 0.43 c p3
272.05 493.66 0.43 c p3
272.19 493.95 0.43 c p3
272.34 492.24 0.43 c p3
272.48 493.66 0.43 c p3
272.63 494.54 0.43 c p3
272.77 493.12 0.43 c p3
272.92 492.83 0.43 c p3
273.06 493.12 0.43 c p3
273.21 494.24 0.43 c p3
273.36 494.54 0.43 c p3
273.50 495.12 0.43 c p3
273.65 493.95 0.43 c p3
273.79 494.83 0.43 c p3
273.94 493.95 0.43 c p3
274.08 494.54 0.43 c p3
274.23 493.95 0.43 c p3
274.37 495.12 0.43 c p3
274.52 493.66 0.43 c p3
274.67 495.12 0.43 c p3
274.81 494.83 0.43 c p3
274.96 494.54 0.43 c p3
275.10 494.83 0.43 c p3
275.25 494.54 0.43 c p3
275.39 494.24 0.43 c p3
275.54 495.42 0.43 c p3
275.68 495.42 0.43 c p3
275.83 495.71 0.43 c p3
275.98 494.83 0.43 c p3
276.12 496.29 0.43 c p3
276.27 494.83 0.43 c p3
276.41 495.12 0.43 c p3
276.56 494.54 0.43 c p3
276.70 497.17 0.43 c p3
276.85 495.12 0.43 c p3
277.00 495.71 0.43 c p3
277.14 495.71 0.43 c p3
277.29 496.00 0.43 c p3
277.43 496.88 0.43 c p3
277.58 495.71 0.43 c p3
277.72 496.00 0.43 c p3
277.87 497.46 0.43 c p3
278.01 496.59 0.43 c p3
278.16 495.71 0.43 c p3
278.31 496.88 0.43 c p3
278.45 495.42 0.43 c p3
278.60 495.71 0.43 c p3
278.74 497.17 0.43 c p3
278.89 496.29 0.43 c p3
279.03 496.59 0.43 c p3
279.18 496.29 0.43 c p3
279.32 496.29 0.43 c p3
279.47 495.42 0.43 c p3
279.62 496.88 0.43 c p3
279.76 495.71 0.43 c p3
279.91 497.76 0.43 c p3
280.05 496.59 0.43 c p3
280.20 496.00 0.43 c p3
280.34 495.71 0.43 c p3
280.49 498.05 0.43 c p3
280.63 496.88 0.43 c p3
280.78 497.76 0.43 c p3
280.93 497.46 0.43 c p3
281.07 498.63 0.43 c p3
281.22 497.17 0.43 c p3
281.36 496.29 0.43 c p3
281.51 498.05 0.43 c p3
281.65 498.34 0.43 c p3
281.80 498.63 0.43 c p3
281.95 498.34 0.43 c p3
282.09 498.63 0.43 c p3
282.24 497.76 0.43 c p3
282.38 498.34 0.43 c p3
282.53 497.17 0.43 c p3
282.67 497.46 0.43 c p3
282.82 497.46 0.43 c p3
282.96 496.88 0.43 c p3
283.11 496.29 0.43 c p3
283.26 498.05 0.43 c p3
283.40 497.76 0.43 c p3
283.55 498.93 0.43 c p3
283.69 498.05 0.43 c p3
283.84 498.93 0.43 c p3
283.98 497.46 0.43 c p3
284.13 498.63 0.43 c p3
284.27 498.05 0.43 c p3
284.42 499.22 0.43 c p3
284.57 500.10 0.43 c p3
284.71 499.22 0.43 c p3
284.86 498.63 0.43 c p3
285.00 498.63 0.43 c p3
285.15 499.51 0.43 c p3
285.29 498.63 0.43 c p3
285.44 499.81 0.43 c p3
285.58 497.46 0.43 c p3
285.73 499.22 0.43 c p3
285.88 500.93 0.43 c p3
286.02 498.63 0.43 c p3
286.17 499.22 0.43 c p3
286.31 498.93 0.43 c p3
286.46 498.63 0.43 c p3
286.60 499.51 0.43 c p3
286.75 498.63 0.43 c p3
286.89 498.93 0.43 c p3
287.04 500.10 0.43 c p3
287.19 499.81 0.43 c p3
287.33 498.63 0.43 c p3
287.48 500.10 0.43 c p3
287.62 498.93 0.43 c p3
287.77 500.68 0.43 c p3
287.91 500.39 0.43 c p3
288.06 501.51 0.43 c p3
288.21 500.68 0.43 c p3
288.35 500.39 0.43 c p3
288.50 500.39 0.43 c p3
288.64 500.39 0.43 c p3
288.79 500.10 0.43 c p3
288.93 499.51 0.43 c p3
289.08 499.81 0.43 c p3
289.22 500.10 0.43 c p3
289.37 500.10 0.43 c p3
289.52 499.51 0.43 c p3
289.66 500.68 0.43 c p3
289.81 499.81 0.43 c p3
289.95 500.68 0.43 c p3
290.10 500.39 0.43 c p3
290.24 499.51 0.43 c p3
290.39 499.81 0.43 c p3
290.53 502.39 0.43 c p3
290.68 500.68 0.43 c p3
290.83 500.39 0.43 c p3
290.97 499.51 0.43 c p3
291.12 500.68 0.43 c p3
291.26 502.39 0.43 c p3
291.41 500.68 0.43 c p3
291.55 500.39 0.43 c p3
291.70 500.93 0.43 c p3
291.84 501.22 0.43 c p3
291.99 499.81 0.43 c p3
292.14 500.68 0.43 c p3
292.28 501.51 0.43 c p3
292.43 501.51 0.43 c p3
292.57 500.39 0.43 c p3
292.72 500.93 0.43 c p3
292.86 501.22 0.43 c p3
293.01 500.93 0.43 c p3
293.16 501.22 0.43 c p3
293.30 502.10 0.43 c p3
293.45 500.93 0.43 c p3
293.59 501.81 0.43 c p3
293.74 500.68 0.43 c p3
293.88 501.22 0.43 c p3
294.03 501.81 0.43 c p3
294.17 502.39 0.43 c p3
294.32 500.68 0.43 c p3
294.47 501.22 0.43 c p3
294.61 501.51 0.43 c p3
294.76 501.51 0.43 c p3
294.90 500.39 0.43 c p3
295.05 502.68 0.43 c p3
295.19 502.39 0.43 c p3
295.34 502.10 0.43 c p3
295.48 503.27 0.43 c p3
295.63 502.10 0.43 c p3
295.78 502.98 0.43 c p3
295.92 501.81 0.43 c p3
296.07 502.10 0.43 c p3
296.21 501.51 0.43 c p3
296.36 503.27 0.43 c p3
296.50 501.51 0.43 c p3
296.65 502.39 0.43 c p3
296.79 501.81 0.43 c p3
296.94 502.39 0.43 c p3
297.09 502.98 0.43 c p3
297.23 502.10 0.43 c p3
297.38 502.10 0.43 c p3
297.52 502.39 0.43 c p3
297.67 502.98 0.43 c p3
297.81 502.98 0.43 c p3
297.96 502.10 0.43 c p3
298.11 501.51 0.43 c p3
298.25 502.10 0.43 c p3
298.40 501.81 0.43 c p3
298.54 502.68 0.43 c p3
298.69 502.98 0.43 c p3
298.83 502.10 0.43 c p3
298.98 501.22 0.43 c p3
299.12 503.27 0.43 c p3
299.27 502.68 0.43 c p3
299.42 503.27 0.43 c p3
299.56 502.39 0.43 c p3
299.71 502.98 0.43 c p3
299.85 503.56 0.43 c p3
300.00 502.68 0.43 c p3
300.14 503.85 0.43 c p3
300.29 503.56 0.43 c p3
300.43 502.68 0.43 c p3
300.58 503.85 0.43 c p3
300.73 503.27 0.43 c p3
300.87 503.56 0.43 c p3
301.02 503.56 0.43 c p3
301.16 504.44 0.43 c p3
301.31 503.85 0.43 c p3
301.45 503.27 0.43 c p3
301.60 503.56 0.43 c p3
301.74 504.73 0.43 c p3
301.89 503.85 0.43 c p3
302.04 502.68 0.43 c p3
302.18 504.44 0.43 c p3
302.33 502.98 0.43 c p3
302.47 503.56 0.43 c p3
302.62 502.68 0.43 c p3
302.76 503.56 0.43 c p3
302.91 503.56 0.43 c p3
303.06 503.27 0.43 c p3
303.20 504.15 0.43 c p3
303.35 504.44 0.43 c p3
303.49 505.02 0.43 c p3
303.64 503.85 0.43 c p3
303.78 504.15 0.43 c p3
303.93 504.15 0.43 c p3
304.07 504.44 0.43 c p3
304.22 504.15 0.43 c p3
304.37 505.32 0.43 c p3
304.51 504.15 0.43 c p3
304.66 503.56 0.43 c p3
304.80 504.44 0.43 c p3
304.95 503.27 0.43 c p3
305.09 503.56 0.43 c p3
305.24 503.85 0.43 c p3
305.38 503.56 0.43 c p3
305.53 504.44 0.43 c p3
305.68 503.85 0.43 c p3
305.82 503.56 0.43 c p3
305.97 503.56 0.43 c p3
306.11 503.85 0.43 c p3
306.26 505.32 0.43 c p3
306.40 505.02 0.43 c p3
306.55 503.27 0.43 c p3
306.69 505.02 0.43 c p3
306.84 503.56 0.43 c p3
306.99 504.44 0.43 c p3
307.13 503.85 0.43 c p3
307.28 504.73 0.43 c p3
307.42 505.02 0.43 c p3
307.57 505.02 0.43 c p3
307.71 504.15 0.43 c p3
307.86 505.02 0.43 c p3
308.01 505.02 0.43 c p3
308.15 504.73 0.43 c p3
308.30 503.56 0.43 c p3
308.44 505.90 0.43 c p3
308.59 503.85 0.43 c p3
308.73 503.85 0.43 c p3
308.88 504.44 0.43 c p3
309.02 504.15 0.43 c p3
309.17 505.32 0.43 c p3
309.32 505.90 0.43 c p3
309.46 504.44 0.43 c p3
309.61 505.32 0.43 c p3
309.75 504.15 0.43 c p3
309.90 504.44 0.43 c p3
310.04 506.78 0.43 c p3
310.19 504.73 0.43 c p3
310.33 504.44 0.43 c p3
310.48 505.02 0.43 c p3
310.63 505.32 0.43 c p3
310.77 505.32 0.43 c p3
310.92 504.44 0.43 c p3
311.06 505.61 0.43 c p3
311.21 505.90 0.43 c p3
311.35 505.90 0.43 c p3
311.50 505.02 0.43 c p3
311.64 505.02 0.43 c p3
311.79 504.44 0.43 c p3
311.94 506.20 0.43 c p3
312.08 504.44 0.43 c p3
312.23 506.20 0.43 c p3
312.37 505.61 0.43 c p3
312.52 504.15 0.43 c p3
312.66 505.02 0.43 c p3
312.81 504.44 0.43 c p3
312.96 505.02 0.43 c p3
313.10 505.90 0.43 c p3
313.25 503.85 0.43 c p3
313.39 504.44 0.43 c p3
313.54 505.61 0.43 c p3
313.68 505.32 0.43 c p3
313.83 505.61 0.43 c p3
313.97 506.20 0.43 c p3
314.12 504.44 0.43 c p3
314.27 505.02 0.43 c p3
314.41 505.02 0.43 c p3
314.56 506.49 0.43 c p3
314.70 507.07 0.43 c p3
314.85 506.49 0.43 c p3
314.99 506.78 0.43 c p3
315.14 505.61 0.43 c p3
315.28 505.90 0.43 c p3
315.43 507.07 0.43 c p3
315.58 505.32 0.43 c p3
315.72 506.78 0.43 c p3
315.87 505.61 0.43 c p3
316.01 504.73 0.43 c p3
316.16 505.32 0.43 c p3
316.30 505.32 0.43 c p3
316.45 505.02 0.43 c p3
316.59 506.49 0.43 c p3
316.74 505.32 0.43 c p3
316.89 506.78 0.43 c p3
317.03 505.02 0.43 c p3
317.18 505.90 0.43 c p3
317.32 507.07 0.43 c p3
317.47 506.49 0.43 c p3
317.61 505.32 0.43 c p3
317.76 506.78 0.43 c p3
317.91 506.20 0.43 c p3
318.05 504.73 0.43 c p3
318.20 505.32 0.43 c p3
318.34 506.20 0.43 c p3
318.49 505.61 0.43 c p3
318.63 505.02 0.43 c p3
318.78 505.32 0.43 c p3
318.92 506.78 0.43 c p3
319.07 506.49 0.43 c p3
319.22 505.90 0.43 c p3
319.36 505.02 0.43 c p3
319.51 505.90 0.43 c p3
319.65 505.32 0.43 c p3
319.80 505.61 0.43 c p3
319.94 506.20 0.43 c p3
320.09 506.49 0.43 c p3
320.23 505.32 0.43 c p3
320.38 506.20 0.43 c p3
320.53 505.61 0.43 c p3
320.67 505.61 0.43 c p3
320.82 507.07 0.43 c p3
320.96 507.07 0.43 c p3
321.11 506.20 0.43 c p3
321.25 506.49 0.43 c p3
321.40 505.61 0.43 c p3
321.54 505.90 0.43 c p3
321.69 505.90 0.43 c p3
321.84 506.49 0.43 c p3
321.98 505.90 0.43 c p3
322.13 505.61 0.43 c p3
322.27 505.90 0.43 c p3
322.42 506.78 0.43 c p3
322.56 505.32 0.43 c p3
322.71 506.49 0.43 c p3
322.85 507.37 0.43 c p3
323.00 507.37 0.43 c p3
323.15 505.90 0.43 c p3
323.29 506.49 0.43 c p3
323.44 506.49 0.43 c p3
323.58 506.49 0.43 c p3
323.73 505.02 0.43 c p3
323.87 506.78 0.43 c p3
324.02 508.54 0.43 c p3
324.17 506.20 0.43 c p3
324.31 507.66 0.43 c p3
324.46 505.90 0.43 c p3
324.60 506.78 0.43 c p3
324.75 505.61 0.43 c p3
324.89 504.73 0.43 c p3
325.04 506.78 0.43 c p3
325.18 507.37 0.43 c p3
325.33 506.78 0.43 c p3
325.48 506.78 0.43 c p3
325.62 506.20 0.43 c p3
325.77 507.66 0.43 c p3
325.91 507.07 0.43 c p3
326.06 506.20 0.43 c p3
326.20 505.90 0.43 c p3
326.35 506.20 0.43 c p3
326.49 506.20 0.43 c p3
326.64 504.73 0.43 c p3
326.79 506.78 0.43 c p3
326.93 507.95 0.43 c p3
327.08 505.90 0.43 c p3
327.22 505.61 0.43 c p3
327.37 504.73 0.43 c p3
327.51 505.02 0.43 c p3
327.66 506.49 0.43 c p3
327.80 505.61 0.43 c p3
327.95 505.90 0.43 c p3
328.10 505.90 0.43 c p3
328.24 506.78 0.43 c p3
328.39 505.02 0.43 c p3
328.53 505.61 0.43 c p3
328.68 505.90 0.43 c p3
328.82 505.32 0.43 c p3
328.97 507.37 0.43 c p3
329.12 505.90 0.43 c p3
329.26 506.78 0.43 c p3
329.41 506.78 0.43 c p3
329.55 507.66 0.43 c p3
329.70 507.95 0.43 c p3
329.84 506.49 0.43 c p3
329.99 505.90 0.43 c p3
330.13 506.20 0.43 c p3
330.28 506.49 0.43 c p3
330.43 506.20 0.43 c p3
330.57 505.90 0.43 c p3
330.72 505.61 0.43 c p3
330.86 504.73 0.43 c p3
331.01 506.49 0.43 c p3
331.15 507.07 0.43 c p3
331.30 506.78 0.43 c p3
331.44 505.90 0.43 c p3
331.59 507.07 0.43 c p3
331.74 507.37 0.43 c p3
331.88 506.49 0.43 c p3
332.03 506.20 0.43 c p3
332.17 506.49 0.43 c p3
332.32 505.32 0.43 c p3
332.46 505.90 0.43 c p3
332.61 505.90 0.43 c p3
332.75 506.78 0.43 c p3
332.90 506.20 0.43 c p3
333.05 505.32 0.43 c p3
333.19 505.61 0.43 c p3
333.34 506.49 0.43 c p3
333.48 506.49 0.43 c p3
333.63 505.61 0.43 c p3
333.77 506.78 0.43 c p3
333.92 507.37 0.43 c p3
334.07 506.78 0.43 c p3
334.21 505.61 0.43 c p3
334.36 505.02 0.43 c p3
334.50 505.32 0.43 c p3
334.65 505.90 0.43 c p3
334.79 507.95 0.43 c p3
334.94 506.20 0.43 c p3
335.08 506.20 0.43 c p3
335.23 505.02 0.43 c p3
335.38 506.49 0.43 c p3
335.52 505.61 0.43 c p3
335.67 507.95 0.43 c p3
335.81 506.78 0.43 c p3
335.96 505.32 0.43 c p3
336.10 507.37 0.43 c p3
336.25 506.78 0.43 c p3
336.39 505.90 0.43 c p3
336.54 506.49 0.43 c p3
336.69 505.90 0.43 c p3
336.83 506.49 0.43 c p3
336.98 505.32 0.43 c p3
337.12 506.78 0.43 c p3
337.27 506.78 0.43 c p3
337.41 506.49 0.43 c p3
337.56 505.90 0.43 c p3
337.70 505.90 0.43 c p3
337.85 506.20 0.43 c p3
338.00 505.90 0.43 c p3
338.14 506.20 0.43 c p3
338.29 506.49 0.43 c p3
338.43 506.49 0.43 c p3
338.58 506.78 0.43 c p3
338.72 504.73 0.43 c p3
338.87 505.02 0.43 c p3
339.02 505.32 0.43 c p3
339.16 505.90 0.43 c p3
339.31 506.20 0.43 c p3
339.45 505.32 0.43 c p3
339.60 506.20 0.43 c p3
339.74 505.61 0.43 c p3
339.89 505.02 0.43 c p3
340.03 505.02 0.43 c p3
340.18 504.44 0.43 c p3
340.33 506.49 0.43 c p3
340.47 506.20 0.43 c p3
340.62 505.61 0.43 c p3
340.76 506.20 0.43 c p3
340.91 506.49 0.43 c p3
341.05 504.73 0.43 c p3
341.20 505.90 0.43 c p3
341.34 506.20 0.43 c p3
341.49 506.20 0.43 c p3
341.64 506.49 0.43 c p3
341.78 505.02 0.43 c p3
341.93 505.90 0.43 c p3
342.07 505.32 0.43 c p3
342.22 505.32 0.43 c p3
342.36 505.90 0.43 c p3
342.51 504.73 0.43 c p3
342.65 503.85 0.43 c p3
342.80 504.44 0.43 c p3
342.95 506.78 0.43 c p3
343.09 505.32 0.43 c p3
343.24 507.07 0.43 c p3
343.38 504.44 0.43 c p3
343.53 505.32 0.43 c p3
343.67 505.32 0.43 c p3
343.82 506.20 0.43 c p3
343.97 504.73 0.43 c p3
344.11 503.27 0.43 c p3
344.26 506.20 0.43 c p3
344.40 504.44 0.43 c p3
344.55 506.20 0.43 c p3
344.69 505.90 0.43 c p3
344.84 505.61 0.43 c p3
344.98 505.02 0.43 c p3
345.13 505.32 0.43 c p3
345.28 505.32 0.43 c p3
345.42 506.49 0.43 c p3
345.57 506.49 0.43 c p3
345.71 498.93 0.43 c p3
345.86 512.00 0.43 c p3
346.00 503.85 0.43 c p3
346.15 506.49 0.43 c p3
346.29 503.27 0.43 c p3
346.44 504.15 0.43 c p3
346.59 507.07 0.43 c p3
346.73 506.20 0.43 c p3
346.88 505.02 0.43 c p3
347.02 505.61 0.43 c p3
347.17 505.02 0.43 c p3
347.31 505.02 0.43 c p3
347.46 505.02 0.43 c p3
347.60 505.61 0.43 c p3
347.75 504.44 0.43 c p3
347.90 504.73 0.43 c p3
348.04 505.32 0.43 c p3
348.19 504.44 0.43 c p3
348.33 504.44 0.43 c p3
348.48 504.44 0.43 c p3
348.62 504.73 0.43 c p3
348.77 504.73 0.43 c p3
348.92 506.20 0.43 c p3
349.06 503.85 0.43 c p3
349.21 505.02 0.43 c p3
349.35 504.44 0.43 c p3
349.50 505.90 0.43 c p3
349.64 506.49 0.43 c p3
349.79 505.02 0.43 c p3
349.93 505.32 0.43 c p3
350.08 505.32 0.43 c p3
350.23 505.02 0.43 c p3
350.37 505.61 0.43 c p3
350.52 505.02 0.43 c p3
350.66 506.20 0.43 c p3
350.81 504.73 0.43 c p3
350.95 505.61 0.43 c p3
351.10 505.61 0.43 c p3
351.24 505.32 0.43 c p3
351.39 505.02 0.43 c p3
351.54 502.98 0.43 c p3
351.68 504.44 0.43 c p3
351.83 504.73 0.43 c p3
351.97 505.02 0.43 c p3
352.12 503.27 0.43 c p3
352.26 504.44 0.43 c p3
352.41 505.61 0.43 c p3
352.55 504.73 0.43 c p3
352.70 505.02 0.43 c p3
352.85 504.44 0.43 c p3
352.99 504.73 0.43 c p3
353.14 504.15 0.43 c p3
353.28 505.02 0.43 c p3
353.43 505.32 0.43 c p3
353.57 505.02 0.43 c p3
353.72 505.32 0.43 c p3
353.86 502.98 0.43 c p3
354.01 503.85 0.43 c p3
354.16 506.20 0.43 c p3
354.30 505.32 0.43 c p3
354.45 503.56 0.43 c p3
354.59 505.02 0.43 c p3
354.74 505.32 0.43 c p3
354.88 503.85 0.43 c p3
355.03 504.44 0.43 c p3
355.18 503.56 0.43 c p3
355.32 504.73 0.43 c p3
355.47 503.27 0.43 c p3
355.61 504.15 0.43 c p3
355.76 503.56 0.43 c p3
355.90 505.02 0.43 c p3
356.05 505.02 0.43 c p3
356.19 505.32 0.43 c p3
356.34 503.27 0.43 c p3
356.49 504.44 0.43 c p3
356.63 503.85 0.43 c p3
356.78 502.68 0.43 c p3
356.92 504.73 0.43 c p3
357.07 505.61 0.43 c p3
357.21 503.27 0.43 c p3
357.36 503.56 0.43 c p3
357.50 505.32 0.43 c p3
357.65 505.32 0.43 c p3
357.80 503.27 0.43 c p3
357.94 504.15 0.43 c p3
358.09 504.44 0.43 c p3
358.23 503.56 0.43 c p3
358.38 503.27 0.43 c p3
358.52 504.73 0.43 c p3
358.67 502.39 0.43 c p3
358.81 504.15 0.43 c p3
358.96 504.15 0.43 c p3
359.11 503.85 0.43 c p3
359.25 503.85 0.43 c p3
359.40 503.85 0.43 c p3
359.54 505.90 0.43 c p3
359.69 505.02 0.43 c p3
359.83 504.15 0.43 c p3
359.98 504.73 0.43 c p3
360.13 504.44 0.43 c p3
360.27 504.44 0.43 c p3
360.42 502.68 0.43 c p3
360.56 503.85 0.43 c p3
360.71 503.27 0.43 c p3
360.85 505.90 0.43 c p3
361.00 505.32 0.43 c p3
361.14 504.15 0.43 c p3
361.29 503.27 0.43 c p3
361.44 504.73 0.43 c p3
361.58 503.27 0.43 c p3
361.73 504.44 0.43 c p3
361.87 502.98 0.43 c p3
362.02 503.27 0.43 c p3
362.16 505.02 0.43 c p3
362.31 504.15 0.43 c p3
362.45 502.39 0.43 c p3
362.60 504.15 0.43 c p3
362.75 504.15 0.43 c p3
362.89 503.85 0.43 c p3
363.04 505.02 0.43 c p3
363.18 503.27 0.43 c p3
363.33 504.73 0.43 c p3
363.47 504.15 0.43 c p3
363.62 504.73 0.43 c p3
363.76 502.98 0.43 c p3
363.91 503.85 0.43 c p3
364.06 503.56 0.43 c p3
364.20 503.56 0.43 c p3
364.35 504.15 0.43 c p3
364.49 505.02 0.43 c p3
364.64 503.56 0.43 c p3
364.78 503.85 0.43 c p3
364.93 502.39 0.43 c p3
365.08 502.39 0.43 c p3
365.22 503.27 0.43 c p3
365.37 502.10 0.43 c p3
365.51 503.27 0.43 c p3
365.66 503.56 0.43 c p3
365.80 504.44 0.43 c p3
365.95 503.85 0.43 c p3
366.09 503.56 0.43 c p3
366.24 502.39 0.43 c p3
366.39 502.98 0.43 c p3
366.53 502.68 0.43 c p3
366.68 503.56 0.43 c p3
366.82 502.68 0.43 c p3
366.97 502.98 0.43 c p3
367.11 503.27 0.43 c p3
367.26 504.44 0.43 c p3
367.40 502.98 0.43 c p3
367.55 503.56 0.43 c p3
367.70 502.68 0.43 c p3
367.84 503.85 0.43 c p3
367.99 504.44 0.43 c p3
368.13 501.81 0.43 c p3
368.28 502.68 0.43 c p3
368.42 501.51 0.43 c p3
368.57 503.56 0.43 c p3
368.71 504.73 0.43 c p3
368.86 502.68 0.43 c p3
369.01 503.56 0.43 c p3
369.15 503.56 0.43 c p3
369.30 503.27 0.43 c p3
369.44 502.39 0.43 c p3
369.59 504.15 0.43 c p3
369.73 503.27 0.43 c p3
369.88 503.56 0.43 c p3
370.03 502.98 0.43 c p3
370.17 504.15 0.43 c p3
370.32 503.27 0.43 c p3
370.46 502.98 0.43 c p3
370.61 502.10 0.43 c p3
370.75 503.27 0.43 c p3
370.90 503.27 0.43 c p3
371.04 503.85 0.43 c p3
371.19 502.39 0.43 c p3
371.34 504.15 0.43 c p3
371.48 503.27 0.43 c p3
371.63 501.51 0.43 c p3
371.77 502.68 0.43 c p3
371.92 503.56 0.43 c p3
372.06 502.98 0.43 c p3
372.21 502.68 0.43 c p3
372.35 503.56 0.43 c p3
372.50 503.56 0.43 c p3
372.65 505.61 0.43 c p3
372.79 502.68 0.43 c p3
372.94 502.10 0.43 c p3
373.08 502.68 0.43 c p3
373.23 503.27 0.43 c p3
373.37 503.56 0.43 c p3
373.52 503.27 0.43 c p3
373.66 503.27 0.43 c p3
373.81 503.27 0.43 c p3
373.96 503.27 0.43 c p3
374.10 502.68 0.43 c p3
374.25 502.39 0.43 c p3
374.39 502.68 0.43 c p3
374.54 501.81 0.43 c p3
374.68 503.85 0.43 c p3
374.83 501.81 0.43 c p3
374.98 502.10 0.43 c p3
375.12 502.68 0.43 c p3
375.27 502.10 0.43 c p3
375.41 504.15 0.43 c p3
375.56 502.68 0.43 c p3
375.70 503.85 0.43 c p3
375.85 503.56 0.43 c p3
375.99 501.81 0.43 c p3
376.14 502.68 0.43 c p3
376.29 502.98 0.43 c p3
376.43 501.51 0.43 c p3
376.58 503.27 0.43 c p3
376.72 503.56 0.43 c p3
376.87 502.98 0.43 c p3
377.01 502.39 0.43 c p3
377.16 504.15 0.43 c p3
377.30 503.27 0.43 c p3
377.45 501.81 0.43 c p3
377.60 502.98 0.43 c p3
377.74 502.98 0.43 c p3
377.89 503.85 0.43 c p3
378.03 502.10 0.43 c p3
378.18 502.39 0.43 c p3
378.32 502.39 0.43 c p3
378.47 503.27 0.43 c p3
378.61 502.98 0.43 c p3
378.76 502.10 0.43 c p3
378.91 502.39 0.43 c p3
379.05 502.98 0.43 c p3
379.20 502.10 0.43 c p3
379.34 503.56 0.43 c p3
379.49 502.68 0.43 c p3
379.63 504.15 0.43 c p3
379.78 503.85 0.43 c p3
379.93 501.81 0.43 c p3
380.07 503.27 0.43 c p3
380.22 503.27 0.43 c p3
380.36 503.27 0.43 c p3
380.51 502.68 0.43 c p3
380.65 503.56 0.43 c p3
380.80 501.81 0.43 c p3
380.94 501.51 0.43 c p3
381.09 502.68 0.43 c p3
381.24 503.56 0.43 c p3
381.38 502.39 0.43 c p3
381.53 500.93 0.43 c p3
381.67 503.27 0.43 c p3
381.82 503.85 0.43 c p3
381.96 503.27 0.43 c p3
382.11 503.27 0.43 c p3
382.25 502.10 0.43 c p3
382.40 502.10 0.43 c p3
0.00 0.00 432.00 576.00 cl
0 0 0 srgb
0.75 setlinewidth
[] 0 setdash
1 setlinecap
1 setlinejoin
10.00 setmiterlimit
np
236.96 345.60 m
129.41 0 l
o
np
236.96 345.60 m
0 -5.76 l
o
np
269.31 345.60 m
0 -5.76 l
o
np
301.66 345.60 m
0 -5.76 l
o
np
334.02 345.60 m
0 -5.76 l
o
np
366.37 345.60 m
0 -5.76 l
o
/Font1 findfont 10 s
236.96 329.47 (0) .5 0 t
269.31 329.47 (10000) .5 0 t
334.02 329.47 (30000) .5 0 t
np
216.00 352.00 m
0 159.84 l
o
np
216.00 352.00 m
-5.76 0 l
o
np
216.00 391.96 m
-5.76 0 l
o
np
216.00 431.92 m
-5.76 0 l
o
np
216.00 471.88 m
-5.76 0 l
o
np
216.00 511.84 m
-5.76 0 l
o
209.09 348.41 (0.00) 1 0 t
209.09 388.37 (0.05) 1 0 t
209.09 428.33 (0.10) 1 0 t
209.09 468.29 (0.15) 1 0 t
209.09 508.25 (0.20) 1 0 t
np
216.00 345.60 m
172.80 0 l
0 172.80 l
-172.80 0 l
0 -172.80 l
o
0.00 0.00 432.00 576.00 cl
/Font1 findfont 10 s
0 0 0 srgb
302.40 313.34 (Time / ms \(total\)) .5 0 t
190.66 432.00 (U / V) .5 90 t
216.00 345.60 388.80 518.40 cl
0 0 0 srgb
0.38 setlinewidth
[ 1.13 1.88] 0 setdash
1 setlinecap
1 setlinejoin
10.00 setmiterlimit
np
222.40 345.60 m
0 172.80 l
o
np
235.50 345.60 m
0 172.80 l
o
np
238.27 345.60 m
0 172.80 l
o
np
323.29 345.60 m
0 172.80 l
o
86.40 57.60 388.80 288.00 cl
1 0 0 srgb
1.50 setlinewidth
[] 0 setdash
1 setlinecap
1 setlinejoin
10.00 setmiterlimit
np
97.60 279.47 m
1.41 -7.35 l
1.40 -7.10 l
1.41 -6.85 l
1.41 -6.62 l
1.41 -6.39 l
1.40 -6.17 l
1.41 -5.96 l
1.41 -5.75 l
1.40 -5.55 l
1.41 -5.36 l
1.41 -5.18 l
1.40 -5.00 l
1.41 -4.83 l
1.41 -4.66 l
1.41 -4.50 l
1.40 -4.35 l
1.41 -4.19 l
1.41 -4.06 l
1.40 -3.91 l
1.41 -3.78 l
1.41 -3.65 l
1.40 -3.52 l
1.41 -3.40 l
1.41 -3.28 l
1.41 -3.17 l
1.40 -3.07 l
1.41 -2.95 l
1.41 -2.86 l
1.40 -2.75 l
1.41 -2.66 l
1.41 -2.57 l
1.41 -2.49 l
1.40 -2.39 l
1.41 -2.32 l
1.41 -2.23 l
1.40 -2.16 l
1.41 -2.08 l
1.41 -2.01 l
1.40 -1.94 l
1.41 -1.88 l
1.41 -1.81 l
1.41 -1.75 l
1.40 -1.68 l
1.41 -1.63 l
1.41 -1.58 l
1.40 -1.52 l
1.41 -1.47 l
1.41 -1.41 l
1.40 -1.37 l
1.41 -1.32 l
1.41 -1.28 l
1.41 -1.23 l
1.40 -1.19 l
1.41 -1.15 l
1.41 -1.10 l
1.40 -1.08 l
1.41 -1.03 l
1.41 -1.00 l
1.41 -0.96 l
1.40 -0.93 l
1.41 -0.90 l
1.41 -0.87 l
1.40 -0.84 l
1.41 -0.80 l
1.41 -0.79 l
1.40 -0.75 l
1.41 -0.73 l
1.41 -0.70 l
1.41 -0.68 l
1.40 -0.66 l
1.41 -0.63 l
1.41 -0.61 l
1.40 -0.59 l
1.41 -0.57 l
1.41 -0.55 l
1.40 -0.53 l
1.41 -0.51 l
1.41 -0.50 l
1.41 -0.48 l
1.40 -0.46 l
1.41 -0.45 l
1.41 -0.43 l
1.40 -0.41 l
1.41 -0.40 l
1.41 -0.39 l
1.41 -0.38 l
1.40 -0.36 l
1.41 -0.35 l
1.41 -0.33 l
1.40 -0.33 l
1.41 -0.31 l
1.41 -0.31 l
1.40 -0.29 l
1.41 -0.28 l
1.41 -0.28 l
1.41 -0.26 l
1.40 -0.25 l
1.41 -0.25 l
1.41 -0.24 l
238.30 72.36 lineto
1.41 -0.22 l
1.41 -0.21 l
1.40 -0.21 l
1.41 -0.20 l
1.41 -0.19 l
1.41 -0.19 l
1.40 -0.17 l
1.41 -0.18 l
1.41 -0.17 l
1.40 -0.16 l
1.41 -0.15 l
1.41 -0.15 l
1.40 -0.15 l
1.41 -0.14 l
1.41 -0.13 l
1.41 -0.14 l
1.40 -0.12 l
1.41 -0.12 l
1.41 -0.12 l
1.40 -0.12 l
1.41 -0.11 l
1.41 -0.10 l
1.41 -0.10 l
1.40 -0.10 l
1.41 -0.10 l
1.41 -0.09 l
1.40 -0.09 l
1.41 -0.09 l
1.41 -0.08 l
1.40 -0.08 l
1.41 -0.08 l
1.41 -0.07 l
1.41 -0.07 l
1.40 -0.07 l
1.41 -0.07 l
1.41 -0.06 l
1.40 -0.07 l
1.41 -0.06 l
1.41 -0.06 l
1.40 -0.05 l
1.41 -0.06 l
1.41 -0.05 l
1.41 -0.05 l
1.40 -0.05 l
1.41 -0.05 l
1.41 -0.04 l
1.40 -0.05 l
1.41 -0.04 l
1.41 -0.04 l
1.41 -0.04 l
1.40 -0.04 l
1.41 -0.04 l
1.41 -0.03 l
1.40 -0.04 l
1.41 -0.03 l
1.41 -0.03 l
1.40 -0.03 l
1.41 -0.03 l
1.41 -0.03 l
1.41 -0.03 l
1.40 -0.03 l
1.41 -0.02 l
1.41 -0.03 l
1.40 -0.02 l
1.41 -0.03 l
1.41 -0.02 l
1.40 -0.02 l
1.41 -0.02 l
1.41 -0.02 l
1.41 -0.02 l
1.40 -0.02 l
1.41 -0.02 l
1.41 -0.02 l
1.40 -0.02 l
1.41 -0.01 l
1.41 -0.02 l
1.41 -0.01 l
1.40 -0.02 l
1.41 -0.01 l
1.41 -0.02 l
1.40 -0.01 l
1.41 -0.01 l
1.41 -0.02 l
1.40 -0.01 l
1.41 -0.01 l
1.41 -0.01 l
1.41 -0.01 l
1.40 -0.01 l
1.41 -0.01 l
1.41 -0.01 l
1.40 -0.01 l
1.41 -0.01 l
1.41 -0.01 l
1.40 -0.01 l
1.41 -0.01 l
1.41 0 l
1.41 -0.01 l
1.40 -0.01 l
1.41 -0.01 l
o
0.00 0.00 432.00 576.00 cl
0 0 0 srgb
0.75 setlinewidth
[] 0 setdash
1 setlinecap
1 setlinejoin
10.00 setmiterlimit
np
97.60 57.60 m
248.89 0 l
o
np
97.60 57.60 m
0 -5.76 l
o
np
159.82 57.60 m
0 -5.76 l
o
np
222.04 57.60 m
0 -5.76 l
o
np
284.27 57.60 m
0 -5.76 l
o
np
346.49 57.60 m
0 -5.76 l
o
/Font1 findfont 10 s
97.60 41.47 (0) .5 0 t
159.82 41.47 (10000) .5 0 t
222.04 41.47 (20000) .5 0 t
284.27 41.47 (30000) .5 0 t
346.49 41.47 (40000) .5 0 t
np
86.40 106.93 m
0 126.61 l
o
np
86.40 106.93 m
-5.76 0 l
o
np
86.40 170.23 m
-5.76 0 l
o
np
86.40 233.54 m
-5.76 0 l
o
79.49 103.34 (0.00) 1 0 t
79.49 166.64 (0.05) 1 0 t
79.49 229.95 (0.10) 1 0 t
np
86.40 57.60 m
302.40 0 l
0 230.40 l
-302.40 0 l
0 -230.40 l
o
0.00 0.00 432.00 576.00 cl
/Font1 findfont 10 s
0 0 0 srgb
237.60 13.82 (Time / ms \(after pulse\)) .5 0 t
49.54 172.80 (Absorbance A) .5 90 t
86.40 57.60 388.80 288.00 cl
/bg { 1 1 1 srgb } def
0 0 0 srgb
0.75 setlinewidth
[] 0 setdash
1 setlinecap
1 setlinejoin
10.00 setmiterlimit
100.40 291.41 0.65 c p3
100.68 295.89 0.65 c p3
100.96 274.33 0.65 c p3
101.24 280.48 0.65 c p3
101.52 277.40 0.65 c p3
101.80 266.75 0.65 c p3
102.08 272.81 0.65 c p3
102.36 265.24 0.65 c p3
102.64 266.75 0.65 c p3
102.92 265.24 0.65 c p3
103.20 259.26 0.65 c p3
103.48 266.75 0.65 c p3
103.76 250.66 0.65 c p3
104.04 257.78 0.65 c p3
104.32 259.26 0.65 c p3
104.60 253.34 0.65 c p3
104.88 251.88 0.65 c p3
105.16 244.83 0.65 c p3
105.44 244.83 0.65 c p3
105.72 246.28 0.65 c p3
106.00 243.38 0.65 c p3
106.28 237.64 0.65 c p3
106.56 240.50 0.65 c p3
106.84 237.64 0.65 c p3
107.12 236.21 0.65 c p3
107.40 234.78 0.65 c p3
107.68 233.36 0.65 c p3
107.96 229.12 0.65 c p3
108.24 230.53 0.65 c p3
108.52 231.95 0.65 c p3
108.80 227.72 0.65 c p3
109.08 226.32 0.65 c p3
109.36 226.32 0.65 c p3
109.64 226.32 0.65 c p3
109.92 227.72 0.65 c p3
110.20 216.60 0.65 c p3
110.48 220.74 0.65 c p3
110.76 217.98 0.65 c p3
111.04 217.98 0.65 c p3
111.32 211.35 0.65 c p3
111.60 215.23 0.65 c p3
111.88 209.99 0.65 c p3
112.16 208.63 0.65 c p3
112.44 215.23 0.65 c p3
112.72 213.86 0.65 c p3
113.00 207.28 0.65 c p3
113.28 204.58 0.65 c p3
113.56 199.22 0.65 c p3
113.84 201.89 0.65 c p3
114.12 201.89 0.65 c p3
114.40 200.56 0.65 c p3
114.68 207.28 0.65 c p3
114.96 200.56 0.65 c p3
115.24 197.89 0.65 c p3
115.52 195.24 0.65 c p3
115.80 196.56 0.65 c p3
116.08 196.56 0.65 c p3
116.36 188.66 0.65 c p3
116.64 195.24 0.65 c p3
116.92 192.59 0.65 c p3
117.20 191.28 0.65 c p3
117.48 189.97 0.65 c p3
117.76 189.97 0.65 c p3
118.04 189.97 0.65 c p3
118.32 187.35 0.65 c p3
118.60 186.05 0.65 c p3
118.88 180.87 0.65 c p3
119.16 180.87 0.65 c p3
119.44 187.35 0.65 c p3
119.72 180.87 0.65 c p3
120.00 180.87 0.65 c p3
120.28 180.87 0.65 c p3
120.56 184.75 0.65 c p3
120.84 180.87 0.65 c p3
121.12 175.94 0.65 c p3
121.40 174.67 0.65 c p3
121.68 172.13 0.65 c p3
121.96 177.23 0.65 c p3
122.24 173.40 0.65 c p3
122.52 175.94 0.65 c p3
122.80 167.07 0.65 c p3
123.08 173.40 0.65 c p3
123.36 165.82 0.65 c p3
123.64 172.13 0.65 c p3
123.92 170.86 0.65 c p3
124.20 168.33 0.65 c p3
124.48 164.56 0.65 c p3
124.76 174.67 0.65 c p3
125.04 164.56 0.65 c p3
125.32 165.82 0.65 c p3
125.60 159.58 0.65 c p3
125.88 168.33 0.65 c p3
126.16 167.07 0.65 c p3
126.44 164.56 0.65 c p3
126.72 162.07 0.65 c p3
127.00 159.58 0.65 c p3
127.28 162.07 0.65 c p3
127.56 154.64 0.65 c p3
127.84 153.41 0.65 c p3
128.12 153.41 0.65 c p3
128.40 157.11 0.65 c p3
128.68 155.87 0.65 c p3
128.96 155.87 0.65 c p3
129.24 155.87 0.65 c p3
129.52 150.97 0.65 c p3
129.80 148.53 0.65 c p3
130.08 152.19 0.65 c p3
130.36 147.31 0.65 c p3
130.64 158.34 0.65 c p3
130.92 146.10 0.65 c p3
131.20 147.31 0.65 c p3
131.48 149.75 0.65 c p3
131.76 150.97 0.65 c p3
132.04 144.89 0.65 c p3
132.32 146.10 0.65 c p3
132.60 148.53 0.65 c p3
132.88 148.53 0.65 c p3
133.16 146.10 0.65 c p3
133.44 146.10 0.65 c p3
133.72 150.97 0.65 c p3
134.00 143.89 0.65 c p3
134.28 148.53 0.65 c p3
134.56 144.89 0.65 c p3
134.84 142.68 0.65 c p3
135.12 141.48 0.65 c p3
135.40 142.68 0.65 c p3
135.68 140.28 0.65 c p3
135.96 144.89 0.65 c p3
136.24 144.89 0.65 c p3
136.52 135.51 0.65 c p3
136.80 140.28 0.65 c p3
137.08 141.48 0.65 c p3
137.36 146.10 0.65 c p3
137.64 140.28 0.65 c p3
137.92 142.68 0.65 c p3
138.20 142.68 0.65 c p3
138.48 141.48 0.65 c p3
138.76 136.70 0.65 c p3
139.04 133.15 0.65 c p3
139.32 136.70 0.65 c p3
139.60 141.48 0.65 c p3
139.88 129.61 0.65 c p3
140.16 135.51 0.65 c p3
140.44 133.15 0.65 c p3
140.72 133.15 0.65 c p3
141.00 130.78 0.65 c p3
141.28 133.15 0.65 c p3
141.56 133.15 0.65 c p3
141.84 137.90 0.65 c p3
142.12 135.51 0.65 c p3
142.40 131.96 0.65 c p3
142.68 133.15 0.65 c p3
142.96 128.44 0.65 c p3
143.24 130.78 0.65 c p3
143.52 131.96 0.65 c p3
143.80 126.10 0.65 c p3
144.08 134.33 0.65 c p3
144.36 129.61 0.65 c p3
144.64 133.15 0.65 c p3
144.92 126.10 0.65 c p3
145.20 130.78 0.65 c p3
145.48 128.44 0.65 c p3
145.76 128.44 0.65 c p3
146.04 131.96 0.65 c p3
146.32 133.15 0.65 c p3
146.60 130.78 0.65 c p3
146.88 127.27 0.65 c p3
147.16 134.33 0.65 c p3
147.44 129.61 0.65 c p3
147.72 128.44 0.65 c p3
148.00 122.61 0.65 c p3
148.28 124.93 0.65 c p3
148.56 126.10 0.65 c p3
148.84 123.77 0.65 c p3
149.12 127.27 0.65 c p3
149.40 122.61 0.65 c p3
149.68 120.29 0.65 c p3
149.96 119.14 0.65 c p3
150.24 126.10 0.65 c p3
150.52 129.61 0.65 c p3
150.80 122.61 0.65 c p3
151.08 122.61 0.65 c p3
151.36 124.93 0.65 c p3
151.64 122.61 0.65 c p3
151.92 127.27 0.65 c p3
152.20 124.93 0.65 c p3
152.48 123.77 0.65 c p3
152.76 124.93 0.65 c p3
153.04 121.45 0.65 c p3
153.32 122.61 0.65 c p3
153.60 121.45 0.65 c p3
153.88 121.45 0.65 c p3
154.16 123.77 0.65 c p3
154.44 115.69 0.65 c p3
154.72 122.61 0.65 c p3
155.00 120.29 0.65 c p3
155.28 121.45 0.65 c p3
155.56 122.61 0.65 c p3
155.84 122.61 0.65 c p3
156.12 120.29 0.65 c p3
156.40 115.69 0.65 c p3
156.68 113.41 0.65 c p3
156.96 121.45 0.65 c p3
157.24 120.29 0.65 c p3
157.52 121.45 0.65 c p3
157.80 121.45 0.65 c p3
158.08 116.84 0.65 c p3
158.36 120.29 0.65 c p3
158.64 120.29 0.65 c p3
158.92 114.55 0.65 c p3
159.20 115.69 0.65 c p3
159.48 116.84 0.65 c p3
159.76 112.46 0.65 c p3
160.04 116.84 0.65 c p3
160.32 112.46 0.65 c p3
160.60 117.99 0.65 c p3
160.88 115.69 0.65 c p3
161.16 120.29 0.65 c p3
161.44 111.32 0.65 c p3
161.72 115.69 0.65 c p3
162.00 115.69 0.65 c p3
162.28 115.69 0.65 c p3
162.56 115.69 0.65 c p3
162.84 115.69 0.65 c p3
163.12 113.41 0.65 c p3
163.40 106.80 0.65 c p3
163.68 112.46 0.65 c p3
163.96 115.69 0.65 c p3
164.24 107.92 0.65 c p3
164.52 112.46 0.65 c p3
164.80 114.55 0.65 c p3
165.08 113.41 0.65 c p3
165.36 111.32 0.65 c p3
165.64 110.18 0.65 c p3
165.92 116.84 0.65 c p3
166.20 111.32 0.65 c p3
166.48 107.92 0.65 c p3
166.76 113.41 0.65 c p3
167.04 114.55 0.65 c p3
167.32 113.41 0.65 c p3
167.60 109.05 0.65 c p3
167.88 107.92 0.65 c p3
168.16 105.67 0.65 c p3
168.44 110.18 0.65 c p3
168.72 106.80 0.65 c p3
169.00 110.18 0.65 c p3
169.28 107.92 0.65 c p3
169.56 110.18 0.65 c p3
169.84 105.67 0.65 c p3
170.12 111.32 0.65 c p3
170.40 105.67 0.65 c p3
170.68 106.80 0.65 c p3
170.96 107.92 0.65 c p3
171.24 106.80 0.65 c p3
171.52 107.92 0.65 c p3
171.80 109.05 0.65 c p3
172.08 104.54 0.65 c p3
172.36 104.54 0.65 c p3
172.64 103.42 0.65 c p3
172.92 106.80 0.65 c p3
173.20 101.19 0.65 c p3
173.48 106.80 0.65 c p3
173.76 105.67 0.65 c p3
174.04 107.92 0.65 c p3
174.32 97.85 0.65 c p3
174.60 105.67 0.65 c p3
174.88 103.42 0.65 c p3
175.16 103.42 0.65 c p3
175.44 102.31 0.65 c p3
175.72 98.96 0.65 c p3
176.00 103.42 0.65 c p3
176.28 102.31 0.65 c p3
176.56 96.75 0.65 c p3
176.84 100.07 0.65 c p3
177.12 103.42 0.65 c p3
177.40 98.96 0.65 c p3
177.68 104.54 0.65 c p3
177.96 103.42 0.65 c p3
178.24 97.85 0.65 c p3
178.52 101.19 0.65 c p3
178.80 100.07 0.65 c p3
179.08 101.19 0.65 c p3
179.36 101.19 0.65 c p3
179.64 104.54 0.65 c p3
179.92 98.96 0.65 c p3
180.20 103.42 0.65 c p3
180.48 95.64 0.65 c p3
180.76 100.07 0.65 c p3
181.04 102.31 0.65 c p3
181.32 103.42 0.65 c p3
181.60 94.54 0.65 c p3
181.88 98.96 0.65 c p3
182.16 95.64 0.65 c p3
182.44 96.75 0.65 c p3
182.72 92.34 0.65 c p3
183.00 97.85 0.65 c p3
183.28 101.19 0.65 c p3
183.56 94.54 0.65 c p3
183.84 93.44 0.65 c p3
184.12 92.34 0.65 c p3
184.40 93.44 0.65 c p3
184.68 92.34 0.65 c p3
184.96 95.64 0.65 c p3
185.24 93.44 0.65 c p3
185.52 97.85 0.65 c p3
185.80 96.75 0.65 c p3
186.08 96.75 0.65 c p3
186.36 98.96 0.65 c p3
186.64 101.19 0.65 c p3
186.92 94.54 0.65 c p3
187.20 95.64 0.65 c p3
187.48 91.24 0.65 c p3
187.76 94.54 0.65 c p3
188.04 91.24 0.65 c p3
188.32 96.75 0.65 c p3
188.60 92.34 0.65 c p3
188.88 94.54 0.65 c p3
189.16 90.15 0.65 c p3
189.44 86.88 0.65 c p3
189.72 90.15 0.65 c p3
190.00 92.34 0.65 c p3
190.28 92.34 0.65 c p3
190.56 89.05 0.65 c p3
190.84 92.34 0.65 c p3
191.12 87.96 0.65 c p3
191.40 96.75 0.65 c p3
191.68 90.15 0.65 c p3
191.96 83.81 0.65 c p3
192.24 92.34 0.65 c p3
192.52 90.15 0.65 c p3
192.80 91.24 0.65 c p3
193.08 92.34 0.65 c p3
193.36 89.05 0.65 c p3
193.64 92.34 0.65 c p3
193.92 91.24 0.65 c p3
194.20 86.88 0.65 c p3
194.48 87.96 0.65 c p3
194.76 92.34 0.65 c p3
195.04 86.88 0.65 c p3
195.32 91.24 0.65 c p3
195.60 84.71 0.65 c p3
195.88 85.79 0.65 c p3
196.16 81.65 0.65 c p3
196.44 84.71 0.65 c p3
196.72 85.79 0.65 c p3
197.00 85.79 0.65 c p3
197.28 85.79 0.65 c p3
197.56 86.88 0.65 c p3
197.84 89.05 0.65 c p3
198.12 87.96 0.65 c p3
198.40 86.88 0.65 c p3
198.68 86.88 0.65 c p3
198.96 89.05 0.65 c p3
199.24 84.71 0.65 c p3
199.52 87.96 0.65 c p3
199.80 84.71 0.65 c p3
200.08 85.79 0.65 c p3
200.36 89.05 0.65 c p3
200.64 87.96 0.65 c p3
200.92 78.43 0.65 c p3
201.20 84.71 0.65 c p3
201.48 85.79 0.65 c p3
201.76 89.05 0.65 c p3
202.04 84.71 0.65 c p3
202.32 78.43 0.65 c p3
202.60 84.71 0.65 c p3
202.88 85.79 0.65 c p3
203.16 83.81 0.65 c p3
203.44 82.73 0.65 c p3
203.72 87.96 0.65 c p3
204.00 84.71 0.65 c p3
204.28 81.65 0.65 c p3
204.56 81.65 0.65 c p3
204.84 85.79 0.65 c p3
205.12 83.81 0.65 c p3
205.40 82.73 0.65 c p3
205.68 83.81 0.65 c p3
205.96 82.73 0.65 c p3
206.24 79.50 0.65 c p3
206.52 83.81 0.65 c p3
206.80 80.57 0.65 c p3
207.08 84.71 0.65 c p3
207.36 82.73 0.65 c p3
207.64 80.57 0.65 c p3
207.92 78.43 0.65 c p3
208.20 84.71 0.65 c p3
208.48 82.73 0.65 c p3
208.76 81.65 0.65 c p3
209.04 81.65 0.65 c p3
209.32 85.79 0.65 c p3
209.60 77.36 0.65 c p3
209.88 78.43 0.65 c p3
210.16 79.50 0.65 c p3
210.44 75.23 0.65 c p3
210.72 79.50 0.65 c p3
211.00 76.29 0.65 c p3
211.28 80.57 0.65 c p3
211.56 79.50 0.65 c p3
211.84 81.65 0.65 c p3
212.12 75.23 0.65 c p3
212.40 81.65 0.65 c p3
212.68 78.43 0.65 c p3
212.96 80.57 0.65 c p3
213.24 78.43 0.65 c p3
213.52 76.29 0.65 c p3
213.80 79.50 0.65 c p3
214.08 79.50 0.65 c p3
214.36 78.43 0.65 c p3
214.64 76.29 0.65 c p3
214.92 76.29 0.65 c p3
215.20 79.50 0.65 c p3
215.48 81.65 0.65 c p3
215.76 79.50 0.65 c p3
216.04 80.57 0.65 c p3
216.32 77.36 0.65 c p3
216.60 76.29 0.65 c p3
216.88 79.50 0.65 c p3
217.16 82.73 0.65 c p3
217.44 75.23 0.65 c p3
217.72 77.36 0.65 c p3
218.00 75.23 0.65 c p3
218.28 78.43 0.65 c p3
218.56 76.29 0.65 c p3
218.84 74.16 0.65 c p3
219.12 77.36 0.65 c p3
219.40 73.10 0.65 c p3
219.68 74.16 0.65 c p3
219.96 77.36 0.65 c p3
220.24 73.10 0.65 c p3
220.52 75.23 0.65 c p3
220.80 74.16 0.65 c p3
221.08 74.16 0.65 c p3
221.36 70.99 0.65 c p3
221.64 73.10 0.65 c p3
221.92 75.23 0.65 c p3
222.20 74.16 0.65 c p3
222.48 69.93 0.65 c p3
222.76 73.10 0.65 c p3
223.04 77.36 0.65 c p3
223.32 70.99 0.65 c p3
223.60 76.29 0.65 c p3
223.88 74.16 0.65 c p3
224.16 77.36 0.65 c p3
224.44 74.16 0.65 c p3
224.72 74.16 0.65 c p3
225.00 75.23 0.65 c p3
225.28 72.05 0.65 c p3
225.56 70.99 0.65 c p3
225.84 68.88 0.65 c p3
226.12 73.10 0.65 c p3
226.40 72.05 0.65 c p3
226.68 72.05 0.65 c p3
226.96 70.99 0.65 c p3
227.24 72.05 0.65 c p3
227.52 67.83 0.65 c p3
227.80 72.05 0.65 c p3
228.08 74.16 0.65 c p3
228.36 70.99 0.65 c p3
228.64 75.23 0.65 c p3
228.92 74.16 0.65 c p3
229.20 73.10 0.65 c p3
229.48 74.16 0.65 c p3
229.76 70.99 0.65 c p3
230.04 73.10 0.65 c p3
230.32 74.16 0.65 c p3
230.60 74.16 0.65 c p3
230.88 73.10 0.65 c p3
231.16 67.83 0.65 c p3
231.44 68.88 0.65 c p3
231.72 75.23 0.65 c p3
232.00 68.88 0.65 c p3
232.28 74.16 0.65 c p3
232.56 70.99 0.65 c p3
232.84 73.10 0.65 c p3
233.12 69.93 0.65 c p3
233.40 68.88 0.65 c p3
233.68 68.88 0.65 c p3
233.96 72.05 0.65 c p3
234.24 68.88 0.65 c p3
234.52 68.88 0.65 c p3
234.80 69.93 0.65 c p3
235.08 74.16 0.65 c p3
235.36 65.73 0.65 c p3
235.64 73.10 0.65 c p3
235.92 73.10 0.65 c p3
236.20 70.99 0.65 c p3
236.48 72.05 0.65 c p3
236.76 67.83 0.65 c p3
237.04 65.73 0.65 c p3
237.32 70.99 0.65 c p3
237.60 67.83 0.65 c p3
237.88 72.05 0.65 c p3
238.16 70.99 0.65 c p3
238.44 62.61 0.65 c p3
238.72 69.93 0.65 c p3
239.00 70.99 0.65 c p3
239.28 68.88 0.65 c p3
239.56 67.83 0.65 c p3
239.84 67.83 0.65 c p3
240.12 70.99 0.65 c p3
240.40 66.78 0.65 c p3
240.68 65.73 0.65 c p3
240.96 65.73 0.65 c p3
241.24 68.88 0.65 c p3
241.52 68.88 0.65 c p3
241.80 70.99 0.65 c p3
242.08 64.69 0.65 c p3
242.36 70.99 0.65 c p3
242.64 64.69 0.65 c p3
242.92 66.78 0.65 c p3
243.20 72.05 0.65 c p3
243.48 68.88 0.65 c p3
243.76 70.99 0.65 c p3
244.04 68.88 0.65 c p3
244.32 65.73 0.65 c p3
244.60 73.10 0.65 c p3
244.88 70.99 0.65 c p3
245.16 66.78 0.65 c p3
245.44 67.83 0.65 c p3
245.72 66.78 0.65 c p3
246.00 64.69 0.65 c p3
246.28 70.99 0.65 c p3
246.56 68.88 0.65 c p3
246.84 68.88 0.65 c p3
247.12 63.65 0.65 c p3
247.40 61.57 0.65 c p3
247.68 63.65 0.65 c p3
247.96 62.61 0.65 c p3
248.24 66.78 0.65 c p3
248.52 65.73 0.65 c p3
248.80 61.57 0.65 c p3
249.08 67.83 0.65 c p3
249.36 62.61 0.65 c p3
249.64 66.78 0.65 c p3
249.92 69.93 0.65 c p3
250.20 67.83 0.65 c p3
250.48 67.83 0.65 c p3
250.76 68.88 0.65 c p3
251.04 63.65 0.65 c p3
251.32 67.83 0.65 c p3
251.60 62.61 0.65 c p3
251.88 68.88 0.65 c p3
252.16 65.73 0.65 c p3
252.44 61.57 0.65 c p3
252.72 63.65 0.65 c p3
253.00 67.83 0.65 c p3
253.28 62.61 0.65 c p3
253.56 64.69 0.65 c p3
253.84 69.93 0.65 c p3
254.12 67.83 0.65 c p3
254.40 64.69 0.65 c p3
254.68 66.78 0.65 c p3
254.96 68.88 0.65 c p3
255.24 67.83 0.65 c p3
255.52 62.61 0.65 c p3
255.80 63.65 0.65 c p3
256.08 65.73 0.65 c p3
256.36 68.88 0.65 c p3
256.64 65.73 0.65 c p3
256.92 67.83 0.65 c p3
257.20 66.78 0.65 c p3
257.48 64.69 0.65 c p3
257.76 63.65 0.65 c p3
258.04 67.83 0.65 c p3
258.32 64.69 0.65 c p3
258.60 66.78 0.65 c p3
258.88 66.78 0.65 c p3
259.16 61.57 0.65 c p3
259.44 61.57 0.65 c p3
259.72 64.69 0.65 c p3
260.00 63.65 0.65 c p3
260.28 66.78 0.65 c p3
260.56 65.73 0.65 c p3
260.84 65.73 0.65 c p3
261.12 63.65 0.65 c p3
261.40 65.73 0.65 c p3
261.68 66.78 0.65 c p3
261.96 65.73 0.65 c p3
262.24 62.61 0.65 c p3
262.52 67.83 0.65 c p3
262.80 63.65 0.65 c p3
263.08 60.53 0.65 c p3
263.36 60.53 0.65 c p3
263.64 65.73 0.65 c p3
263.92 63.65 0.65 c p3
216.00 201.60 367.20 247.68 cl
0 0 0 srgb
0.75 setlinewidth
[] 0 setdash
1 setlinecap
1 setlinejoin
10.00 setmiterlimit
221.60 236.27 0.43 c p1
221.84 238.86 0.43 c p1
222.08 229.94 0.43 c p1
222.32 233.26 0.43 c p1
222.56 232.50 0.43 c p1
222.80 228.39 0.43 c p1
223.04 231.66 0.43 c p1
223.28 228.90 0.43 c p1
223.52 230.14 0.43 c p1
223.76 230.06 0.43 c p1
224.00 227.99 0.43 c p1
224.24 231.87 0.43 c p1
224.48 225.32 0.43 c p1
224.72 229.03 0.43 c p1
224.96 230.25 0.43 c p1
225.20 228.19 0.43 c p1
225.44 228.09 0.43 c p1
225.68 225.52 0.43 c p1
225.92 226.07 0.43 c p1
226.15 227.25 0.43 c p1
226.39 226.50 0.43 c p1
226.63 224.49 0.43 c p1
226.87 226.29 0.43 c p1
227.11 225.55 0.43 c p1
227.35 225.43 0.43 c p1
227.59 225.32 0.43 c p1
227.83 225.21 0.43 c p1
228.07 223.84 0.43 c p1
228.31 224.97 0.43 c p1
228.55 226.10 0.43 c p1
228.79 224.73 0.43 c p1
229.03 224.61 0.43 c p1
229.27 225.10 0.43 c p1
229.51 225.59 0.43 c p1
229.75 226.70 0.43 c p1
229.99 222.26 0.43 c p1
230.23 224.57 0.43 c p1
230.47 223.83 0.43 c p1
230.71 224.30 0.43 c p1
230.95 221.84 0.43 c p1
231.19 224.02 0.43 c p1
231.43 222.17 0.43 c p1
231.67 222.03 0.43 c p1
231.91 225.40 0.43 c p1
232.15 225.25 0.43 c p1
232.39 222.79 0.43 c p1
232.63 222.04 0.43 c p1
232.87 220.12 0.43 c p1
233.11 221.74 0.43 c p1
233.35 222.18 0.43 c p1
233.59 222.02 0.43 c p1
233.83 225.42 0.43 c p1
234.07 222.88 0.43 c p1
234.31 222.13 0.43 c p1
234.55 221.38 0.43 c p1
234.78 222.38 0.43 c p1
235.02 222.80 0.43 c p1
235.26 219.72 0.43 c p1
235.50 223.04 0.43 c p1
235.74 222.28 0.43 c p1
235.98 222.10 0.43 c p1
236.22 221.93 0.43 c p1
236.46 222.33 0.43 c p1
236.70 222.72 0.43 c p1
236.94 221.96 0.43 c p1
237.18 221.78 0.43 c p1
237.42 219.87 0.43 c p1
237.66 220.26 0.43 c p1
237.90 223.51 0.43 c p1
238.14 221.02 0.43 c p1
238.38 221.40 0.43 c p1
238.62 221.78 0.43 c p1
238.86 223.87 0.43 c p1
239.10 222.52 0.43 c p1
239.34 220.71 0.43 c p1
239.58 220.51 0.43 c p1
239.82 219.75 0.43 c p1
240.06 222.37 0.43 c p1
240.30 221.03 0.43 c p1
240.54 222.51 0.43 c p1
240.78 218.94 0.43 c p1
241.02 222.09 0.43 c p1
241.26 219.09 0.43 c p1
241.50 222.22 0.43 c p1
241.74 222.00 0.43 c p1
241.98 221.23 0.43 c p1
242.22 219.90 0.43 c p1
242.46 224.70 0.43 c p1
242.70 220.57 0.43 c p1
242.94 221.45 0.43 c p1
243.18 219.03 0.43 c p1
243.42 223.22 0.43 c p1
243.65 222.99 0.43 c p1
243.89 222.20 0.43 c p1
244.13 221.42 0.43 c p1
244.37 220.64 0.43 c p1
244.61 222.05 0.43 c p1
244.85 219.08 0.43 c p1
245.09 218.85 0.43 c p1
245.33 219.16 0.43 c p1
245.57 221.10 0.43 c p1
245.81 220.86 0.43 c p1
246.05 221.16 0.43 c p1
246.29 221.46 0.43 c p1
246.53 219.59 0.43 c p1
246.77 218.81 0.43 c p1
247.01 220.72 0.43 c p1
247.25 218.86 0.43 c p1
247.49 224.02 0.43 c p1
247.73 218.90 0.43 c p1
247.97 219.72 0.43 c p1
248.21 221.08 0.43 c p1
248.45 221.90 0.43 c p1
248.69 219.50 0.43 c p1
248.93 220.31 0.43 c p1
249.17 221.66 0.43 c p1
249.41 221.93 0.43 c p1
249.65 221.13 0.43 c p1
249.89 221.40 0.43 c p1
250.13 223.82 0.43 c p1
250.37 220.96 0.43 c p1
250.61 223.28 0.43 c p1
250.85 221.93 0.43 c p1
251.09 221.22 0.43 c p1
251.33 220.94 0.43 c p1
251.57 221.73 0.43 c p1
251.81 220.93 0.43 c p1
252.05 223.22 0.43 c p1
252.28 223.47 0.43 c p1
252.52 219.58 0.43 c p1
252.76 221.93 0.43 c p1
253.00 222.71 0.43 c p1
253.24 225.00 0.43 c p1
253.48 222.67 0.43 c p1
253.72 223.97 0.43 c p1
253.96 224.21 0.43 c p1
254.20 223.92 0.43 c p1
254.44 222.04 0.43 c p1
254.68 220.71 0.43 c p1
254.92 222.51 0.43 c p1
255.16 224.86 0.43 c p1
255.40 219.84 0.43 c p1
255.64 222.68 0.43 c p1
255.88 221.86 0.43 c p1
256.12 222.09 0.43 c p1
256.36 221.27 0.43 c p1
256.60 222.53 0.43 c p1
256.84 222.75 0.43 c p1
257.08 225.07 0.43 c p1
257.32 224.24 0.43 c p1
257.56 222.88 0.43 c p1
257.80 223.62 0.43 c p1
258.04 221.75 0.43 c p1
258.28 223.00 0.43 c p1
258.52 223.74 0.43 c p1
258.76 221.35 0.43 c p1
259.00 225.20 0.43 c p1
259.24 223.32 0.43 c p1
259.48 225.09 0.43 c p1
259.72 222.17 0.43 c p1
259.96 224.45 0.43 c p1
260.20 223.61 0.43 c p1
260.44 223.81 0.43 c p1
260.68 225.56 0.43 c p1
260.92 226.28 0.43 c p1
261.15 225.44 0.43 c p1
261.39 224.07 0.43 c p1
261.63 227.39 0.43 c p1
261.87 225.49 0.43 c p1
262.11 225.16 0.43 c p1
262.35 222.78 0.43 c p1
262.59 223.99 0.43 c p1
262.83 224.69 0.43 c p1
263.07 223.85 0.43 c p1
263.31 225.57 0.43 c p1
263.55 223.70 0.43 c p1
263.79 222.85 0.43 c p1
264.03 222.52 0.43 c p1
264.27 225.78 0.43 c p1
264.51 227.51 0.43 c p1
264.75 224.59 0.43 c p1
264.99 224.76 0.43 c p1
265.23 225.96 0.43 c p1
265.47 225.11 0.43 c p1
265.71 227.34 0.43 c p1
265.95 226.47 0.43 c p1
266.19 226.13 0.43 c p1
266.43 226.81 0.43 c p1
266.67 225.44 0.43 c p1
266.91 226.11 0.43 c p1
267.15 225.76 0.43 c p1
267.39 225.93 0.43 c p1
267.63 227.11 0.43 c p1
267.87 223.71 0.43 c p1
268.11 226.92 0.43 c p1
268.35 226.06 0.43 c p1
268.59 226.72 0.43 c p1
268.83 227.39 0.43 c p1
269.07 227.55 0.43 c p1
269.31 226.68 0.43 c p1
269.55 224.80 0.43 c p1
269.78 223.94 0.43 c p1
270.02 227.64 0.43 c p1
270.26 227.28 0.43 c p1
270.50 227.94 0.43 c p1
270.74 228.09 0.43 c p1
270.98 226.20 0.43 c p1
271.22 227.87 0.43 c p1
271.46 228.01 0.43 c p1
271.70 225.62 0.43 c p1
271.94 226.27 0.43 c p1
272.18 226.92 0.43 c p1
272.42 225.12 0.43 c p1
272.66 227.20 0.43 c p1
272.90 225.40 0.43 c p1
273.14 227.98 0.43 c p1
273.38 227.10 0.43 c p1
273.62 229.27 0.43 c p1
273.86 225.44 0.43 c p1
274.10 227.51 0.43 c p1
274.34 227.64 0.43 c p1
274.58 227.77 0.43 c p1
274.82 227.90 0.43 c p1
275.06 228.03 0.43 c p1
275.30 227.15 0.43 c p1
275.54 224.36 0.43 c p1
275.78 226.99 0.43 c p1
276.02 228.54 0.43 c p1
276.26 225.24 0.43 c p1
276.50 227.36 0.43 c p1
276.74 228.41 0.43 c p1
276.98 228.03 0.43 c p1
277.22 227.23 0.43 c p1
277.46 226.85 0.43 c p1
277.70 229.91 0.43 c p1
277.94 227.59 0.43 c p1
278.18 226.21 0.43 c p1
278.42 228.75 0.43 c p1
278.65 229.37 0.43 c p1
278.89 228.98 0.43 c p1
279.13 227.18 0.43 c p1
279.37 226.79 0.43 c p1
279.61 225.91 0.43 c p1
279.85 228.02 0.43 c p1
280.09 226.63 0.43 c p1
280.33 228.24 0.43 c p1
280.57 227.35 0.43 c p1
280.81 228.46 0.43 c p1
281.05 226.58 0.43 c p1
281.29 229.18 0.43 c p1
281.53 226.79 0.43 c p1
281.77 227.40 0.43 c p1
282.01 228.00 0.43 c p1
282.25 227.61 0.43 c p1
282.49 228.21 0.43 c p1
282.73 228.82 0.43 c p1
282.97 226.93 0.43 c p1
283.21 227.03 0.43 c p1
283.45 226.64 0.43 c p1
283.69 228.23 0.43 c p1
283.93 225.85 0.43 c p1
284.17 228.43 0.43 c p1
284.41 228.03 0.43 c p1
284.65 229.12 0.43 c p1
284.89 224.77 0.43 c p1
285.13 228.32 0.43 c p1
285.37 227.43 0.43 c p1
285.61 227.52 0.43 c p1
285.85 227.12 0.43 c p1
286.09 225.74 0.43 c p1
286.33 227.81 0.43 c p1
286.57 227.40 0.43 c p1
286.81 225.04 0.43 c p1
287.05 226.60 0.43 c p1
287.28 228.17 0.43 c p1
287.52 226.29 0.43 c p1
287.76 228.85 0.43 c p1
288.00 228.44 0.43 c p1
288.24 226.07 0.43 c p1
288.48 227.63 0.43 c p1
288.72 227.23 0.43 c p1
288.96 227.81 0.43 c p1
289.20 227.89 0.43 c p1
289.44 229.46 0.43 c p1
289.68 227.08 0.43 c p1
289.92 229.14 0.43 c p1
290.16 225.78 0.43 c p1
290.40 227.82 0.43 c p1
290.64 228.89 0.43 c p1
290.88 229.47 0.43 c p1
291.12 225.62 0.43 c p1
291.36 227.66 0.43 c p1
291.60 226.27 0.43 c p1
291.84 226.84 0.43 c p1
292.08 224.97 0.43 c p1
292.32 227.49 0.43 c p1
292.56 229.04 0.43 c p1
292.80 226.18 0.43 c p1
293.04 225.77 0.43 c p1
293.28 225.36 0.43 c p1
293.52 225.92 0.43 c p1
293.76 225.51 0.43 c p1
294.00 227.04 0.43 c p1
294.24 226.15 0.43 c p1
294.48 228.17 0.43 c p1
294.72 227.76 0.43 c p1
294.96 227.83 0.43 c p1
295.20 228.88 0.43 c p1
295.44 229.94 0.43 c p1
295.68 227.07 0.43 c p1
295.92 227.63 0.43 c p1
296.15 225.75 0.43 c p1
296.39 227.28 0.43 c p1
296.63 225.89 0.43 c p1
296.87 228.39 0.43 c p1
297.11 226.51 0.43 c p1
297.35 227.55 0.43 c p1
297.59 225.68 0.43 c p1
297.83 224.30 0.43 c p1
298.07 225.82 0.43 c p1
298.31 226.85 0.43 c p1
298.55 226.92 0.43 c p1
298.79 225.53 0.43 c p1
299.03 227.05 0.43 c p1
299.27 225.18 0.43 c p1
299.51 229.12 0.43 c p1
299.75 226.27 0.43 c p1
299.99 223.53 0.43 c p1
300.23 227.36 0.43 c p1
300.47 226.46 0.43 c p1
300.71 227.00 0.43 c p1
300.95 227.55 0.43 c p1
301.19 226.16 0.43 c p1
301.43 227.67 0.43 c p1
301.67 227.24 0.43 c p1
301.91 225.38 0.43 c p1
302.15 225.92 0.43 c p1
302.39 227.91 0.43 c p1
302.63 225.55 0.43 c p1
302.87 227.54 0.43 c p1
303.11 224.71 0.43 c p1
303.35 225.24 0.43 c p1
303.59 223.47 0.43 c p1
303.83 224.88 0.43 c p1
304.07 225.41 0.43 c p1
304.31 225.47 0.43 c p1
304.55 225.52 0.43 c p1
304.78 226.06 0.43 c p1
305.02 227.08 0.43 c p1
305.26 226.65 0.43 c p1
305.50 226.22 0.43 c p1
305.74 226.28 0.43 c p1
305.98 227.29 0.43 c p1
306.22 225.42 0.43 c p1
306.46 226.91 0.43 c p1
306.70 225.53 0.43 c p1
306.94 226.06 0.43 c p1
307.18 227.55 0.43 c p1
307.42 227.12 0.43 c p1
307.66 222.96 0.43 c p1
307.90 225.78 0.43 c p1
308.14 226.31 0.43 c p1
308.38 227.80 0.43 c p1
308.62 225.93 0.43 c p1
308.86 223.20 0.43 c p1
309.10 226.02 0.43 c p1
309.34 226.55 0.43 c p1
309.58 225.72 0.43 c p1
309.82 225.29 0.43 c p1
310.06 227.65 0.43 c p1
310.30 226.26 0.43 c p1
310.54 224.96 0.43 c p1
310.78 225.00 0.43 c p1
311.02 226.88 0.43 c p1
311.26 226.05 0.43 c p1
311.50 225.61 0.43 c p1
311.74 226.14 0.43 c p1
311.98 225.70 0.43 c p1
312.22 224.32 0.43 c p1
312.46 226.27 0.43 c p1
312.70 224.88 0.43 c p1
312.94 226.75 0.43 c p1
313.18 225.92 0.43 c p1
313.42 225.01 0.43 c p1
313.65 224.11 0.43 c p1
313.89 226.92 0.43 c p1
314.13 226.09 0.43 c p1
314.37 225.66 0.43 c p1
314.61 225.70 0.43 c p1
314.85 227.57 0.43 c p1
315.09 223.88 0.43 c p1
315.33 224.40 0.43 c p1
315.57 224.91 0.43 c p1
315.81 223.06 0.43 c p1
316.05 224.99 0.43 c p1
316.29 223.61 0.43 c p1
316.53 225.54 0.43 c p1
316.77 225.11 0.43 c p1
317.01 226.09 0.43 c p1
317.25 223.29 0.43 c p1
317.49 226.17 0.43 c p1
317.73 224.78 0.43 c p1
317.97 225.77 0.43 c p1
318.21 224.86 0.43 c p1
318.45 223.95 0.43 c p1
318.69 225.41 0.43 c p1
318.93 225.44 0.43 c p1
319.17 225.00 0.43 c p1
319.41 224.10 0.43 c p1
319.65 224.13 0.43 c p1
319.89 225.58 0.43 c p1
320.13 226.57 0.43 c p1
320.37 225.65 0.43 c p1
320.61 226.16 0.43 c p1
320.85 224.78 0.43 c p1
321.09 224.34 0.43 c p1
321.33 225.79 0.43 c p1
321.57 227.25 0.43 c p1
321.81 223.97 0.43 c p1
322.05 224.95 0.43 c p1
322.28 224.04 0.43 c p1
322.52 225.48 0.43 c p1
322.76 224.57 0.43 c p1
323.00 223.66 0.43 c p1
323.24 225.11 0.43 c p1
323.48 223.26 0.43 c p1
323.72 223.76 0.43 c p1
323.96 225.20 0.43 c p1
324.20 223.35 0.43 c p1
324.44 224.32 0.43 c p1
324.68 223.88 0.43 c p1
324.92 223.91 0.43 c p1
325.16 222.54 0.43 c p1
325.40 223.51 0.43 c p1
325.64 224.47 0.43 c p1
325.88 224.03 0.43 c p1
326.12 222.19 0.43 c p1
326.36 223.62 0.43 c p1
326.60 225.53 0.43 c p1
326.84 222.75 0.43 c p1
327.08 225.12 0.43 c p1
327.32 224.21 0.43 c p1
327.56 225.65 0.43 c p1
327.80 224.26 0.43 c p1
328.04 224.29 0.43 c p1
328.28 224.79 0.43 c p1
328.52 223.41 0.43 c p1
328.76 222.97 0.43 c p1
329.00 222.07 0.43 c p1
329.24 223.96 0.43 c p1
329.48 223.52 0.43 c p1
329.72 223.55 0.43 c p1
329.96 223.10 0.43 c p1
330.20 223.60 0.43 c p1
330.44 221.76 0.43 c p1
330.68 223.65 0.43 c p1
330.92 224.61 0.43 c p1
331.15 223.23 0.43 c p1
331.39 225.13 0.43 c p1
331.63 224.69 0.43 c p1
331.87 224.24 0.43 c p1
332.11 224.74 0.43 c p1
332.35 223.36 0.43 c p1
332.59 224.32 0.43 c p1
332.83 224.81 0.43 c p1
333.07 224.84 0.43 c p1
333.31 224.39 0.43 c p1
333.55 222.08 0.43 c p1
333.79 222.57 0.43 c p1
334.03 225.40 0.43 c p1
334.27 222.62 0.43 c p1
334.51 224.98 0.43 c p1
334.75 223.59 0.43 c p1
334.99 224.55 0.43 c p1
335.23 223.17 0.43 c p1
335.47 222.73 0.43 c p1
335.71 222.75 0.43 c p1
335.95 224.18 0.43 c p1
336.19 222.80 0.43 c p1
336.43 222.82 0.43 c p1
336.67 223.31 0.43 c p1
336.91 225.20 0.43 c p1
337.15 221.49 0.43 c p1
337.39 224.77 0.43 c p1
337.63 224.79 0.43 c p1
337.87 223.88 0.43 c p1
338.11 224.37 0.43 c p1
338.35 222.53 0.43 c p1
338.59 221.62 0.43 c p1
338.83 223.96 0.43 c p1
339.07 222.59 0.43 c p1
339.31 224.47 0.43 c p1
339.55 224.02 0.43 c p1
339.78 220.34 0.43 c p1
340.02 223.60 0.43 c p1
340.26 224.08 0.43 c p1
340.50 223.17 0.43 c p1
340.74 222.72 0.43 c p1
340.98 222.74 0.43 c p1
341.22 224.16 0.43 c p1
341.46 222.32 0.43 c p1
341.70 221.87 0.43 c p1
341.94 221.89 0.43 c p1
342.18 223.30 0.43 c p1
342.42 223.32 0.43 c p1
342.66 224.27 0.43 c p1
342.90 221.50 0.43 c p1
343.14 224.30 0.43 c p1
343.38 221.54 0.43 c p1
343.62 222.48 0.43 c p1
343.86 224.83 0.43 c p1
344.10 223.44 0.43 c p1
344.34 224.39 0.43 c p1
344.58 223.48 0.43 c p1
344.82 222.11 0.43 c p1
345.06 225.38 0.43 c p1
345.30 224.46 0.43 c p1
345.54 222.62 0.43 c p1
345.78 223.10 0.43 c p1
346.02 222.65 0.43 c p1
346.26 221.74 0.43 c p1
346.50 224.54 0.43 c p1
346.74 223.63 0.43 c p1
346.98 223.64 0.43 c p1
347.22 221.35 0.43 c p1
347.46 220.44 0.43 c p1
347.70 221.38 0.43 c p1
347.94 220.94 0.43 c p1
348.18 222.80 0.43 c p1
348.42 222.35 0.43 c p1
348.65 220.52 0.43 c p1
348.89 223.31 0.43 c p1
349.13 221.01 0.43 c p1
349.37 222.87 0.43 c p1
349.61 224.28 0.43 c p1
349.85 223.37 0.43 c p1
350.09 223.38 0.43 c p1
350.33 223.86 0.43 c p1
350.57 221.56 0.43 c p1
350.81 223.42 0.43 c p1
351.05 221.13 0.43 c p1
351.29 223.92 0.43 c p1
351.53 222.54 0.43 c p1
351.77 220.71 0.43 c p1
352.01 221.65 0.43 c p1
352.25 223.51 0.43 c p1
352.49 221.21 0.43 c p1
352.73 222.15 0.43 c p1
352.97 224.48 0.43 c p1
353.21 223.56 0.43 c p1
353.45 222.19 0.43 c p1
353.69 223.12 0.43 c p1
353.93 224.07 0.43 c p1
354.17 223.61 0.43 c p1
354.41 221.32 0.43 c p1
354.65 221.79 0.43 c p1
354.89 222.73 0.43 c p1
355.13 224.13 0.43 c p1
355.37 222.75 0.43 c p1
355.61 223.69 0.43 c p1
355.85 223.24 0.43 c p1
356.09 222.33 0.43 c p1
356.33 221.88 0.43 c p1
356.57 223.74 0.43 c p1
356.81 222.36 0.43 c p1
357.05 223.30 0.43 c p1
357.28 223.31 0.43 c p1
357.52 221.02 0.43 c p1
357.76 221.03 0.43 c p1
358.00 222.42 0.43 c p1
358.24 221.97 0.43 c p1
358.48 223.37 0.43 c p1
358.72 222.92 0.43 c p1
358.96 222.93 0.43 c p1
359.20 222.02 0.43 c p1
359.44 222.95 0.43 c p1
359.68 223.43 0.43 c p1
359.92 222.97 0.43 c p1
360.16 221.60 0.43 c p1
360.40 223.92 0.43 c p1
360.64 222.09 0.43 c p1
360.88 220.72 0.43 c p1
361.12 220.73 0.43 c p1
361.36 223.04 0.43 c p1
361.60 222.13 0.43 c p1
0.00 0.00 432.00 576.00 cl
0 0 0 srgb
0.75 setlinewidth
[] 0 setdash
1 setlinecap
1 setlinejoin
10.00 setmiterlimit
np
219.20 201.60 m
133.18 0 l
o
np
219.20 201.60 m
0 -5.76 l
o
np
245.84 201.60 m
0 -5.76 l
o
np
272.48 201.60 m
0 -5.76 l
o
np
299.11 201.60 m
0 -5.76 l
o
np
325.75 201.60 m
0 -5.76 l
o
np
352.38 201.60 m
0 -5.76 l
o
/Font1 findfont 6 s
219.20 185.47 (0) .5 0 t
245.84 185.47 (5000) .5 0 t
272.48 185.47 (10000) .5 0 t
299.11 185.47 (15000) .5 0 t
325.75 185.47 (20000) .5 0 t
352.38 185.47 (25000) .5 0 t
np
216.00 202.26 m
0 44.76 l
o
np
216.00 202.26 m
-5.76 0 l
o
np
216.00 213.45 m
-5.76 0 l
o
np
216.00 224.64 m
-5.76 0 l
o
np
216.00 235.83 m
-5.76 0 l
o
np
216.00 247.02 m
-5.76 0 l
o
209.09 200.10 (-0.04) 1 0 t
209.09 211.30 (-0.02) 1 0 t
209.09 222.49 (0.00) 1 0 t
209.09 233.68 (0.02) 1 0 t
209.09 244.87 (0.04) 1 0 t
np
216.00 201.60 m
151.20 0 l
0 46.08 l
-151.20 0 l
0 -46.08 l
o
0.00 0.00 432.00 576.00 cl
/Font1 findfont 9 s
0 0 0 srgb
291.60 262.88 (Residuals) .5 0 t
59.04 73.44 401.76 516.96 cl
ep
%%Trailer
%%Pages: 1
%%EOF
