%!PS-Adobe-3.0 EPSF-3.0
%%DocumentNeededResources: font Helvetica
%%+ font Helvetica-Bold
%%+ font Helvetica-Oblique
%%+ font Helvetica-BoldOblique
%%+ font Symbol
%%Title: R Graphics Output
%%Creator: R Software
%%Pages: (atend)
%%BoundingBox: 0 0 432 576
%%EndComments
%%BeginProlog
/bp  { gs sRGB gs } def
% begin .ps.prolog
/gs  { gsave } bind def
/gr  { grestore } bind def
/ep  { showpage gr gr } bind def
/m   { moveto } bind def
/l  { rlineto } bind def
/np  { newpath } bind def
/cp  { closepath } bind def
/f   { fill } bind def
/o   { stroke } bind def
/c   { newpath 0 360 arc } bind def
/r   { 4 2 roll moveto 1 copy 3 -1 roll exch 0 exch rlineto 0 rlineto -1 mul 0 exch rlineto closepath } bind def
/p1  { stroke } bind def
/p2  { gsave bg fill grestore newpath } bind def
/p3  { gsave bg fill grestore stroke } bind def
/p6  { gsave bg eofill grestore newpath } bind def
/p7  { gsave bg eofill grestore stroke } bind def
/t   { 5 -2 roll moveto gsave rotate
       1 index stringwidth pop
       mul neg 0 rmoveto show grestore } bind def
/ta  { 4 -2 roll moveto gsave rotate show } bind def
/tb  { 2 -1 roll 0 rmoveto show } bind def
/cl  { grestore gsave newpath 3 index 3 index moveto 1 index
       4 -1 roll lineto  exch 1 index lineto lineto
       closepath clip newpath } bind def
/rgb { setrgbcolor } bind def
/s   { scalefont setfont } bind def
% end   .ps.prolog
/sRGB { [ /CIEBasedABC
          << /DecodeLMN
               [ { dup 0.03928 le
                        {12.92321 div}
                        {0.055 add 1.055 div 2.4 exp }
                     ifelse
                 } bind dup dup
               ]
             /MatrixLMN [0.412457 0.212673 0.019334
                         0.357576 0.715152 0.119192
                         0.180437 0.072175 0.950301]
             /WhitePoint [0.9505 1.0 1.0890]
           >>
         ] setcolorspace } bind def
/srgb { setcolor } bind def
% begin encoding
/WinAnsiEncoding [
 /.notdef /.notdef /.notdef /.notdef /.notdef /.notdef /.notdef /.notdef
 /.notdef /.notdef /.notdef /.notdef /.notdef /.notdef /.notdef /.notdef
 /.notdef /.notdef /.notdef /.notdef /.notdef /.notdef /.notdef /.notdef
 /.notdef /.notdef /.notdef /.notdef /.notdef /.notdef /.notdef /.notdef
 /space /exclam /quotedbl /numbersign /dollar /percent /ampersand /quoteright
 /parenleft /parenright /asterisk /plus /comma /minus /period /slash
 /zero /one /two /three /four /five /six /seven
 /eight /nine /colon /semicolon /less /equal /greater /question
 /at /A /B /C /D /E /F /G
 /H /I /J /K /L /M /N /O
 /P /Q /R /S /T /U /V /W
 /X /Y /Z /bracketleft /backslash /bracketright /asciicircum /underscore
 /grave /a /b /c /d /e /f /g
 /h /i /j /k /l /m /n /o
 /p /q /r /s /t /u /v /w
 /x /y /z /braceleft /bar /braceright /asciitilde /.notdef
 /Euro /.notdef /quotesinglbase /florin /quotedblbase /ellipsis /dagger /daggerdbl
 /circumflex /perthousand /Scaron /guilsinglleft /OE /.notdef /Zcaron /.notdef
 /.notdef /quoteleft /quoteright /quotedblleft /quotedblright /bullet /endash /emdash
 /tilde /trademark /scaron /guilsinglright /oe /.notdef /zcaron /Ydieresis
 /space /exclamdown /cent /sterling /currency /yen /brokenbar /section
 /dieresis /copyright /ordfeminine /guillemotleft /logicalnot /hyphen /registered /macron
 /degree /plusminus /twosuperior /threesuperior /acute /mu /paragraph /periodcentered
 /cedilla /onesuperior /ordmasculine /guillemotright /onequarter /onehalf /threequarters /questiondown
 /Agrave /Aacute /Acircumflex /Atilde /Adieresis /Aring /AE /Ccedilla
 /Egrave /Eacute /Ecircumflex /Edieresis /Igrave /Iacute /Icircumflex /Idieresis
 /Eth /Ntilde /Ograve /Oacute /Ocircumflex /Otilde /Odieresis /multiply
 /Oslash /Ugrave /Uacute /Ucircumflex /Udieresis /Yacute /Thorn /germandbls
 /agrave /aacute /acircumflex /atilde /adieresis /aring /ae /ccedilla
 /egrave /eacute /ecircumflex /edieresis /igrave /iacute /icircumflex /idieresis
 /eth /ntilde /ograve /oacute /ocircumflex /otilde /odieresis /divide
 /oslash /ugrave /uacute /ucircumflex /udieresis /yacute /thorn /ydieresis
]
 def
% end encoding
%%IncludeResource: font Helvetica
/Helvetica findfont
dup length dict begin
  {1 index /FID ne {def} {pop pop} ifelse} forall
  /Encoding WinAnsiEncoding def
  currentdict
  end
/Font1 exch definefont pop
%%IncludeResource: font Helvetica-Bold
/Helvetica-Bold findfont
dup length dict begin
  {1 index /FID ne {def} {pop pop} ifelse} forall
  /Encoding WinAnsiEncoding def
  currentdict
  end
/Font2 exch definefont pop
%%IncludeResource: font Helvetica-Oblique
/Helvetica-Oblique findfont
dup length dict begin
  {1 index /FID ne {def} {pop pop} ifelse} forall
  /Encoding WinAnsiEncoding def
  currentdict
  end
/Font3 exch definefont pop
%%IncludeResource: font Helvetica-BoldOblique
/Helvetica-BoldOblique findfont
dup length dict begin
  {1 index /FID ne {def} {pop pop} ifelse} forall
  /Encoding WinAnsiEncoding def
  currentdict
  end
/Font4 exch definefont pop
%%IncludeResource: font Symbol
/Symbol findfont
dup length dict begin
  {1 index /FID ne {def} {pop pop} ifelse} forall
  currentdict
  end
/Font5 exch definefont pop
%%EndProlog
%%Page: 1 1
bp
/bg { 1 1 1 srgb } def
0.00 0.00 432.00 576.00 r p2
0.00 0.00 432.00 576.00 cl
0.00 0.00 432.00 576.00 cl
0.00 0.00 432.00 576.00 cl
/Font1 findfont 12 s
0 0 0 srgb
48.00 508.72 (PCP-ETH) 0 0 t
48.00 494.89 (Flash light photolysis) 0 0 t
/Font1 findfont 9 s
48.00 457.54 (File: Solv) 0 ta
-0.225 (ent_debendence_sol3_2_MSLM.dat) tb gr
48.00 334.87 (Sat Mar 05 15:14:37 2022) 0 0 t
48.00 430.87 (Fit function:  a + b * e) 0 ta
-0.270 (xp\(-c * t\)) tb gr
48.00 420.50 (t-Inter) 0 ta
0.270 (v) tb
-0.225 (all: 264.000 ... 12760.000 ms) tb gr
48.00 410.14 (P) 0 ta
-0.360 (ar) tb
-0.090 (ameters \(Standard de) tb
-0.270 (viation\):) tb gr
48.00 399.77 (  a = 0.01862 \(0.00037\)) 0 0 t
48.00 389.40 (  b = 0.28388 \(0.00070\)) 0 0 t
48.00 379.03 (  c = 3.178e-01 \(1.844e-03\) s^-1) 0 0 t
48.00 368.66 (  tau = 3.146e+00 \(1.825e-02\) s) 0 0 t
216.00 345.60 388.80 518.40 cl
0 0 0 srgb
0.75 setlinewidth
[] 0 setdash
1 setlinecap
1 setlinejoin
10.00 setmiterlimit
np
222.40 510.00 m
0.15 -0.63 l
0.14 0.47 l
0.15 0 l
0.14 0.63 l
0.15 -0.16 l
0.14 0.44 l
0.15 -1.06 l
0.14 0.31 l
0.15 0.91 l
0.15 -1.22 l
0.14 1.06 l
0.15 0.47 l
0.14 -0.91 l
0.15 0 l
0.14 1.38 l
0.15 -0.63 l
0.14 0 l
0.15 -1.06 l
0.15 0.91 l
0.14 -0.91 l
0.15 1.53 l
0.14 -1.69 l
0.15 0.31 l
0.14 0.47 l
0.15 -0.93 l
0.15 0.62 l
0.14 -0.31 l
0.15 1.06 l
0.14 -0.59 l
0.15 -0.94 l
0.14 0.16 l
0.15 0.93 l
0.14 -1.56 l
0.15 1.41 l
0.15 0.15 l
0.14 -0.15 l
0.15 -1.41 l
0.14 1.09 l
0.15 0 l
0.14 0.47 l
0.15 0.76 l
0.14 -0.63 l
0.15 -0.13 l
0.15 0.13 l
0.14 -0.13 l
0.15 -0.31 l
0.14 -0.47 l
0.15 0.47 l
0.14 0.75 l
0.15 -0.75 l
0.14 -0.31 l
0.15 0.47 l
0.15 0.15 l
0.14 -1.09 l
0.15 1.69 l
0.14 -0.75 l
0.15 0.91 l
0.14 -1.23 l
0.15 0.47 l
0.15 0.44 l
0.14 0.47 l
0.15 -1.69 l
0.14 -0.93 l
0.15 1.71 l
0.14 0.13 l
0.15 -0.28 l
0.14 1.22 l
0.15 -2.16 l
0.15 2.00 l
0.14 0.47 l
0.15 -1.25 l
0.14 -0.13 l
0.15 -0.47 l
0.14 0.47 l
0.15 -0.62 l
0.14 0.62 l
0.15 1.07 l
0.15 -0.47 l
0.14 0.78 l
0.15 -0.78 l
0.14 0 l
0.15 -1.22 l
0.14 -0.47 l
0.15 0.16 l
0.14 1.37 l
0.15 0.63 l
0.15 0.31 l
0.14 -0.16 l
0.15 -0.93 l
0.14 -0.16 l
0.15 -0.91 l
0.14 0.47 l
0.15 -0.62 l
0.15 0.31 l
0.14 0.15 l
0.15 -0.15 l
0.14 1.38 l
0.15 -0.91 l
0.14 0 l
236.96 432.47 lineto
0.14 -1.39 l
0.15 0.30 l
0.15 2.80 l
0.14 1.38 l
0.15 -4.31 l
0.14 4.94 l
0.15 -1.54 l
0.14 0.31 l
0.15 -1.40 l
0.14 1.87 l
0.15 0.29 l
0.15 -0.29 l
0.14 2.78 l
0.15 -1.24 l
0.14 -0.63 l
0.15 2.03 l
0.14 -1.09 l
0.15 0 l
0.14 0.47 l
0.15 0.46 l
0.15 2.01 l
0.14 0 l
0.15 -0.16 l
0.14 2.18 l
0.15 -2.78 l
0.14 0.76 l
0.15 0.93 l
0.15 -1.09 l
0.14 1.56 l
0.15 0.47 l
0.14 0.47 l
0.15 -0.63 l
0.14 0.47 l
0.15 -0.16 l
0.14 0.47 l
0.15 0.63 l
0.15 0.31 l
0.14 0.28 l
0.15 2.19 l
0.14 -0.63 l
0.15 -0.78 l
0.14 0.16 l
0.15 1.56 l
0.14 -0.47 l
0.15 0 l
0.15 0.31 l
0.14 0.47 l
0.15 1.69 l
0.14 -0.60 l
0.15 0.45 l
0.14 -0.60 l
0.15 0.44 l
0.14 -0.13 l
0.15 1.22 l
0.15 0.78 l
0.14 -0.93 l
0.15 0.15 l
0.14 1.09 l
0.15 -0.31 l
0.14 1.41 l
0.15 -0.94 l
0.15 0.47 l
0.14 0.47 l
0.15 0.15 l
0.14 1.07 l
0.15 -0.31 l
0.14 0.62 l
0.15 -0.16 l
0.14 0.47 l
0.15 0.16 l
0.15 -0.63 l
0.14 0.63 l
0.15 1.09 l
0.14 0.31 l
0.15 -0.62 l
0.14 0.78 l
0.15 0.31 l
0.14 0.16 l
0.15 1.53 l
0.15 -0.75 l
0.14 0.44 l
0.15 -0.16 l
0.14 0 l
0.15 0.63 l
0.14 1.40 l
0.15 -1.56 l
0.14 0.78 l
0.15 0.94 l
0.15 -0.78 l
0.14 1.56 l
0.15 -0.63 l
0.14 0.94 l
0.15 -0.16 l
0.14 -0.31 l
0.15 0.78 l
0.15 0.91 l
0.14 -0.16 l
0.15 0.32 l
0.14 -0.32 l
251.52 461.61 lineto
0.14 0 l
0.15 0.63 l
0.14 -0.63 l
0.15 0.63 l
0.15 0.78 l
0.14 0 l
0.15 0.31 l
0.14 0 l
0.15 0.94 l
0.14 -0.63 l
0.15 0.63 l
0.14 0.75 l
0.15 -0.29 l
0.15 -0.31 l
0.14 1.07 l
0.15 -0.76 l
0.14 -0.31 l
0.15 1.22 l
0.14 1.25 l
0.15 -0.16 l
0.14 0.16 l
0.15 -0.31 l
0.15 0.47 l
0.14 0.15 l
0.15 0 l
0.14 0.63 l
0.15 0 l
0.14 1.53 l
0.15 -0.31 l
0.14 0 l
0.15 0.93 l
0.15 -1.22 l
0.14 0.60 l
0.15 0 l
0.14 0.62 l
0.15 0.47 l
0.14 0.31 l
0.15 0.78 l
0.15 0.16 l
0.14 -0.31 l
0.15 -0.31 l
0.14 0.46 l
0.15 0 l
0.14 0.47 l
0.15 1.09 l
0.14 -0.62 l
0.15 0 l
0.15 0.47 l
0.14 1.84 l
0.15 -1.69 l
0.14 0.76 l
0.15 0.78 l
0.14 -1.40 l
0.15 1.24 l
0.14 1.09 l
0.15 -0.46 l
0.15 -0.32 l
0.14 0.47 l
0.15 0.78 l
0.14 0.31 l
0.15 -0.31 l
0.14 -0.15 l
0.15 0 l
0.14 0 l
0.15 1.09 l
0.15 0.15 l
0.14 0.29 l
0.15 -0.44 l
0.14 0.75 l
0.15 -0.44 l
0.14 0.29 l
0.15 0.62 l
0.15 0 l
0.14 0.31 l
0.15 -0.31 l
0.14 0.78 l
0.15 -0.31 l
0.14 0.47 l
0.15 -0.16 l
0.14 0 l
0.15 0.16 l
0.15 0.78 l
0.14 -0.78 l
0.15 1.09 l
0.14 -0.78 l
0.15 1.09 l
0.14 0.16 l
0.15 -0.32 l
0.14 0.63 l
0.15 0.15 l
0.15 -0.15 l
0.14 0.31 l
0.15 0.16 l
0.14 0 l
0.15 -1.41 l
0.14 4.03 l
0.15 -3.25 l
0.14 1.22 l
0.15 2.19 l
266.08 482.39 lineto
0.14 -0.32 l
0.15 0.94 l
0.14 0 l
0.15 0.62 l
0.14 -0.62 l
0.15 2.34 l
0.15 -2.50 l
0.14 0.16 l
0.15 2.18 l
0.14 -2.18 l
0.15 1.87 l
0.14 -0.47 l
0.15 0.47 l
0.14 0.63 l
0.15 -0.47 l
0.15 0.31 l
0.14 -0.78 l
0.15 0.31 l
0.14 -0.31 l
0.15 0.78 l
0.14 0.31 l
0.15 -0.62 l
0.14 1.06 l
0.15 1.10 l
0.15 -1.10 l
0.14 -1.06 l
0.15 0.62 l
0.14 0.76 l
0.15 -0.47 l
0.14 1.25 l
0.15 -1.10 l
0.14 0.16 l
0.15 0.78 l
0.15 -0.94 l
0.14 0.32 l
0.15 0 l
0.14 -0.32 l
0.15 0.47 l
0.14 1.56 l
0.15 -0.78 l
0.15 0 l
0.14 0.47 l
0.15 -0.16 l
0.14 -0.62 l
0.15 0.16 l
0.14 0.31 l
0.15 0.31 l
0.14 0.47 l
0.15 -0.31 l
0.15 0.15 l
0.14 0.16 l
0.15 -0.63 l
0.14 1.41 l
0.15 -0.63 l
0.14 0.63 l
0.15 0.15 l
0.14 -1.09 l
0.15 1.41 l
0.15 0.44 l
0.14 0.15 l
0.15 -1.06 l
0.14 1.06 l
0.15 -1.69 l
0.14 0.47 l
0.15 -0.78 l
0.14 0.16 l
0.15 0.15 l
0.15 1.41 l
0.14 0.91 l
0.15 -0.31 l
0.14 -1.07 l
0.15 -0.31 l
0.14 -0.16 l
0.15 0.63 l
0.15 -0.16 l
0.14 0.75 l
0.15 -0.15 l
0.14 1.56 l
0.15 -0.31 l
0.14 -1.38 l
0.15 -0.63 l
0.14 0.91 l
0.15 -1.06 l
0.15 1.53 l
0.14 -0.62 l
0.15 1.56 l
0.14 -1.09 l
0.15 0 l
0.14 -0.16 l
0.15 1.09 l
0.14 -0.78 l
0.15 -0.15 l
0.15 -0.16 l
0.14 1.25 l
0.15 -0.47 l
0.14 0.16 l
0.15 -0.47 l
0.14 0.78 l
0.15 -0.16 l
280.63 492.79 lineto
0.15 -2.66 l
0.15 0.94 l
0.14 0 l
0.15 1.09 l
0.14 0 l
0.15 -0.31 l
0.14 -0.16 l
0.15 -0.46 l
0.15 0.62 l
0.14 -0.47 l
0.15 0 l
0.14 1.56 l
0.15 0.78 l
0.14 -1.87 l
0.15 0.47 l
0.14 0.47 l
0.15 -0.63 l
0.15 -0.31 l
0.14 1.09 l
0.15 -0.78 l
0.14 0.31 l
0.15 0.78 l
0.14 0.16 l
0.15 -1.40 l
0.14 0.93 l
0.15 -0.93 l
0.15 0.15 l
0.14 -0.15 l
0.15 0.46 l
0.14 0.94 l
0.15 0.62 l
0.14 -0.31 l
0.15 -0.15 l
0.14 -0.78 l
0.15 0.62 l
0.15 0 l
0.14 -1.56 l
0.15 0.47 l
0.14 0.47 l
0.15 0.93 l
0.14 0.76 l
0.15 0.46 l
0.14 -1.37 l
0.15 0.31 l
0.15 -1.09 l
0.14 0 l
0.15 1.53 l
0.14 -0.91 l
0.15 0.75 l
0.14 0.63 l
0.15 -0.47 l
0.15 0.16 l
0.14 -0.76 l
0.15 -0.47 l
0.14 0.16 l
0.15 0.31 l
0.14 0.60 l
0.15 0.16 l
0.14 0.31 l
0.15 -0.31 l
0.15 -0.60 l
0.14 1.53 l
0.15 -0.47 l
0.14 -0.91 l
0.15 1.85 l
0.14 -1.09 l
0.15 0.15 l
0.14 1.25 l
0.15 -1.25 l
0.15 0.47 l
0.14 -0.15 l
0.15 0.15 l
0.14 -1.09 l
0.15 0.78 l
0.14 0.16 l
0.15 0.62 l
0.14 0.16 l
0.15 0.93 l
0.15 -1.25 l
0.14 0.16 l
0.15 0.16 l
0.14 -0.16 l
0.15 0.94 l
0.14 -0.47 l
0.15 0.78 l
0.15 -0.78 l
0.14 0 l
0.15 -0.16 l
0.14 0 l
0.15 -0.47 l
0.14 0.78 l
0.15 -0.46 l
0.14 1.40 l
0.15 -0.47 l
0.15 -0.15 l
0.14 0.93 l
0.15 -0.47 l
0.14 0 l
0.15 -0.31 l
295.19 496.35 lineto
0.15 1.25 l
0.14 -0.94 l
0.15 0.78 l
0.15 0.16 l
0.14 -0.63 l
0.15 0.78 l
0.14 -0.31 l
0.15 -0.47 l
0.14 0.31 l
0.15 0 l
0.14 1.23 l
0.15 -0.76 l
0.15 0 l
0.14 -0.78 l
0.15 0.63 l
0.14 0 l
0.15 -1.41 l
0.14 2.03 l
0.15 0.60 l
0.15 -1.22 l
0.14 1.84 l
0.15 -1.38 l
0.14 -0.93 l
0.15 0.47 l
0.14 0.75 l
0.15 -0.60 l
0.14 1.07 l
0.15 0 l
0.15 -1.07 l
0.14 0.91 l
0.15 0.31 l
0.14 -0.91 l
0.15 1.07 l
0.14 -0.91 l
0.15 0.75 l
0.14 -0.62 l
0.15 0.47 l
0.15 0.47 l
0.14 -0.78 l
0.15 0 l
0.14 0.15 l
0.15 1.25 l
0.14 -0.47 l
0.15 0.78 l
0.14 -0.47 l
0.15 -0.31 l
0.15 -0.15 l
0.14 1.09 l
0.15 -1.56 l
0.14 1.09 l
0.15 1.09 l
0.14 -1.71 l
0.15 -0.63 l
0.15 -0.15 l
0.14 0.78 l
0.15 0.46 l
0.14 0.94 l
0.15 -0.31 l
0.14 -0.94 l
0.15 1.41 l
0.14 -2.03 l
0.15 -0.76 l
0.15 2.32 l
0.14 0.47 l
0.15 -0.63 l
0.14 0.47 l
0.15 -0.16 l
0.14 0.16 l
0.15 -0.47 l
0.14 -1.09 l
0.15 0.94 l
0.15 -0.63 l
0.14 -0.47 l
0.15 1.88 l
0.14 -0.63 l
0.15 0.31 l
0.14 -0.46 l
0.15 0.93 l
0.14 0 l
0.15 -0.31 l
0.15 -0.62 l
0.14 0.93 l
0.15 0 l
0.14 -0.15 l
0.15 0.78 l
0.14 -0.63 l
0.15 -1.09 l
0.15 0.94 l
0.14 -0.16 l
0.15 0.16 l
0.14 1.69 l
0.15 -0.60 l
0.14 -0.94 l
0.15 -0.15 l
0.14 0.46 l
0.15 -0.31 l
0.15 -0.15 l
0.14 0 l
0.15 0.15 l
309.75 501.47 lineto
0.15 0.47 l
0.14 -0.63 l
0.15 -0.31 l
0.14 0.47 l
0.15 0.31 l
0.15 -0.93 l
0.14 0.15 l
0.15 0.16 l
0.14 0.93 l
0.15 -0.46 l
0.14 0.46 l
0.15 -0.46 l
0.14 0.31 l
0.15 0 l
0.15 0.47 l
0.14 0.28 l
0.15 -1.06 l
0.14 -0.32 l
0.15 0.94 l
0.14 0.60 l
0.15 0.15 l
0.15 -0.75 l
0.14 0 l
0.15 -0.31 l
0.14 0.60 l
0.15 -1.23 l
0.14 0.32 l
0.15 0.46 l
0.14 0.91 l
0.15 -1.53 l
0.15 1.22 l
0.14 0.31 l
0.15 -0.31 l
0.14 0.16 l
0.15 0 l
0.14 0.15 l
0.15 -0.31 l
0.14 0.16 l
0.15 -0.44 l
0.15 0.44 l
0.14 0.15 l
0.15 0.63 l
0.14 -0.78 l
0.15 0.78 l
0.14 -0.94 l
0.15 -1.22 l
0.14 1.85 l
0.15 -1.38 l
0.15 0.75 l
0.14 0 l
0.15 0.16 l
0.14 -0.31 l
0.15 1.24 l
0.14 -0.62 l
0.15 -0.62 l
0.15 -0.29 l
0.14 0.16 l
0.15 0.59 l
0.14 0 l
0.15 0.94 l
0.14 0 l
0.15 0.16 l
0.14 -0.63 l
0.15 -0.31 l
0.15 -0.47 l
0.14 -0.60 l
0.15 1.54 l
0.14 -0.16 l
0.15 -0.47 l
0.14 0.32 l
0.15 0.15 l
0.14 -0.62 l
0.15 0.78 l
0.15 0.15 l
0.14 -0.15 l
0.15 -0.47 l
0.14 0.31 l
0.15 -0.31 l
0.14 0.16 l
0.15 -0.16 l
0.14 0.78 l
0.15 0 l
0.15 -0.31 l
0.14 0.31 l
0.15 -0.31 l
0.14 -1.54 l
0.15 0.91 l
0.14 0.32 l
0.15 0.78 l
0.14 -0.16 l
0.15 -0.62 l
0.15 0.31 l
0.14 0.78 l
0.15 -0.94 l
0.14 -0.31 l
0.15 0.31 l
0.14 0.31 l
0.15 0 l
0.15 -0.46 l
324.31 503.78 lineto
0.15 -0.15 l
0.14 -0.47 l
0.15 1.72 l
0.14 -1.10 l
0.15 -0.93 l
0.14 2.18 l
0.15 -1.25 l
0.15 0.16 l
0.14 -1.53 l
0.15 1.37 l
0.14 -1.53 l
0.15 0.29 l
0.14 2.65 l
0.15 -0.16 l
0.14 -0.62 l
0.15 -0.16 l
0.15 -0.93 l
0.14 0 l
0.15 0.62 l
0.14 0.31 l
0.15 0.47 l
0.14 -0.94 l
0.15 0.47 l
0.14 -0.93 l
0.15 1.40 l
0.15 -1.56 l
0.14 0.62 l
0.15 -0.46 l
0.14 0.62 l
0.15 0.47 l
0.14 -0.16 l
0.15 0 l
0.15 -0.31 l
0.14 0.16 l
0.15 -0.32 l
0.14 -0.62 l
0.15 0.94 l
0.14 -0.94 l
0.15 1.25 l
0.14 -0.47 l
0.15 0.62 l
0.15 0.32 l
0.14 0.15 l
0.15 -1.09 l
0.14 -0.47 l
0.15 1.41 l
0.14 0 l
0.15 -1.41 l
0.14 0.94 l
0.15 -0.78 l
0.15 0.93 l
0.14 -0.46 l
0.15 -0.78 l
0.14 0.78 l
0.15 0.15 l
0.14 -0.15 l
0.15 -0.32 l
0.14 0.47 l
0.15 0 l
0.15 -0.62 l
0.14 1.25 l
0.15 -0.94 l
0.14 -0.31 l
0.15 -0.16 l
0.14 1.25 l
0.15 -0.78 l
0.15 0.62 l
0.14 -0.62 l
0.15 0.78 l
0.14 0.16 l
0.15 -0.16 l
0.14 0.16 l
0.15 -1.10 l
0.14 0 l
0.15 -0.31 l
0.15 0.47 l
0.14 -0.47 l
0.15 1.56 l
0.14 -1.09 l
0.15 0.94 l
0.14 -0.63 l
0.15 -0.47 l
0.14 -0.31 l
0.15 0.63 l
0.15 1.09 l
0.14 -0.63 l
0.15 -0.78 l
0.14 1.41 l
0.15 -1.41 l
0.14 1.10 l
0.15 -1.72 l
0.14 2.18 l
0.15 -1.71 l
0.15 1.09 l
0.14 -1.09 l
0.15 0.93 l
0.14 0.63 l
0.15 -0.78 l
0.14 -1.25 l
338.87 503.94 lineto
0.15 0.47 l
0.14 1.09 l
0.15 -2.03 l
0.14 0.94 l
0.15 0.93 l
0.14 -2.34 l
0.15 1.88 l
0.14 0 l
0.15 -0.63 l
0.15 -1.25 l
0.14 1.56 l
0.15 0.16 l
0.14 -0.94 l
0.15 0.78 l
0.14 0.16 l
0.15 -0.31 l
0.14 0 l
0.15 -0.47 l
0.15 0.94 l
0.14 -0.94 l
0.15 1.25 l
0.14 0.31 l
0.15 -1.87 l
0.14 0.15 l
0.15 0.16 l
0.14 0.31 l
0.15 0.16 l
0.15 -0.63 l
0.14 1.41 l
0.15 -0.94 l
0.14 -1.09 l
0.15 1.25 l
0.14 1.25 l
0.15 -1.10 l
0.15 -0.78 l
0.14 1.10 l
0.15 -0.32 l
0.14 -0.93 l
0.15 0.47 l
0.14 -0.63 l
0.15 0.63 l
0.14 0.62 l
0.15 0 l
0.15 -0.31 l
0.14 -0.63 l
0.15 0.63 l
0.14 -0.16 l
0.15 0.78 l
0.14 -1.56 l
0.15 0.63 l
0.14 -0.16 l
0.15 2.03 l
0.15 -1.09 l
0.14 -0.63 l
0.15 0.63 l
0.14 -0.63 l
0.15 -0.31 l
0.14 0.31 l
0.15 -0.78 l
0.14 0.31 l
0.15 0.32 l
0.15 0.62 l
0.14 0 l
0.15 -0.47 l
0.14 0.78 l
0.15 0.16 l
0.14 0 l
0.15 -0.63 l
0.15 -0.62 l
0.14 -0.16 l
0.15 1.10 l
0.14 -1.56 l
0.15 1.40 l
0.14 1.09 l
0.15 -1.09 l
0.14 -0.31 l
0.15 0.15 l
0.15 0.16 l
0.14 0.31 l
0.15 -0.47 l
0.14 -1.09 l
0.15 2.34 l
0.14 -0.62 l
0.15 0.47 l
0.14 -0.78 l
0.15 -0.63 l
0.15 0.16 l
0.14 -0.78 l
0.15 0.47 l
0.14 0.31 l
0.15 0.15 l
0.14 0.47 l
0.15 1.09 l
0.14 -1.24 l
0.15 -0.78 l
0.15 0.15 l
0.14 0.16 l
0.15 0.15 l
0.14 1.10 l
353.43 505.03 lineto
0.14 -0.31 l
0.15 0 l
0.14 -0.16 l
0.15 0.78 l
0.15 -0.15 l
0.14 0.15 l
0.15 0.32 l
0.14 -1.56 l
0.15 -0.16 l
0.14 0 l
0.15 0.47 l
0.15 0.78 l
0.14 0.62 l
0.15 -0.31 l
0.14 0.16 l
0.15 -0.47 l
0.14 -0.31 l
0.15 -0.32 l
0.14 -0.15 l
0.15 -0.63 l
0.15 1.10 l
0.14 0.31 l
0.15 1.09 l
0.14 -1.72 l
0.15 -0.15 l
0.14 0 l
0.15 0.15 l
0.14 0 l
0.15 -0.78 l
0.15 0.78 l
0.14 1.25 l
0.15 2.47 l
0.14 -4.03 l
0.15 1.25 l
0.14 -1.56 l
0.15 1.40 l
0.14 -1.40 l
0.15 1.87 l
0.15 -2.34 l
0.14 1.87 l
0.15 -0.93 l
0.14 0.47 l
0.15 -1.25 l
0.14 0.78 l
0.15 -0.63 l
0.15 0.94 l
0.14 0.47 l
0.15 -0.31 l
0.14 -0.94 l
0.15 1.87 l
0.14 0 l
0.15 -1.25 l
0.14 -0.31 l
0.15 -1.25 l
0.15 1.25 l
0.14 -0.93 l
0.15 1.56 l
0.14 1.40 l
0.15 -0.62 l
0.14 0 l
0.15 -0.63 l
0.14 -0.93 l
0.15 0 l
0.15 0 l
0.14 1.56 l
0.15 -0.78 l
0.14 1.71 l
0.15 -0.31 l
0.14 -1.72 l
0.15 -0.46 l
0.14 -0.16 l
0.15 0.31 l
0.15 0.94 l
0.14 -1.09 l
0.15 2.34 l
0.14 -1.10 l
0.15 -0.15 l
0.14 -0.16 l
0.15 -0.93 l
0.15 0.62 l
0.14 -0.47 l
0.15 0.31 l
0.14 0.47 l
0.15 1.56 l
0.14 -0.78 l
0.15 -1.09 l
0.14 -0.16 l
0.15 -0.15 l
0.15 -0.16 l
0.14 0.47 l
0.15 0.47 l
0.14 -0.78 l
0.15 0.47 l
0.14 0.31 l
0.15 0.62 l
0.14 -1.09 l
0.15 0.47 l
0.15 0.62 l
0.14 -1.87 l
currentpoint o m
367.99 503.78 lineto
0.14 2.50 l
0.15 -2.03 l
0.14 1.56 l
0.15 -0.15 l
0.14 -1.25 l
0.15 0 l
0.15 0.31 l
0.14 -0.31 l
0.15 0 l
0.14 1.09 l
0.15 -1.56 l
0.14 0.78 l
0.15 1.87 l
0.15 -0.78 l
0.14 0.63 l
0.15 -0.78 l
0.14 -1.41 l
0.15 -1.56 l
0.14 0.78 l
0.15 0.78 l
0.14 1.25 l
0.15 0.78 l
0.15 0.16 l
0.14 0.28 l
0.15 -1.06 l
0.14 -0.47 l
0.15 -1.09 l
0.14 0.62 l
0.15 -1.25 l
0.14 1.25 l
0.15 1.56 l
0.15 0 l
0.14 -1.87 l
0.15 0.78 l
0.14 -0.16 l
0.15 -0.78 l
0.14 0.47 l
0.15 0.16 l
0.14 0.31 l
0.15 0.47 l
0.15 0 l
0.14 0.62 l
0.15 -1.40 l
0.14 -0.16 l
0.15 -0.62 l
0.14 1.09 l
0.15 0.47 l
0.15 0.46 l
0.14 -1.09 l
0.15 0.63 l
0.14 0 l
0.15 -0.63 l
0.14 0.31 l
0.15 -0.93 l
0.14 0.31 l
0.15 0.94 l
0.15 -0.47 l
0.14 0.31 l
0.15 0 l
0.14 -1.87 l
0.15 0.47 l
0.14 1.09 l
0.15 -0.94 l
0.14 0.63 l
0.15 -0.32 l
0.15 1.10 l
0.14 -0.78 l
0.15 -0.78 l
0.14 1.56 l
0.15 -0.16 l
0.14 -1.09 l
0.15 0.47 l
0.14 0.46 l
0.15 1.10 l
0.15 -0.78 l
0.14 -0.16 l
0.15 0.31 l
0.14 -0.47 l
0.15 -1.56 l
0.14 0.63 l
0.15 -0.63 l
0.15 0.94 l
0.14 0.62 l
0.15 -0.62 l
0.14 1.40 l
0.15 0.16 l
0.14 -1.25 l
0.15 -0.62 l
0.14 0 l
0.15 0.15 l
0.15 0.32 l
0.14 0 l
0.15 0.93 l
0.14 -0.31 l
0.15 -0.78 l
0.14 0 l
0.15 -0.47 l
0.14 0.47 l
0.15 1.25 l
o
/bg { 1 1 1 srgb } def
222.40 510.00 0.43 c p3
222.55 509.37 0.43 c p3
222.69 509.84 0.43 c p3
222.84 509.84 0.43 c p3
222.98 510.47 0.43 c p3
223.13 510.31 0.43 c p3
223.27 510.75 0.43 c p3
223.42 509.69 0.43 c p3
223.56 510.00 0.43 c p3
223.71 510.91 0.43 c p3
223.86 509.69 0.43 c p3
224.00 510.75 0.43 c p3
224.15 511.22 0.43 c p3
224.29 510.31 0.43 c p3
224.44 510.31 0.43 c p3
224.58 511.69 0.43 c p3
224.73 511.06 0.43 c p3
224.87 511.06 0.43 c p3
225.02 510.00 0.43 c p3
225.17 510.91 0.43 c p3
225.31 510.00 0.43 c p3
225.46 511.53 0.43 c p3
225.60 509.84 0.43 c p3
225.75 510.15 0.43 c p3
225.89 510.62 0.43 c p3
226.04 509.69 0.43 c p3
226.19 510.31 0.43 c p3
226.33 510.00 0.43 c p3
226.48 511.06 0.43 c p3
226.62 510.47 0.43 c p3
226.77 509.53 0.43 c p3
226.91 509.69 0.43 c p3
227.06 510.62 0.43 c p3
227.20 509.06 0.43 c p3
227.35 510.47 0.43 c p3
227.50 510.62 0.43 c p3
227.64 510.47 0.43 c p3
227.79 509.06 0.43 c p3
227.93 510.15 0.43 c p3
228.08 510.15 0.43 c p3
228.22 510.62 0.43 c p3
228.37 511.38 0.43 c p3
228.51 510.75 0.43 c p3
228.66 510.62 0.43 c p3
228.81 510.75 0.43 c p3
228.95 510.62 0.43 c p3
229.10 510.31 0.43 c p3
229.24 509.84 0.43 c p3
229.39 510.31 0.43 c p3
229.53 511.06 0.43 c p3
229.68 510.31 0.43 c p3
229.82 510.00 0.43 c p3
229.97 510.47 0.43 c p3
230.12 510.62 0.43 c p3
230.26 509.53 0.43 c p3
230.41 511.22 0.43 c p3
230.55 510.47 0.43 c p3
230.70 511.38 0.43 c p3
230.84 510.15 0.43 c p3
230.99 510.62 0.43 c p3
231.14 511.06 0.43 c p3
231.28 511.53 0.43 c p3
231.43 509.84 0.43 c p3
231.57 508.91 0.43 c p3
231.72 510.62 0.43 c p3
231.86 510.75 0.43 c p3
232.01 510.47 0.43 c p3
232.15 511.69 0.43 c p3
232.30 509.53 0.43 c p3
232.45 511.53 0.43 c p3
232.59 512.00 0.43 c p3
232.74 510.75 0.43 c p3
232.88 510.62 0.43 c p3
233.03 510.15 0.43 c p3
233.17 510.62 0.43 c p3
233.32 510.00 0.43 c p3
233.46 510.62 0.43 c p3
233.61 511.69 0.43 c p3
233.76 511.22 0.43 c p3
233.90 512.00 0.43 c p3
234.05 511.22 0.43 c p3
234.19 511.22 0.43 c p3
234.34 510.00 0.43 c p3
234.48 509.53 0.43 c p3
234.63 509.69 0.43 c p3
234.77 511.06 0.43 c p3
234.92 511.69 0.43 c p3
235.07 512.00 0.43 c p3
235.21 511.84 0.43 c p3
235.36 510.91 0.43 c p3
235.50 510.75 0.43 c p3
235.65 509.84 0.43 c p3
235.79 510.31 0.43 c p3
235.94 509.69 0.43 c p3
236.09 510.00 0.43 c p3
236.23 510.15 0.43 c p3
236.38 510.00 0.43 c p3
236.52 511.38 0.43 c p3
236.67 510.47 0.43 c p3
236.81 510.47 0.43 c p3
236.96 432.47 0.43 c p3
237.10 431.08 0.43 c p3
237.25 431.38 0.43 c p3
237.40 434.18 0.43 c p3
237.54 435.56 0.43 c p3
237.69 431.25 0.43 c p3
237.83 436.19 0.43 c p3
237.98 434.65 0.43 c p3
238.12 434.96 0.43 c p3
238.27 433.56 0.43 c p3
238.41 435.43 0.43 c p3
238.56 435.72 0.43 c p3
238.71 435.43 0.43 c p3
238.85 438.21 0.43 c p3
239.00 436.97 0.43 c p3
239.14 436.34 0.43 c p3
239.29 438.37 0.43 c p3
239.43 437.28 0.43 c p3
239.58 437.28 0.43 c p3
239.72 437.75 0.43 c p3
239.87 438.21 0.43 c p3
240.02 440.22 0.43 c p3
240.16 440.22 0.43 c p3
240.31 440.06 0.43 c p3
240.45 442.24 0.43 c p3
240.60 439.46 0.43 c p3
240.74 440.22 0.43 c p3
240.89 441.15 0.43 c p3
241.04 440.06 0.43 c p3
241.18 441.62 0.43 c p3
241.33 442.09 0.43 c p3
241.47 442.56 0.43 c p3
241.62 441.93 0.43 c p3
241.76 442.40 0.43 c p3
241.91 442.24 0.43 c p3
242.05 442.71 0.43 c p3
242.20 443.34 0.43 c p3
242.35 443.65 0.43 c p3
242.49 443.93 0.43 c p3
242.64 446.12 0.43 c p3
242.78 445.49 0.43 c p3
242.93 444.71 0.43 c p3
243.07 444.87 0.43 c p3
243.22 446.43 0.43 c p3
243.36 445.96 0.43 c p3
243.51 445.96 0.43 c p3
243.66 446.27 0.43 c p3
243.80 446.74 0.43 c p3
243.95 448.43 0.43 c p3
244.09 447.83 0.43 c p3
244.24 448.28 0.43 c p3
244.38 447.68 0.43 c p3
244.53 448.12 0.43 c p3
244.67 447.99 0.43 c p3
244.82 449.21 0.43 c p3
244.97 449.99 0.43 c p3
245.11 449.06 0.43 c p3
245.26 449.21 0.43 c p3
245.40 450.30 0.43 c p3
245.55 449.99 0.43 c p3
245.69 451.40 0.43 c p3
245.84 450.46 0.43 c p3
245.99 450.93 0.43 c p3
246.13 451.40 0.43 c p3
246.28 451.55 0.43 c p3
246.42 452.62 0.43 c p3
246.57 452.31 0.43 c p3
246.71 452.93 0.43 c p3
246.86 452.77 0.43 c p3
247.00 453.24 0.43 c p3
247.15 453.40 0.43 c p3
247.30 452.77 0.43 c p3
247.44 453.40 0.43 c p3
247.59 454.49 0.43 c p3
247.73 454.80 0.43 c p3
247.88 454.18 0.43 c p3
248.02 454.96 0.43 c p3
248.17 455.27 0.43 c p3
248.31 455.43 0.43 c p3
248.46 456.96 0.43 c p3
248.61 456.21 0.43 c p3
248.75 456.65 0.43 c p3
248.90 456.49 0.43 c p3
249.04 456.49 0.43 c p3
249.19 457.12 0.43 c p3
249.33 458.52 0.43 c p3
249.48 456.96 0.43 c p3
249.62 457.74 0.43 c p3
249.77 458.68 0.43 c p3
249.92 457.90 0.43 c p3
250.06 459.46 0.43 c p3
250.21 458.83 0.43 c p3
250.35 459.77 0.43 c p3
250.50 459.61 0.43 c p3
250.64 459.30 0.43 c p3
250.79 460.08 0.43 c p3
250.94 460.99 0.43 c p3
251.08 460.83 0.43 c p3
251.23 461.15 0.43 c p3
251.37 460.83 0.43 c p3
251.52 461.61 0.43 c p3
251.66 461.61 0.43 c p3
251.81 462.24 0.43 c p3
251.95 461.61 0.43 c p3
252.10 462.24 0.43 c p3
252.25 463.02 0.43 c p3
252.39 463.02 0.43 c p3
252.54 463.33 0.43 c p3
252.68 463.33 0.43 c p3
252.83 464.27 0.43 c p3
252.97 463.64 0.43 c p3
253.12 464.27 0.43 c p3
253.26 465.02 0.43 c p3
253.41 464.73 0.43 c p3
253.56 464.42 0.43 c p3
253.70 465.49 0.43 c p3
253.85 464.73 0.43 c p3
253.99 464.42 0.43 c p3
254.14 465.64 0.43 c p3
254.28 466.89 0.43 c p3
254.43 466.73 0.43 c p3
254.57 466.89 0.43 c p3
254.72 466.58 0.43 c p3
254.87 467.05 0.43 c p3
255.01 467.20 0.43 c p3
255.16 467.20 0.43 c p3
255.30 467.83 0.43 c p3
255.45 467.83 0.43 c p3
255.59 469.36 0.43 c p3
255.74 469.05 0.43 c p3
255.88 469.05 0.43 c p3
256.03 469.98 0.43 c p3
256.18 468.76 0.43 c p3
256.32 469.36 0.43 c p3
256.47 469.36 0.43 c p3
256.61 469.98 0.43 c p3
256.76 470.45 0.43 c p3
256.90 470.76 0.43 c p3
257.05 471.54 0.43 c p3
257.20 471.70 0.43 c p3
257.34 471.39 0.43 c p3
257.49 471.08 0.43 c p3
257.63 471.54 0.43 c p3
257.78 471.54 0.43 c p3
257.92 472.01 0.43 c p3
258.07 473.10 0.43 c p3
258.21 472.48 0.43 c p3
258.36 472.48 0.43 c p3
258.51 472.95 0.43 c p3
258.65 474.79 0.43 c p3
258.80 473.10 0.43 c p3
258.94 473.86 0.43 c p3
259.09 474.64 0.43 c p3
259.23 473.24 0.43 c p3
259.38 474.48 0.43 c p3
259.52 475.57 0.43 c p3
259.67 475.11 0.43 c p3
259.82 474.79 0.43 c p3
259.96 475.26 0.43 c p3
260.11 476.04 0.43 c p3
260.25 476.35 0.43 c p3
260.40 476.04 0.43 c p3
260.54 475.89 0.43 c p3
260.69 475.89 0.43 c p3
260.83 475.89 0.43 c p3
260.98 476.98 0.43 c p3
261.13 477.13 0.43 c p3
261.27 477.42 0.43 c p3
261.42 476.98 0.43 c p3
261.56 477.73 0.43 c p3
261.71 477.29 0.43 c p3
261.85 477.58 0.43 c p3
262.00 478.20 0.43 c p3
262.15 478.20 0.43 c p3
262.29 478.51 0.43 c p3
262.44 478.20 0.43 c p3
262.58 478.98 0.43 c p3
262.73 478.67 0.43 c p3
262.87 479.14 0.43 c p3
263.02 478.98 0.43 c p3
263.16 478.98 0.43 c p3
263.31 479.14 0.43 c p3
263.46 479.92 0.43 c p3
263.60 479.14 0.43 c p3
263.75 480.23 0.43 c p3
263.89 479.45 0.43 c p3
264.04 480.54 0.43 c p3
264.18 480.70 0.43 c p3
264.33 480.38 0.43 c p3
264.47 481.01 0.43 c p3
264.62 481.16 0.43 c p3
264.77 481.01 0.43 c p3
264.91 481.32 0.43 c p3
265.06 481.48 0.43 c p3
265.20 481.48 0.43 c p3
265.35 480.07 0.43 c p3
265.49 484.10 0.43 c p3
265.64 480.85 0.43 c p3
265.78 482.07 0.43 c p3
265.93 484.26 0.43 c p3
266.08 482.39 0.43 c p3
266.22 482.07 0.43 c p3
266.37 483.01 0.43 c p3
266.51 483.01 0.43 c p3
266.66 483.63 0.43 c p3
266.80 483.01 0.43 c p3
266.95 485.35 0.43 c p3
267.10 482.85 0.43 c p3
267.24 483.01 0.43 c p3
267.39 485.19 0.43 c p3
267.53 483.01 0.43 c p3
267.68 484.88 0.43 c p3
267.82 484.41 0.43 c p3
267.97 484.88 0.43 c p3
268.11 485.51 0.43 c p3
268.26 485.04 0.43 c p3
268.41 485.35 0.43 c p3
268.55 484.57 0.43 c p3
268.70 484.88 0.43 c p3
268.84 484.57 0.43 c p3
268.99 485.35 0.43 c p3
269.13 485.66 0.43 c p3
269.28 485.04 0.43 c p3
269.42 486.10 0.43 c p3
269.57 487.20 0.43 c p3
269.72 486.10 0.43 c p3
269.86 485.04 0.43 c p3
270.01 485.66 0.43 c p3
270.15 486.42 0.43 c p3
270.30 485.95 0.43 c p3
270.44 487.20 0.43 c p3
270.59 486.10 0.43 c p3
270.73 486.26 0.43 c p3
270.88 487.04 0.43 c p3
271.03 486.10 0.43 c p3
271.17 486.42 0.43 c p3
271.32 486.42 0.43 c p3
271.46 486.10 0.43 c p3
271.61 486.57 0.43 c p3
271.75 488.13 0.43 c p3
271.90 487.35 0.43 c p3
272.05 487.35 0.43 c p3
272.19 487.82 0.43 c p3
272.34 487.66 0.43 c p3
272.48 487.04 0.43 c p3
272.63 487.20 0.43 c p3
272.77 487.51 0.43 c p3
272.92 487.82 0.43 c p3
273.06 488.29 0.43 c p3
273.21 487.98 0.43 c p3
273.36 488.13 0.43 c p3
273.50 488.29 0.43 c p3
273.65 487.66 0.43 c p3
273.79 489.07 0.43 c p3
273.94 488.44 0.43 c p3
274.08 489.07 0.43 c p3
274.23 489.22 0.43 c p3
274.37 488.13 0.43 c p3
274.52 489.54 0.43 c p3
274.67 489.98 0.43 c p3
274.81 490.13 0.43 c p3
274.96 489.07 0.43 c p3
275.10 490.13 0.43 c p3
275.25 488.44 0.43 c p3
275.39 488.91 0.43 c p3
275.54 488.13 0.43 c p3
275.68 488.29 0.43 c p3
275.83 488.44 0.43 c p3
275.98 489.85 0.43 c p3
276.12 490.76 0.43 c p3
276.27 490.45 0.43 c p3
276.41 489.38 0.43 c p3
276.56 489.07 0.43 c p3
276.70 488.91 0.43 c p3
276.85 489.54 0.43 c p3
277.00 489.38 0.43 c p3
277.14 490.13 0.43 c p3
277.29 489.98 0.43 c p3
277.43 491.54 0.43 c p3
277.58 491.23 0.43 c p3
277.72 489.85 0.43 c p3
277.87 489.22 0.43 c p3
278.01 490.13 0.43 c p3
278.16 489.07 0.43 c p3
278.31 490.60 0.43 c p3
278.45 489.98 0.43 c p3
278.60 491.54 0.43 c p3
278.74 490.45 0.43 c p3
278.89 490.45 0.43 c p3
279.03 490.29 0.43 c p3
279.18 491.38 0.43 c p3
279.32 490.60 0.43 c p3
279.47 490.45 0.43 c p3
279.62 490.29 0.43 c p3
279.76 491.54 0.43 c p3
279.91 491.07 0.43 c p3
280.05 491.23 0.43 c p3
280.20 490.76 0.43 c p3
280.34 491.54 0.43 c p3
280.49 491.38 0.43 c p3
280.63 492.79 0.43 c p3
280.78 490.13 0.43 c p3
280.93 491.07 0.43 c p3
281.07 491.07 0.43 c p3
281.22 492.16 0.43 c p3
281.36 492.16 0.43 c p3
281.51 491.85 0.43 c p3
281.65 491.69 0.43 c p3
281.80 491.23 0.43 c p3
281.95 491.85 0.43 c p3
282.09 491.38 0.43 c p3
282.24 491.38 0.43 c p3
282.38 492.94 0.43 c p3
282.53 493.72 0.43 c p3
282.67 491.85 0.43 c p3
282.82 492.32 0.43 c p3
282.96 492.79 0.43 c p3
283.11 492.16 0.43 c p3
283.26 491.85 0.43 c p3
283.40 492.94 0.43 c p3
283.55 492.16 0.43 c p3
283.69 492.47 0.43 c p3
283.84 493.25 0.43 c p3
283.98 493.41 0.43 c p3
284.13 492.01 0.43 c p3
284.27 492.94 0.43 c p3
284.42 492.01 0.43 c p3
284.57 492.16 0.43 c p3
284.71 492.01 0.43 c p3
284.86 492.47 0.43 c p3
285.00 493.41 0.43 c p3
285.15 494.03 0.43 c p3
285.29 493.72 0.43 c p3
285.44 493.57 0.43 c p3
285.58 492.79 0.43 c p3
285.73 493.41 0.43 c p3
285.88 493.41 0.43 c p3
286.02 491.85 0.43 c p3
286.17 492.32 0.43 c p3
286.31 492.79 0.43 c p3
286.46 493.72 0.43 c p3
286.60 494.48 0.43 c p3
286.75 494.94 0.43 c p3
286.89 493.57 0.43 c p3
287.04 493.88 0.43 c p3
287.19 492.79 0.43 c p3
287.33 492.79 0.43 c p3
287.48 494.32 0.43 c p3
287.62 493.41 0.43 c p3
287.77 494.16 0.43 c p3
287.91 494.79 0.43 c p3
288.06 494.32 0.43 c p3
288.21 494.48 0.43 c p3
288.35 493.72 0.43 c p3
288.50 493.25 0.43 c p3
288.64 493.41 0.43 c p3
288.79 493.72 0.43 c p3
288.93 494.32 0.43 c p3
289.08 494.48 0.43 c p3
289.22 494.79 0.43 c p3
289.37 494.48 0.43 c p3
289.52 493.88 0.43 c p3
289.66 495.41 0.43 c p3
289.81 494.94 0.43 c p3
289.95 494.03 0.43 c p3
290.10 495.88 0.43 c p3
290.24 494.79 0.43 c p3
290.39 494.94 0.43 c p3
290.53 496.19 0.43 c p3
290.68 494.94 0.43 c p3
290.83 495.41 0.43 c p3
290.97 495.26 0.43 c p3
291.12 495.41 0.43 c p3
291.26 494.32 0.43 c p3
291.41 495.10 0.43 c p3
291.55 495.26 0.43 c p3
291.70 495.88 0.43 c p3
291.84 496.04 0.43 c p3
291.99 496.97 0.43 c p3
292.14 495.72 0.43 c p3
292.28 495.88 0.43 c p3
292.43 496.04 0.43 c p3
292.57 495.88 0.43 c p3
292.72 496.82 0.43 c p3
292.86 496.35 0.43 c p3
293.01 497.13 0.43 c p3
293.16 496.35 0.43 c p3
293.30 496.35 0.43 c p3
293.45 496.19 0.43 c p3
293.59 496.19 0.43 c p3
293.74 495.72 0.43 c p3
293.88 496.50 0.43 c p3
294.03 496.04 0.43 c p3
294.17 497.44 0.43 c p3
294.32 496.97 0.43 c p3
294.47 496.82 0.43 c p3
294.61 497.75 0.43 c p3
294.76 497.28 0.43 c p3
294.90 497.28 0.43 c p3
295.05 496.97 0.43 c p3
295.19 496.35 0.43 c p3
295.34 497.60 0.43 c p3
295.48 496.66 0.43 c p3
295.63 497.44 0.43 c p3
295.78 497.60 0.43 c p3
295.92 496.97 0.43 c p3
296.07 497.75 0.43 c p3
296.21 497.44 0.43 c p3
296.36 496.97 0.43 c p3
296.50 497.28 0.43 c p3
296.65 497.28 0.43 c p3
296.79 498.51 0.43 c p3
296.94 497.75 0.43 c p3
297.09 497.75 0.43 c p3
297.23 496.97 0.43 c p3
297.38 497.60 0.43 c p3
297.52 497.60 0.43 c p3
297.67 496.19 0.43 c p3
297.81 498.22 0.43 c p3
297.96 498.82 0.43 c p3
298.11 497.60 0.43 c p3
298.25 499.44 0.43 c p3
298.40 498.06 0.43 c p3
298.54 497.13 0.43 c p3
298.69 497.60 0.43 c p3
298.83 498.35 0.43 c p3
298.98 497.75 0.43 c p3
299.12 498.82 0.43 c p3
299.27 498.82 0.43 c p3
299.42 497.75 0.43 c p3
299.56 498.66 0.43 c p3
299.71 498.97 0.43 c p3
299.85 498.06 0.43 c p3
300.00 499.13 0.43 c p3
300.14 498.22 0.43 c p3
300.29 498.97 0.43 c p3
300.43 498.35 0.43 c p3
300.58 498.82 0.43 c p3
300.73 499.29 0.43 c p3
300.87 498.51 0.43 c p3
301.02 498.51 0.43 c p3
301.16 498.66 0.43 c p3
301.31 499.91 0.43 c p3
301.45 499.44 0.43 c p3
301.60 500.22 0.43 c p3
301.74 499.75 0.43 c p3
301.89 499.44 0.43 c p3
302.04 499.29 0.43 c p3
302.18 500.38 0.43 c p3
302.33 498.82 0.43 c p3
302.47 499.91 0.43 c p3
302.62 501.00 0.43 c p3
302.76 499.29 0.43 c p3
302.91 498.66 0.43 c p3
303.06 498.51 0.43 c p3
303.20 499.29 0.43 c p3
303.35 499.75 0.43 c p3
303.49 500.69 0.43 c p3
303.64 500.38 0.43 c p3
303.78 499.44 0.43 c p3
303.93 500.85 0.43 c p3
304.07 498.82 0.43 c p3
304.22 498.06 0.43 c p3
304.37 500.38 0.43 c p3
304.51 500.85 0.43 c p3
304.66 500.22 0.43 c p3
304.80 500.69 0.43 c p3
304.95 500.53 0.43 c p3
305.09 500.69 0.43 c p3
305.24 500.22 0.43 c p3
305.38 499.13 0.43 c p3
305.53 500.07 0.43 c p3
305.68 499.44 0.43 c p3
305.82 498.97 0.43 c p3
305.97 500.85 0.43 c p3
306.11 500.22 0.43 c p3
306.26 500.53 0.43 c p3
306.40 500.07 0.43 c p3
306.55 501.00 0.43 c p3
306.69 501.00 0.43 c p3
306.84 500.69 0.43 c p3
306.99 500.07 0.43 c p3
307.13 501.00 0.43 c p3
307.28 501.00 0.43 c p3
307.42 500.85 0.43 c p3
307.57 501.63 0.43 c p3
307.71 501.00 0.43 c p3
307.86 499.91 0.43 c p3
308.01 500.85 0.43 c p3
308.15 500.69 0.43 c p3
308.30 500.85 0.43 c p3
308.44 502.54 0.43 c p3
308.59 501.94 0.43 c p3
308.73 501.00 0.43 c p3
308.88 500.85 0.43 c p3
309.02 501.31 0.43 c p3
309.17 501.00 0.43 c p3
309.32 500.85 0.43 c p3
309.46 500.85 0.43 c p3
309.61 501.00 0.43 c p3
309.75 501.47 0.43 c p3
309.90 501.94 0.43 c p3
310.04 501.31 0.43 c p3
310.19 501.00 0.43 c p3
310.33 501.47 0.43 c p3
310.48 501.78 0.43 c p3
310.63 500.85 0.43 c p3
310.77 501.00 0.43 c p3
310.92 501.16 0.43 c p3
311.06 502.09 0.43 c p3
311.21 501.63 0.43 c p3
311.35 502.09 0.43 c p3
311.50 501.63 0.43 c p3
311.64 501.94 0.43 c p3
311.79 501.94 0.43 c p3
311.94 502.41 0.43 c p3
312.08 502.69 0.43 c p3
312.23 501.63 0.43 c p3
312.37 501.31 0.43 c p3
312.52 502.25 0.43 c p3
312.66 502.85 0.43 c p3
312.81 503.00 0.43 c p3
312.96 502.25 0.43 c p3
313.10 502.25 0.43 c p3
313.25 501.94 0.43 c p3
313.39 502.54 0.43 c p3
313.54 501.31 0.43 c p3
313.68 501.63 0.43 c p3
313.83 502.09 0.43 c p3
313.97 503.00 0.43 c p3
314.12 501.47 0.43 c p3
314.27 502.69 0.43 c p3
314.41 503.00 0.43 c p3
314.56 502.69 0.43 c p3
314.70 502.85 0.43 c p3
314.85 502.85 0.43 c p3
314.99 503.00 0.43 c p3
315.14 502.69 0.43 c p3
315.28 502.85 0.43 c p3
315.43 502.41 0.43 c p3
315.58 502.85 0.43 c p3
315.72 503.00 0.43 c p3
315.87 503.63 0.43 c p3
316.01 502.85 0.43 c p3
316.16 503.63 0.43 c p3
316.30 502.69 0.43 c p3
316.45 501.47 0.43 c p3
316.59 503.32 0.43 c p3
316.74 501.94 0.43 c p3
316.89 502.69 0.43 c p3
317.03 502.69 0.43 c p3
317.18 502.85 0.43 c p3
317.32 502.54 0.43 c p3
317.47 503.78 0.43 c p3
317.61 503.16 0.43 c p3
317.76 502.54 0.43 c p3
317.91 502.25 0.43 c p3
318.05 502.41 0.43 c p3
318.20 503.00 0.43 c p3
318.34 503.00 0.43 c p3
318.49 503.94 0.43 c p3
318.63 503.94 0.43 c p3
318.78 504.10 0.43 c p3
318.92 503.47 0.43 c p3
319.07 503.16 0.43 c p3
319.22 502.69 0.43 c p3
319.36 502.09 0.43 c p3
319.51 503.63 0.43 c p3
319.65 503.47 0.43 c p3
319.80 503.00 0.43 c p3
319.94 503.32 0.43 c p3
320.09 503.47 0.43 c p3
320.23 502.85 0.43 c p3
320.38 503.63 0.43 c p3
320.53 503.78 0.43 c p3
320.67 503.63 0.43 c p3
320.82 503.16 0.43 c p3
320.96 503.47 0.43 c p3
321.11 503.16 0.43 c p3
321.25 503.32 0.43 c p3
321.40 503.16 0.43 c p3
321.54 503.94 0.43 c p3
321.69 503.94 0.43 c p3
321.84 503.63 0.43 c p3
321.98 503.94 0.43 c p3
322.13 503.63 0.43 c p3
322.27 502.09 0.43 c p3
322.42 503.00 0.43 c p3
322.56 503.32 0.43 c p3
322.71 504.10 0.43 c p3
322.85 503.94 0.43 c p3
323.00 503.32 0.43 c p3
323.15 503.63 0.43 c p3
323.29 504.41 0.43 c p3
323.44 503.47 0.43 c p3
323.58 503.16 0.43 c p3
323.73 503.47 0.43 c p3
323.87 503.78 0.43 c p3
324.02 503.78 0.43 c p3
324.17 503.32 0.43 c p3
324.31 503.78 0.43 c p3
324.46 503.63 0.43 c p3
324.60 503.16 0.43 c p3
324.75 504.88 0.43 c p3
324.89 503.78 0.43 c p3
325.04 502.85 0.43 c p3
325.18 505.03 0.43 c p3
325.33 503.78 0.43 c p3
325.48 503.94 0.43 c p3
325.62 502.41 0.43 c p3
325.77 503.78 0.43 c p3
325.91 502.25 0.43 c p3
326.06 502.54 0.43 c p3
326.20 505.19 0.43 c p3
326.35 505.03 0.43 c p3
326.49 504.41 0.43 c p3
326.64 504.25 0.43 c p3
326.79 503.32 0.43 c p3
326.93 503.32 0.43 c p3
327.08 503.94 0.43 c p3
327.22 504.25 0.43 c p3
327.37 504.72 0.43 c p3
327.51 503.78 0.43 c p3
327.66 504.25 0.43 c p3
327.80 503.32 0.43 c p3
327.95 504.72 0.43 c p3
328.10 503.16 0.43 c p3
328.24 503.78 0.43 c p3
328.39 503.32 0.43 c p3
328.53 503.94 0.43 c p3
328.68 504.41 0.43 c p3
328.82 504.25 0.43 c p3
328.97 504.25 0.43 c p3
329.12 503.94 0.43 c p3
329.26 504.10 0.43 c p3
329.41 503.78 0.43 c p3
329.55 503.16 0.43 c p3
329.70 504.10 0.43 c p3
329.84 503.16 0.43 c p3
329.99 504.41 0.43 c p3
330.13 503.94 0.43 c p3
330.28 504.56 0.43 c p3
330.43 504.88 0.43 c p3
330.57 505.03 0.43 c p3
330.72 503.94 0.43 c p3
330.86 503.47 0.43 c p3
331.01 504.88 0.43 c p3
331.15 504.88 0.43 c p3
331.30 503.47 0.43 c p3
331.44 504.41 0.43 c p3
331.59 503.63 0.43 c p3
331.74 504.56 0.43 c p3
331.88 504.10 0.43 c p3
332.03 503.32 0.43 c p3
332.17 504.10 0.43 c p3
332.32 504.25 0.43 c p3
332.46 504.10 0.43 c p3
332.61 503.78 0.43 c p3
332.75 504.25 0.43 c p3
332.90 504.25 0.43 c p3
333.05 503.63 0.43 c p3
333.19 504.88 0.43 c p3
333.34 503.94 0.43 c p3
333.48 503.63 0.43 c p3
333.63 503.47 0.43 c p3
333.77 504.72 0.43 c p3
333.92 503.94 0.43 c p3
334.07 504.56 0.43 c p3
334.21 503.94 0.43 c p3
334.36 504.72 0.43 c p3
334.50 504.88 0.43 c p3
334.65 504.72 0.43 c p3
334.79 504.88 0.43 c p3
334.94 503.78 0.43 c p3
335.08 503.78 0.43 c p3
335.23 503.47 0.43 c p3
335.38 503.94 0.43 c p3
335.52 503.47 0.43 c p3
335.67 505.03 0.43 c p3
335.81 503.94 0.43 c p3
335.96 504.88 0.43 c p3
336.10 504.25 0.43 c p3
336.25 503.78 0.43 c p3
336.39 503.47 0.43 c p3
336.54 504.10 0.43 c p3
336.69 505.19 0.43 c p3
336.83 504.56 0.43 c p3
336.98 503.78 0.43 c p3
337.12 505.19 0.43 c p3
337.27 503.78 0.43 c p3
337.41 504.88 0.43 c p3
337.56 503.16 0.43 c p3
337.70 505.34 0.43 c p3
337.85 503.63 0.43 c p3
338.00 504.72 0.43 c p3
338.14 503.63 0.43 c p3
338.29 504.56 0.43 c p3
338.43 505.19 0.43 c p3
338.58 504.41 0.43 c p3
338.72 503.16 0.43 c p3
338.87 503.94 0.43 c p3
339.02 504.41 0.43 c p3
339.16 505.50 0.43 c p3
339.31 503.47 0.43 c p3
339.45 504.41 0.43 c p3
339.60 505.34 0.43 c p3
339.74 503.00 0.43 c p3
339.89 504.88 0.43 c p3
340.03 504.88 0.43 c p3
340.18 504.25 0.43 c p3
340.33 503.00 0.43 c p3
340.47 504.56 0.43 c p3
340.62 504.72 0.43 c p3
340.76 503.78 0.43 c p3
340.91 504.56 0.43 c p3
341.05 504.72 0.43 c p3
341.20 504.41 0.43 c p3
341.34 504.41 0.43 c p3
341.49 503.94 0.43 c p3
341.64 504.88 0.43 c p3
341.78 503.94 0.43 c p3
341.93 505.19 0.43 c p3
342.07 505.50 0.43 c p3
342.22 503.63 0.43 c p3
342.36 503.78 0.43 c p3
342.51 503.94 0.43 c p3
342.65 504.25 0.43 c p3
342.80 504.41 0.43 c p3
342.95 503.78 0.43 c p3
343.09 505.19 0.43 c p3
343.24 504.25 0.43 c p3
343.38 503.16 0.43 c p3
343.53 504.41 0.43 c p3
343.67 505.66 0.43 c p3
343.82 504.56 0.43 c p3
343.97 503.78 0.43 c p3
344.11 504.88 0.43 c p3
344.26 504.56 0.43 c p3
344.40 503.63 0.43 c p3
344.55 504.10 0.43 c p3
344.69 503.47 0.43 c p3
344.84 504.10 0.43 c p3
344.98 504.72 0.43 c p3
345.13 504.72 0.43 c p3
345.28 504.41 0.43 c p3
345.42 503.78 0.43 c p3
345.57 504.41 0.43 c p3
345.71 504.25 0.43 c p3
345.86 505.03 0.43 c p3
346.00 503.47 0.43 c p3
346.15 504.10 0.43 c p3
346.29 503.94 0.43 c p3
346.44 505.97 0.43 c p3
346.59 504.88 0.43 c p3
346.73 504.25 0.43 c p3
346.88 504.88 0.43 c p3
347.02 504.25 0.43 c p3
347.17 503.94 0.43 c p3
347.31 504.25 0.43 c p3
347.46 503.47 0.43 c p3
347.60 503.78 0.43 c p3
347.75 504.10 0.43 c p3
347.90 504.72 0.43 c p3
348.04 504.72 0.43 c p3
348.19 504.25 0.43 c p3
348.33 505.03 0.43 c p3
348.48 505.19 0.43 c p3
348.62 505.19 0.43 c p3
348.77 504.56 0.43 c p3
348.92 503.94 0.43 c p3
349.06 503.78 0.43 c p3
349.21 504.88 0.43 c p3
349.35 503.32 0.43 c p3
349.50 504.72 0.43 c p3
349.64 505.81 0.43 c p3
349.79 504.72 0.43 c p3
349.93 504.41 0.43 c p3
350.08 504.56 0.43 c p3
350.23 504.72 0.43 c p3
350.37 505.03 0.43 c p3
350.52 504.56 0.43 c p3
350.66 503.47 0.43 c p3
350.81 505.81 0.43 c p3
350.95 505.19 0.43 c p3
351.10 505.66 0.43 c p3
351.24 504.88 0.43 c p3
351.39 504.25 0.43 c p3
351.54 504.41 0.43 c p3
351.68 503.63 0.43 c p3
351.83 504.10 0.43 c p3
351.97 504.41 0.43 c p3
352.12 504.56 0.43 c p3
352.26 505.03 0.43 c p3
352.41 506.12 0.43 c p3
352.55 504.88 0.43 c p3
352.70 504.10 0.43 c p3
352.85 504.25 0.43 c p3
352.99 504.41 0.43 c p3
353.14 504.56 0.43 c p3
353.28 505.66 0.43 c p3
353.43 505.03 0.43 c p3
353.57 504.72 0.43 c p3
353.72 504.72 0.43 c p3
353.86 504.56 0.43 c p3
354.01 505.34 0.43 c p3
354.16 505.19 0.43 c p3
354.30 505.34 0.43 c p3
354.45 505.66 0.43 c p3
354.59 504.10 0.43 c p3
354.74 503.94 0.43 c p3
354.88 503.94 0.43 c p3
355.03 504.41 0.43 c p3
355.18 505.19 0.43 c p3
355.32 505.81 0.43 c p3
355.47 505.50 0.43 c p3
355.61 505.66 0.43 c p3
355.76 505.19 0.43 c p3
355.90 504.88 0.43 c p3
356.05 504.56 0.43 c p3
356.19 504.41 0.43 c p3
356.34 503.78 0.43 c p3
356.49 504.88 0.43 c p3
356.63 505.19 0.43 c p3
356.78 506.28 0.43 c p3
356.92 504.56 0.43 c p3
357.07 504.41 0.43 c p3
357.21 504.41 0.43 c p3
357.36 504.56 0.43 c p3
357.50 504.56 0.43 c p3
357.65 503.78 0.43 c p3
357.80 504.56 0.43 c p3
357.94 505.81 0.43 c p3
358.09 508.28 0.43 c p3
358.23 504.25 0.43 c p3
358.38 505.50 0.43 c p3
358.52 503.94 0.43 c p3
358.67 505.34 0.43 c p3
358.81 503.94 0.43 c p3
358.96 505.81 0.43 c p3
359.11 503.47 0.43 c p3
359.25 505.34 0.43 c p3
359.40 504.41 0.43 c p3
359.54 504.88 0.43 c p3
359.69 503.63 0.43 c p3
359.83 504.41 0.43 c p3
359.98 503.78 0.43 c p3
360.13 504.72 0.43 c p3
360.27 505.19 0.43 c p3
360.42 504.88 0.43 c p3
360.56 503.94 0.43 c p3
360.71 505.81 0.43 c p3
360.85 505.81 0.43 c p3
361.00 504.56 0.43 c p3
361.14 504.25 0.43 c p3
361.29 503.00 0.43 c p3
361.44 504.25 0.43 c p3
361.58 503.32 0.43 c p3
361.73 504.88 0.43 c p3
361.87 506.28 0.43 c p3
362.02 505.66 0.43 c p3
362.16 505.66 0.43 c p3
362.31 505.03 0.43 c p3
362.45 504.10 0.43 c p3
362.60 504.10 0.43 c p3
362.75 504.10 0.43 c p3
362.89 505.66 0.43 c p3
363.04 504.88 0.43 c p3
363.18 506.59 0.43 c p3
363.33 506.28 0.43 c p3
363.47 504.56 0.43 c p3
363.62 504.10 0.43 c p3
363.76 503.94 0.43 c p3
363.91 504.25 0.43 c p3
364.06 505.19 0.43 c p3
364.20 504.10 0.43 c p3
364.35 506.44 0.43 c p3
364.49 505.34 0.43 c p3
364.64 505.19 0.43 c p3
364.78 505.03 0.43 c p3
364.93 504.10 0.43 c p3
365.08 504.72 0.43 c p3
365.22 504.25 0.43 c p3
365.37 504.56 0.43 c p3
365.51 505.03 0.43 c p3
365.66 506.59 0.43 c p3
365.80 505.81 0.43 c p3
365.95 504.72 0.43 c p3
366.09 504.56 0.43 c p3
366.24 504.41 0.43 c p3
366.39 504.25 0.43 c p3
366.53 504.72 0.43 c p3
366.68 505.19 0.43 c p3
366.82 504.41 0.43 c p3
366.97 504.88 0.43 c p3
367.11 505.19 0.43 c p3
367.26 505.81 0.43 c p3
367.40 504.72 0.43 c p3
367.55 505.19 0.43 c p3
367.70 505.81 0.43 c p3
367.84 503.94 0.43 c p3
367.99 503.78 0.43 c p3
368.13 506.28 0.43 c p3
368.28 504.25 0.43 c p3
368.42 505.81 0.43 c p3
368.57 505.66 0.43 c p3
368.71 504.41 0.43 c p3
368.86 504.41 0.43 c p3
369.01 504.72 0.43 c p3
369.15 504.41 0.43 c p3
369.30 504.41 0.43 c p3
369.44 505.50 0.43 c p3
369.59 503.94 0.43 c p3
369.73 504.72 0.43 c p3
369.88 506.59 0.43 c p3
370.03 505.81 0.43 c p3
370.17 506.44 0.43 c p3
370.32 505.66 0.43 c p3
370.46 504.25 0.43 c p3
370.61 502.69 0.43 c p3
370.75 503.47 0.43 c p3
370.90 504.25 0.43 c p3
371.04 505.50 0.43 c p3
371.19 506.28 0.43 c p3
371.34 506.44 0.43 c p3
371.48 506.72 0.43 c p3
371.63 505.66 0.43 c p3
371.77 505.19 0.43 c p3
371.92 504.10 0.43 c p3
372.06 504.72 0.43 c p3
372.21 503.47 0.43 c p3
372.35 504.72 0.43 c p3
372.50 506.28 0.43 c p3
372.65 506.28 0.43 c p3
372.79 504.41 0.43 c p3
372.94 505.19 0.43 c p3
373.08 505.03 0.43 c p3
373.23 504.25 0.43 c p3
373.37 504.72 0.43 c p3
373.52 504.88 0.43 c p3
373.66 505.19 0.43 c p3
373.81 505.66 0.43 c p3
373.96 505.66 0.43 c p3
374.10 506.28 0.43 c p3
374.25 504.88 0.43 c p3
374.39 504.72 0.43 c p3
374.54 504.10 0.43 c p3
374.68 505.19 0.43 c p3
374.83 505.66 0.43 c p3
374.98 506.12 0.43 c p3
375.12 505.03 0.43 c p3
375.27 505.66 0.43 c p3
375.41 505.66 0.43 c p3
375.56 505.03 0.43 c p3
375.70 505.34 0.43 c p3
375.85 504.41 0.43 c p3
375.99 504.72 0.43 c p3
376.14 505.66 0.43 c p3
376.29 505.19 0.43 c p3
376.43 505.50 0.43 c p3
376.58 505.50 0.43 c p3
376.72 503.63 0.43 c p3
376.87 504.10 0.43 c p3
377.01 505.19 0.43 c p3
377.16 504.25 0.43 c p3
377.30 504.88 0.43 c p3
377.45 504.56 0.43 c p3
377.60 505.66 0.43 c p3
377.74 504.88 0.43 c p3
377.89 504.10 0.43 c p3
378.03 505.66 0.43 c p3
378.18 505.50 0.43 c p3
378.32 504.41 0.43 c p3
378.47 504.88 0.43 c p3
378.61 505.34 0.43 c p3
378.76 506.44 0.43 c p3
378.91 505.66 0.43 c p3
379.05 505.50 0.43 c p3
379.20 505.81 0.43 c p3
379.34 505.34 0.43 c p3
379.49 503.78 0.43 c p3
379.63 504.41 0.43 c p3
379.78 503.78 0.43 c p3
379.93 504.72 0.43 c p3
380.07 505.34 0.43 c p3
380.22 504.72 0.43 c p3
380.36 506.12 0.43 c p3
380.51 506.28 0.43 c p3
380.65 505.03 0.43 c p3
380.80 504.41 0.43 c p3
380.94 504.41 0.43 c p3
381.09 504.56 0.43 c p3
381.24 504.88 0.43 c p3
381.38 504.88 0.43 c p3
381.53 505.81 0.43 c p3
381.67 505.50 0.43 c p3
381.82 504.72 0.43 c p3
381.96 504.72 0.43 c p3
382.11 504.25 0.43 c p3
382.25 504.72 0.43 c p3
382.40 505.97 0.43 c p3
0.00 0.00 432.00 576.00 cl
0 0 0 srgb
0.75 setlinewidth
[] 0 setdash
1 setlinecap
1 setlinejoin
10.00 setmiterlimit
np
236.96 345.60 m
132.35 0 l
o
np
236.96 345.60 m
0 -5.76 l
o
np
270.05 345.60 m
0 -5.76 l
o
np
303.13 345.60 m
0 -5.76 l
o
np
336.22 345.60 m
0 -5.76 l
o
np
369.31 345.60 m
0 -5.76 l
o
/Font1 findfont 10 s
236.96 329.47 (0) .5 0 t
270.05 329.47 (5000) .5 0 t
336.22 329.47 (15000) .5 0 t
np
216.00 352.00 m
0 127.79 l
o
np
216.00 352.00 m
-5.76 0 l
o
np
216.00 394.60 m
-5.76 0 l
o
np
216.00 437.19 m
-5.76 0 l
o
np
216.00 479.79 m
-5.76 0 l
o
209.09 348.41 (0.0) 1 0 t
209.09 391.01 (0.1) 1 0 t
209.09 433.60 (0.2) 1 0 t
209.09 476.20 (0.3) 1 0 t
np
216.00 345.60 m
172.80 0 l
0 172.80 l
-172.80 0 l
0 -172.80 l
o
0.00 0.00 432.00 576.00 cl
/Font1 findfont 10 s
0 0 0 srgb
302.40 313.34 (Time / ms \(total\)) .5 0 t
190.66 432.00 (U / V) .5 90 t
216.00 345.60 388.80 518.40 cl
0 0 0 srgb
0.38 setlinewidth
[ 1.13 1.88] 0 setdash
1 setlinecap
1 setlinejoin
10.00 setmiterlimit
np
222.40 345.60 m
0 172.80 l
o
np
234.05 345.60 m
0 172.80 l
o
np
238.71 345.60 m
0 172.80 l
o
np
321.40 345.60 m
0 172.80 l
o
86.40 57.60 388.80 288.00 cl
1 0 0 srgb
1.50 setlinewidth
[] 0 setdash
1 setlinecap
1 setlinejoin
10.00 setmiterlimit
np
97.60 279.47 m
1.41 -6.92 l
1.40 -6.67 l
1.41 -6.44 l
1.41 -6.22 l
1.41 -6.01 l
1.40 -5.80 l
1.41 -5.60 l
1.41 -5.40 l
1.40 -5.22 l
1.41 -5.04 l
1.41 -4.87 l
1.40 -4.69 l
1.41 -4.54 l
1.41 -4.37 l
1.41 -4.23 l
1.40 -4.08 l
1.41 -3.94 l
1.41 -3.80 l
1.40 -3.68 l
1.41 -3.54 l
1.41 -3.43 l
1.40 -3.30 l
1.41 -3.19 l
1.41 -3.08 l
1.41 -2.98 l
1.40 -2.87 l
1.41 -2.77 l
1.41 -2.68 l
1.40 -2.58 l
1.41 -2.50 l
1.41 -2.41 l
1.41 -2.32 l
1.40 -2.25 l
1.41 -2.17 l
1.41 -2.09 l
1.40 -2.02 l
1.41 -1.95 l
1.41 -1.88 l
1.40 -1.82 l
1.41 -1.76 l
1.41 -1.69 l
1.41 -1.64 l
1.40 -1.58 l
1.41 -1.53 l
1.41 -1.47 l
1.40 -1.42 l
1.41 -1.38 l
1.41 -1.32 l
1.40 -1.28 l
1.41 -1.24 l
1.41 -1.19 l
1.41 -1.15 l
1.40 -1.11 l
1.41 -1.08 l
1.41 -1.03 l
1.40 -1.00 l
1.41 -0.97 l
1.41 -0.93 l
1.41 -0.90 l
1.40 -0.87 l
1.41 -0.84 l
1.41 -0.81 l
1.40 -0.79 l
1.41 -0.75 l
1.41 -0.73 l
1.40 -0.70 l
1.41 -0.68 l
1.41 -0.66 l
1.41 -0.63 l
1.40 -0.62 l
1.41 -0.59 l
1.41 -0.57 l
1.40 -0.55 l
1.41 -0.53 l
1.41 -0.51 l
1.40 -0.50 l
1.41 -0.48 l
1.41 -0.46 l
1.41 -0.45 l
1.40 -0.43 l
1.41 -0.41 l
1.41 -0.40 l
1.40 -0.39 l
1.41 -0.37 l
1.41 -0.37 l
1.41 -0.34 l
1.40 -0.34 l
1.41 -0.33 l
1.41 -0.31 l
1.40 -0.30 l
1.41 -0.30 l
1.41 -0.28 l
1.40 -0.27 l
1.41 -0.26 l
1.41 -0.26 l
1.41 -0.24 l
1.40 -0.24 l
1.41 -0.23 l
1.41 -0.22 l
238.30 85.23 lineto
1.41 -0.21 l
1.41 -0.20 l
1.40 -0.19 l
1.41 -0.19 l
1.41 -0.17 l
1.41 -0.18 l
1.40 -0.16 l
1.41 -0.17 l
1.41 -0.15 l
1.40 -0.15 l
1.41 -0.15 l
1.41 -0.14 l
1.40 -0.13 l
1.41 -0.13 l
1.41 -0.13 l
1.41 -0.12 l
1.40 -0.12 l
1.41 -0.11 l
1.41 -0.11 l
1.40 -0.10 l
1.41 -0.11 l
1.41 -0.09 l
1.41 -0.10 l
1.40 -0.09 l
1.41 -0.09 l
1.41 -0.09 l
1.40 -0.08 l
1.41 -0.08 l
1.41 -0.07 l
1.40 -0.08 l
1.41 -0.07 l
1.41 -0.07 l
1.41 -0.07 l
1.40 -0.06 l
1.41 -0.06 l
1.41 -0.06 l
1.40 -0.06 l
1.41 -0.06 l
1.41 -0.05 l
1.40 -0.05 l
1.41 -0.05 l
1.41 -0.05 l
1.41 -0.05 l
1.40 -0.05 l
1.41 -0.04 l
1.41 -0.04 l
1.40 -0.04 l
1.41 -0.04 l
1.41 -0.04 l
1.41 -0.04 l
1.40 -0.03 l
1.41 -0.04 l
1.41 -0.03 l
1.40 -0.03 l
1.41 -0.03 l
1.41 -0.03 l
1.40 -0.03 l
1.41 -0.03 l
1.41 -0.03 l
1.41 -0.02 l
1.40 -0.03 l
1.41 -0.02 l
1.41 -0.02 l
1.40 -0.03 l
1.41 -0.02 l
1.41 -0.02 l
1.40 -0.02 l
1.41 -0.02 l
1.41 -0.02 l
1.41 -0.02 l
1.40 -0.01 l
1.41 -0.02 l
1.41 -0.02 l
1.40 -0.01 l
1.41 -0.02 l
1.41 -0.01 l
1.41 -0.02 l
1.40 -0.01 l
1.41 -0.02 l
1.41 -0.01 l
1.40 -0.01 l
1.41 -0.01 l
1.41 -0.01 l
1.40 -0.01 l
1.41 -0.02 l
1.41 -0.01 l
1.41 -0.01 l
1.40 -0.01 l
1.41 -0.01 l
1.41 0 l
1.40 -0.01 l
1.41 -0.01 l
1.41 -0.01 l
1.40 -0.01 l
1.41 0 l
1.41 -0.01 l
1.41 -0.01 l
1.40 -0.01 l
1.41 0 l
o
0.00 0.00 432.00 576.00 cl
0 0 0 srgb
0.75 setlinewidth
[] 0 setdash
1 setlinecap
1 setlinejoin
10.00 setmiterlimit
np
97.60 57.60 m
254.55 0 l
o
np
97.60 57.60 m
0 -5.76 l
o
np
161.24 57.60 m
0 -5.76 l
o
np
224.87 57.60 m
0 -5.76 l
o
np
288.51 57.60 m
0 -5.76 l
o
np
352.15 57.60 m
0 -5.76 l
o
/Font1 findfont 10 s
97.60 41.47 (0) .5 0 t
161.24 41.47 (5000) .5 0 t
224.87 41.47 (10000) .5 0 t
288.51 41.47 (15000) .5 0 t
352.15 41.47 (20000) .5 0 t
np
86.40 66.13 m
0 211.58 l
o
np
86.40 66.13 m
-5.76 0 l
o
np
86.40 101.40 m
-5.76 0 l
o
np
86.40 136.66 m
-5.76 0 l
o
np
86.40 171.92 m
-5.76 0 l
o
np
86.40 207.18 m
-5.76 0 l
o
np
86.40 242.44 m
-5.76 0 l
o
np
86.40 277.71 m
-5.76 0 l
o
79.49 62.54 (0.00) 1 0 t
79.49 97.81 (0.05) 1 0 t
79.49 133.07 (0.10) 1 0 t
79.49 168.33 (0.15) 1 0 t
79.49 203.59 (0.20) 1 0 t
79.49 238.85 (0.25) 1 0 t
79.49 274.12 (0.30) 1 0 t
np
86.40 57.60 m
302.40 0 l
0 230.40 l
-302.40 0 l
0 -230.40 l
o
0.00 0.00 432.00 576.00 cl
/Font1 findfont 10 s
0 0 0 srgb
237.60 13.82 (Time / ms \(after pulse\)) .5 0 t
49.54 172.80 (Absorbance A) .5 90 t
86.40 57.60 388.80 288.00 cl
/bg { 1 1 1 srgb } def
0 0 0 srgb
0.75 setlinewidth
[] 0 setdash
1 setlinecap
1 setlinejoin
10.00 setmiterlimit
101.24 262.66 0.65 c p3
101.52 252.61 0.65 c p3
101.80 257.08 0.65 c p3
102.08 259.34 0.65 c p3
102.36 252.06 0.65 c p3
102.64 255.96 0.65 c p3
102.92 255.96 0.65 c p3
103.20 254.28 0.65 c p3
103.48 252.61 0.65 c p3
103.76 245.58 0.65 c p3
104.04 245.58 0.65 c p3
104.32 246.13 0.65 c p3
104.60 238.62 0.65 c p3
104.88 248.21 0.65 c p3
105.16 245.58 0.65 c p3
105.44 242.35 0.65 c p3
105.72 246.13 0.65 c p3
106.00 240.75 0.65 c p3
106.28 239.15 0.65 c p3
106.56 237.56 0.65 c p3
106.84 239.68 0.65 c p3
107.12 238.09 0.65 c p3
107.40 238.62 0.65 c p3
107.68 237.04 0.65 c p3
107.96 234.94 0.65 c p3
108.24 233.89 0.65 c p3
108.52 232.94 0.65 c p3
108.80 225.75 0.65 c p3
109.08 227.79 0.65 c p3
109.36 230.35 0.65 c p3
109.64 229.84 0.65 c p3
109.92 224.73 0.65 c p3
110.20 226.26 0.65 c p3
110.48 226.26 0.65 c p3
110.76 225.24 0.65 c p3
111.04 223.72 0.65 c p3
111.32 218.31 0.65 c p3
111.60 220.21 0.65 c p3
111.88 218.80 0.65 c p3
112.16 220.71 0.65 c p3
112.44 219.30 0.65 c p3
112.72 219.72 0.65 c p3
113.00 215.84 0.65 c p3
113.28 213.39 0.65 c p3
113.56 216.33 0.65 c p3
113.84 215.84 0.65 c p3
114.12 212.42 0.65 c p3
114.40 213.39 0.65 c p3
114.68 209.04 0.65 c p3
114.96 211.93 0.65 c p3
115.24 210.48 0.65 c p3
115.52 209.04 0.65 c p3
115.80 208.56 0.65 c p3
116.08 205.29 0.65 c p3
116.36 206.24 0.65 c p3
116.64 204.35 0.65 c p3
116.92 204.82 0.65 c p3
117.20 203.40 0.65 c p3
117.48 202.93 0.65 c p3
117.76 204.82 0.65 c p3
118.04 202.93 0.65 c p3
118.32 199.65 0.65 c p3
118.60 198.72 0.65 c p3
118.88 200.58 0.65 c p3
119.16 198.25 0.65 c p3
119.44 197.33 0.65 c p3
119.72 196.86 0.65 c p3
120.00 192.35 0.65 c p3
120.28 194.56 0.65 c p3
120.56 193.27 0.65 c p3
120.84 193.72 0.65 c p3
121.12 193.72 0.65 c p3
121.40 191.90 0.65 c p3
121.68 187.84 0.65 c p3
121.96 192.35 0.65 c p3
122.24 190.09 0.65 c p3
122.52 187.39 0.65 c p3
122.80 189.63 0.65 c p3
123.08 185.16 0.65 c p3
123.36 186.94 0.65 c p3
123.64 184.27 0.65 c p3
123.92 184.71 0.65 c p3
124.20 185.60 0.65 c p3
124.48 183.38 0.65 c p3
124.76 180.82 0.65 c p3
125.04 181.25 0.65 c p3
125.32 180.38 0.65 c p3
125.60 181.25 0.65 c p3
125.88 179.07 0.65 c p3
126.16 179.07 0.65 c p3
126.44 177.33 0.65 c p3
126.72 179.07 0.65 c p3
127.00 177.33 0.65 c p3
127.28 175.17 0.65 c p3
127.56 175.17 0.65 c p3
127.84 174.31 0.65 c p3
128.12 174.31 0.65 c p3
128.40 171.74 0.65 c p3
128.68 173.45 0.65 c p3
128.96 171.74 0.65 c p3
129.24 169.69 0.65 c p3
129.52 170.47 0.65 c p3
129.80 171.32 0.65 c p3
130.08 168.43 0.65 c p3
130.36 170.47 0.65 c p3
130.64 171.32 0.65 c p3
130.92 168.01 0.65 c p3
131.20 164.66 0.65 c p3
131.48 165.08 0.65 c p3
131.76 164.66 0.65 c p3
132.04 165.50 0.65 c p3
132.32 164.25 0.65 c p3
132.60 163.83 0.65 c p3
132.88 163.83 0.65 c p3
133.16 162.18 0.65 c p3
133.44 162.18 0.65 c p3
133.72 158.15 0.65 c p3
134.00 158.96 0.65 c p3
134.28 158.96 0.65 c p3
134.56 156.52 0.65 c p3
134.84 159.71 0.65 c p3
135.12 158.15 0.65 c p3
135.40 158.15 0.65 c p3
135.68 156.52 0.65 c p3
135.96 155.31 0.65 c p3
136.24 154.51 0.65 c p3
136.52 152.50 0.65 c p3
136.80 152.10 0.65 c p3
137.08 152.90 0.65 c p3
137.36 153.70 0.65 c p3
137.64 152.50 0.65 c p3
137.92 152.50 0.65 c p3
138.20 151.30 0.65 c p3
138.48 148.53 0.65 c p3
138.76 150.11 0.65 c p3
139.04 150.11 0.65 c p3
139.32 148.93 0.65 c p3
139.60 144.29 0.65 c p3
139.88 148.53 0.65 c p3
140.16 146.63 0.65 c p3
140.44 144.67 0.65 c p3
140.72 148.20 0.65 c p3
141.00 145.07 0.65 c p3
141.28 142.35 0.65 c p3
141.56 143.51 0.65 c p3
141.84 144.29 0.65 c p3
142.12 143.12 0.65 c p3
142.40 141.19 0.65 c p3
142.68 140.42 0.65 c p3
142.96 141.19 0.65 c p3
143.24 141.57 0.65 c p3
143.52 141.57 0.65 c p3
143.80 141.57 0.65 c p3
144.08 138.89 0.65 c p3
144.36 138.50 0.65 c p3
144.64 137.80 0.65 c p3
144.92 138.89 0.65 c p3
145.20 137.04 0.65 c p3
145.48 138.12 0.65 c p3
145.76 137.42 0.65 c p3
146.04 135.91 0.65 c p3
146.32 135.91 0.65 c p3
146.60 135.15 0.65 c p3
146.88 135.91 0.65 c p3
147.16 134.02 0.65 c p3
147.44 134.77 0.65 c p3
147.72 133.64 0.65 c p3
148.00 134.02 0.65 c p3
148.28 134.02 0.65 c p3
148.56 133.64 0.65 c p3
148.84 131.77 0.65 c p3
149.12 133.64 0.65 c p3
149.40 131.02 0.65 c p3
149.68 132.89 0.65 c p3
149.96 130.28 0.65 c p3
150.24 129.91 0.65 c p3
150.52 130.65 0.65 c p3
150.80 129.17 0.65 c p3
151.08 128.80 0.65 c p3
151.36 129.17 0.65 c p3
151.64 128.43 0.65 c p3
151.92 128.06 0.65 c p3
152.20 128.06 0.65 c p3
152.48 131.40 0.65 c p3
152.76 121.91 0.65 c p3
153.04 129.54 0.65 c p3
153.32 126.65 0.65 c p3
153.60 121.55 0.65 c p3
153.88 125.91 0.65 c p3
154.16 126.65 0.65 c p3
154.44 124.45 0.65 c p3
154.72 124.45 0.65 c p3
155.00 122.99 0.65 c p3
155.28 124.45 0.65 c p3
155.56 119.03 0.65 c p3
155.84 124.82 0.65 c p3
156.12 124.45 0.65 c p3
156.40 119.39 0.65 c p3
156.68 124.45 0.65 c p3
156.96 120.10 0.65 c p3
157.24 121.18 0.65 c p3
157.52 120.10 0.65 c p3
157.80 118.67 0.65 c p3
158.08 119.75 0.65 c p3
158.36 119.03 0.65 c p3
158.64 120.82 0.65 c p3
158.92 120.10 0.65 c p3
159.20 120.82 0.65 c p3
159.48 119.03 0.65 c p3
159.76 118.31 0.65 c p3
160.04 119.75 0.65 c p3
160.32 117.30 0.65 c p3
160.60 114.82 0.65 c p3
160.88 117.30 0.65 c p3
161.16 119.75 0.65 c p3
161.44 118.31 0.65 c p3
161.72 116.59 0.65 c p3
162.00 117.66 0.65 c p3
162.28 114.82 0.65 c p3
162.56 117.30 0.65 c p3
162.84 116.94 0.65 c p3
163.12 115.17 0.65 c p3
163.40 117.30 0.65 c p3
163.68 116.59 0.65 c p3
163.96 116.59 0.65 c p3
164.24 117.30 0.65 c p3
164.52 116.23 0.65 c p3
164.80 112.70 0.65 c p3
165.08 114.46 0.65 c p3
165.36 114.46 0.65 c p3
165.64 113.41 0.65 c p3
165.92 113.76 0.65 c p3
166.20 115.17 0.65 c p3
166.48 114.82 0.65 c p3
166.76 114.11 0.65 c p3
167.04 113.41 0.65 c p3
167.32 112.35 0.65 c p3
167.60 113.05 0.65 c p3
167.88 112.70 0.65 c p3
168.16 112.35 0.65 c p3
168.44 113.76 0.65 c p3
168.72 110.61 0.65 c p3
169.00 112.00 0.65 c p3
169.28 110.61 0.65 c p3
169.56 110.26 0.65 c p3
169.84 112.70 0.65 c p3
170.12 109.56 0.65 c p3
170.40 108.58 0.65 c p3
170.68 108.23 0.65 c p3
170.96 110.61 0.65 c p3
171.24 108.23 0.65 c p3
171.52 112.00 0.65 c p3
171.80 110.95 0.65 c p3
172.08 112.70 0.65 c p3
172.36 112.35 0.65 c p3
172.64 112.00 0.65 c p3
172.92 108.87 0.65 c p3
173.20 106.85 0.65 c p3
173.48 107.54 0.65 c p3
173.76 109.91 0.65 c p3
174.04 110.61 0.65 c p3
174.32 110.95 0.65 c p3
174.60 109.56 0.65 c p3
174.88 109.91 0.65 c p3
175.16 108.23 0.65 c p3
175.44 108.58 0.65 c p3
175.72 105.13 0.65 c p3
176.00 105.82 0.65 c p3
176.28 108.87 0.65 c p3
176.56 110.26 0.65 c p3
176.84 108.23 0.65 c p3
177.12 110.61 0.65 c p3
177.40 107.20 0.65 c p3
177.68 108.58 0.65 c p3
177.96 105.13 0.65 c p3
178.24 107.54 0.65 c p3
178.52 107.54 0.65 c p3
178.80 107.89 0.65 c p3
179.08 105.48 0.65 c p3
179.36 107.20 0.65 c p3
179.64 107.54 0.65 c p3
179.92 107.89 0.65 c p3
180.20 105.13 0.65 c p3
180.48 106.16 0.65 c p3
180.76 105.82 0.65 c p3
181.04 106.85 0.65 c p3
181.32 105.13 0.65 c p3
181.60 105.48 0.65 c p3
181.88 102.41 0.65 c p3
182.16 108.23 0.65 c p3
182.44 106.16 0.65 c p3
182.72 106.16 0.65 c p3
183.00 103.77 0.65 c p3
183.28 103.77 0.65 c p3
183.56 104.45 0.65 c p3
183.84 104.79 0.65 c p3
184.12 105.82 0.65 c p3
184.40 104.45 0.65 c p3
184.68 105.48 0.65 c p3
184.96 105.48 0.65 c p3
185.24 102.07 0.65 c p3
185.52 100.38 0.65 c p3
185.80 104.45 0.65 c p3
186.08 103.43 0.65 c p3
186.36 102.41 0.65 c p3
186.64 103.77 0.65 c p3
186.92 104.45 0.65 c p3
187.20 102.07 0.65 c p3
187.48 103.77 0.65 c p3
187.76 103.09 0.65 c p3
188.04 101.39 0.65 c p3
188.32 101.05 0.65 c p3
188.60 104.11 0.65 c p3
188.88 102.07 0.65 c p3
189.16 104.11 0.65 c p3
189.44 103.77 0.65 c p3
189.72 104.11 0.65 c p3
190.00 103.09 0.65 c p3
190.28 101.05 0.65 c p3
190.56 99.71 0.65 c p3
190.84 100.38 0.65 c p3
191.12 100.72 0.65 c p3
191.40 102.41 0.65 c p3
191.68 101.05 0.65 c p3
191.96 101.05 0.65 c p3
192.24 104.45 0.65 c p3
192.52 103.43 0.65 c p3
192.80 102.41 0.65 c p3
193.08 100.38 0.65 c p3
193.36 98.75 0.65 c p3
193.64 97.75 0.65 c p3
193.92 100.72 0.65 c p3
194.20 100.04 0.65 c p3
194.48 102.41 0.65 c p3
194.76 102.41 0.65 c p3
195.04 99.09 0.65 c p3
195.32 101.05 0.65 c p3
195.60 99.43 0.65 c p3
195.88 98.08 0.65 c p3
196.16 99.09 0.65 c p3
196.44 98.75 0.65 c p3
196.72 100.38 0.65 c p3
197.00 101.39 0.65 c p3
197.28 101.05 0.65 c p3
197.56 100.38 0.65 c p3
197.84 99.09 0.65 c p3
198.12 98.75 0.65 c p3
198.40 98.08 0.65 c p3
198.68 98.75 0.65 c p3
198.96 100.04 0.65 c p3
199.24 96.75 0.65 c p3
199.52 97.75 0.65 c p3
199.80 99.71 0.65 c p3
200.08 95.75 0.65 c p3
200.36 98.08 0.65 c p3
200.64 97.75 0.65 c p3
200.92 95.09 0.65 c p3
201.20 97.75 0.65 c p3
201.48 96.75 0.65 c p3
201.76 97.08 0.65 c p3
202.04 96.75 0.65 c p3
202.32 99.09 0.65 c p3
202.60 97.41 0.65 c p3
202.88 97.08 0.65 c p3
203.16 95.75 0.65 c p3
203.44 95.42 0.65 c p3
203.72 93.43 0.65 c p3
204.00 96.08 0.65 c p3
204.28 95.75 0.65 c p3
204.56 95.42 0.65 c p3
204.84 95.75 0.65 c p3
205.12 93.76 0.65 c p3
205.40 94.76 0.65 c p3
205.68 93.10 0.65 c p3
205.96 94.76 0.65 c p3
206.24 94.76 0.65 c p3
206.52 95.09 0.65 c p3
206.80 95.09 0.65 c p3
207.08 96.08 0.65 c p3
207.36 94.42 0.65 c p3
207.64 95.42 0.65 c p3
207.92 92.45 0.65 c p3
208.20 93.43 0.65 c p3
208.48 93.76 0.65 c p3
208.76 91.79 0.65 c p3
209.04 92.78 0.65 c p3
209.32 92.78 0.65 c p3
209.60 93.43 0.65 c p3
209.88 94.76 0.65 c p3
210.16 92.12 0.65 c p3
210.44 94.09 0.65 c p3
210.72 92.45 0.65 c p3
211.00 92.12 0.65 c p3
211.28 93.43 0.65 c p3
211.56 91.79 0.65 c p3
211.84 92.45 0.65 c p3
212.12 93.43 0.65 c p3
212.40 92.78 0.65 c p3
212.68 92.78 0.65 c p3
212.96 90.21 0.65 c p3
213.24 91.79 0.65 c p3
213.52 91.79 0.65 c p3
213.80 93.43 0.65 c p3
214.08 92.12 0.65 c p3
214.36 92.12 0.65 c p3
214.64 95.09 0.65 c p3
214.92 90.81 0.65 c p3
215.20 89.56 0.65 c p3
215.48 92.12 0.65 c p3
215.76 88.26 0.65 c p3
216.04 91.14 0.65 c p3
216.32 93.10 0.65 c p3
216.60 92.12 0.65 c p3
216.88 90.54 0.65 c p3
217.16 91.79 0.65 c p3
217.44 89.56 0.65 c p3
217.72 89.56 0.65 c p3
218.00 91.79 0.65 c p3
218.28 89.88 0.65 c p3
218.56 89.23 0.65 c p3
218.84 91.14 0.65 c p3
219.12 88.91 0.65 c p3
219.40 90.81 0.65 c p3
219.68 89.23 0.65 c p3
219.96 90.54 0.65 c p3
220.24 89.56 0.65 c p3
220.52 88.58 0.65 c p3
220.80 90.21 0.65 c p3
221.08 90.21 0.65 c p3
221.36 89.88 0.65 c p3
221.64 87.29 0.65 c p3
221.92 88.26 0.65 c p3
222.20 86.64 0.65 c p3
222.48 87.61 0.65 c p3
222.76 88.26 0.65 c p3
223.04 88.58 0.65 c p3
223.32 86.32 0.65 c p3
223.60 89.56 0.65 c p3
223.88 87.29 0.65 c p3
224.16 85.04 0.65 c p3
224.44 88.58 0.65 c p3
224.72 89.88 0.65 c p3
225.00 90.21 0.65 c p3
225.28 88.58 0.65 c p3
225.56 87.61 0.65 c p3
225.84 85.68 0.65 c p3
226.12 86.32 0.65 c p3
226.40 88.26 0.65 c p3
226.68 85.36 0.65 c p3
226.96 89.56 0.65 c p3
227.24 91.14 0.65 c p3
227.52 86.32 0.65 c p3
227.80 85.36 0.65 c p3
228.08 86.64 0.65 c p3
228.36 85.68 0.65 c p3
228.64 86.00 0.65 c p3
228.92 85.68 0.65 c p3
229.20 86.64 0.65 c p3
229.48 88.91 0.65 c p3
229.76 86.97 0.65 c p3
230.04 88.26 0.65 c p3
230.32 89.23 0.65 c p3
230.60 85.36 0.65 c p3
230.88 86.64 0.65 c p3
231.16 86.00 0.65 c p3
231.44 86.97 0.65 c p3
231.72 85.04 0.65 c p3
232.00 85.04 0.65 c p3
232.28 85.68 0.65 c p3
232.56 86.97 0.65 c p3
232.84 85.04 0.65 c p3
233.12 85.04 0.65 c p3
233.40 85.36 0.65 c p3
233.68 83.76 0.65 c p3
233.96 85.04 0.65 c p3
234.24 87.29 0.65 c p3
234.52 85.36 0.65 c p3
234.80 85.68 0.65 c p3
235.08 85.36 0.65 c p3
235.36 81.90 0.65 c p3
235.64 83.12 0.65 c p3
235.92 85.04 0.65 c p3
236.20 85.36 0.65 c p3
236.48 84.40 0.65 c p3
236.76 85.04 0.65 c p3
237.04 85.36 0.65 c p3
237.32 85.36 0.65 c p3
237.60 85.04 0.65 c p3
237.88 84.08 0.65 c p3
238.16 83.12 0.65 c p3
238.44 84.40 0.65 c p3
238.72 85.04 0.65 c p3
239.00 84.08 0.65 c p3
239.28 83.44 0.65 c p3
239.56 85.36 0.65 c p3
239.84 85.04 0.65 c p3
240.12 84.72 0.65 c p3
240.40 82.80 0.65 c p3
240.68 83.76 0.65 c p3
240.96 82.80 0.65 c p3
241.24 83.76 0.65 c p3
241.52 83.12 0.65 c p3
241.80 83.12 0.65 c p3
242.08 82.16 0.65 c p3
242.36 81.58 0.65 c p3
242.64 83.76 0.65 c p3
242.92 84.40 0.65 c p3
243.20 82.48 0.65 c p3
243.48 81.27 0.65 c p3
243.76 80.95 0.65 c p3
244.04 82.48 0.65 c p3
244.32 82.48 0.65 c p3
244.60 83.12 0.65 c p3
244.88 81.90 0.65 c p3
245.16 84.40 0.65 c p3
245.44 83.76 0.65 c p3
245.72 82.80 0.65 c p3
246.00 80.95 0.65 c p3
246.28 84.08 0.65 c p3
246.56 81.58 0.65 c p3
246.84 80.95 0.65 c p3
247.12 81.58 0.65 c p3
247.40 81.27 0.65 c p3
247.68 81.27 0.65 c p3
247.96 80.95 0.65 c p3
248.24 81.58 0.65 c p3
248.52 81.27 0.65 c p3
248.80 82.16 0.65 c p3
249.08 81.27 0.65 c p3
249.36 80.95 0.65 c p3
249.64 79.69 0.65 c p3
249.92 81.27 0.65 c p3
250.20 79.69 0.65 c p3
250.48 81.58 0.65 c p3
250.76 84.08 0.65 c p3
251.04 80.32 0.65 c p3
251.32 83.12 0.65 c p3
251.60 81.58 0.65 c p3
251.88 81.58 0.65 c p3
252.16 81.27 0.65 c p3
252.44 81.90 0.65 c p3
252.72 79.37 0.65 c p3
253.00 80.63 0.65 c p3
253.28 81.90 0.65 c p3
253.56 82.48 0.65 c p3
253.84 82.16 0.65 c p3
254.12 80.95 0.65 c p3
254.40 80.95 0.65 c p3
254.68 79.06 0.65 c p3
254.96 79.06 0.65 c p3
255.24 78.74 0.65 c p3
255.52 80.00 0.65 c p3
255.80 80.63 0.65 c p3
256.08 81.58 0.65 c p3
256.36 82.80 0.65 c p3
256.64 79.69 0.65 c p3
256.92 80.00 0.65 c p3
257.20 80.95 0.65 c p3
257.48 80.32 0.65 c p3
257.76 80.00 0.65 c p3
258.04 81.27 0.65 c p3
258.32 79.69 0.65 c p3
258.60 79.37 0.65 c p3
258.88 79.69 0.65 c p3
259.16 80.63 0.65 c p3
259.44 80.00 0.65 c p3
259.72 80.63 0.65 c p3
260.00 80.32 0.65 c p3
260.28 80.63 0.65 c p3
216.00 201.60 367.20 247.68 cl
0 0 0 srgb
0.75 setlinewidth
[] 0 setdash
1 setlinecap
1 setlinejoin
10.00 setmiterlimit
221.60 225.60 0.43 c p1
221.85 211.32 0.43 c p1
222.09 220.65 0.43 c p1
222.34 226.37 0.43 c p1
222.59 216.55 0.43 c p1
222.83 224.91 0.43 c p1
223.08 226.92 0.43 c p1
223.33 226.17 0.43 c p1
223.57 225.43 0.43 c p1
223.82 215.95 0.43 c p1
224.06 217.90 0.43 c p1
224.31 220.71 0.43 c p1
224.56 210.42 0.43 c p1
224.80 227.94 0.43 c p1
225.05 225.55 0.43 c p1
225.30 222.17 0.43 c p1
225.54 230.18 0.43 c p1
225.79 223.28 0.43 c p1
226.04 222.52 0.43 c p1
226.28 221.77 0.43 c p1
226.53 227.03 0.43 c p1
226.78 226.25 0.43 c p1
227.02 228.90 0.43 c p1
227.27 228.10 0.43 c p1
227.52 226.45 0.43 c p1
227.76 226.50 0.43 c p1
228.01 226.69 0.43 c p1
228.25 216.71 0.43 c p1
228.50 221.74 0.43 c p1
228.75 227.63 0.43 c p1
228.99 228.48 0.43 c p1
229.24 221.86 0.43 c p1
229.49 226.00 0.43 c p1
229.73 227.66 0.43 c p1
229.98 227.65 0.43 c p1
230.23 226.82 0.43 c p1
230.47 219.63 0.43 c p1
230.72 224.34 0.43 c p1
230.97 223.65 0.43 c p1
231.21 228.35 0.43 c p1
231.46 227.63 0.43 c p1
231.71 229.87 0.43 c p1
231.95 225.12 0.43 c p1
232.20 222.68 0.43 c p1
232.45 229.00 0.43 c p1
232.69 229.72 0.43 c p1
232.94 225.67 0.43 c p1
233.18 228.76 0.43 c p1
233.43 223.15 0.43 c p1
233.68 229.36 0.43 c p1
233.92 228.46 0.43 c p1
234.17 227.57 0.43 c p1
234.42 228.24 0.43 c p1
234.66 224.37 0.43 c p1
234.91 227.35 0.43 c p1
235.16 225.68 0.43 c p1
235.40 227.87 0.43 c p1
235.65 226.96 0.43 c p1
235.90 227.58 0.43 c p1
236.14 232.04 0.43 c p1
236.39 230.34 0.43 c p1
236.64 226.36 0.43 c p1
236.88 226.20 0.43 c p1
237.13 230.58 0.43 c p1
237.37 228.12 0.43 c p1
237.62 227.94 0.43 c p1
237.87 228.50 0.43 c p1
238.11 222.47 0.43 c p1
238.36 227.36 0.43 c p1
238.61 226.54 0.43 c p1
238.85 228.56 0.43 c p1
239.10 229.83 0.43 c p1
239.35 228.13 0.43 c p1
239.59 222.76 0.43 c p1
239.84 231.37 0.43 c p1
240.09 228.91 0.43 c p1
240.33 225.74 0.43 c p1
240.58 230.62 0.43 c p1
240.83 224.54 0.43 c p1
241.07 228.65 0.43 c p1
241.32 225.49 0.43 c p1
241.56 227.40 0.43 c p1
241.81 230.02 0.43 c p1
242.06 227.58 0.43 c p1
242.30 224.56 0.43 c p1
242.55 226.43 0.43 c p1
242.80 226.14 0.43 c p1
243.04 228.71 0.43 c p1
243.29 226.27 0.43 c p1
243.54 227.40 0.43 c p1
243.78 225.68 0.43 c p1
244.03 229.61 0.43 c p1
244.28 227.88 0.43 c p1
244.52 225.45 0.43 c p1
244.77 226.54 0.43 c p1
245.02 226.21 0.43 c p1
245.26 227.28 0.43 c p1
245.51 224.16 0.43 c p1
245.75 228.00 0.43 c p1
246.00 226.26 0.43 c p1
246.25 223.96 0.43 c p1
246.49 226.26 0.43 c p1
246.74 228.66 0.43 c p1
246.99 224.97 0.43 c p1
247.23 229.30 0.43 c p1
247.48 231.69 0.43 c p1
247.73 227.29 0.43 c p1
247.97 222.84 0.43 c p1
248.22 224.50 0.43 c p1
248.47 224.79 0.43 c p1
248.71 227.12 0.43 c p1
248.96 226.04 0.43 c p1
249.21 226.32 0.43 c p1
249.45 227.27 0.43 c p1
249.70 225.52 0.43 c p1
249.95 226.45 0.43 c p1
250.19 220.82 0.43 c p1
250.44 223.07 0.43 c p1
250.68 223.98 0.43 c p1
250.93 220.92 0.43 c p1
251.18 227.02 0.43 c p1
251.42 225.36 0.43 c p1
251.67 226.25 0.43 c p1
251.92 224.49 0.43 c p1
252.16 223.40 0.43 c p1
252.41 222.96 0.43 c p1
252.66 220.56 0.43 c p1
252.90 220.77 0.43 c p1
253.15 222.92 0.43 c p1
253.40 225.07 0.43 c p1
253.64 223.96 0.43 c p1
253.89 224.79 0.43 c p1
254.14 223.68 0.43 c p1
254.38 219.98 0.43 c p1
254.63 223.38 0.43 c p1
254.87 224.19 0.43 c p1
255.12 223.06 0.43 c p1
255.37 216.31 0.43 c p1
255.61 224.02 0.43 c p1
255.86 221.71 0.43 c p1
256.11 219.32 0.43 c p1
256.35 225.84 0.43 c p1
256.60 221.50 0.43 c p1
256.85 217.85 0.43 c p1
257.09 220.50 0.43 c p1
257.34 222.52 0.43 c p1
257.59 221.38 0.43 c p1
257.83 218.98 0.43 c p1
258.08 218.47 0.43 c p1
258.33 220.46 0.43 c p1
258.57 221.82 0.43 c p1
258.82 222.55 0.43 c p1
259.06 223.27 0.43 c p1
259.31 219.61 0.43 c p1
259.56 219.70 0.43 c p1
259.80 219.26 0.43 c p1
260.05 221.73 0.43 c p1
260.30 219.42 0.43 c p1
260.54 221.87 0.43 c p1
260.79 221.42 0.43 c p1
261.04 219.63 0.43 c p1
261.28 220.31 0.43 c p1
261.53 219.75 0.43 c p1
261.78 221.65 0.43 c p1
262.02 219.24 0.43 c p1
262.27 221.13 0.43 c p1
262.52 219.94 0.43 c p1
262.76 221.20 0.43 c p1
263.01 221.85 0.43 c p1
263.25 221.88 0.43 c p1
263.50 219.47 0.43 c p1
263.75 223.15 0.43 c p1
263.99 219.51 0.43 c p1
264.24 223.18 0.43 c p1
264.49 219.54 0.43 c p1
264.73 219.55 0.43 c p1
264.98 221.37 0.43 c p1
265.23 219.56 0.43 c p1
265.47 219.56 0.43 c p1
265.72 220.76 0.43 c p1
265.97 220.14 0.43 c p1
266.21 220.13 0.43 c p1
266.46 220.72 0.43 c p1
266.71 226.74 0.43 c p1
266.95 211.86 0.43 c p1
267.20 224.86 0.43 c p1
267.45 220.72 0.43 c p1
267.69 212.98 0.43 c p1
267.94 220.65 0.43 c p1
268.18 222.40 0.43 c p1
268.43 219.38 0.43 c p1
268.68 219.93 0.43 c p1
268.92 218.11 0.43 c p1
269.17 221.02 0.43 c p1
269.42 212.73 0.43 c p1
269.66 222.68 0.43 c p1
269.91 222.62 0.43 c p1
270.16 214.90 0.43 c p1
270.40 223.67 0.43 c p1
270.65 217.11 0.43 c p1
270.90 219.39 0.43 c p1
271.14 218.14 0.43 c p1
271.39 216.31 0.43 c p1
271.64 218.57 0.43 c p1
271.88 217.90 0.43 c p1
272.13 221.33 0.43 c p1
272.37 220.65 0.43 c p1
272.62 222.31 0.43 c p1
272.87 219.87 0.43 c p1
273.11 219.19 0.43 c p1
273.36 222.01 0.43 c p1
273.61 218.51 0.43 c p1
273.85 214.94 0.43 c p1
274.10 219.45 0.43 c p1
274.35 223.90 0.43 c p1
274.59 222.03 0.43 c p1
274.84 219.69 0.43 c p1
275.09 221.88 0.43 c p1
275.33 217.71 0.43 c p1
275.58 222.21 0.43 c p1
275.83 222.08 0.43 c p1
276.07 219.63 0.43 c p1
276.32 223.54 0.43 c p1
276.56 222.83 0.43 c p1
276.81 223.26 0.43 c p1
277.06 224.85 0.43 c p1
277.30 223.55 0.43 c p1
277.55 218.23 0.43 c p1
277.80 221.51 0.43 c p1
278.04 221.94 0.43 c p1
278.29 220.63 0.43 c p1
278.54 221.62 0.43 c p1
278.78 224.33 0.43 c p1
279.03 224.17 0.43 c p1
279.28 223.42 0.43 c p1
279.52 222.68 0.43 c p1
279.77 221.37 0.43 c p1
280.02 222.91 0.43 c p1
280.26 222.73 0.43 c p1
280.51 222.55 0.43 c p1
280.75 225.23 0.43 c p1
281.00 220.48 0.43 c p1
281.25 223.14 0.43 c p1
281.49 221.25 0.43 c p1
281.74 221.06 0.43 c p1
281.99 225.42 0.43 c p1
282.23 220.68 0.43 c p1
282.48 219.45 0.43 c p1
282.73 219.26 0.43 c p1
282.97 223.49 0.43 c p1
283.22 219.99 0.43 c p1
283.47 226.49 0.43 c p1
283.71 225.14 0.43 c p1
283.96 228.34 0.43 c p1
284.21 228.13 0.43 c p1
284.45 227.91 0.43 c p1
284.70 223.15 0.43 c p1
284.95 220.21 0.43 c p1
285.19 221.68 0.43 c p1
285.44 225.88 0.43 c p1
285.68 227.35 0.43 c p1
285.93 228.25 0.43 c p1
286.18 226.32 0.43 c p1
286.42 227.22 0.43 c p1
286.67 224.82 0.43 c p1
286.92 225.71 0.43 c p1
287.16 220.43 0.43 c p1
287.41 221.87 0.43 c p1
287.66 227.15 0.43 c p1
287.90 229.73 0.43 c p1
288.15 226.75 0.43 c p1
288.40 230.93 0.43 c p1
288.64 225.69 0.43 c p1
288.89 228.25 0.43 c p1
289.14 222.95 0.43 c p1
289.38 227.17 0.43 c p1
289.63 227.48 0.43 c p1
289.87 228.34 0.43 c p1
290.12 224.72 0.43 c p1
290.37 227.81 0.43 c p1
290.61 228.67 0.43 c p1
290.86 229.52 0.43 c p1
291.11 225.33 0.43 c p1
291.35 227.30 0.43 c p1
291.60 227.03 0.43 c p1
291.85 228.99 0.43 c p1
292.09 226.48 0.43 c p1
292.34 227.32 0.43 c p1
292.59 222.60 0.43 c p1
292.83 232.36 0.43 c p1
293.08 229.26 0.43 c p1
293.33 229.54 0.43 c p1
293.57 225.91 0.43 c p1
293.82 226.18 0.43 c p1
294.06 227.55 0.43 c p1
294.31 228.38 0.43 c p1
294.56 230.31 0.43 c p1
294.80 228.35 0.43 c p1
295.05 230.28 0.43 c p1
295.30 230.54 0.43 c p1
295.54 225.24 0.43 c p1
295.79 222.74 0.43 c p1
296.04 229.63 0.43 c p1
296.28 228.21 0.43 c p1
296.53 226.80 0.43 c p1
296.78 229.26 0.43 c p1
297.02 230.62 0.43 c p1
297.27 226.99 0.43 c p1
297.52 230.00 0.43 c p1
297.76 229.13 0.43 c p1
298.01 226.61 0.43 c p1
298.25 226.29 0.43 c p1
298.50 231.50 0.43 c p1
298.75 228.41 0.43 c p1
298.99 231.97 0.43 c p1
299.24 231.65 0.43 c p1
299.49 232.43 0.43 c p1
299.73 230.99 0.43 c p1
299.98 227.91 0.43 c p1
300.23 225.94 0.43 c p1
300.47 227.26 0.43 c p1
300.72 228.03 0.43 c p1
300.97 231.00 0.43 c p1
301.21 229.02 0.43 c p1
301.46 229.23 0.43 c p1
301.71 234.98 0.43 c p1
301.95 233.53 0.43 c p1
302.20 232.08 0.43 c p1
302.45 228.98 0.43 c p1
302.69 226.55 0.43 c p1
302.94 225.12 0.43 c p1
303.18 230.16 0.43 c p1
303.43 229.26 0.43 c p1
303.68 233.32 0.43 c p1
303.92 233.52 0.43 c p1
304.17 228.32 0.43 c p1
304.42 231.72 0.43 c p1
304.66 229.26 0.43 c p1
304.91 227.28 0.43 c p1
305.16 229.11 0.43 c p1
305.40 228.76 0.43 c p1
305.65 231.59 0.43 c p1
305.90 233.44 0.43 c p1
306.14 233.07 0.43 c p1
306.39 232.16 0.43 c p1
306.64 230.25 0.43 c p1
306.88 229.89 0.43 c p1
307.13 228.98 0.43 c p1
307.37 230.26 0.43 c p1
307.62 232.54 0.43 c p1
307.87 227.36 0.43 c p1
308.11 229.16 0.43 c p1
308.36 232.53 0.43 c p1
308.61 226.27 0.43 c p1
308.85 230.24 0.43 c p1
309.10 229.87 0.43 c p1
309.35 225.71 0.43 c p1
309.59 230.22 0.43 c p1
309.84 228.76 0.43 c p1
310.09 229.47 0.43 c p1
310.33 229.10 0.43 c p1
310.58 233.07 0.43 c p1
310.83 230.51 0.43 c p1
311.07 230.14 0.43 c p1
311.32 228.13 0.43 c p1
311.56 227.76 0.43 c p1
311.81 224.69 0.43 c p1
312.06 229.16 0.43 c p1
312.30 228.78 0.43 c p1
312.55 228.39 0.43 c p1
312.80 229.09 0.43 c p1
313.04 226.01 0.43 c p1
313.29 227.78 0.43 c p1
313.54 225.25 0.43 c p1
313.78 228.09 0.43 c p1
314.03 228.24 0.43 c p1
314.28 228.93 0.43 c p1
314.52 229.08 0.43 c p1
314.77 230.85 0.43 c p1
315.02 228.30 0.43 c p1
315.26 230.06 0.43 c p1
315.51 225.37 0.43 c p1
315.75 227.12 0.43 c p1
316.00 227.80 0.43 c p1
316.25 224.73 0.43 c p1
316.49 226.48 0.43 c p1
316.74 226.62 0.43 c p1
316.99 227.83 0.43 c p1
317.23 230.12 0.43 c p1
317.48 225.97 0.43 c p1
317.73 229.32 0.43 c p1
317.97 226.77 0.43 c p1
318.22 226.37 0.43 c p1
318.47 228.65 0.43 c p1
318.71 226.10 0.43 c p1
318.96 227.31 0.43 c p1
319.21 229.04 0.43 c p1
319.45 228.10 0.43 c p1
319.70 228.23 0.43 c p1
319.95 224.18 0.43 c p1
320.19 226.88 0.43 c p1
320.44 227.01 0.43 c p1
320.68 229.81 0.43 c p1
320.93 227.79 0.43 c p1
321.18 227.92 0.43 c p1
321.42 232.87 0.43 c p1
321.67 226.03 0.43 c p1
321.92 224.12 0.43 c p1
322.16 228.41 0.43 c p1
322.41 222.24 0.43 c p1
322.66 227.04 0.43 c p1
322.90 230.37 0.43 c p1
323.15 228.88 0.43 c p1
323.40 226.42 0.43 c p1
323.64 228.58 0.43 c p1
323.89 225.06 0.43 c p1
324.14 225.17 0.43 c p1
324.38 228.92 0.43 c p1
324.63 225.93 0.43 c p1
324.87 224.98 0.43 c p1
325.12 228.19 0.43 c p1
325.37 224.67 0.43 c p1
325.61 227.87 0.43 c p1
325.86 225.42 0.43 c p1
326.11 227.65 0.43 c p1
326.35 226.16 0.43 c p1
326.60 224.68 0.43 c p1
326.85 227.43 0.43 c p1
327.09 227.54 0.43 c p1
327.34 227.11 0.43 c p1
327.59 222.99 0.43 c p1
327.83 224.67 0.43 c p1
328.08 222.14 0.43 c p1
328.33 223.82 0.43 c p1
328.57 224.98 0.43 c p1
328.82 225.60 0.43 c p1
329.06 222.02 0.43 c p1
329.31 227.39 0.43 c p1
329.56 223.79 0.43 c p1
329.80 220.22 0.43 c p1
330.05 226.09 0.43 c p1
330.30 228.30 0.43 c p1
330.54 228.93 0.43 c p1
330.79 226.38 0.43 c p1
331.04 224.89 0.43 c p1
331.28 221.83 0.43 c p1
331.53 222.97 0.43 c p1
331.78 226.22 0.43 c p1
332.02 221.58 0.43 c p1
332.27 228.52 0.43 c p1
332.52 231.17 0.43 c p1
332.76 223.42 0.43 c p1
333.01 221.94 0.43 c p1
333.25 224.13 0.43 c p1
333.50 222.64 0.43 c p1
333.75 223.25 0.43 c p1
333.99 222.81 0.43 c p1
334.24 224.47 0.43 c p1
334.49 228.24 0.43 c p1
334.73 225.16 0.43 c p1
334.98 227.35 0.43 c p1
335.23 229.02 0.43 c p1
335.47 222.79 0.43 c p1
335.72 224.97 0.43 c p1
335.97 224.00 0.43 c p1
336.21 225.66 0.43 c p1
336.46 222.60 0.43 c p1
336.71 222.68 0.43 c p1
336.95 223.80 0.43 c p1
337.20 225.98 0.43 c p1
337.45 222.91 0.43 c p1
337.69 222.99 0.43 c p1
337.94 223.59 0.43 c p1
338.18 221.06 0.43 c p1
338.43 223.22 0.43 c p1
338.68 226.96 0.43 c p1
338.92 223.89 0.43 c p1
339.17 224.49 0.43 c p1
339.42 224.04 0.43 c p1
339.66 218.48 0.43 c p1
339.91 220.54 0.43 c p1
340.16 223.74 0.43 c p1
340.40 224.33 0.43 c p1
340.65 222.84 0.43 c p1
340.90 223.95 0.43 c p1
341.14 224.54 0.43 c p1
341.39 224.61 0.43 c p1
341.64 224.16 0.43 c p1
341.88 222.66 0.43 c p1
342.13 221.17 0.43 c p1
342.37 223.32 0.43 c p1
342.62 224.43 0.43 c p1
342.87 222.93 0.43 c p1
343.11 221.96 0.43 c p1
343.36 225.15 0.43 c p1
343.61 224.70 0.43 c p1
343.85 224.24 0.43 c p1
344.10 221.19 0.43 c p1
344.35 222.81 0.43 c p1
344.59 221.31 0.43 c p1
344.84 222.93 0.43 c p1
345.09 221.96 0.43 c p1
345.33 222.02 0.43 c p1
345.58 220.53 0.43 c p1
345.83 219.64 0.43 c p1
346.07 223.24 0.43 c p1
346.32 224.34 0.43 c p1
346.56 221.29 0.43 c p1
346.81 219.37 0.43 c p1
347.06 218.91 0.43 c p1
347.30 221.47 0.43 c p1
347.55 221.53 0.43 c p1
347.80 222.62 0.43 c p1
348.04 220.69 0.43 c p1
348.29 224.82 0.43 c p1
348.54 223.83 0.43 c p1
348.78 222.33 0.43 c p1
349.03 219.37 0.43 c p1
349.28 224.52 0.43 c p1
349.52 220.52 0.43 c p1
349.77 219.54 0.43 c p1
350.02 220.63 0.43 c p1
350.26 220.16 0.43 c p1
350.51 220.22 0.43 c p1
350.75 219.76 0.43 c p1
351.00 220.84 0.43 c p1
351.25 220.38 0.43 c p1
351.49 221.89 0.43 c p1
351.74 220.48 0.43 c p1
351.99 220.02 0.43 c p1
352.23 218.01 0.43 c p1
352.48 220.64 0.43 c p1
352.73 218.11 0.43 c p1
352.97 221.25 0.43 c p1
353.22 225.36 0.43 c p1
353.47 219.29 0.43 c p1
353.71 223.90 0.43 c p1
353.96 221.45 0.43 c p1
354.21 221.50 0.43 c p1
354.45 221.03 0.43 c p1
354.70 222.11 0.43 c p1
354.95 218.04 0.43 c p1
355.19 220.14 0.43 c p1
355.44 222.25 0.43 c p1
355.68 223.25 0.43 c p1
355.93 222.78 0.43 c p1
356.18 220.84 0.43 c p1
356.42 220.89 0.43 c p1
356.67 217.85 0.43 c p1
356.92 217.90 0.43 c p1
357.16 217.43 0.43 c p1
357.41 219.53 0.43 c p1
357.66 220.60 0.43 c p1
357.90 222.19 0.43 c p1
358.15 224.21 0.43 c p1
358.40 219.19 0.43 c p1
358.64 219.74 0.43 c p1
358.89 221.33 0.43 c p1
359.14 220.34 0.43 c p1
359.38 219.87 0.43 c p1
359.63 221.97 0.43 c p1
359.87 219.44 0.43 c p1
360.12 218.97 0.43 c p1
360.37 219.52 0.43 c p1
360.61 221.10 0.43 c p1
360.86 220.11 0.43 c p1
361.11 221.18 0.43 c p1
361.35 220.71 0.43 c p1
361.60 221.26 0.43 c p1
0.00 0.00 432.00 576.00 cl
0 0 0 srgb
0.75 setlinewidth
[] 0 setdash
1 setlinecap
1 setlinejoin
10.00 setmiterlimit
np
218.40 201.60 m
134.44 0 l
o
np
218.40 201.60 m
0 -5.76 l
o
np
240.80 201.60 m
0 -5.76 l
o
np
263.21 201.60 m
0 -5.76 l
o
np
285.62 201.60 m
0 -5.76 l
o
np
308.02 201.60 m
0 -5.76 l
o
np
330.43 201.60 m
0 -5.76 l
o
np
352.84 201.60 m
0 -5.76 l
o
/Font1 findfont 6 s
218.40 185.47 (0) .5 0 t
240.80 185.47 (2000) .5 0 t
263.21 185.47 (4000) .5 0 t
285.62 185.47 (6000) .5 0 t
308.02 185.47 (8000) .5 0 t
330.43 185.47 (10000) .5 0 t
352.84 185.47 (12000) .5 0 t
np
216.00 201.67 m
0 45.94 l
o
np
216.00 201.67 m
-5.76 0 l
o
np
216.00 213.16 m
-5.76 0 l
o
np
216.00 224.64 m
-5.76 0 l
o
np
216.00 236.12 m
-5.76 0 l
o
np
216.00 247.61 m
-5.76 0 l
o
209.09 199.52 (-0.02) 1 0 t
209.09 211.00 (-0.01) 1 0 t
209.09 222.49 (0.00) 1 0 t
209.09 233.97 (0.01) 1 0 t
209.09 245.45 (0.02) 1 0 t
np
216.00 201.60 m
151.20 0 l
0 46.08 l
-151.20 0 l
0 -46.08 l
o
0.00 0.00 432.00 576.00 cl
/Font1 findfont 9 s
0 0 0 srgb
291.60 262.88 (Residuals) .5 0 t
59.04 73.44 401.76 516.96 cl
ep
%%Trailer
%%Pages: 1
%%EOF
