%!PS-Adobe-3.0 EPSF-3.0
%%DocumentNeededResources: font Helvetica
%%+ font Helvetica-Bold
%%+ font Helvetica-Oblique
%%+ font Helvetica-BoldOblique
%%+ font Symbol
%%Title: R Graphics Output
%%Creator: R Software
%%Pages: (atend)
%%BoundingBox: 0 0 432 576
%%EndComments
%%BeginProlog
/bp  { gs sRGB gs } def
% begin .ps.prolog
/gs  { gsave } bind def
/gr  { grestore } bind def
/ep  { showpage gr gr } bind def
/m   { moveto } bind def
/l  { rlineto } bind def
/np  { newpath } bind def
/cp  { closepath } bind def
/f   { fill } bind def
/o   { stroke } bind def
/c   { newpath 0 360 arc } bind def
/r   { 4 2 roll moveto 1 copy 3 -1 roll exch 0 exch rlineto 0 rlineto -1 mul 0 exch rlineto closepath } bind def
/p1  { stroke } bind def
/p2  { gsave bg fill grestore newpath } bind def
/p3  { gsave bg fill grestore stroke } bind def
/p6  { gsave bg eofill grestore newpath } bind def
/p7  { gsave bg eofill grestore stroke } bind def
/t   { 5 -2 roll moveto gsave rotate
       1 index stringwidth pop
       mul neg 0 rmoveto show grestore } bind def
/ta  { 4 -2 roll moveto gsave rotate show } bind def
/tb  { 2 -1 roll 0 rmoveto show } bind def
/cl  { grestore gsave newpath 3 index 3 index moveto 1 index
       4 -1 roll lineto  exch 1 index lineto lineto
       closepath clip newpath } bind def
/rgb { setrgbcolor } bind def
/s   { scalefont setfont } bind def
% end   .ps.prolog
/sRGB { [ /CIEBasedABC
          << /DecodeLMN
               [ { dup 0.03928 le
                        {12.92321 div}
                        {0.055 add 1.055 div 2.4 exp }
                     ifelse
                 } bind dup dup
               ]
             /MatrixLMN [0.412457 0.212673 0.019334
                         0.357576 0.715152 0.119192
                         0.180437 0.072175 0.950301]
             /WhitePoint [0.9505 1.0 1.0890]
           >>
         ] setcolorspace } bind def
/srgb { setcolor } bind def
% begin encoding
/WinAnsiEncoding [
 /.notdef /.notdef /.notdef /.notdef /.notdef /.notdef /.notdef /.notdef
 /.notdef /.notdef /.notdef /.notdef /.notdef /.notdef /.notdef /.notdef
 /.notdef /.notdef /.notdef /.notdef /.notdef /.notdef /.notdef /.notdef
 /.notdef /.notdef /.notdef /.notdef /.notdef /.notdef /.notdef /.notdef
 /space /exclam /quotedbl /numbersign /dollar /percent /ampersand /quoteright
 /parenleft /parenright /asterisk /plus /comma /minus /period /slash
 /zero /one /two /three /four /five /six /seven
 /eight /nine /colon /semicolon /less /equal /greater /question
 /at /A /B /C /D /E /F /G
 /H /I /J /K /L /M /N /O
 /P /Q /R /S /T /U /V /W
 /X /Y /Z /bracketleft /backslash /bracketright /asciicircum /underscore
 /grave /a /b /c /d /e /f /g
 /h /i /j /k /l /m /n /o
 /p /q /r /s /t /u /v /w
 /x /y /z /braceleft /bar /braceright /asciitilde /.notdef
 /Euro /.notdef /quotesinglbase /florin /quotedblbase /ellipsis /dagger /daggerdbl
 /circumflex /perthousand /Scaron /guilsinglleft /OE /.notdef /Zcaron /.notdef
 /.notdef /quoteleft /quoteright /quotedblleft /quotedblright /bullet /endash /emdash
 /tilde /trademark /scaron /guilsinglright /oe /.notdef /zcaron /Ydieresis
 /space /exclamdown /cent /sterling /currency /yen /brokenbar /section
 /dieresis /copyright /ordfeminine /guillemotleft /logicalnot /hyphen /registered /macron
 /degree /plusminus /twosuperior /threesuperior /acute /mu /paragraph /periodcentered
 /cedilla /onesuperior /ordmasculine /guillemotright /onequarter /onehalf /threequarters /questiondown
 /Agrave /Aacute /Acircumflex /Atilde /Adieresis /Aring /AE /Ccedilla
 /Egrave /Eacute /Ecircumflex /Edieresis /Igrave /Iacute /Icircumflex /Idieresis
 /Eth /Ntilde /Ograve /Oacute /Ocircumflex /Otilde /Odieresis /multiply
 /Oslash /Ugrave /Uacute /Ucircumflex /Udieresis /Yacute /Thorn /germandbls
 /agrave /aacute /acircumflex /atilde /adieresis /aring /ae /ccedilla
 /egrave /eacute /ecircumflex /edieresis /igrave /iacute /icircumflex /idieresis
 /eth /ntilde /ograve /oacute /ocircumflex /otilde /odieresis /divide
 /oslash /ugrave /uacute /ucircumflex /udieresis /yacute /thorn /ydieresis
]
 def
% end encoding
%%IncludeResource: font Helvetica
/Helvetica findfont
dup length dict begin
  {1 index /FID ne {def} {pop pop} ifelse} forall
  /Encoding WinAnsiEncoding def
  currentdict
  end
/Font1 exch definefont pop
%%IncludeResource: font Helvetica-Bold
/Helvetica-Bold findfont
dup length dict begin
  {1 index /FID ne {def} {pop pop} ifelse} forall
  /Encoding WinAnsiEncoding def
  currentdict
  end
/Font2 exch definefont pop
%%IncludeResource: font Helvetica-Oblique
/Helvetica-Oblique findfont
dup length dict begin
  {1 index /FID ne {def} {pop pop} ifelse} forall
  /Encoding WinAnsiEncoding def
  currentdict
  end
/Font3 exch definefont pop
%%IncludeResource: font Helvetica-BoldOblique
/Helvetica-BoldOblique findfont
dup length dict begin
  {1 index /FID ne {def} {pop pop} ifelse} forall
  /Encoding WinAnsiEncoding def
  currentdict
  end
/Font4 exch definefont pop
%%IncludeResource: font Symbol
/Symbol findfont
dup length dict begin
  {1 index /FID ne {def} {pop pop} ifelse} forall
  currentdict
  end
/Font5 exch definefont pop
%%EndProlog
%%Page: 1 1
bp
/bg { 1 1 1 srgb } def
0.00 0.00 432.00 576.00 r p2
0.00 0.00 432.00 576.00 cl
0.00 0.00 432.00 576.00 cl
0.00 0.00 432.00 576.00 cl
/Font1 findfont 12 s
0 0 0 srgb
48.00 508.72 (PCP-ETH) 0 0 t
48.00 494.89 (Flash light photolysis) 0 0 t
/Font1 findfont 9 s
48.00 457.54 (File: Solv) 0 ta
-0.225 (ent_dependence_solv1-1_MSLM.dat) tb gr
48.00 334.87 (Sat Mar 05 15:04:06 2022) 0 0 t
48.00 430.87 (Fit function:  a + b * e) 0 ta
-0.270 (xp\(-c * t\)) tb gr
48.00 420.50 (t-Inter) 0 ta
0.270 (v) tb
-0.225 (all: 10.000 ... 2135.000 ms) tb gr
48.00 410.14 (P) 0 ta
-0.360 (ar) tb
-0.090 (ameters \(Standard de) tb
-0.270 (viation\):) tb gr
48.00 399.77 (  a = 0.01029 \(0.00018\)) 0 0 t
48.00 389.40 (  b = 0.28507 \(0.00035\)) 0 0 t
48.00 379.03 (  c = 2.047e+00 \(5.821e-03\) s^-1) 0 0 t
48.00 368.66 (  tau = 4.884e-01 \(1.389e-03\) s) 0 0 t
216.00 345.60 388.80 518.40 cl
0 0 0 srgb
0.75 setlinewidth
[] 0 setdash
1 setlinecap
1 setlinejoin
10.00 setmiterlimit
np
222.40 511.10 m
0.15 -0.56 l
0.14 0.19 l
0.15 -0.37 l
0.14 0.18 l
0.15 0.19 l
0.14 0.37 l
0.15 -0.56 l
0.14 0.38 l
0.15 -0.19 l
0.15 0.19 l
0.14 -1.12 l
0.15 1.64 l
0.14 -0.52 l
0.15 0.37 l
0.14 0 l
0.15 -0.56 l
0.14 -0.37 l
0.15 -1.12 l
0.15 1.30 l
0.14 -0.18 l
0.15 0.93 l
0.14 0.52 l
0.15 -1.08 l
0.14 -0.56 l
0.15 1.12 l
0.15 -2.23 l
0.14 1.11 l
0.15 0.75 l
0.14 0 l
0.15 0.52 l
0.14 -0.34 l
0.15 -0.56 l
0.14 -0.18 l
0.15 0.56 l
0.15 -0.38 l
0.14 -0.55 l
0.15 1.82 l
0.14 -0.52 l
0.15 -0.93 l
0.14 0 l
0.15 0.93 l
0.14 -0.93 l
0.15 0.56 l
0.15 -0.19 l
0.14 0.37 l
0.15 -0.74 l
0.14 0.74 l
0.15 -0.37 l
0.14 -0.37 l
0.15 0 l
0.14 0 l
0.15 0.74 l
0.15 0.90 l
0.14 -1.08 l
0.15 -0.93 l
0.14 1.30 l
0.15 -1.86 l
0.14 2.20 l
0.15 -1.64 l
0.15 0.37 l
0.14 0.93 l
0.15 0 l
0.14 -0.56 l
0.15 0.19 l
0.14 -0.56 l
0.15 -1.12 l
0.14 0.75 l
0.15 1.11 l
0.15 -0.93 l
0.14 0.37 l
0.15 0.56 l
0.14 -0.93 l
0.15 1.12 l
0.14 -0.56 l
0.15 0.19 l
0.14 0 l
0.15 0 l
0.15 1.08 l
0.14 -1.27 l
0.15 0.19 l
0.14 -0.38 l
0.15 -1.11 l
0.14 1.11 l
0.15 0.38 l
0.14 0.71 l
0.15 -0.53 l
0.15 -0.37 l
0.14 -2.05 l
0.15 1.86 l
0.14 -0.37 l
0.15 0 l
0.14 0.93 l
0.15 -0.18 l
0.15 0 l
0.14 -0.56 l
0.15 0.74 l
0.14 -0.37 l
0.15 -0.19 l
0.14 0.19 l
236.96 433.67 lineto
0.14 -1.13 l
0.15 0.39 l
0.15 0.74 l
0.14 -2.20 l
0.15 3.13 l
0.14 -0.37 l
0.15 -0.56 l
0.14 1.86 l
0.15 -0.56 l
0.14 1.49 l
0.15 0.19 l
0.15 -1.68 l
0.14 1.31 l
0.15 0.52 l
0.14 0.75 l
0.15 -1.27 l
0.14 0.52 l
0.15 1.12 l
0.14 0 l
0.15 -0.75 l
0.15 1.31 l
0.14 0.55 l
0.15 0 l
0.14 -1.11 l
0.15 1.11 l
0.14 1.30 l
0.15 0 l
0.15 -0.93 l
0.14 0.19 l
0.15 1.67 l
0.14 -0.55 l
0.15 -0.75 l
0.14 0.75 l
0.15 1.27 l
0.14 -0.19 l
0.15 -0.71 l
0.15 0.71 l
0.14 1.86 l
0.15 -0.56 l
0.14 -0.93 l
0.15 0 l
0.14 0.93 l
0.15 0.93 l
0.14 0.75 l
0.15 -0.93 l
0.15 -0.56 l
0.14 2.04 l
0.15 0.19 l
0.14 -0.56 l
0.15 -1.11 l
0.14 2.75 l
0.15 0 l
0.14 -0.15 l
0.15 -0.75 l
0.15 1.27 l
0.14 0.38 l
0.15 0.37 l
0.14 -0.56 l
0.15 -0.19 l
0.14 2.05 l
0.15 -0.19 l
0.15 -1.30 l
0.14 0.75 l
0.15 1.30 l
0.14 -0.19 l
0.15 -0.93 l
0.14 0.56 l
0.15 1.49 l
0.14 -0.75 l
0.15 0.19 l
0.15 -0.19 l
0.14 0.56 l
0.15 1.46 l
0.14 -0.19 l
0.15 -0.90 l
0.14 0.75 l
0.15 1.08 l
0.14 0.19 l
0.15 -1.65 l
0.15 1.28 l
0.14 0.92 l
0.15 0 l
0.14 -0.92 l
0.15 0.74 l
0.14 -0.37 l
0.15 0.74 l
0.14 0.37 l
0.15 -0.74 l
0.15 2.23 l
0.14 0.93 l
0.15 -1.30 l
0.14 -0.37 l
0.15 0 l
0.14 0.74 l
0.15 0.37 l
0.15 0 l
0.14 0.90 l
0.15 -0.15 l
0.14 0.34 l
251.52 456.04 lineto
0.14 0.38 l
0.15 0.71 l
0.14 0.74 l
0.15 -0.37 l
0.15 -0.37 l
0.14 1.48 l
0.15 0.19 l
0.14 -0.37 l
0.15 -0.37 l
0.14 0.37 l
0.15 1.49 l
0.14 -0.75 l
0.15 0.19 l
0.15 0.56 l
0.14 1.30 l
0.15 -1.68 l
0.14 0.56 l
0.15 0.93 l
0.14 0.90 l
0.15 -0.90 l
0.14 -0.37 l
0.15 0.56 l
0.15 0.71 l
0.14 -0.53 l
0.15 -0.93 l
0.14 0.93 l
0.15 0.53 l
0.14 1.12 l
0.15 0.18 l
0.14 -0.37 l
0.15 0.19 l
0.15 0.74 l
0.14 -1.12 l
0.15 0.75 l
0.14 0.74 l
0.15 0.56 l
0.14 -0.56 l
0.15 -0.74 l
0.15 1.48 l
0.14 0.75 l
0.15 -0.37 l
0.14 -0.75 l
0.15 0.75 l
0.14 0.74 l
0.15 0 l
0.14 -0.37 l
0.15 0.56 l
0.15 0.52 l
0.14 0.56 l
0.15 -1.27 l
0.14 -0.19 l
0.15 0.38 l
0.14 1.08 l
0.15 0.19 l
0.14 -1.09 l
0.15 1.09 l
0.15 0.37 l
0.14 -0.37 l
0.15 0.93 l
0.14 0.55 l
0.15 0.19 l
0.14 0.19 l
0.15 -0.56 l
0.14 -0.19 l
0.15 -0.18 l
0.15 1.11 l
0.14 0.56 l
0.15 -1.30 l
0.14 0.56 l
0.15 1.30 l
0.14 -0.19 l
0.15 -0.74 l
0.15 0 l
0.14 1.11 l
0.15 1.09 l
0.14 -1.46 l
0.15 0.56 l
0.14 -0.19 l
0.15 0.56 l
0.14 0.71 l
0.15 -0.37 l
0.15 -0.53 l
0.14 0.90 l
0.15 0.19 l
0.14 -0.74 l
0.15 1.11 l
0.14 0.74 l
0.15 0.56 l
0.14 -1.49 l
0.15 0.56 l
0.15 0.19 l
0.14 0 l
0.15 0.18 l
0.14 -0.37 l
0.15 1.30 l
0.14 1.12 l
0.15 -1.49 l
0.14 0.19 l
0.15 -0.19 l
266.08 476.00 lineto
0.14 -0.75 l
0.15 -0.74 l
0.14 0.74 l
0.15 -0.37 l
0.14 0.75 l
0.15 -1.12 l
0.15 0.93 l
0.14 1.27 l
0.15 0.19 l
0.14 0 l
0.15 -1.09 l
0.14 1.64 l
0.15 -0.55 l
0.14 -0.90 l
0.15 0 l
0.15 1.27 l
0.14 0.74 l
0.15 -1.11 l
0.14 -0.53 l
0.15 1.08 l
0.14 -0.18 l
0.15 0.37 l
0.14 -0.74 l
0.15 1.48 l
0.15 0.56 l
0.14 -0.19 l
0.15 -0.74 l
0.14 0.37 l
0.15 1.68 l
0.14 -1.12 l
0.15 -0.93 l
0.14 1.30 l
0.15 0.37 l
0.15 0.38 l
0.14 -0.93 l
0.15 0.74 l
0.14 0 l
0.15 0.93 l
0.14 -2.23 l
0.15 1.49 l
0.15 0.74 l
0.14 0.90 l
0.15 -0.53 l
0.14 -1.11 l
0.15 0.55 l
0.14 0.75 l
0.15 0.15 l
0.14 -0.34 l
0.15 0.53 l
0.15 0.56 l
0.14 -0.75 l
0.15 -0.71 l
0.14 0.37 l
0.15 1.83 l
0.14 -0.93 l
0.15 -0.56 l
0.14 0.93 l
0.15 0.19 l
0.15 -0.19 l
0.14 -0.93 l
0.15 0.37 l
0.14 1.12 l
0.15 0.37 l
0.14 0 l
0.15 -0.93 l
0.14 -0.37 l
0.15 2.23 l
0.15 0 l
0.14 -1.30 l
0.15 0.56 l
0.14 0.18 l
0.15 -0.37 l
0.14 0.56 l
0.15 0.56 l
0.15 0.18 l
0.14 0.75 l
0.15 -1.86 l
0.14 0 l
0.15 0.74 l
0.14 0.74 l
0.15 0.38 l
0.14 -1.86 l
0.15 1.67 l
0.15 0.56 l
0.14 -0.56 l
0.15 -0.74 l
0.14 1.48 l
0.15 0.19 l
0.14 0 l
0.15 -0.93 l
0.14 1.12 l
0.15 -0.19 l
0.15 0.34 l
0.14 -2.01 l
0.15 2.01 l
0.14 -0.71 l
0.15 2.94 l
0.14 -0.74 l
0.15 -2.20 l
280.63 487.80 lineto
0.15 -1.64 l
0.15 -0.19 l
0.14 1.27 l
0.15 -0.37 l
0.14 0.56 l
0.15 0.19 l
0.14 0 l
0.15 0.55 l
0.15 0 l
0.14 -0.55 l
0.15 -1.12 l
0.14 0.93 l
0.15 0.56 l
0.14 1.11 l
0.15 -2.60 l
0.14 1.49 l
0.15 0.74 l
0.15 -0.93 l
0.14 0.19 l
0.15 0.56 l
0.14 1.30 l
0.15 -1.12 l
0.14 0.19 l
0.15 0.18 l
0.14 0.56 l
0.15 -0.37 l
0.15 -0.19 l
0.14 0 l
0.15 0 l
0.14 0.19 l
0.15 0 l
0.14 -0.56 l
0.15 -0.18 l
0.14 1.30 l
0.15 -0.75 l
0.15 0.93 l
0.14 -0.18 l
0.15 0 l
0.14 -0.19 l
0.15 0.19 l
0.14 0.74 l
0.15 -0.37 l
0.14 -0.93 l
0.15 0.56 l
0.15 0.37 l
0.14 0.56 l
0.15 -0.38 l
0.14 0.56 l
0.15 -0.18 l
0.14 0.37 l
0.15 0.18 l
0.15 -0.18 l
0.14 -0.19 l
0.15 0.37 l
0.14 1.09 l
0.15 -1.09 l
0.14 0.53 l
0.15 0.19 l
0.14 -0.19 l
0.15 -0.53 l
0.15 0.16 l
0.14 0.93 l
0.15 0.74 l
0.14 -1.11 l
0.15 -0.38 l
0.14 1.12 l
0.15 0.19 l
0.14 -0.75 l
0.15 0 l
0.15 0.37 l
0.14 0.38 l
0.15 0.37 l
0.14 0 l
0.15 -1.30 l
0.14 -0.38 l
0.15 1.68 l
0.14 -0.75 l
0.15 0.75 l
0.15 0.37 l
0.14 0.74 l
0.15 -0.93 l
0.14 -1.11 l
0.15 0.93 l
0.14 -0.93 l
0.15 1.67 l
0.15 -0.56 l
0.14 0.56 l
0.15 -0.56 l
0.14 -1.11 l
0.15 0.56 l
0.14 0.55 l
0.15 1.68 l
0.14 -0.75 l
0.15 -0.74 l
0.15 0.19 l
0.14 0.55 l
0.15 -0.55 l
0.14 -1.68 l
0.15 1.12 l
295.19 494.09 lineto
0.15 0 l
0.14 0.37 l
0.15 0 l
0.15 0.19 l
0.14 0 l
0.15 -0.19 l
0.14 0.38 l
0.15 0 l
0.14 -0.38 l
0.15 1.30 l
0.14 -0.37 l
0.15 0.37 l
0.15 -0.18 l
0.14 -0.19 l
0.15 -0.93 l
0.14 1.30 l
0.15 -1.48 l
0.14 1.48 l
0.15 -1.85 l
0.15 1.30 l
0.14 0.18 l
0.15 0 l
0.14 0.19 l
0.15 -0.37 l
0.14 0.37 l
0.15 1.27 l
0.14 -0.71 l
0.15 -0.75 l
0.15 0.93 l
0.14 -0.56 l
0.15 -0.55 l
0.14 0.37 l
0.15 0.74 l
0.14 0.16 l
0.15 -0.34 l
0.14 0.34 l
0.15 -0.90 l
0.15 0.37 l
0.14 0.19 l
0.15 0.18 l
0.14 2.02 l
0.15 -1.12 l
0.14 -1.46 l
0.15 1.65 l
0.14 -0.56 l
0.15 -1.64 l
0.15 2.01 l
0.14 -0.74 l
0.15 -0.16 l
0.14 1.64 l
0.15 -2.01 l
0.14 0.53 l
0.15 0 l
0.15 -0.53 l
0.14 1.08 l
0.15 0.38 l
0.14 -0.19 l
0.15 0 l
0.14 -0.19 l
0.15 0 l
0.14 0.38 l
0.15 0.55 l
0.15 -0.37 l
0.14 -0.93 l
0.15 1.30 l
0.14 -0.55 l
0.15 -0.56 l
0.14 2.23 l
0.15 -1.86 l
0.14 0.74 l
0.15 0.38 l
0.15 0.55 l
0.14 -1.11 l
0.15 2.04 l
0.14 -1.86 l
0.15 -0.55 l
0.14 1.67 l
0.15 -0.93 l
0.14 0 l
0.15 -0.37 l
0.15 0.93 l
0.14 0.37 l
0.15 -0.56 l
0.14 1.30 l
0.15 -2.41 l
0.14 0.93 l
0.15 -0.56 l
0.15 0.18 l
0.14 0.75 l
0.15 -0.37 l
0.14 0.18 l
0.15 -0.18 l
0.14 0.93 l
0.15 0.18 l
0.14 0.19 l
0.15 -0.37 l
0.15 0.55 l
0.14 -0.74 l
0.15 -0.37 l
309.75 497.96 lineto
0.15 1.49 l
0.14 0.19 l
0.15 -0.75 l
0.14 0.38 l
0.15 0 l
0.15 0 l
0.14 -0.19 l
0.15 0.93 l
0.14 -0.56 l
0.15 1.30 l
0.14 -1.48 l
0.15 -0.19 l
0.14 2.39 l
0.15 -1.65 l
0.15 0.19 l
0.14 1.30 l
0.15 -1.86 l
0.14 0.37 l
0.15 2.95 l
0.14 -1.83 l
0.15 -0.56 l
0.15 -0.56 l
0.14 0 l
0.15 -1.86 l
0.14 0.93 l
0.15 0.19 l
0.14 0.93 l
0.15 -1.12 l
0.14 0.38 l
0.15 -1.12 l
0.15 2.23 l
0.14 -0.18 l
0.15 0.18 l
0.14 1.27 l
0.15 0.56 l
0.14 -0.56 l
0.15 0 l
0.14 0 l
0.15 -0.18 l
0.15 0.37 l
0.14 -0.53 l
0.15 -0.74 l
0.14 -0.19 l
0.15 0 l
0.14 0.56 l
0.15 -0.74 l
0.14 1.27 l
0.15 -1.27 l
0.15 -0.56 l
0.14 0.37 l
0.15 0.93 l
0.14 -0.93 l
0.15 0.74 l
0.14 0 l
0.15 0.19 l
0.15 0.71 l
0.14 -0.53 l
0.15 -0.18 l
0.14 0.71 l
0.15 0 l
0.14 0 l
0.15 -0.71 l
0.14 1.83 l
0.15 -2.39 l
0.15 -0.18 l
0.14 0.55 l
0.15 0.37 l
0.14 0.53 l
0.15 -0.18 l
0.14 -1.09 l
0.15 1.64 l
0.14 -1.64 l
0.15 0 l
0.15 0.93 l
0.14 0 l
0.15 -1.49 l
0.14 1.83 l
0.15 -0.90 l
0.14 0.56 l
0.15 0.53 l
0.14 -0.37 l
0.15 0.55 l
0.15 0 l
0.14 0.38 l
0.15 0.18 l
0.14 0.37 l
0.15 -0.37 l
0.14 -0.37 l
0.15 -0.19 l
0.14 0.19 l
0.15 -1.27 l
0.15 0.18 l
0.14 1.46 l
0.15 -0.74 l
0.14 -0.53 l
0.15 1.27 l
0.14 -1.11 l
0.15 -0.53 l
0.15 0.71 l
324.31 502.02 lineto
0.15 0.75 l
0.14 -0.93 l
0.15 -0.37 l
0.14 0.74 l
0.15 0.74 l
0.14 -1.64 l
0.15 0.71 l
0.15 1.68 l
0.14 -1.49 l
0.15 -0.19 l
0.14 0.93 l
0.15 -0.74 l
0.14 0 l
0.15 0 l
0.14 0.37 l
0.15 0 l
0.15 0.37 l
0.14 0.37 l
0.15 -0.18 l
0.14 -0.93 l
0.15 0.37 l
0.14 0.74 l
0.15 -1.30 l
0.14 0.75 l
0.15 -0.37 l
0.15 0.92 l
0.14 -1.11 l
0.15 -0.19 l
0.14 0.93 l
0.15 -0.55 l
0.14 -0.19 l
0.15 0 l
0.15 0.74 l
0.14 0.93 l
0.15 -1.30 l
0.14 0.93 l
0.15 -0.93 l
0.14 -0.18 l
0.15 0.55 l
0.14 0.56 l
0.15 0 l
0.15 0.19 l
0.14 -1.30 l
0.15 0.55 l
0.14 -0.37 l
0.15 0.74 l
0.14 0 l
0.15 -0.55 l
0.14 -0.37 l
0.15 0 l
0.15 0.55 l
0.14 -0.93 l
0.15 0.38 l
0.14 0.92 l
0.15 -0.37 l
0.14 1.68 l
0.15 -0.75 l
0.14 0.75 l
0.15 -0.38 l
0.15 -1.11 l
0.14 0 l
0.15 0.37 l
0.14 -0.19 l
0.15 0.75 l
0.14 -1.49 l
0.15 1.49 l
0.15 0 l
0.14 -1.12 l
0.15 -0.37 l
0.14 1.49 l
0.15 -0.37 l
0.14 -0.19 l
0.15 -0.19 l
0.14 0.93 l
0.15 1.12 l
0.15 -1.67 l
0.14 -0.19 l
0.15 0 l
0.14 -0.19 l
0.15 0 l
0.14 1.68 l
0.15 -1.49 l
0.14 0.74 l
0.15 0 l
0.15 -0.18 l
0.14 -0.37 l
0.15 1.30 l
0.14 -0.19 l
0.15 -0.74 l
0.14 0 l
0.15 0.74 l
0.14 -1.11 l
0.15 -0.19 l
0.15 0.56 l
0.14 0.56 l
0.15 -1.49 l
0.14 1.49 l
0.15 -0.75 l
0.14 -0.18 l
338.87 504.07 lineto
0.15 0.37 l
0.14 -0.74 l
0.15 0.55 l
0.14 0.19 l
0.15 -0.37 l
0.14 1.86 l
0.15 -1.86 l
0.14 0 l
0.15 -0.37 l
0.15 0.93 l
0.14 -0.56 l
0.15 0.93 l
0.14 -0.19 l
0.15 0.75 l
0.14 -2.24 l
0.15 0.93 l
0.14 0.38 l
0.15 0.93 l
0.15 -1.31 l
0.14 0.56 l
0.15 0.37 l
0.14 -0.74 l
0.15 -0.19 l
0.14 0.19 l
0.15 -0.19 l
0.14 0.56 l
0.15 0.19 l
0.15 0 l
0.14 -0.56 l
0.15 1.12 l
0.14 0.55 l
0.15 -1.48 l
0.14 0 l
0.15 0 l
0.15 -0.38 l
0.14 0.75 l
0.15 0.18 l
0.14 -0.18 l
0.15 0.37 l
0.14 -0.37 l
0.15 -0.75 l
0.14 1.31 l
0.15 -1.68 l
0.15 0.19 l
0.14 1.67 l
0.15 -1.11 l
0.14 1.30 l
0.15 -1.68 l
0.14 1.12 l
0.15 -0.74 l
0.14 0.37 l
0.15 -0.56 l
0.15 0 l
0.14 0.56 l
0.15 0.18 l
0.14 -1.11 l
0.15 0.18 l
0.14 2.20 l
0.15 -0.52 l
0.14 -0.19 l
0.15 0 l
0.15 -0.37 l
0.14 -0.37 l
0.15 -0.19 l
0.14 0.19 l
0.15 -0.37 l
0.14 0 l
0.15 0.55 l
0.15 0.93 l
0.14 1.09 l
0.15 -2.20 l
0.14 0.56 l
0.15 0.37 l
0.14 -0.37 l
0.15 -0.19 l
0.14 0 l
0.15 -0.93 l
0.15 0.74 l
0.14 -0.18 l
0.15 0.37 l
0.14 -0.74 l
0.15 1.30 l
0.14 0 l
0.15 -1.68 l
0.14 1.68 l
0.15 0.18 l
0.15 -0.93 l
0.14 0.19 l
0.15 0.19 l
0.14 -0.56 l
0.15 0.74 l
0.14 -0.18 l
0.15 0.74 l
0.14 -0.19 l
0.15 -0.18 l
0.15 -0.37 l
0.14 0 l
0.15 -1.49 l
0.14 1.67 l
353.43 505.74 lineto
0.14 1.27 l
0.15 -0.71 l
0.14 -1.12 l
0.15 0.75 l
0.15 -0.93 l
0.14 1.30 l
0.15 -0.74 l
0.14 0.55 l
0.15 0.53 l
0.14 -1.08 l
0.15 0.18 l
0.15 0.37 l
0.14 -0.18 l
0.15 -0.75 l
0.14 -1.11 l
0.15 2.04 l
0.14 0.53 l
0.15 -0.71 l
0.14 -0.56 l
0.15 0.74 l
0.15 -0.18 l
0.14 0 l
0.15 -0.19 l
0.14 0.19 l
0.15 0.52 l
0.14 -1.08 l
0.15 -0.19 l
0.14 0.38 l
0.15 0.18 l
0.15 -0.37 l
0.14 1.46 l
0.15 -1.65 l
0.14 0.75 l
0.15 0.18 l
0.14 0.34 l
0.15 -1.27 l
0.14 0.75 l
0.15 0.18 l
0.15 -0.37 l
0.14 0.90 l
0.15 -1.27 l
0.14 0.56 l
0.15 -0.19 l
0.14 1.09 l
0.15 -1.65 l
0.15 1.12 l
0.14 -0.56 l
0.15 0.71 l
0.14 0.75 l
0.15 -0.37 l
0.14 -0.38 l
0.15 -0.52 l
0.14 0.52 l
0.15 -0.71 l
0.15 0 l
0.14 0.19 l
0.15 1.27 l
0.14 -0.56 l
0.15 -1.27 l
0.14 1.27 l
0.15 -0.71 l
0.14 0.37 l
0.15 0.71 l
0.15 -0.71 l
0.14 0.71 l
0.15 -0.71 l
0.14 0.34 l
0.15 -1.83 l
0.14 1.64 l
0.15 -0.52 l
0.14 -0.56 l
0.15 1.08 l
0.15 0.93 l
0.14 -1.82 l
0.15 0.55 l
0.14 0.53 l
0.15 -0.53 l
0.14 0.34 l
0.15 0.19 l
0.15 -0.19 l
0.14 0.38 l
0.15 0.18 l
0.14 0 l
0.15 0 l
0.14 -0.18 l
0.15 -1.09 l
0.14 0.71 l
0.15 -0.34 l
0.15 1.09 l
0.14 -0.75 l
0.15 -0.34 l
0.14 0.90 l
0.15 -0.90 l
0.14 1.09 l
0.15 -1.83 l
0.14 2.01 l
0.15 -0.18 l
0.15 -0.37 l
0.14 0.18 l
currentpoint o m
367.99 507.20 lineto
0.14 -1.27 l
0.15 -0.19 l
0.14 1.09 l
0.15 0.18 l
0.14 0.75 l
0.15 -0.38 l
0.15 -0.55 l
0.14 -0.19 l
0.15 0.19 l
0.14 0 l
0.15 0.18 l
0.14 -0.18 l
0.15 0 l
0.15 0.18 l
0.14 -0.56 l
0.15 0.56 l
0.14 -0.90 l
0.15 1.09 l
0.14 -0.37 l
0.15 0 l
0.14 0.37 l
0.15 0 l
0.15 1.11 l
0.14 -1.86 l
0.15 0.75 l
0.14 -0.56 l
0.15 0.74 l
0.14 -0.55 l
0.15 -0.38 l
0.14 1.12 l
0.15 -0.93 l
0.15 0.56 l
0.14 -0.19 l
0.15 -0.56 l
0.14 0.56 l
0.15 0.93 l
0.14 -0.56 l
0.15 1.12 l
0.14 -0.37 l
0.15 -0.93 l
0.15 -0.56 l
0.14 0.37 l
0.15 0.75 l
0.14 -0.38 l
0.15 -1.27 l
0.14 2.20 l
0.15 -1.30 l
0.15 0.56 l
0.14 0.19 l
0.15 -0.93 l
0.14 0.74 l
0.15 0.19 l
0.14 0.55 l
0.15 -1.11 l
0.14 0.18 l
0.15 0.56 l
0.15 -0.37 l
0.14 0 l
0.15 -0.19 l
0.14 0.75 l
0.15 -2.02 l
0.14 1.27 l
0.15 -0.18 l
0.14 0.37 l
0.15 0 l
0.15 0.37 l
0.14 -1.30 l
0.15 1.12 l
0.14 -0.75 l
0.15 0.19 l
0.14 1.11 l
0.15 -0.37 l
0.14 0.19 l
0.15 -1.68 l
0.15 2.05 l
0.14 -0.74 l
0.15 -0.56 l
0.14 0.74 l
0.15 -0.37 l
0.14 -0.37 l
0.15 1.48 l
0.15 -0.74 l
0.14 -1.64 l
0.15 1.08 l
0.14 1.30 l
0.15 -1.48 l
0.14 0.93 l
0.15 -0.19 l
0.14 -1.30 l
0.15 0.74 l
0.15 0.93 l
0.14 -0.55 l
0.15 0.18 l
0.14 0.37 l
0.15 0.56 l
0.14 -0.37 l
0.15 -2.39 l
0.14 0.90 l
0.15 1.12 l
o
/bg { 1 1 1 srgb } def
222.40 511.10 0.43 c p3
222.55 510.54 0.43 c p3
222.69 510.73 0.43 c p3
222.84 510.36 0.43 c p3
222.98 510.54 0.43 c p3
223.13 510.73 0.43 c p3
223.27 511.10 0.43 c p3
223.42 510.54 0.43 c p3
223.56 510.92 0.43 c p3
223.71 510.73 0.43 c p3
223.86 510.92 0.43 c p3
224.00 509.80 0.43 c p3
224.15 511.44 0.43 c p3
224.29 510.92 0.43 c p3
224.44 511.29 0.43 c p3
224.58 511.29 0.43 c p3
224.73 510.73 0.43 c p3
224.87 510.36 0.43 c p3
225.02 509.24 0.43 c p3
225.17 510.54 0.43 c p3
225.31 510.36 0.43 c p3
225.46 511.29 0.43 c p3
225.60 511.81 0.43 c p3
225.75 510.73 0.43 c p3
225.89 510.17 0.43 c p3
226.04 511.29 0.43 c p3
226.19 509.06 0.43 c p3
226.33 510.17 0.43 c p3
226.48 510.92 0.43 c p3
226.62 510.92 0.43 c p3
226.77 511.44 0.43 c p3
226.91 511.10 0.43 c p3
227.06 510.54 0.43 c p3
227.20 510.36 0.43 c p3
227.35 510.92 0.43 c p3
227.50 510.54 0.43 c p3
227.64 509.99 0.43 c p3
227.79 511.81 0.43 c p3
227.93 511.29 0.43 c p3
228.08 510.36 0.43 c p3
228.22 510.36 0.43 c p3
228.37 511.29 0.43 c p3
228.51 510.36 0.43 c p3
228.66 510.92 0.43 c p3
228.81 510.73 0.43 c p3
228.95 511.10 0.43 c p3
229.10 510.36 0.43 c p3
229.24 511.10 0.43 c p3
229.39 510.73 0.43 c p3
229.53 510.36 0.43 c p3
229.68 510.36 0.43 c p3
229.82 510.36 0.43 c p3
229.97 511.10 0.43 c p3
230.12 512.00 0.43 c p3
230.26 510.92 0.43 c p3
230.41 509.99 0.43 c p3
230.55 511.29 0.43 c p3
230.70 509.43 0.43 c p3
230.84 511.63 0.43 c p3
230.99 509.99 0.43 c p3
231.14 510.36 0.43 c p3
231.28 511.29 0.43 c p3
231.43 511.29 0.43 c p3
231.57 510.73 0.43 c p3
231.72 510.92 0.43 c p3
231.86 510.36 0.43 c p3
232.01 509.24 0.43 c p3
232.15 509.99 0.43 c p3
232.30 511.10 0.43 c p3
232.45 510.17 0.43 c p3
232.59 510.54 0.43 c p3
232.74 511.10 0.43 c p3
232.88 510.17 0.43 c p3
233.03 511.29 0.43 c p3
233.17 510.73 0.43 c p3
233.32 510.92 0.43 c p3
233.46 510.92 0.43 c p3
233.61 510.92 0.43 c p3
233.76 512.00 0.43 c p3
233.90 510.73 0.43 c p3
234.05 510.92 0.43 c p3
234.19 510.54 0.43 c p3
234.34 509.43 0.43 c p3
234.48 510.54 0.43 c p3
234.63 510.92 0.43 c p3
234.77 511.63 0.43 c p3
234.92 511.10 0.43 c p3
235.07 510.73 0.43 c p3
235.21 508.68 0.43 c p3
235.36 510.54 0.43 c p3
235.50 510.17 0.43 c p3
235.65 510.17 0.43 c p3
235.79 511.10 0.43 c p3
235.94 510.92 0.43 c p3
236.09 510.92 0.43 c p3
236.23 510.36 0.43 c p3
236.38 511.10 0.43 c p3
236.52 510.73 0.43 c p3
236.67 510.54 0.43 c p3
236.81 510.73 0.43 c p3
236.96 433.67 0.43 c p3
237.10 432.54 0.43 c p3
237.25 432.93 0.43 c p3
237.40 433.67 0.43 c p3
237.54 431.47 0.43 c p3
237.69 434.60 0.43 c p3
237.83 434.23 0.43 c p3
237.98 433.67 0.43 c p3
238.12 435.53 0.43 c p3
238.27 434.97 0.43 c p3
238.41 436.46 0.43 c p3
238.56 436.65 0.43 c p3
238.71 434.97 0.43 c p3
238.85 436.28 0.43 c p3
239.00 436.80 0.43 c p3
239.14 437.55 0.43 c p3
239.29 436.28 0.43 c p3
239.43 436.80 0.43 c p3
239.58 437.92 0.43 c p3
239.72 437.92 0.43 c p3
239.87 437.17 0.43 c p3
240.02 438.48 0.43 c p3
240.16 439.03 0.43 c p3
240.31 439.03 0.43 c p3
240.45 437.92 0.43 c p3
240.60 439.03 0.43 c p3
240.74 440.33 0.43 c p3
240.89 440.33 0.43 c p3
241.04 439.40 0.43 c p3
241.18 439.59 0.43 c p3
241.33 441.26 0.43 c p3
241.47 440.71 0.43 c p3
241.62 439.96 0.43 c p3
241.76 440.71 0.43 c p3
241.91 441.98 0.43 c p3
242.05 441.79 0.43 c p3
242.20 441.08 0.43 c p3
242.35 441.79 0.43 c p3
242.49 443.65 0.43 c p3
242.64 443.09 0.43 c p3
242.78 442.16 0.43 c p3
242.93 442.16 0.43 c p3
243.07 443.09 0.43 c p3
243.22 444.02 0.43 c p3
243.36 444.77 0.43 c p3
243.51 443.84 0.43 c p3
243.66 443.28 0.43 c p3
243.80 445.32 0.43 c p3
243.95 445.51 0.43 c p3
244.09 444.95 0.43 c p3
244.24 443.84 0.43 c p3
244.38 446.59 0.43 c p3
244.53 446.59 0.43 c p3
244.67 446.44 0.43 c p3
244.82 445.69 0.43 c p3
244.97 446.96 0.43 c p3
245.11 447.34 0.43 c p3
245.26 447.71 0.43 c p3
245.40 447.15 0.43 c p3
245.55 446.96 0.43 c p3
245.69 449.01 0.43 c p3
245.84 448.82 0.43 c p3
245.99 447.52 0.43 c p3
246.13 448.27 0.43 c p3
246.28 449.57 0.43 c p3
246.42 449.38 0.43 c p3
246.57 448.45 0.43 c p3
246.71 449.01 0.43 c p3
246.86 450.50 0.43 c p3
247.00 449.75 0.43 c p3
247.15 449.94 0.43 c p3
247.30 449.75 0.43 c p3
247.44 450.31 0.43 c p3
247.59 451.77 0.43 c p3
247.73 451.58 0.43 c p3
247.88 450.68 0.43 c p3
248.02 451.43 0.43 c p3
248.17 452.51 0.43 c p3
248.31 452.70 0.43 c p3
248.46 451.05 0.43 c p3
248.61 452.33 0.43 c p3
248.75 453.25 0.43 c p3
248.90 453.25 0.43 c p3
249.04 452.33 0.43 c p3
249.19 453.07 0.43 c p3
249.33 452.70 0.43 c p3
249.48 453.44 0.43 c p3
249.62 453.81 0.43 c p3
249.77 453.07 0.43 c p3
249.92 455.30 0.43 c p3
250.06 456.23 0.43 c p3
250.21 454.93 0.43 c p3
250.35 454.56 0.43 c p3
250.50 454.56 0.43 c p3
250.64 455.30 0.43 c p3
250.79 455.67 0.43 c p3
250.94 455.67 0.43 c p3
251.08 456.57 0.43 c p3
251.23 456.42 0.43 c p3
251.37 456.76 0.43 c p3
251.52 456.04 0.43 c p3
251.66 456.42 0.43 c p3
251.81 457.13 0.43 c p3
251.95 457.87 0.43 c p3
252.10 457.50 0.43 c p3
252.25 457.13 0.43 c p3
252.39 458.61 0.43 c p3
252.54 458.80 0.43 c p3
252.68 458.43 0.43 c p3
252.83 458.06 0.43 c p3
252.97 458.43 0.43 c p3
253.12 459.92 0.43 c p3
253.26 459.17 0.43 c p3
253.41 459.36 0.43 c p3
253.56 459.92 0.43 c p3
253.70 461.22 0.43 c p3
253.85 459.54 0.43 c p3
253.99 460.10 0.43 c p3
254.14 461.03 0.43 c p3
254.28 461.93 0.43 c p3
254.43 461.03 0.43 c p3
254.57 460.66 0.43 c p3
254.72 461.22 0.43 c p3
254.87 461.93 0.43 c p3
255.01 461.40 0.43 c p3
255.16 460.47 0.43 c p3
255.30 461.40 0.43 c p3
255.45 461.93 0.43 c p3
255.59 463.05 0.43 c p3
255.74 463.23 0.43 c p3
255.88 462.86 0.43 c p3
256.03 463.05 0.43 c p3
256.18 463.79 0.43 c p3
256.32 462.67 0.43 c p3
256.47 463.42 0.43 c p3
256.61 464.16 0.43 c p3
256.76 464.72 0.43 c p3
256.90 464.16 0.43 c p3
257.05 463.42 0.43 c p3
257.20 464.90 0.43 c p3
257.34 465.65 0.43 c p3
257.49 465.28 0.43 c p3
257.63 464.53 0.43 c p3
257.78 465.28 0.43 c p3
257.92 466.02 0.43 c p3
258.07 466.02 0.43 c p3
258.21 465.65 0.43 c p3
258.36 466.21 0.43 c p3
258.51 466.73 0.43 c p3
258.65 467.29 0.43 c p3
258.80 466.02 0.43 c p3
258.94 465.83 0.43 c p3
259.09 466.21 0.43 c p3
259.23 467.29 0.43 c p3
259.38 467.48 0.43 c p3
259.52 466.39 0.43 c p3
259.67 467.48 0.43 c p3
259.82 467.85 0.43 c p3
259.96 467.48 0.43 c p3
260.11 468.41 0.43 c p3
260.25 468.96 0.43 c p3
260.40 469.15 0.43 c p3
260.54 469.34 0.43 c p3
260.69 468.78 0.43 c p3
260.83 468.59 0.43 c p3
260.98 468.41 0.43 c p3
261.13 469.52 0.43 c p3
261.27 470.08 0.43 c p3
261.42 468.78 0.43 c p3
261.56 469.34 0.43 c p3
261.71 470.64 0.43 c p3
261.85 470.45 0.43 c p3
262.00 469.71 0.43 c p3
262.15 469.71 0.43 c p3
262.29 470.82 0.43 c p3
262.44 471.91 0.43 c p3
262.58 470.45 0.43 c p3
262.73 471.01 0.43 c p3
262.87 470.82 0.43 c p3
263.02 471.38 0.43 c p3
263.16 472.09 0.43 c p3
263.31 471.72 0.43 c p3
263.46 471.19 0.43 c p3
263.60 472.09 0.43 c p3
263.75 472.28 0.43 c p3
263.89 471.54 0.43 c p3
264.04 472.65 0.43 c p3
264.18 473.39 0.43 c p3
264.33 473.95 0.43 c p3
264.47 472.46 0.43 c p3
264.62 473.02 0.43 c p3
264.77 473.21 0.43 c p3
264.91 473.21 0.43 c p3
265.06 473.39 0.43 c p3
265.20 473.02 0.43 c p3
265.35 474.32 0.43 c p3
265.49 475.44 0.43 c p3
265.64 473.95 0.43 c p3
265.78 474.14 0.43 c p3
265.93 473.95 0.43 c p3
266.08 476.00 0.43 c p3
266.22 475.25 0.43 c p3
266.37 474.51 0.43 c p3
266.51 475.25 0.43 c p3
266.66 474.88 0.43 c p3
266.80 475.63 0.43 c p3
266.95 474.51 0.43 c p3
267.10 475.44 0.43 c p3
267.24 476.71 0.43 c p3
267.39 476.90 0.43 c p3
267.53 476.90 0.43 c p3
267.68 475.81 0.43 c p3
267.82 477.45 0.43 c p3
267.97 476.90 0.43 c p3
268.11 476.00 0.43 c p3
268.26 476.00 0.43 c p3
268.41 477.27 0.43 c p3
268.55 478.01 0.43 c p3
268.70 476.90 0.43 c p3
268.84 476.37 0.43 c p3
268.99 477.45 0.43 c p3
269.13 477.27 0.43 c p3
269.28 477.64 0.43 c p3
269.42 476.90 0.43 c p3
269.57 478.38 0.43 c p3
269.72 478.94 0.43 c p3
269.86 478.75 0.43 c p3
270.01 478.01 0.43 c p3
270.15 478.38 0.43 c p3
270.30 480.06 0.43 c p3
270.44 478.94 0.43 c p3
270.59 478.01 0.43 c p3
270.73 479.31 0.43 c p3
270.88 479.68 0.43 c p3
271.03 480.06 0.43 c p3
271.17 479.13 0.43 c p3
271.32 479.87 0.43 c p3
271.46 479.87 0.43 c p3
271.61 480.80 0.43 c p3
271.75 478.57 0.43 c p3
271.90 480.06 0.43 c p3
272.05 480.80 0.43 c p3
272.19 481.70 0.43 c p3
272.34 481.17 0.43 c p3
272.48 480.06 0.43 c p3
272.63 480.61 0.43 c p3
272.77 481.36 0.43 c p3
272.92 481.51 0.43 c p3
273.06 481.17 0.43 c p3
273.21 481.70 0.43 c p3
273.36 482.26 0.43 c p3
273.50 481.51 0.43 c p3
273.65 480.80 0.43 c p3
273.79 481.17 0.43 c p3
273.94 483.00 0.43 c p3
274.08 482.07 0.43 c p3
274.23 481.51 0.43 c p3
274.37 482.44 0.43 c p3
274.52 482.63 0.43 c p3
274.67 482.44 0.43 c p3
274.81 481.51 0.43 c p3
274.96 481.88 0.43 c p3
275.10 483.00 0.43 c p3
275.25 483.37 0.43 c p3
275.39 483.37 0.43 c p3
275.54 482.44 0.43 c p3
275.68 482.07 0.43 c p3
275.83 484.30 0.43 c p3
275.98 484.30 0.43 c p3
276.12 483.00 0.43 c p3
276.27 483.56 0.43 c p3
276.41 483.74 0.43 c p3
276.56 483.37 0.43 c p3
276.70 483.93 0.43 c p3
276.85 484.49 0.43 c p3
277.00 484.67 0.43 c p3
277.14 485.42 0.43 c p3
277.29 483.56 0.43 c p3
277.43 483.56 0.43 c p3
277.58 484.30 0.43 c p3
277.72 485.04 0.43 c p3
277.87 485.42 0.43 c p3
278.01 483.56 0.43 c p3
278.16 485.23 0.43 c p3
278.31 485.79 0.43 c p3
278.45 485.23 0.43 c p3
278.60 484.49 0.43 c p3
278.74 485.97 0.43 c p3
278.89 486.16 0.43 c p3
279.03 486.16 0.43 c p3
279.18 485.23 0.43 c p3
279.32 486.35 0.43 c p3
279.47 486.16 0.43 c p3
279.62 486.50 0.43 c p3
279.76 484.49 0.43 c p3
279.91 486.50 0.43 c p3
280.05 485.79 0.43 c p3
280.20 488.73 0.43 c p3
280.34 487.99 0.43 c p3
280.49 485.79 0.43 c p3
280.63 487.80 0.43 c p3
280.78 486.16 0.43 c p3
280.93 485.97 0.43 c p3
281.07 487.24 0.43 c p3
281.22 486.87 0.43 c p3
281.36 487.43 0.43 c p3
281.51 487.62 0.43 c p3
281.65 487.62 0.43 c p3
281.80 488.17 0.43 c p3
281.95 488.17 0.43 c p3
282.09 487.62 0.43 c p3
282.24 486.50 0.43 c p3
282.38 487.43 0.43 c p3
282.53 487.99 0.43 c p3
282.67 489.10 0.43 c p3
282.82 486.50 0.43 c p3
282.96 487.99 0.43 c p3
283.11 488.73 0.43 c p3
283.26 487.80 0.43 c p3
283.40 487.99 0.43 c p3
283.55 488.55 0.43 c p3
283.69 489.85 0.43 c p3
283.84 488.73 0.43 c p3
283.98 488.92 0.43 c p3
284.13 489.10 0.43 c p3
284.27 489.66 0.43 c p3
284.42 489.29 0.43 c p3
284.57 489.10 0.43 c p3
284.71 489.10 0.43 c p3
284.86 489.10 0.43 c p3
285.00 489.29 0.43 c p3
285.15 489.29 0.43 c p3
285.29 488.73 0.43 c p3
285.44 488.55 0.43 c p3
285.58 489.85 0.43 c p3
285.73 489.10 0.43 c p3
285.88 490.03 0.43 c p3
286.02 489.85 0.43 c p3
286.17 489.85 0.43 c p3
286.31 489.66 0.43 c p3
286.46 489.85 0.43 c p3
286.60 490.59 0.43 c p3
286.75 490.22 0.43 c p3
286.89 489.29 0.43 c p3
287.04 489.85 0.43 c p3
287.19 490.22 0.43 c p3
287.33 490.78 0.43 c p3
287.48 490.40 0.43 c p3
287.62 490.96 0.43 c p3
287.77 490.78 0.43 c p3
287.91 491.15 0.43 c p3
288.06 491.33 0.43 c p3
288.21 491.15 0.43 c p3
288.35 490.96 0.43 c p3
288.50 491.33 0.43 c p3
288.64 492.42 0.43 c p3
288.79 491.33 0.43 c p3
288.93 491.86 0.43 c p3
289.08 492.05 0.43 c p3
289.22 491.86 0.43 c p3
289.37 491.33 0.43 c p3
289.52 491.49 0.43 c p3
289.66 492.42 0.43 c p3
289.81 493.16 0.43 c p3
289.95 492.05 0.43 c p3
290.10 491.67 0.43 c p3
290.24 492.79 0.43 c p3
290.39 492.98 0.43 c p3
290.53 492.23 0.43 c p3
290.68 492.23 0.43 c p3
290.83 492.60 0.43 c p3
290.97 492.98 0.43 c p3
291.12 493.35 0.43 c p3
291.26 493.35 0.43 c p3
291.41 492.05 0.43 c p3
291.55 491.67 0.43 c p3
291.70 493.35 0.43 c p3
291.84 492.60 0.43 c p3
291.99 493.35 0.43 c p3
292.14 493.72 0.43 c p3
292.28 494.46 0.43 c p3
292.43 493.53 0.43 c p3
292.57 492.42 0.43 c p3
292.72 493.35 0.43 c p3
292.86 492.42 0.43 c p3
293.01 494.09 0.43 c p3
293.16 493.53 0.43 c p3
293.30 494.09 0.43 c p3
293.45 493.53 0.43 c p3
293.59 492.42 0.43 c p3
293.74 492.98 0.43 c p3
293.88 493.53 0.43 c p3
294.03 495.21 0.43 c p3
294.17 494.46 0.43 c p3
294.32 493.72 0.43 c p3
294.47 493.91 0.43 c p3
294.61 494.46 0.43 c p3
294.76 493.91 0.43 c p3
294.90 492.23 0.43 c p3
295.05 493.35 0.43 c p3
295.19 494.09 0.43 c p3
295.34 494.09 0.43 c p3
295.48 494.46 0.43 c p3
295.63 494.46 0.43 c p3
295.78 494.65 0.43 c p3
295.92 494.65 0.43 c p3
296.07 494.46 0.43 c p3
296.21 494.84 0.43 c p3
296.36 494.84 0.43 c p3
296.50 494.46 0.43 c p3
296.65 495.76 0.43 c p3
296.79 495.39 0.43 c p3
296.94 495.76 0.43 c p3
297.09 495.58 0.43 c p3
297.23 495.39 0.43 c p3
297.38 494.46 0.43 c p3
297.52 495.76 0.43 c p3
297.67 494.28 0.43 c p3
297.81 495.76 0.43 c p3
297.96 493.91 0.43 c p3
298.11 495.21 0.43 c p3
298.25 495.39 0.43 c p3
298.40 495.39 0.43 c p3
298.54 495.58 0.43 c p3
298.69 495.21 0.43 c p3
298.83 495.58 0.43 c p3
298.98 496.85 0.43 c p3
299.12 496.14 0.43 c p3
299.27 495.39 0.43 c p3
299.42 496.32 0.43 c p3
299.56 495.76 0.43 c p3
299.71 495.21 0.43 c p3
299.85 495.58 0.43 c p3
300.00 496.32 0.43 c p3
300.14 496.48 0.43 c p3
300.29 496.14 0.43 c p3
300.43 496.48 0.43 c p3
300.58 495.58 0.43 c p3
300.73 495.95 0.43 c p3
300.87 496.14 0.43 c p3
301.02 496.32 0.43 c p3
301.16 498.34 0.43 c p3
301.31 497.22 0.43 c p3
301.45 495.76 0.43 c p3
301.60 497.41 0.43 c p3
301.74 496.85 0.43 c p3
301.89 495.21 0.43 c p3
302.04 497.22 0.43 c p3
302.18 496.48 0.43 c p3
302.33 496.32 0.43 c p3
302.47 497.96 0.43 c p3
302.62 495.95 0.43 c p3
302.76 496.48 0.43 c p3
302.91 496.48 0.43 c p3
303.06 495.95 0.43 c p3
303.20 497.03 0.43 c p3
303.35 497.41 0.43 c p3
303.49 497.22 0.43 c p3
303.64 497.22 0.43 c p3
303.78 497.03 0.43 c p3
303.93 497.03 0.43 c p3
304.07 497.41 0.43 c p3
304.22 497.96 0.43 c p3
304.37 497.59 0.43 c p3
304.51 496.66 0.43 c p3
304.66 497.96 0.43 c p3
304.80 497.41 0.43 c p3
304.95 496.85 0.43 c p3
305.09 499.08 0.43 c p3
305.24 497.22 0.43 c p3
305.38 497.96 0.43 c p3
305.53 498.34 0.43 c p3
305.68 498.89 0.43 c p3
305.82 497.78 0.43 c p3
305.97 499.82 0.43 c p3
306.11 497.96 0.43 c p3
306.26 497.41 0.43 c p3
306.40 499.08 0.43 c p3
306.55 498.15 0.43 c p3
306.69 498.15 0.43 c p3
306.84 497.78 0.43 c p3
306.99 498.71 0.43 c p3
307.13 499.08 0.43 c p3
307.28 498.52 0.43 c p3
307.42 499.82 0.43 c p3
307.57 497.41 0.43 c p3
307.71 498.34 0.43 c p3
307.86 497.78 0.43 c p3
308.01 497.96 0.43 c p3
308.15 498.71 0.43 c p3
308.30 498.34 0.43 c p3
308.44 498.52 0.43 c p3
308.59 498.34 0.43 c p3
308.73 499.27 0.43 c p3
308.88 499.45 0.43 c p3
309.02 499.64 0.43 c p3
309.17 499.27 0.43 c p3
309.32 499.82 0.43 c p3
309.46 499.08 0.43 c p3
309.61 498.71 0.43 c p3
309.75 497.96 0.43 c p3
309.90 499.45 0.43 c p3
310.04 499.64 0.43 c p3
310.19 498.89 0.43 c p3
310.33 499.27 0.43 c p3
310.48 499.27 0.43 c p3
310.63 499.27 0.43 c p3
310.77 499.08 0.43 c p3
310.92 500.01 0.43 c p3
311.06 499.45 0.43 c p3
311.21 500.75 0.43 c p3
311.35 499.27 0.43 c p3
311.50 499.08 0.43 c p3
311.64 501.47 0.43 c p3
311.79 499.82 0.43 c p3
311.94 500.01 0.43 c p3
312.08 501.31 0.43 c p3
312.23 499.45 0.43 c p3
312.37 499.82 0.43 c p3
312.52 502.77 0.43 c p3
312.66 500.94 0.43 c p3
312.81 500.38 0.43 c p3
312.96 499.82 0.43 c p3
313.10 499.82 0.43 c p3
313.25 497.96 0.43 c p3
313.39 498.89 0.43 c p3
313.54 499.08 0.43 c p3
313.68 500.01 0.43 c p3
313.83 498.89 0.43 c p3
313.97 499.27 0.43 c p3
314.12 498.15 0.43 c p3
314.27 500.38 0.43 c p3
314.41 500.20 0.43 c p3
314.56 500.38 0.43 c p3
314.70 501.65 0.43 c p3
314.85 502.21 0.43 c p3
314.99 501.65 0.43 c p3
315.14 501.65 0.43 c p3
315.28 501.65 0.43 c p3
315.43 501.47 0.43 c p3
315.58 501.84 0.43 c p3
315.72 501.31 0.43 c p3
315.87 500.57 0.43 c p3
316.01 500.38 0.43 c p3
316.16 500.38 0.43 c p3
316.30 500.94 0.43 c p3
316.45 500.20 0.43 c p3
316.59 501.47 0.43 c p3
316.74 500.20 0.43 c p3
316.89 499.64 0.43 c p3
317.03 500.01 0.43 c p3
317.18 500.94 0.43 c p3
317.32 500.01 0.43 c p3
317.47 500.75 0.43 c p3
317.61 500.75 0.43 c p3
317.76 500.94 0.43 c p3
317.91 501.65 0.43 c p3
318.05 501.12 0.43 c p3
318.20 500.94 0.43 c p3
318.34 501.65 0.43 c p3
318.49 501.65 0.43 c p3
318.63 501.65 0.43 c p3
318.78 500.94 0.43 c p3
318.92 502.77 0.43 c p3
319.07 500.38 0.43 c p3
319.22 500.20 0.43 c p3
319.36 500.75 0.43 c p3
319.51 501.12 0.43 c p3
319.65 501.65 0.43 c p3
319.80 501.47 0.43 c p3
319.94 500.38 0.43 c p3
320.09 502.02 0.43 c p3
320.23 500.38 0.43 c p3
320.38 500.38 0.43 c p3
320.53 501.31 0.43 c p3
320.67 501.31 0.43 c p3
320.82 499.82 0.43 c p3
320.96 501.65 0.43 c p3
321.11 500.75 0.43 c p3
321.25 501.31 0.43 c p3
321.40 501.84 0.43 c p3
321.54 501.47 0.43 c p3
321.69 502.02 0.43 c p3
321.84 502.02 0.43 c p3
321.98 502.40 0.43 c p3
322.13 502.58 0.43 c p3
322.27 502.95 0.43 c p3
322.42 502.58 0.43 c p3
322.56 502.21 0.43 c p3
322.71 502.02 0.43 c p3
322.85 502.21 0.43 c p3
323.00 500.94 0.43 c p3
323.15 501.12 0.43 c p3
323.29 502.58 0.43 c p3
323.44 501.84 0.43 c p3
323.58 501.31 0.43 c p3
323.73 502.58 0.43 c p3
323.87 501.47 0.43 c p3
324.02 500.94 0.43 c p3
324.17 501.65 0.43 c p3
324.31 502.02 0.43 c p3
324.46 502.77 0.43 c p3
324.60 501.84 0.43 c p3
324.75 501.47 0.43 c p3
324.89 502.21 0.43 c p3
325.04 502.95 0.43 c p3
325.18 501.31 0.43 c p3
325.33 502.02 0.43 c p3
325.48 503.70 0.43 c p3
325.62 502.21 0.43 c p3
325.77 502.02 0.43 c p3
325.91 502.95 0.43 c p3
326.06 502.21 0.43 c p3
326.20 502.21 0.43 c p3
326.35 502.21 0.43 c p3
326.49 502.58 0.43 c p3
326.64 502.58 0.43 c p3
326.79 502.95 0.43 c p3
326.93 503.32 0.43 c p3
327.08 503.14 0.43 c p3
327.22 502.21 0.43 c p3
327.37 502.58 0.43 c p3
327.51 503.32 0.43 c p3
327.66 502.02 0.43 c p3
327.80 502.77 0.43 c p3
327.95 502.40 0.43 c p3
328.10 503.32 0.43 c p3
328.24 502.21 0.43 c p3
328.39 502.02 0.43 c p3
328.53 502.95 0.43 c p3
328.68 502.40 0.43 c p3
328.82 502.21 0.43 c p3
328.97 502.21 0.43 c p3
329.12 502.95 0.43 c p3
329.26 503.88 0.43 c p3
329.41 502.58 0.43 c p3
329.55 503.51 0.43 c p3
329.70 502.58 0.43 c p3
329.84 502.40 0.43 c p3
329.99 502.95 0.43 c p3
330.13 503.51 0.43 c p3
330.28 503.51 0.43 c p3
330.43 503.70 0.43 c p3
330.57 502.40 0.43 c p3
330.72 502.95 0.43 c p3
330.86 502.58 0.43 c p3
331.01 503.32 0.43 c p3
331.15 503.32 0.43 c p3
331.30 502.77 0.43 c p3
331.44 502.40 0.43 c p3
331.59 502.40 0.43 c p3
331.74 502.95 0.43 c p3
331.88 502.02 0.43 c p3
332.03 502.40 0.43 c p3
332.17 503.32 0.43 c p3
332.32 502.95 0.43 c p3
332.46 504.63 0.43 c p3
332.61 503.88 0.43 c p3
332.75 504.63 0.43 c p3
332.90 504.25 0.43 c p3
333.05 503.14 0.43 c p3
333.19 503.14 0.43 c p3
333.34 503.51 0.43 c p3
333.48 503.32 0.43 c p3
333.63 504.07 0.43 c p3
333.77 502.58 0.43 c p3
333.92 504.07 0.43 c p3
334.07 504.07 0.43 c p3
334.21 502.95 0.43 c p3
334.36 502.58 0.43 c p3
334.50 504.07 0.43 c p3
334.65 503.70 0.43 c p3
334.79 503.51 0.43 c p3
334.94 503.32 0.43 c p3
335.08 504.25 0.43 c p3
335.23 505.37 0.43 c p3
335.38 503.70 0.43 c p3
335.52 503.51 0.43 c p3
335.67 503.51 0.43 c p3
335.81 503.32 0.43 c p3
335.96 503.32 0.43 c p3
336.10 505.00 0.43 c p3
336.25 503.51 0.43 c p3
336.39 504.25 0.43 c p3
336.54 504.25 0.43 c p3
336.69 504.07 0.43 c p3
336.83 503.70 0.43 c p3
336.98 505.00 0.43 c p3
337.12 504.81 0.43 c p3
337.27 504.07 0.43 c p3
337.41 504.07 0.43 c p3
337.56 504.81 0.43 c p3
337.70 503.70 0.43 c p3
337.85 503.51 0.43 c p3
338.00 504.07 0.43 c p3
338.14 504.63 0.43 c p3
338.29 503.14 0.43 c p3
338.43 504.63 0.43 c p3
338.58 503.88 0.43 c p3
338.72 503.70 0.43 c p3
338.87 504.07 0.43 c p3
339.02 504.44 0.43 c p3
339.16 503.70 0.43 c p3
339.31 504.25 0.43 c p3
339.45 504.44 0.43 c p3
339.60 504.07 0.43 c p3
339.74 505.93 0.43 c p3
339.89 504.07 0.43 c p3
340.03 504.07 0.43 c p3
340.18 503.70 0.43 c p3
340.33 504.63 0.43 c p3
340.47 504.07 0.43 c p3
340.62 505.00 0.43 c p3
340.76 504.81 0.43 c p3
340.91 505.56 0.43 c p3
341.05 503.32 0.43 c p3
341.20 504.25 0.43 c p3
341.34 504.63 0.43 c p3
341.49 505.56 0.43 c p3
341.64 504.25 0.43 c p3
341.78 504.81 0.43 c p3
341.93 505.18 0.43 c p3
342.07 504.44 0.43 c p3
342.22 504.25 0.43 c p3
342.36 504.44 0.43 c p3
342.51 504.25 0.43 c p3
342.65 504.81 0.43 c p3
342.80 505.00 0.43 c p3
342.95 505.00 0.43 c p3
343.09 504.44 0.43 c p3
343.24 505.56 0.43 c p3
343.38 506.11 0.43 c p3
343.53 504.63 0.43 c p3
343.67 504.63 0.43 c p3
343.82 504.63 0.43 c p3
343.97 504.25 0.43 c p3
344.11 505.00 0.43 c p3
344.26 505.18 0.43 c p3
344.40 505.00 0.43 c p3
344.55 505.37 0.43 c p3
344.69 505.00 0.43 c p3
344.84 504.25 0.43 c p3
344.98 505.56 0.43 c p3
345.13 503.88 0.43 c p3
345.28 504.07 0.43 c p3
345.42 505.74 0.43 c p3
345.57 504.63 0.43 c p3
345.71 505.93 0.43 c p3
345.86 504.25 0.43 c p3
346.00 505.37 0.43 c p3
346.15 504.63 0.43 c p3
346.29 505.00 0.43 c p3
346.44 504.44 0.43 c p3
346.59 504.44 0.43 c p3
346.73 505.00 0.43 c p3
346.88 505.18 0.43 c p3
347.02 504.07 0.43 c p3
347.17 504.25 0.43 c p3
347.31 506.45 0.43 c p3
347.46 505.93 0.43 c p3
347.60 505.74 0.43 c p3
347.75 505.74 0.43 c p3
347.90 505.37 0.43 c p3
348.04 505.00 0.43 c p3
348.19 504.81 0.43 c p3
348.33 505.00 0.43 c p3
348.48 504.63 0.43 c p3
348.62 504.63 0.43 c p3
348.77 505.18 0.43 c p3
348.92 506.11 0.43 c p3
349.06 507.20 0.43 c p3
349.21 505.00 0.43 c p3
349.35 505.56 0.43 c p3
349.50 505.93 0.43 c p3
349.64 505.56 0.43 c p3
349.79 505.37 0.43 c p3
349.93 505.37 0.43 c p3
350.08 504.44 0.43 c p3
350.23 505.18 0.43 c p3
350.37 505.00 0.43 c p3
350.52 505.37 0.43 c p3
350.66 504.63 0.43 c p3
350.81 505.93 0.43 c p3
350.95 505.93 0.43 c p3
351.10 504.25 0.43 c p3
351.24 505.93 0.43 c p3
351.39 506.11 0.43 c p3
351.54 505.18 0.43 c p3
351.68 505.37 0.43 c p3
351.83 505.56 0.43 c p3
351.97 505.00 0.43 c p3
352.12 505.74 0.43 c p3
352.26 505.56 0.43 c p3
352.41 506.30 0.43 c p3
352.55 506.11 0.43 c p3
352.70 505.93 0.43 c p3
352.85 505.56 0.43 c p3
352.99 505.56 0.43 c p3
353.14 504.07 0.43 c p3
353.28 505.74 0.43 c p3
353.43 505.74 0.43 c p3
353.57 507.01 0.43 c p3
353.72 506.30 0.43 c p3
353.86 505.18 0.43 c p3
354.01 505.93 0.43 c p3
354.16 505.00 0.43 c p3
354.30 506.30 0.43 c p3
354.45 505.56 0.43 c p3
354.59 506.11 0.43 c p3
354.74 506.64 0.43 c p3
354.88 505.56 0.43 c p3
355.03 505.74 0.43 c p3
355.18 506.11 0.43 c p3
355.32 505.93 0.43 c p3
355.47 505.18 0.43 c p3
355.61 504.07 0.43 c p3
355.76 506.11 0.43 c p3
355.90 506.64 0.43 c p3
356.05 505.93 0.43 c p3
356.19 505.37 0.43 c p3
356.34 506.11 0.43 c p3
356.49 505.93 0.43 c p3
356.63 505.93 0.43 c p3
356.78 505.74 0.43 c p3
356.92 505.93 0.43 c p3
357.07 506.45 0.43 c p3
357.21 505.37 0.43 c p3
357.36 505.18 0.43 c p3
357.50 505.56 0.43 c p3
357.65 505.74 0.43 c p3
357.80 505.37 0.43 c p3
357.94 506.83 0.43 c p3
358.09 505.18 0.43 c p3
358.23 505.93 0.43 c p3
358.38 506.11 0.43 c p3
358.52 506.45 0.43 c p3
358.67 505.18 0.43 c p3
358.81 505.93 0.43 c p3
358.96 506.11 0.43 c p3
359.11 505.74 0.43 c p3
359.25 506.64 0.43 c p3
359.40 505.37 0.43 c p3
359.54 505.93 0.43 c p3
359.69 505.74 0.43 c p3
359.83 506.83 0.43 c p3
359.98 505.18 0.43 c p3
360.13 506.30 0.43 c p3
360.27 505.74 0.43 c p3
360.42 506.45 0.43 c p3
360.56 507.20 0.43 c p3
360.71 506.83 0.43 c p3
360.85 506.45 0.43 c p3
361.00 505.93 0.43 c p3
361.14 506.45 0.43 c p3
361.29 505.74 0.43 c p3
361.44 505.74 0.43 c p3
361.58 505.93 0.43 c p3
361.73 507.20 0.43 c p3
361.87 506.64 0.43 c p3
362.02 505.37 0.43 c p3
362.16 506.64 0.43 c p3
362.31 505.93 0.43 c p3
362.45 506.30 0.43 c p3
362.60 507.01 0.43 c p3
362.75 506.30 0.43 c p3
362.89 507.01 0.43 c p3
363.04 506.30 0.43 c p3
363.18 506.64 0.43 c p3
363.33 504.81 0.43 c p3
363.47 506.45 0.43 c p3
363.62 505.93 0.43 c p3
363.76 505.37 0.43 c p3
363.91 506.45 0.43 c p3
364.06 507.38 0.43 c p3
364.20 505.56 0.43 c p3
364.35 506.11 0.43 c p3
364.49 506.64 0.43 c p3
364.64 506.11 0.43 c p3
364.78 506.45 0.43 c p3
364.93 506.64 0.43 c p3
365.08 506.45 0.43 c p3
365.22 506.83 0.43 c p3
365.37 507.01 0.43 c p3
365.51 507.01 0.43 c p3
365.66 507.01 0.43 c p3
365.80 506.83 0.43 c p3
365.95 505.74 0.43 c p3
366.09 506.45 0.43 c p3
366.24 506.11 0.43 c p3
366.39 507.20 0.43 c p3
366.53 506.45 0.43 c p3
366.68 506.11 0.43 c p3
366.82 507.01 0.43 c p3
366.97 506.11 0.43 c p3
367.11 507.20 0.43 c p3
367.26 505.37 0.43 c p3
367.40 507.38 0.43 c p3
367.55 507.20 0.43 c p3
367.70 506.83 0.43 c p3
367.84 507.01 0.43 c p3
367.99 507.20 0.43 c p3
368.13 505.93 0.43 c p3
368.28 505.74 0.43 c p3
368.42 506.83 0.43 c p3
368.57 507.01 0.43 c p3
368.71 507.76 0.43 c p3
368.86 507.38 0.43 c p3
369.01 506.83 0.43 c p3
369.15 506.64 0.43 c p3
369.30 506.83 0.43 c p3
369.44 506.83 0.43 c p3
369.59 507.01 0.43 c p3
369.73 506.83 0.43 c p3
369.88 506.83 0.43 c p3
370.03 507.01 0.43 c p3
370.17 506.45 0.43 c p3
370.32 507.01 0.43 c p3
370.46 506.11 0.43 c p3
370.61 507.20 0.43 c p3
370.75 506.83 0.43 c p3
370.90 506.83 0.43 c p3
371.04 507.20 0.43 c p3
371.19 507.20 0.43 c p3
371.34 508.31 0.43 c p3
371.48 506.45 0.43 c p3
371.63 507.20 0.43 c p3
371.77 506.64 0.43 c p3
371.92 507.38 0.43 c p3
372.06 506.83 0.43 c p3
372.21 506.45 0.43 c p3
372.35 507.57 0.43 c p3
372.50 506.64 0.43 c p3
372.65 507.20 0.43 c p3
372.79 507.01 0.43 c p3
372.94 506.45 0.43 c p3
373.08 507.01 0.43 c p3
373.23 507.94 0.43 c p3
373.37 507.38 0.43 c p3
373.52 508.50 0.43 c p3
373.66 508.13 0.43 c p3
373.81 507.20 0.43 c p3
373.96 506.64 0.43 c p3
374.10 507.01 0.43 c p3
374.25 507.76 0.43 c p3
374.39 507.38 0.43 c p3
374.54 506.11 0.43 c p3
374.68 508.31 0.43 c p3
374.83 507.01 0.43 c p3
374.98 507.57 0.43 c p3
375.12 507.76 0.43 c p3
375.27 506.83 0.43 c p3
375.41 507.57 0.43 c p3
375.56 507.76 0.43 c p3
375.70 508.31 0.43 c p3
375.85 507.20 0.43 c p3
375.99 507.38 0.43 c p3
376.14 507.94 0.43 c p3
376.29 507.57 0.43 c p3
376.43 507.57 0.43 c p3
376.58 507.38 0.43 c p3
376.72 508.13 0.43 c p3
376.87 506.11 0.43 c p3
377.01 507.38 0.43 c p3
377.16 507.20 0.43 c p3
377.30 507.57 0.43 c p3
377.45 507.57 0.43 c p3
377.60 507.94 0.43 c p3
377.74 506.64 0.43 c p3
377.89 507.76 0.43 c p3
378.03 507.01 0.43 c p3
378.18 507.20 0.43 c p3
378.32 508.31 0.43 c p3
378.47 507.94 0.43 c p3
378.61 508.13 0.43 c p3
378.76 506.45 0.43 c p3
378.91 508.50 0.43 c p3
379.05 507.76 0.43 c p3
379.20 507.20 0.43 c p3
379.34 507.94 0.43 c p3
379.49 507.57 0.43 c p3
379.63 507.20 0.43 c p3
379.78 508.68 0.43 c p3
379.93 507.94 0.43 c p3
380.07 506.30 0.43 c p3
380.22 507.38 0.43 c p3
380.36 508.68 0.43 c p3
380.51 507.20 0.43 c p3
380.65 508.13 0.43 c p3
380.80 507.94 0.43 c p3
380.94 506.64 0.43 c p3
381.09 507.38 0.43 c p3
381.24 508.31 0.43 c p3
381.38 507.76 0.43 c p3
381.53 507.94 0.43 c p3
381.67 508.31 0.43 c p3
381.82 508.87 0.43 c p3
381.96 508.50 0.43 c p3
382.11 506.11 0.43 c p3
382.25 507.01 0.43 c p3
382.40 508.13 0.43 c p3
0.00 0.00 432.00 576.00 cl
0 0 0 srgb
0.75 setlinewidth
[] 0 setdash
1 setlinecap
1 setlinejoin
10.00 setmiterlimit
np
236.96 345.60 m
145.59 0 l
o
np
236.96 345.60 m
0 -5.76 l
o
np
266.08 345.60 m
0 -5.76 l
o
np
295.19 345.60 m
0 -5.76 l
o
np
324.31 345.60 m
0 -5.76 l
o
np
353.43 345.60 m
0 -5.76 l
o
np
382.55 345.60 m
0 -5.76 l
o
/Font1 findfont 10 s
236.96 329.47 (0) .5 0 t
266.08 329.47 (500) .5 0 t
295.19 329.47 (1000) .5 0 t
353.43 329.47 (2000) .5 0 t
np
216.00 352.00 m
0 152.29 l
o
np
216.00 352.00 m
-5.76 0 l
o
np
216.00 377.38 m
-5.76 0 l
o
np
216.00 402.76 m
-5.76 0 l
o
np
216.00 428.14 m
-5.76 0 l
o
np
216.00 453.52 m
-5.76 0 l
o
np
216.00 478.91 m
-5.76 0 l
o
np
216.00 504.29 m
-5.76 0 l
o
209.09 348.41 (0.00) 1 0 t
209.09 373.79 (0.05) 1 0 t
209.09 399.17 (0.10) 1 0 t
209.09 424.55 (0.15) 1 0 t
209.09 449.93 (0.20) 1 0 t
209.09 475.32 (0.25) 1 0 t
209.09 500.70 (0.30) 1 0 t
np
216.00 345.60 m
172.80 0 l
0 172.80 l
-172.80 0 l
0 -172.80 l
o
0.00 0.00 432.00 576.00 cl
/Font1 findfont 10 s
0 0 0 srgb
302.40 313.34 (Time / ms \(total\)) .5 0 t
190.66 432.00 (U / V) .5 90 t
216.00 345.60 388.80 518.40 cl
0 0 0 srgb
0.38 setlinewidth
[ 1.13 1.88] 0 setdash
1 setlinecap
1 setlinejoin
10.00 setmiterlimit
np
222.55 345.60 m
0 172.80 l
o
np
233.61 345.60 m
0 172.80 l
o
np
237.54 345.60 m
0 172.80 l
o
np
361.29 345.60 m
0 172.80 l
o
86.40 57.60 388.80 288.00 cl
1 0 0 srgb
1.50 setlinewidth
[] 0 setdash
1 setlinecap
1 setlinejoin
10.00 setmiterlimit
np
97.60 279.47 m
1.41 -5.23 l
1.40 -5.10 l
1.41 -4.96 l
1.41 -4.84 l
1.41 -4.72 l
1.40 -4.60 l
1.41 -4.48 l
1.41 -4.37 l
1.40 -4.25 l
1.41 -4.15 l
1.41 -4.04 l
1.40 -3.94 l
1.41 -3.84 l
1.41 -3.74 l
1.41 -3.65 l
1.40 -3.56 l
1.41 -3.46 l
1.41 -3.38 l
1.40 -3.29 l
1.41 -3.20 l
1.41 -3.13 l
1.40 -3.05 l
1.41 -2.97 l
1.41 -2.89 l
1.41 -2.82 l
1.40 -2.75 l
1.41 -2.68 l
1.41 -2.61 l
1.40 -2.54 l
1.41 -2.48 l
1.41 -2.42 l
1.41 -2.35 l
1.40 -2.30 l
1.41 -2.24 l
1.41 -2.18 l
1.40 -2.12 l
1.41 -2.07 l
1.41 -2.02 l
1.40 -1.97 l
1.41 -1.92 l
1.41 -1.87 l
1.41 -1.82 l
1.40 -1.77 l
1.41 -1.73 l
1.41 -1.69 l
1.40 -1.64 l
1.41 -1.60 l
1.41 -1.56 l
1.40 -1.53 l
1.41 -1.48 l
1.41 -1.44 l
1.41 -1.41 l
1.40 -1.37 l
1.41 -1.34 l
1.41 -1.30 l
1.40 -1.28 l
1.41 -1.23 l
1.41 -1.21 l
1.41 -1.18 l
1.40 -1.14 l
1.41 -1.12 l
1.41 -1.09 l
1.40 -1.06 l
1.41 -1.03 l
1.41 -1.01 l
1.40 -0.99 l
1.41 -0.95 l
1.41 -0.94 l
1.41 -0.91 l
1.40 -0.88 l
1.41 -0.87 l
1.41 -0.84 l
1.40 -0.82 l
1.41 -0.80 l
1.41 -0.78 l
1.40 -0.76 l
1.41 -0.74 l
1.41 -0.72 l
1.41 -0.70 l
1.40 -0.69 l
1.41 -0.67 l
1.41 -0.65 l
1.40 -0.63 l
1.41 -0.62 l
1.41 -0.60 l
1.41 -0.59 l
1.40 -0.57 l
1.41 -0.56 l
1.41 -0.54 l
1.40 -0.53 l
1.41 -0.52 l
1.41 -0.50 l
1.40 -0.49 l
1.41 -0.48 l
1.41 -0.47 l
1.41 -0.45 l
1.40 -0.44 l
1.41 -0.44 l
1.41 -0.42 l
238.30 89.29 lineto
1.41 -0.39 l
1.41 -0.39 l
1.40 -0.38 l
1.41 -0.37 l
1.41 -0.36 l
1.41 -0.35 l
1.40 -0.35 l
1.41 -0.33 l
1.41 -0.33 l
1.40 -0.31 l
1.41 -0.31 l
1.41 -0.30 l
1.40 -0.30 l
1.41 -0.28 l
1.41 -0.28 l
1.41 -0.27 l
1.40 -0.27 l
1.41 -0.25 l
1.41 -0.26 l
1.40 -0.24 l
1.41 -0.24 l
1.41 -0.23 l
1.41 -0.23 l
1.40 -0.22 l
1.41 -0.21 l
1.41 -0.21 l
1.40 -0.21 l
1.41 -0.20 l
1.41 -0.19 l
1.40 -0.19 l
1.41 -0.19 l
1.41 -0.18 l
1.41 -0.17 l
1.40 -0.17 l
1.41 -0.17 l
1.41 -0.16 l
1.40 -0.16 l
1.41 -0.15 l
1.41 -0.15 l
1.40 -0.15 l
1.41 -0.14 l
1.41 -0.14 l
1.41 -0.14 l
1.40 -0.13 l
1.41 -0.13 l
1.41 -0.12 l
1.40 -0.13 l
1.41 -0.12 l
1.41 -0.11 l
1.41 -0.12 l
1.40 -0.11 l
1.41 -0.10 l
1.41 -0.11 l
1.40 -0.10 l
1.41 -0.10 l
1.41 -0.10 l
1.40 -0.09 l
1.41 -0.09 l
1.41 -0.09 l
1.41 -0.09 l
1.40 -0.09 l
1.41 -0.08 l
1.41 -0.08 l
1.40 -0.08 l
1.41 -0.08 l
1.41 -0.07 l
1.40 -0.08 l
1.41 -0.07 l
1.41 -0.07 l
1.41 -0.06 l
1.40 -0.07 l
1.41 -0.06 l
1.41 -0.07 l
1.40 -0.06 l
1.41 -0.06 l
1.41 -0.06 l
1.41 -0.05 l
1.40 -0.06 l
1.41 -0.05 l
1.41 -0.05 l
1.40 -0.05 l
1.41 -0.05 l
1.41 -0.05 l
1.40 -0.05 l
1.41 -0.05 l
1.41 -0.04 l
1.41 -0.04 l
1.40 -0.05 l
1.41 -0.04 l
1.41 -0.04 l
1.40 -0.04 l
1.41 -0.04 l
1.41 -0.03 l
1.40 -0.04 l
1.41 -0.04 l
1.41 -0.03 l
1.41 -0.03 l
1.40 -0.04 l
1.41 -0.03 l
o
0.00 0.00 432.00 576.00 cl
0 0 0 srgb
0.75 setlinewidth
[] 0 setdash
1 setlinecap
1 setlinejoin
10.00 setmiterlimit
np
97.60 57.60 m
280.00 0 l
o
np
97.60 57.60 m
0 -5.76 l
o
np
153.60 57.60 m
0 -5.76 l
o
np
209.60 57.60 m
0 -5.76 l
o
np
265.60 57.60 m
0 -5.76 l
o
np
321.60 57.60 m
0 -5.76 l
o
np
377.60 57.60 m
0 -5.76 l
o
/Font1 findfont 10 s
97.60 41.47 (0) .5 0 t
153.60 41.47 (500) .5 0 t
209.60 41.47 (1000) .5 0 t
265.60 41.47 (1500) .5 0 t
321.60 41.47 (2000) .5 0 t
377.60 41.47 (2500) .5 0 t
np
86.40 66.13 m
0 216.69 l
o
np
86.40 66.13 m
-5.76 0 l
o
np
86.40 102.25 m
-5.76 0 l
o
np
86.40 138.36 m
-5.76 0 l
o
np
86.40 174.47 m
-5.76 0 l
o
np
86.40 210.59 m
-5.76 0 l
o
np
86.40 246.70 m
-5.76 0 l
o
np
86.40 282.82 m
-5.76 0 l
o
79.49 62.54 (0.00) 1 0 t
79.49 98.66 (0.05) 1 0 t
79.49 134.77 (0.10) 1 0 t
79.49 170.88 (0.15) 1 0 t
79.49 207.00 (0.20) 1 0 t
79.49 243.11 (0.25) 1 0 t
79.49 279.23 (0.30) 1 0 t
np
86.40 57.60 m
302.40 0 l
0 230.40 l
-302.40 0 l
0 -230.40 l
o
0.00 0.00 432.00 576.00 cl
/Font1 findfont 10 s
0 0 0 srgb
237.60 13.82 (Time / ms \(after pulse\)) .5 0 t
49.54 172.80 (Absorbance A) .5 90 t
86.40 57.60 388.80 288.00 cl
/bg { 1 1 1 srgb } def
0 0 0 srgb
0.75 setlinewidth
[] 0 setdash
1 setlinecap
1 setlinejoin
10.00 setmiterlimit
99.00 283.08 0.65 c p3
99.28 270.96 0.65 c p3
99.56 272.38 0.65 c p3
99.84 274.51 0.65 c p3
100.12 267.45 0.65 c p3
100.40 269.56 0.65 c p3
100.68 263.98 0.65 c p3
100.96 263.29 0.65 c p3
101.24 269.56 0.65 c p3
101.52 264.67 0.65 c p3
101.80 262.72 0.65 c p3
102.08 259.98 0.65 c p3
102.36 264.67 0.65 c p3
102.64 262.72 0.65 c p3
102.92 258.62 0.65 c p3
103.20 258.62 0.65 c p3
103.48 261.35 0.65 c p3
103.76 256.59 0.65 c p3
104.04 254.57 0.65 c p3
104.32 254.57 0.65 c p3
104.60 258.62 0.65 c p3
104.88 254.57 0.65 c p3
105.16 249.92 0.65 c p3
105.44 249.92 0.65 c p3
105.72 253.24 0.65 c p3
106.00 252.57 0.65 c p3
106.28 246.63 0.65 c p3
106.56 248.60 0.65 c p3
106.84 251.24 0.65 c p3
107.12 248.60 0.65 c p3
107.40 244.14 0.65 c p3
107.68 244.79 0.65 c p3
107.96 247.29 0.65 c p3
108.24 244.79 0.65 c p3
108.52 238.36 0.65 c p3
108.80 240.28 0.65 c p3
109.08 243.49 0.65 c p3
109.36 243.49 0.65 c p3
109.64 240.28 0.65 c p3
109.92 237.09 0.65 c p3
110.20 234.57 0.65 c p3
110.48 237.73 0.65 c p3
110.76 239.64 0.65 c p3
111.04 232.69 0.65 c p3
111.32 232.06 0.65 c p3
111.60 233.94 0.65 c p3
111.88 237.73 0.65 c p3
112.16 228.45 0.65 c p3
112.44 228.45 0.65 c p3
112.72 228.96 0.65 c p3
113.00 231.44 0.65 c p3
113.28 227.22 0.65 c p3
113.56 225.99 0.65 c p3
113.84 224.77 0.65 c p3
114.12 226.60 0.65 c p3
114.40 227.22 0.65 c p3
114.68 220.53 0.65 c p3
114.96 221.13 0.65 c p3
115.24 225.38 0.65 c p3
115.52 222.95 0.65 c p3
115.80 218.73 0.65 c p3
116.08 219.33 0.65 c p3
116.36 222.34 0.65 c p3
116.64 220.53 0.65 c p3
116.92 215.76 0.65 c p3
117.20 218.14 0.65 c p3
117.48 217.54 0.65 c p3
117.76 218.14 0.65 c p3
118.04 216.35 0.65 c p3
118.32 211.74 0.65 c p3
118.60 212.33 0.65 c p3
118.88 215.17 0.65 c p3
119.16 212.81 0.65 c p3
119.44 209.41 0.65 c p3
119.72 208.83 0.65 c p3
120.00 213.99 0.65 c p3
120.28 209.99 0.65 c p3
120.56 207.10 0.65 c p3
120.84 207.10 0.65 c p3
121.12 209.99 0.65 c p3
121.40 207.68 0.65 c p3
121.68 208.83 0.65 c p3
121.96 206.52 0.65 c p3
122.24 205.38 0.65 c p3
122.52 207.68 0.65 c p3
122.80 200.83 0.65 c p3
123.08 198.02 0.65 c p3
123.36 201.96 0.65 c p3
123.64 203.09 0.65 c p3
123.92 203.09 0.65 c p3
124.20 200.83 0.65 c p3
124.48 199.70 0.65 c p3
124.76 199.70 0.65 c p3
125.04 196.99 0.65 c p3
125.32 197.46 0.65 c p3
125.60 196.44 0.65 c p3
125.88 198.58 0.65 c p3
126.16 197.46 0.65 c p3
126.44 195.32 0.65 c p3
126.72 193.11 0.65 c p3
127.00 194.22 0.65 c p3
127.28 195.32 0.65 c p3
127.56 190.92 0.65 c p3
127.84 190.37 0.65 c p3
128.12 191.47 0.65 c p3
128.40 192.56 0.65 c p3
128.68 191.47 0.65 c p3
128.96 187.11 0.65 c p3
129.24 189.28 0.65 c p3
129.52 188.74 0.65 c p3
129.80 187.11 0.65 c p3
130.08 183.35 0.65 c p3
130.36 188.20 0.65 c p3
130.64 186.57 0.65 c p3
130.92 183.89 0.65 c p3
131.20 181.31 0.65 c p3
131.48 183.89 0.65 c p3
131.76 184.96 0.65 c p3
132.04 183.35 0.65 c p3
132.32 181.31 0.65 c p3
132.60 182.82 0.65 c p3
132.88 185.50 0.65 c p3
133.16 182.82 0.65 c p3
133.44 181.31 0.65 c p3
133.72 178.15 0.65 c p3
134.00 177.62 0.65 c p3
134.28 178.67 0.65 c p3
134.56 178.15 0.65 c p3
134.84 176.05 0.65 c p3
135.12 179.20 0.65 c p3
135.40 177.10 0.65 c p3
135.68 175.01 0.65 c p3
135.96 173.45 0.65 c p3
136.24 175.01 0.65 c p3
136.52 177.10 0.65 c p3
136.80 172.94 0.65 c p3
137.08 170.88 0.65 c p3
137.36 171.91 0.65 c p3
137.64 173.97 0.65 c p3
137.92 171.91 0.65 c p3
138.20 169.85 0.65 c p3
138.48 169.85 0.65 c p3
138.76 170.88 0.65 c p3
139.04 169.34 0.65 c p3
139.32 167.90 0.65 c p3
139.60 166.38 0.65 c p3
139.88 169.85 0.65 c p3
140.16 170.37 0.65 c p3
140.44 169.34 0.65 c p3
140.72 166.38 0.65 c p3
141.00 165.87 0.65 c p3
141.28 168.83 0.65 c p3
141.56 165.87 0.65 c p3
141.84 164.87 0.65 c p3
142.12 165.87 0.65 c p3
142.40 163.36 0.65 c p3
142.68 161.86 0.65 c p3
142.96 161.36 0.65 c p3
143.24 160.86 0.65 c p3
143.52 162.36 0.65 c p3
143.80 162.86 0.65 c p3
144.08 163.36 0.65 c p3
144.36 160.37 0.65 c p3
144.64 158.88 0.65 c p3
144.92 162.36 0.65 c p3
145.20 160.86 0.65 c p3
145.48 157.40 0.65 c p3
145.76 157.90 0.65 c p3
146.04 159.87 0.65 c p3
146.32 159.87 0.65 c p3
146.60 156.91 0.65 c p3
146.88 154.06 0.65 c p3
147.16 157.90 0.65 c p3
147.44 156.42 0.65 c p3
147.72 156.91 0.65 c p3
148.00 155.44 0.65 c p3
148.28 153.58 0.65 c p3
148.56 154.55 0.65 c p3
148.84 155.93 0.65 c p3
149.12 153.58 0.65 c p3
149.40 153.09 0.65 c p3
149.68 155.04 0.65 c p3
149.96 152.12 0.65 c p3
150.24 150.20 0.65 c p3
150.52 148.76 0.65 c p3
150.80 152.61 0.65 c p3
151.08 151.16 0.65 c p3
151.36 150.68 0.65 c p3
151.64 150.68 0.65 c p3
151.92 150.20 0.65 c p3
152.20 151.16 0.65 c p3
152.48 147.80 0.65 c p3
152.76 144.96 0.65 c p3
153.04 148.76 0.65 c p3
153.32 148.28 0.65 c p3
153.60 148.76 0.65 c p3
153.88 143.54 0.65 c p3
154.16 145.43 0.65 c p3
154.44 147.33 0.65 c p3
154.72 145.43 0.65 c p3
155.00 146.38 0.65 c p3
155.28 144.48 0.65 c p3
155.56 147.33 0.65 c p3
155.84 144.96 0.65 c p3
156.12 141.74 0.65 c p3
156.40 141.28 0.65 c p3
156.68 141.28 0.65 c p3
156.96 144.01 0.65 c p3
157.24 139.88 0.65 c p3
157.52 141.28 0.65 c p3
157.80 143.54 0.65 c p3
158.08 143.54 0.65 c p3
158.36 140.34 0.65 c p3
158.64 138.49 0.65 c p3
158.92 141.28 0.65 c p3
159.20 142.60 0.65 c p3
159.48 139.88 0.65 c p3
159.76 140.34 0.65 c p3
160.04 139.42 0.65 c p3
160.32 141.28 0.65 c p3
160.60 137.56 0.65 c p3
160.88 136.18 0.65 c p3
161.16 136.64 0.65 c p3
161.44 138.49 0.65 c p3
161.72 137.56 0.65 c p3
162.00 133.44 0.65 c p3
162.28 136.18 0.65 c p3
162.56 138.49 0.65 c p3
162.84 135.27 0.65 c p3
163.12 134.35 0.65 c p3
163.40 133.44 0.65 c p3
163.68 135.72 0.65 c p3
163.96 133.89 0.65 c p3
164.24 133.89 0.65 c p3
164.52 131.62 0.65 c p3
164.80 137.10 0.65 c p3
165.08 133.44 0.65 c p3
165.36 131.62 0.65 c p3
165.64 129.44 0.65 c p3
165.92 130.72 0.65 c p3
166.20 133.44 0.65 c p3
166.48 132.08 0.65 c p3
166.76 130.27 0.65 c p3
167.04 129.89 0.65 c p3
167.32 130.72 0.65 c p3
167.60 129.44 0.65 c p3
167.88 128.10 0.65 c p3
168.16 129.89 0.65 c p3
168.44 131.62 0.65 c p3
168.72 130.72 0.65 c p3
169.00 126.31 0.65 c p3
169.28 128.54 0.65 c p3
169.56 129.89 0.65 c p3
169.84 127.65 0.65 c p3
170.12 127.20 0.65 c p3
170.40 127.65 0.65 c p3
170.68 129.89 0.65 c p3
170.96 128.99 0.65 c p3
171.24 126.31 0.65 c p3
171.52 125.42 0.65 c p3
171.80 125.42 0.65 c p3
172.08 127.65 0.65 c p3
172.36 128.54 0.65 c p3
172.64 123.21 0.65 c p3
172.92 123.21 0.65 c p3
173.20 126.31 0.65 c p3
173.48 124.98 0.65 c p3
173.76 124.54 0.65 c p3
174.04 125.42 0.65 c p3
174.32 124.09 0.65 c p3
174.60 122.77 0.65 c p3
174.88 122.33 0.65 c p3
175.16 120.58 0.65 c p3
175.44 124.98 0.65 c p3
175.72 124.98 0.65 c p3
176.00 123.21 0.65 c p3
176.28 121.45 0.65 c p3
176.56 120.58 0.65 c p3
176.84 124.98 0.65 c p3
177.12 121.01 0.65 c p3
177.40 119.70 0.65 c p3
177.68 121.01 0.65 c p3
177.96 122.77 0.65 c p3
178.24 119.27 0.65 c p3
178.52 118.83 0.65 c p3
178.80 118.83 0.65 c p3
179.08 121.01 0.65 c p3
179.36 118.40 0.65 c p3
179.64 118.83 0.65 c p3
179.92 118.04 0.65 c p3
180.20 122.77 0.65 c p3
180.48 118.04 0.65 c p3
180.76 119.70 0.65 c p3
181.04 112.88 0.65 c p3
181.32 114.59 0.65 c p3
181.60 119.70 0.65 c p3
181.88 115.02 0.65 c p3
182.16 118.83 0.65 c p3
182.44 119.27 0.65 c p3
182.72 116.31 0.65 c p3
183.00 117.17 0.65 c p3
183.28 115.88 0.65 c p3
183.56 115.45 0.65 c p3
183.84 115.45 0.65 c p3
184.12 114.16 0.65 c p3
184.40 114.16 0.65 c p3
184.68 115.45 0.65 c p3
184.96 118.04 0.65 c p3
185.24 115.88 0.65 c p3
185.52 114.59 0.65 c p3
185.80 112.03 0.65 c p3
186.08 118.04 0.65 c p3
186.36 114.59 0.65 c p3
186.64 112.88 0.65 c p3
186.92 115.02 0.65 c p3
187.20 114.59 0.65 c p3
187.48 113.30 0.65 c p3
187.76 110.33 0.65 c p3
188.04 112.88 0.65 c p3
188.32 112.45 0.65 c p3
188.60 112.03 0.65 c p3
188.88 110.75 0.65 c p3
189.16 111.60 0.65 c p3
189.44 112.03 0.65 c p3
189.72 112.03 0.65 c p3
190.00 112.03 0.65 c p3
190.28 111.60 0.65 c p3
190.56 111.60 0.65 c p3
190.84 112.88 0.65 c p3
191.12 113.30 0.65 c p3
191.40 110.33 0.65 c p3
191.68 112.03 0.65 c p3
191.96 109.91 0.65 c p3
192.24 110.33 0.65 c p3
192.52 110.33 0.65 c p3
192.80 110.75 0.65 c p3
193.08 110.33 0.65 c p3
193.36 108.64 0.65 c p3
193.64 109.48 0.65 c p3
193.92 111.60 0.65 c p3
194.20 110.33 0.65 c p3
194.48 109.48 0.65 c p3
194.76 108.22 0.65 c p3
195.04 109.06 0.65 c p3
195.32 107.80 0.65 c p3
195.60 108.22 0.65 c p3
195.88 107.38 0.65 c p3
196.16 106.96 0.65 c p3
196.44 107.38 0.65 c p3
196.72 107.80 0.65 c p3
197.00 106.96 0.65 c p3
197.28 104.53 0.65 c p3
197.56 106.96 0.65 c p3
197.84 105.78 0.65 c p3
198.12 105.36 0.65 c p3
198.40 105.78 0.65 c p3
198.68 106.96 0.65 c p3
198.96 106.61 0.65 c p3
199.24 104.53 0.65 c p3
199.52 102.87 0.65 c p3
199.80 105.36 0.65 c p3
200.08 106.20 0.65 c p3
200.36 103.70 0.65 c p3
200.64 103.29 0.65 c p3
200.92 104.95 0.65 c p3
201.20 104.95 0.65 c p3
201.48 104.12 0.65 c p3
201.76 103.29 0.65 c p3
202.04 102.46 0.65 c p3
202.32 102.46 0.65 c p3
202.60 105.36 0.65 c p3
202.88 106.20 0.65 c p3
203.16 102.46 0.65 c p3
203.44 104.12 0.65 c p3
203.72 102.46 0.65 c p3
204.00 101.64 0.65 c p3
204.28 100.00 0.65 c p3
204.56 102.05 0.65 c p3
204.84 104.53 0.65 c p3
205.12 102.46 0.65 c p3
205.40 104.53 0.65 c p3
205.68 100.81 0.65 c p3
205.96 102.05 0.65 c p3
206.24 100.81 0.65 c p3
206.52 102.05 0.65 c p3
206.80 104.53 0.65 c p3
207.08 103.29 0.65 c p3
207.36 102.05 0.65 c p3
207.64 98.36 0.65 c p3
207.92 100.00 0.65 c p3
208.20 101.64 0.65 c p3
208.48 101.23 0.65 c p3
208.76 100.00 0.65 c p3
209.04 101.23 0.65 c p3
209.32 104.95 0.65 c p3
209.60 102.46 0.65 c p3
209.88 100.81 0.65 c p3
210.16 100.81 0.65 c p3
210.44 100.00 0.65 c p3
210.72 100.00 0.65 c p3
211.00 99.59 0.65 c p3
211.28 99.59 0.65 c p3
211.56 100.00 0.65 c p3
211.84 99.18 0.65 c p3
212.12 99.18 0.65 c p3
212.40 100.00 0.65 c p3
212.68 97.14 0.65 c p3
212.96 97.96 0.65 c p3
213.24 97.14 0.65 c p3
213.52 97.55 0.65 c p3
213.80 97.96 0.65 c p3
214.08 100.00 0.65 c p3
214.36 97.14 0.65 c p3
214.64 100.40 0.65 c p3
214.92 97.14 0.65 c p3
215.20 101.23 0.65 c p3
215.48 98.36 0.65 c p3
215.76 97.96 0.65 c p3
216.04 97.96 0.65 c p3
216.32 97.55 0.65 c p3
216.60 98.36 0.65 c p3
216.88 97.55 0.65 c p3
217.16 94.79 0.65 c p3
217.44 96.33 0.65 c p3
217.72 97.96 0.65 c p3
218.00 95.93 0.65 c p3
218.28 97.14 0.65 c p3
218.56 98.36 0.65 c p3
218.84 97.55 0.65 c p3
219.12 95.93 0.65 c p3
219.40 95.59 0.65 c p3
219.68 96.33 0.65 c p3
219.96 95.59 0.65 c p3
220.24 97.55 0.65 c p3
220.52 96.74 0.65 c p3
220.80 96.33 0.65 c p3
221.08 95.93 0.65 c p3
221.36 91.58 0.65 c p3
221.64 93.98 0.65 c p3
221.92 97.14 0.65 c p3
222.20 93.58 0.65 c p3
222.48 94.79 0.65 c p3
222.76 98.36 0.65 c p3
223.04 93.98 0.65 c p3
223.32 95.59 0.65 c p3
223.60 95.93 0.65 c p3
223.88 92.38 0.65 c p3
224.16 96.74 0.65 c p3
224.44 95.59 0.65 c p3
224.72 95.59 0.65 c p3
225.00 96.74 0.65 c p3
225.28 94.38 0.65 c p3
225.56 93.58 0.65 c p3
225.84 93.98 0.65 c p3
226.12 93.98 0.65 c p3
226.40 94.38 0.65 c p3
226.68 94.38 0.65 c p3
226.96 93.58 0.65 c p3
227.24 92.38 0.65 c p3
227.52 93.18 0.65 c p3
227.80 95.19 0.65 c p3
228.08 92.38 0.65 c p3
228.36 93.58 0.65 c p3
228.64 94.79 0.65 c p3
228.92 89.99 0.65 c p3
229.20 93.98 0.65 c p3
229.48 92.38 0.65 c p3
229.76 91.58 0.65 c p3
230.04 90.39 0.65 c p3
230.32 92.78 0.65 c p3
230.60 88.41 0.65 c p3
230.88 92.38 0.65 c p3
231.16 93.58 0.65 c p3
231.44 89.99 0.65 c p3
231.72 91.98 0.65 c p3
232.00 91.98 0.65 c p3
232.28 92.78 0.65 c p3
232.56 90.79 0.65 c p3
232.84 89.99 0.65 c p3
233.12 91.18 0.65 c p3
233.40 88.41 0.65 c p3
233.68 93.58 0.65 c p3
233.96 91.58 0.65 c p3
234.24 92.78 0.65 c p3
234.52 92.38 0.65 c p3
234.80 90.79 0.65 c p3
235.08 91.58 0.65 c p3
235.36 91.18 0.65 c p3
235.64 91.58 0.65 c p3
235.92 89.60 0.65 c p3
236.20 89.20 0.65 c p3
236.48 88.80 0.65 c p3
236.76 89.60 0.65 c p3
237.04 88.41 0.65 c p3
237.32 89.99 0.65 c p3
237.60 90.79 0.65 c p3
237.88 92.38 0.65 c p3
238.16 89.20 0.65 c p3
238.44 88.80 0.65 c p3
238.72 90.39 0.65 c p3
239.00 89.60 0.65 c p3
239.28 89.60 0.65 c p3
239.56 89.60 0.65 c p3
239.84 89.99 0.65 c p3
240.12 88.02 0.65 c p3
240.40 89.20 0.65 c p3
240.68 86.44 0.65 c p3
240.96 89.60 0.65 c p3
241.24 89.99 0.65 c p3
241.52 84.94 0.65 c p3
241.80 88.41 0.65 c p3
242.08 88.02 0.65 c p3
242.36 85.27 0.65 c p3
242.64 89.20 0.65 c p3
242.92 88.41 0.65 c p3
243.20 82.23 0.65 c p3
243.48 86.05 0.65 c p3
243.76 87.23 0.65 c p3
244.04 88.41 0.65 c p3
244.32 88.41 0.65 c p3
244.60 92.38 0.65 c p3
244.88 90.39 0.65 c p3
245.16 89.99 0.65 c p3
245.44 88.02 0.65 c p3
245.72 90.39 0.65 c p3
246.00 89.60 0.65 c p3
246.28 91.98 0.65 c p3
246.56 87.23 0.65 c p3
246.84 87.62 0.65 c p3
247.12 87.23 0.65 c p3
247.40 84.55 0.65 c p3
247.68 83.39 0.65 c p3
247.96 84.55 0.65 c p3
248.24 84.55 0.65 c p3
248.52 84.55 0.65 c p3
248.80 84.94 0.65 c p3
249.08 84.17 0.65 c p3
249.36 85.27 0.65 c p3
249.64 86.84 0.65 c p3
249.92 87.23 0.65 c p3
250.20 87.23 0.65 c p3
250.48 86.05 0.65 c p3
250.76 87.62 0.65 c p3
251.04 84.94 0.65 c p3
251.32 87.62 0.65 c p3
251.60 88.80 0.65 c p3
251.88 88.02 0.65 c p3
252.16 86.05 0.65 c p3
252.44 88.02 0.65 c p3
252.72 86.44 0.65 c p3
253.00 86.44 0.65 c p3
253.28 86.05 0.65 c p3
253.56 84.55 0.65 c p3
253.84 85.66 0.65 c p3
254.12 86.05 0.65 c p3
254.40 84.55 0.65 c p3
254.68 84.55 0.65 c p3
254.96 84.55 0.65 c p3
255.24 86.05 0.65 c p3
255.52 82.23 0.65 c p3
255.80 87.23 0.65 c p3
256.08 87.62 0.65 c p3
256.36 86.44 0.65 c p3
256.64 85.66 0.65 c p3
256.92 84.55 0.65 c p3
257.20 84.94 0.65 c p3
257.48 87.23 0.65 c p3
257.76 83.78 0.65 c p3
258.04 87.23 0.65 c p3
258.32 87.23 0.65 c p3
258.60 85.27 0.65 c p3
258.88 85.27 0.65 c p3
259.16 88.41 0.65 c p3
259.44 84.55 0.65 c p3
259.72 86.44 0.65 c p3
260.00 85.27 0.65 c p3
260.28 84.17 0.65 c p3
260.56 84.94 0.65 c p3
260.84 83.78 0.65 c p3
261.12 83.78 0.65 c p3
261.40 83.00 0.65 c p3
261.68 82.61 0.65 c p3
261.96 81.84 0.65 c p3
262.24 82.61 0.65 c p3
262.52 83.39 0.65 c p3
262.80 83.78 0.65 c p3
263.08 83.39 0.65 c p3
263.36 86.05 0.65 c p3
263.64 85.66 0.65 c p3
263.92 82.61 0.65 c p3
264.20 84.17 0.65 c p3
264.48 85.27 0.65 c p3
264.76 82.61 0.65 c p3
265.04 84.94 0.65 c p3
265.32 86.05 0.65 c p3
265.60 84.55 0.65 c p3
265.88 83.78 0.65 c p3
266.16 82.23 0.65 c p3
266.44 84.17 0.65 c p3
266.72 84.94 0.65 c p3
267.00 83.39 0.65 c p3
267.28 81.84 0.65 c p3
267.56 85.27 0.65 c p3
267.84 83.78 0.65 c p3
268.12 80.30 0.65 c p3
268.40 83.39 0.65 c p3
268.68 83.78 0.65 c p3
268.96 81.84 0.65 c p3
269.24 83.39 0.65 c p3
269.52 83.39 0.65 c p3
269.80 83.39 0.65 c p3
270.08 82.61 0.65 c p3
270.36 82.61 0.65 c p3
270.64 81.84 0.65 c p3
270.92 81.07 0.65 c p3
271.20 81.45 0.65 c p3
271.48 83.39 0.65 c p3
271.76 82.61 0.65 c p3
272.04 81.07 0.65 c p3
272.32 83.78 0.65 c p3
272.60 82.23 0.65 c p3
272.88 83.00 0.65 c p3
273.16 81.07 0.65 c p3
273.44 83.39 0.65 c p3
273.72 83.78 0.65 c p3
274.00 81.84 0.65 c p3
274.28 83.00 0.65 c p3
274.56 83.39 0.65 c p3
274.84 83.39 0.65 c p3
275.12 81.84 0.65 c p3
275.40 79.91 0.65 c p3
275.68 82.61 0.65 c p3
275.96 80.68 0.65 c p3
276.24 82.61 0.65 c p3
276.52 83.00 0.65 c p3
276.80 81.84 0.65 c p3
277.08 80.68 0.65 c p3
277.36 80.68 0.65 c p3
277.64 80.30 0.65 c p3
277.92 83.00 0.65 c p3
278.20 81.84 0.65 c p3
278.48 82.61 0.65 c p3
278.76 81.07 0.65 c p3
279.04 81.07 0.65 c p3
279.32 82.23 0.65 c p3
279.60 83.00 0.65 c p3
279.88 83.00 0.65 c p3
280.16 81.84 0.65 c p3
280.44 83.78 0.65 c p3
280.72 83.00 0.65 c p3
281.00 81.07 0.65 c p3
281.28 81.84 0.65 c p3
281.56 78.38 0.65 c p3
281.84 79.91 0.65 c p3
282.12 78.38 0.65 c p3
282.40 79.15 0.65 c p3
282.68 81.45 0.65 c p3
282.96 81.45 0.65 c p3
283.24 80.68 0.65 c p3
283.52 81.07 0.65 c p3
283.80 79.53 0.65 c p3
284.08 82.61 0.65 c p3
284.36 79.53 0.65 c p3
284.64 79.53 0.65 c p3
284.92 81.84 0.65 c p3
285.20 82.61 0.65 c p3
285.48 79.53 0.65 c p3
285.76 80.30 0.65 c p3
286.04 80.68 0.65 c p3
286.32 81.07 0.65 c p3
286.60 79.15 0.65 c p3
286.88 76.86 0.65 c p3
287.16 80.30 0.65 c p3
287.44 80.68 0.65 c p3
287.72 80.68 0.65 c p3
288.00 81.07 0.65 c p3
288.28 81.07 0.65 c p3
288.56 77.62 0.65 c p3
288.84 80.68 0.65 c p3
289.12 79.15 0.65 c p3
289.40 79.15 0.65 c p3
289.68 79.53 0.65 c p3
289.96 80.30 0.65 c p3
290.24 77.62 0.65 c p3
290.52 78.00 0.65 c p3
290.80 79.53 0.65 c p3
291.08 79.53 0.65 c p3
291.36 78.00 0.65 c p3
291.64 80.30 0.65 c p3
291.92 80.68 0.65 c p3
292.20 79.53 0.65 c p3
292.48 78.38 0.65 c p3
292.76 81.45 0.65 c p3
293.04 78.38 0.65 c p3
293.32 79.91 0.65 c p3
293.60 80.30 0.65 c p3
293.88 79.53 0.65 c p3
294.16 78.76 0.65 c p3
294.44 80.30 0.65 c p3
294.72 79.15 0.65 c p3
295.00 78.76 0.65 c p3
295.28 79.53 0.65 c p3
295.56 75.72 0.65 c p3
295.84 79.53 0.65 c p3
296.12 79.53 0.65 c p3
296.40 80.30 0.65 c p3
296.68 78.38 0.65 c p3
296.96 79.53 0.65 c p3
297.24 77.62 0.65 c p3
297.52 78.00 0.65 c p3
297.80 76.48 0.65 c p3
298.08 81.07 0.65 c p3
298.36 79.15 0.65 c p3
298.64 78.38 0.65 c p3
298.92 76.48 0.65 c p3
299.20 79.15 0.65 c p3
299.48 78.00 0.65 c p3
299.76 77.24 0.65 c p3
300.04 78.76 0.65 c p3
300.32 79.15 0.65 c p3
300.60 78.76 0.65 c p3
300.88 79.15 0.65 c p3
301.16 78.00 0.65 c p3
301.44 77.62 0.65 c p3
301.72 77.62 0.65 c p3
302.00 78.76 0.65 c p3
302.28 76.48 0.65 c p3
302.56 75.34 0.65 c p3
302.84 78.38 0.65 c p3
303.12 78.38 0.65 c p3
303.40 78.38 0.65 c p3
303.68 79.15 0.65 c p3
303.96 77.62 0.65 c p3
304.24 77.24 0.65 c p3
304.52 77.62 0.65 c p3
304.80 76.86 0.65 c p3
305.08 77.62 0.65 c p3
305.36 79.15 0.65 c p3
305.64 76.48 0.65 c p3
305.92 79.91 0.65 c p3
306.20 79.53 0.65 c p3
306.48 76.10 0.65 c p3
306.76 78.38 0.65 c p3
307.04 75.72 0.65 c p3
307.32 79.15 0.65 c p3
307.60 76.86 0.65 c p3
307.88 78.38 0.65 c p3
308.16 77.62 0.65 c p3
308.44 78.76 0.65 c p3
308.72 78.76 0.65 c p3
309.00 77.62 0.65 c p3
309.28 77.24 0.65 c p3
309.56 79.53 0.65 c p3
309.84 79.15 0.65 c p3
310.12 74.65 0.65 c p3
310.40 75.72 0.65 c p3
310.68 76.10 0.65 c p3
310.96 76.10 0.65 c p3
311.24 76.86 0.65 c p3
311.52 77.62 0.65 c p3
311.80 78.00 0.65 c p3
312.08 77.62 0.65 c p3
312.36 78.38 0.65 c p3
312.64 78.38 0.65 c p3
312.92 77.24 0.65 c p3
313.20 75.34 0.65 c p3
313.48 73.14 0.65 c p3
313.76 77.62 0.65 c p3
314.04 76.48 0.65 c p3
314.32 75.72 0.65 c p3
314.60 76.48 0.65 c p3
314.88 76.86 0.65 c p3
315.16 76.86 0.65 c p3
315.44 78.76 0.65 c p3
315.72 77.24 0.65 c p3
316.00 77.62 0.65 c p3
316.28 76.86 0.65 c p3
316.56 78.38 0.65 c p3
316.84 75.72 0.65 c p3
317.12 75.72 0.65 c p3
317.40 79.15 0.65 c p3
317.68 75.72 0.65 c p3
317.96 75.34 0.65 c p3
318.24 77.24 0.65 c p3
318.52 76.86 0.65 c p3
318.80 76.48 0.65 c p3
319.08 77.62 0.65 c p3
319.36 76.10 0.65 c p3
319.64 76.48 0.65 c p3
319.92 74.96 0.65 c p3
320.20 75.34 0.65 c p3
320.48 75.72 0.65 c p3
320.76 76.48 0.65 c p3
321.04 76.48 0.65 c p3
321.32 79.53 0.65 c p3
321.60 76.10 0.65 c p3
321.88 76.10 0.65 c p3
322.16 73.52 0.65 c p3
322.44 74.96 0.65 c p3
322.72 77.24 0.65 c p3
323.00 75.72 0.65 c p3
323.28 77.62 0.65 c p3
323.56 74.96 0.65 c p3
323.84 76.48 0.65 c p3
324.12 75.34 0.65 c p3
324.40 74.27 0.65 c p3
324.68 76.48 0.65 c p3
324.96 76.10 0.65 c p3
325.24 75.34 0.65 c p3
325.52 75.72 0.65 c p3
325.80 77.24 0.65 c p3
326.08 79.53 0.65 c p3
326.36 75.34 0.65 c p3
326.64 74.27 0.65 c p3
326.92 75.72 0.65 c p3
327.20 76.86 0.65 c p3
327.48 75.34 0.65 c p3
327.76 75.72 0.65 c p3
328.04 75.72 0.65 c p3
328.32 76.10 0.65 c p3
328.60 75.72 0.65 c p3
328.88 74.65 0.65 c p3
329.16 76.86 0.65 c p3
329.44 77.24 0.65 c p3
329.72 76.48 0.65 c p3
330.00 76.10 0.65 c p3
330.28 76.86 0.65 c p3
330.56 73.89 0.65 c p3
330.84 77.24 0.65 c p3
331.12 75.72 0.65 c p3
331.40 75.34 0.65 c p3
331.68 74.65 0.65 c p3
331.96 77.24 0.65 c p3
332.24 75.72 0.65 c p3
332.52 75.34 0.65 c p3
332.80 76.10 0.65 c p3
333.08 74.27 0.65 c p3
333.36 76.86 0.65 c p3
333.64 75.72 0.65 c p3
333.92 76.10 0.65 c p3
334.20 73.89 0.65 c p3
334.48 77.24 0.65 c p3
334.76 74.96 0.65 c p3
335.04 76.10 0.65 c p3
335.32 74.65 0.65 c p3
335.60 73.14 0.65 c p3
335.88 73.89 0.65 c p3
336.16 74.65 0.65 c p3
336.44 75.72 0.65 c p3
336.72 74.65 0.65 c p3
337.00 76.10 0.65 c p3
216.00 201.60 367.20 247.68 cl
0 0 0 srgb
0.75 setlinewidth
[] 0 setdash
1 setlinecap
1 setlinejoin
10.00 setmiterlimit
221.60 238.86 0.43 c p1
221.76 220.97 0.43 c p1
221.93 224.90 0.43 c p1
222.09 229.98 0.43 c p1
222.26 220.21 0.43 c p1
222.42 225.22 0.43 c p1
222.59 217.84 0.43 c p1
222.75 218.33 0.43 c p1
222.92 230.03 0.43 c p1
223.08 223.74 0.43 c p1
223.25 222.17 0.43 c p1
223.41 219.32 0.43 c p1
223.58 228.46 0.43 c p1
223.74 226.86 0.43 c p1
223.91 221.79 0.43 c p1
224.07 223.33 0.43 c p1
224.24 229.26 0.43 c p1
224.40 223.11 0.43 c p1
224.56 221.37 0.43 c p1
224.73 222.88 0.43 c p1
224.89 230.91 0.43 c p1
225.06 225.87 0.43 c p1
225.22 219.84 0.43 c p1
225.39 221.32 0.43 c p1
225.55 228.15 0.43 c p1
225.72 228.53 0.43 c p1
225.88 220.41 0.43 c p1
226.05 225.03 0.43 c p1
226.21 230.73 0.43 c p1
226.38 227.90 0.43 c p1
226.54 222.13 0.43 c p1
226.71 224.60 0.43 c p1
226.87 230.04 0.43 c p1
227.04 227.41 0.43 c p1
227.20 218.43 0.43 c p1
227.36 222.91 0.43 c p1
227.53 229.48 0.43 c p1
227.69 230.86 0.43 c p1
227.86 227.04 0.43 c p1
228.02 223.26 0.43 c p1
228.19 220.54 0.43 c p1
228.35 226.98 0.43 c p1
228.52 231.41 0.43 c p1
228.68 221.53 0.43 c p1
228.85 221.85 0.43 c p1
229.01 226.19 0.43 c p1
229.18 233.62 0.43 c p1
229.34 219.95 0.43 c p1
229.51 221.25 0.43 c p1
229.67 223.37 0.43 c p1
229.84 228.66 0.43 c p1
230.00 223.13 0.43 c p1
230.16 222.42 0.43 c p1
230.33 221.72 0.43 c p1
230.49 225.93 0.43 c p1
230.66 228.18 0.43 c p1
230.82 218.64 0.43 c p1
230.99 220.85 0.43 c p1
231.15 228.94 0.43 c p1
231.32 226.24 0.43 c p1
231.48 220.67 0.43 c p1
231.65 222.85 0.43 c p1
231.81 228.92 0.43 c p1
231.98 227.20 0.43 c p1
232.14 220.70 0.43 c p1
232.31 225.72 0.43 c p1
232.47 225.95 0.43 c p1
232.64 228.09 0.43 c p1
232.80 226.38 0.43 c p1
232.96 220.11 0.43 c p1
233.13 222.21 0.43 c p1
233.29 227.96 0.43 c p1
233.46 225.31 0.43 c p1
233.62 220.96 0.43 c p1
233.79 221.16 0.43 c p1
233.95 230.62 0.43 c p1
234.12 225.29 0.43 c p1
234.28 221.75 0.43 c p1
234.45 222.86 0.43 c p1
234.61 228.64 0.43 c p1
234.78 226.00 0.43 c p1
234.94 228.97 0.43 c p1
235.11 226.33 0.43 c p1
235.27 225.57 0.43 c p1
235.44 230.36 0.43 c p1
235.60 220.39 0.43 c p1
235.76 216.92 0.43 c p1
235.93 224.35 0.43 c p1
236.09 227.23 0.43 c p1
236.26 228.29 0.43 c p1
236.42 225.68 0.43 c p1
236.59 224.91 0.43 c p1
236.75 225.94 0.43 c p1
236.92 222.61 0.43 c p1
237.08 224.38 0.43 c p1
237.25 223.76 0.43 c p1
237.41 228.23 0.43 c p1
237.58 227.43 0.43 c p1
237.74 225.00 0.43 c p1
237.91 222.43 0.43 c p1
238.07 225.21 0.43 c p1
238.24 227.99 0.43 c p1
238.40 221.86 0.43 c p1
238.56 221.96 0.43 c p1
238.73 224.70 0.43 c p1
238.89 227.44 0.43 c p1
239.06 226.64 0.43 c p1
239.22 220.58 0.43 c p1
239.39 225.03 0.43 c p1
239.55 225.11 0.43 c p1
239.72 223.43 0.43 c p1
239.88 218.31 0.43 c p1
240.05 227.06 0.43 c p1
240.21 225.37 0.43 c p1
240.38 221.96 0.43 c p1
240.54 218.73 0.43 c p1
240.71 223.80 0.43 c p1
240.87 226.45 0.43 c p1
241.04 224.76 0.43 c p1
241.20 222.38 0.43 c p1
241.36 225.70 0.43 c p1
241.53 230.92 0.43 c p1
241.69 227.49 0.43 c p1
241.86 225.94 0.43 c p1
242.02 221.71 0.43 c p1
242.19 221.74 0.43 c p1
242.35 224.31 0.43 c p1
242.52 224.33 0.43 c p1
242.68 221.82 0.43 c p1
242.85 227.75 0.43 c p1
243.01 225.22 0.43 c p1
243.18 222.70 0.43 c p1
243.34 221.03 0.43 c p1
243.51 224.39 0.43 c p1
243.67 228.59 0.43 c p1
243.84 222.71 0.43 c p1
244.00 220.22 0.43 c p1
244.16 222.70 0.43 c p1
244.33 226.85 0.43 c p1
244.49 224.34 0.43 c p1
244.66 221.83 0.43 c p1
244.82 222.64 0.43 c p1
244.99 225.10 0.43 c p1
245.15 223.42 0.43 c p1
245.32 221.89 0.43 c p1
245.48 220.22 0.43 c p1
245.65 226.62 0.43 c p1
245.81 228.23 0.43 c p1
245.98 227.36 0.43 c p1
246.14 223.35 0.43 c p1
246.31 223.30 0.43 c p1
246.47 228.85 0.43 c p1
246.64 224.83 0.43 c p1
246.80 223.97 0.43 c p1
246.96 226.35 0.43 c p1
247.13 223.04 0.43 c p1
247.29 221.37 0.43 c p1
247.46 221.31 0.43 c p1
247.62 221.25 0.43 c p1
247.79 224.40 0.43 c p1
247.95 225.94 0.43 c p1
248.12 227.47 0.43 c p1
248.28 223.37 0.43 c p1
248.45 221.70 0.43 c p1
248.61 228.02 0.43 c p1
248.78 226.33 0.43 c p1
248.94 221.45 0.43 c p1
249.11 222.95 0.43 c p1
249.27 226.84 0.43 c p1
249.44 227.54 0.43 c p1
249.60 223.47 0.43 c p1
249.76 219.56 0.43 c p1
249.93 226.43 0.43 c p1
250.09 224.74 0.43 c p1
250.26 226.22 0.43 c p1
250.42 224.52 0.43 c p1
250.59 222.19 0.43 c p1
250.75 224.43 0.43 c p1
250.92 227.33 0.43 c p1
251.08 224.19 0.43 c p1
251.25 224.07 0.43 c p1
251.41 227.87 0.43 c p1
251.58 223.82 0.43 c p1
251.74 221.36 0.43 c p1
251.91 219.69 0.43 c p1
252.07 226.55 0.43 c p1
252.24 224.85 0.43 c p1
252.40 224.71 0.43 c p1
252.56 225.34 0.43 c p1
252.73 225.20 0.43 c p1
252.89 227.38 0.43 c p1
253.06 222.59 0.43 c p1
253.22 218.62 0.43 c p1
253.39 225.37 0.43 c p1
253.55 225.22 0.43 c p1
253.72 226.60 0.43 c p1
253.88 218.80 0.43 c p1
254.05 222.45 0.43 c p1
254.21 226.11 0.43 c p1
254.38 223.65 0.43 c p1
254.54 225.78 0.43 c p1
254.71 223.32 0.43 c p1
254.87 228.50 0.43 c p1
255.04 225.26 0.43 c p1
255.20 220.66 0.43 c p1
255.36 220.49 0.43 c p1
255.53 221.07 0.43 c p1
255.69 226.06 0.43 c p1
255.86 219.96 0.43 c p1
256.02 222.79 0.43 c p1
256.19 227.01 0.43 c p1
256.35 227.57 0.43 c p1
256.52 222.97 0.43 c p1
256.68 220.54 0.43 c p1
256.85 225.59 0.43 c p1
257.01 228.28 0.43 c p1
257.18 224.44 0.43 c p1
257.34 225.74 0.43 c p1
257.51 224.78 0.43 c p1
257.67 228.33 0.43 c p1
257.84 222.88 0.43 c p1
258.00 221.18 0.43 c p1
258.16 222.46 0.43 c p1
258.33 225.97 0.43 c p1
258.49 225.01 0.43 c p1
258.66 218.87 0.43 c p1
258.82 223.82 0.43 c p1
258.99 228.06 0.43 c p1
259.15 223.38 0.43 c p1
259.32 222.42 0.43 c p1
259.48 221.46 0.43 c p1
259.65 225.66 0.43 c p1
259.81 223.21 0.43 c p1
259.98 223.72 0.43 c p1
260.14 220.55 0.43 c p1
260.31 229.90 0.43 c p1
260.47 224.48 0.43 c p1
260.64 222.04 0.43 c p1
260.80 219.01 0.43 c p1
260.96 221.56 0.43 c p1
261.13 226.44 0.43 c p1
261.29 224.72 0.43 c p1
261.46 222.29 0.43 c p1
261.62 222.16 0.43 c p1
261.79 223.97 0.43 c p1
261.95 222.39 0.43 c p1
262.12 220.69 0.43 c p1
262.28 224.05 0.43 c p1
262.45 227.31 0.43 c p1
262.61 226.32 0.43 c p1
262.78 219.67 0.43 c p1
262.94 223.73 0.43 c p1
263.11 226.36 0.43 c p1
263.27 223.20 0.43 c p1
263.44 222.93 0.43 c p1
263.60 224.10 0.43 c p1
263.76 228.17 0.43 c p1
263.93 227.17 0.43 c p1
264.09 223.28 0.43 c p1
264.26 222.29 0.43 c p1
264.42 222.73 0.43 c p1
264.59 226.76 0.43 c p1
264.75 228.64 0.43 c p1
264.92 220.46 0.43 c p1
265.08 220.89 0.43 c p1
265.25 226.32 0.43 c p1
265.41 224.60 0.43 c p1
265.58 224.31 0.43 c p1
265.74 226.16 0.43 c p1
265.91 224.44 0.43 c p1
266.07 222.72 0.43 c p1
266.24 222.42 0.43 c p1
266.40 220.01 0.43 c p1
266.56 227.52 0.43 c p1
266.73 227.93 0.43 c p1
266.89 225.48 0.43 c p1
267.06 223.05 0.43 c p1
267.22 222.04 0.43 c p1
267.39 229.55 0.43 c p1
267.55 223.55 0.43 c p1
267.72 221.83 0.43 c p1
267.88 224.34 0.43 c p1
268.05 227.56 0.43 c p1
268.21 222.30 0.43 c p1
268.38 221.99 0.43 c p1
268.54 222.38 0.43 c p1
268.71 226.28 0.43 c p1
268.87 222.44 0.43 c p1
269.04 223.52 0.43 c p1
269.20 222.62 0.43 c p1
269.36 230.63 0.43 c p1
269.53 223.37 0.43 c p1
269.69 226.43 0.43 c p1
269.86 215.79 0.43 c p1
270.02 218.92 0.43 c p1
270.19 227.54 0.43 c p1
270.35 220.34 0.43 c p1
270.52 226.86 0.43 c p1
270.68 227.93 0.43 c p1
270.85 223.51 0.43 c p1
271.01 225.26 0.43 c p1
271.18 223.53 0.43 c p1
271.34 223.19 0.43 c p1
271.51 223.54 0.43 c p1
271.67 221.81 0.43 c p1
271.84 222.16 0.43 c p1
272.00 224.59 0.43 c p1
272.16 229.11 0.43 c p1
272.33 225.97 0.43 c p1
272.49 224.23 0.43 c p1
272.66 220.44 0.43 c p1
272.82 230.47 0.43 c p1
272.99 225.25 0.43 c p1
273.15 222.82 0.43 c p1
273.32 226.61 0.43 c p1
273.48 226.25 0.43 c p1
273.65 224.50 0.43 c p1
273.81 220.03 0.43 c p1
273.98 224.47 0.43 c p1
274.14 224.10 0.43 c p1
274.31 223.74 0.43 c p1
274.47 222.01 0.43 c p1
274.64 223.70 0.43 c p1
274.80 224.70 0.43 c p1
274.96 225.02 0.43 c p1
275.13 225.33 0.43 c p1
275.29 224.96 0.43 c p1
275.46 225.27 0.43 c p1
275.62 227.64 0.43 c p1
275.79 228.64 0.43 c p1
275.95 224.14 0.43 c p1
276.12 227.19 0.43 c p1
276.28 224.07 0.43 c p1
276.45 225.06 0.43 c p1
276.61 225.36 0.43 c p1
276.78 226.34 0.43 c p1
276.94 225.95 0.43 c p1
277.11 223.53 0.43 c p1
277.27 225.18 0.43 c p1
277.44 228.89 0.43 c p1
277.60 227.13 0.43 c p1
277.76 226.06 0.43 c p1
277.93 224.31 0.43 c p1
278.09 225.95 0.43 c p1
278.26 224.20 0.43 c p1
278.42 225.16 0.43 c p1
278.59 224.09 0.43 c p1
278.75 223.70 0.43 c p1
278.92 224.65 0.43 c p1
279.08 225.61 0.43 c p1
279.25 224.53 0.43 c p1
279.41 220.88 0.43 c p1
279.58 225.08 0.43 c p1
279.74 223.45 0.43 c p1
279.91 223.05 0.43 c p1
280.07 223.99 0.43 c p1
280.24 226.17 0.43 c p1
280.40 225.87 0.43 c p1
280.56 222.77 0.43 c p1
280.73 220.37 0.43 c p1
280.89 224.65 0.43 c p1
281.06 226.25 0.43 c p1
281.22 222.49 0.43 c p1
281.39 222.08 0.43 c p1
281.55 225.01 0.43 c p1
281.72 225.27 0.43 c p1
281.88 224.18 0.43 c p1
282.05 223.10 0.43 c p1
282.21 222.02 0.43 c p1
282.38 222.27 0.43 c p1
282.54 227.21 0.43 c p1
282.71 228.80 0.43 c p1
282.87 223.02 0.43 c p1
283.04 225.94 0.43 c p1
283.20 223.51 0.43 c p1
283.36 222.43 0.43 c p1
283.53 220.02 0.43 c p1
283.69 223.57 0.43 c p1
283.86 227.82 0.43 c p1
284.02 224.72 0.43 c p1
284.19 228.29 0.43 c p1
284.35 222.54 0.43 c p1
284.52 224.76 0.43 c p1
284.68 223.00 0.43 c p1
284.85 225.23 0.43 c p1
285.01 229.46 0.43 c p1
285.18 227.69 0.43 c p1
285.34 225.92 0.43 c p1
285.51 220.20 0.43 c p1
285.67 223.06 0.43 c p1
285.84 225.94 0.43 c p1
286.00 225.50 0.43 c p1
286.16 223.74 0.43 c p1
286.33 225.94 0.43 c p1
286.49 232.17 0.43 c p1
286.66 228.38 0.43 c p1
286.82 225.94 0.43 c p1
286.99 226.16 0.43 c p1
287.15 225.05 0.43 c p1
287.32 225.27 0.43 c p1
287.48 224.82 0.43 c p1
287.65 225.04 0.43 c p1
287.81 225.91 0.43 c p1
287.98 224.80 0.43 c p1
288.14 225.01 0.43 c p1
288.31 226.54 0.43 c p1
288.47 222.14 0.43 c p1
288.64 223.66 0.43 c p1
288.80 222.56 0.43 c p1
288.96 223.42 0.43 c p1
289.13 224.28 0.43 c p1
289.29 227.77 0.43 c p1
289.46 223.37 0.43 c p1
289.62 228.83 0.43 c p1
289.79 223.77 0.43 c p1
289.95 230.56 0.43 c p1
290.12 226.13 0.43 c p1
290.28 225.67 0.43 c p1
290.45 225.87 0.43 c p1
290.61 225.41 0.43 c p1
290.78 226.91 0.43 c p1
290.94 225.79 0.43 c p1
291.11 221.53 0.43 c p1
291.27 224.22 0.43 c p1
291.44 227.02 0.43 c p1
291.60 223.94 0.43 c p1
291.76 226.09 0.43 c p1
291.93 228.24 0.43 c p1
292.09 227.12 0.43 c p1
292.26 224.69 0.43 c p1
292.42 224.33 0.43 c p1
292.59 225.71 0.43 c p1
292.75 224.69 0.43 c p1
292.92 228.03 0.43 c p1
293.08 226.90 0.43 c p1
293.25 226.43 0.43 c p1
293.41 225.96 0.43 c p1
293.58 219.12 0.43 c p1
293.74 223.17 0.43 c p1
293.91 228.44 0.43 c p1
294.07 222.87 0.43 c p1
294.24 224.99 0.43 c p1
294.40 230.93 0.43 c p1
294.56 224.04 0.43 c p1
294.73 226.81 0.43 c p1
294.89 227.52 0.43 c p1
295.06 221.96 0.43 c p1
295.22 229.16 0.43 c p1
295.39 227.48 0.43 c p1
295.55 227.65 0.43 c p1
295.72 229.66 0.43 c p1
295.88 226.03 0.43 c p1
296.05 224.90 0.43 c p1
296.21 225.71 0.43 c p1
296.38 225.87 0.43 c p1
296.54 226.68 0.43 c p1
296.71 226.84 0.43 c p1
296.87 225.71 0.43 c p1
297.04 223.93 0.43 c p1
297.20 225.38 0.43 c p1
297.36 228.78 0.43 c p1
297.53 224.40 0.43 c p1
297.69 226.50 0.43 c p1
297.86 228.60 0.43 c p1
298.02 221.02 0.43 c p1
298.19 227.61 0.43 c p1
298.35 225.18 0.43 c p1
298.52 224.04 0.43 c p1
298.68 222.27 0.43 c p1
298.85 226.28 0.43 c p1
299.01 219.37 0.43 c p1
299.18 225.93 0.43 c p1
299.34 228.02 0.43 c p1
299.51 222.37 0.43 c p1
299.67 225.73 0.43 c p1
299.84 225.87 0.43 c p1
300.00 227.31 0.43 c p1
300.16 224.24 0.43 c p1
300.33 223.10 0.43 c p1
300.49 225.17 0.43 c p1
300.66 220.83 0.43 c p1
300.82 229.32 0.43 c p1
300.99 226.23 0.43 c p1
301.15 228.31 0.43 c p1
301.32 227.80 0.43 c p1
301.48 225.37 0.43 c p1
301.65 226.79 0.43 c p1
301.81 226.29 0.43 c p1
301.98 227.06 0.43 c p1
302.14 224.00 0.43 c p1
302.31 223.49 0.43 c p1
302.47 222.99 0.43 c p1
302.64 224.40 0.43 c p1
302.80 222.62 0.43 c p1
302.96 225.30 0.43 c p1
303.13 226.72 0.43 c p1
303.29 229.42 0.43 c p1
303.46 224.42 0.43 c p1
303.62 223.91 0.43 c p1
303.79 226.60 0.43 c p1
303.95 225.45 0.43 c p1
304.12 225.57 0.43 c p1
304.28 225.70 0.43 c p1
304.45 226.47 0.43 c p1
304.61 223.40 0.43 c p1
304.78 225.44 0.43 c p1
304.94 221.12 0.43 c p1
305.11 226.33 0.43 c p1
305.27 227.09 0.43 c p1
305.44 219.07 0.43 c p1
305.60 224.78 0.43 c p1
305.76 224.27 0.43 c p1
305.93 219.96 0.43 c p1
306.09 226.42 0.43 c p1
306.26 225.27 0.43 c p1
306.42 215.41 0.43 c p1
306.59 221.70 0.43 c p1
306.75 223.72 0.43 c p1
306.92 225.74 0.43 c p1
307.08 225.85 0.43 c p1
307.25 232.38 0.43 c p1
307.41 229.28 0.43 c p1
307.58 228.75 0.43 c p1
307.74 225.68 0.43 c p1
307.91 229.62 0.43 c p1
308.07 228.46 0.43 c p1
308.24 232.42 0.43 c p1
308.40 224.86 0.43 c p1
308.56 225.61 0.43 c p1
308.73 225.08 0.43 c p1
308.89 220.88 0.43 c p1
309.06 219.11 0.43 c p1
309.22 221.10 0.43 c p1
309.39 221.21 0.43 c p1
309.55 221.31 0.43 c p1
309.72 222.05 0.43 c p1
309.88 220.90 0.43 c p1
310.05 222.79 0.43 c p1
310.21 225.42 0.43 c p1
310.38 226.16 0.43 c p1
310.54 226.27 0.43 c p1
310.71 224.47 0.43 c p1
310.87 227.11 0.43 c p1
311.04 222.89 0.43 c p1
311.20 227.31 0.43 c p1
311.36 229.33 0.43 c p1
311.53 228.15 0.43 c p1
311.69 225.09 0.43 c p1
311.86 228.36 0.43 c p1
312.02 225.92 0.43 c p1
312.19 226.02 0.43 c p1
312.35 225.49 0.43 c p1
312.52 223.17 0.43 c p1
312.68 225.05 0.43 c p1
312.85 225.78 0.43 c p1
313.01 223.46 0.43 c p1
313.18 223.56 0.43 c p1
313.34 223.65 0.43 c p1
313.51 226.16 0.43 c p1
313.67 220.09 0.43 c p1
313.84 228.25 0.43 c p1
314.00 228.98 0.43 c p1
314.16 227.17 0.43 c p1
314.33 226.00 0.43 c p1
314.49 224.31 0.43 c p1
314.66 225.03 0.43 c p1
314.82 228.81 0.43 c p1
314.99 223.33 0.43 c p1
315.15 228.99 0.43 c p1
315.32 229.08 0.43 c p1
315.48 226.01 0.43 c p1
315.65 226.10 0.43 c p1
315.81 231.26 0.43 c p1
315.98 225.12 0.43 c p1
316.14 228.26 0.43 c p1
316.31 226.45 0.43 c p1
316.47 224.76 0.43 c p1
316.64 226.10 0.43 c p1
316.80 224.30 0.43 c p1
316.96 224.39 0.43 c p1
317.13 223.22 0.43 c p1
317.29 222.68 0.43 c p1
317.46 221.52 0.43 c p1
317.62 222.85 0.43 c p1
317.79 224.19 0.43 c p1
317.95 224.90 0.43 c p1
318.12 224.35 0.43 c p1
318.28 228.73 0.43 c p1
318.45 228.18 0.43 c p1
318.61 223.35 0.43 c p1
318.78 225.93 0.43 c p1
318.94 227.80 0.43 c p1
319.11 223.59 0.43 c p1
319.27 227.43 0.43 c p1
319.44 229.30 0.43 c p1
319.60 226.96 0.43 c p1
319.76 225.78 0.43 c p1
319.93 223.36 0.43 c p1
320.09 226.57 0.43 c p1
320.26 227.90 0.43 c p1
320.42 225.47 0.43 c p1
320.59 223.05 0.43 c p1
320.75 228.66 0.43 c p1
320.92 226.32 0.43 c p1
321.08 220.79 0.43 c p1
321.25 225.85 0.43 c p1
321.41 226.55 0.43 c p1
321.58 223.50 0.43 c p1
321.74 226.07 0.43 c p1
321.91 226.14 0.43 c p1
322.07 226.22 0.43 c p1
322.24 225.04 0.43 c p1
322.40 225.11 0.43 c p1
322.56 223.94 0.43 c p1
322.73 222.76 0.43 c p1
322.89 223.45 0.43 c p1
323.06 226.65 0.43 c p1
323.22 225.47 0.43 c p1
323.39 223.04 0.43 c p1
323.55 227.49 0.43 c p1
323.72 225.05 0.43 c p1
323.88 226.37 0.43 c p1
324.05 223.32 0.43 c p1
324.21 227.14 0.43 c p1
324.38 227.83 0.43 c p1
324.54 224.77 0.43 c p1
324.71 226.71 0.43 c p1
324.87 227.41 0.43 c p1
325.04 227.47 0.43 c p1
325.20 225.04 0.43 c p1
325.36 222.00 0.43 c p1
325.53 226.42 0.43 c p1
325.69 223.37 0.43 c p1
325.86 226.55 0.43 c p1
326.02 227.24 0.43 c p1
326.19 225.43 0.43 c p1
326.35 223.63 0.43 c p1
326.52 223.69 0.43 c p1
326.68 223.14 0.43 c p1
326.85 227.56 0.43 c p1
327.01 225.75 0.43 c p1
327.18 227.06 0.43 c p1
327.34 224.63 0.43 c p1
327.51 224.69 0.43 c p1
327.67 226.62 0.43 c p1
327.84 227.93 0.43 c p1
328.00 227.99 0.43 c p1
328.16 226.18 0.43 c p1
328.33 229.37 0.43 c p1
328.49 228.17 0.43 c p1
328.66 225.11 0.43 c p1
328.82 226.42 0.43 c p1
328.99 220.90 0.43 c p1
329.15 223.43 0.43 c p1
329.32 221.02 0.43 c p1
329.48 222.31 0.43 c p1
329.65 226.09 0.43 c p1
329.81 226.14 0.43 c p1
329.98 224.96 0.43 c p1
330.14 225.64 0.43 c p1
330.31 223.21 0.43 c p1
330.47 228.24 0.43 c p1
330.64 223.32 0.43 c p1
330.80 223.38 0.43 c p1
330.96 227.16 0.43 c p1
331.13 228.47 0.43 c p1
331.29 223.55 0.43 c p1
331.46 224.84 0.43 c p1
331.62 225.52 0.43 c p1
331.79 226.19 0.43 c p1
331.95 223.15 0.43 c p1
332.12 219.50 0.43 c p1
332.28 225.11 0.43 c p1
332.45 225.78 0.43 c p1
332.61 225.84 0.43 c p1
332.78 226.51 0.43 c p1
332.94 226.56 0.43 c p1
333.11 221.05 0.43 c p1
333.27 226.04 0.43 c p1
333.44 223.62 0.43 c p1
333.60 223.67 0.43 c p1
333.76 224.34 0.43 c p1
333.93 225.63 0.43 c p1
334.09 221.35 0.43 c p1
334.26 222.02 0.43 c p1
334.42 224.54 0.43 c p1
334.59 224.59 0.43 c p1
334.75 222.17 0.43 c p1
334.92 225.93 0.43 c p1
335.08 226.60 0.43 c p1
335.25 224.78 0.43 c p1
335.41 222.98 0.43 c p1
335.58 227.98 0.43 c p1
335.74 223.08 0.43 c p1
335.91 225.60 0.43 c p1
336.07 226.26 0.43 c p1
336.24 225.07 0.43 c p1
336.40 223.88 0.43 c p1
336.56 226.40 0.43 c p1
336.73 224.59 0.43 c p1
336.89 224.02 0.43 c p1
337.06 225.30 0.43 c p1
337.22 219.20 0.43 c p1
337.39 225.39 0.43 c p1
337.55 225.44 0.43 c p1
337.72 226.72 0.43 c p1
337.88 223.68 0.43 c p1
338.05 225.57 0.43 c p1
338.21 222.53 0.43 c p1
338.38 223.19 0.43 c p1
338.54 220.78 0.43 c p1
338.71 228.23 0.43 c p1
338.87 225.18 0.43 c p1
339.04 223.98 0.43 c p1
339.20 220.95 0.43 c p1
339.36 225.30 0.43 c p1
339.53 223.50 0.43 c p1
339.69 222.31 0.43 c p1
339.86 224.81 0.43 c p1
340.02 225.47 0.43 c p1
340.19 224.90 0.43 c p1
340.35 225.56 0.43 c p1
340.52 223.75 0.43 c p1
340.68 223.17 0.43 c p1
340.85 223.21 0.43 c p1
341.01 225.10 0.43 c p1
341.18 221.45 0.43 c p1
341.34 219.66 0.43 c p1
341.51 224.61 0.43 c p1
341.67 224.65 0.43 c p1
341.84 224.69 0.43 c p1
342.00 225.96 0.43 c p1
342.16 223.53 0.43 c p1
342.33 222.96 0.43 c p1
342.49 223.61 0.43 c p1
342.66 222.42 0.43 c p1
342.82 223.69 0.43 c p1
342.99 226.19 0.43 c p1
343.15 221.92 0.43 c p1
343.32 227.51 0.43 c p1
343.48 226.92 0.43 c p1
343.65 221.42 0.43 c p1
343.81 225.15 0.43 c p1
343.98 220.89 0.43 c p1
344.14 226.45 0.43 c p1
344.31 222.80 0.43 c p1
344.47 225.29 0.43 c p1
344.64 224.10 0.43 c p1
344.80 225.98 0.43 c p1
344.96 226.02 0.43 c p1
345.13 224.21 0.43 c p1
345.29 223.63 0.43 c p1
345.46 227.36 0.43 c p1
345.62 226.78 0.43 c p1
345.79 219.55 0.43 c p1
345.95 221.32 0.43 c p1
346.12 221.96 0.43 c p1
346.28 222.00 0.43 c p1
346.45 223.26 0.43 c p1
346.61 224.52 0.43 c p1
346.78 225.17 0.43 c p1
346.94 224.59 0.43 c p1
347.11 225.85 0.43 c p1
347.27 225.89 0.43 c p1
347.44 224.07 0.43 c p1
347.60 221.04 0.43 c p1
347.76 217.53 0.43 c p1
347.93 224.79 0.43 c p1
348.09 222.98 0.43 c p1
348.26 221.79 0.43 c p1
348.42 223.04 0.43 c p1
348.59 223.69 0.43 c p1
348.75 223.72 0.43 c p1
348.92 226.83 0.43 c p1
349.08 224.40 0.43 c p1
349.25 225.04 0.43 c p1
349.41 223.85 0.43 c p1
349.58 226.34 0.43 c p1
349.74 222.07 0.43 c p1
349.91 222.10 0.43 c p1
350.07 227.66 0.43 c p1
350.24 222.16 0.43 c p1
350.40 221.58 0.43 c p1
350.56 224.67 0.43 c p1
350.73 224.09 0.43 c p1
350.89 223.51 0.43 c p1
351.06 225.38 0.43 c p1
351.22 222.95 0.43 c p1
351.39 223.60 0.43 c p1
351.55 221.18 0.43 c p1
351.72 221.82 0.43 c p1
351.88 222.46 0.43 c p1
352.05 223.71 0.43 c p1
352.21 223.74 0.43 c p1
352.38 228.70 0.43 c p1
352.54 223.19 0.43 c p1
352.71 223.21 0.43 c p1
352.87 219.08 0.43 c p1
353.04 221.44 0.43 c p1
353.20 225.14 0.43 c p1
353.36 222.71 0.43 c p1
353.53 225.81 0.43 c p1
353.69 221.55 0.43 c p1
353.86 224.02 0.43 c p1
354.02 222.21 0.43 c p1
354.19 220.51 0.43 c p1
354.35 224.10 0.43 c p1
354.52 223.51 0.43 c p1
354.68 222.32 0.43 c p1
354.85 222.96 0.43 c p1
355.01 225.43 0.43 c p1
355.18 229.16 0.43 c p1
355.34 222.42 0.43 c p1
355.51 220.72 0.43 c p1
355.67 223.09 0.43 c p1
355.84 224.95 0.43 c p1
356.00 222.53 0.43 c p1
356.16 223.16 0.43 c p1
356.33 223.19 0.43 c p1
356.49 223.82 0.43 c p1
356.66 223.24 0.43 c p1
356.82 221.53 0.43 c p1
356.99 225.13 0.43 c p1
357.15 225.76 0.43 c p1
357.32 224.56 0.43 c p1
357.48 223.97 0.43 c p1
357.65 225.22 0.43 c p1
357.81 220.46 0.43 c p1
357.98 225.89 0.43 c p1
358.14 223.46 0.43 c p1
358.31 222.87 0.43 c p1
358.47 221.78 0.43 c p1
358.64 225.98 0.43 c p1
358.80 223.55 0.43 c p1
358.96 222.96 0.43 c p1
359.13 224.21 0.43 c p1
359.29 221.28 0.43 c p1
359.46 225.48 0.43 c p1
359.62 223.67 0.43 c p1
359.79 224.30 0.43 c p1
359.95 220.77 0.43 c p1
360.12 226.19 0.43 c p1
360.28 222.54 0.43 c p1
360.45 224.39 0.43 c p1
360.61 222.07 0.43 c p1
360.78 219.66 0.43 c p1
360.94 220.90 0.43 c p1
361.11 222.14 0.43 c p1
361.27 223.89 0.43 c p1
361.44 222.18 0.43 c p1
361.60 224.54 0.43 c p1
0.00 0.00 432.00 576.00 cl
0 0 0 srgb
0.75 setlinewidth
[] 0 setdash
1 setlinecap
1 setlinejoin
10.00 setmiterlimit
np
220.78 201.60 m
131.76 0 l
o
np
220.78 201.60 m
0 -5.76 l
o
np
253.72 201.60 m
0 -5.76 l
o
np
286.66 201.60 m
0 -5.76 l
o
np
319.60 201.60 m
0 -5.76 l
o
np
352.54 201.60 m
0 -5.76 l
o
/Font1 findfont 6 s
220.78 185.47 (0) .5 0 t
253.72 185.47 (500) .5 0 t
286.66 185.47 (1000) .5 0 t
319.60 185.47 (1500) .5 0 t
352.54 185.47 (2000) .5 0 t
np
216.00 212.99 m
0 23.30 l
o
np
216.00 212.99 m
-5.76 0 l
o
np
216.00 224.64 m
-5.76 0 l
o
np
216.00 236.29 m
-5.76 0 l
o
209.09 210.83 (-0.01) 1 0 t
209.09 222.49 (0.00) 1 0 t
209.09 234.14 (0.01) 1 0 t
np
216.00 201.60 m
151.20 0 l
0 46.08 l
-151.20 0 l
0 -46.08 l
o
0.00 0.00 432.00 576.00 cl
/Font1 findfont 9 s
0 0 0 srgb
291.60 262.88 (Residuals) .5 0 t
59.04 73.44 401.76 516.96 cl
ep
%%Trailer
%%Pages: 1
%%EOF
