%!PS-Adobe-3.0 EPSF-3.0
%%DocumentNeededResources: font Helvetica
%%+ font Helvetica-Bold
%%+ font Helvetica-Oblique
%%+ font Helvetica-BoldOblique
%%+ font Symbol
%%Title: R Graphics Output
%%Creator: R Software
%%Pages: (atend)
%%BoundingBox: 0 0 432 432
%%EndComments
%%BeginProlog
/bp  { gs sRGB gs } def
% begin .ps.prolog
/gs  { gsave } bind def
/gr  { grestore } bind def
/ep  { showpage gr gr } bind def
/m   { moveto } bind def
/l  { rlineto } bind def
/np  { newpath } bind def
/cp  { closepath } bind def
/f   { fill } bind def
/o   { stroke } bind def
/c   { newpath 0 360 arc } bind def
/r   { 4 2 roll moveto 1 copy 3 -1 roll exch 0 exch rlineto 0 rlineto -1 mul 0 exch rlineto closepath } bind def
/p1  { stroke } bind def
/p2  { gsave bg fill grestore newpath } bind def
/p3  { gsave bg fill grestore stroke } bind def
/p6  { gsave bg eofill grestore newpath } bind def
/p7  { gsave bg eofill grestore stroke } bind def
/t   { 5 -2 roll moveto gsave rotate
       1 index stringwidth pop
       mul neg 0 rmoveto show grestore } bind def
/ta  { 4 -2 roll moveto gsave rotate show } bind def
/tb  { 2 -1 roll 0 rmoveto show } bind def
/cl  { grestore gsave newpath 3 index 3 index moveto 1 index
       4 -1 roll lineto  exch 1 index lineto lineto
       closepath clip newpath } bind def
/rgb { setrgbcolor } bind def
/s   { scalefont setfont } bind def
% end   .ps.prolog
/sRGB { [ /CIEBasedABC
          << /DecodeLMN
               [ { dup 0.03928 le
                        {12.92321 div}
                        {0.055 add 1.055 div 2.4 exp }
                     ifelse
                 } bind dup dup
               ]
             /MatrixLMN [0.412457 0.212673 0.019334
                         0.357576 0.715152 0.119192
                         0.180437 0.072175 0.950301]
             /WhitePoint [0.9505 1.0 1.0890]
           >>
         ] setcolorspace } bind def
/srgb { setcolor } bind def
% begin encoding
/WinAnsiEncoding [
 /.notdef /.notdef /.notdef /.notdef /.notdef /.notdef /.notdef /.notdef
 /.notdef /.notdef /.notdef /.notdef /.notdef /.notdef /.notdef /.notdef
 /.notdef /.notdef /.notdef /.notdef /.notdef /.notdef /.notdef /.notdef
 /.notdef /.notdef /.notdef /.notdef /.notdef /.notdef /.notdef /.notdef
 /space /exclam /quotedbl /numbersign /dollar /percent /ampersand /quoteright
 /parenleft /parenright /asterisk /plus /comma /minus /period /slash
 /zero /one /two /three /four /five /six /seven
 /eight /nine /colon /semicolon /less /equal /greater /question
 /at /A /B /C /D /E /F /G
 /H /I /J /K /L /M /N /O
 /P /Q /R /S /T /U /V /W
 /X /Y /Z /bracketleft /backslash /bracketright /asciicircum /underscore
 /grave /a /b /c /d /e /f /g
 /h /i /j /k /l /m /n /o
 /p /q /r /s /t /u /v /w
 /x /y /z /braceleft /bar /braceright /asciitilde /.notdef
 /Euro /.notdef /quotesinglbase /florin /quotedblbase /ellipsis /dagger /daggerdbl
 /circumflex /perthousand /Scaron /guilsinglleft /OE /.notdef /Zcaron /.notdef
 /.notdef /quoteleft /quoteright /quotedblleft /quotedblright /bullet /endash /emdash
 /tilde /trademark /scaron /guilsinglright /oe /.notdef /zcaron /Ydieresis
 /space /exclamdown /cent /sterling /currency /yen /brokenbar /section
 /dieresis /copyright /ordfeminine /guillemotleft /logicalnot /hyphen /registered /macron
 /degree /plusminus /twosuperior /threesuperior /acute /mu /paragraph /periodcentered
 /cedilla /onesuperior /ordmasculine /guillemotright /onequarter /onehalf /threequarters /questiondown
 /Agrave /Aacute /Acircumflex /Atilde /Adieresis /Aring /AE /Ccedilla
 /Egrave /Eacute /Ecircumflex /Edieresis /Igrave /Iacute /Icircumflex /Idieresis
 /Eth /Ntilde /Ograve /Oacute /Ocircumflex /Otilde /Odieresis /multiply
 /Oslash /Ugrave /Uacute /Ucircumflex /Udieresis /Yacute /Thorn /germandbls
 /agrave /aacute /acircumflex /atilde /adieresis /aring /ae /ccedilla
 /egrave /eacute /ecircumflex /edieresis /igrave /iacute /icircumflex /idieresis
 /eth /ntilde /ograve /oacute /ocircumflex /otilde /odieresis /divide
 /oslash /ugrave /uacute /ucircumflex /udieresis /yacute /thorn /ydieresis
]
 def
% end encoding
%%IncludeResource: font Helvetica
/Helvetica findfont
dup length dict begin
  {1 index /FID ne {def} {pop pop} ifelse} forall
  /Encoding WinAnsiEncoding def
  currentdict
  end
/Font1 exch definefont pop
%%IncludeResource: font Helvetica-Bold
/Helvetica-Bold findfont
dup length dict begin
  {1 index /FID ne {def} {pop pop} ifelse} forall
  /Encoding WinAnsiEncoding def
  currentdict
  end
/Font2 exch definefont pop
%%IncludeResource: font Helvetica-Oblique
/Helvetica-Oblique findfont
dup length dict begin
  {1 index /FID ne {def} {pop pop} ifelse} forall
  /Encoding WinAnsiEncoding def
  currentdict
  end
/Font3 exch definefont pop
%%IncludeResource: font Helvetica-BoldOblique
/Helvetica-BoldOblique findfont
dup length dict begin
  {1 index /FID ne {def} {pop pop} ifelse} forall
  /Encoding WinAnsiEncoding def
  currentdict
  end
/Font4 exch definefont pop
%%IncludeResource: font Symbol
/Symbol findfont
dup length dict begin
  {1 index /FID ne {def} {pop pop} ifelse} forall
  currentdict
  end
/Font5 exch definefont pop
%%EndProlog
%%Page: 1 1
bp
59.04 73.44 401.76 372.96 cl
0.00 0.00 432.00 432.00 cl
0 0 0 srgb
0.75 setlinewidth
[] 0 setdash
1 setlinecap
1 setlinejoin
10.00 setmiterlimit
np
59.04 84.53 m
0 244.71 l
o
np
59.04 84.53 m
-7.20 0 l
o
np
59.04 166.10 m
-7.20 0 l
o
np
59.04 247.67 m
-7.20 0 l
o
np
59.04 329.24 m
-7.20 0 l
o
/Font1 findfont 12 s
44.64 80.23 (-0.05) 1 0 t
44.64 161.79 (0.00) 1 0 t
44.64 243.36 (0.05) 1 0 t
44.64 324.93 (0.10) 1 0 t
np
 59.04 73.44 m
342.72 0 l
0 299.52 l
-342.72 0 l
cp p1
0.00 0.00 432.00 432.00 cl
/Font1 findfont 12 s
0 0 0 srgb
220.39 21.20 (p) 0 0 t
227.06 21.20 (p) 0 0 t
233.74 21.20 (b) 0 0 t
12.96 223.20 (A) .5 90 t
0.00 0.00 432.00 432.00 cl
0 0 0 srgb
0.75 setlinewidth
[] 0 setdash
1 setlinecap
1 setlinejoin
10.00 setmiterlimit
np
71.73 73.44 m
317.34 0 l
o
np
71.73 73.44 m
0 -7.20 l
o
np
124.62 73.44 m
0 -7.20 l
o
np
177.51 73.44 m
0 -7.20 l
o
np
230.40 73.44 m
0 -7.20 l
o
np
283.29 73.44 m
0 -7.20 l
o
np
336.18 73.44 m
0 -7.20 l
o
np
389.07 73.44 m
0 -7.20 l
o
/Font1 findfont 12 s
71.73 47.52 (-100) .5 0 t
124.62 47.52 (0) .5 0 t
177.51 47.52 (100) .5 0 t
230.40 47.52 (200) .5 0 t
283.29 47.52 (300) .5 0 t
336.18 47.52 (400) .5 0 t
389.07 47.52 (500) .5 0 t
59.04 73.44 401.76 372.96 cl
/bg { 0.6039 0.7451 0.7412 srgb } def
np
 653.51 634.28 m
-6.14 -5.67 l
-6.15 -5.67 l
-6.14 -5.67 l
-6.14 -5.67 l
-6.15 -5.67 l
-6.14 -5.68 l
-6.14 -5.67 l
-6.15 -5.67 l
-6.14 -5.67 l
-6.15 -5.67 l
-6.14 -5.67 l
-6.14 -5.67 l
-6.15 -5.67 l
-6.14 -5.67 l
-6.14 -5.66 l
-6.15 -5.67 l
-6.14 -5.67 l
-6.14 -5.67 l
-6.15 -5.66 l
-6.14 -5.67 l
-6.15 -5.67 l
-6.14 -5.66 l
-6.14 -5.67 l
-6.15 -5.66 l
-6.14 -5.67 l
-6.14 -5.66 l
-6.15 -5.66 l
-6.14 -5.66 l
-6.14 -5.66 l
-6.15 -5.66 l
-6.14 -5.66 l
-6.15 -5.66 l
-6.14 -5.66 l
-6.14 -5.65 l
-6.15 -5.66 l
-6.14 -5.65 l
-6.14 -5.65 l
-6.15 -5.65 l
-6.14 -5.65 l
-6.15 -5.65 l
-6.14 -5.64 l
-6.14 -5.65 l
-6.15 -5.63 l
-6.14 -5.64 l
-6.14 -5.64 l
-6.15 -5.63 l
-6.14 -5.62 l
-6.14 -5.62 l
-6.15 -5.62 l
-6.14 -5.61 l
-6.15 -5.61 l
-6.14 -5.60 l
-6.14 -5.59 l
-6.15 -5.58 l
-6.14 -5.57 l
-6.14 -5.56 l
-6.15 -5.55 l
-6.14 -5.53 l
-6.14 -5.52 l
-6.15 -5.49 l
-6.14 -5.47 l
-6.15 -5.45 l
-6.14 -5.42 l
-6.14 -5.38 l
-6.15 -5.35 l
-6.14 -5.31 l
-6.14 -5.27 l
-6.15 -5.23 l
-6.14 -5.18 l
-6.15 -5.14 l
-6.14 -5.10 l
-6.14 -5.06 l
-6.15 -5.02 l
-6.14 -4.99 l
-6.14 -4.96 l
-6.15 -4.93 l
-6.14 -4.91 l
-6.14 -4.89 l
-6.15 -4.87 l
-6.14 -4.85 l
-6.15 -4.84 l
-6.14 -4.83 l
-6.14 -4.82 l
-6.15 -4.81 l
-6.14 -4.80 l
-6.14 -4.79 l
-6.15 -4.79 l
-6.14 -4.78 l
-6.14 -4.78 l
-6.15 -4.77 l
-6.14 -4.77 l
-6.15 -4.77 l
-6.14 -4.76 l
-6.14 -4.76 l
-6.15 -4.75 l
-6.14 -4.76 l
-6.14 -4.75 l
-6.15 -4.75 l
-6.14 -4.75 l
45.29 70.80 lineto
6.14 5.65 l
6.15 5.65 l
6.14 5.64 l
6.14 5.65 l
6.15 5.64 l
6.14 5.64 l
6.14 5.63 l
6.15 5.64 l
6.14 5.63 l
6.15 5.62 l
6.14 5.62 l
6.14 5.62 l
6.15 5.61 l
6.14 5.60 l
6.14 5.60 l
6.15 5.59 l
6.14 5.58 l
6.14 5.57 l
6.15 5.55 l
6.14 5.55 l
6.15 5.53 l
6.14 5.51 l
6.14 5.49 l
6.15 5.46 l
6.14 5.44 l
6.14 5.41 l
6.15 5.38 l
6.14 5.34 l
6.14 5.30 l
6.15 5.26 l
6.14 5.21 l
6.15 5.17 l
6.14 5.13 l
6.14 5.09 l
6.15 5.05 l
6.14 5.01 l
6.14 4.98 l
6.15 4.95 l
6.14 4.93 l
6.15 4.90 l
6.14 4.89 l
6.14 4.86 l
6.15 4.85 l
6.14 4.84 l
6.14 4.83 l
6.15 4.81 l
6.14 4.81 l
6.14 4.80 l
6.15 4.79 l
6.14 4.79 l
6.15 4.78 l
6.14 4.77 l
6.14 4.78 l
6.15 4.76 l
6.14 4.77 l
6.14 4.76 l
6.15 4.76 l
6.14 4.75 l
6.14 4.76 l
6.15 4.75 l
6.14 4.75 l
6.15 4.75 l
6.14 4.74 l
6.14 4.75 l
6.15 4.74 l
6.14 4.74 l
6.14 4.75 l
6.15 4.74 l
6.14 4.73 l
6.15 4.74 l
6.14 4.74 l
6.14 4.74 l
6.15 4.73 l
6.14 4.74 l
6.14 4.73 l
6.15 4.74 l
6.14 4.73 l
6.14 4.73 l
6.15 4.73 l
6.14 4.73 l
6.15 4.74 l
6.14 4.73 l
6.14 4.73 l
6.15 4.73 l
6.14 4.73 l
6.14 4.73 l
6.15 4.72 l
6.14 4.73 l
6.14 4.73 l
6.15 4.73 l
6.14 4.73 l
6.15 4.72 l
6.14 4.73 l
6.14 4.73 l
6.15 4.73 l
6.14 4.72 l
6.14 4.73 l
6.15 4.72 l
6.14 4.73 l
cp p2
0 0 0 srgb
0.75 setlinewidth
[] 0 setdash
1 setlinecap
1 setlinejoin
10.00 setmiterlimit
np
45.29 102.21 m
6.14 4.75 l
6.15 4.75 l
6.14 4.75 l
6.14 4.76 l
6.15 4.75 l
6.14 4.76 l
6.14 4.76 l
6.15 4.77 l
6.14 4.77 l
6.15 4.77 l
6.14 4.78 l
6.14 4.78 l
6.15 4.79 l
6.14 4.79 l
6.14 4.80 l
6.15 4.81 l
6.14 4.82 l
6.14 4.83 l
6.15 4.84 l
6.14 4.85 l
6.15 4.87 l
6.14 4.89 l
6.14 4.91 l
6.15 4.93 l
6.14 4.96 l
6.14 4.99 l
6.15 5.02 l
6.14 5.06 l
6.14 5.10 l
6.15 5.14 l
6.14 5.18 l
6.15 5.23 l
6.14 5.27 l
6.14 5.31 l
6.15 5.35 l
6.14 5.38 l
6.14 5.42 l
6.15 5.45 l
6.14 5.47 l
6.15 5.49 l
6.14 5.52 l
6.14 5.53 l
6.15 5.55 l
6.14 5.56 l
6.14 5.57 l
6.15 5.58 l
6.14 5.59 l
6.14 5.60 l
6.15 5.61 l
6.14 5.61 l
6.15 5.62 l
6.14 5.62 l
6.14 5.62 l
6.15 5.63 l
6.14 5.64 l
6.14 5.64 l
6.15 5.63 l
6.14 5.65 l
6.14 5.64 l
6.15 5.65 l
6.14 5.65 l
6.15 5.65 l
6.14 5.65 l
6.14 5.65 l
6.15 5.66 l
6.14 5.65 l
6.14 5.66 l
6.15 5.66 l
6.14 5.66 l
6.15 5.66 l
6.14 5.66 l
6.14 5.66 l
6.15 5.66 l
6.14 5.66 l
6.14 5.67 l
6.15 5.66 l
6.14 5.67 l
6.14 5.66 l
6.15 5.67 l
6.14 5.67 l
6.15 5.66 l
6.14 5.67 l
6.14 5.67 l
6.15 5.67 l
6.14 5.66 l
6.14 5.67 l
6.15 5.67 l
6.14 5.67 l
6.14 5.67 l
6.15 5.67 l
6.14 5.67 l
6.15 5.67 l
6.14 5.67 l
6.14 5.68 l
6.15 5.67 l
6.14 5.67 l
6.14 5.67 l
6.15 5.67 l
6.14 5.67 l
o
np
45.29 70.80 m
6.14 5.65 l
6.15 5.65 l
6.14 5.64 l
6.14 5.65 l
6.15 5.64 l
6.14 5.64 l
6.14 5.63 l
6.15 5.64 l
6.14 5.63 l
6.15 5.62 l
6.14 5.62 l
6.14 5.62 l
6.15 5.61 l
6.14 5.60 l
6.14 5.60 l
6.15 5.59 l
6.14 5.58 l
6.14 5.57 l
6.15 5.55 l
6.14 5.55 l
6.15 5.53 l
6.14 5.51 l
6.14 5.49 l
6.15 5.46 l
6.14 5.44 l
6.14 5.41 l
6.15 5.38 l
6.14 5.34 l
6.14 5.30 l
6.15 5.26 l
6.14 5.21 l
6.15 5.17 l
6.14 5.13 l
6.14 5.09 l
6.15 5.05 l
6.14 5.01 l
6.14 4.98 l
6.15 4.95 l
6.14 4.93 l
6.15 4.90 l
6.14 4.89 l
6.14 4.86 l
6.15 4.85 l
6.14 4.84 l
6.14 4.83 l
6.15 4.81 l
6.14 4.81 l
6.14 4.80 l
6.15 4.79 l
6.14 4.79 l
6.15 4.78 l
6.14 4.77 l
6.14 4.78 l
6.15 4.76 l
6.14 4.77 l
6.14 4.76 l
6.15 4.76 l
6.14 4.75 l
6.14 4.76 l
6.15 4.75 l
6.14 4.75 l
6.15 4.75 l
6.14 4.74 l
6.14 4.75 l
6.15 4.74 l
6.14 4.74 l
6.14 4.75 l
6.15 4.74 l
6.14 4.73 l
6.15 4.74 l
6.14 4.74 l
6.14 4.74 l
6.15 4.73 l
6.14 4.74 l
6.14 4.73 l
6.15 4.74 l
6.14 4.73 l
6.14 4.73 l
6.15 4.73 l
6.14 4.73 l
6.15 4.74 l
6.14 4.73 l
6.14 4.73 l
6.15 4.73 l
6.14 4.73 l
6.14 4.73 l
6.15 4.72 l
6.14 4.73 l
6.14 4.73 l
6.15 4.73 l
6.14 4.73 l
6.15 4.72 l
6.14 4.73 l
6.14 4.73 l
6.15 4.73 l
6.14 4.72 l
6.14 4.73 l
6.15 4.72 l
6.14 4.73 l
o
np
45.29 86.51 m
6.14 5.19 l
6.15 5.20 l
6.14 5.20 l
6.14 5.20 l
6.15 5.20 l
6.14 5.20 l
6.14 5.20 l
6.15 5.20 l
6.14 5.20 l
6.15 5.20 l
6.14 5.19 l
6.14 5.20 l
6.15 5.20 l
6.14 5.20 l
6.14 5.20 l
6.15 5.20 l
6.14 5.20 l
6.14 5.20 l
6.15 5.20 l
6.14 5.20 l
6.15 5.20 l
6.14 5.19 l
6.14 5.20 l
6.15 5.20 l
6.14 5.20 l
6.14 5.20 l
6.15 5.20 l
6.14 5.20 l
6.14 5.20 l
6.15 5.20 l
6.14 5.20 l
6.15 5.20 l
6.14 5.19 l
6.14 5.20 l
6.15 5.20 l
6.14 5.20 l
6.14 5.20 l
6.15 5.20 l
6.14 5.20 l
6.15 5.20 l
6.14 5.20 l
6.14 5.20 l
6.15 5.19 l
6.14 5.20 l
6.14 5.20 l
6.15 5.20 l
6.14 5.20 l
6.14 5.20 l
6.15 5.20 l
6.14 5.20 l
6.15 5.20 l
6.14 5.20 l
6.14 5.20 l
6.15 5.19 l
6.14 5.20 l
6.14 5.20 l
6.15 5.20 l
6.14 5.20 l
6.14 5.20 l
6.15 5.20 l
6.14 5.20 l
6.15 5.20 l
6.14 5.20 l
6.14 5.20 l
6.15 5.19 l
6.14 5.20 l
6.14 5.20 l
6.15 5.20 l
6.14 5.20 l
6.15 5.20 l
6.14 5.20 l
6.14 5.20 l
6.15 5.20 l
6.14 5.20 l
6.14 5.19 l
6.15 5.20 l
6.14 5.20 l
6.14 5.20 l
6.15 5.20 l
6.14 5.20 l
6.15 5.20 l
6.14 5.20 l
6.14 5.20 l
6.15 5.20 l
6.14 5.20 l
6.14 5.19 l
6.15 5.20 l
6.14 5.20 l
6.14 5.20 l
6.15 5.20 l
6.14 5.20 l
6.15 5.20 l
6.14 5.20 l
6.14 5.20 l
6.15 5.20 l
6.14 5.20 l
6.14 5.19 l
6.15 5.20 l
6.14 5.20 l
o
181.76 201.99 2.70 c p1
158.63 182.42 2.70 c p1
201.04 218.31 2.70 c p1
np
177.64 201.99 m
8.24 0 l
o
np
154.75 182.42 m
7.75 0 l
o
np
196.60 218.31 m
8.87 0 l
o
np
 124.62 109.94 m
3.64 -6.30 l
-7.27 0 l
cp p1
np
 150.71 183.35 m
3.64 -6.30 l
-7.28 0 l
cp p1
np
 176.78 201.30 m
3.64 -6.30 l
-7.27 0 l
cp p1
np
 229.38 242.08 m
3.64 -6.30 l
-7.27 0 l
cp p1
np
 283.38 291.02 m
3.63 -6.30 l
-7.27 0 l
cp p1
np
 334.57 338.33 m
3.64 -6.30 l
-7.28 0 l
cp p1
0.75 setlinewidth
[ 2.25 3.75] 0 setdash
np
124.62 73.44 m
0 299.52 l
o
np
59.04 166.10 m
342.72 0 l
o
0.75 setlinewidth
[] 0 setdash
297.02 119.88 104.74 -46.44 r p1
305.94 108.27 2.70 c p1
1 1 1 srgb
303.24 93.96 5.40 5.40 r p1
0 0 0 srgb
np
 305.94 89.25 m
3.64 -6.30 l
-7.28 0 l
cp p1
/Font1 findfont 12 s
314.87 103.96 (Measured samples) 0 0 t
314.87 92.35 ( ) 0 0 t
314.87 80.74 (Calibr) 0 ta
-0.120 (ation) tb gr
ep
%%Trailer
%%Pages: 1
%%EOF
