%!PS-Adobe-3.0 EPSF-3.0
%%DocumentNeededResources: font Helvetica
%%+ font Helvetica-Bold
%%+ font Helvetica-Oblique
%%+ font Helvetica-BoldOblique
%%+ font Symbol
%%Title: R Graphics Output
%%Creator: R Software
%%Pages: (atend)
%%BoundingBox: 0 0 432 432
%%EndComments
%%BeginProlog
/bp  { gs sRGB gs } def
% begin .ps.prolog
/gs  { gsave } bind def
/gr  { grestore } bind def
/ep  { showpage gr gr } bind def
/m   { moveto } bind def
/l  { rlineto } bind def
/np  { newpath } bind def
/cp  { closepath } bind def
/f   { fill } bind def
/o   { stroke } bind def
/c   { newpath 0 360 arc } bind def
/r   { 4 2 roll moveto 1 copy 3 -1 roll exch 0 exch rlineto 0 rlineto -1 mul 0 exch rlineto closepath } bind def
/p1  { stroke } bind def
/p2  { gsave bg fill grestore newpath } bind def
/p3  { gsave bg fill grestore stroke } bind def
/p6  { gsave bg eofill grestore newpath } bind def
/p7  { gsave bg eofill grestore stroke } bind def
/t   { 5 -2 roll moveto gsave rotate
       1 index stringwidth pop
       mul neg 0 rmoveto show grestore } bind def
/ta  { 4 -2 roll moveto gsave rotate show } bind def
/tb  { 2 -1 roll 0 rmoveto show } bind def
/cl  { grestore gsave newpath 3 index 3 index moveto 1 index
       4 -1 roll lineto  exch 1 index lineto lineto
       closepath clip newpath } bind def
/rgb { setrgbcolor } bind def
/s   { scalefont setfont } bind def
% end   .ps.prolog
/sRGB { [ /CIEBasedABC
          << /DecodeLMN
               [ { dup 0.03928 le
                        {12.92321 div}
                        {0.055 add 1.055 div 2.4 exp }
                     ifelse
                 } bind dup dup
               ]
             /MatrixLMN [0.412457 0.212673 0.019334
                         0.357576 0.715152 0.119192
                         0.180437 0.072175 0.950301]
             /WhitePoint [0.9505 1.0 1.0890]
           >>
         ] setcolorspace } bind def
/srgb { setcolor } bind def
% begin encoding
/WinAnsiEncoding [
 /.notdef /.notdef /.notdef /.notdef /.notdef /.notdef /.notdef /.notdef
 /.notdef /.notdef /.notdef /.notdef /.notdef /.notdef /.notdef /.notdef
 /.notdef /.notdef /.notdef /.notdef /.notdef /.notdef /.notdef /.notdef
 /.notdef /.notdef /.notdef /.notdef /.notdef /.notdef /.notdef /.notdef
 /space /exclam /quotedbl /numbersign /dollar /percent /ampersand /quoteright
 /parenleft /parenright /asterisk /plus /comma /minus /period /slash
 /zero /one /two /three /four /five /six /seven
 /eight /nine /colon /semicolon /less /equal /greater /question
 /at /A /B /C /D /E /F /G
 /H /I /J /K /L /M /N /O
 /P /Q /R /S /T /U /V /W
 /X /Y /Z /bracketleft /backslash /bracketright /asciicircum /underscore
 /grave /a /b /c /d /e /f /g
 /h /i /j /k /l /m /n /o
 /p /q /r /s /t /u /v /w
 /x /y /z /braceleft /bar /braceright /asciitilde /.notdef
 /Euro /.notdef /quotesinglbase /florin /quotedblbase /ellipsis /dagger /daggerdbl
 /circumflex /perthousand /Scaron /guilsinglleft /OE /.notdef /Zcaron /.notdef
 /.notdef /quoteleft /quoteright /quotedblleft /quotedblright /bullet /endash /emdash
 /tilde /trademark /scaron /guilsinglright /oe /.notdef /zcaron /Ydieresis
 /space /exclamdown /cent /sterling /currency /yen /brokenbar /section
 /dieresis /copyright /ordfeminine /guillemotleft /logicalnot /hyphen /registered /macron
 /degree /plusminus /twosuperior /threesuperior /acute /mu /paragraph /periodcentered
 /cedilla /onesuperior /ordmasculine /guillemotright /onequarter /onehalf /threequarters /questiondown
 /Agrave /Aacute /Acircumflex /Atilde /Adieresis /Aring /AE /Ccedilla
 /Egrave /Eacute /Ecircumflex /Edieresis /Igrave /Iacute /Icircumflex /Idieresis
 /Eth /Ntilde /Ograve /Oacute /Ocircumflex /Otilde /Odieresis /multiply
 /Oslash /Ugrave /Uacute /Ucircumflex /Udieresis /Yacute /Thorn /germandbls
 /agrave /aacute /acircumflex /atilde /adieresis /aring /ae /ccedilla
 /egrave /eacute /ecircumflex /edieresis /igrave /iacute /icircumflex /idieresis
 /eth /ntilde /ograve /oacute /ocircumflex /otilde /odieresis /divide
 /oslash /ugrave /uacute /ucircumflex /udieresis /yacute /thorn /ydieresis
]
 def
% end encoding
%%IncludeResource: font Helvetica
/Helvetica findfont
dup length dict begin
  {1 index /FID ne {def} {pop pop} ifelse} forall
  /Encoding WinAnsiEncoding def
  currentdict
  end
/Font1 exch definefont pop
%%IncludeResource: font Helvetica-Bold
/Helvetica-Bold findfont
dup length dict begin
  {1 index /FID ne {def} {pop pop} ifelse} forall
  /Encoding WinAnsiEncoding def
  currentdict
  end
/Font2 exch definefont pop
%%IncludeResource: font Helvetica-Oblique
/Helvetica-Oblique findfont
dup length dict begin
  {1 index /FID ne {def} {pop pop} ifelse} forall
  /Encoding WinAnsiEncoding def
  currentdict
  end
/Font3 exch definefont pop
%%IncludeResource: font Helvetica-BoldOblique
/Helvetica-BoldOblique findfont
dup length dict begin
  {1 index /FID ne {def} {pop pop} ifelse} forall
  /Encoding WinAnsiEncoding def
  currentdict
  end
/Font4 exch definefont pop
%%IncludeResource: font Symbol
/Symbol findfont
dup length dict begin
  {1 index /FID ne {def} {pop pop} ifelse} forall
  currentdict
  end
/Font5 exch definefont pop
%%EndProlog
%%Page: 1 1
bp
59.04 73.44 401.76 372.96 cl
0.00 0.00 432.00 432.00 cl
0 0 0 srgb
0.75 setlinewidth
[] 0 setdash
1 setlinecap
1 setlinejoin
10.00 setmiterlimit
np
59.04 84.53 m
0 277.34 l
o
np
59.04 84.53 m
-7.20 0 l
o
np
59.04 140.00 m
-7.20 0 l
o
np
59.04 195.47 m
-7.20 0 l
o
np
59.04 250.93 m
-7.20 0 l
o
np
59.04 306.40 m
-7.20 0 l
o
np
59.04 361.87 m
-7.20 0 l
o
/Font1 findfont 12 s
44.64 80.23 (0.00) 1 0 t
44.64 135.69 (0.02) 1 0 t
44.64 191.16 (0.04) 1 0 t
44.64 246.63 (0.06) 1 0 t
44.64 302.09 (0.08) 1 0 t
44.64 357.56 (0.10) 1 0 t
np
 59.04 73.44 m
342.72 0 l
0 299.52 l
-342.72 0 l
cp p1
0.00 0.00 432.00 432.00 cl
/Font1 findfont 12 s
0 0 0 srgb
220.39 21.20 (p) 0 0 t
227.06 21.20 (p) 0 0 t
233.74 21.20 (b) 0 0 t
12.96 223.20 (A) .5 90 t
0.00 0.00 432.00 432.00 cl
0 0 0 srgb
0.75 setlinewidth
[] 0 setdash
1 setlinecap
1 setlinejoin
10.00 setmiterlimit
np
71.73 73.44 m
317.34 0 l
o
np
71.73 73.44 m
0 -7.20 l
o
np
151.07 73.44 m
0 -7.20 l
o
np
230.40 73.44 m
0 -7.20 l
o
np
309.73 73.44 m
0 -7.20 l
o
np
389.07 73.44 m
0 -7.20 l
o
/Font1 findfont 12 s
71.73 47.52 (0) .5 0 t
151.07 47.52 (100) .5 0 t
230.40 47.52 (200) .5 0 t
309.73 47.52 (300) .5 0 t
389.07 47.52 (400) .5 0 t
59.04 73.44 401.76 372.96 cl
/bg { 0.6039 0.7451 0.7412 srgb } def
np
 865.07 1018.72 m
-2.05 -2.44 l
-2.04 -2.44 l
-2.05 -2.44 l
-2.04 -2.44 l
-2.05 -2.44 l
-2.04 -2.44 l
-2.05 -2.44 l
-2.04 -2.44 l
-2.05 -2.44 l
-2.04 -2.44 l
-2.04 -2.44 l
-2.05 -2.44 l
-2.04 -2.44 l
-2.05 -2.44 l
-2.04 -2.44 l
-2.05 -2.44 l
-2.04 -2.44 l
-2.05 -2.44 l
-2.04 -2.44 l
-2.05 -2.44 l
-2.04 -2.44 l
-2.05 -2.44 l
-2.04 -2.44 l
-2.05 -2.44 l
-2.04 -2.44 l
-2.04 -2.44 l
-2.05 -2.44 l
-2.04 -2.44 l
-2.05 -2.44 l
-2.04 -2.44 l
-2.05 -2.44 l
-2.04 -2.44 l
-2.05 -2.44 l
-2.04 -2.44 l
-2.05 -2.44 l
-2.04 -2.44 l
-2.05 -2.44 l
-2.04 -2.44 l
-2.05 -2.44 l
-2.04 -2.44 l
-2.04 -2.44 l
-2.05 -2.44 l
-2.04 -2.44 l
-2.05 -2.44 l
-2.04 -2.44 l
-2.05 -2.44 l
-2.04 -2.44 l
-2.05 -2.44 l
-2.04 -2.44 l
-2.05 -2.44 l
-2.04 -2.44 l
-2.05 -2.44 l
-2.04 -2.44 l
-2.05 -2.44 l
-2.04 -2.44 l
-2.05 -2.44 l
-2.04 -2.44 l
-2.04 -2.43 l
-2.05 -2.44 l
-2.04 -2.44 l
-2.05 -2.44 l
-2.04 -2.44 l
-2.05 -2.44 l
-2.04 -2.44 l
-2.05 -2.44 l
-2.04 -2.44 l
-2.05 -2.44 l
-2.04 -2.44 l
-2.05 -2.44 l
-2.04 -2.44 l
-2.05 -2.44 l
-2.04 -2.44 l
-2.04 -2.44 l
-2.05 -2.43 l
-2.04 -2.44 l
-2.05 -2.44 l
-2.04 -2.44 l
-2.05 -2.44 l
-2.04 -2.44 l
-2.05 -2.44 l
-2.04 -2.44 l
-2.05 -2.44 l
-2.04 -2.44 l
-2.05 -2.44 l
-2.04 -2.43 l
-2.05 -2.44 l
-2.04 -2.44 l
-2.04 -2.44 l
-2.05 -2.44 l
-2.04 -2.44 l
-2.05 -2.44 l
-2.04 -2.44 l
-2.05 -2.44 l
-2.04 -2.43 l
-2.05 -2.44 l
-2.04 -2.44 l
-2.05 -2.44 l
-2.04 -2.44 l
-2.05 -2.44 l
660.60 774.76 lineto
-2.05 -2.44 l
-2.04 -2.43 l
-2.04 -2.44 l
-2.05 -2.44 l
-2.04 -2.44 l
-2.05 -2.44 l
-2.04 -2.44 l
-2.05 -2.43 l
-2.04 -2.44 l
-2.05 -2.44 l
-2.04 -2.44 l
-2.05 -2.44 l
-2.04 -2.44 l
-2.05 -2.43 l
-2.04 -2.44 l
-2.05 -2.44 l
-2.04 -2.44 l
-2.04 -2.44 l
-2.05 -2.43 l
-2.04 -2.44 l
-2.05 -2.44 l
-2.04 -2.44 l
-2.05 -2.44 l
-2.04 -2.43 l
-2.05 -2.44 l
-2.04 -2.44 l
-2.05 -2.44 l
-2.04 -2.43 l
-2.05 -2.44 l
-2.04 -2.44 l
-2.05 -2.44 l
-2.04 -2.43 l
-2.04 -2.44 l
-2.05 -2.44 l
-2.04 -2.44 l
-2.05 -2.43 l
-2.04 -2.44 l
-2.05 -2.44 l
-2.04 -2.44 l
-2.05 -2.43 l
-2.04 -2.44 l
-2.05 -2.44 l
-2.04 -2.43 l
-2.05 -2.44 l
-2.04 -2.44 l
-2.05 -2.43 l
-2.04 -2.44 l
-2.05 -2.44 l
-2.04 -2.43 l
-2.04 -2.44 l
-2.05 -2.44 l
-2.04 -2.43 l
-2.05 -2.44 l
-2.04 -2.44 l
-2.05 -2.43 l
-2.04 -2.44 l
-2.05 -2.43 l
-2.04 -2.44 l
-2.05 -2.44 l
-2.04 -2.43 l
-2.05 -2.44 l
-2.04 -2.43 l
-2.05 -2.44 l
-2.04 -2.44 l
-2.04 -2.43 l
-2.05 -2.44 l
-2.04 -2.43 l
-2.05 -2.44 l
-2.04 -2.43 l
-2.05 -2.44 l
-2.04 -2.43 l
-2.05 -2.44 l
-2.04 -2.43 l
-2.05 -2.44 l
-2.04 -2.43 l
-2.05 -2.44 l
-2.04 -2.43 l
-2.05 -2.44 l
-2.04 -2.43 l
-2.04 -2.43 l
-2.05 -2.44 l
-2.04 -2.43 l
-2.05 -2.44 l
-2.04 -2.43 l
-2.05 -2.43 l
-2.04 -2.44 l
-2.05 -2.43 l
-2.04 -2.44 l
-2.05 -2.43 l
-2.04 -2.43 l
-2.05 -2.44 l
-2.04 -2.43 l
-2.05 -2.43 l
-2.04 -2.43 l
-2.04 -2.44 l
-2.05 -2.43 l
-2.04 -2.43 l
-2.05 -2.43 l
-2.04 -2.44 l
456.13 531.15 lineto
-2.04 -2.43 l
-2.05 -2.43 l
-2.04 -2.43 l
-2.05 -2.43 l
-2.04 -2.43 l
-2.05 -2.44 l
-2.04 -2.43 l
-2.05 -2.43 l
-2.04 -2.43 l
-2.04 -2.43 l
-2.05 -2.43 l
-2.04 -2.43 l
-2.05 -2.43 l
-2.04 -2.43 l
-2.05 -2.43 l
-2.04 -2.43 l
-2.05 -2.43 l
-2.04 -2.42 l
-2.05 -2.43 l
-2.04 -2.43 l
-2.05 -2.43 l
-2.04 -2.43 l
-2.05 -2.42 l
-2.04 -2.43 l
-2.04 -2.43 l
-2.05 -2.43 l
-2.04 -2.42 l
-2.05 -2.43 l
-2.04 -2.43 l
-2.05 -2.42 l
-2.04 -2.43 l
-2.05 -2.42 l
-2.04 -2.43 l
-2.05 -2.42 l
-2.04 -2.43 l
-2.05 -2.42 l
-2.04 -2.42 l
-2.05 -2.43 l
-2.04 -2.42 l
-2.04 -2.42 l
-2.05 -2.43 l
-2.04 -2.42 l
-2.05 -2.42 l
-2.04 -2.42 l
-2.05 -2.42 l
-2.04 -2.42 l
-2.05 -2.42 l
-2.04 -2.42 l
-2.05 -2.42 l
-2.04 -2.42 l
-2.05 -2.42 l
-2.04 -2.41 l
-2.05 -2.42 l
-2.04 -2.42 l
-2.05 -2.41 l
-2.04 -2.42 l
-2.04 -2.41 l
-2.05 -2.42 l
-2.04 -2.41 l
-2.05 -2.42 l
-2.04 -2.41 l
-2.05 -2.41 l
-2.04 -2.41 l
-2.05 -2.41 l
-2.04 -2.41 l
-2.05 -2.41 l
-2.04 -2.41 l
-2.05 -2.41 l
-2.04 -2.40 l
-2.05 -2.41 l
-2.04 -2.40 l
-2.04 -2.41 l
-2.05 -2.40 l
-2.04 -2.41 l
-2.05 -2.40 l
-2.04 -2.40 l
-2.05 -2.40 l
-2.04 -2.40 l
-2.05 -2.39 l
-2.04 -2.40 l
-2.05 -2.40 l
-2.04 -2.39 l
-2.05 -2.39 l
-2.04 -2.40 l
-2.05 -2.39 l
-2.04 -2.39 l
-2.04 -2.39 l
-2.05 -2.38 l
-2.04 -2.39 l
-2.05 -2.38 l
-2.04 -2.39 l
-2.05 -2.38 l
-2.04 -2.38 l
-2.05 -2.38 l
-2.04 -2.37 l
-2.05 -2.38 l
-2.04 -2.37 l
-2.05 -2.37 l
-2.04 -2.37 l
251.66 289.91 lineto
-2.04 -2.37 l
-2.04 -2.36 l
-2.05 -2.37 l
-2.04 -2.36 l
-2.05 -2.36 l
-2.04 -2.36 l
-2.05 -2.35 l
-2.04 -2.36 l
-2.05 -2.35 l
-2.04 -2.35 l
-2.05 -2.34 l
-2.04 -2.35 l
-2.05 -2.34 l
-2.04 -2.34 l
-2.05 -2.34 l
-2.04 -2.34 l
-2.04 -2.33 l
-2.05 -2.34 l
-2.04 -2.33 l
-2.05 -2.32 l
-2.04 -2.33 l
-2.05 -2.32 l
-2.04 -2.33 l
-2.05 -2.31 l
-2.04 -2.32 l
-2.05 -2.32 l
-2.04 -2.31 l
-2.05 -2.31 l
-2.04 -2.31 l
-2.05 -2.30 l
-2.04 -2.31 l
-2.04 -2.30 l
-2.05 -2.30 l
-2.04 -2.30 l
-2.05 -2.29 l
-2.04 -2.30 l
-2.05 -2.29 l
-2.04 -2.29 l
-2.05 -2.29 l
-2.04 -2.28 l
-2.05 -2.28 l
-2.04 -2.29 l
-2.05 -2.28 l
-2.04 -2.28 l
-2.05 -2.27 l
-2.04 -2.28 l
-2.05 -2.27 l
-2.04 -2.27 l
-2.04 -2.27 l
-2.05 -2.27 l
-2.04 -2.27 l
-2.05 -2.26 l
-2.04 -2.27 l
-2.05 -2.26 l
-2.04 -2.26 l
-2.05 -2.26 l
-2.04 -2.26 l
-2.05 -2.26 l
-2.04 -2.25 l
-2.05 -2.26 l
-2.04 -2.25 l
-2.05 -2.26 l
-2.04 -2.25 l
-2.04 -2.25 l
-2.05 -2.25 l
-2.04 -2.25 l
-2.05 -2.24 l
-2.04 -2.25 l
-2.05 -2.24 l
-2.04 -2.25 l
-2.05 -2.24 l
-2.04 -2.24 l
-2.05 -2.25 l
-2.04 -2.24 l
-2.05 -2.24 l
-2.04 -2.24 l
-2.05 -2.24 l
-2.04 -2.23 l
-2.04 -2.24 l
-2.05 -2.24 l
-2.04 -2.23 l
-2.05 -2.24 l
-2.04 -2.23 l
-2.05 -2.24 l
-2.04 -2.23 l
-2.05 -2.23 l
-2.04 -2.23 l
-2.05 -2.23 l
-2.04 -2.24 l
-2.05 -2.23 l
-2.04 -2.23 l
-2.05 -2.23 l
-2.04 -2.22 l
-2.04 -2.23 l
-2.05 -2.23 l
-2.04 -2.23 l
-2.05 -2.22 l
-2.04 -2.23 l
-2.05 -2.23 l
47.20 61.98 lineto
-2.05 -2.23 l
-2.04 -2.22 l
-2.05 -2.23 l
-2.04 -2.22 l
-2.05 -2.23 l
-2.04 -2.22 l
-2.05 -2.22 l
-2.04 -2.23 l
-2.04 -2.22 l
-2.05 -2.22 l
-2.04 -2.22 l
-2.05 -2.22 l
-2.04 -2.23 l
-2.05 -2.22 l
-2.04 -2.22 l
-2.05 -2.22 l
-2.04 -2.22 l
-2.05 -2.22 l
-2.04 -2.22 l
-2.05 -2.22 l
-2.04 -2.22 l
-2.05 -2.22 l
-2.04 -2.21 l
-2.04 -2.22 l
-2.05 -2.22 l
-2.04 -2.22 l
-2.05 -2.22 l
-2.04 -2.21 l
-2.05 -2.22 l
-2.04 -2.22 l
-2.05 -2.22 l
-2.04 -2.21 l
-2.05 -2.22 l
-2.04 -2.22 l
-2.05 -2.21 l
-2.04 -2.22 l
-2.05 -2.22 l
-2.04 -2.21 l
-2.05 -2.22 l
-2.04 -2.21 l
-2.04 -2.22 l
-2.05 -2.21 l
-2.04 -2.22 l
-2.05 -2.21 l
-2.04 -2.22 l
-2.05 -2.21 l
-2.04 -2.22 l
-2.05 -2.21 l
-2.04 -2.22 l
-2.05 -2.21 l
-2.04 -2.21 l
-2.05 -2.22 l
-2.04 -2.21 l
-2.05 -2.21 l
-2.04 -2.22 l
-2.04 -2.21 l
-2.05 -2.21 l
-2.04 -2.22 l
-2.05 -2.21 l
-2.04 -2.21 l
-2.05 -2.22 l
-2.04 -2.21 l
-2.05 -2.21 l
-2.04 -2.21 l
-2.05 -2.22 l
-2.04 -2.21 l
-2.05 -2.21 l
-2.04 -2.21 l
-2.05 -2.22 l
-2.04 -2.21 l
-2.04 -2.21 l
-2.05 -2.21 l
-2.04 -2.21 l
-2.05 -2.22 l
-2.04 -2.21 l
-2.05 -2.21 l
-2.04 -2.21 l
-2.05 -2.21 l
-2.04 -2.21 l
-2.05 -2.21 l
-2.04 -2.22 l
-2.05 -2.21 l
-2.04 -2.21 l
-2.05 -2.21 l
-2.04 -2.21 l
-2.04 -2.21 l
-2.05 -2.21 l
-2.04 -2.21 l
-2.05 -2.21 l
-2.04 -2.21 l
-2.05 -2.21 l
-2.04 -2.21 l
-2.05 -2.21 l
-2.04 -2.21 l
-2.05 -2.21 l
-2.04 -2.21 l
-2.05 -2.21 l
-2.04 -2.21 l
-2.05 -2.21 l
-157.27 -159.54 lineto
-2.04 -2.21 l
-2.05 -2.21 l
-2.04 -2.21 l
-2.05 -2.21 l
-2.04 -2.21 l
-2.05 -2.21 l
-2.04 -2.21 l
-2.05 -2.21 l
-2.04 -2.21 l
-2.05 -2.21 l
-2.04 -2.21 l
-2.05 -2.21 l
-2.04 -2.21 l
-2.05 -2.21 l
-2.04 -2.21 l
-2.04 -2.21 l
-2.05 -2.21 l
-2.04 -2.21 l
-2.05 -2.20 l
-2.04 -2.21 l
-2.05 -2.21 l
-2.04 -2.21 l
-2.05 -2.21 l
-2.04 -2.21 l
-2.05 -2.21 l
-2.04 -2.21 l
-2.05 -2.21 l
-2.04 -2.20 l
-2.05 -2.21 l
-2.04 -2.21 l
-2.04 -2.21 l
-2.05 -2.21 l
-2.04 -2.21 l
-2.05 -2.21 l
-2.04 -2.20 l
-2.05 -2.21 l
-2.04 -2.21 l
-2.05 -2.21 l
-2.04 -2.21 l
-2.05 -2.21 l
-2.04 -2.21 l
-2.05 -2.20 l
-2.04 -2.21 l
-2.05 -2.21 l
-2.04 -2.21 l
-2.05 -2.21 l
-2.04 -2.20 l
-2.04 -2.21 l
-2.05 -2.21 l
-2.04 -2.21 l
-2.05 -2.21 l
-2.04 -2.21 l
-2.05 -2.20 l
-2.04 -2.21 l
-2.05 -2.21 l
-2.04 -2.21 l
-2.05 -2.20 l
-2.04 -2.21 l
-2.05 -2.21 l
-2.04 -2.21 l
-2.05 -2.21 l
-2.04 -2.20 l
-2.04 -2.21 l
-2.05 -2.21 l
-2.04 -2.21 l
-2.05 -2.20 l
-2.04 -2.21 l
-2.05 -2.21 l
-2.04 -2.21 l
-2.05 -2.21 l
-2.04 -2.20 l
-2.05 -2.21 l
-2.04 -2.21 l
-2.05 -2.21 l
-2.04 -2.20 l
-2.05 -2.21 l
-2.04 -2.21 l
-2.04 -2.21 l
-2.05 -2.20 l
-2.04 -2.21 l
-2.05 -2.21 l
-2.04 -2.21 l
-2.05 -2.20 l
-2.04 -2.21 l
-2.05 -2.21 l
-2.04 -2.20 l
-2.05 -2.21 l
-2.04 -2.21 l
-2.05 -2.21 l
-2.04 -2.20 l
-2.05 -2.21 l
-2.04 -2.21 l
-2.04 -2.21 l
-2.05 -2.20 l
-2.04 -2.21 l
-2.05 -2.21 l
-2.04 -2.20 l
-2.05 -2.21 l
-2.04 -2.21 l
-361.74 -380.37 lineto
-2.04 -2.20 l
-2.05 -2.21 l
-2.04 -2.21 l
-2.05 -2.20 l
-2.04 -2.21 l
-2.05 -2.21 l
-2.04 -2.20 l
-2.04 -2.21 l
-2.05 -2.21 l
-2.04 -2.21 l
-2.05 -2.20 l
-2.04 -2.21 l
-2.05 -2.21 l
-2.04 -2.20 l
-2.05 -2.21 l
-2.04 -2.21 l
-2.05 -2.20 l
-2.04 -2.21 l
-2.05 -2.21 l
-2.04 -2.20 l
-2.05 -2.21 l
-2.04 -2.21 l
-2.04 -2.20 l
-2.05 -2.21 l
-2.04 -2.21 l
-2.05 -2.20 l
-2.04 -2.21 l
-2.05 -2.21 l
-2.04 -2.20 l
-2.05 -2.21 l
-2.04 -2.21 l
-2.05 -2.20 l
-2.04 -2.21 l
-2.05 -2.21 l
-2.04 -2.20 l
-2.05 -2.21 l
-2.04 -2.21 l
-2.05 -2.20 l
-2.04 -2.21 l
-2.04 -2.21 l
-2.05 -2.20 l
-2.04 -2.21 l
-2.05 -2.21 l
-2.04 -2.20 l
-2.05 -2.21 l
-2.04 -2.21 l
-2.05 -2.20 l
-2.04 -2.21 l
-2.05 -2.21 l
-2.04 -2.20 l
-2.05 -2.21 l
-2.04 -2.21 l
-2.05 -2.20 l
-2.04 -2.21 l
-2.04 -2.21 l
-2.05 -2.20 l
-2.04 -2.21 l
-2.05 -2.20 l
-2.04 -2.21 l
-2.05 -2.21 l
-2.04 -2.20 l
-2.05 -2.21 l
-2.04 -2.21 l
-2.05 -2.20 l
-2.04 -2.21 l
-2.05 -2.21 l
-2.04 -2.20 l
-2.05 -2.21 l
-2.04 -2.20 l
-2.04 -2.21 l
-2.05 -2.21 l
-2.04 -2.20 l
-2.05 -2.21 l
-2.04 -2.21 l
-2.05 -2.20 l
-2.04 -2.21 l
-2.05 -2.20 l
-2.04 -2.21 l
-2.05 -2.21 l
-2.04 -2.20 l
-2.05 -2.21 l
-2.04 -2.21 l
-2.05 -2.20 l
-2.04 -2.21 l
-2.04 -2.20 l
-2.05 -2.21 l
-2.04 -2.21 l
-2.05 -2.20 l
-2.04 -2.21 l
-2.05 -2.21 l
-2.04 -2.20 l
-2.05 -2.21 l
-2.04 -2.20 l
-2.05 -2.21 l
-2.04 -2.21 l
-2.05 -2.20 l
-2.04 -2.21 l
-2.05 -2.21 l
-2.04 -2.20 l
-566.20 -601.02 lineto
-2.05 -2.20 l
-2.04 -2.21 l
-2.05 -2.21 l
-2.04 -2.20 l
-2.05 -2.21 l
-2.04 -2.20 l
-2.05 -2.21 l
-2.04 -2.21 l
-2.05 -2.20 l
-2.04 -2.21 l
-2.05 -2.20 l
-2.04 -2.21 l
-2.05 -2.21 l
-2.04 -2.20 l
-2.04 -2.21 l
-2.05 -2.20 l
-2.04 -2.21 l
-2.05 -2.21 l
-2.04 -2.20 l
-2.05 -2.21 l
-2.04 -2.20 l
-2.05 -2.21 l
-2.04 -2.21 l
-2.05 -2.20 l
-2.04 -2.21 l
-2.05 -2.20 l
-2.04 -2.21 l
-2.05 -2.21 l
-2.04 -2.20 l
-2.05 -2.21 l
-2.04 -2.20 l
-2.04 -2.21 l
-2.05 -2.21 l
-2.04 -2.20 l
-2.05 -2.21 l
-2.04 -2.20 l
-2.05 -2.21 l
-2.04 -2.21 l
-2.05 -2.20 l
-2.04 -2.21 l
-2.05 -2.20 l
-2.04 -2.21 l
-2.05 -2.20 l
-2.04 -2.21 l
-2.05 -2.21 l
-2.04 -2.20 l
-2.04 -2.21 l
-2.05 -2.20 l
-2.04 -2.21 l
-2.05 -2.21 l
-2.04 -2.20 l
-2.05 -2.21 l
-2.04 -2.20 l
-2.05 -2.21 l
-2.04 -2.21 l
-2.05 -2.20 l
-2.04 -2.21 l
-2.05 -2.20 l
-2.04 -2.21 l
-2.05 -2.20 l
-2.04 -2.21 l
-2.04 -2.21 l
-2.05 -2.20 l
-2.04 -2.21 l
-2.05 -2.20 l
-2.04 -2.21 l
-2.05 -2.21 l
-2.04 -2.20 l
-2.05 -2.21 l
-2.04 -2.20 l
-2.05 -2.21 l
-2.04 -2.20 l
-2.05 -2.21 l
-2.04 -2.21 l
-2.05 -2.20 l
-2.04 -2.21 l
0 -108.41 l
2.04 2.44 l
2.05 2.44 l
2.04 2.44 l
2.05 2.44 l
2.04 2.44 l
2.05 2.44 l
2.04 2.45 l
2.05 2.44 l
2.04 2.44 l
2.05 2.44 l
2.04 2.44 l
2.05 2.44 l
2.04 2.44 l
2.05 2.44 l
2.04 2.44 l
2.04 2.44 l
2.05 2.45 l
2.04 2.44 l
2.05 2.44 l
2.04 2.44 l
2.05 2.44 l
2.04 2.44 l
-674.57 -820.94 lineto
2.04 2.44 l
2.05 2.44 l
2.04 2.44 l
2.05 2.45 l
2.04 2.44 l
2.05 2.44 l
2.04 2.44 l
2.04 2.44 l
2.05 2.44 l
2.04 2.44 l
2.05 2.44 l
2.04 2.44 l
2.05 2.44 l
2.04 2.45 l
2.05 2.44 l
2.04 2.44 l
2.05 2.44 l
2.04 2.44 l
2.05 2.44 l
2.04 2.44 l
2.05 2.44 l
2.04 2.44 l
2.04 2.44 l
2.05 2.44 l
2.04 2.45 l
2.05 2.44 l
2.04 2.44 l
2.05 2.44 l
2.04 2.44 l
2.05 2.44 l
2.04 2.44 l
2.05 2.44 l
2.04 2.44 l
2.05 2.44 l
2.04 2.44 l
2.05 2.44 l
2.04 2.45 l
2.05 2.44 l
2.04 2.44 l
2.04 2.44 l
2.05 2.44 l
2.04 2.44 l
2.05 2.44 l
2.04 2.44 l
2.05 2.44 l
2.04 2.44 l
2.05 2.44 l
2.04 2.44 l
2.05 2.44 l
2.04 2.45 l
2.05 2.44 l
2.04 2.44 l
2.05 2.44 l
2.04 2.44 l
2.04 2.44 l
2.05 2.44 l
2.04 2.44 l
2.05 2.44 l
2.04 2.44 l
2.05 2.44 l
2.04 2.44 l
2.05 2.44 l
2.04 2.44 l
2.05 2.45 l
2.04 2.44 l
2.05 2.44 l
2.04 2.44 l
2.05 2.44 l
2.04 2.44 l
2.04 2.44 l
2.05 2.44 l
2.04 2.44 l
2.05 2.44 l
2.04 2.44 l
2.05 2.44 l
2.04 2.44 l
2.05 2.44 l
2.04 2.44 l
2.05 2.44 l
2.04 2.45 l
2.05 2.44 l
2.04 2.44 l
2.05 2.44 l
2.04 2.44 l
2.04 2.44 l
2.05 2.44 l
2.04 2.44 l
2.05 2.44 l
2.04 2.44 l
2.05 2.44 l
2.04 2.44 l
2.05 2.44 l
2.04 2.44 l
2.05 2.44 l
2.04 2.44 l
2.05 2.44 l
2.04 2.44 l
2.05 2.44 l
2.04 2.44 l
-470.11 -576.87 lineto
2.05 2.44 l
2.04 2.45 l
2.05 2.44 l
2.04 2.44 l
2.05 2.44 l
2.04 2.44 l
2.05 2.44 l
2.04 2.44 l
2.05 2.44 l
2.04 2.44 l
2.05 2.44 l
2.04 2.44 l
2.05 2.44 l
2.04 2.44 l
2.04 2.44 l
2.05 2.44 l
2.04 2.44 l
2.05 2.44 l
2.04 2.44 l
2.05 2.44 l
2.04 2.44 l
2.05 2.44 l
2.04 2.44 l
2.05 2.44 l
2.04 2.44 l
2.05 2.44 l
2.04 2.44 l
2.05 2.44 l
2.04 2.44 l
2.05 2.44 l
2.04 2.44 l
2.04 2.44 l
2.05 2.44 l
2.04 2.44 l
2.05 2.44 l
2.04 2.44 l
2.05 2.44 l
2.04 2.44 l
2.05 2.44 l
2.04 2.44 l
2.05 2.44 l
2.04 2.44 l
2.05 2.44 l
2.04 2.44 l
2.05 2.44 l
2.04 2.44 l
2.04 2.44 l
2.05 2.44 l
2.04 2.44 l
2.05 2.44 l
2.04 2.44 l
2.05 2.44 l
2.04 2.44 l
2.05 2.44 l
2.04 2.44 l
2.05 2.44 l
2.04 2.44 l
2.05 2.44 l
2.04 2.44 l
2.05 2.44 l
2.04 2.44 l
2.04 2.44 l
2.05 2.44 l
2.04 2.44 l
2.05 2.44 l
2.04 2.44 l
2.05 2.43 l
2.04 2.44 l
2.05 2.44 l
2.04 2.44 l
2.05 2.44 l
2.04 2.44 l
2.05 2.44 l
2.04 2.44 l
2.05 2.44 l
2.04 2.44 l
2.04 2.44 l
2.05 2.44 l
2.04 2.44 l
2.05 2.44 l
2.04 2.44 l
2.05 2.44 l
2.04 2.43 l
2.05 2.44 l
2.04 2.44 l
2.05 2.44 l
2.04 2.44 l
2.05 2.44 l
2.04 2.44 l
2.05 2.44 l
2.04 2.44 l
2.04 2.44 l
2.05 2.44 l
2.04 2.44 l
2.05 2.43 l
2.04 2.44 l
2.05 2.44 l
2.04 2.44 l
2.05 2.44 l
-265.64 -332.89 lineto
2.05 2.44 l
2.04 2.44 l
2.05 2.44 l
2.04 2.43 l
2.05 2.44 l
2.04 2.44 l
2.04 2.44 l
2.05 2.44 l
2.04 2.44 l
2.05 2.44 l
2.04 2.43 l
2.05 2.44 l
2.04 2.44 l
2.05 2.44 l
2.04 2.44 l
2.05 2.44 l
2.04 2.44 l
2.05 2.43 l
2.04 2.44 l
2.05 2.44 l
2.04 2.44 l
2.05 2.44 l
2.04 2.43 l
2.04 2.44 l
2.05 2.44 l
2.04 2.44 l
2.05 2.44 l
2.04 2.44 l
2.05 2.43 l
2.04 2.44 l
2.05 2.44 l
2.04 2.44 l
2.05 2.43 l
2.04 2.44 l
2.05 2.44 l
2.04 2.44 l
2.05 2.44 l
2.04 2.43 l
2.04 2.44 l
2.05 2.44 l
2.04 2.44 l
2.05 2.43 l
2.04 2.44 l
2.05 2.44 l
2.04 2.44 l
2.05 2.43 l
2.04 2.44 l
2.05 2.44 l
2.04 2.43 l
2.05 2.44 l
2.04 2.44 l
2.05 2.44 l
2.04 2.43 l
2.04 2.44 l
2.05 2.44 l
2.04 2.43 l
2.05 2.44 l
2.04 2.44 l
2.05 2.43 l
2.04 2.44 l
2.05 2.44 l
2.04 2.43 l
2.05 2.44 l
2.04 2.43 l
2.05 2.44 l
2.04 2.44 l
2.05 2.43 l
2.04 2.44 l
2.04 2.44 l
2.05 2.43 l
2.04 2.44 l
2.05 2.43 l
2.04 2.44 l
2.05 2.43 l
2.04 2.44 l
2.05 2.44 l
2.04 2.43 l
2.05 2.44 l
2.04 2.43 l
2.05 2.44 l
2.04 2.43 l
2.05 2.44 l
2.04 2.43 l
2.04 2.44 l
2.05 2.43 l
2.04 2.44 l
2.05 2.43 l
2.04 2.43 l
2.05 2.44 l
2.04 2.43 l
2.05 2.44 l
2.04 2.43 l
2.05 2.44 l
2.04 2.43 l
2.05 2.43 l
2.04 2.44 l
2.05 2.43 l
2.04 2.43 l
2.04 2.44 l
-61.17 -89.22 lineto
2.04 2.43 l
2.05 2.44 l
2.04 2.43 l
2.05 2.43 l
2.04 2.43 l
2.05 2.44 l
2.04 2.43 l
2.05 2.43 l
2.04 2.43 l
2.05 2.44 l
2.04 2.43 l
2.05 2.43 l
2.04 2.43 l
2.04 2.43 l
2.05 2.43 l
2.04 2.43 l
2.05 2.43 l
2.04 2.44 l
2.05 2.43 l
2.04 2.43 l
2.05 2.43 l
2.04 2.43 l
2.05 2.43 l
2.04 2.43 l
2.05 2.42 l
2.04 2.43 l
2.05 2.43 l
2.04 2.43 l
2.05 2.43 l
2.04 2.43 l
2.04 2.43 l
2.05 2.42 l
2.04 2.43 l
2.05 2.43 l
2.04 2.43 l
2.05 2.42 l
2.04 2.43 l
2.05 2.43 l
2.04 2.42 l
2.05 2.43 l
2.04 2.42 l
2.05 2.43 l
2.04 2.42 l
2.05 2.43 l
2.04 2.42 l
2.04 2.43 l
2.05 2.42 l
2.04 2.42 l
2.05 2.43 l
2.04 2.42 l
2.05 2.42 l
2.04 2.42 l
2.05 2.43 l
2.04 2.42 l
2.05 2.42 l
2.04 2.42 l
2.05 2.42 l
2.04 2.42 l
2.05 2.42 l
2.04 2.41 l
2.04 2.42 l
2.05 2.42 l
2.04 2.42 l
2.05 2.41 l
2.04 2.42 l
2.05 2.41 l
2.04 2.42 l
2.05 2.41 l
2.04 2.42 l
2.05 2.41 l
2.04 2.41 l
2.05 2.41 l
2.04 2.42 l
2.05 2.41 l
2.04 2.41 l
2.04 2.40 l
2.05 2.41 l
2.04 2.41 l
2.05 2.41 l
2.04 2.40 l
2.05 2.41 l
2.04 2.40 l
2.05 2.41 l
2.04 2.40 l
2.05 2.40 l
2.04 2.40 l
2.05 2.40 l
2.04 2.40 l
2.05 2.40 l
2.04 2.39 l
2.04 2.40 l
2.05 2.39 l
2.04 2.39 l
2.05 2.40 l
2.04 2.39 l
2.05 2.39 l
2.04 2.39 l
2.05 2.38 l
2.04 2.39 l
143.30 152.58 lineto
2.04 2.38 l
2.05 2.39 l
2.04 2.38 l
2.05 2.37 l
2.04 2.38 l
2.04 2.38 l
2.05 2.37 l
2.04 2.37 l
2.05 2.37 l
2.04 2.37 l
2.05 2.37 l
2.04 2.36 l
2.05 2.36 l
2.04 2.36 l
2.05 2.36 l
2.04 2.36 l
2.05 2.36 l
2.04 2.35 l
2.05 2.35 l
2.04 2.35 l
2.05 2.35 l
2.04 2.34 l
2.04 2.34 l
2.05 2.34 l
2.04 2.34 l
2.05 2.34 l
2.04 2.33 l
2.05 2.34 l
2.04 2.33 l
2.05 2.32 l
2.04 2.33 l
2.05 2.32 l
2.04 2.32 l
2.05 2.32 l
2.04 2.32 l
2.05 2.31 l
2.04 2.32 l
2.04 2.31 l
2.05 2.30 l
2.04 2.31 l
2.05 2.30 l
2.04 2.30 l
2.05 2.30 l
2.04 2.30 l
2.05 2.30 l
2.04 2.29 l
2.05 2.29 l
2.04 2.29 l
2.05 2.29 l
2.04 2.28 l
2.05 2.29 l
2.04 2.28 l
2.04 2.28 l
2.05 2.28 l
2.04 2.27 l
2.05 2.28 l
2.04 2.27 l
2.05 2.27 l
2.04 2.27 l
2.05 2.27 l
2.04 2.27 l
2.05 2.26 l
2.04 2.27 l
2.05 2.26 l
2.04 2.26 l
2.05 2.26 l
2.04 2.26 l
2.04 2.25 l
2.05 2.26 l
2.04 2.26 l
2.05 2.25 l
2.04 2.25 l
2.05 2.25 l
2.04 2.25 l
2.05 2.25 l
2.04 2.25 l
2.05 2.25 l
2.04 2.24 l
2.05 2.25 l
2.04 2.24 l
2.05 2.25 l
2.04 2.24 l
2.04 2.24 l
2.05 2.24 l
2.04 2.24 l
2.05 2.24 l
2.04 2.24 l
2.05 2.24 l
2.04 2.23 l
2.05 2.24 l
2.04 2.23 l
2.05 2.24 l
2.04 2.23 l
2.05 2.24 l
2.04 2.23 l
2.05 2.23 l
2.04 2.24 l
2.04 2.23 l
2.05 2.23 l
347.76 381.97 lineto
2.05 2.23 l
2.04 2.23 l
2.05 2.23 l
2.04 2.22 l
2.05 2.23 l
2.04 2.23 l
2.05 2.23 l
2.04 2.22 l
2.05 2.23 l
2.04 2.22 l
2.05 2.23 l
2.04 2.22 l
2.05 2.23 l
2.04 2.22 l
2.04 2.23 l
2.05 2.22 l
2.04 2.22 l
2.05 2.23 l
2.04 2.22 l
2.05 2.22 l
2.04 2.22 l
2.05 2.22 l
2.04 2.23 l
2.05 2.22 l
2.04 2.22 l
2.05 2.22 l
2.04 2.22 l
2.05 2.22 l
2.04 2.22 l
2.04 2.22 l
2.05 2.22 l
2.04 2.21 l
2.05 2.22 l
2.04 2.22 l
2.05 2.22 l
2.04 2.22 l
2.05 2.22 l
2.04 2.21 l
2.05 2.22 l
2.04 2.22 l
2.05 2.22 l
2.04 2.21 l
2.05 2.22 l
2.04 2.22 l
2.04 2.21 l
2.05 2.22 l
2.04 2.21 l
2.05 2.22 l
2.04 2.22 l
2.05 2.21 l
2.04 2.22 l
2.05 2.21 l
2.04 2.22 l
2.05 2.21 l
2.04 2.22 l
2.05 2.21 l
2.04 2.22 l
2.05 2.21 l
2.04 2.21 l
2.04 2.22 l
2.05 2.21 l
2.04 2.22 l
2.05 2.21 l
2.04 2.21 l
2.05 2.22 l
2.04 2.21 l
2.05 2.21 l
2.04 2.22 l
2.05 2.21 l
2.04 2.21 l
2.05 2.22 l
2.04 2.21 l
2.05 2.21 l
2.04 2.21 l
2.04 2.22 l
2.05 2.21 l
2.04 2.21 l
2.05 2.21 l
2.04 2.21 l
2.05 2.22 l
2.04 2.21 l
2.05 2.21 l
2.04 2.21 l
2.05 2.21 l
2.04 2.21 l
2.05 2.22 l
2.04 2.21 l
2.05 2.21 l
2.04 2.21 l
2.04 2.21 l
2.05 2.21 l
2.04 2.21 l
2.05 2.21 l
2.04 2.22 l
2.05 2.21 l
2.04 2.21 l
2.05 2.21 l
2.04 2.21 l
2.05 2.21 l
552.23 603.66 lineto
2.05 2.21 l
2.04 2.21 l
2.05 2.21 l
2.04 2.21 l
2.04 2.21 l
2.05 2.21 l
2.04 2.21 l
2.05 2.21 l
2.04 2.21 l
2.05 2.21 l
2.04 2.21 l
2.05 2.21 l
2.04 2.21 l
2.05 2.21 l
2.04 2.21 l
2.05 2.21 l
2.04 2.21 l
2.05 2.21 l
2.04 2.21 l
2.05 2.21 l
2.04 2.21 l
2.04 2.21 l
2.05 2.21 l
2.04 2.21 l
2.05 2.21 l
2.04 2.20 l
2.05 2.21 l
2.04 2.21 l
2.05 2.21 l
2.04 2.21 l
2.05 2.21 l
2.04 2.21 l
2.05 2.21 l
2.04 2.21 l
2.05 2.21 l
2.04 2.20 l
2.04 2.21 l
2.05 2.21 l
2.04 2.21 l
2.05 2.21 l
2.04 2.21 l
2.05 2.21 l
2.04 2.21 l
2.05 2.20 l
2.04 2.21 l
2.05 2.21 l
2.04 2.21 l
2.05 2.21 l
2.04 2.21 l
2.05 2.20 l
2.04 2.21 l
2.04 2.21 l
2.05 2.21 l
2.04 2.21 l
2.05 2.21 l
2.04 2.20 l
2.05 2.21 l
2.04 2.21 l
2.05 2.21 l
2.04 2.21 l
2.05 2.20 l
2.04 2.21 l
2.05 2.21 l
2.04 2.21 l
2.05 2.21 l
2.04 2.20 l
2.04 2.21 l
2.05 2.21 l
2.04 2.21 l
2.05 2.21 l
2.04 2.20 l
2.05 2.21 l
2.04 2.21 l
2.05 2.21 l
2.04 2.20 l
2.05 2.21 l
2.04 2.21 l
2.05 2.21 l
2.04 2.21 l
2.05 2.20 l
2.04 2.21 l
2.04 2.21 l
2.05 2.21 l
2.04 2.20 l
2.05 2.21 l
2.04 2.21 l
2.05 2.21 l
2.04 2.20 l
2.05 2.21 l
2.04 2.21 l
2.05 2.21 l
2.04 2.20 l
2.05 2.21 l
2.04 2.21 l
2.05 2.20 l
2.04 2.21 l
2.04 2.21 l
2.05 2.21 l
2.04 2.20 l
756.70 824.51 lineto
2.04 2.21 l
2.05 2.21 l
2.04 2.20 l
2.05 2.21 l
2.04 2.21 l
2.05 2.20 l
2.04 2.21 l
2.05 2.21 l
2.04 2.21 l
2.05 2.20 l
2.04 2.21 l
2.05 2.21 l
2.04 2.20 l
2.04 2.21 l
2.05 2.21 l
2.04 2.20 l
2.05 2.21 l
2.04 2.21 l
2.05 2.21 l
2.04 2.20 l
2.05 2.21 l
2.04 2.21 l
2.05 2.20 l
2.04 2.21 l
2.05 2.21 l
2.04 2.20 l
2.05 2.21 l
2.04 2.21 l
2.04 2.20 l
2.05 2.21 l
2.04 2.21 l
2.05 2.20 l
2.04 2.21 l
2.05 2.21 l
2.04 2.20 l
2.05 2.21 l
2.04 2.21 l
2.05 2.20 l
2.04 2.21 l
2.05 2.21 l
2.04 2.20 l
2.05 2.21 l
2.04 2.21 l
2.04 2.20 l
2.05 2.21 l
2.04 2.21 l
2.05 2.20 l
2.04 2.21 l
2.05 2.21 l
2.04 2.20 l
2.05 2.21 l
2.04 2.21 l
2.05 2.20 l
cp p2
0 0 0 srgb
0.75 setlinewidth
[] 0 setdash
1 setlinecap
1 setlinejoin
10.00 setmiterlimit
142.84 159.41 2.70 c p1
162.37 181.60 2.70 c p1
np
138.02 159.41 m
9.64 0 l
o
np
158.61 181.60 m
7.51 0 l
o
np
 71.73 85.96 m
3.64 -6.30 l
-7.27 0 l
cp p1
np
 108.68 127.56 m
3.63 -6.30 l
-7.27 0 l
cp p1
np
 149.99 169.16 m
3.64 -6.30 l
-7.27 0 l
cp p1
np
 229.57 257.91 m
3.63 -6.30 l
-7.27 0 l
cp p1
np
 301.84 338.33 m
3.64 -6.30 l
-7.28 0 l
cp p1
np
 383.29 443.72 m
3.64 -6.30 l
-7.27 0 l
cp p1
np
-721.60 -768.67 m
2.04 2.21 l
2.05 2.20 l
2.04 2.21 l
2.05 2.21 l
2.04 2.20 l
2.05 2.21 l
2.04 2.20 l
2.05 2.21 l
2.04 2.20 l
2.05 2.21 l
2.04 2.21 l
2.05 2.20 l
2.04 2.21 l
2.05 2.20 l
2.04 2.21 l
2.04 2.21 l
2.05 2.20 l
2.04 2.21 l
2.05 2.20 l
2.04 2.21 l
2.05 2.20 l
2.04 2.21 l
2.05 2.21 l
2.04 2.20 l
2.05 2.21 l
2.04 2.20 l
2.05 2.21 l
2.04 2.21 l
2.05 2.20 l
2.04 2.21 l
2.04 2.20 l
2.05 2.21 l
2.04 2.21 l
2.05 2.20 l
2.04 2.21 l
2.05 2.20 l
2.04 2.21 l
2.05 2.20 l
2.04 2.21 l
2.05 2.21 l
2.04 2.20 l
2.05 2.21 l
2.04 2.20 l
2.05 2.21 l
2.04 2.21 l
2.04 2.20 l
2.05 2.21 l
2.04 2.20 l
2.05 2.21 l
2.04 2.21 l
2.05 2.20 l
2.04 2.21 l
2.05 2.20 l
2.04 2.21 l
2.05 2.21 l
2.04 2.20 l
2.05 2.21 l
2.04 2.20 l
2.05 2.21 l
2.04 2.21 l
2.05 2.20 l
2.04 2.21 l
2.04 2.20 l
2.05 2.21 l
2.04 2.21 l
2.05 2.20 l
2.04 2.21 l
2.05 2.20 l
2.04 2.21 l
2.05 2.21 l
2.04 2.20 l
2.05 2.21 l
2.04 2.20 l
2.05 2.21 l
2.04 2.21 l
2.05 2.20 l
2.04 2.21 l
2.04 2.20 l
2.05 2.21 l
2.04 2.21 l
2.05 2.20 l
2.04 2.21 l
2.05 2.21 l
2.04 2.20 l
2.05 2.21 l
2.04 2.20 l
2.05 2.21 l
2.04 2.21 l
2.05 2.20 l
2.04 2.21 l
2.05 2.21 l
2.04 2.20 l
2.04 2.21 l
2.05 2.20 l
2.04 2.21 l
2.05 2.21 l
2.04 2.20 l
2.05 2.21 l
2.04 2.21 l
-517.13 -548.07 lineto
2.04 2.21 l
2.05 2.20 l
2.04 2.21 l
2.05 2.21 l
2.04 2.20 l
2.05 2.21 l
2.04 2.21 l
2.04 2.20 l
2.05 2.21 l
2.04 2.20 l
2.05 2.21 l
2.04 2.21 l
2.05 2.20 l
2.04 2.21 l
2.05 2.21 l
2.04 2.20 l
2.05 2.21 l
2.04 2.21 l
2.05 2.20 l
2.04 2.21 l
2.05 2.20 l
2.04 2.21 l
2.04 2.21 l
2.05 2.20 l
2.04 2.21 l
2.05 2.21 l
2.04 2.20 l
2.05 2.21 l
2.04 2.21 l
2.05 2.20 l
2.04 2.21 l
2.05 2.21 l
2.04 2.20 l
2.05 2.21 l
2.04 2.21 l
2.05 2.20 l
2.04 2.21 l
2.04 2.21 l
2.05 2.20 l
2.04 2.21 l
2.05 2.21 l
2.04 2.20 l
2.05 2.21 l
2.04 2.21 l
2.05 2.20 l
2.04 2.21 l
2.05 2.21 l
2.04 2.20 l
2.05 2.21 l
2.04 2.21 l
2.05 2.20 l
2.04 2.21 l
2.05 2.21 l
2.04 2.20 l
2.04 2.21 l
2.05 2.21 l
2.04 2.20 l
2.05 2.21 l
2.04 2.21 l
2.05 2.20 l
2.04 2.21 l
2.05 2.21 l
2.04 2.20 l
2.05 2.21 l
2.04 2.21 l
2.05 2.20 l
2.04 2.21 l
2.05 2.21 l
2.04 2.21 l
2.04 2.20 l
2.05 2.21 l
2.04 2.21 l
2.05 2.20 l
2.04 2.21 l
2.05 2.21 l
2.04 2.20 l
2.05 2.21 l
2.04 2.21 l
2.05 2.21 l
2.04 2.20 l
2.05 2.21 l
2.04 2.21 l
2.05 2.20 l
2.04 2.21 l
2.04 2.21 l
2.05 2.21 l
2.04 2.20 l
2.05 2.21 l
2.04 2.21 l
2.05 2.21 l
2.04 2.20 l
2.05 2.21 l
2.04 2.21 l
2.05 2.20 l
2.04 2.21 l
2.05 2.21 l
2.04 2.21 l
2.05 2.20 l
2.04 2.21 l
-312.67 -327.39 lineto
2.05 2.21 l
2.04 2.20 l
2.05 2.21 l
2.04 2.21 l
2.05 2.21 l
2.04 2.20 l
2.05 2.21 l
2.04 2.21 l
2.05 2.21 l
2.04 2.21 l
2.05 2.20 l
2.04 2.21 l
2.05 2.21 l
2.04 2.21 l
2.04 2.20 l
2.05 2.21 l
2.04 2.21 l
2.05 2.21 l
2.04 2.21 l
2.05 2.20 l
2.04 2.21 l
2.05 2.21 l
2.04 2.21 l
2.05 2.20 l
2.04 2.21 l
2.05 2.21 l
2.04 2.21 l
2.05 2.21 l
2.04 2.21 l
2.04 2.20 l
2.05 2.21 l
2.04 2.21 l
2.05 2.21 l
2.04 2.21 l
2.05 2.20 l
2.04 2.21 l
2.05 2.21 l
2.04 2.21 l
2.05 2.21 l
2.04 2.21 l
2.05 2.21 l
2.04 2.20 l
2.05 2.21 l
2.04 2.21 l
2.05 2.21 l
2.04 2.21 l
2.04 2.21 l
2.05 2.21 l
2.04 2.20 l
2.05 2.21 l
2.04 2.21 l
2.05 2.21 l
2.04 2.21 l
2.05 2.21 l
2.04 2.21 l
2.05 2.21 l
2.04 2.21 l
2.05 2.20 l
2.04 2.21 l
2.05 2.21 l
2.04 2.21 l
2.04 2.21 l
2.05 2.21 l
2.04 2.21 l
2.05 2.21 l
2.04 2.21 l
2.05 2.21 l
2.04 2.21 l
2.05 2.21 l
2.04 2.21 l
2.05 2.21 l
2.04 2.21 l
2.05 2.21 l
2.04 2.21 l
2.05 2.21 l
2.04 2.21 l
2.04 2.21 l
2.05 2.21 l
2.04 2.21 l
2.05 2.21 l
2.04 2.21 l
2.05 2.21 l
2.04 2.21 l
2.05 2.21 l
2.04 2.21 l
2.05 2.21 l
2.04 2.21 l
2.05 2.21 l
2.04 2.21 l
2.05 2.21 l
2.04 2.21 l
2.04 2.21 l
2.05 2.21 l
2.04 2.21 l
2.05 2.21 l
2.04 2.22 l
2.05 2.21 l
2.04 2.21 l
2.05 2.21 l
-108.20 -106.49 lineto
2.05 2.21 l
2.04 2.21 l
2.05 2.22 l
2.04 2.21 l
2.05 2.21 l
2.04 2.21 l
2.04 2.21 l
2.05 2.22 l
2.04 2.21 l
2.05 2.21 l
2.04 2.21 l
2.05 2.22 l
2.04 2.21 l
2.05 2.21 l
2.04 2.21 l
2.05 2.22 l
2.04 2.21 l
2.05 2.21 l
2.04 2.22 l
2.05 2.21 l
2.04 2.21 l
2.04 2.22 l
2.05 2.21 l
2.04 2.21 l
2.05 2.22 l
2.04 2.21 l
2.05 2.21 l
2.04 2.22 l
2.05 2.21 l
2.04 2.22 l
2.05 2.21 l
2.04 2.22 l
2.05 2.21 l
2.04 2.22 l
2.05 2.21 l
2.04 2.22 l
2.04 2.21 l
2.05 2.22 l
2.04 2.21 l
2.05 2.22 l
2.04 2.22 l
2.05 2.21 l
2.04 2.22 l
2.05 2.22 l
2.04 2.21 l
2.05 2.22 l
2.04 2.22 l
2.05 2.22 l
2.04 2.21 l
2.05 2.22 l
2.04 2.22 l
2.05 2.22 l
2.04 2.22 l
2.04 2.21 l
2.05 2.22 l
2.04 2.22 l
2.05 2.22 l
2.04 2.22 l
2.05 2.22 l
2.04 2.22 l
2.05 2.22 l
2.04 2.22 l
2.05 2.22 l
2.04 2.23 l
2.05 2.22 l
2.04 2.22 l
2.05 2.22 l
2.04 2.22 l
2.04 2.23 l
2.05 2.22 l
2.04 2.22 l
2.05 2.23 l
2.04 2.22 l
2.05 2.23 l
2.04 2.22 l
2.05 2.23 l
2.04 2.22 l
2.05 2.23 l
2.04 2.23 l
2.05 2.22 l
2.04 2.23 l
2.05 2.23 l
2.04 2.23 l
2.04 2.22 l
2.05 2.23 l
2.04 2.23 l
2.05 2.23 l
2.04 2.24 l
2.05 2.23 l
2.04 2.23 l
2.05 2.23 l
2.04 2.23 l
2.05 2.24 l
2.04 2.23 l
2.05 2.24 l
2.04 2.23 l
2.05 2.24 l
2.04 2.24 l
2.04 2.23 l
96.27 115.53 lineto
2.04 2.24 l
2.05 2.24 l
2.04 2.24 l
2.05 2.25 l
2.04 2.24 l
2.05 2.24 l
2.04 2.25 l
2.05 2.24 l
2.04 2.25 l
2.05 2.24 l
2.04 2.25 l
2.05 2.25 l
2.04 2.25 l
2.04 2.25 l
2.05 2.26 l
2.04 2.25 l
2.05 2.26 l
2.04 2.25 l
2.05 2.26 l
2.04 2.26 l
2.05 2.26 l
2.04 2.26 l
2.05 2.26 l
2.04 2.27 l
2.05 2.26 l
2.04 2.27 l
2.05 2.27 l
2.04 2.27 l
2.04 2.27 l
2.05 2.27 l
2.04 2.28 l
2.05 2.27 l
2.04 2.28 l
2.05 2.28 l
2.04 2.29 l
2.05 2.28 l
2.04 2.28 l
2.05 2.29 l
2.04 2.29 l
2.05 2.29 l
2.04 2.30 l
2.05 2.29 l
2.04 2.30 l
2.05 2.30 l
2.04 2.30 l
2.04 2.31 l
2.05 2.30 l
2.04 2.31 l
2.05 2.31 l
2.04 2.31 l
2.05 2.32 l
2.04 2.32 l
2.05 2.31 l
2.04 2.33 l
2.05 2.32 l
2.04 2.33 l
2.05 2.32 l
2.04 2.33 l
2.05 2.34 l
2.04 2.33 l
2.04 2.34 l
2.05 2.34 l
2.04 2.34 l
2.05 2.34 l
2.04 2.35 l
2.05 2.34 l
2.04 2.35 l
2.05 2.35 l
2.04 2.36 l
2.05 2.35 l
2.04 2.36 l
2.05 2.36 l
2.04 2.36 l
2.05 2.37 l
2.04 2.36 l
2.04 2.37 l
2.05 2.37 l
2.04 2.37 l
2.05 2.37 l
2.04 2.37 l
2.05 2.38 l
2.04 2.37 l
2.05 2.38 l
2.04 2.38 l
2.05 2.38 l
2.04 2.39 l
2.05 2.38 l
2.04 2.39 l
2.05 2.38 l
2.04 2.39 l
2.04 2.39 l
2.05 2.39 l
2.04 2.40 l
2.05 2.39 l
2.04 2.39 l
2.05 2.40 l
2.04 2.40 l
2.05 2.39 l
2.04 2.40 l
300.74 347.16 lineto
2.04 2.40 l
2.05 2.40 l
2.04 2.41 l
2.05 2.40 l
2.04 2.41 l
2.04 2.40 l
2.05 2.41 l
2.04 2.40 l
2.05 2.41 l
2.04 2.41 l
2.05 2.41 l
2.04 2.41 l
2.05 2.41 l
2.04 2.41 l
2.05 2.41 l
2.04 2.41 l
2.05 2.42 l
2.04 2.41 l
2.05 2.42 l
2.04 2.41 l
2.04 2.42 l
2.05 2.41 l
2.04 2.42 l
2.05 2.42 l
2.04 2.41 l
2.05 2.42 l
2.04 2.42 l
2.05 2.42 l
2.04 2.42 l
2.05 2.42 l
2.04 2.42 l
2.05 2.42 l
2.04 2.42 l
2.05 2.42 l
2.04 2.42 l
2.05 2.43 l
2.04 2.42 l
2.04 2.42 l
2.05 2.43 l
2.04 2.42 l
2.05 2.42 l
2.04 2.43 l
2.05 2.42 l
2.04 2.43 l
2.05 2.42 l
2.04 2.43 l
2.05 2.42 l
2.04 2.43 l
2.05 2.43 l
2.04 2.42 l
2.05 2.43 l
2.04 2.43 l
2.04 2.43 l
2.05 2.42 l
2.04 2.43 l
2.05 2.43 l
2.04 2.43 l
2.05 2.43 l
2.04 2.42 l
2.05 2.43 l
2.04 2.43 l
2.05 2.43 l
2.04 2.43 l
2.05 2.43 l
2.04 2.43 l
2.05 2.43 l
2.04 2.43 l
2.04 2.43 l
2.05 2.43 l
2.04 2.43 l
2.05 2.44 l
2.04 2.43 l
2.05 2.43 l
2.04 2.43 l
2.05 2.43 l
2.04 2.43 l
2.05 2.43 l
2.04 2.44 l
2.05 2.43 l
2.04 2.43 l
2.05 2.43 l
2.04 2.44 l
2.04 2.43 l
2.05 2.43 l
2.04 2.43 l
2.05 2.44 l
2.04 2.43 l
2.05 2.43 l
2.04 2.44 l
2.05 2.43 l
2.04 2.44 l
2.05 2.43 l
2.04 2.43 l
2.05 2.44 l
2.04 2.43 l
2.05 2.44 l
2.04 2.43 l
2.04 2.43 l
2.05 2.44 l
505.20 589.55 lineto
2.05 2.44 l
2.04 2.43 l
2.05 2.44 l
2.04 2.43 l
2.05 2.44 l
2.04 2.43 l
2.05 2.44 l
2.04 2.43 l
2.05 2.44 l
2.04 2.43 l
2.05 2.44 l
2.04 2.43 l
2.04 2.44 l
2.05 2.44 l
2.04 2.43 l
2.05 2.44 l
2.04 2.43 l
2.05 2.44 l
2.04 2.44 l
2.05 2.43 l
2.04 2.44 l
2.05 2.43 l
2.04 2.44 l
2.05 2.44 l
2.04 2.43 l
2.05 2.44 l
2.04 2.44 l
2.04 2.43 l
2.05 2.44 l
2.04 2.44 l
2.05 2.43 l
2.04 2.44 l
2.05 2.44 l
2.04 2.43 l
2.05 2.44 l
2.04 2.44 l
2.05 2.43 l
2.04 2.44 l
2.05 2.44 l
2.04 2.44 l
2.05 2.43 l
2.04 2.44 l
2.05 2.44 l
2.04 2.44 l
2.04 2.43 l
2.05 2.44 l
2.04 2.44 l
2.05 2.44 l
2.04 2.43 l
2.05 2.44 l
2.04 2.44 l
2.05 2.44 l
2.04 2.43 l
2.05 2.44 l
2.04 2.44 l
2.05 2.44 l
2.04 2.44 l
2.05 2.43 l
2.04 2.44 l
2.04 2.44 l
2.05 2.44 l
2.04 2.44 l
2.05 2.43 l
2.04 2.44 l
2.05 2.44 l
2.04 2.44 l
2.05 2.44 l
2.04 2.44 l
2.05 2.43 l
2.04 2.44 l
2.05 2.44 l
2.04 2.44 l
2.05 2.44 l
2.04 2.44 l
2.04 2.43 l
2.05 2.44 l
2.04 2.44 l
2.05 2.44 l
2.04 2.44 l
2.05 2.44 l
2.04 2.44 l
2.05 2.44 l
2.04 2.43 l
2.05 2.44 l
2.04 2.44 l
2.05 2.44 l
2.04 2.44 l
2.05 2.44 l
2.04 2.44 l
2.04 2.44 l
2.05 2.44 l
2.04 2.43 l
2.05 2.44 l
2.04 2.44 l
2.05 2.44 l
2.04 2.44 l
2.05 2.44 l
2.04 2.44 l
2.05 2.44 l
709.67 833.30 lineto
2.05 2.44 l
2.04 2.44 l
2.05 2.43 l
2.04 2.44 l
2.04 2.44 l
2.05 2.44 l
2.04 2.44 l
2.05 2.44 l
2.04 2.44 l
2.05 2.44 l
2.04 2.44 l
2.05 2.44 l
2.04 2.44 l
2.05 2.44 l
2.04 2.44 l
2.05 2.44 l
2.04 2.44 l
2.05 2.44 l
2.04 2.43 l
2.04 2.44 l
2.05 2.44 l
2.04 2.44 l
2.05 2.44 l
2.04 2.44 l
2.05 2.44 l
2.04 2.44 l
2.05 2.44 l
2.04 2.44 l
2.05 2.44 l
2.04 2.44 l
2.05 2.44 l
2.04 2.44 l
2.05 2.44 l
2.04 2.44 l
2.05 2.44 l
2.04 2.44 l
2.04 2.44 l
2.05 2.44 l
2.04 2.44 l
2.05 2.44 l
2.04 2.44 l
2.05 2.44 l
2.04 2.44 l
2.05 2.44 l
2.04 2.44 l
2.05 2.44 l
2.04 2.44 l
2.05 2.44 l
2.04 2.44 l
2.05 2.44 l
2.04 2.44 l
2.04 2.44 l
2.05 2.44 l
2.04 2.44 l
2.05 2.44 l
2.04 2.44 l
2.05 2.44 l
2.04 2.44 l
2.05 2.44 l
2.04 2.44 l
2.05 2.44 l
2.04 2.44 l
2.05 2.44 l
2.04 2.44 l
2.05 2.44 l
2.04 2.44 l
2.04 2.44 l
2.05 2.44 l
2.04 2.44 l
2.05 2.44 l
2.04 2.44 l
2.05 2.44 l
2.04 2.44 l
2.05 2.44 l
2.04 2.44 l
2.05 2.44 l
o
np
-721.60 -877.08 m
2.04 2.44 l
2.05 2.44 l
2.04 2.44 l
2.05 2.44 l
2.04 2.44 l
2.05 2.44 l
2.04 2.45 l
2.05 2.44 l
2.04 2.44 l
2.05 2.44 l
2.04 2.44 l
2.05 2.44 l
2.04 2.44 l
2.05 2.44 l
2.04 2.44 l
2.04 2.44 l
2.05 2.45 l
2.04 2.44 l
2.05 2.44 l
2.04 2.44 l
2.05 2.44 l
2.04 2.44 l
2.05 2.44 l
2.04 2.44 l
2.05 2.44 l
2.04 2.44 l
2.05 2.45 l
2.04 2.44 l
2.05 2.44 l
2.04 2.44 l
2.04 2.44 l
2.05 2.44 l
2.04 2.44 l
2.05 2.44 l
2.04 2.44 l
2.05 2.44 l
2.04 2.45 l
2.05 2.44 l
2.04 2.44 l
2.05 2.44 l
2.04 2.44 l
2.05 2.44 l
2.04 2.44 l
2.05 2.44 l
2.04 2.44 l
2.04 2.44 l
2.05 2.44 l
2.04 2.45 l
2.05 2.44 l
2.04 2.44 l
2.05 2.44 l
2.04 2.44 l
2.05 2.44 l
2.04 2.44 l
2.05 2.44 l
2.04 2.44 l
2.05 2.44 l
2.04 2.44 l
2.05 2.44 l
2.04 2.45 l
2.05 2.44 l
2.04 2.44 l
2.04 2.44 l
2.05 2.44 l
2.04 2.44 l
2.05 2.44 l
2.04 2.44 l
2.05 2.44 l
2.04 2.44 l
2.05 2.44 l
2.04 2.44 l
2.05 2.44 l
2.04 2.45 l
2.05 2.44 l
2.04 2.44 l
2.05 2.44 l
2.04 2.44 l
2.04 2.44 l
2.05 2.44 l
2.04 2.44 l
2.05 2.44 l
2.04 2.44 l
2.05 2.44 l
2.04 2.44 l
2.05 2.44 l
2.04 2.44 l
2.05 2.45 l
2.04 2.44 l
2.05 2.44 l
2.04 2.44 l
2.05 2.44 l
2.04 2.44 l
2.04 2.44 l
2.05 2.44 l
2.04 2.44 l
2.05 2.44 l
2.04 2.44 l
2.05 2.44 l
2.04 2.44 l
-517.13 -633.00 lineto
2.04 2.44 l
2.05 2.44 l
2.04 2.45 l
2.05 2.44 l
2.04 2.44 l
2.05 2.44 l
2.04 2.44 l
2.04 2.44 l
2.05 2.44 l
2.04 2.44 l
2.05 2.44 l
2.04 2.44 l
2.05 2.44 l
2.04 2.44 l
2.05 2.44 l
2.04 2.44 l
2.05 2.44 l
2.04 2.44 l
2.05 2.44 l
2.04 2.44 l
2.05 2.44 l
2.04 2.44 l
2.04 2.44 l
2.05 2.44 l
2.04 2.45 l
2.05 2.44 l
2.04 2.44 l
2.05 2.44 l
2.04 2.44 l
2.05 2.44 l
2.04 2.44 l
2.05 2.44 l
2.04 2.44 l
2.05 2.44 l
2.04 2.44 l
2.05 2.44 l
2.04 2.44 l
2.04 2.44 l
2.05 2.44 l
2.04 2.44 l
2.05 2.44 l
2.04 2.44 l
2.05 2.44 l
2.04 2.44 l
2.05 2.44 l
2.04 2.44 l
2.05 2.44 l
2.04 2.44 l
2.05 2.44 l
2.04 2.44 l
2.05 2.44 l
2.04 2.44 l
2.05 2.44 l
2.04 2.44 l
2.04 2.44 l
2.05 2.44 l
2.04 2.44 l
2.05 2.44 l
2.04 2.44 l
2.05 2.44 l
2.04 2.44 l
2.05 2.44 l
2.04 2.44 l
2.05 2.44 l
2.04 2.44 l
2.05 2.44 l
2.04 2.44 l
2.05 2.44 l
2.04 2.44 l
2.04 2.44 l
2.05 2.44 l
2.04 2.44 l
2.05 2.44 l
2.04 2.44 l
2.05 2.44 l
2.04 2.44 l
2.05 2.44 l
2.04 2.44 l
2.05 2.44 l
2.04 2.44 l
2.05 2.44 l
2.04 2.44 l
2.05 2.44 l
2.04 2.44 l
2.04 2.44 l
2.05 2.44 l
2.04 2.44 l
2.05 2.44 l
2.04 2.44 l
2.05 2.43 l
2.04 2.44 l
2.05 2.44 l
2.04 2.44 l
2.05 2.44 l
2.04 2.44 l
2.05 2.44 l
2.04 2.44 l
2.05 2.44 l
2.04 2.44 l
-312.67 -388.99 lineto
2.05 2.44 l
2.04 2.44 l
2.05 2.44 l
2.04 2.44 l
2.05 2.44 l
2.04 2.43 l
2.05 2.44 l
2.04 2.44 l
2.05 2.44 l
2.04 2.44 l
2.05 2.44 l
2.04 2.44 l
2.05 2.44 l
2.04 2.44 l
2.04 2.44 l
2.05 2.44 l
2.04 2.44 l
2.05 2.43 l
2.04 2.44 l
2.05 2.44 l
2.04 2.44 l
2.05 2.44 l
2.04 2.44 l
2.05 2.44 l
2.04 2.44 l
2.05 2.44 l
2.04 2.43 l
2.05 2.44 l
2.04 2.44 l
2.04 2.44 l
2.05 2.44 l
2.04 2.44 l
2.05 2.44 l
2.04 2.43 l
2.05 2.44 l
2.04 2.44 l
2.05 2.44 l
2.04 2.44 l
2.05 2.44 l
2.04 2.44 l
2.05 2.43 l
2.04 2.44 l
2.05 2.44 l
2.04 2.44 l
2.05 2.44 l
2.04 2.43 l
2.04 2.44 l
2.05 2.44 l
2.04 2.44 l
2.05 2.44 l
2.04 2.44 l
2.05 2.43 l
2.04 2.44 l
2.05 2.44 l
2.04 2.44 l
2.05 2.43 l
2.04 2.44 l
2.05 2.44 l
2.04 2.44 l
2.05 2.44 l
2.04 2.43 l
2.04 2.44 l
2.05 2.44 l
2.04 2.44 l
2.05 2.43 l
2.04 2.44 l
2.05 2.44 l
2.04 2.44 l
2.05 2.43 l
2.04 2.44 l
2.05 2.44 l
2.04 2.43 l
2.05 2.44 l
2.04 2.44 l
2.05 2.44 l
2.04 2.43 l
2.04 2.44 l
2.05 2.44 l
2.04 2.43 l
2.05 2.44 l
2.04 2.44 l
2.05 2.43 l
2.04 2.44 l
2.05 2.44 l
2.04 2.43 l
2.05 2.44 l
2.04 2.43 l
2.05 2.44 l
2.04 2.44 l
2.05 2.43 l
2.04 2.44 l
2.04 2.44 l
2.05 2.43 l
2.04 2.44 l
2.05 2.43 l
2.04 2.44 l
2.05 2.43 l
2.04 2.44 l
2.05 2.44 l
-108.20 -145.21 lineto
2.05 2.44 l
2.04 2.43 l
2.05 2.44 l
2.04 2.43 l
2.05 2.44 l
2.04 2.43 l
2.04 2.44 l
2.05 2.43 l
2.04 2.44 l
2.05 2.43 l
2.04 2.43 l
2.05 2.44 l
2.04 2.43 l
2.05 2.44 l
2.04 2.43 l
2.05 2.44 l
2.04 2.43 l
2.05 2.43 l
2.04 2.44 l
2.05 2.43 l
2.04 2.43 l
2.04 2.44 l
2.05 2.43 l
2.04 2.43 l
2.05 2.44 l
2.04 2.43 l
2.05 2.43 l
2.04 2.43 l
2.05 2.44 l
2.04 2.43 l
2.05 2.43 l
2.04 2.43 l
2.05 2.44 l
2.04 2.43 l
2.05 2.43 l
2.04 2.43 l
2.04 2.43 l
2.05 2.43 l
2.04 2.43 l
2.05 2.43 l
2.04 2.44 l
2.05 2.43 l
2.04 2.43 l
2.05 2.43 l
2.04 2.43 l
2.05 2.43 l
2.04 2.43 l
2.05 2.42 l
2.04 2.43 l
2.05 2.43 l
2.04 2.43 l
2.05 2.43 l
2.04 2.43 l
2.04 2.43 l
2.05 2.42 l
2.04 2.43 l
2.05 2.43 l
2.04 2.43 l
2.05 2.42 l
2.04 2.43 l
2.05 2.43 l
2.04 2.42 l
2.05 2.43 l
2.04 2.42 l
2.05 2.43 l
2.04 2.42 l
2.05 2.43 l
2.04 2.42 l
2.04 2.43 l
2.05 2.42 l
2.04 2.42 l
2.05 2.43 l
2.04 2.42 l
2.05 2.42 l
2.04 2.42 l
2.05 2.43 l
2.04 2.42 l
2.05 2.42 l
2.04 2.42 l
2.05 2.42 l
2.04 2.42 l
2.05 2.42 l
2.04 2.41 l
2.04 2.42 l
2.05 2.42 l
2.04 2.42 l
2.05 2.41 l
2.04 2.42 l
2.05 2.41 l
2.04 2.42 l
2.05 2.41 l
2.04 2.42 l
2.05 2.41 l
2.04 2.41 l
2.05 2.41 l
2.04 2.42 l
2.05 2.41 l
2.04 2.41 l
2.04 2.40 l
96.27 97.45 lineto
2.04 2.41 l
2.05 2.41 l
2.04 2.40 l
2.05 2.41 l
2.04 2.40 l
2.05 2.41 l
2.04 2.40 l
2.05 2.40 l
2.04 2.40 l
2.05 2.40 l
2.04 2.40 l
2.05 2.40 l
2.04 2.39 l
2.04 2.40 l
2.05 2.39 l
2.04 2.39 l
2.05 2.40 l
2.04 2.39 l
2.05 2.39 l
2.04 2.39 l
2.05 2.38 l
2.04 2.39 l
2.05 2.38 l
2.04 2.38 l
2.05 2.39 l
2.04 2.38 l
2.05 2.37 l
2.04 2.38 l
2.04 2.38 l
2.05 2.37 l
2.04 2.37 l
2.05 2.37 l
2.04 2.37 l
2.05 2.37 l
2.04 2.36 l
2.05 2.36 l
2.04 2.36 l
2.05 2.36 l
2.04 2.36 l
2.05 2.36 l
2.04 2.35 l
2.05 2.35 l
2.04 2.35 l
2.05 2.35 l
2.04 2.34 l
2.04 2.34 l
2.05 2.34 l
2.04 2.34 l
2.05 2.34 l
2.04 2.33 l
2.05 2.34 l
2.04 2.33 l
2.05 2.32 l
2.04 2.33 l
2.05 2.32 l
2.04 2.32 l
2.05 2.32 l
2.04 2.32 l
2.05 2.31 l
2.04 2.32 l
2.04 2.31 l
2.05 2.30 l
2.04 2.31 l
2.05 2.30 l
2.04 2.30 l
2.05 2.30 l
2.04 2.30 l
2.05 2.30 l
2.04 2.29 l
2.05 2.29 l
2.04 2.29 l
2.05 2.29 l
2.04 2.28 l
2.05 2.29 l
2.04 2.28 l
2.04 2.28 l
2.05 2.28 l
2.04 2.27 l
2.05 2.28 l
2.04 2.27 l
2.05 2.27 l
2.04 2.27 l
2.05 2.27 l
2.04 2.27 l
2.05 2.26 l
2.04 2.27 l
2.05 2.26 l
2.04 2.26 l
2.05 2.26 l
2.04 2.26 l
2.04 2.25 l
2.05 2.26 l
2.04 2.26 l
2.05 2.25 l
2.04 2.25 l
2.05 2.25 l
2.04 2.25 l
2.05 2.25 l
2.04 2.25 l
300.74 330.51 lineto
2.04 2.24 l
2.05 2.25 l
2.04 2.24 l
2.05 2.25 l
2.04 2.24 l
2.04 2.24 l
2.05 2.24 l
2.04 2.24 l
2.05 2.24 l
2.04 2.24 l
2.05 2.24 l
2.04 2.23 l
2.05 2.24 l
2.04 2.23 l
2.05 2.24 l
2.04 2.23 l
2.05 2.24 l
2.04 2.23 l
2.05 2.23 l
2.04 2.24 l
2.04 2.23 l
2.05 2.23 l
2.04 2.23 l
2.05 2.23 l
2.04 2.23 l
2.05 2.23 l
2.04 2.22 l
2.05 2.23 l
2.04 2.23 l
2.05 2.23 l
2.04 2.22 l
2.05 2.23 l
2.04 2.22 l
2.05 2.23 l
2.04 2.22 l
2.05 2.23 l
2.04 2.22 l
2.04 2.23 l
2.05 2.22 l
2.04 2.22 l
2.05 2.23 l
2.04 2.22 l
2.05 2.22 l
2.04 2.22 l
2.05 2.22 l
2.04 2.23 l
2.05 2.22 l
2.04 2.22 l
2.05 2.22 l
2.04 2.22 l
2.05 2.22 l
2.04 2.22 l
2.04 2.22 l
2.05 2.22 l
2.04 2.21 l
2.05 2.22 l
2.04 2.22 l
2.05 2.22 l
2.04 2.22 l
2.05 2.22 l
2.04 2.21 l
2.05 2.22 l
2.04 2.22 l
2.05 2.22 l
2.04 2.21 l
2.05 2.22 l
2.04 2.22 l
2.04 2.21 l
2.05 2.22 l
2.04 2.21 l
2.05 2.22 l
2.04 2.22 l
2.05 2.21 l
2.04 2.22 l
2.05 2.21 l
2.04 2.22 l
2.05 2.21 l
2.04 2.22 l
2.05 2.21 l
2.04 2.22 l
2.05 2.21 l
2.04 2.21 l
2.04 2.22 l
2.05 2.21 l
2.04 2.22 l
2.05 2.21 l
2.04 2.21 l
2.05 2.22 l
2.04 2.21 l
2.05 2.21 l
2.04 2.22 l
2.05 2.21 l
2.04 2.21 l
2.05 2.22 l
2.04 2.21 l
2.05 2.21 l
2.04 2.21 l
2.04 2.22 l
2.05 2.21 l
505.20 552.80 lineto
2.05 2.21 l
2.04 2.21 l
2.05 2.22 l
2.04 2.21 l
2.05 2.21 l
2.04 2.21 l
2.05 2.21 l
2.04 2.21 l
2.05 2.22 l
2.04 2.21 l
2.05 2.21 l
2.04 2.21 l
2.04 2.21 l
2.05 2.21 l
2.04 2.21 l
2.05 2.21 l
2.04 2.22 l
2.05 2.21 l
2.04 2.21 l
2.05 2.21 l
2.04 2.21 l
2.05 2.21 l
2.04 2.21 l
2.05 2.21 l
2.04 2.21 l
2.05 2.21 l
2.04 2.21 l
2.04 2.21 l
2.05 2.21 l
2.04 2.21 l
2.05 2.21 l
2.04 2.21 l
2.05 2.21 l
2.04 2.21 l
2.05 2.21 l
2.04 2.21 l
2.05 2.21 l
2.04 2.21 l
2.05 2.21 l
2.04 2.21 l
2.05 2.21 l
2.04 2.21 l
2.05 2.21 l
2.04 2.21 l
2.04 2.21 l
2.05 2.21 l
2.04 2.21 l
2.05 2.21 l
2.04 2.20 l
2.05 2.21 l
2.04 2.21 l
2.05 2.21 l
2.04 2.21 l
2.05 2.21 l
2.04 2.21 l
2.05 2.21 l
2.04 2.21 l
2.05 2.21 l
2.04 2.20 l
2.04 2.21 l
2.05 2.21 l
2.04 2.21 l
2.05 2.21 l
2.04 2.21 l
2.05 2.21 l
2.04 2.21 l
2.05 2.20 l
2.04 2.21 l
2.05 2.21 l
2.04 2.21 l
2.05 2.21 l
2.04 2.21 l
2.05 2.20 l
2.04 2.21 l
2.04 2.21 l
2.05 2.21 l
2.04 2.21 l
2.05 2.21 l
2.04 2.20 l
2.05 2.21 l
2.04 2.21 l
2.05 2.21 l
2.04 2.21 l
2.05 2.20 l
2.04 2.21 l
2.05 2.21 l
2.04 2.21 l
2.05 2.21 l
2.04 2.20 l
2.04 2.21 l
2.05 2.21 l
2.04 2.21 l
2.05 2.21 l
2.04 2.20 l
2.05 2.21 l
2.04 2.21 l
2.05 2.21 l
2.04 2.20 l
2.05 2.21 l
709.67 773.74 lineto
2.05 2.21 l
2.04 2.21 l
2.05 2.20 l
2.04 2.21 l
2.04 2.21 l
2.05 2.21 l
2.04 2.20 l
2.05 2.21 l
2.04 2.21 l
2.05 2.21 l
2.04 2.20 l
2.05 2.21 l
2.04 2.21 l
2.05 2.21 l
2.04 2.20 l
2.05 2.21 l
2.04 2.21 l
2.05 2.20 l
2.04 2.21 l
2.04 2.21 l
2.05 2.21 l
2.04 2.20 l
2.05 2.21 l
2.04 2.21 l
2.05 2.21 l
2.04 2.20 l
2.05 2.21 l
2.04 2.21 l
2.05 2.20 l
2.04 2.21 l
2.05 2.21 l
2.04 2.21 l
2.05 2.20 l
2.04 2.21 l
2.05 2.21 l
2.04 2.20 l
2.04 2.21 l
2.05 2.21 l
2.04 2.20 l
2.05 2.21 l
2.04 2.21 l
2.05 2.21 l
2.04 2.20 l
2.05 2.21 l
2.04 2.21 l
2.05 2.20 l
2.04 2.21 l
2.05 2.21 l
2.04 2.20 l
2.05 2.21 l
2.04 2.21 l
2.04 2.20 l
2.05 2.21 l
2.04 2.21 l
2.05 2.20 l
2.04 2.21 l
2.05 2.21 l
2.04 2.20 l
2.05 2.21 l
2.04 2.21 l
2.05 2.20 l
2.04 2.21 l
2.05 2.21 l
2.04 2.20 l
2.05 2.21 l
2.04 2.21 l
2.04 2.20 l
2.05 2.21 l
2.04 2.21 l
2.05 2.20 l
2.04 2.21 l
2.05 2.21 l
2.04 2.20 l
2.05 2.21 l
2.04 2.21 l
2.05 2.20 l
o
np
-721.60 -822.87 m
2.04 2.32 l
2.05 2.32 l
2.04 2.33 l
2.05 2.32 l
2.04 2.32 l
2.05 2.33 l
2.04 2.32 l
2.05 2.32 l
2.04 2.33 l
2.05 2.32 l
2.04 2.32 l
2.05 2.33 l
2.04 2.32 l
2.05 2.32 l
2.04 2.33 l
2.04 2.32 l
2.05 2.32 l
2.04 2.33 l
2.05 2.32 l
2.04 2.32 l
2.05 2.33 l
2.04 2.32 l
2.05 2.32 l
2.04 2.33 l
2.05 2.32 l
2.04 2.32 l
2.05 2.33 l
2.04 2.32 l
2.05 2.32 l
2.04 2.33 l
2.04 2.32 l
2.05 2.32 l
2.04 2.33 l
2.05 2.32 l
2.04 2.33 l
2.05 2.32 l
2.04 2.32 l
2.05 2.33 l
2.04 2.32 l
2.05 2.32 l
2.04 2.33 l
2.05 2.32 l
2.04 2.32 l
2.05 2.33 l
2.04 2.32 l
2.04 2.32 l
2.05 2.33 l
2.04 2.32 l
2.05 2.32 l
2.04 2.33 l
2.05 2.32 l
2.04 2.32 l
2.05 2.33 l
2.04 2.32 l
2.05 2.32 l
2.04 2.33 l
2.05 2.32 l
2.04 2.32 l
2.05 2.33 l
2.04 2.32 l
2.05 2.32 l
2.04 2.33 l
2.04 2.32 l
2.05 2.32 l
2.04 2.33 l
2.05 2.32 l
2.04 2.32 l
2.05 2.33 l
2.04 2.32 l
2.05 2.32 l
2.04 2.33 l
2.05 2.32 l
2.04 2.33 l
2.05 2.32 l
2.04 2.32 l
2.05 2.33 l
2.04 2.32 l
2.04 2.32 l
2.05 2.33 l
2.04 2.32 l
2.05 2.32 l
2.04 2.33 l
2.05 2.32 l
2.04 2.32 l
2.05 2.33 l
2.04 2.32 l
2.05 2.32 l
2.04 2.33 l
2.05 2.32 l
2.04 2.32 l
2.05 2.33 l
2.04 2.32 l
2.04 2.32 l
2.05 2.33 l
2.04 2.32 l
2.05 2.32 l
2.04 2.33 l
2.05 2.32 l
2.04 2.32 l
-517.13 -590.53 lineto
2.04 2.32 l
2.05 2.32 l
2.04 2.33 l
2.05 2.32 l
2.04 2.32 l
2.05 2.33 l
2.04 2.32 l
2.04 2.32 l
2.05 2.33 l
2.04 2.32 l
2.05 2.32 l
2.04 2.33 l
2.05 2.32 l
2.04 2.33 l
2.05 2.32 l
2.04 2.32 l
2.05 2.33 l
2.04 2.32 l
2.05 2.32 l
2.04 2.33 l
2.05 2.32 l
2.04 2.32 l
2.04 2.33 l
2.05 2.32 l
2.04 2.32 l
2.05 2.33 l
2.04 2.32 l
2.05 2.32 l
2.04 2.33 l
2.05 2.32 l
2.04 2.32 l
2.05 2.33 l
2.04 2.32 l
2.05 2.32 l
2.04 2.33 l
2.05 2.32 l
2.04 2.32 l
2.04 2.33 l
2.05 2.32 l
2.04 2.32 l
2.05 2.33 l
2.04 2.32 l
2.05 2.32 l
2.04 2.33 l
2.05 2.32 l
2.04 2.32 l
2.05 2.33 l
2.04 2.32 l
2.05 2.32 l
2.04 2.33 l
2.05 2.32 l
2.04 2.33 l
2.05 2.32 l
2.04 2.32 l
2.04 2.33 l
2.05 2.32 l
2.04 2.32 l
2.05 2.33 l
2.04 2.32 l
2.05 2.32 l
2.04 2.33 l
2.05 2.32 l
2.04 2.32 l
2.05 2.33 l
2.04 2.32 l
2.05 2.32 l
2.04 2.33 l
2.05 2.32 l
2.04 2.32 l
2.04 2.33 l
2.05 2.32 l
2.04 2.32 l
2.05 2.33 l
2.04 2.32 l
2.05 2.32 l
2.04 2.33 l
2.05 2.32 l
2.04 2.32 l
2.05 2.33 l
2.04 2.32 l
2.05 2.32 l
2.04 2.33 l
2.05 2.32 l
2.04 2.32 l
2.04 2.33 l
2.05 2.32 l
2.04 2.32 l
2.05 2.33 l
2.04 2.32 l
2.05 2.32 l
2.04 2.33 l
2.05 2.32 l
2.04 2.33 l
2.05 2.32 l
2.04 2.32 l
2.05 2.33 l
2.04 2.32 l
2.05 2.32 l
2.04 2.33 l
-312.67 -358.19 lineto
2.05 2.32 l
2.04 2.33 l
2.05 2.32 l
2.04 2.32 l
2.05 2.33 l
2.04 2.32 l
2.05 2.32 l
2.04 2.33 l
2.05 2.32 l
2.04 2.32 l
2.05 2.33 l
2.04 2.32 l
2.05 2.32 l
2.04 2.33 l
2.04 2.32 l
2.05 2.32 l
2.04 2.33 l
2.05 2.32 l
2.04 2.32 l
2.05 2.33 l
2.04 2.32 l
2.05 2.32 l
2.04 2.33 l
2.05 2.32 l
2.04 2.32 l
2.05 2.33 l
2.04 2.32 l
2.05 2.32 l
2.04 2.33 l
2.04 2.32 l
2.05 2.33 l
2.04 2.32 l
2.05 2.32 l
2.04 2.33 l
2.05 2.32 l
2.04 2.32 l
2.05 2.33 l
2.04 2.32 l
2.05 2.32 l
2.04 2.33 l
2.05 2.32 l
2.04 2.32 l
2.05 2.33 l
2.04 2.32 l
2.05 2.32 l
2.04 2.33 l
2.04 2.32 l
2.05 2.32 l
2.04 2.33 l
2.05 2.32 l
2.04 2.32 l
2.05 2.33 l
2.04 2.32 l
2.05 2.32 l
2.04 2.33 l
2.05 2.32 l
2.04 2.32 l
2.05 2.33 l
2.04 2.32 l
2.05 2.32 l
2.04 2.33 l
2.04 2.32 l
2.05 2.32 l
2.04 2.33 l
2.05 2.32 l
2.04 2.32 l
2.05 2.33 l
2.04 2.32 l
2.05 2.33 l
2.04 2.32 l
2.05 2.32 l
2.04 2.33 l
2.05 2.32 l
2.04 2.32 l
2.05 2.33 l
2.04 2.32 l
2.04 2.32 l
2.05 2.33 l
2.04 2.32 l
2.05 2.32 l
2.04 2.33 l
2.05 2.32 l
2.04 2.32 l
2.05 2.33 l
2.04 2.32 l
2.05 2.32 l
2.04 2.33 l
2.05 2.32 l
2.04 2.32 l
2.05 2.33 l
2.04 2.32 l
2.04 2.32 l
2.05 2.33 l
2.04 2.32 l
2.05 2.32 l
2.04 2.33 l
2.05 2.32 l
2.04 2.32 l
2.05 2.33 l
-108.20 -125.85 lineto
2.05 2.32 l
2.04 2.33 l
2.05 2.32 l
2.04 2.32 l
2.05 2.33 l
2.04 2.32 l
2.04 2.32 l
2.05 2.33 l
2.04 2.32 l
2.05 2.33 l
2.04 2.32 l
2.05 2.32 l
2.04 2.33 l
2.05 2.32 l
2.04 2.32 l
2.05 2.33 l
2.04 2.32 l
2.05 2.32 l
2.04 2.33 l
2.05 2.32 l
2.04 2.32 l
2.04 2.33 l
2.05 2.32 l
2.04 2.32 l
2.05 2.33 l
2.04 2.32 l
2.05 2.32 l
2.04 2.33 l
2.05 2.32 l
2.04 2.32 l
2.05 2.33 l
2.04 2.32 l
2.05 2.32 l
2.04 2.33 l
2.05 2.32 l
2.04 2.32 l
2.04 2.33 l
2.05 2.32 l
2.04 2.32 l
2.05 2.33 l
2.04 2.32 l
2.05 2.32 l
2.04 2.33 l
2.05 2.32 l
2.04 2.32 l
2.05 2.33 l
2.04 2.32 l
2.05 2.33 l
2.04 2.32 l
2.05 2.32 l
2.04 2.33 l
2.05 2.32 l
2.04 2.32 l
2.04 2.33 l
2.05 2.32 l
2.04 2.32 l
2.05 2.33 l
2.04 2.32 l
2.05 2.32 l
2.04 2.33 l
2.05 2.32 l
2.04 2.32 l
2.05 2.33 l
2.04 2.32 l
2.05 2.32 l
2.04 2.33 l
2.05 2.32 l
2.04 2.32 l
2.04 2.33 l
2.05 2.32 l
2.04 2.32 l
2.05 2.33 l
2.04 2.32 l
2.05 2.32 l
2.04 2.33 l
2.05 2.32 l
2.04 2.32 l
2.05 2.33 l
2.04 2.32 l
2.05 2.32 l
2.04 2.33 l
2.05 2.32 l
2.04 2.32 l
2.04 2.33 l
2.05 2.32 l
2.04 2.32 l
2.05 2.33 l
2.04 2.32 l
2.05 2.33 l
2.04 2.32 l
2.05 2.32 l
2.04 2.33 l
2.05 2.32 l
2.04 2.32 l
2.05 2.33 l
2.04 2.32 l
2.05 2.32 l
2.04 2.33 l
2.04 2.32 l
96.27 106.49 lineto
2.04 2.33 l
2.05 2.32 l
2.04 2.32 l
2.05 2.33 l
2.04 2.32 l
2.05 2.32 l
2.04 2.33 l
2.05 2.32 l
2.04 2.32 l
2.05 2.33 l
2.04 2.32 l
2.05 2.32 l
2.04 2.33 l
2.04 2.32 l
2.05 2.32 l
2.04 2.33 l
2.05 2.32 l
2.04 2.32 l
2.05 2.33 l
2.04 2.32 l
2.05 2.32 l
2.04 2.33 l
2.05 2.32 l
2.04 2.32 l
2.05 2.33 l
2.04 2.32 l
2.05 2.33 l
2.04 2.32 l
2.04 2.32 l
2.05 2.33 l
2.04 2.32 l
2.05 2.32 l
2.04 2.33 l
2.05 2.32 l
2.04 2.32 l
2.05 2.33 l
2.04 2.32 l
2.05 2.32 l
2.04 2.33 l
2.05 2.32 l
2.04 2.32 l
2.05 2.33 l
2.04 2.32 l
2.05 2.32 l
2.04 2.33 l
2.04 2.32 l
2.05 2.32 l
2.04 2.33 l
2.05 2.32 l
2.04 2.32 l
2.05 2.33 l
2.04 2.32 l
2.05 2.32 l
2.04 2.33 l
2.05 2.32 l
2.04 2.32 l
2.05 2.33 l
2.04 2.32 l
2.05 2.32 l
2.04 2.33 l
2.04 2.32 l
2.05 2.32 l
2.04 2.33 l
2.05 2.32 l
2.04 2.33 l
2.05 2.32 l
2.04 2.32 l
2.05 2.33 l
2.04 2.32 l
2.05 2.32 l
2.04 2.33 l
2.05 2.32 l
2.04 2.32 l
2.05 2.33 l
2.04 2.32 l
2.04 2.32 l
2.05 2.33 l
2.04 2.32 l
2.05 2.32 l
2.04 2.33 l
2.05 2.32 l
2.04 2.32 l
2.05 2.33 l
2.04 2.32 l
2.05 2.32 l
2.04 2.33 l
2.05 2.32 l
2.04 2.32 l
2.05 2.33 l
2.04 2.32 l
2.04 2.32 l
2.05 2.33 l
2.04 2.32 l
2.05 2.32 l
2.04 2.33 l
2.05 2.32 l
2.04 2.32 l
2.05 2.33 l
2.04 2.32 l
300.74 338.83 lineto
2.04 2.33 l
2.05 2.32 l
2.04 2.32 l
2.05 2.33 l
2.04 2.32 l
2.04 2.33 l
2.05 2.32 l
2.04 2.32 l
2.05 2.33 l
2.04 2.32 l
2.05 2.32 l
2.04 2.33 l
2.05 2.32 l
2.04 2.32 l
2.05 2.33 l
2.04 2.32 l
2.05 2.32 l
2.04 2.33 l
2.05 2.32 l
2.04 2.32 l
2.04 2.33 l
2.05 2.32 l
2.04 2.32 l
2.05 2.33 l
2.04 2.32 l
2.05 2.32 l
2.04 2.33 l
2.05 2.32 l
2.04 2.32 l
2.05 2.33 l
2.04 2.32 l
2.05 2.32 l
2.04 2.33 l
2.05 2.32 l
2.04 2.32 l
2.05 2.33 l
2.04 2.32 l
2.04 2.32 l
2.05 2.33 l
2.04 2.32 l
2.05 2.32 l
2.04 2.33 l
2.05 2.32 l
2.04 2.33 l
2.05 2.32 l
2.04 2.32 l
2.05 2.33 l
2.04 2.32 l
2.05 2.32 l
2.04 2.33 l
2.05 2.32 l
2.04 2.32 l
2.04 2.33 l
2.05 2.32 l
2.04 2.32 l
2.05 2.33 l
2.04 2.32 l
2.05 2.32 l
2.04 2.33 l
2.05 2.32 l
2.04 2.32 l
2.05 2.33 l
2.04 2.32 l
2.05 2.32 l
2.04 2.33 l
2.05 2.32 l
2.04 2.32 l
2.04 2.33 l
2.05 2.32 l
2.04 2.32 l
2.05 2.33 l
2.04 2.32 l
2.05 2.32 l
2.04 2.33 l
2.05 2.32 l
2.04 2.32 l
2.05 2.33 l
2.04 2.32 l
2.05 2.32 l
2.04 2.33 l
2.05 2.32 l
2.04 2.33 l
2.04 2.32 l
2.05 2.32 l
2.04 2.33 l
2.05 2.32 l
2.04 2.32 l
2.05 2.33 l
2.04 2.32 l
2.05 2.32 l
2.04 2.33 l
2.05 2.32 l
2.04 2.32 l
2.05 2.33 l
2.04 2.32 l
2.05 2.32 l
2.04 2.33 l
2.04 2.32 l
2.05 2.32 l
505.20 571.18 lineto
2.05 2.32 l
2.04 2.32 l
2.05 2.33 l
2.04 2.32 l
2.05 2.32 l
2.04 2.33 l
2.05 2.32 l
2.04 2.32 l
2.05 2.33 l
2.04 2.32 l
2.05 2.32 l
2.04 2.33 l
2.04 2.32 l
2.05 2.32 l
2.04 2.33 l
2.05 2.32 l
2.04 2.32 l
2.05 2.33 l
2.04 2.32 l
2.05 2.32 l
2.04 2.33 l
2.05 2.32 l
2.04 2.33 l
2.05 2.32 l
2.04 2.32 l
2.05 2.33 l
2.04 2.32 l
2.04 2.32 l
2.05 2.33 l
2.04 2.32 l
2.05 2.32 l
2.04 2.33 l
2.05 2.32 l
2.04 2.32 l
2.05 2.33 l
2.04 2.32 l
2.05 2.32 l
2.04 2.33 l
2.05 2.32 l
2.04 2.32 l
2.05 2.33 l
2.04 2.32 l
2.05 2.32 l
2.04 2.33 l
2.04 2.32 l
2.05 2.32 l
2.04 2.33 l
2.05 2.32 l
2.04 2.32 l
2.05 2.33 l
2.04 2.32 l
2.05 2.32 l
2.04 2.33 l
2.05 2.32 l
2.04 2.32 l
2.05 2.33 l
2.04 2.32 l
2.05 2.32 l
2.04 2.33 l
2.04 2.32 l
2.05 2.33 l
2.04 2.32 l
2.05 2.32 l
2.04 2.33 l
2.05 2.32 l
2.04 2.32 l
2.05 2.33 l
2.04 2.32 l
2.05 2.32 l
2.04 2.33 l
2.05 2.32 l
2.04 2.32 l
2.05 2.33 l
2.04 2.32 l
2.04 2.32 l
2.05 2.33 l
2.04 2.32 l
2.05 2.32 l
2.04 2.33 l
2.05 2.32 l
2.04 2.32 l
2.05 2.33 l
2.04 2.32 l
2.05 2.32 l
2.04 2.33 l
2.05 2.32 l
2.04 2.32 l
2.05 2.33 l
2.04 2.32 l
2.04 2.32 l
2.05 2.33 l
2.04 2.32 l
2.05 2.32 l
2.04 2.33 l
2.05 2.32 l
2.04 2.32 l
2.05 2.33 l
2.04 2.32 l
2.05 2.32 l
709.67 803.52 lineto
2.05 2.32 l
2.04 2.33 l
2.05 2.32 l
2.04 2.32 l
2.04 2.33 l
2.05 2.32 l
2.04 2.32 l
2.05 2.33 l
2.04 2.32 l
2.05 2.32 l
2.04 2.33 l
2.05 2.32 l
2.04 2.32 l
2.05 2.33 l
2.04 2.32 l
2.05 2.32 l
2.04 2.33 l
2.05 2.32 l
2.04 2.32 l
2.04 2.33 l
2.05 2.32 l
2.04 2.32 l
2.05 2.33 l
2.04 2.32 l
2.05 2.32 l
2.04 2.33 l
2.05 2.32 l
2.04 2.32 l
2.05 2.33 l
2.04 2.32 l
2.05 2.32 l
2.04 2.33 l
2.05 2.32 l
2.04 2.32 l
2.05 2.33 l
2.04 2.32 l
2.04 2.32 l
2.05 2.33 l
2.04 2.32 l
2.05 2.33 l
2.04 2.32 l
2.05 2.32 l
2.04 2.33 l
2.05 2.32 l
2.04 2.32 l
2.05 2.33 l
2.04 2.32 l
2.05 2.32 l
2.04 2.33 l
2.05 2.32 l
2.04 2.32 l
2.04 2.33 l
2.05 2.32 l
2.04 2.32 l
2.05 2.33 l
2.04 2.32 l
2.05 2.32 l
2.04 2.33 l
2.05 2.32 l
2.04 2.32 l
2.05 2.33 l
2.04 2.32 l
2.05 2.32 l
2.04 2.33 l
2.05 2.32 l
2.04 2.32 l
2.04 2.33 l
2.05 2.32 l
2.04 2.32 l
2.05 2.33 l
2.04 2.32 l
2.05 2.32 l
2.04 2.33 l
2.05 2.32 l
2.04 2.32 l
2.05 2.33 l
o
297.02 119.88 104.74 -46.44 r p1
305.94 108.27 2.70 c p1
1 1 1 srgb
303.24 93.96 5.40 5.40 r p1
0 0 0 srgb
np
 305.94 89.25 m
3.64 -6.30 l
-7.28 0 l
cp p1
/Font1 findfont 12 s
314.87 103.96 (Measured samples) 0 0 t
314.87 92.35 ( ) 0 0 t
314.87 80.74 (Calibr) 0 ta
-0.120 (ation) tb gr
ep
%%Trailer
%%Pages: 1
%%EOF
