"wavelength" "counts"
185 2034
185.5 2032.8
186 2035.3
186.5 2037.1
187 2036.7
187.5 2033.6
188 2030
188.5 2033.3
189 2037.1
189.5 2036.9
190 2041.1
190.5 3099.5
191 8447.1
191.5 13517
192 15421
192.5 16430
193 16849
193.5 17396
194 17835
194.5 18218
195 18516
195.5 18771
196 19060
196.5 19355
197 19753
197.5 20149
198 20455
198.5 20773
199 21033
199.5 21377
200 21881
200.5 22445
201 23027
201.5 23430
202 23755
202.5 24087
203 24435
203.5 24931
204 25433
204.5 25828
205 26097
205.5 26332
206 26665
206.5 27118
207 27670
207.5 28195
208 28639
208.5 29088
209 29573
209.5 30097
210 30621
210.5 31003
211 31319
211.5 31719
212 32158
212.5 32698
213 33304
213.5 33905
214 34485
214.5 35058
215 35526
215.5 35825
216 36138
216.5 36583
217 37165
217.5 37625
218 38095
218.5 38563
219 38999
219.5 39588
220 40179
220.5 40750
221 41265
221.5 41793
222 42369
222.5 42835
223 43358
223.5 44014
224 44585
224.5 45211
225 46019
225.5 46750
226 47410
226.5 48105
227 48710
227.5 49283
228 49897
228.5 50425
229 50806
229.5 51298
230 51970
230.5 52594
231 53172
231.5 53583
232 53776
232.5 54164
233 54621
233.5 55156
234 55658
234.5 55880
235 56190
235.5 56597
236 57050
236.5 57566
237 58017
237.5 58236
238 58369
238.5 58483
239 58447
239.5 58437
240 58525
240.5 58751
241 59051
241.5 59354
242 59610
242.5 59740
243 59779
243.5 59831
244 59964
244.5 60140
245 60377
245.5 60582
246 60708
246.5 60809
247 60730
247.5 60603
248 60471
248.5 60379
249 60589
249.5 60774
250 60955
250.5 61165
251 61169
251.5 61136
252 61104
252.5 60982
253 60982
253.5 61126
254 61298
254.5 61490
255 61598
255.5 61670
256 61844
256.5 62010
257 62100
257.5 62017
258 61781
258.5 61614
259 61503
259.5 61401
260 61256
260.5 61110
261 61091
261.5 61154
262 61201
262.5 61270
263 61286
263.5 61168
264 60949
264.5 60656
265 60355
265.5 60302
266 60333
266.5 60283
267 60119
267.5 59951
268 59868
268.5 59671
269 59336
269.5 58935
270 58391
270.5 58160
271 58067
271.5 57741
272 57583
272.5 57377
273 57302
273.5 57433
274 57269
274.5 56923
275 56513
275.5 56166
276 55983
276.5 55916
277 55744
277.5 55388
278 54908
278.5 54501
279 54303
279.5 54265
280 54240
280.5 54000
281 53575
281.5 53220
282 53089
282.5 53063
283 52976
283.5 52714
284 52393
284.5 52069
285 51761
285.5 51511
286 51111
286.5 50746
287 50487
287.5 50167
288 49946
288.5 49806
289 49571
289.5 49376
290 49202
290.5 49006
291 48663
291.5 48205
292 47689
292.5 47176
293 46833
293.5 46547
294 46314
294.5 46173
295 46085
295.5 45964
296 45707
296.5 45353
297 45045
297.5 44783
298 44651
298.5 44602
299 44416
299.5 44181
300 43836
300.5 43466
301 43220
301.5 43102
302 43021
302.5 42997
303 43080
303.5 42977
304 42716
304.5 42219
305 41531
305.5 41019
306 40650
306.5 40421
307 40415
307.5 40288
308 40143
308.5 39941
309 39590
309.5 39465
310 39320
310.5 39054
311 38818
311.5 38426
312 38158
312.5 38061
313 37872
313.5 37615
314 37209
314.5 36769
315 36411
315.5 36190
316 36053
316.5 35988
317 35858
317.5 35701
318 35639
318.5 35546
319 35525
319.5 35407
320 35092
320.5 34836
321 34610
321.5 34509
322 34433
322.5 34211
323 33931
323.5 33587
324 33370
324.5 33219
325 33114
325.5 33026
326 32884
326.5 32699
327 32392
327.5 32044
328 31744
328.5 31453
329 31217
329.5 31096
330 30933
330.5 30761
331 30646
331.5 30404
332 30214
332.5 30056
333 29902
333.5 29657
334 29337
334.5 29071
335 28787
335.5 28645
336 28539
336.5 28384
337 28183
337.5 27884
338 27526
338.5 27236
339 27079
339.5 26978
340 26902
340.5 26802
341 26736
341.5 26665
342 26609
342.5 26479
343 26290
343.5 26087
344 25850
344.5 25662
345 25482
345.5 25375
346 25282
346.5 25129
347 24947
347.5 24738
348 24569
348.5 24474
349 24427
349.5 24346
350 24248
350.5 24184
351 24083
351.5 23938
352 23784
352.5 23605
353 23479
353.5 23368
354 23262
354.5 23135
355 22983
355.5 22852
356 22793
356.5 22779
357 22732
357.5 22568
358 22343
358.5 22107
359 21974
359.5 21943
360 21918
360.5 21883
361 21830
361.5 21772
362 21752
362.5 21736
363 21697
363.5 21633
364 21598
364.5 21587
365 21599
365.5 21641
366 21696
366.5 21733
367 21726
367.5 21705
368 21673
368.5 21649
369 21583
369.5 21487
370 21399
370.5 21368
371 21376
371.5 21399
372 21408
372.5 21393
373 21323
373.5 21243
374 21181
374.5 21207
375 21310
375.5 21390
376 21401
376.5 21395
377 21385
377.5 21437
378 21577
378.5 21700
379 21799
379.5 21807
380 21755
380.5 21684
381 21615
381.5 21592
382 21588
382.5 21555
383 21523
383.5 21473
384 21432
384.5 21417
385 21342
385.5 21235
386 21130
386.5 21090
387 21105
387.5 21165
388 21217
388.5 21241
389 21212
389.5 21124
390 21013
390.5 20929
391 20923
391.5 20990
392 21142
392.5 21365
393 21535
393.5 21520
394 21316
394.5 21050
395 20824
395.5 20723
396 20645
396.5 20572
397 20585
397.5 20674
398 20886
398.5 21112
399 21208
399.5 21146
400 20938
400.5 20695
401 20463
401.5 20238
402 20043
402.5 19892
403 19794
403.5 19719
404 19654
404.5 19649
405 19696
405.5 19747
406 19700
406.5 19535
407 19338
407.5 19209
408 19204
408.5 19265
409 19320
409.5 19287
410 19188
410.5 19054
411 18947
411.5 18898
412 18887
412.5 18901
413 18942
413.5 18968
414 18910
414.5 18805
415 18671
415.5 18585
416 18558
416.5 18535
417 18494
417.5 18443
418 18376
418.5 18331
419 18303
419.5 18302
420 18343
420.5 18463
421 18664
421.5 18871
422 18977
422.5 18921
423 18738
423.5 18517
424 18362
424.5 18268
425 18199
425.5 18078
426 17889
426.5 17699
427 17587
427.5 17556
428 17594
428.5 17659
429 17860
429.5 18134
430 18457
430.5 18677
431 18648
431.5 18434
432 18091
432.5 17754
433 17503
433.5 17364
434 17305
434.5 17296
435 17298
435.5 17390
436 17589
436.5 17751
437 17764
437.5 17670
438 17584
438.5 17625
439 17641
439.5 17544
440 17391
440.5 17310
441 17345
441.5 17416
442 17469
442.5 17524
443 17586
443.5 17640
444 17631
444.5 17572
445 17495
445.5 17453
446 17441
446.5 17439
447 17451
447.5 17435
448 17371
448.5 17261
449 17142
449.5 17058
450 17046
450.5 17031
451 16980
451.5 16871
452 16730
452.5 16584
453 16414
453.5 16236
454 16077
454.5 15950
455 15903
455.5 15903
456 15918
456.5 15950
457 15956
457.5 15952
458 15902
458.5 15856
459 15823
459.5 15843
460 15959
460.5 16096
461 16194
461.5 16119
462 15925
462.5 15774
463 15685
463.5 15721
464 15831
464.5 16073
465 16495
465.5 16929
466 17123
466.5 17049
467 16788
467.5 16607
468 16595
468.5 16620
469 16612
469.5 16557
470 16532
470.5 16517
471 16542
471.5 16585
472 16751
472.5 17033
473 17342
473.5 17614
474 17882
474.5 18202
475 18544
475.5 18812
476 18999
476.5 19046
477 19120
477.5 19221
478 19405
478.5 19680
479 19947
479.5 20255
480 20558
480.5 20899
481 21289
481.5 21673
482 21938
482.5 22066
483 22133
483.5 22342
484 22784
484.5 23403
485 24215
485.5 25090
486 25706
486.5 26045
487 26036
487.5 25792
488 25473
488.5 25159
489 24958
489.5 24929
490 24965
490.5 25026
491 25138
491.5 25253
492 25328
492.5 25421
493 25569
493.5 25815
494 26107
494.5 26325
495 26522
495.5 26906
496 27418
496.5 27789
497 27796
497.5 27496
498 27204
498.5 27100
499 27112
499.5 27137
500 27168
500.5 27294
501 27575
501.5 27892
502 28147
502.5 28306
503 28449
503.5 28574
504 28655
504.5 28676
505 28620
505.5 28540
506 28448
506.5 28357
507 28329
507.5 28341
508 28353
508.5 28362
509 28328
509.5 28338
510 28429
510.5 28535
511 28583
511.5 28524
512 28448
512.5 28413
513 28387
513.5 28354
514 28206
514.5 28016
515 27850
515.5 27821
516 27998
516.5 28211
517 28285
517.5 28223
518 28162
518.5 28246
519 28380
519.5 28380
520 28221
520.5 28051
521 28022
521.5 28067
522 28121
522.5 28127
523 28155
523.5 28230
524 28286
524.5 28305
525 28305
525.5 28323
526 28393
526.5 28470
527 28508
527.5 28564
528 28691
528.5 28900
529 29096
529.5 29201
530 29201
530.5 29172
531 29200
531.5 29241
532 29344
532.5 29486
533 29685
533.5 29948
534 30204
534.5 30382
535 30465
535.5 30394
536 30266
536.5 30219
537 30345
537.5 30653
538 31017
538.5 31339
539 31536
539.5 31577
540 31537
540.5 31516
541 31563
541.5 31663
542 31736
542.5 31812
543 31935
543.5 32134
544 32435
544.5 32702
545 32836
545.5 32855
546 32885
546.5 33102
547 33498
547.5 33902
548 34086
548.5 33853
549 33450
549.5 33183
550 33091
550.5 33193
551 33405
551.5 33814
552 34283
552.5 34642
553 34770
553.5 34778
554 34775
554.5 34946
555 35225
555.5 35407
556 35272
556.5 34923
557 34598
557.5 34400
558 34283
558.5 34299
559 34513
559.5 35007
560 35670
560.5 36324
561 36792
561.5 36938
562 36924
562.5 36962
563 37114
563.5 37182
564 37073
564.5 36867
565 36723
565.5 36613
566 36591
566.5 36756
567 37137
567.5 37688
568 38353
568.5 39093
569 39913
569.5 40736
570 41544
570.5 42439
571 43367
571.5 44017
572 44140
572.5 44195
573 44566
573.5 45341
574 46178
574.5 46610
575 46484
575.5 46039
576 45820
576.5 46489
577 48101
577.5 49825
578 50349
578.5 49540
579 48106
579.5 47234
580 47552
580.5 49284
581 51770
581.5 53251
582 52776
582.5 50483
583 48152
583.5 46927
584 47431
584.5 49125
585 50643
585.5 50967
586 50219
586.5 49566
587 49463
587.5 49514
588 49145
588.5 48231
589 47410
589.5 46870
590 46584
590.5 46364
591 46430
591.5 47061
592 48553
592.5 50399
593 51634
593.5 51284
594 49884
594.5 48606
595 47907
595.5 47453
596 47183
596.5 47455
597 48335
597.5 49490
598 50891
598.5 52377
599 53587
599.5 54078
600 53568
600.5 52498
601 50969
601.5 49616
602 48699
602.5 48707
603 49359
603.5 50240
604 50735
604.5 51023
605 51544
605.5 52286
606 52922
606.5 53312
607 53430
607.5 53022
608 52052
608.5 50831
609 50053
609.5 49713
610 49597
610.5 49551
611 49550
611.5 49723
612 50024
612.5 50397
613 50740
613.5 51095
614 51720
614.5 52387
615 52562
615.5 51836
616 50823
616.5 49964
617 49515
617.5 49299
618 49214
618.5 49158
619 49113
619.5 49133
620 49004
620.5 48773
621 48872
621.5 49371
622 49911
622.5 50085
623 50002
623.5 50017
624 50003
624.5 49876
625 49618
625.5 49415
626 49389
626.5 49572
627 49713
627.5 49715
628 49532
628.5 49515
629 49655
629.5 49762
630 49686
630.5 49472
631 49271
631.5 49138
632 49078
632.5 49081
633 49107
633.5 49153
634 49208
634.5 49278
635 49481
635.5 49789
636 50086
636.5 50199
637 50117
637.5 50069
638 50053
638.5 50090
639 50096
639.5 50172
640 50277
640.5 50380
641 50412
641.5 50424
642 50463
642.5 50567
643 50732
643.5 50877
644 50978
644.5 51007
645 51038
645.5 51069
646 51114
646.5 51181
647 51398
647.5 51837
648 52404
648.5 52888
649 53116
649.5 53014
650 52795
650.5 52589
651 52584
651.5 52673
652 52865
652.5 53075
653 53171
653.5 53137
654 53295
654.5 54935
655 58378
655.5 62123
656 63449
656.5 61783
657 58697
657.5 56141
658 54704
658.5 54110
659 53820
659.5 53649
660 53514
660.5 53504
661 53538
661.5 53594
662 53631
662.5 53691
663 53835
663.5 54042
664 54197
664.5 54269
665 54239
665.5 54211
666 54164
666.5 54135
667 54134
667.5 54179
668 54243
668.5 54333
669 54472
669.5 54630
670 54794
670.5 55021
671 55364
671.5 55671
672 55798
672.5 55679
673 55461
673.5 55270
674 55166
674.5 55154
675 55208
675.5 55329
676 55489
676.5 55634
677 55765
677.5 55878
678 55996
678.5 56105
679 56176
679.5 56155
680 56089
680.5 56056
681 56095
681.5 56105
682 56036
682.5 55953
683 56003
683.5 56258
684 56627
684.5 56978
685 57168
685.5 57177
686 57054
686.5 56904
687 56786
687.5 56681
688 56620
688.5 56627
689 56685
689.5 56757
690 56868
690.5 57028
691 57137
691.5 57197
692 57182
692.5 57139
693 57072
693.5 56996
694 56971
694.5 57012
695 57108
695.5 57243
696 57478
696.5 57818
697 58029
697.5 58009
698 57800
698.5 57536
699 57300
699.5 57126
700 57054
700.5 57054
701 57160
701.5 57390
702 57654
702.5 57827
703 57815
703.5 57687
704 57530
704.5 57397
705 57426
705.5 57598
706 57940
706.5 58310
707 58581
707.5 58686
708 58673
708.5 58515
709 58301
709.5 58132
710 58067
710.5 58044
711 58052
711.5 58127
712 58260
712.5 58379
713 58504
713.5 58630
714 58695
714.5 58636
715 58463
715.5 58261
716 58106
716.5 58077
717 58151
717.5 58246
718 58306
718.5 58320
719 58226
719.5 58064
720 57926
720.5 57847
721 57822
721.5 57784
722 57737
722.5 57672
723 57599
723.5 57587
724 57590
724.5 57650
725 57697
725.5 57772
726 57797
726.5 57825
727 57830
727.5 57861
728 57908
728.5 58009
729 58144
729.5 58302
730 58498
730.5 58685
731 58842
731.5 58882
732 58875
732.5 58840
733 58827
733.5 58806
734 58749
734.5 58696
735 58680
735.5 58712
736 58735
736.5 58685
737 58604
737.5 58543
738 58533
738.5 58516
739 58466
739.5 58325
740 58090
740.5 57814
741 57616
741.5 57533
742 57522
742.5 57461
743 57412
743.5 57348
744 57282
744.5 57160
745 57057
745.5 56992
746 57014
746.5 56985
747 56903
747.5 56770
748 56702
748.5 56664
749 56656
749.5 56696
750 56751
750.5 56778
751 56754
751.5 56706
752 56735
752.5 56770
753 56740
753.5 56707
754 56671
754.5 56702
755 56771
755.5 56958
756 57162
756.5 57349
757 57439
757.5 57423
758 57276
758.5 57127
759 56994
759.5 56879
760 56702
760.5 56548
761 56455
761.5 56385
762 56301
762.5 56217
763 56229
763.5 56359
764 56481
764.5 56480
765 56335
765.5 56126
766 55917
766.5 55705
767 55528
767.5 55424
768 55399
768.5 55370
769 55306
769.5 55201
770 55079
770.5 54983
771 54881
771.5 54751
772 54605
772.5 54433
773 54359
773.5 54295
774 54234
774.5 54101
775 53953
775.5 53787
776 53553
776.5 53367
777 53251
777.5 53229
778 53270
778.5 53363
779 53430
779.5 53524
780 53632
780.5 53771
781 53800
781.5 53753
782 53679
782.5 53606
783 53479
783.5 53289
784 53028
784.5 52867
785 52755
785.5 52698
786 52645
786.5 52620
787 52620
787.5 52587
788 52578
788.5 52530
789 52506
789.5 52428
790 52379
790.5 52301
791 52217
791.5 52117
792 52148
792.5 52227
793 52301
793.5 52334
794 52297
794.5 52130
795 51900
795.5 51627
796 51313
796.5 50987
797 50704
797.5 50516
798 50423
798.5 50349
799 50184
799.5 50030
800 49903
800.5 49785
801 49666
801.5 49506
802 49403
802.5 49317
803 49285
803.5 49175
804 49122
804.5 49083
805 49115
805.5 49184
806 49165
806.5 49050
807 48930
807.5 48767
808 48554
808.5 48353
809 48183
809.5 47993
810 47782
810.5 47652
811 47597
811.5 47525
812 47413
812.5 47268
813 47158
813.5 47087
814 47038
814.5 46923
815 46820
815.5 46711
816 46553
816.5 46398
817 46281
817.5 46188
818 46104
818.5 46010
819 45903
819.5 45770
820 45668
820.5 45604
821 45507
821.5 45350
822 45171
822.5 45017
823 44865
823.5 44745
824 44690
824.5 44642
825 44580
825.5 44502
826 44447
826.5 44383
827 44292
827.5 44160
828 43984
828.5 43704
829 43409
829.5 43177
830 42981
830.5 42821
831 42679
831.5 42562
832 42425
832.5 42316
833 42230
833.5 42143
834 42032
834.5 41911
835 41761
835.5 41562
836 41382
836.5 41209
837 41038
837.5 40916
838 40863
838.5 40755
839 40601
839.5 40456
840 40326
840.5 40167
841 40029
841.5 39945
