"wavelength" "counts"
183 1571.6
183.5 1564.9
184 1568.9
184.5 1574
185 1577
185.5 1572
186 1567.7
186.5 1569.3
187 1571.3
187.5 1570.9
188 1574.8
188.5 1578.9
189 1579.6
189.5 1580.3
190 1579.3
190.5 1579.6
191 1582.4
191.5 1584.2
192 1581.6
192.5 1579
193 1575.7
193.5 1570.7
194 1571.2
194.5 1575.4
195 1575.4
195.5 1576.7
196 1583
196.5 1589.6
197 1595.9
197.5 1601.1
198 1605
198.5 1608.4
199 1610.9
199.5 1612.1
200 1612
200.5 1610.6
201 1608.4
201.5 1606.4
202 1605
202.5 1605.1
203 1607.6
203.5 1611.4
204 1616.1
204.5 1619.8
205 1621.4
205.5 1620.6
206 1618.6
206.5 1617
207 1615.5
207.5 1614
208 1611.4
208.5 1607.3
209 1603.5
209.5 1601.5
210 1601.9
210.5 1604.7
211 1608.3
211.5 1610.9
212 1612.6
212.5 1611.4
213 1607.2
213.5 1601.5
214 1595.6
214.5 1591.6
215 1589.5
215.5 1588.1
216 1585.8
216.5 1583.1
217 1581.4
217.5 1581.1
218 1581.4
218.5 1581
219 1580.3
219.5 1580.7
220 1582.8
220.5 1585.5
221 1587.8
221.5 1589.6
222 1592.2
222.5 1595.7
223 1599.6
223.5 1603
224 1605.1
224.5 1607.7
225 1611.2
225.5 1614
226 1614.7
226.5 1612.9
227 1610.2
227.5 1608
228 1606.7
228.5 1606.9
229 1606.7
229.5 1606
230 1605.7
230.5 1603.7
231 1600.5
231.5 1596.8
232 1592.8
232.5 1591.1
233 1590.6
233.5 1590.2
234 1589.6
234.5 1588.2
235 1587.4
235.5 1588.1
236 1590.8
236.5 1594.9
237 1599.1
237.5 1602.7
238 1605
238.5 1605.8
239 1606
239.5 1607
240 1609.4
240.5 1612.9
241 1615.7
241.5 1616.7
242 1614.7
242.5 1610.1
243 1604.8
243.5 1599.4
244 1593.9
244.5 1589.5
245 1585.1
245.5 1580.7
246 1577.4
246.5 1574.5
247 1572
247.5 1571
248 1571.2
248.5 1572.8
249 1576.1
249.5 1580.2
250 1584.3
250.5 1588
251 1592.3
251.5 1596.4
252 1600.4
252.5 1604.4
253 1608.3
253.5 1612.4
254 1616.8
254.5 1620.6
255 1622.4
255.5 1622.8
256 1622.8
256.5 1623.1
257 1623.2
257.5 1622.9
258 1621.3
258.5 1619
259 1618
259.5 1617.7
260 1618.5
260.5 1620.8
261 1623.2
261.5 1624.7
262 1625.6
262.5 1625.1
263 1623.4
263.5 1621.4
264 1618.3
264.5 1614.5
265 1610.6
265.5 1607.1
266 1604.8
266.5 1604.4
267 1604.8
267.5 1605.2
268 1605.1
268.5 1603.8
269 1601.8
269.5 1600.1
270 1598.6
270.5 1597
271 1594.6
271.5 1590.3
272 1584.2
272.5 1578
273 1572.1
273.5 1568.2
274 1566.9
274.5 1567.6
275 1571
275.5 1577.3
276 1584.7
276.5 1591.9
277 1597.5
277.5 1599.8
278 1599.2
278.5 1596.3
279 1590.7
279.5 1582.6
280 1573.5
280.5 1565.9
281 1562.1
281.5 1563.1
282 1567.8
282.5 1574.4
283 1581.4
283.5 1587.3
284 1592.3
284.5 1597.2
285 1601.9
285.5 1606.7
286 1610.6
286.5 1612.4
287 1611.8
287.5 1609.6
288 1608
288.5 1608
289 1610
289.5 1612.9
290 1613.5
290.5 1611.4
291 1607.1
291.5 1602.5
292 1599.1
292.5 1596.7
293 1593.8
293.5 1590.2
294 1585.6
294.5 1581.1
295 1577.3
295.5 1574.9
296 1575
296.5 1577.3
297 1581
297.5 1585
298 1588.3
298.5 1592
299 1594.8
299.5 1594.5
300 1590.5
300.5 1583.9
301 1577
301.5 1573.9
302 1575
302.5 1579.7
303 1585.6
303.5 1591.3
304 1595.1
304.5 1596.8
305 1599
305.5 1601.8
306 1605.6
306.5 1607.9
307 1606.4
307.5 1601.8
308 1595.6
308.5 1591.1
309 1590.5
309.5 1593.6
310 1599
310.5 1604.7
311 1609.7
311.5 1614.2
312 1617.5
312.5 1620.2
313 1622.8
313.5 1624.8
314 1626
314.5 1624.7
315 1619.7
315.5 1611.6
316 1602.8
316.5 1595.7
317 1591.8
317.5 1592
318 1596.4
318.5 1602.6
319 1609.4
319.5 1615.3
320 1621
320.5 1627.1
321 1631.6
321.5 1633.3
322 1630.6
322.5 1623.2
323 1614.2
323.5 1606.6
324 1601.4
324.5 1600.3
325 1601.7
325.5 1604.7
326 1608.1
326.5 1611.2
327 1615
327.5 1620
328 1625.1
328.5 1628.8
329 1628.8
329.5 1624.9
330 1619.4
330.5 1615.1
331 1612.7
331.5 1611.8
332 1611.4
332.5 1610.6
333 1609.1
333.5 1607
334 1604.7
334.5 1602.9
335 1601.6
335.5 1601.1
336 1601
336.5 1600.6
337 1600.6
337.5 1601.2
338 1601.8
338.5 1603.3
339 1605
339.5 1606.6
340 1607.9
340.5 1607.3
341 1605.1
341.5 1603.4
342 1602.1
342.5 1601.5
343 1602.8
343.5 1605.1
344 1608.5
344.5 1613.3
345 1617.9
345.5 1622.5
346 1629.7
346.5 1639.3
347 1650.2
347.5 1660.5
348 1668.9
348.5 1676.9
349 1685.6
349.5 1693.9
350 1700.7
350.5 1704.7
351 1706
351.5 1706
352 1703.8
352.5 1699.1
353 1693.3
353.5 1687.6
354 1684
354.5 1682.3
355 1682.7
355.5 1685.5
356 1689.8
356.5 1695.8
357 1701.9
357.5 1706.5
358 1711
358.5 1716.3
359 1722.7
359.5 1721.9
360 1686.7
360.5 1613.4
361 1571.8
361.5 1627.3
362 1839.8
362.5 2203.4
363 2618.5
363.5 3014.1
364 3336.2
364.5 3564.5
365 3677.1
365.5 3671.6
366 3558.4
366.5 3322.6
367 2970.7
367.5 2535.6
368 2111.8
368.5 1797.5
369 1626.4
369.5 1606.3
370 1637.8
370.5 1670.9
371 1693.1
371.5 1704.5
372 1708.5
372.5 1708.9
373 1708.3
373.5 1708.3
374 1708.1
374.5 1708.8
375 1711.8
375.5 1716.1
376 1722.1
376.5 1728.1
377 1733.9
377.5 1740.2
378 1745.7
378.5 1749.6
379 1750.3
379.5 1747.6
380 1742.7
380.5 1738.1
381 1735.1
381.5 1732.6
382 1729.7
382.5 1723.5
383 1714.8
383.5 1706.9
384 1702
384.5 1700.7
385 1700.4
385.5 1698.7
386 1695.8
386.5 1692.7
387 1690.4
387.5 1689.7
388 1690.8
388.5 1693.2
389 1695.9
389.5 1695.5
390 1692
390.5 1687.7
391 1683.7
391.5 1680
392 1675.1
392.5 1668.5
393 1660.5
393.5 1653.3
394 1646.5
394.5 1640.6
395 1636.7
395.5 1636.7
396 1641.1
396.5 1647.6
397 1654.9
397.5 1662.6
398 1669.6
398.5 1675.3
399 1677.1
399.5 1664.3
400 1612.5
400.5 1548.2
401 1545.4
401.5 1685.5
402 1985
402.5 2407.3
403 2838.2
403.5 3207.3
404 3471.1
404.5 3637.9
405 3696.6
405.5 3642.6
406 3479.6
406.5 3183.2
407 2789.9
407.5 2366.9
408 2027.8
408.5 1825.8
409 1773
409.5 1786.5
410 1793.6
410.5 1771.7
411 1742.9
411.5 1722.9
412 1718.3
412.5 1722.8
413 1728.9
413.5 1733.1
414 1735.9
414.5 1739.1
415 1743.7
415.5 1749.2
416 1752.8
416.5 1753.8
417 1751.9
417.5 1747.7
418 1741.9
418.5 1733.2
419 1722.7
419.5 1712.9
420 1704.2
420.5 1697.8
421 1694.6
421.5 1694
422 1695.4
422.5 1696.8
423 1697.3
423.5 1700.1
424 1707.1
424.5 1716.7
425 1725.6
425.5 1732
426 1736.9
426.5 1743.2
427 1750.4
427.5 1757.1
428 1762.8
428.5 1766.9
429 1770.6
429.5 1775.9
430 1783.1
430.5 1770.5
431 1619.6
431.5 1324.3
432 1187.1
432.5 1541.1
433 2655.4
433.5 4431.7
434 6384.2
434.5 8120.7
435 9455.4
435.5 10274
436 10526
436.5 10269
437 9396.5
437.5 8019.7
438 6163.1
438.5 4159.1
439 2497.9
439.5 1607.2
440 1373.2
440.5 1520.4
441 1691.6
441.5 1785.5
442 1807.8
442.5 1805.1
443 1796.1
443.5 1788
444 1780
444.5 1769
445 1754.7
445.5 1740.4
446 1727.9
446.5 1719.9
447 1715.7
447.5 1715.2
448 1719.1
448.5 1725
449 1730.9
449.5 1735.6
450 1739.2
450.5 1740.7
451 1740.1
451.5 1736.6
452 1732
452.5 1728.6
453 1725.6
453.5 1722.8
454 1719.6
454.5 1716.4
455 1714.4
455.5 1713.1
456 1711.3
456.5 1708.6
457 1703.8
457.5 1698.5
458 1695.2
458.5 1694.4
459 1696.4
459.5 1699.8
460 1701.3
460.5 1701.7
461 1701.2
461.5 1702.5
462 1708.7
462.5 1717
463 1726.1
463.5 1734.1
464 1742.7
464.5 1755.8
465 1771.2
465.5 1787.9
466 1802.2
466.5 1810.5
467 1812
467.5 1808.3
468 1801.4
468.5 1796.1
469 1791.9
469.5 1786.6
470 1781.3
470.5 1777.6
471 1780.3
471.5 1788.5
472 1798.9
472.5 1808.8
473 1817
473.5 1824.7
474 1830.7
474.5 1834.2
475 1837
475.5 1841.5
476 1849.1
476.5 1858.8
477 1871.4
477.5 1888.2
478 1913.8
478.5 1946.9
479 1993.3
479.5 2058.6
480 2152.5
480.5 2283.8
481 2456.9
481.5 2689.6
482 2986.1
482.5 3381.1
483 3868.3
483.5 4467.9
484 5156.2
484.5 5905.5
485 6663.4
485.5 7371.4
486 7972
486.5 8432.3
487 8698.8
487.5 8795.2
488 8702.3
488.5 8491.2
489 8189.4
489.5 7850.9
490 7512.5
490.5 7200
491 6923.1
491.5 6678.4
492 6456
492.5 6247.9
493 6042.1
493.5 5829.9
494 5612.2
494.5 5398.4
495 5195
495.5 5001.5
496 4809.7
496.5 4616.3
497 4421.8
497.5 4230.4
498 4043.8
498.5 3863.8
499 3693.4
499.5 3528.5
500 3370.6
500.5 3217.9
501 3073.7
501.5 2938.4
502 2813.2
502.5 2695.7
503 2590.4
503.5 2495.4
504 2414.6
504.5 2345.5
505 2285.8
505.5 2236
506 2195.7
506.5 2166.1
507 2145.7
507.5 2130.7
508 2117.9
508.5 2104.4
509 2088.6
509.5 2070.8
510 2051.7
510.5 2034.2
511 2019.1
511.5 2005.7
512 1993.1
512.5 1981.3
513 1973
513.5 1968.4
514 1965.1
514.5 1959.4
515 1950.2
515.5 1940.5
516 1933.2
516.5 1930.9
517 1933.2
517.5 1939.1
518 1945.7
518.5 1948.5
519 1946.1
519.5 1941.6
520 1936.9
520.5 1932.9
521 1928.3
521.5 1923.1
522 1920.5
522.5 1921.2
523 1926
523.5 1936.7
524 1953.8
524.5 1977.7
525 2006.5
525.5 2037.6
526 2069
526.5 2098.8
527 2126.7
527.5 2151.6
528 2170.3
528.5 2180.2
529 2185.2
529.5 2208.8
530 2285
530.5 2428.1
531 2636.4
531.5 2875.7
532 3115.7
532.5 3328.1
533 3497.7
533.5 3629.3
534 3750.3
534.5 3903.2
535 4120.9
535.5 4422.5
536 4826.6
536.5 5340.8
537 6007.7
537.5 7047.4
538 8845.6
538.5 11809
539 16004
539.5 21134
540 26649
540.5 31967
541 36591
541.5 39955
542 42134
542.5 43422
543 44386
543.5 45387
544 46504
544.5 47743
545 48928
545.5 49581
546 49372
546.5 47732
547 44794
547.5 40349
548 34987
548.5 29437
549 24515
549.5 20746
550 17950
550.5 15818
551 14040
551.5 12479
552 11063
552.5 9801.6
553 8695.2
553.5 7725.2
554 6887
554.5 6157.1
555 5535.4
555.5 5001.1
556 4564.6
556.5 4200.3
557 3913
557.5 3682
558 3504
558.5 3362
559 3248
559.5 3153.2
560 3076.9
560.5 3017.2
561 2970.7
561.5 2933.1
562 2899.9
562.5 2864.8
563 2824.3
563.5 2776.3
564 2724.5
564.5 2674.3
565 2630.2
565.5 2594.7
566 2569.3
566.5 2552.1
567 2540
567.5 2528.4
568 2513.3
568.5 2492.4
569 2462.1
569.5 2423.9
570 2379.6
570.5 2335.2
571 2295.3
571.5 2261
572 2218.2
572.5 2150.5
573 2099.1
573.5 2173.2
574 2427.3
574.5 2881.2
575 3435.5
575.5 4059
576 4726.3
576.5 5427.8
577 6126.4
577.5 6769.1
578 7272.2
578.5 7597.6
579 7756.5
579.5 7892.3
580 8098.8
580.5 8380.8
581 8684.5
581.5 8979.4
582 9251.5
582.5 9449.7
583 9544.3
583.5 9571.6
584 9673.5
584.5 9965.1
585 10445
585.5 11007
586 11497
586.5 11815
587 11845
587.5 11592
588 11009
588.5 10115
589 9013
589.5 8008.9
590 7413.7
590.5 7519
591 8135.3
591.5 9014.9
592 9826.1
592.5 10381
593 10545
593.5 10351
594 9761.4
594.5 8882.6
595 7823.7
595.5 6832.2
596 6121.2
596.5 5875.8
597 6011.4
597.5 6432.9
598 6938.3
598.5 7393.6
599 7685.2
599.5 7781.9
600 7617.9
600.5 7232.4
601 6653.9
601.5 5990
602 5353.2
602.5 4869.6
603 4569.4
603.5 4471.2
604 4508.8
604.5 4630.1
605 4792
605.5 4958.9
606 5074.7
606.5 5063.6
607 5177.2
607.5 6416.7
608 9494.2
608.5 15160
609 22842
609.5 31953
610 41377
610.5 49869
611 55970
611.5 59221
612 59175
612.5 55741
613 49840
613.5 42623
614 35473
614.5 29113
615 23860
615.5 19647
616 16406
616.5 13685
617 11338
617.5 9526.8
618 8269.3
618.5 7556.1
619 7200.9
619.5 7067.6
620 7079.1
620.5 7165.6
621 7309.7
621.5 7488.9
622 7684.6
622.5 7882
623 8073.1
623.5 8259.2
624 8428.4
624.5 8560.5
625 8624
625.5 8607
626 8501.4
626.5 8295.8
627 8058.9
627.5 7926.2
628 8064.4
628.5 8506.7
629 9194.8
629.5 9913
630 10478
630.5 10689
631 10501
631.5 9863.4
632 8809.4
632.5 7467.9
633 6022
633.5 4748.6
634 3806.7
634.5 3280.1
635 3018.6
635.5 2911.6
636 2858.8
636.5 2809.8
637 2755.5
637.5 2701.2
638 2652.8
638.5 2613.7
639 2583.1
639.5 2561.2
640 2546.1
640.5 2536.7
641 2532.7
641.5 2534.1
642 2539.1
642.5 2545.4
643 2549.3
643.5 2550.5
644 2543.8
644.5 2532.2
645 2514.6
645.5 2492.6
646 2459.4
646.5 2425.2
647 2430.4
647.5 2513.6
648 2695.6
648.5 2959.9
649 3248.3
649.5 3515
650 3718.5
650.5 3847.2
651 3877.6
651.5 3793.7
652 3612.8
652.5 3373.8
653 3139.8
653.5 2949.8
654 2815.1
654.5 2718.3
655 2646.5
655.5 2597.1
656 2570.1
656.5 2557.6
657 2547
657.5 2524.6
658 2483.7
658.5 2422.8
659 2361.3
659.5 2328.2
660 2355.1
660.5 2449.1
661 2586.7
661.5 2733.7
662 2851.3
662.5 2918
663 2916
663.5 2841.5
664 2709.5
664.5 2548
665 2398.3
665.5 2290
666 2230.1
666.5 2206.9
667 2197.8
667.5 2192
668 2182.9
668.5 2168.7
669 2151
669.5 2133.8
670 2120.5
670.5 2112
671 2103.7
671.5 2095.6
672 2085.5
672.5 2077.5
673 2069.4
673.5 2059.3
674 2044.1
674.5 2024.3
675 2002.8
675.5 1981.4
676 1966.1
676.5 1957.7
677 1958
677.5 1966
678 1981.1
678.5 1999.8
679 2017.5
679.5 2031.1
680 2037.4
680.5 2035.9
681 2025.7
681.5 2012.5
682 1999.1
682.5 1986.7
683 1975.2
683.5 1969
684 1980.8
684.5 2031.2
685 2127.1
685.5 2261.5
686 2413.3
686.5 2553.3
687 2655.6
687.5 2697.2
688 2668.6
688.5 2579.3
689 2438.4
689.5 2264.4
690 2102.2
690.5 1991.6
691 1958.2
691.5 1992.6
692 2058.9
692.5 2122.4
693 2171
693.5 2224.5
694 2300.4
694.5 2387.4
695 2453.3
695.5 2483
696 2477.7
696.5 2440.4
697 2369.8
697.5 2259.2
698 2110.2
698.5 1949.3
699 1824.4
699.5 1758.7
700 1749.2
700.5 1773.5
701 1808.9
701.5 1843.6
702 1872
702.5 1892.4
703 1918.4
703.5 1990
704 2167
704.5 2472.6
705 2862.1
705.5 3284.3
706 3698.9
706.5 4075.5
707 4373.4
707.5 4536.3
708 4502.2
708.5 4282.4
709 3977.4
709.5 3702.5
710 3530.8
710.5 3442.7
711 3398
711.5 3372.2
712 3341.2
712.5 3269.3
713 3118.9
713.5 2872.9
714 2548.9
714.5 2220.1
715 1955.5
715.5 1786.4
716 1702.5
716.5 1671.3
717 1661.5
717.5 1658.1
718 1656.6
718.5 1659.1
719 1665.7
719.5 1672.8
720 1674.6
720.5 1673.6
721 1671.7
721.5 1670
722 1668.1
722.5 1665.4
723 1662.6
723.5 1660
724 1664.3
724.5 1678.4
725 1703.1
725.5 1730.9
726 1759.3
726.5 1782.9
727 1797.2
727.5 1796.4
728 1781.4
728.5 1756.5
729 1726.8
729.5 1702.2
730 1686.1
730.5 1678.5
731 1674.4
731.5 1671.2
732 1668.4
732.5 1664.1
733 1657.8
733.5 1649.6
734 1640.1
734.5 1620.1
735 1605.8
735.5 1630.2
736 1720.6
736.5 1873.4
737 2052.2
737.5 2210.5
738 2310.3
738.5 2337.9
739 2290.4
739.5 2168.9
740 1997.9
740.5 1831.2
741 1714.7
741.5 1667.1
742 1667.6
742.5 1685
743 1696.3
743.5 1695.2
744 1686
744.5 1673.4
745 1660.4
745.5 1650.8
746 1642.1
746.5 1629.1
747 1616.7
747.5 1626
748 1690.9
748.5 1837.4
749 2061.2
749.5 2325.8
750 2568.5
750.5 2728.5
751 2770.3
751.5 2683
752 2485.2
752.5 2221.7
753 1952.1
753.5 1744.5
754 1623.4
754.5 1582.3
755 1584.9
755.5 1601.9
756 1616
756.5 1623.9
757 1629.4
757.5 1634.9
758 1641.4
758.5 1647.7
759 1641.2
759.5 1590.4
760 1523.9
760.5 1552.9
761 1783.3
761.5 2247
762 2847.5
762.5 3421.4
763 3798.4
763.5 3919.2
764 3771.1
764.5 3363
765 2772.8
765.5 2171.6
766 1733.2
766.5 1538.7
767 1522
767.5 1576.2
768 1606.5
768.5 1593.8
769 1572.5
769.5 1592
770 1697.5
770.5 1885.6
771 2107.9
771.5 2301.3
772 2418.8
772.5 2440.9
773 2364.6
773.5 2195.7
774 1973.6
774.5 1773.1
775 1644.9
775.5 1597.7
776 1597.9
776.5 1614.4
777 1623.4
777.5 1624.9
778 1625.5
778.5 1626.2
779 1626
779.5 1625.8
780 1625.1
780.5 1622.2
781 1618.4
781.5 1618.2
782 1618.7
782.5 1619.2
783 1620
783.5 1621.3
784 1619.4
784.5 1615.7
785 1614.4
785.5 1615.3
786 1616.2
786.5 1618.9
787 1622.9
787.5 1626.9
788 1630.6
788.5 1634.5
789 1634.9
789.5 1632.9
790 1629.5
790.5 1620.8
791 1599.6
791.5 1581.4
792 1598.7
792.5 1685.6
793 1839
793.5 2014.1
794 2150.5
794.5 2217.8
795 2209.1
795.5 2122.6
796 1968.3
796.5 1786.2
797 1631.8
797.5 1549.5
798 1558.7
798.5 1671.4
799 1883.9
799.5 2172.7
800 2467.8
800.5 2676.8
801 2745.5
801.5 2668.5
802 2470.1
802.5 2194.5
803 1909.9
803.5 1694.4
804 1588.6
804.5 1578.4
805 1607
805.5 1626.2
806 1623.2
806.5 1609.3
807 1596.8
807.5 1588.4
808 1633.8
808.5 1844.4
809 2319.1
809.5 3037.8
810 3810.5
810.5 4382
811 4593.5
811.5 4426.4
812 3930.9
812.5 3207.6
813 2450.1
813.5 1862.5
814 1571
814.5 1529.4
815 1591
815.5 1625.6
816 1625.4
816.5 1621.8
817 1623.1
817.5 1626.2
818 1628.4
818.5 1629.2
819 1629
819.5 1625.5
820 1618.3
820.5 1611.3
821 1606.9
821.5 1605.5
822 1603
822.5 1592.8
823 1584.6
823.5 1600.5
824 1659.5
824.5 1756.9
825 1861.8
825.5 1937.5
826 1969.1
826.5 1953.9
827 1892.9
827.5 1798.7
828 1702.1
828.5 1633.6
829 1609.2
829.5 1611.2
830 1613.6
830.5 1607.7
831 1601.7
831.5 1600.5
832 1605.4
832.5 1611.5
833 1614.9
833.5 1617.4
834 1619.5
834.5 1616.7
835 1609
835.5 1602.6
836 1598.6
836.5 1590.1
837 1573.8
837.5 1573.1
838 1624.3
838.5 1737.3
839 1891.7
839.5 2089.8
840 2351.6
840.5 2637.2
841 2840
841.5 2875
842 2749
842.5 2524.2
843 2252.2
843.5 1965.3
844 1722.5
844.5 1593.6
845 1610.8
845.5 1735.9
846 1640
846.5 1632.7
847 1584.9
847.5 622.13
