"wavelength" "counts"
185 2146.3
185.5 2147.8
186 2134.6
186.5 2128.3
187 2135.5
187.5 2132.4
188 2137.5
188.5 2138.4
189 2143.4
189.5 2146.7
190 2144.6
190.5 2143
191 2159.5
191.5 2165.8
192 2166.2
192.5 2163.8
193 2158.4
193.5 2156.2
194 2155.6
194.5 2156.1
195 2157.4
195.5 2159.3
196 2162.3
196.5 2167
197 2171.6
197.5 2172.3
198 2171.2
198.5 2168.5
199 2165.7
199.5 2163.1
200 2160.9
200.5 2157.2
201 2155.1
201.5 2157.4
202 2159.1
202.5 2161.8
203 2162.4
203.5 2158.8
204 2157.8
204.5 2160
205 2165.5
205.5 2171.1
206 2170.3
206.5 2166.9
207 2161.2
207.5 2158.2
208 2160.2
208.5 2161.5
209 2163.9
209.5 2166.3
210 2166.3
210.5 2166.1
211 2165.9
211.5 2165
212 2163.3
212.5 2162
213 2163.4
213.5 2163.9
214 2162.8
214.5 2160.3
215 2155.5
215.5 2153.1
216 2154.6
216.5 2157.6
217 2157.4
217.5 2157.5
218 2159.1
218.5 2161.1
219 2161.7
219.5 2160.4
220 2160.1
220.5 2159.4
221 2162.4
221.5 2165.3
222 2167.1
222.5 2169
223 2170
223.5 2169
224 2165.1
224.5 2161.9
225 2160.5
225.5 2158.8
226 2156.1
226.5 2154.8
227 2152.7
227.5 2152.6
228 2155.7
228.5 2157
229 2159.5
229.5 2162.2
230 2163.7
230.5 2164.1
231 2162.2
231.5 2157.7
232 2152.7
232.5 2150.1
233 2151.3
233.5 2156.1
234 2161.3
234.5 2165.2
235 2166.8
235.5 2166
236 2166.5
236.5 2166.1
237 2164.1
237.5 2163.9
238 2163.1
238.5 2165.1
239 2168.1
239.5 2169.9
240 2168.6
240.5 2163.8
241 2160.3
241.5 2157.1
242 2157.6
242.5 2160.5
243 2161.4
243.5 2161.8
244 2161
244.5 2158.3
245 2158.3
245.5 2160.4
246 2165.2
246.5 2170.9
247 2174.6
247.5 2173.5
248 2168.2
248.5 2162.6
249 2160.3
249.5 2162.9
250 2164.6
250.5 2165.3
251 2164.4
251.5 2161.4
252 2163.5
252.5 2164.5
253 2163.9
253.5 2166.9
254 2165.8
254.5 2164.7
255 2163.1
255.5 2158.7
256 2157.5
256.5 2160.6
257 2162.6
257.5 2164.8
258 2167.5
258.5 2171.8
259 2175.1
259.5 2175.9
260 2174
260.5 2170.1
261 2166.9
261.5 2164.6
262 2164.2
262.5 2163.4
263 2162.2
263.5 2161.6
264 2160.5
264.5 2160.6
265 2162.5
265.5 2163.8
266 2163.3
266.5 2164.5
267 2167.9
267.5 2168
268 2168.3
268.5 2165.3
269 2162.8
269.5 2163.5
270 2165.9
270.5 2166.7
271 2166.1
271.5 2166.8
272 2169.9
272.5 2176.2
273 2180.3
273.5 2178.8
274 2173.2
274.5 2167.2
275 2163.9
275.5 2165.1
276 2164
276.5 2165.9
277 2168.6
277.5 2168.7
278 2170.1
278.5 2169.2
279 2166.1
279.5 2165
280 2163.5
280.5 2160.6
281 2161.2
281.5 2159.6
282 2160.6
282.5 2161.8
283 2162.2
283.5 2165.9
284 2170
284.5 2174.8
285 2177.7
285.5 2177.4
286 2175.8
286.5 2173.4
287 2172.1
287.5 2168.8
288 2163.3
288.5 2158.4
289 2157.7
289.5 2162.5
290 2169.5
290.5 2174.5
291 2176.6
291.5 2174.9
292 2174.5
292.5 2173
293 2171.7
293.5 2170.4
294 2168.8
294.5 2169.2
295 2169.5
295.5 2171.9
296 2173.3
296.5 2173
297 2171
297.5 2167.6
298 2165.2
298.5 2165.7
299 2168.3
299.5 2170.9
300 2170.9
300.5 2170.8
301 2169.5
301.5 2170.6
302 2175.4
302.5 2176.8
303 2174.3
303.5 2170.5
304 2166.5
304.5 2167
305 2170.4
305.5 2172.5
306 2174.4
306.5 2174
307 2172
307.5 2169.3
308 2167
308.5 2166.2
309 2169.1
309.5 2172.4
310 2173
310.5 2171.3
311 2169.3
311.5 2167.1
312 2167.7
312.5 2166.7
313 2165.5
313.5 2167.8
314 2169.7
314.5 2173.3
315 2174.6
315.5 2170.9
316 2168.6
316.5 2168.8
317 2169.7
317.5 2170.9
318 2170.8
318.5 2170.2
319 2170
319.5 2172.2
320 2171.7
320.5 2169.3
321 2167.5
321.5 2165.6
322 2165.3
322.5 2162.6
323 2161.5
323.5 2163.8
324 2168.4
324.5 2174.4
325 2176.7
325.5 2172
326 2168.2
326.5 2166.8
327 2166.9
327.5 2170.8
328 2172.6
328.5 2173.8
329 2174.4
329.5 2174.1
330 2172.1
330.5 2172.4
331 2174.7
331.5 2175.4
332 2176.3
332.5 2172.5
333 2165.8
333.5 2163
334 2164.1
334.5 2166.4
335 2169.4
335.5 2171.7
336 2173.3
336.5 2177.9
337 2183.7
337.5 2185.3
338 2184.5
338.5 2183.5
339 2180.5
339.5 2179.5
340 2179.5
340.5 2179.2
341 2179.3
341.5 2183.5
342 2184
342.5 2186.4
343 2186.9
343.5 2183.5
344 2183.9
344.5 2185
345 2186.8
345.5 2187.8
346 2185.6
346.5 2184.7
347 2186.4
347.5 2189.1
348 2191.1
348.5 2190.6
349 2190.4
349.5 2189.9
350 2189.1
350.5 2188.9
351 2186.1
351.5 2182.5
352 2180.9
352.5 2180.5
353 2187.3
353.5 2194.2
354 2195.7
354.5 2194.7
355 2192.3
355.5 2192.4
356 2194.9
356.5 2195.1
357 2195.2
357.5 2192.3
358 2190.2
358.5 2188.1
359 2186.6
359.5 2189.1
360 2191.6
360.5 2194.1
361 2194.7
361.5 2194.6
362 2192.7
362.5 2191.5
363 2189.9
363.5 2189.9
364 2190.7
364.5 2192.1
365 2193.5
365.5 2193.1
366 2192.7
366.5 2191.2
367 2191.1
367.5 2193.3
368 2195
368.5 2196.5
369 2198.6
369.5 2200.8
370 2204.5
370.5 2203.3
371 2201
371.5 2198.6
372 2197.4
372.5 2202.6
373 2207.3
373.5 2209.7
374 2210.8
374.5 2207.5
375 2205
375.5 2204.2
376 2204.7
376.5 2205.6
377 2205.3
377.5 2203.3
378 2201.7
378.5 2202.4
379 2201.8
379.5 2202
380 2202.2
380.5 2202.2
381 2206.1
381.5 2210
382 2213.1
382.5 2217
383 2219.3
383.5 2218.4
384 2216.9
384.5 2212.5
385 2213.2
385.5 2216.1
386 2219.4
386.5 2222
387 2220.7
387.5 2220
388 2221.1
388.5 2219.2
389 2216
389.5 2214
390 2218.7
390.5 2228.9
391 2237.1
391.5 2239.5
392 2235.6
392.5 2231.9
393 2233.5
393.5 2239.1
394 2244.2
394.5 2247.8
395 2251.1
395.5 2251.9
396 2252.9
396.5 2249.8
397 2247
397.5 2247.2
398 2248.5
398.5 2251.5
399 2255.5
399.5 2262.4
400 2272.4
400.5 2277.3
401 2282.4
401.5 2284.6
402 2290
402.5 2296.8
403 2303.8
403.5 2310.1
404 2315.4
404.5 2323
405 2330.7
405.5 2336.1
406 2341.4
406.5 2345.8
407 2356.7
407.5 2372.3
408 2387.9
408.5 2406.8
409 2425.6
409.5 2448
410 2473.4
410.5 2499.1
411 2523
411.5 2549.2
412 2576.2
412.5 2606.2
413 2640.8
413.5 2678.1
414 2718.5
414.5 2764.6
415 2817.8
415.5 2872.7
416 2932.7
416.5 2993.9
417 3058.2
417.5 3131
418 3210.7
418.5 3292
419 3380.2
419.5 3473.6
420 3576.2
420.5 3691.8
421 3813.9
421.5 3946.2
422 4083.3
422.5 4231.7
423 4396.7
423.5 4567.5
424 4753.2
424.5 4949.6
425 5154.7
425.5 5375.8
426 5603.3
426.5 5847.2
427 6118
427.5 6408
428 6715.1
428.5 7018.9
429 7349.2
429.5 7690.3
430 8064.1
430.5 8454.6
431 8861.9
431.5 9305.3
432 9777.7
432.5 10269
433 10767
433.5 11301
434 11868
434.5 12463
435 13054
435.5 13663
436 14297
436.5 14935
437 15544
437.5 16156
438 16765
438.5 17399
439 17973
439.5 18459
440 18899
440.5 19260
441 19572
441.5 19779
442 19885
442.5 19912
443 19821
443.5 19645
444 19389
444.5 19066
445 18673
445.5 18173
446 17584
446.5 16949
447 16313
447.5 15686
448 15063
448.5 14417
449 13788
449.5 13172
450 12601
450.5 12048
451 11520
451.5 11016
452 10552
452.5 10129
453 9740.7
453.5 9386
454 9079.7
454.5 8779.3
455 8503.8
455.5 8242.6
456 7999.5
456.5 7782.7
457 7570.4
457.5 7362.4
458 7162.8
458.5 6977.8
459 6803.7
459.5 6642.1
460 6499.2
460.5 6347.3
461 6201.5
461.5 6047.1
462 5895.6
462.5 5771.3
463 5647.4
463.5 5537.6
464 5420.4
464.5 5306.9
465 5206.7
465.5 5120.9
466 5042.2
466.5 4970.2
467 4900
467.5 4835
468 4778
468.5 4721.4
469 4669.6
469.5 4622.8
470 4596.4
470.5 4575.2
471 4555.8
471.5 4532.9
472 4515.6
472.5 4511.8
473 4513.5
473.5 4513
474 4513.8
474.5 4519.2
475 4532.3
475.5 4552.8
476 4578
476.5 4603
477 4637.3
477.5 4674.7
478 4722.5
478.5 4783
479 4840.1
479.5 4903.3
480 4964
480.5 5035.4
481 5122.9
481.5 5207.3
482 5286.5
482.5 5367.3
483 5468.3
483.5 5599.9
484 5747
484.5 5900.3
485 6048.7
485.5 6191.8
486 6352.2
486.5 6539.9
487 6760.5
487.5 6990
488 7214.2
488.5 7442.7
489 7685.4
489.5 7946.7
490 8223.3
490.5 8507.3
491 8809.2
491.5 9125.9
492 9447.4
492.5 9770.5
493 10102
493.5 10465
494 10855
494.5 11256
495 11647
495.5 12042
496 12443
496.5 12862
497 13298
497.5 13741
498 14189
498.5 14645
499 15107
499.5 15572
500 16045
500.5 16528
501 17031
501.5 17532
502 18031
502.5 18527
503 19049
503.5 19576
504 20100
504.5 20620
505 21128
505.5 21644
506 22157
506.5 22681
507 23197
507.5 23709
508 24220
508.5 24739
509 25267
509.5 25792
510 26283
510.5 26753
511 27239
511.5 27729
512 28237
512.5 28726
513 29186
513.5 29631
514 30059
514.5 30488
515 30903
515.5 31309
516 31687
516.5 32077
517 32477
517.5 32880
518 33254
518.5 33607
519 33938
519.5 34238
520 34510
520.5 34785
521 35077
521.5 35365
522 35617
522.5 35821
523 36021
523.5 36220
524 36434
524.5 36630
525 36813
525.5 36951
526 37086
526.5 37212
527 37344
527.5 37458
528 37534
528.5 37619
529 37691
529.5 37756
530 37812
530.5 37836
531 37896
531.5 37923
532 37948
532.5 37954
533 37971
533.5 38007
534 38038
534.5 37997
535 37939
535.5 37891
536 37870
536.5 37886
537 37845
537.5 37798
538 37725
538.5 37663
539 37611
539.5 37553
540 37508
540.5 37480
541 37439
541.5 37393
542 37322
542.5 37259
543 37188
543.5 37109
544 37041
544.5 36951
545 36874
545.5 36765
546 36667
546.5 36568
547 36449
547.5 36354
548 36253
548.5 36158
549 36061
549.5 35969
550 35891
550.5 35797
551 35679
551.5 35546
552 35442
552.5 35349
553 35246
553.5 35127
554 34988
554.5 34849
555 34715
555.5 34581
556 34446
556.5 34322
557 34192
557.5 34075
558 33934
558.5 33790
559 33629
559.5 33469
560 33327
560.5 33190
561 33073
561.5 32930
562 32783
562.5 32611
563 32454
563.5 32296
564 32171
564.5 32023
565 31857
565.5 31673
566 31538
566.5 31413
567 31273
567.5 31106
568 30926
568.5 30775
569 30618
569.5 30466
570 30322
570.5 30166
571 30029
571.5 29901
572 29787
572.5 29652
573 29510
573.5 29364
574 29202
574.5 29033
575 28864
575.5 28729
576 28575
576.5 28435
577 28281
577.5 28146
578 28003
578.5 27869
579 27716
579.5 27569
580 27434
580.5 27312
581 27183
581.5 27039
582 26917
582.5 26804
583 26679
583.5 26551
584 26428
584.5 26294
585 26170
585.5 26056
586 25965
586.5 25870
587 25753
587.5 25613
588 25481
588.5 25369
589 25286
589.5 25203
590 25117
590.5 25013
591 24952
591.5 24875
592 24799
592.5 24717
593 24655
593.5 24634
594 24602
594.5 24559
595 24492
595.5 24431
596 24407
596.5 24416
597 24424
597.5 24406
598 24386
598.5 24389
599 24420
599.5 24464
600 24538
600.5 24623
601 24710
601.5 24806
602 24905
602.5 25023
603 25135
603.5 25281
604 25466
604.5 25695
605 25927
605.5 26154
606 26389
606.5 26650
607 26947
607.5 27275
608 27621
608.5 27969
609 28361
609.5 28799
610 29282
610.5 29779
611 30291
611.5 30837
612 31415
612.5 32022
613 32683
613.5 33379
614 34090
614.5 34794
615 35524
615.5 36312
616 37144
616.5 38002
617 38874
617.5 39756
618 40612
618.5 41467
619 42295
619.5 43077
620 43758
620.5 44321
621 44780
621.5 45119
622 45281
622.5 45208
623 44879
623.5 44305
624 43486
624.5 42438
625 41203
625.5 39797
626 38223
626.5 36517
627 34764
627.5 33043
628 31299
628.5 29588
629 27953
629.5 26420
630 25006
630.5 23702
631 22520
631.5 21440
632 20460
632.5 19541
633 18665
633.5 17848
634 17102
634.5 16427
635 15815
635.5 15233
636 14689
636.5 14187
637 13720
637.5 13298
638 12909
638.5 12555
639 12213
639.5 11895
640 11601
640.5 11326
641 11069
641.5 10827
642 10606
642.5 10396
643 10188
643.5 9986.5
644 9800.5
644.5 9633.3
645 9468
645.5 9305.8
646 9149.5
646.5 9005.6
647 8874.3
647.5 8751.9
648 8634.8
648.5 8514.2
649 8383.6
649.5 8256.2
650 8136.8
650.5 8025.1
651 7917.1
651.5 7815.3
652 7716.6
652.5 7623.3
653 7521
653.5 7421.3
654 7333.9
654.5 7258.2
655 7173.5
655.5 7078.5
656 6991
656.5 6916.6
657 6843
657.5 6762.7
658 6680.5
658.5 6602.4
659 6534.7
659.5 6474
660 6413.5
660.5 6344.3
661 6268.6
661.5 6193.6
662 6120.4
662.5 6055.5
663 5999.3
663.5 5951.5
664 5901.2
664.5 5842.4
665 5778.9
665.5 5718.7
666 5658.7
666.5 5605.6
667 5556.1
667.5 5508.7
668 5461.6
668.5 5418.4
669 5375.8
669.5 5324.1
670 5263.2
670.5 5201.2
671 5149
671.5 5104.7
672 5062.6
672.5 5016.6
673 4968
673.5 4918.4
674 4875.3
674.5 4833.3
675 4797.5
675.5 4757.2
676 4717.3
676.5 4680
677 4638.5
677.5 4601.8
678 4566.6
678.5 4542.5
679 4510.6
679.5 4471.7
680 4433.7
680.5 4396.8
681 4358.6
681.5 4316.6
682 4277.8
682.5 4244.8
683 4213.9
683.5 4183.3
684 4150.8
684.5 4116
685 4083.6
685.5 4054.6
686 4029.4
686.5 4000.3
687 3971.9
687.5 3945.8
688 3922
688.5 3895.2
689 3866.8
689.5 3840.9
690 3814.6
690.5 3789.4
691 3759
691.5 3730.3
692 3705.2
692.5 3686.4
693 3667.5
693.5 3643.7
694 3623.4
694.5 3606.4
695 3581.1
695.5 3551.5
696 3524.1
696.5 3514.7
697 3501
697.5 3479.6
698 3452.7
698.5 3435.9
699 3421.6
699.5 3402.3
700 3377.9
700.5 3355.2
701 3333.3
701.5 3312.5
702 3294.1
702.5 3281.1
703 3268
703.5 3248.9
704 3229.5
704.5 3208.1
705 3194
705.5 3179.4
706 3169.3
706.5 3155.9
707 3140.2
707.5 3123.8
708 3106.9
708.5 3085.7
709 3065.9
709.5 3054.4
710 3045.4
710.5 3028.2
711 3009.7
711.5 2993.4
712 2980.8
712.5 2970.8
713 2963.6
713.5 2954.9
714 2941.8
714.5 2924
715 2910.2
715.5 2894.5
716 2884.1
716.5 2868.9
717 2857.7
717.5 2849.1
718 2840.8
718.5 2826.3
719 2810.1
719.5 2799.8
720 2793.1
720.5 2784.2
721 2770.8
721.5 2762.6
722 2750.9
722.5 2741.4
723 2727.6
723.5 2722.8
724 2713.3
724.5 2704
725 2697.5
725.5 2688.2
726 2677
726.5 2663.2
727 2655.9
727.5 2647.7
728 2645.1
728.5 2637.6
729 2632.4
729.5 2622.2
730 2609.8
730.5 2599.4
731 2588.6
731.5 2583.1
732 2579.3
732.5 2580.4
733 2575.8
733.5 2570.3
734 2562.7
734.5 2555.2
735 2544.3
735.5 2538.4
736 2532.9
736.5 2528.5
737 2524.4
737.5 2519.1
738 2510.2
738.5 2502.7
739 2501.6
739.5 2495.7
740 2485.6
740.5 2479
741 2477.6
741.5 2473.7
742 2468
742.5 2464.1
743 2453.8
743.5 2443.8
744 2437.8
744.5 2441
745 2439.3
745.5 2434.7
746 2429.8
746.5 2424.6
747 2418.9
747.5 2418.2
748 2417.7
748.5 2415.5
749 2409.6
749.5 2404.6
750 2398.2
750.5 2389
751 2377.8
751.5 2372.4
752 2372.6
752.5 2371.6
753 2370
753.5 2369.9
754 2367.1
754.5 2362.8
755 2359.5
755.5 2357.3
756 2353.8
756.5 2351.5
757 2353.5
757.5 2350.3
758 2340.9
758.5 2337.2
759 2338.2
759.5 2336.7
760 2327
760.5 2317.6
761 2311.2
761.5 2311.6
762 2313.1
762.5 2314
763 2314.1
763.5 2313.4
764 2303
764.5 2290.6
765 2286.5
765.5 2291
766 2290.7
766.5 2283.4
767 2279.9
767.5 2287.9
768 2296.5
768.5 2298.7
769 2293.3
769.5 2284
770 2278.8
770.5 2276.2
771 2276.5
771.5 2270.6
772 2265.6
772.5 2263.6
773 2268.8
773.5 2271.5
774 2269.3
774.5 2263.3
775 2262.9
775.5 2268.9
776 2267
776.5 2261.8
777 2260.2
777.5 2265.3
778 2262.2
778.5 2255.4
779 2246.5
779.5 2242.4
780 2246.4
780.5 2249.3
781 2248.6
781.5 2238.8
782 2227.8
782.5 2223.1
783 2228.3
783.5 2230.5
784 2229.4
784.5 2227.8
785 2231.2
785.5 2231.9
786 2233
786.5 2229.5
787 2225.8
787.5 2219.8
788 2216.4
788.5 2217.2
789 2220.7
789.5 2225.2
790 2222.6
790.5 2219.7
791 2221.9
791.5 2223.7
792 2223.6
792.5 2219.4
793 2214.7
793.5 2213.1
794 2210.5
794.5 2202.2
795 2196.7
795.5 2196.2
796 2201
796.5 2206.4
797 2209
797.5 2208.8
798 2205.3
798.5 2197.6
799 2191.6
799.5 2193.2
800 2194.9
800.5 2200.3
801 2199.9
801.5 2199
802 2196.5
802.5 2197.7
803 2197
803.5 2198.2
804 2194.9
804.5 2187.5
805 2182.9
805.5 2187.1
806 2189.6
806.5 2188.8
807 2186.8
807.5 2188
808 2191.7
808.5 2195.6
809 2193.9
809.5 2194.6
810 2197.8
810.5 2198.7
811 2194.3
811.5 2185.4
812 2181.1
812.5 2177.2
813 2175.9
813.5 2175.2
814 2177.2
814.5 2181.6
815 2185.7
815.5 2186.4
816 2182.6
816.5 2182.7
817 2181.5
817.5 2180.8
818 2189.9
818.5 2192.2
819 2182.6
819.5 2174.2
820 2172.5
820.5 2174
821 2174
821.5 2176.7
822 2177.8
822.5 2179.4
823 2181.3
823.5 2181.4
824 2182.9
824.5 2182.7
825 2181.7
825.5 2174.7
826 2166.4
826.5 2166.3
827 2171.5
827.5 2178.1
828 2176.3
828.5 2172.5
829 2171.1
829.5 2170.4
830 2175.3
830.5 2186
831 2190.1
831.5 2183.2
832 2175.9
832.5 2170.5
833 2174.2
833.5 2176.6
834 2173.6
834.5 2169.7
835 2170.9
835.5 2174.2
836 2172.1
836.5 2173.6
837 2178
837.5 2176.9
838 2174.6
838.5 2172.8
839 2171.8
839.5 2172.4
840 2171.8
840.5 2166.1
841 2161.4
841.5 2171.1
