"wavelength" "counts"
183 1596.9
183.5 1597.1
184 1604.8
184.5 1611.9
185 1618.8
185.5 1624
186 1629
186.5 1635.9
187 1641.6
187.5 1644.5
188 1645
188.5 1645
189 1642.9
189.5 1638.5
190 1635.4
190.5 1634
191 1634.5
191.5 1635.7
192 1636.7
192.5 1635.6
193 1635.1
193.5 1634.6
194 1635.4
194.5 1638.1
195 1640.1
195.5 1641.7
196 1645.7
196.5 1649.9
197 1653.6
197.5 1656.3
198 1657.9
198.5 1659.7
199 1659.9
199.5 1657.5
200 1652.7
200.5 1646.7
201 1642.8
201.5 1640.4
202 1637.6
202.5 1634
203 1630.4
203.5 1628.9
204 1630.4
204.5 1633.4
205 1635.9
205.5 1636.9
206 1636.6
206.5 1636.2
207 1635.1
207.5 1633.8
208 1634
208.5 1635.2
209 1637.2
209.5 1638.7
210 1638.6
210.5 1638.7
211 1641.1
211.5 1647.3
212 1655.5
212.5 1662.5
213 1666.1
213.5 1665.7
214 1663.5
214.5 1661.6
215 1660
215.5 1658.5
216 1657.3
216.5 1655.5
217 1654.8
217.5 1655.6
218 1656.3
218.5 1657.3
219 1659.5
219.5 1662.2
220 1664.1
220.5 1664.9
221 1662.6
221.5 1657.6
222 1652.8
222.5 1647.7
223 1643.6
223.5 1641.7
224 1641.7
224.5 1643.1
225 1645.2
225.5 1647.1
226 1648.3
226.5 1650.7
227 1653.9
227.5 1656.8
228 1658
228.5 1655.2
229 1648.3
229.5 1640.4
230 1634.5
230.5 1630.4
231 1629.5
231.5 1630.7
232 1631.9
232.5 1634.5
233 1638.2
233.5 1642.3
234 1646.2
234.5 1649.3
235 1650.4
235.5 1650.4
236 1648.3
236.5 1644.7
237 1641.1
237.5 1638.3
238 1637.1
238.5 1636.8
239 1637.4
239.5 1637.6
240 1638.5
240.5 1640.4
241 1641.1
241.5 1639.8
242 1635.3
242.5 1628.8
243 1622.3
243.5 1617.7
244 1615.6
244.5 1616.2
245 1618
245.5 1618.9
246 1619.3
246.5 1619.3
247 1620
247.5 1622.6
248 1626.6
248.5 1631.7
249 1637.2
249.5 1642.6
250 1646.9
250.5 1648.7
251 1648.9
251.5 1648.9
252 1649.5
252.5 1650
253 1648.2
253.5 1643
254 1636.1
254.5 1629
255 1624.2
255.5 1621.9
256 1622.7
256.5 1625.6
257 1629
257.5 1633.2
258 1636.6
258.5 1639.5
259 1643.7
259.5 1648.1
260 1651.7
260.5 1654.1
261 1655.2
261.5 1655
262 1653.7
262.5 1652.4
263 1650.5
263.5 1648
264 1644.7
264.5 1640.4
265 1637
265.5 1634.9
266 1634.6
266.5 1635.2
267 1635
267.5 1633.3
268 1630.1
268.5 1626.2
269 1621.7
269.5 1617.5
270 1614.2
270.5 1612.2
271 1610.9
271.5 1610.7
272 1612.6
272.5 1616.1
273 1621.1
273.5 1627.4
274 1634.2
274.5 1640.4
275 1646
275.5 1649.3
276 1650.5
276.5 1650.4
277 1649.2
277.5 1646.2
278 1641.9
278.5 1636.9
279 1631.9
279.5 1629.6
280 1629.1
280.5 1630.4
281 1633.4
281.5 1635.5
282 1638
282.5 1642.1
283 1646.5
283.5 1651.8
284 1656.6
284.5 1658
285 1656.6
285.5 1653.1
286 1649.2
286.5 1646.1
287 1644.6
287.5 1643.5
288 1641
288.5 1636.8
289 1630.5
289.5 1625.8
290 1623.8
290.5 1623.3
291 1625
291.5 1627.9
292 1631.1
292.5 1635
293 1638.6
293.5 1641.6
294 1644.5
294.5 1647.3
295 1648.5
295.5 1647.5
296 1645.8
296.5 1647.2
297 1652.8
297.5 1661.3
298 1670.7
298.5 1679.1
299 1686.8
299.5 1692.9
300 1695.5
300.5 1693.6
301 1686.6
301.5 1675.7
302 1662.5
302.5 1648.5
303 1635.1
303.5 1624.7
304 1619.7
304.5 1617.8
305 1617.4
305.5 1617.5
306 1616.7
306.5 1617.2
307 1618.9
307.5 1621.4
308 1623.8
308.5 1625.2
309 1626.6
309.5 1627.6
310 1629.3
310.5 1632.2
311 1635
311.5 1637.2
312 1637.5
312.5 1635.3
313 1632.4
313.5 1629
314 1626.2
314.5 1626.3
315 1628.9
315.5 1632.1
316 1635.1
316.5 1636.7
317 1637.7
317.5 1639.8
318 1643.7
318.5 1647.2
319 1649.6
319.5 1650.6
320 1650.5
320.5 1649.6
321 1647.3
321.5 1644.8
322 1642.8
322.5 1640.5
323 1636.9
323.5 1632.2
324 1627.2
324.5 1623.9
325 1621.3
325.5 1619.4
326 1617.2
326.5 1615
327 1613.4
327.5 1610.5
328 1607.3
328.5 1605.3
329 1606.1
329.5 1609.6
330 1615
330.5 1620.2
331 1625.2
331.5 1630.3
332 1634.1
332.5 1638.1
333 1644.4
333.5 1652.5
334 1661.3
334.5 1668.5
335 1671.2
335.5 1672.7
336 1675.3
336.5 1677.2
337 1677
337.5 1672.7
338 1663.7
338.5 1652.9
339 1640.7
339.5 1628.9
340 1622.4
340.5 1619.8
341 1619.4
341.5 1622
342 1626.4
342.5 1631.9
343 1640.2
343.5 1652.6
344 1666.3
344.5 1684.9
345 1705.1
345.5 1720.6
346 1730.2
346.5 1734.9
347 1735
347.5 1730.9
348 1723.3
348.5 1711.4
349 1698.2
349.5 1685.8
350 1674
350.5 1668
351 1669
351.5 1673.6
352 1680.5
352.5 1680.9
353 1674.8
353.5 1667
354 1659.1
354.5 1651.2
355 1643.4
355.5 1635.4
356 1627.6
356.5 1622.6
357 1620.1
357.5 1619.7
358 1621.4
358.5 1623.9
359 1625.4
359.5 1626.5
360 1629.1
360.5 1634
361 1640.5
361.5 1647
362 1651
362.5 1650.7
363 1649.1
363.5 1647.1
364 1644.8
364.5 1643.5
365 1642.2
365.5 1641
366 1641.4
366.5 1641.8
367 1642.8
367.5 1643.8
368 1643
368.5 1639.9
369 1633.5
369.5 1625
370 1618.5
370.5 1616.4
371 1618.5
371.5 1621.8
372 1624.3
372.5 1624.8
373 1624.9
373.5 1625.5
374 1626.2
374.5 1628.5
375 1632.5
375.5 1636.7
376 1639.2
376.5 1639
377 1637.5
377.5 1636.2
378 1635.3
378.5 1633.6
379 1631.6
379.5 1630.5
380 1631
380.5 1632.7
381 1635.7
381.5 1639.9
382 1646.2
382.5 1652.9
383 1655.9
383.5 1654
384 1647.8
384.5 1639.5
385 1633.3
385.5 1629.9
386 1630.9
386.5 1635.1
387 1639.6
387.5 1642.4
388 1644.1
388.5 1646.1
389 1648.7
389.5 1650.8
390 1650.8
390.5 1648.7
391 1646.1
391.5 1642.6
392 1640.3
392.5 1639.5
393 1640.2
393.5 1642.5
394 1645.9
394.5 1650.7
395 1657
395.5 1664.2
396 1669.3
396.5 1670.9
397 1671.5
397.5 1670.9
398 1670
398.5 1668.8
399 1666.3
399.5 1664.2
400 1662.1
400.5 1660.3
401 1659.7
401.5 1659.5
402 1658.5
402.5 1655.7
403 1650.8
403.5 1644.8
404 1640.4
404.5 1635.5
405 1630.6
405.5 1627.8
406 1628.1
406.5 1633.3
407 1642
407.5 1650.7
408 1657.2
408.5 1661.7
409 1665.1
409.5 1669.7
410 1675.2
410.5 1679.8
411 1682.6
411.5 1681.9
412 1679.6
412.5 1678
413 1678.9
413.5 1681
414 1682.8
414.5 1679.9
415 1672.7
415.5 1664
416 1655.8
416.5 1649.8
417 1645.2
417.5 1640.6
418 1637.1
418.5 1637.1
419 1642.6
419.5 1655.1
420 1670.4
420.5 1684.6
421 1695.2
421.5 1702.9
422 1708.3
422.5 1713.1
423 1718.2
423.5 1722.9
424 1728.2
424.5 1733
425 1737.3
425.5 1743.3
426 1750
426.5 1756.3
427 1759.8
427.5 1759.7
428 1757.4
428.5 1754.5
429 1752.2
429.5 1751
430 1752.2
430.5 1754.4
431 1760.5
431.5 1767.9
432 1775.8
432.5 1783
433 1787.5
433.5 1791.9
434 1798.5
434.5 1806.8
435 1814.2
435.5 1818.4
436 1818.7
436.5 1816.8
437 1813.7
437.5 1811.9
438 1814.1
438.5 1819.3
439 1826.6
439.5 1833.4
440 1839.9
440.5 1849.6
441 1862.8
441.5 1878.4
442 1893
442.5 1904.2
443 1910.9
443.5 1915.5
444 1919.7
444.5 1924.7
445 1928.5
445.5 1929.2
446 1928
446.5 1924.9
447 1923.3
447.5 1921.5
448 1918
448.5 1913.8
449 1907.4
449.5 1900.8
450 1894.6
450.5 1889.7
451 1886.7
451.5 1884.7
452 1882.8
452.5 1882.5
453 1885
453.5 1888.9
454 1891.9
454.5 1890.1
455 1884.8
455.5 1878.6
456 1872.2
456.5 1866.8
457 1861.9
457.5 1858.7
458 1858.9
458.5 1862.6
459 1869.5
459.5 1878.6
460 1885.9
460.5 1889.1
461 1887.6
461.5 1885
462 1883.4
462.5 1880
463 1872.5
463.5 1860.6
464 1848.4
464.5 1839.5
465 1835.5
465.5 1836.4
466 1841.2
466.5 1848.1
467 1855
467.5 1861.9
468 1869.4
468.5 1877.6
469 1883
469.5 1884.1
470 1880.7
470.5 1875.9
471 1873.3
471.5 1872.8
472 1874
472.5 1875.7
473 1876.7
473.5 1877.2
474 1877.6
474.5 1878.5
475 1879.9
475.5 1881.5
476 1883
476.5 1886.4
477 1892.1
477.5 1900.3
478 1908.6
478.5 1916.7
479 1925.5
479.5 1933.5
480 1939.3
480.5 1942.6
481 1944.9
481.5 1950.4
482 1958.9
482.5 1970.6
483 1985.2
483.5 1999.7
484 2013.8
484.5 2026.6
485 2037.9
485.5 2049.7
486 2059.5
486.5 2066.9
487 2071.8
487.5 2075.3
488 2080.6
488.5 2089.6
489 2102.5
489.5 2119.2
490 2135.2
490.5 2150.3
491 2167.1
491.5 2184.8
492 2203.9
492.5 2223.3
493 2243.7
493.5 2265.9
494 2286.4
494.5 2303.5
495 2319.7
495.5 2336.3
496 2353.7
496.5 2369.6
497 2385.5
497.5 2405.2
498 2430.1
498.5 2457.7
499 2486.2
499.5 2513.3
500 2537.8
500.5 2558.2
501 2574
501.5 2589
502 2603.8
502.5 2619.4
503 2633
503.5 2646.1
504 2661.9
504.5 2682.8
505 2707.7
505.5 2731.9
506 2754.3
506.5 2774.8
507 2796.5
507.5 2819
508 2841.2
508.5 2861.9
509 2881.9
509.5 2901.3
510 2920.4
510.5 2940.3
511 2961.7
511.5 2982.5
512 2999.8
512.5 3011
513 3017.4
513.5 3022.1
514 3025.4
514.5 3026.9
515 3028.3
515.5 3031.3
516 3039.2
516.5 3053.3
517 3071.8
517.5 3093.9
518 3115.8
518.5 3135.3
519 3151.8
519.5 3166.6
520 3183.6
520.5 3202.8
521 3223
521.5 3242.1
522 3259.9
522.5 3277.7
523 3295.2
523.5 3311
524 3324.1
524.5 3333.4
525 3337.8
525.5 3337.3
526 3334.9
526.5 3332.2
527 3332.6
527.5 3333.6
528 3336.2
528.5 3339.7
529 3341.1
529.5 3344.4
530 3356.2
530.5 3377
531 3404.6
531.5 3427
532 3441.4
532.5 3449.2
533 3449.7
533.5 3445
534 3431.4
534.5 3414.1
535 3394.6
535.5 3379.2
536 3377.3
536.5 3389.6
537 3412.1
537.5 3435.4
538 3451.1
538.5 3462
539 3466.4
539.5 3464.2
540 3455.2
540.5 3443.5
541 3434
541.5 3431.4
542 3437.8
542.5 3451.1
543 3465.6
543.5 3477.4
544 3484.4
544.5 3486.1
545 3483.1
545.5 3474.7
546 3467.1
546.5 3462.1
547 3459.8
547.5 3458.7
548 3460.1
548.5 3464.8
549 3468.5
549.5 3468.4
550 3463.7
550.5 3455.3
551 3444.9
551.5 3434.3
552 3427.9
552.5 3427.3
553 3430.7
553.5 3435.6
554 3444.9
554.5 3457
555 3469
555.5 3475.5
556 3473.9
556.5 3466.1
557 3455.3
557.5 3445.4
558 3437.4
558.5 3429
559 3417.3
559.5 3405.6
560 3399
560.5 3399.9
561 3402
561.5 3398.6
562 3388
562.5 3371.6
563 3354.7
563.5 3338.7
564 3326.2
564.5 3317.1
565 3308.8
565.5 3303.5
566 3303.7
566.5 3311.5
567 3322.7
567.5 3330.1
568 3330.7
568.5 3325.4
569 3313.8
569.5 3300.4
570 3287.8
570.5 3282.6
571 3282.9
571.5 3284.6
572 3285.2
572.5 3285.3
573 3288.8
573.5 3293.6
574 3296.3
574.5 3293.5
575 3286.1
575.5 3277.5
576 3271.3
576.5 3268.2
577 3266.3
577.5 3262.9
578 3258.5
578.5 3255.3
579 3258.6
579.5 3268.4
580 3280.6
580.5 3290.4
581 3298
581.5 3306.9
582 3317.2
582.5 3326.4
583 3332.1
583.5 3334.9
584 3334.4
584.5 3331.6
585 3329.9
585.5 3333.1
586 3338.9
586.5 3343
587 3347.2
587.5 3355.7
588 3370.6
588.5 3389
589 3407.8
589.5 3427.8
590 3447.3
590.5 3467.3
591 3490.3
591.5 3518.2
592 3550.9
592.5 3583.6
593 3616.5
593.5 3648.1
594 3679.6
594.5 3710.1
595 3739
595.5 3766.3
596 3792.5
596.5 3820.1
597 3855
597.5 3901.7
598 3962.3
598.5 4031
599 4106.3
599.5 4182.1
600 4260.4
600.5 4338.9
601 4416.9
601.5 4492.6
602 4564.4
602.5 4636.8
603 4715.1
603.5 4802.3
604 4898.5
604.5 5002.4
605 5117.2
605.5 5237.7
606 5362.3
606.5 5490
607 5624
607.5 5767.8
608 5917.2
608.5 6076.8
609 6250.6
609.5 6438.5
610 6642.8
610.5 6861.6
611 7094.9
611.5 7336.8
612 7583
612.5 7839.7
613 8106.5
613.5 8382
614 8660.4
614.5 8944.3
615 9233.9
615.5 9526
616 9825.2
616.5 10135
617 10452
617.5 10777
618 11104
618.5 11438
619 11765
619.5 12072
620 12350
620.5 12595
621 12800
621.5 12952
622 13048
622.5 13069
623 13016
623.5 12883
624 12660
624.5 12359
625 11974
625.5 11520
626 11020
626.5 10486
627 9936
627.5 9380.6
628 8835.4
628.5 8311
629 7816.2
629.5 7354.7
630 6927.9
630.5 6542
631 6185.6
631.5 5856.2
632 5549.6
632.5 5260.6
633 4991.3
633.5 4741.6
634 4513.8
634.5 4310.5
635 4126.8
635.5 3964.1
636 3822.8
636.5 3695.3
637 3576.3
637.5 3463
638 3355.7
638.5 3255.3
639 3161
639.5 3073.6
640 2996.6
640.5 2929.9
641 2868.3
641.5 2809.9
642 2752.7
642.5 2701.7
643 2659.6
643.5 2625.5
644 2598.3
644.5 2571.7
645 2544
645.5 2518.5
646 2495.4
646.5 2472.9
647 2443.1
647.5 2407.3
648 2368.6
648.5 2335.8
649 2313.6
649.5 2299.9
650 2286.5
650.5 2270
651 2254.6
651.5 2243.3
652 2231.1
652.5 2213.8
653 2190.2
653.5 2167
654 2151
654.5 2146.2
655 2148.5
655.5 2147.9
656 2143
656.5 2136.2
657 2128
657.5 2114.4
658 2093.6
658.5 2071.6
659 2055.8
659.5 2047.9
660 2045.6
660.5 2042.8
661 2040.3
661.5 2041
662 2046.4
662.5 2053
663 2057.5
663.5 2057.5
664 2055.4
664.5 2053.5
665 2052.5
665.5 2048.1
666 2037.4
666.5 2022.9
667 2011.7
667.5 2002.5
668 1992.9
668.5 1982
669 1969.2
669.5 1958.6
670 1950.2
670.5 1948.8
671 1951.9
671.5 1953.3
672 1950.7
672.5 1943.1
673 1931.7
673.5 1919.3
674 1910
674.5 1906
675 1906.3
675.5 1911.1
676 1919.6
676.5 1928
677 1932.9
677.5 1929.8
678 1920.5
678.5 1905
679 1889
679.5 1876
680 1868.1
680.5 1866
681 1865.6
681.5 1865.7
682 1865.8
682.5 1868
683 1868.8
683.5 1867.6
684 1864.9
684.5 1861.8
685 1858.9
685.5 1853
686 1845.1
686.5 1835.9
687 1828
687.5 1824.7
688 1825.8
688.5 1830.7
689 1836.1
689.5 1841.1
690 1843.2
690.5 1843
691 1839.8
691.5 1833.4
692 1824.6
692.5 1814.8
693 1808.8
693.5 1805.9
694 1805.9
694.5 1806
695 1805
695.5 1801.3
696 1797.1
696.5 1793.1
697 1785.5
697.5 1775
698 1764.8
698.5 1763.8
699 1767.8
699.5 1774.1
700 1780.7
700.5 1788.4
701 1795.8
701.5 1801.2
702 1802.6
702.5 1797
703 1788
703.5 1776.8
704 1764.9
704.5 1751.1
705 1739.3
705.5 1733.2
706 1732.1
706.5 1733.7
707 1737.4
707.5 1743.4
708 1750.1
708.5 1754.3
709 1756.2
709.5 1756.1
710 1757.2
710.5 1759.8
711 1761.8
711.5 1760.5
712 1755.9
712.5 1750.4
713 1744.6
713.5 1739.7
714 1737.5
714.5 1738.7
715 1741.7
715.5 1745.9
716 1748.2
716.5 1746.4
717 1741.1
717.5 1732.7
718 1720.4
718.5 1705.5
719 1692.3
719.5 1683.3
720 1680.5
720.5 1684.5
721 1693.2
721.5 1705
722 1720.9
722.5 1740.6
723 1756.7
723.5 1764.7
724 1763.3
724.5 1756.4
725 1748.7
725.5 1742.7
726 1735.3
726.5 1724.5
727 1714.4
727.5 1710.1
728 1709.3
728.5 1707.5
729 1705.1
729.5 1701
730 1695.3
730.5 1688.5
731 1683.1
731.5 1680.6
732 1681.1
732.5 1684.2
733 1691.4
733.5 1702.7
734 1717.7
734.5 1732.7
735 1742.7
735.5 1745.7
736 1742.9
736.5 1738.9
737 1734.1
737.5 1725.3
738 1712.3
738.5 1698.9
739 1691.4
739.5 1693.2
740 1700.8
740.5 1708.7
741 1714.8
741.5 1721.9
742 1728.7
742.5 1729.9
743 1720.3
743.5 1704.5
744 1689.8
744.5 1682.5
745 1678.5
745.5 1673.1
746 1668.7
746.5 1668.6
747 1674.8
747.5 1682.8
748 1688.4
748.5 1691.3
749 1693.9
749.5 1699
750 1703.2
750.5 1704.2
751 1701.5
751.5 1699.5
752 1700
752.5 1702.8
753 1705.4
753.5 1705.6
754 1706
754.5 1707.4
755 1710.2
755.5 1708.9
756 1701.5
756.5 1689.5
757 1681.6
757.5 1675.7
758 1671.9
758.5 1669.2
759 1670.5
759.5 1672.4
760 1674.9
760.5 1677.7
761 1679
761.5 1677
762 1675.3
762.5 1680.2
763 1690.8
763.5 1698.5
764 1705.3
764.5 1714.9
765 1728.3
765.5 1738.2
766 1738.9
766.5 1732.6
767 1724.1
767.5 1717.9
768 1711.6
768.5 1702.3
769 1688.1
769.5 1674.5
770 1667.5
770.5 1665
771 1662.1
771.5 1660.5
772 1664.1
772.5 1672.4
773 1680.6
773.5 1684
774 1679.8
774.5 1670
775 1663.6
775.5 1661.4
776 1660.5
776.5 1659.9
777 1664
777.5 1670.4
778 1673.9
778.5 1672.7
779 1670
779.5 1670.5
780 1676.1
780.5 1681.7
781 1682.5
781.5 1679.4
782 1674.9
782.5 1667.2
783 1657
783.5 1646.9
784 1638.4
784.5 1633.5
785 1632.3
785.5 1634
786 1636.5
786.5 1638.2
787 1640.1
787.5 1641.1
788 1639.9
788.5 1637
789 1632.6
789.5 1628.1
790 1623.9
790.5 1623.7
791 1627.9
791.5 1635
792 1641
792.5 1642.6
793 1643.9
793.5 1649.8
794 1654.6
794.5 1657.9
795 1657.5
795.5 1658.4
796 1660.4
796.5 1662.9
797 1661.9
797.5 1659.2
798 1660.3
798.5 1664.5
799 1665.3
799.5 1660.6
800 1650.1
800.5 1642.2
801 1639
801.5 1639.9
802 1644.9
802.5 1656.5
803 1670.5
803.5 1679.7
804 1682.5
804.5 1678
805 1668.3
805.5 1658.6
806 1653.6
806.5 1653.1
807 1656.5
807.5 1657.2
808 1652.8
808.5 1644.6
809 1636.7
809.5 1625.1
810 1616.5
810.5 1620.1
811 1638
811.5 1659.5
812 1679.4
812.5 1695.5
813 1710.7
813.5 1717.6
814 1709.9
814.5 1689.8
815 1671
815.5 1656.7
816 1643.9
816.5 1628.8
817 1619.2
817.5 1620.3
818 1628.6
818.5 1634.6
819 1636.2
819.5 1636
820 1634
820.5 1628.4
821 1619.3
821.5 1611.2
822 1611.7
822.5 1620.3
823 1631.1
823.5 1641.8
824 1655.6
824.5 1666.8
825 1670
825.5 1668.3
826 1667
826.5 1665
827 1662.3
827.5 1658.2
828 1652.9
828.5 1648.7
829 1644.6
829.5 1635.4
830 1626.1
830.5 1625.5
831 1632.4
831.5 1643.7
832 1654.6
832.5 1664.9
833 1670.3
833.5 1666.5
834 1653.3
834.5 1635
835 1619.8
835.5 1613.4
836 1612.3
836.5 1599.4
837 1614
837.5 1678.8
838 1761.9
838.5 1819.9
839 1844.9
839.5 1840.8
840 1812.6
840.5 1758.1
841 1677.3
841.5 1613.9
842 1592.5
842.5 1610.6
843 1630.1
843.5 1658.8
844 1683.1
844.5 1696.8
845 1725.5
845.5 1815
846 1625.9
846.5 1602
847 1617.1
847.5 650.36
