"wavelength" "counts"
185 2090.4
185.5 2089.7
186 2091.7
186.5 2093.8
187 2098.6
187.5 2090.5
188 2080.9
188.5 2079
189 2087.7
189.5 2103.2
190 2119.2
190.5 2102.4
191 2093.1
191.5 2097.4
192 2102.8
192.5 2104.6
193 2101.7
193.5 2100
194 2096.6
194.5 2096.1
195 2095.8
195.5 2096.4
196 2099.2
196.5 2103.6
197 2109.2
197.5 2111.9
198 2112.1
198.5 2105.7
199 2097.6
199.5 2094.1
200 2093.8
200.5 2099
201 2107.5
201.5 2112.8
202 2116.6
202.5 2116.7
203 2109.8
203.5 2104.2
204 2099
204.5 2094.8
205 2095.9
205.5 2096.7
206 2095.9
206.5 2096.2
207 2095.7
207.5 2095.4
208 2099.5
208.5 2106
209 2109.1
209.5 2113.6
210 2112.5
210.5 2106.4
211 2105.3
211.5 2104
212 2104.9
212.5 2104.6
213 2103.2
213.5 2103
214 2101.4
214.5 2102.1
215 2100.7
215.5 2098.7
216 2101.6
216.5 2105.2
217 2107.8
217.5 2108.8
218 2106
218.5 2101.9
219 2102.8
219.5 2103.8
220 2103.7
220.5 2105.5
221 2104.8
221.5 2105.5
222 2107.2
222.5 2107.3
223 2105.2
223.5 2105.4
224 2108.7
224.5 2113.3
225 2118.3
225.5 2119.1
226 2116.4
226.5 2111
227 2106
227.5 2102.7
228 2100.6
228.5 2102.1
229 2103.2
229.5 2101.2
230 2095.7
230.5 2091
231 2088.1
231.5 2087.3
232 2092.7
232.5 2095.3
233 2094.6
233.5 2095.2
234 2093.2
234.5 2093.9
235 2098.1
235.5 2102.3
236 2103.1
236.5 2100
237 2098.6
237.5 2096.7
238 2097.3
238.5 2101.4
239 2102.5
239.5 2102.3
240 2102.1
240.5 2100.7
241 2099.4
241.5 2099.4
242 2099.9
242.5 2100.9
243 2105
243.5 2112.2
244 2114.8
244.5 2115.2
245 2115.2
245.5 2116.6
246 2118.9
246.5 2118.5
247 2113.6
247.5 2105.3
248 2102.6
248.5 2106
249 2105.5
249.5 2102.4
250 2102.1
250.5 2102.4
251 2106.4
251.5 2113.5
252 2116.4
252.5 2115.3
253 2111.1
253.5 2107.9
254 2105.3
254.5 2105.6
255 2109.4
255.5 2109.5
256 2108.6
256.5 2107
257 2102
257.5 2100.4
258 2103.9
258.5 2106.6
259 2107.2
259.5 2103.3
260 2096.4
260.5 2096.5
261 2102.4
261.5 2112.3
262 2119.6
262.5 2115
263 2107.4
263.5 2102
264 2099.7
264.5 2105.3
265 2109.8
265.5 2108.7
266 2105
266.5 2101
267 2097.8
267.5 2094.9
268 2095.7
268.5 2100
269 2108.3
269.5 2117.3
270 2121.3
270.5 2117.2
271 2109.9
271.5 2101.3
272 2096.2
272.5 2093.8
273 2095.5
273.5 2096.9
274 2098.4
274.5 2098.5
275 2097.8
275.5 2096.9
276 2096.4
276.5 2099.1
277 2101
277.5 2104.8
278 2108.5
278.5 2110.2
279 2111.3
279.5 2111.7
280 2111.4
280.5 2107.8
281 2102.6
281.5 2100.7
282 2100.1
282.5 2101.8
283 2104
283.5 2102.5
284 2102.8
284.5 2104.4
285 2103.7
285.5 2101.6
286 2097.8
286.5 2095.3
287 2095.5
287.5 2098.7
288 2101.7
288.5 2104.2
289 2105.7
289.5 2105.8
290 2107.5
290.5 2107.4
291 2105.2
291.5 2107.7
292 2111.1
292.5 2113.6
293 2114.7
293.5 2112.1
294 2106.9
294.5 2102.5
295 2098.8
295.5 2094.8
296 2097.1
296.5 2102.2
297 2102.3
297.5 2099.4
298 2093.4
298.5 2089.6
299 2093.9
299.5 2098.6
300 2102.4
300.5 2103.6
301 2100.6
301.5 2095.3
302 2092.9
302.5 2095.7
303 2100.8
303.5 2105.7
304 2104.2
304.5 2099.2
305 2096
305.5 2098
306 2103.9
306.5 2108.7
307 2112.5
307.5 2113.5
308 2116
308.5 2120.3
309 2122.4
309.5 2123.9
310 2121.3
310.5 2116.8
311 2113.7
311.5 2110.8
312 2106.1
312.5 2103.9
313 2103.7
313.5 2104
314 2104
314.5 2106.5
315 2107.3
315.5 2112.4
316 2117.9
316.5 2116.4
317 2112.5
317.5 2106.6
318 2103.9
318.5 2105.4
319 2108.3
319.5 2111.7
320 2116.9
320.5 2117.4
321 2114.1
321.5 2109.9
322 2105.7
322.5 2104.1
323 2106.9
323.5 2107.9
324 2109
324.5 2110.7
325 2111.5
325.5 2114.1
326 2115
326.5 2116
327 2112
327.5 2109.5
328 2110.7
328.5 2111.7
329 2114.8
329.5 2113.1
330 2109.9
330.5 2109.2
331 2111.7
331.5 2114.8
332 2112.8
332.5 2109.9
333 2105.9
333.5 2107
334 2112.6
334.5 2115.2
335 2115.7
335.5 2116.1
336 2114.8
336.5 2111.1
337 2103.7
337.5 2096.1
338 2091.4
338.5 2094.3
339 2100.8
339.5 2108.1
340 2112.5
340.5 2111.5
341 2110.6
341.5 2106.9
342 2105.3
342.5 2104.6
343 2101.2
343.5 2098.5
344 2098.1
344.5 2099.6
345 2103.8
345.5 2105.6
346 2104.1
346.5 2102
347 2103.2
347.5 2104
348 2106.6
348.5 2104.5
349 2101.4
349.5 2101.7
350 2105.9
350.5 2113
351 2115.4
351.5 2113.6
352 2107.7
352.5 2105.7
353 2108.9
353.5 2112.7
354 2117.5
354.5 2121.4
355 2123.8
355.5 2121.8
356 2117.5
356.5 2109.7
357 2107.5
357.5 2110.2
358 2111.7
358.5 2113
359 2115.5
359.5 2118.5
360 2118.8
360.5 2119.8
361 2118.3
361.5 2116.8
362 2116.6
362.5 2113.1
363 2113.2
363.5 2118.9
364 2126.3
364.5 2130
365 2130.8
365.5 2128.2
366 2129.6
366.5 2130.4
367 2127.3
367.5 2125.3
368 2121.5
368.5 2119
369 2114.2
369.5 2107.5
370 2100.9
370.5 2099.3
371 2102.2
371.5 2105.8
372 2109.7
372.5 2114.2
373 2118.8
373.5 2124.8
374 2127.7
374.5 2130.3
375 2127.8
375.5 2126.5
376 2127.8
376.5 2131.5
377 2136.9
377.5 2137.7
378 2130.5
378.5 2121.2
379 2115.7
379.5 2115.3
380 2119
380.5 2123.9
381 2123.9
381.5 2119.6
382 2116.1
382.5 2116.2
383 2120
383.5 2124.4
384 2123.4
384.5 2121.8
385 2120.6
385.5 2118.4
386 2116.8
386.5 2113.6
387 2109.2
387.5 2111.4
388 2111
388.5 2113.4
389 2116.3
389.5 2118.6
390 2124.2
390.5 2128.4
391 2133.7
391.5 2139.6
392 2145.3
392.5 2142.7
393 2137.8
393.5 2131.7
394 2128.7
394.5 2129.9
395 2132.2
395.5 2133.7
396 2135.2
396.5 2137.4
397 2141.9
397.5 2141.1
398 2143
398.5 2142.5
399 2139.5
399.5 2139.3
400 2138.7
400.5 2141.2
401 2144.9
401.5 2146.5
402 2146
402.5 2143.4
403 2146.1
403.5 2148.5
404 2148.8
404.5 2144.7
405 2139.6
405.5 2139.5
406 2145.7
406.5 2154.3
407 2158.3
407.5 2159
408 2159.3
408.5 2159.4
409 2162.1
409.5 2165.4
410 2164.7
410.5 2168.1
411 2173.5
411.5 2183.1
412 2185.9
412.5 2183.2
413 2180.6
413.5 2179
414 2183.6
414.5 2188
415 2190.8
415.5 2195
416 2196.3
416.5 2198.7
417 2203.7
417.5 2217.4
418 2232.2
418.5 2243.4
419 2255.3
419.5 2265.2
420 2275.5
420.5 2285.8
421 2298
421.5 2316.2
422 2336.1
422.5 2350.9
423 2362.1
423.5 2378.2
424 2402.5
424.5 2436.2
425 2467.8
425.5 2501.3
426 2530.9
426.5 2561.1
427 2593.8
427.5 2625.2
428 2665
428.5 2712.3
429 2766.9
429.5 2826.3
430 2889.9
430.5 2953
431 3026.3
431.5 3109.5
432 3193.9
432.5 3285.8
433 3383.1
433.5 3489.4
434 3610.3
434.5 3740.3
435 3877.2
435.5 4025.9
436 4191
436.5 4357.6
437 4541
437.5 4738.5
438 4950
438.5 5181.2
439 5412.4
439.5 5649.7
440 5900.9
440.5 6164
441 6441.4
441.5 6727.2
442 7031.3
442.5 7352.6
443 7688.2
443.5 8039.9
444 8409.8
444.5 8800.4
445 9219.2
445.5 9652.9
446 10093
446.5 10547
447 10988
447.5 11441
448 11914
448.5 12375
449 12848
449.5 13296
450 13716
450.5 14081
451 14377
451.5 14597
452 14735
452.5 14803
453 14788
453.5 14708
454 14606
454.5 14412
455 14182
455.5 13887
456 13557
456.5 13188
457 12772
457.5 12338
458 11916
458.5 11541
459 11177
459.5 10820
460 10477
460.5 10136
461 9832.7
461.5 9534.4
462 9264.6
462.5 9044.7
463 8823.6
463.5 8630.4
464 8442.1
464.5 8271.4
465 8131.7
465.5 7992.9
466 7855.3
466.5 7722.2
467 7582.9
467.5 7451.6
468 7336.6
468.5 7216.7
469 7102.6
469.5 6981.5
470 6863.2
470.5 6738.4
471 6599.5
471.5 6450.9
472 6322.1
472.5 6210.1
473 6094.5
473.5 5957
474 5810.4
474.5 5662.8
475 5529.2
475.5 5412.2
476 5307.7
476.5 5212.6
477 5127.3
477.5 5042.6
478 4965
478.5 4906.9
479 4849.8
479.5 4796.3
480 4741.7
480.5 4687.1
481 4642.3
481.5 4603.2
482 4568.4
482.5 4540.1
483 4520.7
483.5 4506.1
484 4491.8
484.5 4475.8
485 4453
485.5 4432.1
486 4417.7
486.5 4405.2
487 4402.6
487.5 4388.5
488 4368.7
488.5 4348
489 4322.7
489.5 4303.1
490 4289.5
490.5 4274.6
491 4264.9
491.5 4259.1
492 4256.4
492.5 4263.5
493 4267.3
493.5 4276.6
494 4295.3
494.5 4323.1
495 4351.8
495.5 4379.5
496 4408.5
496.5 4451.6
497 4501.6
497.5 4559.6
498 4623.6
498.5 4691.1
499 4770.9
499.5 4858.4
500 4952.6
500.5 5057.3
501 5164.6
501.5 5281
502 5409.3
502.5 5544.7
503 5684.6
503.5 5824.3
504 5973.4
504.5 6137.2
505 6305.5
505.5 6479.9
506 6657
506.5 6844.5
507 7046.4
507.5 7258.8
508 7480.9
508.5 7704.7
509 7923.3
509.5 8145.4
510 8373.8
510.5 8621
511 8894.9
511.5 9183.8
512 9477.7
512.5 9778.5
513 10083
513.5 10390
514 10675
514.5 10954
515 11234
515.5 11525
516 11801
516.5 12066
517 12322
517.5 12581
518 12837
518.5 13086
519 13333
519.5 13577
520 13805
520.5 14035
521 14260
521.5 14499
522 14730
522.5 14958
523 15171
523.5 15392
524 15620
524.5 15840
525 16055
525.5 16253
526 16446
526.5 16641
527 16825
527.5 16991
528 17131
528.5 17243
529 17340
529.5 17432
530 17503
530.5 17558
531 17614
531.5 17652
532 17687
532.5 17686
533 17685
533.5 17716
534 17750
534.5 17755
535 17738
535.5 17693
536 17663
536.5 17632
537 17593
537.5 17539
538 17478
538.5 17418
539 17335
539.5 17232
540 17102
540.5 16970
541 16853
541.5 16734
542 16598
542.5 16448
543 16264
543.5 16096
544 15931
544.5 15759
545 15568
545.5 15350
546 15131
546.5 14929
547 14744
547.5 14558
548 14365
548.5 14164
549 13959
549.5 13762
550 13553
550.5 13363
551 13162
551.5 12952
552 12734
552.5 12518
553 12304
553.5 12102
554 11894
554.5 11698
555 11485
555.5 11261
556 11048
556.5 10840
557 10627
557.5 10397
558 10164
558.5 9959.3
559 9763.6
559.5 9570.1
560 9358.8
560.5 9149.3
561 8948
561.5 8760.4
562 8581.6
562.5 8395.1
563 8210.4
563.5 8021.6
564 7846
564.5 7673.1
565 7505.7
565.5 7336.6
566 7185.4
566.5 7041.8
567 6894
567.5 6736.7
568 6578
568.5 6431.2
569 6291.7
569.5 6155.2
570 6019.7
570.5 5888.5
571 5758
571.5 5641.3
572 5536
572.5 5432.7
573 5340.4
573.5 5246.3
574 5166.4
574.5 5086.4
575 5012.6
575.5 4953.5
576 4895.9
576.5 4844.7
577 4779.7
577.5 4722.2
578 4674.6
578.5 4640.9
579 4622.1
579.5 4606.6
580 4606.9
580.5 4612.1
581 4619.7
581.5 4624.1
582 4634.2
582.5 4653.2
583 4676.6
583.5 4703.8
584 4737
584.5 4776.4
585 4817.3
585.5 4862.8
586 4916.5
586.5 4964.6
587 5014.2
587.5 5048.4
588 5089.3
588.5 5118.3
589 5141.6
589.5 5169
590 5204.6
590.5 5246.7
591 5276.5
591.5 5291.3
592 5311
592.5 5335.3
593 5361.3
593.5 5382
594 5410.4
594.5 5446.7
595 5480.1
595.5 5505.5
596 5560.7
596.5 5682.4
597 5879.1
597.5 6071.4
598 6171.4
598.5 6136.2
599 6027
599.5 5924.9
600 5871.4
600.5 5854
601 5855.5
601.5 5866.7
602 5885.1
602.5 5931.8
603 5994.3
603.5 6061.2
604 6101.9
604.5 6117
605 6118.7
605.5 6147.9
606 6254.5
606.5 6652.6
607 7690.8
607.5 9828.3
608 12425
608.5 14244
609 14088
609.5 12427
610 10403
610.5 9190.9
611 9321.6
611.5 11747
612 16491
612.5 22519
613 26838
613.5 27581
614 24439
614.5 19763
615 15301
615.5 12112
616 10096
616.5 9006.2
617 8471.8
617.5 8242.2
618 8260.4
618.5 8404.3
619 8523.3
619.5 8436.2
620 8194.6
620.5 7925.3
621 7722.5
621.5 7558
622 7442.4
622.5 7462.6
623 7652.2
623.5 7927.6
624 8158.1
624.5 8325.3
625 8484.6
625.5 8650.3
626 8795.6
626.5 8928.5
627 9166.5
627.5 9724.4
628 11059
628.5 14015
629 20311
629.5 30616
630 42210
630.5 49775
631 49753
631.5 43029
632 33175
632.5 24608
633 19766
633.5 20693
634 25888
634.5 32078
635 34188
635.5 30961
636 24122
636.5 17303
637 12174
637.5 9000.3
638 7140.1
638.5 5993
639 5283.4
639.5 4828.8
640 4526.2
640.5 4326
641 4190.4
641.5 4090.4
642 4016.2
642.5 3959.4
643 3925.3
643.5 3913.8
644 3930.1
644.5 3991.1
645 4199.1
645.5 4820.6
646 6103.3
646.5 7938.7
647 9476
647.5 9946.3
648 9114.6
648.5 7621.8
649 6163.2
649.5 5097.7
650 4465.7
650.5 4147.2
651 4045.4
651.5 4038.9
652 4013.9
652.5 3920.4
653 3771.2
653.5 3613.7
654 3472.5
654.5 3374.9
655 3314.3
655.5 3284.2
656 3252.7
656.5 3198.2
657 3118.8
657.5 3024.4
658 2947.9
658.5 2902.6
659 2892
659.5 2894.6
660 2893.3
660.5 2873.6
661 2825.5
661.5 2764.9
662 2702.8
662.5 2659.8
663 2629.4
663.5 2602.2
664 2579.8
664.5 2561.1
665 2557.1
665.5 2555.3
666 2555.3
666.5 2555.6
667 2555.7
667.5 2558.1
668 2566.3
668.5 2592.3
669 2632.6
669.5 2673.9
670 2694.7
670.5 2678.4
671 2635.1
671.5 2581.9
672 2539.4
672.5 2510.5
673 2487
673.5 2460
674 2431.4
674.5 2414
675 2405.6
675.5 2390.4
676 2373.6
676.5 2361.4
677 2357.2
677.5 2352.6
678 2345.3
678.5 2336.7
679 2325.4
679.5 2316.7
680 2307
680.5 2296.4
681 2285.9
681.5 2286
682 2288.3
682.5 2288.7
683 2278.7
683.5 2271
684 2267
684.5 2269.6
685 2271.6
685.5 2266.7
686 2263
686.5 2255.2
687 2249.6
687.5 2242.7
688 2251.1
688.5 2268.6
689 2276.2
689.5 2262.3
690 2243
690.5 2230.7
691 2230.6
691.5 2233.6
692 2239.2
692.5 2234.4
693 2236.2
693.5 2236.5
694 2234.9
694.5 2224
695 2219.8
695.5 2219.5
696 2217.3
696.5 2211.7
697 2205.9
697.5 2201.6
698 2197.6
698.5 2199
699 2198.3
699.5 2199.6
700 2200.7
700.5 2202.5
701 2198.2
701.5 2193.9
702 2190.6
702.5 2187.1
703 2182.6
703.5 2181.6
704 2182.7
704.5 2183.5
705 2183.8
705.5 2184.7
706 2191.1
706.5 2194
707 2197.7
707.5 2196.9
708 2191
708.5 2181.6
709 2174.7
709.5 2170.8
710 2167.4
710.5 2165.9
711 2167.8
711.5 2170.9
712 2172.4
712.5 2169.1
713 2168.9
713.5 2176.6
714 2185.5
714.5 2185
715 2180.1
715.5 2174
716 2165.1
716.5 2156.3
717 2154.9
717.5 2153.6
718 2149.3
718.5 2148.2
719 2149.8
719.5 2150.4
720 2151.4
720.5 2154.7
721 2151.7
721.5 2148.2
722 2146.3
722.5 2148.4
723 2142.2
723.5 2139.7
724 2135.7
724.5 2138.2
725 2142.7
725.5 2145.2
726 2142.7
726.5 2142.8
727 2143.9
727.5 2140.5
728 2137.4
728.5 2134.9
729 2140.8
729.5 2150
730 2152.6
730.5 2145.4
731 2130.7
731.5 2124.1
732 2123.9
732.5 2128.6
733 2134.1
733.5 2133.7
734 2132.1
734.5 2126.5
735 2126.6
735.5 2128.6
736 2132.2
736.5 2127.5
737 2127.2
737.5 2124.2
738 2119.2
738.5 2110.5
739 2111.8
739.5 2118.1
740 2129.8
740.5 2136.5
741 2139.6
741.5 2134.7
742 2128.3
742.5 2125.9
743 2130.4
743.5 2128.4
744 2121.2
744.5 2114.5
745 2115.3
745.5 2115.2
746 2116.7
746.5 2117.7
747 2116.6
747.5 2115.1
748 2115.6
748.5 2118.5
749 2120.2
749.5 2122.7
750 2122.3
750.5 2120.9
751 2120.6
751.5 2119.2
752 2120.6
752.5 2125.9
753 2125.2
753.5 2121.9
754 2118.7
754.5 2114
755 2111.1
755.5 2110.3
756 2110.2
756.5 2108.1
757 2108.7
757.5 2104.8
758 2101.9
758.5 2112.8
759 2128.5
759.5 2129.7
760 2114.5
760.5 2101.3
761 2098.8
761.5 2105.5
762 2107.8
762.5 2109.6
763 2108.1
763.5 2111.7
764 2112.8
764.5 2113.2
765 2110.2
765.5 2105.5
766 2107.6
766.5 2108.3
767 2111
767.5 2111.8
768 2112.7
768.5 2108.5
769 2104.9
769.5 2102.2
770 2106.2
770.5 2113.6
771 2120.9
771.5 2116.2
772 2112.4
772.5 2109
773 2111.8
773.5 2114
774 2116.9
774.5 2113.7
775 2102.9
775.5 2090.7
776 2087.8
776.5 2098.2
777 2108.6
777.5 2108.5
778 2103
778.5 2105.2
779 2105.2
779.5 2103
780 2101.3
780.5 2102.1
781 2109
781.5 2110.1
782 2114.7
782.5 2109.5
783 2106.7
783.5 2101.2
784 2101.8
784.5 2102.1
785 2103.6
785.5 2102.6
786 2100.9
786.5 2096.6
787 2098.9
787.5 2096.3
788 2096.4
788.5 2098.2
789 2105.5
789.5 2105.1
790 2107.1
790.5 2110
791 2113.2
791.5 2111.9
792 2113.1
792.5 2111
793 2113.2
793.5 2114.4
794 2117.6
794.5 2105.8
795 2092.3
795.5 2090.4
796 2102.2
796.5 2108.5
797 2108.9
797.5 2107.8
798 2107
798.5 2110.5
799 2113.3
799.5 2107.7
800 2103.5
800.5 2102
801 2097.6
801.5 2098.4
802 2102
802.5 2108.2
803 2105.4
803.5 2100.6
804 2104.2
804.5 2108.6
805 2102.6
805.5 2104.3
806 2108.8
806.5 2106.7
807 2100.3
807.5 2097.5
808 2096.1
808.5 2093.9
809 2099.7
809.5 2110.5
810 2112
810.5 2110.5
811 2108.2
811.5 2100.2
812 2093.4
812.5 2097.6
813 2101.6
813.5 2104.9
814 2111.2
814.5 2111.7
815 2105.1
815.5 2101.3
816 2103.4
816.5 2107.6
817 2106.3
817.5 2105.8
818 2109.6
818.5 2109.4
819 2105
819.5 2101.8
820 2101.1
820.5 2099.5
821 2099
821.5 2104.1
822 2111.3
822.5 2116.7
823 2116.3
823.5 2111.2
824 2105.3
824.5 2103
825 2101.7
825.5 2106.3
826 2103.9
826.5 2100.8
827 2098.4
827.5 2098.6
828 2101.8
828.5 2103.5
829 2103.3
829.5 2098.3
830 2095.7
830.5 2092.7
831 2096.2
831.5 2101.6
832 2100
832.5 2095.7
833 2094.9
833.5 2095.8
834 2097.9
834.5 2098.4
835 2100.3
835.5 2101.6
836 2100.8
836.5 2099.8
837 2101.8
837.5 2097.4
838 2087.5
838.5 2086.1
839 2089
839.5 2086.7
840 2089
840.5 2097.5
841 2100.9
841.5 2093.9
