"OSP (Labor)/dmso-2-2.csv" 240.66 0.34 7.000
"OSP (Labor)/dmso-3-2.csv" 239.75 0.22 7.635
"OSP (Labor)/dmso-4-2.csv" 235.52 0.04 8.439
"OSP (Labor)/dmso-5-2.csv" 230.49 0.09 8.941
"OSP (Labor)/dmso-6-2.csv" 227.30 0.21 9.599
"OSP (Labor)/dmso-7-2.csv" 233.62 0.14 10.491
"OSP (Labor)/dmso-8-2.csv" 234.94 0.07 11.220
