%!PS-Adobe-3.0 EPSF-3.0
%%DocumentNeededResources: font Helvetica
%%+ font Helvetica-Bold
%%+ font Helvetica-Oblique
%%+ font Helvetica-BoldOblique
%%+ font Symbol
%%Title: R Graphics Output
%%Creator: R Software
%%Pages: (atend)
%%BoundingBox: 0 0 432 576
%%EndComments
%%BeginProlog
/bp  { gs sRGB gs } def
% begin .ps.prolog
/gs  { gsave } bind def
/gr  { grestore } bind def
/ep  { showpage gr gr } bind def
/m   { moveto } bind def
/l  { rlineto } bind def
/np  { newpath } bind def
/cp  { closepath } bind def
/f   { fill } bind def
/o   { stroke } bind def
/c   { newpath 0 360 arc } bind def
/r   { 4 2 roll moveto 1 copy 3 -1 roll exch 0 exch rlineto 0 rlineto -1 mul 0 exch rlineto closepath } bind def
/p1  { stroke } bind def
/p2  { gsave bg fill grestore newpath } bind def
/p3  { gsave bg fill grestore stroke } bind def
/p6  { gsave bg eofill grestore newpath } bind def
/p7  { gsave bg eofill grestore stroke } bind def
/t   { 5 -2 roll moveto gsave rotate
       1 index stringwidth pop
       mul neg 0 rmoveto show grestore } bind def
/ta  { 4 -2 roll moveto gsave rotate show } bind def
/tb  { 2 -1 roll 0 rmoveto show } bind def
/cl  { grestore gsave newpath 3 index 3 index moveto 1 index
       4 -1 roll lineto  exch 1 index lineto lineto
       closepath clip newpath } bind def
/rgb { setrgbcolor } bind def
/s   { scalefont setfont } bind def
% end   .ps.prolog
/sRGB { [ /CIEBasedABC
          << /DecodeLMN
               [ { dup 0.03928 le
                        {12.92321 div}
                        {0.055 add 1.055 div 2.4 exp }
                     ifelse
                 } bind dup dup
               ]
             /MatrixLMN [0.412457 0.212673 0.019334
                         0.357576 0.715152 0.119192
                         0.180437 0.072175 0.950301]
             /WhitePoint [0.9505 1.0 1.0890]
           >>
         ] setcolorspace } bind def
/srgb { setcolor } bind def
% begin encoding
/WinAnsiEncoding [
 /.notdef /.notdef /.notdef /.notdef /.notdef /.notdef /.notdef /.notdef
 /.notdef /.notdef /.notdef /.notdef /.notdef /.notdef /.notdef /.notdef
 /.notdef /.notdef /.notdef /.notdef /.notdef /.notdef /.notdef /.notdef
 /.notdef /.notdef /.notdef /.notdef /.notdef /.notdef /.notdef /.notdef
 /space /exclam /quotedbl /numbersign /dollar /percent /ampersand /quoteright
 /parenleft /parenright /asterisk /plus /comma /minus /period /slash
 /zero /one /two /three /four /five /six /seven
 /eight /nine /colon /semicolon /less /equal /greater /question
 /at /A /B /C /D /E /F /G
 /H /I /J /K /L /M /N /O
 /P /Q /R /S /T /U /V /W
 /X /Y /Z /bracketleft /backslash /bracketright /asciicircum /underscore
 /grave /a /b /c /d /e /f /g
 /h /i /j /k /l /m /n /o
 /p /q /r /s /t /u /v /w
 /x /y /z /braceleft /bar /braceright /asciitilde /.notdef
 /Euro /.notdef /quotesinglbase /florin /quotedblbase /ellipsis /dagger /daggerdbl
 /circumflex /perthousand /Scaron /guilsinglleft /OE /.notdef /Zcaron /.notdef
 /.notdef /quoteleft /quoteright /quotedblleft /quotedblright /bullet /endash /emdash
 /tilde /trademark /scaron /guilsinglright /oe /.notdef /zcaron /Ydieresis
 /space /exclamdown /cent /sterling /currency /yen /brokenbar /section
 /dieresis /copyright /ordfeminine /guillemotleft /logicalnot /hyphen /registered /macron
 /degree /plusminus /twosuperior /threesuperior /acute /mu /paragraph /periodcentered
 /cedilla /onesuperior /ordmasculine /guillemotright /onequarter /onehalf /threequarters /questiondown
 /Agrave /Aacute /Acircumflex /Atilde /Adieresis /Aring /AE /Ccedilla
 /Egrave /Eacute /Ecircumflex /Edieresis /Igrave /Iacute /Icircumflex /Idieresis
 /Eth /Ntilde /Ograve /Oacute /Ocircumflex /Otilde /Odieresis /multiply
 /Oslash /Ugrave /Uacute /Ucircumflex /Udieresis /Yacute /Thorn /germandbls
 /agrave /aacute /acircumflex /atilde /adieresis /aring /ae /ccedilla
 /egrave /eacute /ecircumflex /edieresis /igrave /iacute /icircumflex /idieresis
 /eth /ntilde /ograve /oacute /ocircumflex /otilde /odieresis /divide
 /oslash /ugrave /uacute /ucircumflex /udieresis /yacute /thorn /ydieresis
]
 def
% end encoding
%%IncludeResource: font Helvetica
/Helvetica findfont
dup length dict begin
  {1 index /FID ne {def} {pop pop} ifelse} forall
  /Encoding WinAnsiEncoding def
  currentdict
  end
/Font1 exch definefont pop
%%IncludeResource: font Helvetica-Bold
/Helvetica-Bold findfont
dup length dict begin
  {1 index /FID ne {def} {pop pop} ifelse} forall
  /Encoding WinAnsiEncoding def
  currentdict
  end
/Font2 exch definefont pop
%%IncludeResource: font Helvetica-Oblique
/Helvetica-Oblique findfont
dup length dict begin
  {1 index /FID ne {def} {pop pop} ifelse} forall
  /Encoding WinAnsiEncoding def
  currentdict
  end
/Font3 exch definefont pop
%%IncludeResource: font Helvetica-BoldOblique
/Helvetica-BoldOblique findfont
dup length dict begin
  {1 index /FID ne {def} {pop pop} ifelse} forall
  /Encoding WinAnsiEncoding def
  currentdict
  end
/Font4 exch definefont pop
%%IncludeResource: font Symbol
/Symbol findfont
dup length dict begin
  {1 index /FID ne {def} {pop pop} ifelse} forall
  currentdict
  end
/Font5 exch definefont pop
%%EndProlog
%%Page: 1 1
bp
/bg { 1 1 1 srgb } def
0.00 0.00 432.00 576.00 r p2
0.00 0.00 432.00 576.00 cl
0.00 0.00 432.00 576.00 cl
0.00 0.00 432.00 576.00 cl
/Font1 findfont 12 s
0 0 0 srgb
48.00 508.72 (PCP-ETH) 0 0 t
48.00 494.89 (Flash light photolysis) 0 0 t
/Font1 findfont 9 s
48.00 457.54 (File: In) 0 ta
-0.180 (v) tb
-0.225 (estigation_3_MSLM.dat) tb gr
48.00 334.87 (T) 0 ta
-1.080 (ue Mar 01 15:58:12 2022) tb gr
48.00 430.87 (Fit function:  a + b * e) 0 ta
-0.270 (xp\(-c * t\)) tb gr
48.00 420.50 (t-Inter) 0 ta
0.270 (v) tb
-0.225 (all: 11.000 ... 407.000 ms) tb gr
48.00 410.14 (P) 0 ta
-0.360 (ar) tb
-0.090 (ameters \(Standard de) tb
-0.270 (viation\):) tb gr
48.00 399.77 (  a = -0.05345 \(0.00150\)) 0 0 t
48.00 389.40 (  b = 0.27924 \(0.00121\)) 0 0 t
48.00 379.03 (  c = 3.899e+00 \(4.403e-02\) s^-1) 0 0 t
48.00 368.66 (  tau = 2.565e-01 \(2.896e-03\) s) 0 0 t
216.00 345.60 388.80 518.40 cl
0 0 0 srgb
0.75 setlinewidth
[] 0 setdash
1 setlinecap
1 setlinejoin
10.00 setmiterlimit
np
222.40 512.00 m
0.15 0 l
0.14 0 l
0.15 0 l
0.14 0 l
0.15 0 l
0.14 0 l
0.15 0 l
0.14 0 l
0.15 0 l
0.15 0 l
0.14 0 l
0.15 0 l
0.14 0 l
0.15 0 l
0.14 0 l
0.15 0 l
0.14 0 l
0.15 0 l
0.15 0 l
0.14 0 l
0.15 0 l
0.14 0 l
0.15 0 l
0.14 0 l
0.15 0 l
0.15 0 l
0.14 0 l
0.15 0 l
0.14 0 l
0.15 0 l
0.14 0 l
0.15 0 l
0.14 0 l
0.15 0 l
0.15 0 l
0.14 0 l
0.15 0 l
0.14 0 l
0.15 0 l
0.14 0 l
0.15 0 l
0.14 0 l
0.15 0 l
0.15 0 l
0.14 0 l
0.15 0 l
0.14 0 l
0.15 0 l
0.14 0 l
0.15 0 l
0.14 0 l
0.15 0 l
0.15 0 l
0.14 0 l
0.15 0 l
0.14 0 l
0.15 0 l
0.14 0 l
0.15 0 l
0.15 0 l
0.14 0 l
0.15 0 l
0.14 0 l
0.15 0 l
0.14 0 l
0.15 0 l
0.14 0 l
0.15 0 l
0.15 0 l
0.14 0 l
0.15 0 l
0.14 0 l
0.15 0 l
0.14 0 l
0.15 0 l
0.14 0 l
0.15 0 l
0.15 0 l
0.14 0 l
0.15 0 l
0.14 0 l
0.15 0 l
0.14 0 l
0.15 0 l
0.14 0 l
0.15 0 l
0.15 0 l
0.14 0 l
0.15 0 l
0.14 0 l
0.15 0 l
0.14 0 l
0.15 0 l
0.15 0 l
0.14 0 l
0.15 0 l
0.14 0 l
0.15 0 l
0.14 0 l
236.96 447.01 lineto
0.14 1.32 l
0.15 0.09 l
0.15 1.66 l
0.14 -0.70 l
0.15 0.62 l
0.14 0.96 l
0.15 0 l
0.14 1.48 l
0.15 -0.08 l
0.14 0.96 l
0.15 -0.43 l
0.15 0.70 l
0.14 0.36 l
0.15 0.78 l
0.14 0.35 l
0.15 0.60 l
0.14 0.81 l
0.15 -0.36 l
0.14 1.23 l
0.15 0.96 l
0.15 -0.25 l
0.14 0 l
0.15 1.13 l
0.14 0.96 l
0.15 -0.96 l
0.14 1.06 l
0.15 1.48 l
0.15 -0.08 l
0.14 -0.27 l
0.15 1.05 l
0.14 1.23 l
0.15 -0.17 l
0.14 0 l
0.15 1.23 l
0.14 0.51 l
0.15 -0.61 l
0.15 0.53 l
0.14 1.93 l
0.15 -0.62 l
0.14 1.33 l
0.15 0 l
0.14 0.95 l
0.15 -0.43 l
0.14 0.43 l
0.15 0.88 l
0.15 0.53 l
0.14 -0.70 l
0.15 1.13 l
0.14 0.62 l
0.15 0.51 l
0.14 -0.15 l
0.15 1.13 l
0.14 1.31 l
0.15 -0.61 l
0.15 0 l
0.14 1.41 l
0.15 -0.28 l
0.14 0 l
0.15 1.14 l
0.14 0.70 l
0.15 -0.18 l
0.15 -0.17 l
0.14 0.88 l
0.15 0.45 l
0.14 0 l
0.15 0 l
0.14 2.01 l
0.15 -0.18 l
0.14 -0.35 l
0.15 0.88 l
0.15 0.08 l
0.14 -0.25 l
0.15 0.87 l
0.14 -0.70 l
0.15 2.36 l
0.14 0 l
0.15 0 l
0.14 1.06 l
0.15 0 l
0.15 0.18 l
0.14 0.78 l
0.15 -0.36 l
0.14 0.63 l
0.15 0.35 l
0.14 0.51 l
0.15 0.70 l
0.14 0.45 l
0.15 0.43 l
0.15 -0.08 l
0.14 0.08 l
0.15 0.88 l
0.14 0.10 l
0.15 -0.28 l
0.14 0.18 l
0.15 1.23 l
0.15 -1.05 l
0.14 0.78 l
0.15 0.62 l
0.14 0 l
251.52 490.40 lineto
0.14 0.45 l
0.15 -0.88 l
0.14 1.40 l
0.15 -0.88 l
0.15 0.53 l
0.14 1.49 l
0.15 -0.45 l
0.14 -0.43 l
0.15 0.95 l
0.14 0.88 l
0.15 -1.05 l
0.14 1.33 l
0.15 0.07 l
0.15 0.81 l
0.14 -0.63 l
0.15 1.66 l
0.14 -0.35 l
0.15 0 l
0.14 -0.18 l
0.15 1.76 l
0.14 -0.60 l
0.15 0.07 l
0.15 0 l
0.14 1.06 l
0.15 -0.88 l
0.14 0.53 l
0.15 1.15 l
0.14 0.16 l
0.15 -0.34 l
0.14 1.04 l
0.15 1.05 l
0.15 -0.17 l
0.14 -0.35 l
0.15 0.88 l
0.14 0.17 l
0.15 -0.17 l
0.14 -0.88 l
0.15 2.01 l
0.15 -0.69 l
0.14 -0.27 l
0.15 0.88 l
0.14 -0.18 l
0.15 -0.07 l
0.14 0.33 l
0.15 1.58 l
0.14 0 l
0.15 -0.25 l
0.15 0 l
0.14 0.60 l
0.15 -0.35 l
0.14 0.27 l
0.15 0.61 l
0.14 0.53 l
0.15 0.78 l
0.14 -0.96 l
0.15 0.88 l
0.15 0.35 l
0.14 0.08 l
0.15 -0.70 l
0.14 0.97 l
0.15 0.96 l
0.14 -0.70 l
0.15 0.17 l
0.14 -0.17 l
0.15 0.97 l
0.15 -0.52 l
0.14 0.88 l
0.15 0.60 l
0.14 0.25 l
0.15 -1.91 l
0.14 3.15 l
0.15 -0.26 l
0.15 -1.31 l
0.14 0.43 l
0.15 0.35 l
0.14 0 l
0.15 0.88 l
0.14 0.18 l
0.15 0 l
0.14 0.08 l
0.15 -0.53 l
0.15 1.33 l
0.14 0.25 l
0.15 0.10 l
0.14 0 l
0.15 -0.53 l
0.14 0.43 l
0.15 0.92 l
0.14 -0.31 l
0.15 0.27 l
0.15 0.04 l
0.14 -0.74 l
0.15 0.74 l
0.14 0 l
0.15 0 l
0.14 0 l
0.15 0 l
0.14 0 l
0.15 0 l
266.08 512.00 lineto
0.14 0 l
0.15 0 l
0.14 0 l
0.15 0 l
0.14 0 l
0.15 0 l
0.15 0 l
0.14 0 l
0.15 0 l
0.14 0 l
0.15 0 l
0.14 0 l
0.15 0 l
0.14 0 l
0.15 0 l
0.15 0 l
0.14 0 l
0.15 0 l
0.14 0 l
0.15 0 l
0.14 0 l
0.15 0 l
0.14 0 l
0.15 0 l
0.15 0 l
0.14 0 l
0.15 0 l
0.14 0 l
0.15 0 l
0.14 0 l
0.15 0 l
0.14 0 l
0.15 0 l
0.15 0 l
0.14 0 l
0.15 0 l
0.14 0 l
0.15 0 l
0.14 0 l
0.15 0 l
0.15 0 l
0.14 0 l
0.15 0 l
0.14 0 l
0.15 0 l
0.14 0 l
0.15 0 l
0.14 0 l
0.15 0 l
0.15 0 l
0.14 0 l
0.15 0 l
0.14 0 l
0.15 0 l
0.14 0 l
0.15 0 l
0.14 0 l
0.15 0 l
0.15 0 l
0.14 0 l
0.15 0 l
0.14 0 l
0.15 0 l
0.14 0 l
0.15 0 l
0.14 0 l
0.15 0 l
0.15 0 l
0.14 0 l
0.15 0 l
0.14 0 l
0.15 0 l
0.14 0 l
0.15 0 l
0.15 0 l
0.14 0 l
0.15 0 l
0.14 0 l
0.15 0 l
0.14 0 l
0.15 0 l
0.14 0 l
0.15 0 l
0.15 0 l
0.14 0 l
0.15 0 l
0.14 0 l
0.15 0 l
0.14 0 l
0.15 0 l
0.14 0 l
0.15 0 l
0.15 0 l
0.14 0 l
0.15 0 l
0.14 0 l
0.15 0 l
0.14 0 l
0.15 0 l
280.63 512.00 lineto
0.15 0 l
0.15 0 l
0.14 0 l
0.15 0 l
0.14 0 l
0.15 0 l
0.14 0 l
0.15 0 l
0.15 0 l
0.14 0 l
0.15 0 l
0.14 0 l
0.15 0 l
0.14 0 l
0.15 0 l
0.14 0 l
0.15 0 l
0.15 0 l
0.14 0 l
0.15 0 l
0.14 0 l
0.15 0 l
0.14 0 l
0.15 0 l
0.14 0 l
0.15 0 l
0.15 0 l
0.14 0 l
0.15 0 l
0.14 0 l
0.15 0 l
0.14 0 l
0.15 0 l
0.14 0 l
0.15 0 l
0.15 0 l
0.14 0 l
0.15 0 l
0.14 0 l
0.15 0 l
0.14 0 l
0.15 0 l
0.14 0 l
0.15 0 l
0.15 0 l
0.14 0 l
0.15 0 l
0.14 0 l
0.15 0 l
0.14 0 l
0.15 0 l
0.15 0 l
0.14 0 l
0.15 0 l
0.14 0 l
0.15 0 l
0.14 0 l
0.15 0 l
0.14 0 l
0.15 0 l
0.15 0 l
0.14 0 l
0.15 0 l
0.14 0 l
0.15 0 l
0.14 0 l
0.15 0 l
0.14 0 l
0.15 0 l
0.15 0 l
0.14 0 l
0.15 0 l
0.14 0 l
0.15 0 l
0.14 0 l
0.15 0 l
0.14 0 l
0.15 0 l
0.15 0 l
0.14 0 l
0.15 0 l
0.14 0 l
0.15 0 l
0.14 0 l
0.15 0 l
0.15 0 l
0.14 0 l
0.15 0 l
0.14 0 l
0.15 0 l
0.14 0 l
0.15 0 l
0.14 0 l
0.15 0 l
0.15 0 l
0.14 0 l
0.15 0 l
0.14 0 l
0.15 0 l
295.19 512.00 lineto
0.15 0 l
0.14 0 l
0.15 0 l
0.15 0 l
0.14 0 l
0.15 0 l
0.14 0 l
0.15 0 l
0.14 0 l
0.15 0 l
0.14 0 l
0.15 0 l
0.15 0 l
0.14 0 l
0.15 0 l
0.14 0 l
0.15 0 l
0.14 0 l
0.15 0 l
0.15 0 l
0.14 0 l
0.15 0 l
0.14 0 l
0.15 0 l
0.14 0 l
0.15 0 l
0.14 0 l
0.15 0 l
0.15 0 l
0.14 0 l
0.15 0 l
0.14 0 l
0.15 0 l
0.14 0 l
0.15 0 l
0.14 0 l
0.15 0 l
0.15 0 l
0.14 0 l
0.15 0 l
0.14 0 l
0.15 0 l
0.14 0 l
0.15 0 l
0.14 0 l
0.15 0 l
0.15 0 l
0.14 0 l
0.15 0 l
0.14 0 l
0.15 0 l
0.14 0 l
0.15 0 l
0.15 0 l
0.14 0 l
0.15 0 l
0.14 0 l
0.15 0 l
0.14 0 l
0.15 0 l
0.14 0 l
0.15 0 l
0.15 0 l
0.14 0 l
0.15 0 l
0.14 0 l
0.15 0 l
0.14 0 l
0.15 0 l
0.14 0 l
0.15 0 l
0.15 0 l
0.14 0 l
0.15 0 l
0.14 0 l
0.15 0 l
0.14 0 l
0.15 0 l
0.14 0 l
0.15 0 l
0.15 0 l
0.14 0 l
0.15 0 l
0.14 0 l
0.15 0 l
0.14 0 l
0.15 0 l
0.15 0 l
0.14 0 l
0.15 0 l
0.14 0 l
0.15 0 l
0.14 0 l
0.15 0 l
0.14 0 l
0.15 0 l
0.15 0 l
0.14 0 l
0.15 0 l
309.75 512.00 lineto
0.15 0 l
0.14 0 l
0.15 0 l
0.14 0 l
0.15 0 l
0.15 0 l
0.14 0 l
0.15 0 l
0.14 0 l
0.15 0 l
0.14 0 l
0.15 0 l
0.14 0 l
0.15 0 l
0.15 0 l
0.14 0 l
0.15 0 l
0.14 0 l
0.15 0 l
0.14 0 l
0.15 0 l
0.15 0 l
0.14 0 l
0.15 0 l
0.14 0 l
0.15 0 l
0.14 0 l
0.15 0 l
0.14 0 l
0.15 0 l
0.15 0 l
0.14 0 l
0.15 0 l
0.14 0 l
0.15 0 l
0.14 0 l
0.15 0 l
0.14 0 l
0.15 0 l
0.15 0 l
0.14 0 l
0.15 0 l
0.14 0 l
0.15 0 l
0.14 0 l
0.15 0 l
0.14 0 l
0.15 0 l
0.15 0 l
0.14 0 l
0.15 0 l
0.14 0 l
0.15 0 l
0.14 0 l
0.15 0 l
0.15 0 l
0.14 0 l
0.15 0 l
0.14 0 l
0.15 0 l
0.14 0 l
0.15 0 l
0.14 0 l
0.15 0 l
0.15 0 l
0.14 0 l
0.15 0 l
0.14 0 l
0.15 0 l
0.14 0 l
0.15 0 l
0.14 0 l
0.15 0 l
0.15 0 l
0.14 0 l
0.15 0 l
0.14 0 l
0.15 0 l
0.14 0 l
0.15 0 l
0.14 0 l
0.15 0 l
0.15 0 l
0.14 0 l
0.15 0 l
0.14 0 l
0.15 0 l
0.14 0 l
0.15 0 l
0.14 0 l
0.15 0 l
0.15 0 l
0.14 0 l
0.15 0 l
0.14 0 l
0.15 0 l
0.14 0 l
0.15 0 l
0.15 0 l
324.31 512.00 lineto
0.15 0 l
0.14 0 l
0.15 0 l
0.14 0 l
0.15 0 l
0.14 0 l
0.15 0 l
0.15 0 l
0.14 0 l
0.15 0 l
0.14 0 l
0.15 0 l
0.14 0 l
0.15 0 l
0.14 0 l
0.15 0 l
0.15 0 l
0.14 0 l
0.15 0 l
0.14 0 l
0.15 0 l
0.14 0 l
0.15 0 l
0.14 0 l
0.15 0 l
0.15 0 l
0.14 0 l
0.15 0 l
0.14 0 l
0.15 0 l
0.14 0 l
0.15 0 l
0.15 0 l
0.14 0 l
0.15 0 l
0.14 0 l
0.15 0 l
0.14 0 l
0.15 0 l
0.14 0 l
0.15 0 l
0.15 0 l
0.14 0 l
0.15 0 l
0.14 0 l
0.15 0 l
0.14 0 l
0.15 0 l
0.14 0 l
0.15 0 l
0.15 0 l
0.14 0 l
0.15 0 l
0.14 0 l
0.15 0 l
0.14 0 l
0.15 0 l
0.14 0 l
0.15 0 l
0.15 0 l
0.14 0 l
0.15 0 l
0.14 0 l
0.15 0 l
0.14 0 l
0.15 0 l
0.15 0 l
0.14 0 l
0.15 0 l
0.14 0 l
0.15 0 l
0.14 0 l
0.15 0 l
0.14 0 l
0.15 0 l
0.15 0 l
0.14 0 l
0.15 0 l
0.14 0 l
0.15 0 l
0.14 0 l
0.15 0 l
0.14 0 l
0.15 0 l
0.15 0 l
0.14 0 l
0.15 0 l
0.14 0 l
0.15 0 l
0.14 0 l
0.15 0 l
0.14 0 l
0.15 0 l
0.15 0 l
0.14 0 l
0.15 0 l
0.14 0 l
0.15 0 l
0.14 0 l
338.87 512.00 lineto
0.15 0 l
0.14 0 l
0.15 0 l
0.14 0 l
0.15 0 l
0.14 0 l
0.15 0 l
0.14 0 l
0.15 0 l
0.15 0 l
0.14 0 l
0.15 0 l
0.14 0 l
0.15 0 l
0.14 0 l
0.15 0 l
0.14 0 l
0.15 0 l
0.15 0 l
0.14 0 l
0.15 0 l
0.14 0 l
0.15 0 l
0.14 0 l
0.15 0 l
0.14 0 l
0.15 0 l
0.15 0 l
0.14 0 l
0.15 0 l
0.14 0 l
0.15 0 l
0.14 0 l
0.15 0 l
0.15 0 l
0.14 0 l
0.15 0 l
0.14 0 l
0.15 0 l
0.14 0 l
0.15 0 l
0.14 0 l
0.15 0 l
0.15 0 l
0.14 0 l
0.15 0 l
0.14 0 l
0.15 0 l
0.14 0 l
0.15 0 l
0.14 0 l
0.15 0 l
0.15 0 l
0.14 0 l
0.15 0 l
0.14 0 l
0.15 0 l
0.14 0 l
0.15 0 l
0.14 0 l
0.15 0 l
0.15 0 l
0.14 0 l
0.15 0 l
0.14 0 l
0.15 0 l
0.14 0 l
0.15 0 l
0.15 0 l
0.14 0 l
0.15 0 l
0.14 0 l
0.15 0 l
0.14 0 l
0.15 0 l
0.14 0 l
0.15 0 l
0.15 0 l
0.14 0 l
0.15 0 l
0.14 0 l
0.15 0 l
0.14 0 l
0.15 0 l
0.14 0 l
0.15 0 l
0.15 0 l
0.14 0 l
0.15 0 l
0.14 0 l
0.15 0 l
0.14 0 l
0.15 0 l
0.14 0 l
0.15 0 l
0.15 0 l
0.14 0 l
0.15 0 l
0.14 0 l
353.43 512.00 lineto
0.14 0 l
0.15 0 l
0.14 0 l
0.15 0 l
0.15 0 l
0.14 0 l
0.15 0 l
0.14 0 l
0.15 0 l
0.14 0 l
0.15 0 l
0.15 0 l
0.14 0 l
0.15 0 l
0.14 0 l
0.15 0 l
0.14 0 l
0.15 0 l
0.14 0 l
0.15 0 l
0.15 0 l
0.14 0 l
0.15 0 l
0.14 0 l
0.15 0 l
0.14 0 l
0.15 0 l
0.14 0 l
0.15 0 l
0.15 0 l
0.14 0 l
0.15 0 l
0.14 0 l
0.15 0 l
0.14 0 l
0.15 0 l
0.14 0 l
0.15 0 l
0.15 0 l
0.14 0 l
0.15 0 l
0.14 0 l
0.15 0 l
0.14 0 l
0.15 0 l
0.15 0 l
0.14 0 l
0.15 0 l
0.14 0 l
0.15 0 l
0.14 0 l
0.15 0 l
0.14 0 l
0.15 0 l
0.15 0 l
0.14 0 l
0.15 0 l
0.14 0 l
0.15 0 l
0.14 0 l
0.15 0 l
0.14 0 l
0.15 0 l
0.15 0 l
0.14 0 l
0.15 0 l
0.14 0 l
0.15 0 l
0.14 0 l
0.15 0 l
0.14 0 l
0.15 0 l
0.15 0 l
0.14 0 l
0.15 0 l
0.14 0 l
0.15 0 l
0.14 0 l
0.15 0 l
0.15 0 l
0.14 0 l
0.15 0 l
0.14 0 l
0.15 0 l
0.14 0 l
0.15 0 l
0.14 0 l
0.15 0 l
0.15 0 l
0.14 0 l
0.15 0 l
0.14 0 l
0.15 0 l
0.14 0 l
0.15 0 l
0.14 0 l
0.15 0 l
0.15 0 l
0.14 0 l
currentpoint o m
367.99 512.00 lineto
0.14 0 l
0.15 0 l
0.14 0 l
0.15 0 l
0.14 0 l
0.15 0 l
0.15 0 l
0.14 0 l
0.15 0 l
0.14 0 l
0.15 0 l
0.14 0 l
0.15 0 l
0.15 0 l
0.14 0 l
0.15 0 l
0.14 0 l
0.15 0 l
0.14 0 l
0.15 0 l
0.14 0 l
0.15 0 l
0.15 0 l
0.14 0 l
0.15 0 l
0.14 0 l
0.15 0 l
0.14 0 l
0.15 0 l
0.14 0 l
0.15 0 l
0.15 0 l
0.14 0 l
0.15 0 l
0.14 0 l
0.15 0 l
0.14 0 l
0.15 0 l
0.14 0 l
0.15 0 l
0.15 0 l
0.14 0 l
0.15 0 l
0.14 0 l
0.15 0 l
0.14 0 l
0.15 0 l
0.15 0 l
0.14 0 l
0.15 0 l
0.14 0 l
0.15 0 l
0.14 0 l
0.15 0 l
0.14 0 l
0.15 0 l
0.15 0 l
0.14 0 l
0.15 0 l
0.14 0 l
0.15 0 l
0.14 0 l
0.15 0 l
0.14 0 l
0.15 0 l
0.15 0 l
0.14 0 l
0.15 0 l
0.14 0 l
0.15 0 l
0.14 0 l
0.15 0 l
0.14 0 l
0.15 0 l
0.15 0 l
0.14 0 l
0.15 0 l
0.14 0 l
0.15 0 l
0.14 0 l
0.15 0 l
0.15 0 l
0.14 0 l
0.15 0 l
0.14 0 l
0.15 0 l
0.14 0 l
0.15 0 l
0.14 0 l
0.15 0 l
0.15 0 l
0.14 0 l
0.15 0 l
0.14 0 l
0.15 0 l
0.14 0 l
0.15 0 l
0.14 0 l
0.15 0 l
o
/bg { 1 1 1 srgb } def
222.40 512.00 0.43 c p3
222.55 512.00 0.43 c p3
222.69 512.00 0.43 c p3
222.84 512.00 0.43 c p3
222.98 512.00 0.43 c p3
223.13 512.00 0.43 c p3
223.27 512.00 0.43 c p3
223.42 512.00 0.43 c p3
223.56 512.00 0.43 c p3
223.71 512.00 0.43 c p3
223.86 512.00 0.43 c p3
224.00 512.00 0.43 c p3
224.15 512.00 0.43 c p3
224.29 512.00 0.43 c p3
224.44 512.00 0.43 c p3
224.58 512.00 0.43 c p3
224.73 512.00 0.43 c p3
224.87 512.00 0.43 c p3
225.02 512.00 0.43 c p3
225.17 512.00 0.43 c p3
225.31 512.00 0.43 c p3
225.46 512.00 0.43 c p3
225.60 512.00 0.43 c p3
225.75 512.00 0.43 c p3
225.89 512.00 0.43 c p3
226.04 512.00 0.43 c p3
226.19 512.00 0.43 c p3
226.33 512.00 0.43 c p3
226.48 512.00 0.43 c p3
226.62 512.00 0.43 c p3
226.77 512.00 0.43 c p3
226.91 512.00 0.43 c p3
227.06 512.00 0.43 c p3
227.20 512.00 0.43 c p3
227.35 512.00 0.43 c p3
227.50 512.00 0.43 c p3
227.64 512.00 0.43 c p3
227.79 512.00 0.43 c p3
227.93 512.00 0.43 c p3
228.08 512.00 0.43 c p3
228.22 512.00 0.43 c p3
228.37 512.00 0.43 c p3
228.51 512.00 0.43 c p3
228.66 512.00 0.43 c p3
228.81 512.00 0.43 c p3
228.95 512.00 0.43 c p3
229.10 512.00 0.43 c p3
229.24 512.00 0.43 c p3
229.39 512.00 0.43 c p3
229.53 512.00 0.43 c p3
229.68 512.00 0.43 c p3
229.82 512.00 0.43 c p3
229.97 512.00 0.43 c p3
230.12 512.00 0.43 c p3
230.26 512.00 0.43 c p3
230.41 512.00 0.43 c p3
230.55 512.00 0.43 c p3
230.70 512.00 0.43 c p3
230.84 512.00 0.43 c p3
230.99 512.00 0.43 c p3
231.14 512.00 0.43 c p3
231.28 512.00 0.43 c p3
231.43 512.00 0.43 c p3
231.57 512.00 0.43 c p3
231.72 512.00 0.43 c p3
231.86 512.00 0.43 c p3
232.01 512.00 0.43 c p3
232.15 512.00 0.43 c p3
232.30 512.00 0.43 c p3
232.45 512.00 0.43 c p3
232.59 512.00 0.43 c p3
232.74 512.00 0.43 c p3
232.88 512.00 0.43 c p3
233.03 512.00 0.43 c p3
233.17 512.00 0.43 c p3
233.32 512.00 0.43 c p3
233.46 512.00 0.43 c p3
233.61 512.00 0.43 c p3
233.76 512.00 0.43 c p3
233.90 512.00 0.43 c p3
234.05 512.00 0.43 c p3
234.19 512.00 0.43 c p3
234.34 512.00 0.43 c p3
234.48 512.00 0.43 c p3
234.63 512.00 0.43 c p3
234.77 512.00 0.43 c p3
234.92 512.00 0.43 c p3
235.07 512.00 0.43 c p3
235.21 512.00 0.43 c p3
235.36 512.00 0.43 c p3
235.50 512.00 0.43 c p3
235.65 512.00 0.43 c p3
235.79 512.00 0.43 c p3
235.94 512.00 0.43 c p3
236.09 512.00 0.43 c p3
236.23 512.00 0.43 c p3
236.38 512.00 0.43 c p3
236.52 512.00 0.43 c p3
236.67 512.00 0.43 c p3
236.81 512.00 0.43 c p3
236.96 447.01 0.43 c p3
237.10 448.33 0.43 c p3
237.25 448.42 0.43 c p3
237.40 450.08 0.43 c p3
237.54 449.38 0.43 c p3
237.69 450.00 0.43 c p3
237.83 450.96 0.43 c p3
237.98 450.96 0.43 c p3
238.12 452.44 0.43 c p3
238.27 452.36 0.43 c p3
238.41 453.32 0.43 c p3
238.56 452.89 0.43 c p3
238.71 453.59 0.43 c p3
238.85 453.95 0.43 c p3
239.00 454.73 0.43 c p3
239.14 455.08 0.43 c p3
239.29 455.68 0.43 c p3
239.43 456.49 0.43 c p3
239.58 456.13 0.43 c p3
239.72 457.36 0.43 c p3
239.87 458.32 0.43 c p3
240.02 458.07 0.43 c p3
240.16 458.07 0.43 c p3
240.31 459.20 0.43 c p3
240.45 460.16 0.43 c p3
240.60 459.20 0.43 c p3
240.74 460.26 0.43 c p3
240.89 461.74 0.43 c p3
241.04 461.66 0.43 c p3
241.18 461.39 0.43 c p3
241.33 462.44 0.43 c p3
241.47 463.67 0.43 c p3
241.62 463.50 0.43 c p3
241.76 463.50 0.43 c p3
241.91 464.73 0.43 c p3
242.05 465.24 0.43 c p3
242.20 464.63 0.43 c p3
242.35 465.16 0.43 c p3
242.49 467.09 0.43 c p3
242.64 466.47 0.43 c p3
242.78 467.80 0.43 c p3
242.93 467.80 0.43 c p3
243.07 468.75 0.43 c p3
243.22 468.32 0.43 c p3
243.36 468.75 0.43 c p3
243.51 469.63 0.43 c p3
243.66 470.16 0.43 c p3
243.80 469.46 0.43 c p3
243.95 470.59 0.43 c p3
244.09 471.21 0.43 c p3
244.24 471.72 0.43 c p3
244.38 471.57 0.43 c p3
244.53 472.70 0.43 c p3
244.67 474.01 0.43 c p3
244.82 473.40 0.43 c p3
244.97 473.40 0.43 c p3
245.11 474.81 0.43 c p3
245.26 474.53 0.43 c p3
245.40 474.53 0.43 c p3
245.55 475.67 0.43 c p3
245.69 476.37 0.43 c p3
245.84 476.19 0.43 c p3
245.99 476.02 0.43 c p3
246.13 476.90 0.43 c p3
246.28 477.35 0.43 c p3
246.42 477.35 0.43 c p3
246.57 477.35 0.43 c p3
246.71 479.36 0.43 c p3
246.86 479.18 0.43 c p3
247.00 478.83 0.43 c p3
247.15 479.71 0.43 c p3
247.30 479.79 0.43 c p3
247.44 479.54 0.43 c p3
247.59 480.41 0.43 c p3
247.73 479.71 0.43 c p3
247.88 482.07 0.43 c p3
248.02 482.07 0.43 c p3
248.17 482.07 0.43 c p3
248.31 483.13 0.43 c p3
248.46 483.13 0.43 c p3
248.61 483.31 0.43 c p3
248.75 484.09 0.43 c p3
248.90 483.73 0.43 c p3
249.04 484.36 0.43 c p3
249.19 484.71 0.43 c p3
249.33 485.22 0.43 c p3
249.48 485.92 0.43 c p3
249.62 486.37 0.43 c p3
249.77 486.80 0.43 c p3
249.92 486.72 0.43 c p3
250.06 486.80 0.43 c p3
250.21 487.68 0.43 c p3
250.35 487.78 0.43 c p3
250.50 487.50 0.43 c p3
250.64 487.68 0.43 c p3
250.79 488.91 0.43 c p3
250.94 487.86 0.43 c p3
251.08 488.64 0.43 c p3
251.23 489.26 0.43 c p3
251.37 489.26 0.43 c p3
251.52 490.40 0.43 c p3
251.66 490.85 0.43 c p3
251.81 489.97 0.43 c p3
251.95 491.37 0.43 c p3
252.10 490.49 0.43 c p3
252.25 491.02 0.43 c p3
252.39 492.51 0.43 c p3
252.54 492.06 0.43 c p3
252.68 491.63 0.43 c p3
252.83 492.58 0.43 c p3
252.97 493.46 0.43 c p3
253.12 492.41 0.43 c p3
253.26 493.74 0.43 c p3
253.41 493.81 0.43 c p3
253.56 494.62 0.43 c p3
253.70 493.99 0.43 c p3
253.85 495.65 0.43 c p3
253.99 495.30 0.43 c p3
254.14 495.30 0.43 c p3
254.28 495.12 0.43 c p3
254.43 496.88 0.43 c p3
254.57 496.28 0.43 c p3
254.72 496.35 0.43 c p3
254.87 496.35 0.43 c p3
255.01 497.41 0.43 c p3
255.16 496.53 0.43 c p3
255.30 497.06 0.43 c p3
255.45 498.21 0.43 c p3
255.59 498.37 0.43 c p3
255.74 498.03 0.43 c p3
255.88 499.07 0.43 c p3
256.03 500.12 0.43 c p3
256.18 499.95 0.43 c p3
256.32 499.60 0.43 c p3
256.47 500.48 0.43 c p3
256.61 500.65 0.43 c p3
256.76 500.48 0.43 c p3
256.90 499.60 0.43 c p3
257.05 501.61 0.43 c p3
257.20 500.92 0.43 c p3
257.34 500.65 0.43 c p3
257.49 501.53 0.43 c p3
257.63 501.35 0.43 c p3
257.78 501.28 0.43 c p3
257.92 501.61 0.43 c p3
258.07 503.19 0.43 c p3
258.21 503.19 0.43 c p3
258.36 502.94 0.43 c p3
258.51 502.94 0.43 c p3
258.65 503.54 0.43 c p3
258.80 503.19 0.43 c p3
258.94 503.46 0.43 c p3
259.09 504.07 0.43 c p3
259.23 504.60 0.43 c p3
259.38 505.38 0.43 c p3
259.52 504.42 0.43 c p3
259.67 505.30 0.43 c p3
259.82 505.65 0.43 c p3
259.96 505.73 0.43 c p3
260.11 505.03 0.43 c p3
260.25 506.00 0.43 c p3
260.40 506.96 0.43 c p3
260.54 506.26 0.43 c p3
260.69 506.43 0.43 c p3
260.83 506.26 0.43 c p3
260.98 507.23 0.43 c p3
261.13 506.71 0.43 c p3
261.27 507.59 0.43 c p3
261.42 508.19 0.43 c p3
261.56 508.44 0.43 c p3
261.71 506.53 0.43 c p3
261.85 509.68 0.43 c p3
262.00 509.42 0.43 c p3
262.15 508.11 0.43 c p3
262.29 508.54 0.43 c p3
262.44 508.89 0.43 c p3
262.58 508.89 0.43 c p3
262.73 509.77 0.43 c p3
262.87 509.95 0.43 c p3
263.02 509.95 0.43 c p3
263.16 510.03 0.43 c p3
263.31 509.50 0.43 c p3
263.46 510.83 0.43 c p3
263.60 511.08 0.43 c p3
263.75 511.18 0.43 c p3
263.89 511.18 0.43 c p3
264.04 510.65 0.43 c p3
264.18 511.08 0.43 c p3
264.33 512.00 0.43 c p3
264.47 511.69 0.43 c p3
264.62 511.96 0.43 c p3
264.77 512.00 0.43 c p3
264.91 511.26 0.43 c p3
265.06 512.00 0.43 c p3
265.20 512.00 0.43 c p3
265.35 512.00 0.43 c p3
265.49 512.00 0.43 c p3
265.64 512.00 0.43 c p3
265.78 512.00 0.43 c p3
265.93 512.00 0.43 c p3
266.08 512.00 0.43 c p3
266.22 512.00 0.43 c p3
266.37 512.00 0.43 c p3
266.51 512.00 0.43 c p3
266.66 512.00 0.43 c p3
266.80 512.00 0.43 c p3
266.95 512.00 0.43 c p3
267.10 512.00 0.43 c p3
267.24 512.00 0.43 c p3
267.39 512.00 0.43 c p3
267.53 512.00 0.43 c p3
267.68 512.00 0.43 c p3
267.82 512.00 0.43 c p3
267.97 512.00 0.43 c p3
268.11 512.00 0.43 c p3
268.26 512.00 0.43 c p3
268.41 512.00 0.43 c p3
268.55 512.00 0.43 c p3
268.70 512.00 0.43 c p3
268.84 512.00 0.43 c p3
268.99 512.00 0.43 c p3
269.13 512.00 0.43 c p3
269.28 512.00 0.43 c p3
269.42 512.00 0.43 c p3
269.57 512.00 0.43 c p3
269.72 512.00 0.43 c p3
269.86 512.00 0.43 c p3
270.01 512.00 0.43 c p3
270.15 512.00 0.43 c p3
270.30 512.00 0.43 c p3
270.44 512.00 0.43 c p3
270.59 512.00 0.43 c p3
270.73 512.00 0.43 c p3
270.88 512.00 0.43 c p3
271.03 512.00 0.43 c p3
271.17 512.00 0.43 c p3
271.32 512.00 0.43 c p3
271.46 512.00 0.43 c p3
271.61 512.00 0.43 c p3
271.75 512.00 0.43 c p3
271.90 512.00 0.43 c p3
272.05 512.00 0.43 c p3
272.19 512.00 0.43 c p3
272.34 512.00 0.43 c p3
272.48 512.00 0.43 c p3
272.63 512.00 0.43 c p3
272.77 512.00 0.43 c p3
272.92 512.00 0.43 c p3
273.06 512.00 0.43 c p3
273.21 512.00 0.43 c p3
273.36 512.00 0.43 c p3
273.50 512.00 0.43 c p3
273.65 512.00 0.43 c p3
273.79 512.00 0.43 c p3
273.94 512.00 0.43 c p3
274.08 512.00 0.43 c p3
274.23 512.00 0.43 c p3
274.37 512.00 0.43 c p3
274.52 512.00 0.43 c p3
274.67 512.00 0.43 c p3
274.81 512.00 0.43 c p3
274.96 512.00 0.43 c p3
275.10 512.00 0.43 c p3
275.25 512.00 0.43 c p3
275.39 512.00 0.43 c p3
275.54 512.00 0.43 c p3
275.68 512.00 0.43 c p3
275.83 512.00 0.43 c p3
275.98 512.00 0.43 c p3
276.12 512.00 0.43 c p3
276.27 512.00 0.43 c p3
276.41 512.00 0.43 c p3
276.56 512.00 0.43 c p3
276.70 512.00 0.43 c p3
276.85 512.00 0.43 c p3
277.00 512.00 0.43 c p3
277.14 512.00 0.43 c p3
277.29 512.00 0.43 c p3
277.43 512.00 0.43 c p3
277.58 512.00 0.43 c p3
277.72 512.00 0.43 c p3
277.87 512.00 0.43 c p3
278.01 512.00 0.43 c p3
278.16 512.00 0.43 c p3
278.31 512.00 0.43 c p3
278.45 512.00 0.43 c p3
278.60 512.00 0.43 c p3
278.74 512.00 0.43 c p3
278.89 512.00 0.43 c p3
279.03 512.00 0.43 c p3
279.18 512.00 0.43 c p3
279.32 512.00 0.43 c p3
279.47 512.00 0.43 c p3
279.62 512.00 0.43 c p3
279.76 512.00 0.43 c p3
279.91 512.00 0.43 c p3
280.05 512.00 0.43 c p3
280.20 512.00 0.43 c p3
280.34 512.00 0.43 c p3
280.49 512.00 0.43 c p3
280.63 512.00 0.43 c p3
280.78 512.00 0.43 c p3
280.93 512.00 0.43 c p3
281.07 512.00 0.43 c p3
281.22 512.00 0.43 c p3
281.36 512.00 0.43 c p3
281.51 512.00 0.43 c p3
281.65 512.00 0.43 c p3
281.80 512.00 0.43 c p3
281.95 512.00 0.43 c p3
282.09 512.00 0.43 c p3
282.24 512.00 0.43 c p3
282.38 512.00 0.43 c p3
282.53 512.00 0.43 c p3
282.67 512.00 0.43 c p3
282.82 512.00 0.43 c p3
282.96 512.00 0.43 c p3
283.11 512.00 0.43 c p3
283.26 512.00 0.43 c p3
283.40 512.00 0.43 c p3
283.55 512.00 0.43 c p3
283.69 512.00 0.43 c p3
283.84 512.00 0.43 c p3
283.98 512.00 0.43 c p3
284.13 512.00 0.43 c p3
284.27 512.00 0.43 c p3
284.42 512.00 0.43 c p3
284.57 512.00 0.43 c p3
284.71 512.00 0.43 c p3
284.86 512.00 0.43 c p3
285.00 512.00 0.43 c p3
285.15 512.00 0.43 c p3
285.29 512.00 0.43 c p3
285.44 512.00 0.43 c p3
285.58 512.00 0.43 c p3
285.73 512.00 0.43 c p3
285.88 512.00 0.43 c p3
286.02 512.00 0.43 c p3
286.17 512.00 0.43 c p3
286.31 512.00 0.43 c p3
286.46 512.00 0.43 c p3
286.60 512.00 0.43 c p3
286.75 512.00 0.43 c p3
286.89 512.00 0.43 c p3
287.04 512.00 0.43 c p3
287.19 512.00 0.43 c p3
287.33 512.00 0.43 c p3
287.48 512.00 0.43 c p3
287.62 512.00 0.43 c p3
287.77 512.00 0.43 c p3
287.91 512.00 0.43 c p3
288.06 512.00 0.43 c p3
288.21 512.00 0.43 c p3
288.35 512.00 0.43 c p3
288.50 512.00 0.43 c p3
288.64 512.00 0.43 c p3
288.79 512.00 0.43 c p3
288.93 512.00 0.43 c p3
289.08 512.00 0.43 c p3
289.22 512.00 0.43 c p3
289.37 512.00 0.43 c p3
289.52 512.00 0.43 c p3
289.66 512.00 0.43 c p3
289.81 512.00 0.43 c p3
289.95 512.00 0.43 c p3
290.10 512.00 0.43 c p3
290.24 512.00 0.43 c p3
290.39 512.00 0.43 c p3
290.53 512.00 0.43 c p3
290.68 512.00 0.43 c p3
290.83 512.00 0.43 c p3
290.97 512.00 0.43 c p3
291.12 512.00 0.43 c p3
291.26 512.00 0.43 c p3
291.41 512.00 0.43 c p3
291.55 512.00 0.43 c p3
291.70 512.00 0.43 c p3
291.84 512.00 0.43 c p3
291.99 512.00 0.43 c p3
292.14 512.00 0.43 c p3
292.28 512.00 0.43 c p3
292.43 512.00 0.43 c p3
292.57 512.00 0.43 c p3
292.72 512.00 0.43 c p3
292.86 512.00 0.43 c p3
293.01 512.00 0.43 c p3
293.16 512.00 0.43 c p3
293.30 512.00 0.43 c p3
293.45 512.00 0.43 c p3
293.59 512.00 0.43 c p3
293.74 512.00 0.43 c p3
293.88 512.00 0.43 c p3
294.03 512.00 0.43 c p3
294.17 512.00 0.43 c p3
294.32 512.00 0.43 c p3
294.47 512.00 0.43 c p3
294.61 512.00 0.43 c p3
294.76 512.00 0.43 c p3
294.90 512.00 0.43 c p3
295.05 512.00 0.43 c p3
295.19 512.00 0.43 c p3
295.34 512.00 0.43 c p3
295.48 512.00 0.43 c p3
295.63 512.00 0.43 c p3
295.78 512.00 0.43 c p3
295.92 512.00 0.43 c p3
296.07 512.00 0.43 c p3
296.21 512.00 0.43 c p3
296.36 512.00 0.43 c p3
296.50 512.00 0.43 c p3
296.65 512.00 0.43 c p3
296.79 512.00 0.43 c p3
296.94 512.00 0.43 c p3
297.09 512.00 0.43 c p3
297.23 512.00 0.43 c p3
297.38 512.00 0.43 c p3
297.52 512.00 0.43 c p3
297.67 512.00 0.43 c p3
297.81 512.00 0.43 c p3
297.96 512.00 0.43 c p3
298.11 512.00 0.43 c p3
298.25 512.00 0.43 c p3
298.40 512.00 0.43 c p3
298.54 512.00 0.43 c p3
298.69 512.00 0.43 c p3
298.83 512.00 0.43 c p3
298.98 512.00 0.43 c p3
299.12 512.00 0.43 c p3
299.27 512.00 0.43 c p3
299.42 512.00 0.43 c p3
299.56 512.00 0.43 c p3
299.71 512.00 0.43 c p3
299.85 512.00 0.43 c p3
300.00 512.00 0.43 c p3
300.14 512.00 0.43 c p3
300.29 512.00 0.43 c p3
300.43 512.00 0.43 c p3
300.58 512.00 0.43 c p3
300.73 512.00 0.43 c p3
300.87 512.00 0.43 c p3
301.02 512.00 0.43 c p3
301.16 512.00 0.43 c p3
301.31 512.00 0.43 c p3
301.45 512.00 0.43 c p3
301.60 512.00 0.43 c p3
301.74 512.00 0.43 c p3
301.89 512.00 0.43 c p3
302.04 512.00 0.43 c p3
302.18 512.00 0.43 c p3
302.33 512.00 0.43 c p3
302.47 512.00 0.43 c p3
302.62 512.00 0.43 c p3
302.76 512.00 0.43 c p3
302.91 512.00 0.43 c p3
303.06 512.00 0.43 c p3
303.20 512.00 0.43 c p3
303.35 512.00 0.43 c p3
303.49 512.00 0.43 c p3
303.64 512.00 0.43 c p3
303.78 512.00 0.43 c p3
303.93 512.00 0.43 c p3
304.07 512.00 0.43 c p3
304.22 512.00 0.43 c p3
304.37 512.00 0.43 c p3
304.51 512.00 0.43 c p3
304.66 512.00 0.43 c p3
304.80 512.00 0.43 c p3
304.95 512.00 0.43 c p3
305.09 512.00 0.43 c p3
305.24 512.00 0.43 c p3
305.38 512.00 0.43 c p3
305.53 512.00 0.43 c p3
305.68 512.00 0.43 c p3
305.82 512.00 0.43 c p3
305.97 512.00 0.43 c p3
306.11 512.00 0.43 c p3
306.26 512.00 0.43 c p3
306.40 512.00 0.43 c p3
306.55 512.00 0.43 c p3
306.69 512.00 0.43 c p3
306.84 512.00 0.43 c p3
306.99 512.00 0.43 c p3
307.13 512.00 0.43 c p3
307.28 512.00 0.43 c p3
307.42 512.00 0.43 c p3
307.57 512.00 0.43 c p3
307.71 512.00 0.43 c p3
307.86 512.00 0.43 c p3
308.01 512.00 0.43 c p3
308.15 512.00 0.43 c p3
308.30 512.00 0.43 c p3
308.44 512.00 0.43 c p3
308.59 512.00 0.43 c p3
308.73 512.00 0.43 c p3
308.88 512.00 0.43 c p3
309.02 512.00 0.43 c p3
309.17 512.00 0.43 c p3
309.32 512.00 0.43 c p3
309.46 512.00 0.43 c p3
309.61 512.00 0.43 c p3
309.75 512.00 0.43 c p3
309.90 512.00 0.43 c p3
310.04 512.00 0.43 c p3
310.19 512.00 0.43 c p3
310.33 512.00 0.43 c p3
310.48 512.00 0.43 c p3
310.63 512.00 0.43 c p3
310.77 512.00 0.43 c p3
310.92 512.00 0.43 c p3
311.06 512.00 0.43 c p3
311.21 512.00 0.43 c p3
311.35 512.00 0.43 c p3
311.50 512.00 0.43 c p3
311.64 512.00 0.43 c p3
311.79 512.00 0.43 c p3
311.94 512.00 0.43 c p3
312.08 512.00 0.43 c p3
312.23 512.00 0.43 c p3
312.37 512.00 0.43 c p3
312.52 512.00 0.43 c p3
312.66 512.00 0.43 c p3
312.81 512.00 0.43 c p3
312.96 512.00 0.43 c p3
313.10 512.00 0.43 c p3
313.25 512.00 0.43 c p3
313.39 512.00 0.43 c p3
313.54 512.00 0.43 c p3
313.68 512.00 0.43 c p3
313.83 512.00 0.43 c p3
313.97 512.00 0.43 c p3
314.12 512.00 0.43 c p3
314.27 512.00 0.43 c p3
314.41 512.00 0.43 c p3
314.56 512.00 0.43 c p3
314.70 512.00 0.43 c p3
314.85 512.00 0.43 c p3
314.99 512.00 0.43 c p3
315.14 512.00 0.43 c p3
315.28 512.00 0.43 c p3
315.43 512.00 0.43 c p3
315.58 512.00 0.43 c p3
315.72 512.00 0.43 c p3
315.87 512.00 0.43 c p3
316.01 512.00 0.43 c p3
316.16 512.00 0.43 c p3
316.30 512.00 0.43 c p3
316.45 512.00 0.43 c p3
316.59 512.00 0.43 c p3
316.74 512.00 0.43 c p3
316.89 512.00 0.43 c p3
317.03 512.00 0.43 c p3
317.18 512.00 0.43 c p3
317.32 512.00 0.43 c p3
317.47 512.00 0.43 c p3
317.61 512.00 0.43 c p3
317.76 512.00 0.43 c p3
317.91 512.00 0.43 c p3
318.05 512.00 0.43 c p3
318.20 512.00 0.43 c p3
318.34 512.00 0.43 c p3
318.49 512.00 0.43 c p3
318.63 512.00 0.43 c p3
318.78 512.00 0.43 c p3
318.92 512.00 0.43 c p3
319.07 512.00 0.43 c p3
319.22 512.00 0.43 c p3
319.36 512.00 0.43 c p3
319.51 512.00 0.43 c p3
319.65 512.00 0.43 c p3
319.80 512.00 0.43 c p3
319.94 512.00 0.43 c p3
320.09 512.00 0.43 c p3
320.23 512.00 0.43 c p3
320.38 512.00 0.43 c p3
320.53 512.00 0.43 c p3
320.67 512.00 0.43 c p3
320.82 512.00 0.43 c p3
320.96 512.00 0.43 c p3
321.11 512.00 0.43 c p3
321.25 512.00 0.43 c p3
321.40 512.00 0.43 c p3
321.54 512.00 0.43 c p3
321.69 512.00 0.43 c p3
321.84 512.00 0.43 c p3
321.98 512.00 0.43 c p3
322.13 512.00 0.43 c p3
322.27 512.00 0.43 c p3
322.42 512.00 0.43 c p3
322.56 512.00 0.43 c p3
322.71 512.00 0.43 c p3
322.85 512.00 0.43 c p3
323.00 512.00 0.43 c p3
323.15 512.00 0.43 c p3
323.29 512.00 0.43 c p3
323.44 512.00 0.43 c p3
323.58 512.00 0.43 c p3
323.73 512.00 0.43 c p3
323.87 512.00 0.43 c p3
324.02 512.00 0.43 c p3
324.17 512.00 0.43 c p3
324.31 512.00 0.43 c p3
324.46 512.00 0.43 c p3
324.60 512.00 0.43 c p3
324.75 512.00 0.43 c p3
324.89 512.00 0.43 c p3
325.04 512.00 0.43 c p3
325.18 512.00 0.43 c p3
325.33 512.00 0.43 c p3
325.48 512.00 0.43 c p3
325.62 512.00 0.43 c p3
325.77 512.00 0.43 c p3
325.91 512.00 0.43 c p3
326.06 512.00 0.43 c p3
326.20 512.00 0.43 c p3
326.35 512.00 0.43 c p3
326.49 512.00 0.43 c p3
326.64 512.00 0.43 c p3
326.79 512.00 0.43 c p3
326.93 512.00 0.43 c p3
327.08 512.00 0.43 c p3
327.22 512.00 0.43 c p3
327.37 512.00 0.43 c p3
327.51 512.00 0.43 c p3
327.66 512.00 0.43 c p3
327.80 512.00 0.43 c p3
327.95 512.00 0.43 c p3
328.10 512.00 0.43 c p3
328.24 512.00 0.43 c p3
328.39 512.00 0.43 c p3
328.53 512.00 0.43 c p3
328.68 512.00 0.43 c p3
328.82 512.00 0.43 c p3
328.97 512.00 0.43 c p3
329.12 512.00 0.43 c p3
329.26 512.00 0.43 c p3
329.41 512.00 0.43 c p3
329.55 512.00 0.43 c p3
329.70 512.00 0.43 c p3
329.84 512.00 0.43 c p3
329.99 512.00 0.43 c p3
330.13 512.00 0.43 c p3
330.28 512.00 0.43 c p3
330.43 512.00 0.43 c p3
330.57 512.00 0.43 c p3
330.72 512.00 0.43 c p3
330.86 512.00 0.43 c p3
331.01 512.00 0.43 c p3
331.15 512.00 0.43 c p3
331.30 512.00 0.43 c p3
331.44 512.00 0.43 c p3
331.59 512.00 0.43 c p3
331.74 512.00 0.43 c p3
331.88 512.00 0.43 c p3
332.03 512.00 0.43 c p3
332.17 512.00 0.43 c p3
332.32 512.00 0.43 c p3
332.46 512.00 0.43 c p3
332.61 512.00 0.43 c p3
332.75 512.00 0.43 c p3
332.90 512.00 0.43 c p3
333.05 512.00 0.43 c p3
333.19 512.00 0.43 c p3
333.34 512.00 0.43 c p3
333.48 512.00 0.43 c p3
333.63 512.00 0.43 c p3
333.77 512.00 0.43 c p3
333.92 512.00 0.43 c p3
334.07 512.00 0.43 c p3
334.21 512.00 0.43 c p3
334.36 512.00 0.43 c p3
334.50 512.00 0.43 c p3
334.65 512.00 0.43 c p3
334.79 512.00 0.43 c p3
334.94 512.00 0.43 c p3
335.08 512.00 0.43 c p3
335.23 512.00 0.43 c p3
335.38 512.00 0.43 c p3
335.52 512.00 0.43 c p3
335.67 512.00 0.43 c p3
335.81 512.00 0.43 c p3
335.96 512.00 0.43 c p3
336.10 512.00 0.43 c p3
336.25 512.00 0.43 c p3
336.39 512.00 0.43 c p3
336.54 512.00 0.43 c p3
336.69 512.00 0.43 c p3
336.83 512.00 0.43 c p3
336.98 512.00 0.43 c p3
337.12 512.00 0.43 c p3
337.27 512.00 0.43 c p3
337.41 512.00 0.43 c p3
337.56 512.00 0.43 c p3
337.70 512.00 0.43 c p3
337.85 512.00 0.43 c p3
338.00 512.00 0.43 c p3
338.14 512.00 0.43 c p3
338.29 512.00 0.43 c p3
338.43 512.00 0.43 c p3
338.58 512.00 0.43 c p3
338.72 512.00 0.43 c p3
338.87 512.00 0.43 c p3
339.02 512.00 0.43 c p3
339.16 512.00 0.43 c p3
339.31 512.00 0.43 c p3
339.45 512.00 0.43 c p3
339.60 512.00 0.43 c p3
339.74 512.00 0.43 c p3
339.89 512.00 0.43 c p3
340.03 512.00 0.43 c p3
340.18 512.00 0.43 c p3
340.33 512.00 0.43 c p3
340.47 512.00 0.43 c p3
340.62 512.00 0.43 c p3
340.76 512.00 0.43 c p3
340.91 512.00 0.43 c p3
341.05 512.00 0.43 c p3
341.20 512.00 0.43 c p3
341.34 512.00 0.43 c p3
341.49 512.00 0.43 c p3
341.64 512.00 0.43 c p3
341.78 512.00 0.43 c p3
341.93 512.00 0.43 c p3
342.07 512.00 0.43 c p3
342.22 512.00 0.43 c p3
342.36 512.00 0.43 c p3
342.51 512.00 0.43 c p3
342.65 512.00 0.43 c p3
342.80 512.00 0.43 c p3
342.95 512.00 0.43 c p3
343.09 512.00 0.43 c p3
343.24 512.00 0.43 c p3
343.38 512.00 0.43 c p3
343.53 512.00 0.43 c p3
343.67 512.00 0.43 c p3
343.82 512.00 0.43 c p3
343.97 512.00 0.43 c p3
344.11 512.00 0.43 c p3
344.26 512.00 0.43 c p3
344.40 512.00 0.43 c p3
344.55 512.00 0.43 c p3
344.69 512.00 0.43 c p3
344.84 512.00 0.43 c p3
344.98 512.00 0.43 c p3
345.13 512.00 0.43 c p3
345.28 512.00 0.43 c p3
345.42 512.00 0.43 c p3
345.57 512.00 0.43 c p3
345.71 512.00 0.43 c p3
345.86 512.00 0.43 c p3
346.00 512.00 0.43 c p3
346.15 512.00 0.43 c p3
346.29 512.00 0.43 c p3
346.44 512.00 0.43 c p3
346.59 512.00 0.43 c p3
346.73 512.00 0.43 c p3
346.88 512.00 0.43 c p3
347.02 512.00 0.43 c p3
347.17 512.00 0.43 c p3
347.31 512.00 0.43 c p3
347.46 512.00 0.43 c p3
347.60 512.00 0.43 c p3
347.75 512.00 0.43 c p3
347.90 512.00 0.43 c p3
348.04 512.00 0.43 c p3
348.19 512.00 0.43 c p3
348.33 512.00 0.43 c p3
348.48 512.00 0.43 c p3
348.62 512.00 0.43 c p3
348.77 512.00 0.43 c p3
348.92 512.00 0.43 c p3
349.06 512.00 0.43 c p3
349.21 512.00 0.43 c p3
349.35 512.00 0.43 c p3
349.50 512.00 0.43 c p3
349.64 512.00 0.43 c p3
349.79 512.00 0.43 c p3
349.93 512.00 0.43 c p3
350.08 512.00 0.43 c p3
350.23 512.00 0.43 c p3
350.37 512.00 0.43 c p3
350.52 512.00 0.43 c p3
350.66 512.00 0.43 c p3
350.81 512.00 0.43 c p3
350.95 512.00 0.43 c p3
351.10 512.00 0.43 c p3
351.24 512.00 0.43 c p3
351.39 512.00 0.43 c p3
351.54 512.00 0.43 c p3
351.68 512.00 0.43 c p3
351.83 512.00 0.43 c p3
351.97 512.00 0.43 c p3
352.12 512.00 0.43 c p3
352.26 512.00 0.43 c p3
352.41 512.00 0.43 c p3
352.55 512.00 0.43 c p3
352.70 512.00 0.43 c p3
352.85 512.00 0.43 c p3
352.99 512.00 0.43 c p3
353.14 512.00 0.43 c p3
353.28 512.00 0.43 c p3
353.43 512.00 0.43 c p3
353.57 512.00 0.43 c p3
353.72 512.00 0.43 c p3
353.86 512.00 0.43 c p3
354.01 512.00 0.43 c p3
354.16 512.00 0.43 c p3
354.30 512.00 0.43 c p3
354.45 512.00 0.43 c p3
354.59 512.00 0.43 c p3
354.74 512.00 0.43 c p3
354.88 512.00 0.43 c p3
355.03 512.00 0.43 c p3
355.18 512.00 0.43 c p3
355.32 512.00 0.43 c p3
355.47 512.00 0.43 c p3
355.61 512.00 0.43 c p3
355.76 512.00 0.43 c p3
355.90 512.00 0.43 c p3
356.05 512.00 0.43 c p3
356.19 512.00 0.43 c p3
356.34 512.00 0.43 c p3
356.49 512.00 0.43 c p3
356.63 512.00 0.43 c p3
356.78 512.00 0.43 c p3
356.92 512.00 0.43 c p3
357.07 512.00 0.43 c p3
357.21 512.00 0.43 c p3
357.36 512.00 0.43 c p3
357.50 512.00 0.43 c p3
357.65 512.00 0.43 c p3
357.80 512.00 0.43 c p3
357.94 512.00 0.43 c p3
358.09 512.00 0.43 c p3
358.23 512.00 0.43 c p3
358.38 512.00 0.43 c p3
358.52 512.00 0.43 c p3
358.67 512.00 0.43 c p3
358.81 512.00 0.43 c p3
358.96 512.00 0.43 c p3
359.11 512.00 0.43 c p3
359.25 512.00 0.43 c p3
359.40 512.00 0.43 c p3
359.54 512.00 0.43 c p3
359.69 512.00 0.43 c p3
359.83 512.00 0.43 c p3
359.98 512.00 0.43 c p3
360.13 512.00 0.43 c p3
360.27 512.00 0.43 c p3
360.42 512.00 0.43 c p3
360.56 512.00 0.43 c p3
360.71 512.00 0.43 c p3
360.85 512.00 0.43 c p3
361.00 512.00 0.43 c p3
361.14 512.00 0.43 c p3
361.29 512.00 0.43 c p3
361.44 512.00 0.43 c p3
361.58 512.00 0.43 c p3
361.73 512.00 0.43 c p3
361.87 512.00 0.43 c p3
362.02 512.00 0.43 c p3
362.16 512.00 0.43 c p3
362.31 512.00 0.43 c p3
362.45 512.00 0.43 c p3
362.60 512.00 0.43 c p3
362.75 512.00 0.43 c p3
362.89 512.00 0.43 c p3
363.04 512.00 0.43 c p3
363.18 512.00 0.43 c p3
363.33 512.00 0.43 c p3
363.47 512.00 0.43 c p3
363.62 512.00 0.43 c p3
363.76 512.00 0.43 c p3
363.91 512.00 0.43 c p3
364.06 512.00 0.43 c p3
364.20 512.00 0.43 c p3
364.35 512.00 0.43 c p3
364.49 512.00 0.43 c p3
364.64 512.00 0.43 c p3
364.78 512.00 0.43 c p3
364.93 512.00 0.43 c p3
365.08 512.00 0.43 c p3
365.22 512.00 0.43 c p3
365.37 512.00 0.43 c p3
365.51 512.00 0.43 c p3
365.66 512.00 0.43 c p3
365.80 512.00 0.43 c p3
365.95 512.00 0.43 c p3
366.09 512.00 0.43 c p3
366.24 512.00 0.43 c p3
366.39 512.00 0.43 c p3
366.53 512.00 0.43 c p3
366.68 512.00 0.43 c p3
366.82 512.00 0.43 c p3
366.97 512.00 0.43 c p3
367.11 512.00 0.43 c p3
367.26 512.00 0.43 c p3
367.40 512.00 0.43 c p3
367.55 512.00 0.43 c p3
367.70 512.00 0.43 c p3
367.84 512.00 0.43 c p3
367.99 512.00 0.43 c p3
368.13 512.00 0.43 c p3
368.28 512.00 0.43 c p3
368.42 512.00 0.43 c p3
368.57 512.00 0.43 c p3
368.71 512.00 0.43 c p3
368.86 512.00 0.43 c p3
369.01 512.00 0.43 c p3
369.15 512.00 0.43 c p3
369.30 512.00 0.43 c p3
369.44 512.00 0.43 c p3
369.59 512.00 0.43 c p3
369.73 512.00 0.43 c p3
369.88 512.00 0.43 c p3
370.03 512.00 0.43 c p3
370.17 512.00 0.43 c p3
370.32 512.00 0.43 c p3
370.46 512.00 0.43 c p3
370.61 512.00 0.43 c p3
370.75 512.00 0.43 c p3
370.90 512.00 0.43 c p3
371.04 512.00 0.43 c p3
371.19 512.00 0.43 c p3
371.34 512.00 0.43 c p3
371.48 512.00 0.43 c p3
371.63 512.00 0.43 c p3
371.77 512.00 0.43 c p3
371.92 512.00 0.43 c p3
372.06 512.00 0.43 c p3
372.21 512.00 0.43 c p3
372.35 512.00 0.43 c p3
372.50 512.00 0.43 c p3
372.65 512.00 0.43 c p3
372.79 512.00 0.43 c p3
372.94 512.00 0.43 c p3
373.08 512.00 0.43 c p3
373.23 512.00 0.43 c p3
373.37 512.00 0.43 c p3
373.52 512.00 0.43 c p3
373.66 512.00 0.43 c p3
373.81 512.00 0.43 c p3
373.96 512.00 0.43 c p3
374.10 512.00 0.43 c p3
374.25 512.00 0.43 c p3
374.39 512.00 0.43 c p3
374.54 512.00 0.43 c p3
374.68 512.00 0.43 c p3
374.83 512.00 0.43 c p3
374.98 512.00 0.43 c p3
375.12 512.00 0.43 c p3
375.27 512.00 0.43 c p3
375.41 512.00 0.43 c p3
375.56 512.00 0.43 c p3
375.70 512.00 0.43 c p3
375.85 512.00 0.43 c p3
375.99 512.00 0.43 c p3
376.14 512.00 0.43 c p3
376.29 512.00 0.43 c p3
376.43 512.00 0.43 c p3
376.58 512.00 0.43 c p3
376.72 512.00 0.43 c p3
376.87 512.00 0.43 c p3
377.01 512.00 0.43 c p3
377.16 512.00 0.43 c p3
377.30 512.00 0.43 c p3
377.45 512.00 0.43 c p3
377.60 512.00 0.43 c p3
377.74 512.00 0.43 c p3
377.89 512.00 0.43 c p3
378.03 512.00 0.43 c p3
378.18 512.00 0.43 c p3
378.32 512.00 0.43 c p3
378.47 512.00 0.43 c p3
378.61 512.00 0.43 c p3
378.76 512.00 0.43 c p3
378.91 512.00 0.43 c p3
379.05 512.00 0.43 c p3
379.20 512.00 0.43 c p3
379.34 512.00 0.43 c p3
379.49 512.00 0.43 c p3
379.63 512.00 0.43 c p3
379.78 512.00 0.43 c p3
379.93 512.00 0.43 c p3
380.07 512.00 0.43 c p3
380.22 512.00 0.43 c p3
380.36 512.00 0.43 c p3
380.51 512.00 0.43 c p3
380.65 512.00 0.43 c p3
380.80 512.00 0.43 c p3
380.94 512.00 0.43 c p3
381.09 512.00 0.43 c p3
381.24 512.00 0.43 c p3
381.38 512.00 0.43 c p3
381.53 512.00 0.43 c p3
381.67 512.00 0.43 c p3
381.82 512.00 0.43 c p3
381.96 512.00 0.43 c p3
382.11 512.00 0.43 c p3
382.25 512.00 0.43 c p3
382.40 512.00 0.43 c p3
0.00 0.00 432.00 576.00 cl
0 0 0 srgb
0.75 setlinewidth
[] 0 setdash
1 setlinecap
1 setlinejoin
10.00 setmiterlimit
np
236.96 345.60 m
132.35 0 l
o
np
236.96 345.60 m
0 -5.76 l
o
np
270.05 345.60 m
0 -5.76 l
o
np
303.13 345.60 m
0 -5.76 l
o
np
336.22 345.60 m
0 -5.76 l
o
np
369.31 345.60 m
0 -5.76 l
o
/Font1 findfont 10 s
236.96 329.47 (0) .5 0 t
270.05 329.47 (500) .5 0 t
303.13 329.47 (1000) .5 0 t
336.22 329.47 (1500) .5 0 t
369.31 329.47 (2000) .5 0 t
np
216.00 352.00 m
0 160.01 l
o
np
216.00 352.00 m
-5.76 0 l
o
np
216.00 384.00 m
-5.76 0 l
o
np
216.00 416.01 m
-5.76 0 l
o
np
216.00 448.01 m
-5.76 0 l
o
np
216.00 480.01 m
-5.76 0 l
o
np
216.00 512.01 m
-5.76 0 l
o
209.09 348.41 (0.0) 1 0 t
209.09 380.41 (0.2) 1 0 t
209.09 412.42 (0.4) 1 0 t
209.09 444.42 (0.6) 1 0 t
209.09 476.42 (0.8) 1 0 t
209.09 508.42 (1.0) 1 0 t
np
216.00 345.60 m
172.80 0 l
0 172.80 l
-172.80 0 l
0 -172.80 l
o
0.00 0.00 432.00 576.00 cl
/Font1 findfont 10 s
0 0 0 srgb
302.40 313.34 (Time / ms \(total\)) .5 0 t
190.66 432.00 (U / V) .5 90 t
216.00 345.60 388.80 518.40 cl
0 0 0 srgb
0.38 setlinewidth
[ 1.13 1.88] 0 setdash
1 setlinecap
1 setlinejoin
10.00 setmiterlimit
np
222.98 345.60 m
0 172.80 l
o
np
234.05 345.60 m
0 172.80 l
o
np
237.69 345.60 m
0 172.80 l
o
np
263.89 345.60 m
0 172.80 l
o
86.40 57.60 388.80 288.00 cl
1 0 0 srgb
1.50 setlinewidth
[] 0 setdash
1 setlinecap
1 setlinejoin
10.00 setmiterlimit
np
97.60 279.47 m
1.41 -9.01 l
1.40 -8.62 l
1.41 -8.26 l
1.41 -7.91 l
1.41 -7.57 l
1.40 -7.26 l
1.41 -6.95 l
1.41 -6.66 l
1.40 -6.37 l
1.41 -6.11 l
1.41 -5.85 l
1.40 -5.61 l
1.41 -5.36 l
1.41 -5.14 l
1.41 -4.93 l
1.40 -4.71 l
1.41 -4.52 l
1.41 -4.32 l
1.40 -4.15 l
1.41 -3.97 l
1.41 -3.80 l
1.40 -3.64 l
1.41 -3.49 l
1.41 -3.34 l
1.41 -3.20 l
1.40 -3.06 l
1.41 -2.93 l
1.41 -2.82 l
1.40 -2.69 l
1.41 -2.58 l
1.41 -2.47 l
1.41 -2.36 l
1.40 -2.27 l
1.41 -2.17 l
1.41 -2.08 l
1.40 -1.99 l
1.41 -1.91 l
1.41 -1.82 l
1.40 -1.75 l
1.41 -1.68 l
1.41 -1.61 l
1.41 -1.53 l
1.40 -1.48 l
1.41 -1.41 l
1.41 -1.35 l
1.40 -1.29 l
1.41 -1.24 l
1.41 -1.19 l
1.40 -1.13 l
1.41 -1.09 l
1.41 -1.05 l
1.41 -1.00 l
1.40 -0.95 l
1.41 -0.92 l
1.41 -0.88 l
1.40 -0.84 l
1.41 -0.80 l
1.41 -0.77 l
1.41 -0.74 l
1.40 -0.71 l
1.41 -0.68 l
1.41 -0.65 l
1.40 -0.62 l
1.41 -0.60 l
1.41 -0.57 l
1.40 -0.54 l
1.41 -0.53 l
1.41 -0.50 l
1.41 -0.48 l
1.40 -0.46 l
1.41 -0.44 l
1.41 -0.42 l
1.40 -0.40 l
1.41 -0.39 l
1.41 -0.37 l
1.40 -0.36 l
1.41 -0.34 l
1.41 -0.32 l
1.41 -0.31 l
1.40 -0.30 l
1.41 -0.29 l
1.41 -0.27 l
1.40 -0.27 l
1.41 -0.25 l
1.41 -0.24 l
1.41 -0.23 l
1.40 -0.22 l
1.41 -0.21 l
1.41 -0.20 l
1.40 -0.20 l
1.41 -0.18 l
1.41 -0.18 l
1.40 -0.17 l
1.41 -0.17 l
1.41 -0.15 l
1.41 -0.15 l
1.40 -0.15 l
1.41 -0.13 l
1.41 -0.14 l
238.30 68.96 lineto
1.41 -0.12 l
1.41 -0.12 l
1.40 -0.11 l
1.41 -0.11 l
1.41 -0.10 l
1.41 -0.10 l
1.40 -0.09 l
1.41 -0.09 l
1.41 -0.08 l
1.40 -0.09 l
1.41 -0.07 l
1.41 -0.08 l
1.40 -0.07 l
1.41 -0.07 l
1.41 -0.07 l
1.41 -0.06 l
1.40 -0.06 l
1.41 -0.06 l
1.41 -0.05 l
1.40 -0.06 l
1.41 -0.05 l
1.41 -0.05 l
1.41 -0.04 l
1.40 -0.05 l
1.41 -0.04 l
1.41 -0.04 l
1.40 -0.04 l
1.41 -0.04 l
1.41 -0.04 l
1.40 -0.03 l
1.41 -0.03 l
1.41 -0.04 l
1.41 -0.03 l
1.40 -0.03 l
1.41 -0.02 l
1.41 -0.03 l
1.40 -0.03 l
1.41 -0.02 l
1.41 -0.02 l
1.40 -0.03 l
1.41 -0.02 l
1.41 -0.02 l
1.41 -0.02 l
1.40 -0.02 l
1.41 -0.02 l
1.41 -0.01 l
1.40 -0.02 l
1.41 -0.02 l
1.41 -0.01 l
1.41 -0.01 l
1.40 -0.02 l
1.41 -0.01 l
1.41 -0.02 l
1.40 -0.01 l
1.41 -0.01 l
1.41 -0.01 l
1.40 -0.01 l
1.41 -0.01 l
1.41 -0.01 l
1.41 -0.01 l
1.40 -0.01 l
1.41 -0.01 l
1.41 -0.01 l
1.40 -0.01 l
1.41 0 l
1.41 -0.01 l
1.40 -0.01 l
1.41 0 l
1.41 -0.01 l
1.41 -0.01 l
1.40 0 l
1.41 -0.01 l
1.41 0 l
1.40 -0.01 l
1.41 0 l
1.41 -0.01 l
1.41 0 l
1.40 -0.01 l
1.41 0 l
1.41 -0.01 l
1.40 0 l
1.41 0 l
1.41 -0.01 l
1.40 0 l
1.41 0 l
1.41 -0.01 l
1.41 0 l
1.40 0 l
1.41 -0.01 l
1.41 0 l
1.40 0 l
1.41 0 l
1.41 0 l
1.40 -0.01 l
1.41 0 l
1.41 0 l
1.41 0 l
1.40 0 l
1.41 -0.01 l
o
0.00 0.00 432.00 576.00 cl
0 0 0 srgb
0.75 setlinewidth
[] 0 setdash
1 setlinecap
1 setlinejoin
10.00 setmiterlimit
np
97.60 57.60 m
254.55 0 l
o
np
97.60 57.60 m
0 -5.76 l
o
np
161.24 57.60 m
0 -5.76 l
o
np
224.87 57.60 m
0 -5.76 l
o
np
288.51 57.60 m
0 -5.76 l
o
np
352.15 57.60 m
0 -5.76 l
o
/Font1 findfont 10 s
97.60 41.47 (0) .5 0 t
161.24 41.47 (500) .5 0 t
224.87 41.47 (1000) .5 0 t
288.51 41.47 (1500) .5 0 t
352.15 41.47 (2000) .5 0 t
np
86.40 68.73 m
0 191.04 l
o
np
86.40 68.73 m
-5.76 0 l
o
np
86.40 106.94 m
-5.76 0 l
o
np
86.40 145.15 m
-5.76 0 l
o
np
86.40 183.35 m
-5.76 0 l
o
np
86.40 221.56 m
-5.76 0 l
o
np
86.40 259.77 m
-5.76 0 l
o
79.49 65.14 (-0.05) 1 0 t
79.49 103.35 (0.00) 1 0 t
79.49 141.56 (0.05) 1 0 t
79.49 179.76 (0.10) 1 0 t
79.49 217.97 (0.15) 1 0 t
79.49 256.18 (0.20) 1 0 t
np
86.40 57.60 m
302.40 0 l
0 230.40 l
-302.40 0 l
0 -230.40 l
o
0.00 0.00 432.00 576.00 cl
/Font1 findfont 10 s
0 0 0 srgb
237.60 13.82 (Time / ms \(after pulse\)) .5 0 t
49.54 172.80 (Absorbance A) .5 90 t
86.40 57.60 388.80 288.00 cl
/bg { 1 1 1 srgb } def
0 0 0 srgb
0.75 setlinewidth
[] 0 setdash
1 setlinecap
1 setlinejoin
10.00 setmiterlimit
99.28 269.62 0.65 c p3
99.56 266.39 0.65 c p3
99.84 266.39 0.65 c p3
100.12 261.45 0.65 c p3
100.40 261.71 0.65 c p3
100.68 258.56 0.65 c p3
100.96 259.97 0.65 c p3
101.24 257.67 0.65 c p3
101.52 256.52 0.65 c p3
101.80 253.99 0.65 c p3
102.08 252.85 0.65 c p3
102.36 250.91 0.65 c p3
102.64 248.35 0.65 c p3
102.92 249.47 0.65 c p3
103.20 245.57 0.65 c p3
103.48 242.57 0.65 c p3
103.76 243.37 0.65 c p3
104.04 243.37 0.65 c p3
104.32 239.84 0.65 c p3
104.60 236.89 0.65 c p3
104.88 239.84 0.65 c p3
105.16 236.59 0.65 c p3
105.44 232.07 0.65 c p3
105.72 232.31 0.65 c p3
106.00 233.14 0.65 c p3
106.28 229.95 0.65 c p3
106.56 226.27 0.65 c p3
106.84 226.80 0.65 c p3
107.12 226.80 0.65 c p3
107.40 223.15 0.65 c p3
107.68 221.66 0.65 c p3
107.96 223.44 0.65 c p3
108.24 221.89 0.65 c p3
108.52 216.27 0.65 c p3
108.80 218.07 0.65 c p3
109.08 214.25 0.65 c p3
109.36 214.25 0.65 c p3
109.64 211.51 0.65 c p3
109.92 212.74 0.65 c p3
110.20 211.51 0.65 c p3
110.48 209.03 0.65 c p3
110.76 207.54 0.65 c p3
111.04 209.52 0.65 c p3
111.32 206.34 0.65 c p3
111.60 204.59 0.65 c p3
111.88 203.18 0.65 c p3
112.16 203.61 0.65 c p3
112.44 200.48 0.65 c p3
112.72 196.91 0.65 c p3
113.00 198.56 0.65 c p3
113.28 198.56 0.65 c p3
113.56 194.73 0.65 c p3
113.84 195.47 0.65 c p3
114.12 195.47 0.65 c p3
114.40 192.42 0.65 c p3
114.68 190.54 0.65 c p3
114.96 191.01 0.65 c p3
115.24 191.48 0.65 c p3
115.52 189.13 0.65 c p3
115.80 187.94 0.65 c p3
116.08 187.94 0.65 c p3
116.36 187.94 0.65 c p3
116.64 182.66 0.65 c p3
116.92 183.12 0.65 c p3
117.20 184.03 0.65 c p3
117.48 181.74 0.65 c p3
117.76 181.54 0.65 c p3
118.04 182.20 0.65 c p3
118.32 179.92 0.65 c p3
118.60 181.74 0.65 c p3
118.88 175.66 0.65 c p3
119.16 175.66 0.65 c p3
119.44 175.66 0.65 c p3
119.72 172.98 0.65 c p3
120.00 172.98 0.65 c p3
120.28 172.53 0.65 c p3
120.56 170.56 0.65 c p3
120.84 171.45 0.65 c p3
121.12 169.88 0.65 c p3
121.40 169.00 0.65 c p3
121.68 167.73 0.65 c p3
121.96 165.98 0.65 c p3
122.24 164.87 0.65 c p3
122.52 163.81 0.65 c p3
122.80 164.00 0.65 c p3
123.08 163.81 0.65 c p3
123.36 161.65 0.65 c p3
123.64 161.41 0.65 c p3
123.92 162.08 0.65 c p3
124.20 161.65 0.65 c p3
124.48 158.66 0.65 c p3
124.76 161.22 0.65 c p3
125.04 159.32 0.65 c p3
125.32 157.81 0.65 c p3
125.60 157.81 0.65 c p3
125.88 155.08 0.65 c p3
126.16 154.00 0.65 c p3
126.44 156.11 0.65 c p3
126.72 152.74 0.65 c p3
127.00 154.84 0.65 c p3
127.28 153.58 0.65 c p3
127.56 150.06 0.65 c p3
127.84 151.12 0.65 c p3
128.12 152.14 0.65 c p3
128.40 149.87 0.65 c p3
128.68 147.80 0.65 c p3
128.96 150.29 0.65 c p3
129.24 147.16 0.65 c p3
129.52 146.98 0.65 c p3
129.80 145.11 0.65 c p3
130.08 146.57 0.65 c p3
130.36 142.71 0.65 c p3
130.64 143.52 0.65 c p3
130.92 143.52 0.65 c p3
131.20 143.93 0.65 c p3
131.48 139.88 0.65 c p3
131.76 141.27 0.65 c p3
132.04 141.09 0.65 c p3
132.32 141.09 0.65 c p3
132.60 138.67 0.65 c p3
132.88 140.69 0.65 c p3
133.16 139.48 0.65 c p3
133.44 136.85 0.65 c p3
133.72 136.50 0.65 c p3
134.00 137.25 0.65 c p3
134.28 134.91 0.65 c p3
134.56 132.54 0.65 c p3
134.84 132.93 0.65 c p3
135.12 133.72 0.65 c p3
135.40 131.75 0.65 c p3
135.68 131.36 0.65 c p3
135.96 131.75 0.65 c p3
136.24 133.72 0.65 c p3
136.52 129.23 0.65 c p3
136.80 130.75 0.65 c p3
137.08 131.36 0.65 c p3
137.36 129.40 0.65 c p3
137.64 129.79 0.65 c p3
137.92 129.96 0.65 c p3
138.20 129.23 0.65 c p3
138.48 125.73 0.65 c p3
138.76 125.73 0.65 c p3
139.04 126.29 0.65 c p3
139.32 126.29 0.65 c p3
139.60 124.96 0.65 c p3
139.88 125.73 0.65 c p3
140.16 125.13 0.65 c p3
140.44 123.81 0.65 c p3
140.72 122.66 0.65 c p3
141.00 120.97 0.65 c p3
141.28 123.04 0.65 c p3
141.56 121.14 0.65 c p3
141.84 120.38 0.65 c p3
142.12 120.21 0.65 c p3
142.40 121.73 0.65 c p3
142.68 119.62 0.65 c p3
142.96 117.56 0.65 c p3
143.24 119.07 0.65 c p3
143.52 118.69 0.65 c p3
143.80 119.07 0.65 c p3
144.08 116.98 0.65 c p3
144.36 118.11 0.65 c p3
144.64 116.22 0.65 c p3
144.92 114.94 0.65 c p3
145.20 114.40 0.65 c p3
145.48 118.48 0.65 c p3
145.76 111.80 0.65 c p3
146.04 112.33 0.65 c p3
146.32 115.10 0.65 c p3
146.60 114.19 0.65 c p3
146.88 113.44 0.65 c p3
147.16 113.44 0.65 c p3
147.44 111.59 0.65 c p3
147.72 111.22 0.65 c p3
148.00 111.22 0.65 c p3
148.28 111.06 0.65 c p3
148.56 112.17 0.65 c p3
148.84 109.38 0.65 c p3
149.12 108.85 0.65 c p3
149.40 108.65 0.65 c p3
149.68 108.65 0.65 c p3
216.00 201.60 367.20 247.68 cl
0 0 0 srgb
0.75 setlinewidth
[] 0 setdash
1 setlinecap
1 setlinejoin
10.00 setmiterlimit
221.60 228.10 0.43 c p1
222.38 222.06 0.43 c p1
223.16 229.00 0.43 c p1
223.93 215.89 0.43 c p1
224.71 223.76 0.43 c p1
225.49 217.79 0.43 c p1
226.27 230.20 0.43 c p1
227.04 227.53 0.43 c p1
227.82 229.49 0.43 c p1
228.60 225.78 0.43 c p1
229.38 227.67 0.43 c p1
230.16 226.23 0.43 c p1
230.93 222.28 0.43 c p1
231.71 233.12 0.43 c p1
232.49 223.61 0.43 c p1
233.27 217.68 0.43 c p1
234.04 227.05 0.43 c p1
234.82 233.15 0.43 c p1
235.60 224.94 0.43 c p1
236.38 219.01 0.43 c p1
237.16 236.89 0.43 c p1
237.93 229.65 0.43 c p1
238.71 217.21 0.43 c p1
239.49 223.96 0.43 c p1
240.27 233.06 0.43 c p1
241.04 225.88 0.43 c p1
241.82 216.66 0.43 c p1
242.60 224.37 0.43 c p1
243.38 229.93 0.43 c p1
244.16 220.70 0.43 c p1
244.93 220.13 0.43 c p1
245.71 232.74 0.43 c p1
246.49 231.83 0.43 c p1
247.27 214.41 0.43 c p1
248.04 227.00 0.43 c p1
248.82 216.74 0.43 c p1
249.60 221.93 0.43 c p1
250.38 216.02 0.43 c p1
251.16 226.07 0.43 c p1
251.93 226.17 0.43 c p1
252.71 221.11 0.43 c p1
253.49 220.08 0.43 c p1
254.27 233.01 0.43 c p1
255.04 225.01 0.43 c p1
255.82 222.80 0.43 c p1
256.60 221.89 0.43 c p1
257.38 228.40 0.43 c p1
258.16 220.46 0.43 c p1
258.93 210.67 0.43 c p1
259.71 221.98 0.43 c p1
260.49 226.58 0.43 c p1
261.27 215.68 0.43 c p1
262.04 223.20 0.43 c p1
262.82 227.68 0.43 c p1
263.60 219.77 0.43 c p1
264.38 216.56 0.43 c p1
265.16 222.83 0.43 c p1
265.93 229.06 0.43 c p1
266.71 223.88 0.43 c p1
267.49 223.31 0.43 c p1
268.27 227.53 0.43 c p1
269.04 231.72 0.43 c p1
269.82 214.49 0.43 c p1
270.60 220.46 0.43 c p1
271.38 228.26 0.43 c p1
272.16 223.03 0.43 c p1
272.93 226.22 0.43 c p1
273.71 232.86 0.43 c p1
274.49 227.58 0.43 c p1
275.27 238.86 0.43 c p1
276.04 218.12 0.43 c p1
276.82 221.96 0.43 c p1
277.60 225.77 0.43 c p1
278.38 218.70 0.43 c p1
279.16 222.45 0.43 c p1
279.93 224.36 0.43 c p1
280.71 220.07 0.43 c p1
281.49 227.30 0.43 c p1
282.27 224.56 0.43 c p1
283.04 224.59 0.43 c p1
283.82 223.02 0.43 c p1
284.60 219.48 0.43 c p1
285.38 218.48 0.43 c p1
286.16 217.65 0.43 c p1
286.93 221.87 0.43 c p1
287.71 224.50 0.43 c p1
288.49 219.15 0.43 c p1
289.27 221.53 0.43 c p1
290.04 227.56 0.43 c p1
290.82 229.11 0.43 c p1
291.60 220.25 0.43 c p1
292.38 233.87 0.43 c p1
293.16 229.38 0.43 c p1
293.93 226.43 0.43 c p1
294.71 229.59 0.43 c p1
295.49 221.68 0.43 c p1
296.27 220.43 0.43 c p1
297.04 232.03 0.43 c p1
297.82 221.46 0.43 c p1
298.60 232.97 0.43 c p1
299.38 230.87 0.43 c p1
300.16 219.58 0.43 c p1
300.93 226.82 0.43 c p1
301.71 233.86 0.43 c p1
302.49 227.59 0.43 c p1
303.27 222.09 0.43 c p1
304.04 234.98 0.43 c p1
304.82 225.16 0.43 c p1
305.60 227.22 0.43 c p1
306.38 222.43 0.43 c p1
307.16 231.08 0.43 c p1
307.93 218.20 0.43 c p1
308.71 224.19 0.43 c p1
309.49 226.87 0.43 c p1
310.27 231.17 0.43 c p1
311.04 217.42 0.43 c p1
311.82 225.65 0.43 c p1
312.60 227.51 0.43 c p1
313.38 230.08 0.43 c p1
314.16 222.85 0.43 c p1
314.93 233.51 0.43 c p1
315.71 231.13 0.43 c p1
316.49 222.98 0.43 c p1
317.27 224.01 0.43 c p1
318.04 229.49 0.43 c p1
318.82 222.43 0.43 c p1
319.60 215.23 0.43 c p1
320.38 219.20 0.43 c p1
321.16 224.75 0.43 c p1
321.93 219.12 0.43 c p1
322.71 219.84 0.43 c p1
323.49 223.73 0.43 c p1
324.27 233.97 0.43 c p1
325.04 218.06 0.43 c p1
325.82 226.44 0.43 c p1
326.60 231.13 0.43 c p1
327.38 225.41 0.43 c p1
328.16 229.17 0.43 c p1
328.93 232.04 0.43 c p1
329.71 231.20 0.43 c p1
330.49 219.20 0.43 c p1
331.27 221.31 0.43 c p1
332.04 225.65 0.43 c p1
332.82 227.72 0.43 c p1
333.60 224.40 0.43 c p1
334.38 229.56 0.43 c p1
335.16 229.15 0.43 c p1
335.93 225.80 0.43 c p1
336.71 223.13 0.43 c p1
337.49 218.24 0.43 c p1
338.27 228.60 0.43 c p1
339.04 222.81 0.43 c p1
339.82 221.65 0.43 c p1
340.60 222.87 0.43 c p1
341.38 230.91 0.43 c p1
342.16 224.24 0.43 c p1
342.93 217.78 0.43 c p1
343.71 225.72 0.43 c p1
344.49 226.01 0.43 c p1
345.27 229.34 0.43 c p1
346.04 222.66 0.43 c p1
346.82 229.01 0.43 c p1
347.60 223.16 0.43 c p1
348.38 219.69 0.43 c p1
349.16 219.24 0.43 c p1
349.93 237.48 0.43 c p1
350.71 212.14 0.43 c p1
351.49 215.99 0.43 c p1
352.27 228.86 0.43 c p1
353.04 226.83 0.43 c p1
353.82 225.46 0.43 c p1
354.60 227.09 0.43 c p1
355.38 221.21 0.43 c p1
356.16 221.31 0.43 c p1
356.93 222.90 0.43 c p1
357.71 223.81 0.43 c p1
358.49 229.86 0.43 c p1
359.27 220.13 0.43 c p1
360.04 219.52 0.43 c p1
360.82 220.22 0.43 c p1
361.60 221.73 0.43 c p1
0.00 0.00 432.00 576.00 cl
0 0 0 srgb
0.75 setlinewidth
[] 0 setdash
1 setlinecap
1 setlinejoin
10.00 setmiterlimit
np
216.93 201.60 m
141.42 0 l
o
np
216.93 201.60 m
0 -5.76 l
o
np
252.29 201.60 m
0 -5.76 l
o
np
287.64 201.60 m
0 -5.76 l
o
np
322.99 201.60 m
0 -5.76 l
o
np
358.35 201.60 m
0 -5.76 l
o
/Font1 findfont 6 s
216.93 185.47 (0) .5 0 t
252.29 185.47 (100) .5 0 t
287.64 185.47 (200) .5 0 t
322.99 185.47 (300) .5 0 t
358.35 185.47 (400) .5 0 t
np
216.00 206.09 m
0 37.10 l
o
np
216.00 206.09 m
-5.76 0 l
o
np
216.00 212.28 m
-5.76 0 l
o
np
216.00 218.46 m
-5.76 0 l
o
np
216.00 224.64 m
-5.76 0 l
o
np
216.00 230.82 m
-5.76 0 l
o
np
216.00 237.00 m
-5.76 0 l
o
np
216.00 243.19 m
-5.76 0 l
o
209.09 203.94 (-0.006) 1 0 t
209.09 210.12 (-0.004) 1 0 t
209.09 216.30 (-0.002) 1 0 t
209.09 222.49 (0.000) 1 0 t
209.09 228.67 (0.002) 1 0 t
209.09 234.85 (0.004) 1 0 t
209.09 241.03 (0.006) 1 0 t
np
216.00 201.60 m
151.20 0 l
0 46.08 l
-151.20 0 l
0 -46.08 l
o
0.00 0.00 432.00 576.00 cl
/Font1 findfont 9 s
0 0 0 srgb
291.60 262.88 (Residuals) .5 0 t
59.04 73.44 401.76 516.96 cl
ep
%%Trailer
%%Pages: 1
%%EOF
