%!PS-Adobe-3.0 EPSF-3.0
%%DocumentNeededResources: font Helvetica
%%+ font Helvetica-Bold
%%+ font Helvetica-Oblique
%%+ font Helvetica-BoldOblique
%%+ font Symbol
%%Title: R Graphics Output
%%Creator: R Software
%%Pages: (atend)
%%BoundingBox: 0 0 432 576
%%EndComments
%%BeginProlog
/bp  { gs sRGB gs } def
% begin .ps.prolog
/gs  { gsave } bind def
/gr  { grestore } bind def
/ep  { showpage gr gr } bind def
/m   { moveto } bind def
/l  { rlineto } bind def
/np  { newpath } bind def
/cp  { closepath } bind def
/f   { fill } bind def
/o   { stroke } bind def
/c   { newpath 0 360 arc } bind def
/r   { 4 2 roll moveto 1 copy 3 -1 roll exch 0 exch rlineto 0 rlineto -1 mul 0 exch rlineto closepath } bind def
/p1  { stroke } bind def
/p2  { gsave bg fill grestore newpath } bind def
/p3  { gsave bg fill grestore stroke } bind def
/p6  { gsave bg eofill grestore newpath } bind def
/p7  { gsave bg eofill grestore stroke } bind def
/t   { 5 -2 roll moveto gsave rotate
       1 index stringwidth pop
       mul neg 0 rmoveto show grestore } bind def
/ta  { 4 -2 roll moveto gsave rotate show } bind def
/tb  { 2 -1 roll 0 rmoveto show } bind def
/cl  { grestore gsave newpath 3 index 3 index moveto 1 index
       4 -1 roll lineto  exch 1 index lineto lineto
       closepath clip newpath } bind def
/rgb { setrgbcolor } bind def
/s   { scalefont setfont } bind def
% end   .ps.prolog
/sRGB { [ /CIEBasedABC
          << /DecodeLMN
               [ { dup 0.03928 le
                        {12.92321 div}
                        {0.055 add 1.055 div 2.4 exp }
                     ifelse
                 } bind dup dup
               ]
             /MatrixLMN [0.412457 0.212673 0.019334
                         0.357576 0.715152 0.119192
                         0.180437 0.072175 0.950301]
             /WhitePoint [0.9505 1.0 1.0890]
           >>
         ] setcolorspace } bind def
/srgb { setcolor } bind def
% begin encoding
/WinAnsiEncoding [
 /.notdef /.notdef /.notdef /.notdef /.notdef /.notdef /.notdef /.notdef
 /.notdef /.notdef /.notdef /.notdef /.notdef /.notdef /.notdef /.notdef
 /.notdef /.notdef /.notdef /.notdef /.notdef /.notdef /.notdef /.notdef
 /.notdef /.notdef /.notdef /.notdef /.notdef /.notdef /.notdef /.notdef
 /space /exclam /quotedbl /numbersign /dollar /percent /ampersand /quoteright
 /parenleft /parenright /asterisk /plus /comma /minus /period /slash
 /zero /one /two /three /four /five /six /seven
 /eight /nine /colon /semicolon /less /equal /greater /question
 /at /A /B /C /D /E /F /G
 /H /I /J /K /L /M /N /O
 /P /Q /R /S /T /U /V /W
 /X /Y /Z /bracketleft /backslash /bracketright /asciicircum /underscore
 /grave /a /b /c /d /e /f /g
 /h /i /j /k /l /m /n /o
 /p /q /r /s /t /u /v /w
 /x /y /z /braceleft /bar /braceright /asciitilde /.notdef
 /Euro /.notdef /quotesinglbase /florin /quotedblbase /ellipsis /dagger /daggerdbl
 /circumflex /perthousand /Scaron /guilsinglleft /OE /.notdef /Zcaron /.notdef
 /.notdef /quoteleft /quoteright /quotedblleft /quotedblright /bullet /endash /emdash
 /tilde /trademark /scaron /guilsinglright /oe /.notdef /zcaron /Ydieresis
 /space /exclamdown /cent /sterling /currency /yen /brokenbar /section
 /dieresis /copyright /ordfeminine /guillemotleft /logicalnot /hyphen /registered /macron
 /degree /plusminus /twosuperior /threesuperior /acute /mu /paragraph /periodcentered
 /cedilla /onesuperior /ordmasculine /guillemotright /onequarter /onehalf /threequarters /questiondown
 /Agrave /Aacute /Acircumflex /Atilde /Adieresis /Aring /AE /Ccedilla
 /Egrave /Eacute /Ecircumflex /Edieresis /Igrave /Iacute /Icircumflex /Idieresis
 /Eth /Ntilde /Ograve /Oacute /Ocircumflex /Otilde /Odieresis /multiply
 /Oslash /Ugrave /Uacute /Ucircumflex /Udieresis /Yacute /Thorn /germandbls
 /agrave /aacute /acircumflex /atilde /adieresis /aring /ae /ccedilla
 /egrave /eacute /ecircumflex /edieresis /igrave /iacute /icircumflex /idieresis
 /eth /ntilde /ograve /oacute /ocircumflex /otilde /odieresis /divide
 /oslash /ugrave /uacute /ucircumflex /udieresis /yacute /thorn /ydieresis
]
 def
% end encoding
%%IncludeResource: font Helvetica
/Helvetica findfont
dup length dict begin
  {1 index /FID ne {def} {pop pop} ifelse} forall
  /Encoding WinAnsiEncoding def
  currentdict
  end
/Font1 exch definefont pop
%%IncludeResource: font Helvetica-Bold
/Helvetica-Bold findfont
dup length dict begin
  {1 index /FID ne {def} {pop pop} ifelse} forall
  /Encoding WinAnsiEncoding def
  currentdict
  end
/Font2 exch definefont pop
%%IncludeResource: font Helvetica-Oblique
/Helvetica-Oblique findfont
dup length dict begin
  {1 index /FID ne {def} {pop pop} ifelse} forall
  /Encoding WinAnsiEncoding def
  currentdict
  end
/Font3 exch definefont pop
%%IncludeResource: font Helvetica-BoldOblique
/Helvetica-BoldOblique findfont
dup length dict begin
  {1 index /FID ne {def} {pop pop} ifelse} forall
  /Encoding WinAnsiEncoding def
  currentdict
  end
/Font4 exch definefont pop
%%IncludeResource: font Symbol
/Symbol findfont
dup length dict begin
  {1 index /FID ne {def} {pop pop} ifelse} forall
  currentdict
  end
/Font5 exch definefont pop
%%EndProlog
%%Page: 1 1
bp
/bg { 1 1 1 srgb } def
0.00 0.00 432.00 576.00 r p2
0.00 0.00 432.00 576.00 cl
0.00 0.00 432.00 576.00 cl
0.00 0.00 432.00 576.00 cl
/Font1 findfont 12 s
0 0 0 srgb
48.00 508.72 (PCP-ETH) 0 0 t
48.00 494.89 (Flash light photolysis) 0 0 t
/Font1 findfont 9 s
48.00 457.54 (File: In) 0 ta
-0.180 (v) tb
-0.225 (estigation_1_MSLM.dat) tb gr
48.00 334.87 (W) 0 ta
-0.270 (ed Mar 02 10:31:51 2022) tb gr
48.00 430.87 (Fit function:  a + b * e) 0 ta
-0.270 (xp\(-c * t\)) tb gr
48.00 420.50 (t-Inter) 0 ta
0.270 (v) tb
-0.225 (all: 17.600 ... 1953.600 ms) tb gr
48.00 410.14 (P) 0 ta
-0.360 (ar) tb
-0.090 (ameters \(Standard de) tb
-0.270 (viation\):) tb gr
48.00 399.77 (  a = 0.01026 \(0.00016\)) 0 0 t
48.00 389.40 (  b = 0.31412 \(0.00038\)) 0 0 t
48.00 379.03 (  c = 2.456e+00 \(6.290e-03\) s^-1) 0 0 t
48.00 368.66 (  tau = 4.072e-01 \(1.043e-03\) s) 0 0 t
216.00 345.60 388.80 518.40 cl
0 0 0 srgb
0.75 setlinewidth
[] 0 setdash
1 setlinecap
1 setlinejoin
10.00 setmiterlimit
np
222.40 510.82 m
0.15 0 l
0.14 0.36 l
0.15 -0.47 l
0.14 1.11 l
0.15 -0.82 l
0.14 -0.55 l
0.15 0.26 l
0.14 0 l
0.15 -0.18 l
0.15 -0.08 l
0.14 0.18 l
0.15 0.64 l
0.14 -0.37 l
0.15 0.37 l
0.14 -0.19 l
0.15 0.29 l
0.14 -1.02 l
0.15 0.92 l
0.15 -0.56 l
0.14 0.29 l
0.15 -0.47 l
0.14 0.84 l
0.15 0.26 l
0.14 -0.81 l
0.15 0.26 l
0.15 -0.08 l
0.14 -0.47 l
0.15 -0.26 l
0.14 -0.29 l
0.15 0.92 l
0.14 -0.19 l
0.15 0.74 l
0.14 -0.92 l
0.15 -0.08 l
0.15 0.55 l
0.14 0.63 l
0.15 -0.81 l
0.14 -0.47 l
0.15 1.28 l
0.14 -0.45 l
0.15 0 l
0.14 -0.73 l
0.15 -0.18 l
0.15 0.63 l
0.14 -0.08 l
0.15 -0.47 l
0.14 0.18 l
0.15 0.55 l
0.14 0.19 l
0.15 0.73 l
0.14 -0.55 l
0.15 -0.74 l
0.15 0.29 l
0.14 0.08 l
0.15 -0.08 l
0.14 -0.18 l
0.15 -0.11 l
0.14 0.92 l
0.15 0.10 l
0.15 -0.18 l
0.14 -0.47 l
0.15 -0.45 l
0.14 -0.55 l
0.15 0.82 l
0.14 0.18 l
0.15 0.74 l
0.14 -1.47 l
0.15 0.83 l
0.15 0.64 l
0.14 -0.27 l
0.15 -0.92 l
0.14 0.45 l
0.15 -0.55 l
0.14 -0.37 l
0.15 1.02 l
0.14 0.19 l
0.15 -1.21 l
0.15 0.74 l
0.14 0.83 l
0.15 -0.83 l
0.14 -0.08 l
0.15 0 l
0.14 -0.55 l
0.15 0.73 l
0.14 0.08 l
0.15 -0.63 l
0.15 0.37 l
0.14 -0.37 l
0.15 0.82 l
0.14 -1.00 l
0.15 0.26 l
0.14 -0.08 l
0.15 0.55 l
0.15 0.08 l
0.14 -1.10 l
0.15 0.73 l
0.14 0.74 l
0.15 -1.37 l
0.14 0.74 l
236.96 425.54 lineto
0.14 0.09 l
0.15 1.30 l
0.15 0.81 l
0.14 -1.28 l
0.15 1.57 l
0.14 -0.18 l
0.15 1.36 l
0.14 -0.28 l
0.15 0.28 l
0.14 0.37 l
0.15 0.19 l
0.15 0.26 l
0.14 0.37 l
0.15 1.39 l
0.14 -0.92 l
0.15 0.63 l
0.14 0.45 l
0.15 0.18 l
0.14 0.10 l
0.15 0.27 l
0.15 1.10 l
0.14 0.29 l
0.15 -0.66 l
0.14 0.92 l
0.15 0.66 l
0.14 -0.74 l
0.15 -0.28 l
0.15 2.10 l
0.14 -0.82 l
0.15 -0.26 l
0.14 1.55 l
0.15 0.81 l
0.14 -0.36 l
0.15 -0.37 l
0.14 1.10 l
0.15 -0.55 l
0.15 0.29 l
0.14 0.91 l
0.15 1.00 l
0.14 -0.10 l
0.15 -0.45 l
0.14 0.74 l
0.15 0.45 l
0.14 0.18 l
0.15 -0.55 l
0.15 1.02 l
0.14 1.18 l
0.15 -0.55 l
0.14 0.19 l
0.15 -0.19 l
0.14 0.66 l
0.15 0.26 l
0.14 -0.08 l
0.15 1.00 l
0.15 0.37 l
0.14 -0.47 l
0.15 0.28 l
0.14 0.82 l
0.15 -0.37 l
0.14 -0.18 l
0.15 1.20 l
0.15 0.45 l
0.14 -0.26 l
0.15 0.63 l
0.14 1.10 l
0.15 -0.10 l
0.14 -0.18 l
0.15 0.73 l
0.14 -0.08 l
0.15 -0.29 l
0.15 0.11 l
0.14 0.73 l
0.15 0.45 l
0.14 -0.27 l
0.15 1.11 l
0.14 -0.29 l
0.15 0.10 l
0.14 1.27 l
0.15 -0.37 l
0.15 0.29 l
0.14 0.26 l
0.15 -0.81 l
0.14 1.28 l
0.15 1.00 l
0.14 -0.37 l
0.15 -0.36 l
0.14 0.73 l
0.15 0 l
0.15 -0.26 l
0.14 0.63 l
0.15 1.10 l
0.14 0 l
0.15 -0.63 l
0.14 1.82 l
0.15 -0.09 l
0.15 -0.91 l
0.14 0.55 l
0.15 0.81 l
0.14 0.19 l
251.52 453.93 lineto
0.14 0.92 l
0.15 0.73 l
0.14 -0.73 l
0.15 -0.08 l
0.15 1.00 l
0.14 0.63 l
0.15 -0.82 l
0.14 1.37 l
0.15 -0.26 l
0.14 -0.37 l
0.15 1.00 l
0.14 -0.27 l
0.15 1.11 l
0.15 -0.66 l
0.14 1.02 l
0.15 0 l
0.14 0.19 l
0.15 0.36 l
0.14 -0.46 l
0.15 0.28 l
0.14 0 l
0.15 0.45 l
0.15 1.10 l
0.14 0.27 l
0.15 -1.00 l
0.14 0.26 l
0.15 0.29 l
0.14 0.63 l
0.15 0.37 l
0.14 0.37 l
0.15 -0.19 l
0.15 0.29 l
0.14 -0.10 l
0.15 0.91 l
0.14 -0.55 l
0.15 0.74 l
0.14 0.10 l
0.15 0.63 l
0.15 -0.28 l
0.14 -0.08 l
0.15 0.26 l
0.14 0.65 l
0.15 -0.10 l
0.14 0 l
0.15 0.84 l
0.14 -0.74 l
0.15 0.74 l
0.15 -0.29 l
0.14 0.84 l
0.15 -0.10 l
0.14 0.28 l
0.15 0.64 l
0.14 0.36 l
0.15 -1.00 l
0.14 1.64 l
0.15 -0.90 l
0.15 0.71 l
0.14 -0.08 l
0.15 0.37 l
0.14 -0.10 l
0.15 -0.37 l
0.14 1.02 l
0.15 -0.18 l
0.14 -0.37 l
0.15 1.55 l
0.15 -0.27 l
0.14 0 l
0.15 0.64 l
0.14 -0.08 l
0.15 0.26 l
0.14 -0.37 l
0.15 0.37 l
0.15 0.92 l
0.14 -1.00 l
0.15 0.37 l
0.14 0.81 l
0.15 0.37 l
0.14 0.08 l
0.15 -0.45 l
0.14 0 l
0.15 -0.63 l
0.15 1.37 l
0.14 -1.19 l
0.15 1.37 l
0.14 -0.73 l
0.15 1.00 l
0.14 0.18 l
0.15 0.65 l
0.14 0.19 l
0.15 0 l
0.15 0 l
0.14 -0.19 l
0.15 1.45 l
0.14 -0.45 l
0.15 0.37 l
0.14 0 l
0.15 -0.55 l
0.14 0.37 l
0.15 0.63 l
266.08 473.55 lineto
0.14 0.45 l
0.15 -0.82 l
0.14 1.18 l
0.15 0.45 l
0.14 0.55 l
0.15 -0.26 l
0.15 -0.47 l
0.14 0.28 l
0.15 0.09 l
0.14 0.73 l
0.15 -0.27 l
0.14 0.74 l
0.15 0 l
0.14 0.90 l
0.15 -1.45 l
0.15 1.00 l
0.14 -0.63 l
0.15 0.18 l
0.14 0.82 l
0.15 0.18 l
0.14 0.55 l
0.15 -1.10 l
0.14 -0.08 l
0.15 0.18 l
0.15 0.82 l
0.14 0.26 l
0.15 -0.55 l
0.14 -0.08 l
0.15 0.37 l
0.14 -0.19 l
0.15 0.82 l
0.14 0.65 l
0.15 -0.36 l
0.15 0.55 l
0.14 0.63 l
0.15 -0.82 l
0.14 -0.28 l
0.15 1.57 l
0.14 -1.57 l
0.15 1.10 l
0.15 -0.45 l
0.14 0.92 l
0.15 1.00 l
0.14 -0.63 l
0.15 0 l
0.14 -0.19 l
0.15 0.27 l
0.14 -0.74 l
0.15 2.21 l
0.15 -1.47 l
0.14 -0.08 l
0.15 0.89 l
0.14 0.29 l
0.15 -1.55 l
0.14 0.71 l
0.15 0.19 l
0.14 0.65 l
0.15 0.37 l
0.15 0.73 l
0.14 0 l
0.15 -1.57 l
0.14 1.20 l
0.15 0.27 l
0.14 0 l
0.15 -0.37 l
0.14 1.74 l
0.15 -0.82 l
0.15 -0.08 l
0.14 0 l
0.15 0.73 l
0.14 -0.18 l
0.15 -0.92 l
0.14 0.08 l
0.15 1.11 l
0.15 -0.09 l
0.14 0.82 l
0.15 0.63 l
0.14 -1.18 l
0.15 -0.10 l
0.14 1.39 l
0.15 -1.39 l
0.14 0.28 l
0.15 0.27 l
0.15 -0.08 l
0.14 0.55 l
0.15 0 l
0.14 0.73 l
0.15 -0.65 l
0.14 -0.73 l
0.15 0.10 l
0.14 0.63 l
0.15 0.29 l
0.15 -0.66 l
0.14 1.29 l
0.15 -0.37 l
0.14 1.10 l
0.15 -1.00 l
0.14 0.45 l
0.15 0 l
280.63 485.63 lineto
0.15 0.92 l
0.15 0.55 l
0.14 -0.65 l
0.15 0.55 l
0.14 0.28 l
0.15 -0.10 l
0.14 0.18 l
0.15 -0.73 l
0.15 -0.45 l
0.14 1.18 l
0.15 0.37 l
0.14 0.82 l
0.15 -0.27 l
0.14 -0.73 l
0.15 -0.37 l
0.14 0.18 l
0.15 -0.36 l
0.15 0.81 l
0.14 0.47 l
0.15 -0.65 l
0.14 0.37 l
0.15 1.10 l
0.14 -0.18 l
0.15 -0.64 l
0.14 1.37 l
0.15 -0.92 l
0.15 0.10 l
0.14 0.74 l
0.15 -0.74 l
0.14 -0.28 l
0.15 0.83 l
0.14 0.56 l
0.15 -0.37 l
0.14 -0.74 l
0.15 0.92 l
0.15 -0.37 l
0.14 -0.10 l
0.15 0.74 l
0.14 -0.19 l
0.15 -0.81 l
0.14 1.28 l
0.15 0.19 l
0.14 -0.19 l
0.15 -0.47 l
0.15 0.11 l
0.14 -0.47 l
0.15 1.20 l
0.14 0.27 l
0.15 -0.55 l
0.14 0.18 l
0.15 -0.45 l
0.15 1.00 l
0.14 -0.18 l
0.15 -1.00 l
0.14 1.00 l
0.15 0.45 l
0.14 -0.64 l
0.15 0.82 l
0.14 -0.08 l
0.15 0.18 l
0.15 -0.65 l
0.14 1.57 l
0.15 -1.10 l
0.14 0.45 l
0.15 0.28 l
0.14 0.19 l
0.15 -0.37 l
0.14 -0.29 l
0.15 0.66 l
0.15 -0.29 l
0.14 0.84 l
0.15 -0.29 l
0.14 -0.26 l
0.15 -0.56 l
0.14 1.92 l
0.15 -0.18 l
0.14 -0.92 l
0.15 0.18 l
0.15 0.19 l
0.14 0 l
0.15 -0.27 l
0.14 -0.65 l
0.15 1.29 l
0.14 0.18 l
0.15 -0.92 l
0.15 1.10 l
0.14 0 l
0.15 -0.26 l
0.14 -0.37 l
0.15 0 l
0.14 -0.29 l
0.15 0.29 l
0.14 1.74 l
0.15 -0.11 l
0.15 0.19 l
0.14 -1.27 l
0.15 0.37 l
0.14 0.53 l
0.15 -0.71 l
295.19 494.96 lineto
0.15 -0.08 l
0.14 -0.47 l
0.15 0.28 l
0.15 1.19 l
0.14 -0.09 l
0.15 -1.10 l
0.14 -0.37 l
0.15 1.00 l
0.14 -0.81 l
0.15 -0.37 l
0.14 0.82 l
0.15 0.73 l
0.15 -0.18 l
0.14 -0.19 l
0.15 -0.63 l
0.14 0 l
0.15 0.08 l
0.14 0 l
0.15 0.66 l
0.15 0.08 l
0.14 0.37 l
0.15 -0.82 l
0.14 0.26 l
0.15 1.11 l
0.14 -0.92 l
0.15 0.28 l
0.14 -0.18 l
0.15 -0.18 l
0.15 0 l
0.14 0.55 l
0.15 1.73 l
0.14 -1.47 l
0.15 -0.45 l
0.14 1.37 l
0.15 -1.55 l
0.14 -0.37 l
0.15 0.64 l
0.15 1.10 l
0.14 -0.74 l
0.15 0 l
0.14 0.92 l
0.15 -0.18 l
0.14 -0.19 l
0.15 -0.63 l
0.14 0 l
0.15 0.45 l
0.15 0 l
0.14 1.29 l
0.15 -0.19 l
0.14 -0.81 l
0.15 0.91 l
0.14 -0.91 l
0.15 -0.11 l
0.15 0.56 l
0.14 -0.64 l
0.15 0.82 l
0.14 -0.55 l
0.15 0.55 l
0.14 0.10 l
0.15 -0.18 l
0.14 -0.74 l
0.15 1.10 l
0.15 -0.28 l
0.14 -0.18 l
0.15 0.36 l
0.14 -0.73 l
0.15 0.73 l
0.14 1.19 l
0.15 -0.45 l
0.14 0 l
0.15 -0.64 l
0.15 0.54 l
0.14 -0.09 l
0.15 0.64 l
0.14 -0.45 l
0.15 -0.47 l
0.14 0.73 l
0.15 0.19 l
0.14 -0.19 l
0.15 -0.26 l
0.15 -0.10 l
0.14 0 l
0.15 -0.09 l
0.14 0.27 l
0.15 0 l
0.14 -0.08 l
0.15 -0.19 l
0.15 1.37 l
0.14 -1.10 l
0.15 1.02 l
0.14 -0.74 l
0.15 0.45 l
0.14 -0.08 l
0.15 -0.65 l
0.14 1.39 l
0.15 -1.11 l
0.15 0.82 l
0.14 -0.08 l
0.15 -0.74 l
309.75 499.26 lineto
0.15 -0.45 l
0.14 0.27 l
0.15 0.10 l
0.14 0.63 l
0.15 -0.08 l
0.15 0.08 l
0.14 0.11 l
0.15 -0.84 l
0.14 0.92 l
0.15 -0.08 l
0.14 -0.19 l
0.15 0.74 l
0.14 0.37 l
0.15 -1.21 l
0.15 1.39 l
0.14 -0.18 l
0.15 -1.84 l
0.14 0.08 l
0.15 -0.18 l
0.14 1.47 l
0.15 0.36 l
0.15 -0.45 l
0.14 -0.55 l
0.15 0.82 l
0.14 -0.18 l
0.15 -0.92 l
0.14 0.73 l
0.15 0.10 l
0.14 0.64 l
0.15 -0.37 l
0.15 -0.63 l
0.14 0.55 l
0.15 0 l
0.14 0.45 l
0.15 -1.11 l
0.14 0.19 l
0.15 -0.08 l
0.14 1.28 l
0.15 -0.47 l
0.15 -0.18 l
0.14 0.65 l
0.15 -0.55 l
0.14 -0.10 l
0.15 0.55 l
0.14 0.74 l
0.15 -0.56 l
0.14 0 l
0.15 -0.44 l
0.15 0.44 l
0.14 0.19 l
0.15 -0.10 l
0.14 -1.56 l
0.15 1.11 l
0.14 0.28 l
0.15 -0.28 l
0.15 0.36 l
0.14 0.37 l
0.15 0.08 l
0.14 -0.89 l
0.15 1.26 l
0.14 0.55 l
0.15 -1.81 l
0.14 0.71 l
0.15 0.18 l
0.15 -0.45 l
0.14 1.47 l
0.15 -0.91 l
0.14 0.08 l
0.15 -0.64 l
0.14 0.09 l
0.15 0.36 l
0.14 -0.08 l
0.15 0.08 l
0.15 0.66 l
0.14 -0.55 l
0.15 -0.37 l
0.14 0 l
0.15 0.37 l
0.14 0.55 l
0.15 -0.55 l
0.14 -0.11 l
0.15 0.29 l
0.15 -0.10 l
0.14 0.55 l
0.15 -0.63 l
0.14 0.08 l
0.15 0.28 l
0.14 0.55 l
0.15 -0.28 l
0.14 0.28 l
0.15 -0.65 l
0.15 0.84 l
0.14 -0.47 l
0.15 0.18 l
0.14 0.66 l
0.15 -0.47 l
0.14 -0.37 l
0.15 0.65 l
0.15 -0.28 l
324.31 502.57 lineto
0.15 -0.84 l
0.14 1.76 l
0.15 -0.37 l
0.14 -0.10 l
0.15 0.18 l
0.14 0.11 l
0.15 -0.84 l
0.15 -0.55 l
0.14 0.28 l
0.15 0.74 l
0.14 0.81 l
0.15 -1.10 l
0.14 0.29 l
0.15 0.63 l
0.14 -0.45 l
0.15 0.19 l
0.15 -0.19 l
0.14 -0.73 l
0.15 0.92 l
0.14 0 l
0.15 0 l
0.14 -0.37 l
0.15 0.45 l
0.14 -0.92 l
0.15 1.20 l
0.15 -0.18 l
0.14 -0.47 l
0.15 -0.45 l
0.14 0.63 l
0.15 1.11 l
0.14 -1.37 l
0.15 0.37 l
0.15 0.44 l
0.14 -0.26 l
0.15 0.08 l
0.14 -0.63 l
0.15 0.26 l
0.14 -0.18 l
0.15 0.37 l
0.14 0.65 l
0.15 -0.55 l
0.15 -0.55 l
0.14 1.18 l
0.15 -0.55 l
0.14 0.37 l
0.15 -0.37 l
0.14 -0.26 l
0.15 0.73 l
0.14 0.90 l
0.15 -1.00 l
0.15 0.65 l
0.14 -1.28 l
0.15 0 l
0.14 -0.29 l
0.15 0.47 l
0.14 0 l
0.15 0.37 l
0.14 0 l
0.15 0.36 l
0.15 -0.28 l
0.14 0.18 l
0.15 0.55 l
0.14 -0.92 l
0.15 -0.18 l
0.14 0.18 l
0.15 0.74 l
0.15 0.82 l
0.14 0.10 l
0.15 -1.37 l
0.14 -0.10 l
0.15 -0.19 l
0.14 0.66 l
0.15 -1.10 l
0.14 0.08 l
0.15 0.28 l
0.15 0.55 l
0.14 0.27 l
0.15 -0.45 l
0.14 0.63 l
0.15 -0.18 l
0.14 -0.27 l
0.15 0 l
0.14 -0.73 l
0.15 0.73 l
0.15 0.64 l
0.14 -0.19 l
0.15 0 l
0.14 0.10 l
0.15 0 l
0.14 -0.46 l
0.15 -1.84 l
0.14 1.57 l
0.15 0.82 l
0.15 0.36 l
0.14 -0.18 l
0.15 0.18 l
0.14 -0.73 l
0.15 0.73 l
0.14 -0.10 l
338.87 505.22 lineto
0.15 -0.63 l
0.14 -0.10 l
0.15 1.28 l
0.14 -1.73 l
0.15 0.90 l
0.14 0.18 l
0.15 0.10 l
0.14 -0.81 l
0.15 -0.47 l
0.15 1.00 l
0.14 0.37 l
0.15 -1.00 l
0.14 1.55 l
0.15 -0.74 l
0.14 -0.35 l
0.15 0.45 l
0.14 0.45 l
0.15 0 l
0.15 -0.36 l
0.14 -1.09 l
0.15 1.27 l
0.14 -0.45 l
0.15 0.92 l
0.14 -0.84 l
0.15 0 l
0.14 0 l
0.15 -0.18 l
0.15 -0.17 l
0.14 -0.28 l
0.15 1.65 l
0.14 -0.92 l
0.15 1.00 l
0.14 -0.45 l
0.15 -0.28 l
0.15 -0.45 l
0.14 0.73 l
0.15 -0.46 l
0.14 -0.19 l
0.15 0.47 l
0.14 0.08 l
0.15 0.92 l
0.14 -0.73 l
0.15 -1.09 l
0.15 0.64 l
0.14 -0.19 l
0.15 0.55 l
0.14 -0.10 l
0.15 -0.63 l
0.14 0.37 l
0.15 -0.19 l
0.14 1.37 l
0.15 -1.55 l
0.15 1.18 l
0.14 -0.81 l
0.15 -0.29 l
0.14 0.65 l
0.15 0.37 l
0.14 -0.73 l
0.15 0.92 l
0.14 -0.47 l
0.15 -0.37 l
0.15 0.37 l
0.14 -0.45 l
0.15 0.08 l
0.14 0.84 l
0.15 -0.19 l
0.14 -0.37 l
0.15 1.11 l
0.15 -0.66 l
0.14 -0.36 l
0.15 -0.37 l
0.14 1.10 l
0.15 -0.63 l
0.14 -1.55 l
0.15 1.81 l
0.14 0.74 l
0.15 0.47 l
0.15 -1.29 l
0.14 0.08 l
0.15 -0.26 l
0.14 -0.29 l
0.15 -0.08 l
0.14 0.18 l
0.15 -0.10 l
0.14 0.55 l
0.15 0.29 l
0.15 -0.18 l
0.14 0 l
0.15 -0.19 l
0.14 0.19 l
0.15 -0.37 l
0.14 -0.29 l
0.15 0.55 l
0.14 0.66 l
0.15 -0.37 l
0.15 -0.10 l
0.14 -0.37 l
0.15 0.84 l
0.14 -0.19 l
353.43 505.96 lineto
0.14 0.08 l
0.15 -0.08 l
0.14 0.26 l
0.15 -0.08 l
0.15 1.37 l
0.14 -1.47 l
0.15 -0.18 l
0.14 -0.09 l
0.15 -0.18 l
0.14 0.27 l
0.15 1.38 l
0.15 -0.47 l
0.14 0.19 l
0.15 -0.63 l
0.14 0.08 l
0.15 0.18 l
0.14 0.84 l
0.15 -0.84 l
0.14 -1.00 l
0.15 1.47 l
0.15 -0.10 l
0.14 0.47 l
0.15 -0.47 l
0.14 -0.63 l
0.15 0.44 l
0.14 0.19 l
0.15 -1.47 l
0.14 0.55 l
0.15 0.47 l
0.15 0.63 l
0.14 -0.08 l
0.15 -0.73 l
0.14 1.18 l
0.15 -0.27 l
0.14 -0.28 l
0.15 -0.92 l
0.14 1.65 l
0.15 0.47 l
0.15 -1.47 l
0.14 0.37 l
0.15 -0.18 l
0.14 -0.29 l
0.15 0.47 l
0.14 -0.65 l
0.15 0.83 l
0.15 -0.65 l
0.14 0.84 l
0.15 -0.47 l
0.14 0.65 l
0.15 -0.84 l
0.14 0.74 l
0.15 -0.27 l
0.14 -0.18 l
0.15 -0.18 l
0.15 -0.19 l
0.14 0 l
0.15 0.19 l
0.14 1.00 l
0.15 -0.45 l
0.14 -0.47 l
0.15 0 l
0.14 -0.74 l
0.15 0.47 l
0.15 0.27 l
0.14 -0.27 l
0.15 1.11 l
0.14 -1.21 l
0.15 1.10 l
0.14 -0.55 l
0.15 0.74 l
0.14 -0.08 l
0.15 -1.29 l
0.15 0.18 l
0.14 0.55 l
0.15 -1.20 l
0.14 0.47 l
0.15 1.73 l
0.14 -1.10 l
0.15 0.84 l
0.15 -0.92 l
0.14 -0.29 l
0.15 1.11 l
0.14 -1.11 l
0.15 0.92 l
0.14 0.11 l
0.15 -0.74 l
0.14 0.27 l
0.15 0 l
0.15 0.65 l
0.14 -0.92 l
0.15 0.27 l
0.14 -0.19 l
0.15 0 l
0.14 -0.55 l
0.15 1.21 l
0.14 -0.11 l
0.15 -0.63 l
0.15 0.08 l
0.14 0.55 l
currentpoint o m
367.99 507.88 lineto
0.14 -0.92 l
0.15 0.84 l
0.14 -0.29 l
0.15 -0.45 l
0.14 0.45 l
0.15 0.47 l
0.15 0.71 l
0.14 -1.63 l
0.15 -0.73 l
0.14 0.55 l
0.15 1.10 l
0.14 0.08 l
0.15 -0.26 l
0.15 0.44 l
0.14 -0.26 l
0.15 0.35 l
0.14 -0.35 l
0.15 -1.02 l
0.14 0.55 l
0.15 0.10 l
0.14 0.63 l
0.15 -0.44 l
0.15 0.81 l
0.14 -0.73 l
0.15 0.10 l
0.14 -0.10 l
0.15 -0.08 l
0.14 0.18 l
0.15 0.63 l
0.14 -0.18 l
0.15 -0.37 l
0.15 -0.08 l
0.14 -0.74 l
0.15 0.64 l
0.14 0.73 l
0.15 -0.73 l
0.14 -0.08 l
0.15 0.53 l
0.14 -0.53 l
0.15 0.36 l
0.15 0.45 l
0.14 -1.00 l
0.15 0.19 l
0.14 0.36 l
0.15 -1.02 l
0.14 0.84 l
0.15 -0.10 l
0.15 0.28 l
0.14 0.35 l
0.15 0.65 l
0.14 -0.36 l
0.15 -0.29 l
0.14 -0.35 l
0.15 -0.55 l
0.14 0.27 l
0.15 -0.37 l
0.15 0.29 l
0.14 0.18 l
0.15 0.35 l
0.14 -0.35 l
0.15 0.18 l
0.14 -0.65 l
0.15 1.29 l
0.14 -1.74 l
0.15 0.82 l
0.15 1.00 l
0.14 -0.72 l
0.15 -0.73 l
0.14 1.00 l
0.15 0.73 l
0.14 -0.28 l
0.15 -0.27 l
0.14 -1.10 l
0.15 0.92 l
0.15 0.26 l
0.14 -0.18 l
0.15 0.10 l
0.14 -0.18 l
0.15 0.37 l
0.14 -0.92 l
0.15 1.18 l
0.15 -0.55 l
0.14 0.47 l
0.15 0 l
0.14 -1.37 l
0.15 0.82 l
0.14 1.28 l
0.15 -1.65 l
0.14 0.10 l
0.15 0.35 l
0.15 -1.74 l
0.14 1.11 l
0.15 1.28 l
0.14 -0.55 l
0.15 0.45 l
0.14 -0.37 l
0.15 -0.18 l
0.14 -0.08 l
0.15 -0.82 l
o
/bg { 1 1 1 srgb } def
222.40 510.82 0.43 c p3
222.55 510.82 0.43 c p3
222.69 511.18 0.43 c p3
222.84 510.71 0.43 c p3
222.98 511.82 0.43 c p3
223.13 511.00 0.43 c p3
223.27 510.45 0.43 c p3
223.42 510.71 0.43 c p3
223.56 510.71 0.43 c p3
223.71 510.53 0.43 c p3
223.86 510.45 0.43 c p3
224.00 510.63 0.43 c p3
224.15 511.27 0.43 c p3
224.29 510.90 0.43 c p3
224.44 511.27 0.43 c p3
224.58 511.08 0.43 c p3
224.73 511.37 0.43 c p3
224.87 510.35 0.43 c p3
225.02 511.27 0.43 c p3
225.17 510.71 0.43 c p3
225.31 511.00 0.43 c p3
225.46 510.53 0.43 c p3
225.60 511.37 0.43 c p3
225.75 511.63 0.43 c p3
225.89 510.82 0.43 c p3
226.04 511.08 0.43 c p3
226.19 511.00 0.43 c p3
226.33 510.53 0.43 c p3
226.48 510.27 0.43 c p3
226.62 509.98 0.43 c p3
226.77 510.90 0.43 c p3
226.91 510.71 0.43 c p3
227.06 511.45 0.43 c p3
227.20 510.53 0.43 c p3
227.35 510.45 0.43 c p3
227.50 511.00 0.43 c p3
227.64 511.63 0.43 c p3
227.79 510.82 0.43 c p3
227.93 510.35 0.43 c p3
228.08 511.63 0.43 c p3
228.22 511.18 0.43 c p3
228.37 511.18 0.43 c p3
228.51 510.45 0.43 c p3
228.66 510.27 0.43 c p3
228.81 510.90 0.43 c p3
228.95 510.82 0.43 c p3
229.10 510.35 0.43 c p3
229.24 510.53 0.43 c p3
229.39 511.08 0.43 c p3
229.53 511.27 0.43 c p3
229.68 512.00 0.43 c p3
229.82 511.45 0.43 c p3
229.97 510.71 0.43 c p3
230.12 511.00 0.43 c p3
230.26 511.08 0.43 c p3
230.41 511.00 0.43 c p3
230.55 510.82 0.43 c p3
230.70 510.71 0.43 c p3
230.84 511.63 0.43 c p3
230.99 511.73 0.43 c p3
231.14 511.55 0.43 c p3
231.28 511.08 0.43 c p3
231.43 510.63 0.43 c p3
231.57 510.08 0.43 c p3
231.72 510.90 0.43 c p3
231.86 511.08 0.43 c p3
232.01 511.82 0.43 c p3
232.15 510.35 0.43 c p3
232.30 511.18 0.43 c p3
232.45 511.82 0.43 c p3
232.59 511.55 0.43 c p3
232.74 510.63 0.43 c p3
232.88 511.08 0.43 c p3
233.03 510.53 0.43 c p3
233.17 510.16 0.43 c p3
233.32 511.18 0.43 c p3
233.46 511.37 0.43 c p3
233.61 510.16 0.43 c p3
233.76 510.90 0.43 c p3
233.90 511.73 0.43 c p3
234.05 510.90 0.43 c p3
234.19 510.82 0.43 c p3
234.34 510.82 0.43 c p3
234.48 510.27 0.43 c p3
234.63 511.00 0.43 c p3
234.77 511.08 0.43 c p3
234.92 510.45 0.43 c p3
235.07 510.82 0.43 c p3
235.21 510.45 0.43 c p3
235.36 511.27 0.43 c p3
235.50 510.27 0.43 c p3
235.65 510.53 0.43 c p3
235.79 510.45 0.43 c p3
235.94 511.00 0.43 c p3
236.09 511.08 0.43 c p3
236.23 509.98 0.43 c p3
236.38 510.71 0.43 c p3
236.52 511.45 0.43 c p3
236.67 510.08 0.43 c p3
236.81 510.82 0.43 c p3
236.96 425.54 0.43 c p3
237.10 425.63 0.43 c p3
237.25 426.93 0.43 c p3
237.40 427.74 0.43 c p3
237.54 426.46 0.43 c p3
237.69 428.03 0.43 c p3
237.83 427.85 0.43 c p3
237.98 429.21 0.43 c p3
238.12 428.93 0.43 c p3
238.27 429.21 0.43 c p3
238.41 429.58 0.43 c p3
238.56 429.77 0.43 c p3
238.71 430.03 0.43 c p3
238.85 430.40 0.43 c p3
239.00 431.79 0.43 c p3
239.14 430.87 0.43 c p3
239.29 431.50 0.43 c p3
239.43 431.95 0.43 c p3
239.58 432.13 0.43 c p3
239.72 432.23 0.43 c p3
239.87 432.50 0.43 c p3
240.02 433.60 0.43 c p3
240.16 433.89 0.43 c p3
240.31 433.23 0.43 c p3
240.45 434.15 0.43 c p3
240.60 434.81 0.43 c p3
240.74 434.07 0.43 c p3
240.89 433.79 0.43 c p3
241.04 435.89 0.43 c p3
241.18 435.07 0.43 c p3
241.33 434.81 0.43 c p3
241.47 436.36 0.43 c p3
241.62 437.17 0.43 c p3
241.76 436.81 0.43 c p3
241.91 436.44 0.43 c p3
242.05 437.54 0.43 c p3
242.20 436.99 0.43 c p3
242.35 437.28 0.43 c p3
242.49 438.19 0.43 c p3
242.64 439.19 0.43 c p3
242.78 439.09 0.43 c p3
242.93 438.64 0.43 c p3
243.07 439.38 0.43 c p3
243.22 439.83 0.43 c p3
243.36 440.01 0.43 c p3
243.51 439.46 0.43 c p3
243.66 440.48 0.43 c p3
243.80 441.66 0.43 c p3
243.95 441.11 0.43 c p3
244.09 441.30 0.43 c p3
244.24 441.11 0.43 c p3
244.38 441.77 0.43 c p3
244.53 442.03 0.43 c p3
244.67 441.95 0.43 c p3
244.82 442.95 0.43 c p3
244.97 443.32 0.43 c p3
245.11 442.85 0.43 c p3
245.26 443.13 0.43 c p3
245.40 443.95 0.43 c p3
245.55 443.58 0.43 c p3
245.69 443.40 0.43 c p3
245.84 444.60 0.43 c p3
245.99 445.05 0.43 c p3
246.13 444.79 0.43 c p3
246.28 445.42 0.43 c p3
246.42 446.52 0.43 c p3
246.57 446.42 0.43 c p3
246.71 446.24 0.43 c p3
246.86 446.97 0.43 c p3
247.00 446.89 0.43 c p3
247.15 446.60 0.43 c p3
247.30 446.71 0.43 c p3
247.44 447.44 0.43 c p3
247.59 447.89 0.43 c p3
247.73 447.62 0.43 c p3
247.88 448.73 0.43 c p3
248.02 448.44 0.43 c p3
248.17 448.54 0.43 c p3
248.31 449.81 0.43 c p3
248.46 449.44 0.43 c p3
248.61 449.73 0.43 c p3
248.75 449.99 0.43 c p3
248.90 449.18 0.43 c p3
249.04 450.46 0.43 c p3
249.19 451.46 0.43 c p3
249.33 451.09 0.43 c p3
249.48 450.73 0.43 c p3
249.62 451.46 0.43 c p3
249.77 451.46 0.43 c p3
249.92 451.20 0.43 c p3
250.06 451.83 0.43 c p3
250.21 452.93 0.43 c p3
250.35 452.93 0.43 c p3
250.50 452.30 0.43 c p3
250.64 454.12 0.43 c p3
250.79 454.03 0.43 c p3
250.94 453.12 0.43 c p3
251.08 453.67 0.43 c p3
251.23 454.48 0.43 c p3
251.37 454.67 0.43 c p3
251.52 453.93 0.43 c p3
251.66 454.85 0.43 c p3
251.81 455.58 0.43 c p3
251.95 454.85 0.43 c p3
252.10 454.77 0.43 c p3
252.25 455.77 0.43 c p3
252.39 456.40 0.43 c p3
252.54 455.58 0.43 c p3
252.68 456.95 0.43 c p3
252.83 456.69 0.43 c p3
252.97 456.32 0.43 c p3
253.12 457.32 0.43 c p3
253.26 457.05 0.43 c p3
253.41 458.16 0.43 c p3
253.56 457.50 0.43 c p3
253.70 458.52 0.43 c p3
253.85 458.52 0.43 c p3
253.99 458.71 0.43 c p3
254.14 459.07 0.43 c p3
254.28 458.61 0.43 c p3
254.43 458.89 0.43 c p3
254.57 458.89 0.43 c p3
254.72 459.34 0.43 c p3
254.87 460.44 0.43 c p3
255.01 460.71 0.43 c p3
255.16 459.71 0.43 c p3
255.30 459.97 0.43 c p3
255.45 460.26 0.43 c p3
255.59 460.89 0.43 c p3
255.74 461.26 0.43 c p3
255.88 461.63 0.43 c p3
256.03 461.44 0.43 c p3
256.18 461.73 0.43 c p3
256.32 461.63 0.43 c p3
256.47 462.54 0.43 c p3
256.61 461.99 0.43 c p3
256.76 462.73 0.43 c p3
256.90 462.83 0.43 c p3
257.05 463.46 0.43 c p3
257.20 463.18 0.43 c p3
257.34 463.10 0.43 c p3
257.49 463.36 0.43 c p3
257.63 464.01 0.43 c p3
257.78 463.91 0.43 c p3
257.92 463.91 0.43 c p3
258.07 464.75 0.43 c p3
258.21 464.01 0.43 c p3
258.36 464.75 0.43 c p3
258.51 464.46 0.43 c p3
258.65 465.30 0.43 c p3
258.80 465.20 0.43 c p3
258.94 465.48 0.43 c p3
259.09 466.12 0.43 c p3
259.23 466.48 0.43 c p3
259.38 465.48 0.43 c p3
259.52 467.12 0.43 c p3
259.67 466.22 0.43 c p3
259.82 466.93 0.43 c p3
259.96 466.85 0.43 c p3
260.11 467.22 0.43 c p3
260.25 467.12 0.43 c p3
260.40 466.75 0.43 c p3
260.54 467.77 0.43 c p3
260.69 467.59 0.43 c p3
260.83 467.22 0.43 c p3
260.98 468.77 0.43 c p3
261.13 468.50 0.43 c p3
261.27 468.50 0.43 c p3
261.42 469.14 0.43 c p3
261.56 469.06 0.43 c p3
261.71 469.32 0.43 c p3
261.85 468.95 0.43 c p3
262.00 469.32 0.43 c p3
262.15 470.24 0.43 c p3
262.29 469.24 0.43 c p3
262.44 469.61 0.43 c p3
262.58 470.42 0.43 c p3
262.73 470.79 0.43 c p3
262.87 470.87 0.43 c p3
263.02 470.42 0.43 c p3
263.16 470.42 0.43 c p3
263.31 469.79 0.43 c p3
263.46 471.16 0.43 c p3
263.60 469.97 0.43 c p3
263.75 471.34 0.43 c p3
263.89 470.61 0.43 c p3
264.04 471.61 0.43 c p3
264.18 471.79 0.43 c p3
264.33 472.44 0.43 c p3
264.47 472.63 0.43 c p3
264.62 472.63 0.43 c p3
264.77 472.63 0.43 c p3
264.91 472.44 0.43 c p3
265.06 473.89 0.43 c p3
265.20 473.44 0.43 c p3
265.35 473.81 0.43 c p3
265.49 473.81 0.43 c p3
265.64 473.26 0.43 c p3
265.78 473.63 0.43 c p3
265.93 474.26 0.43 c p3
266.08 473.55 0.43 c p3
266.22 474.00 0.43 c p3
266.37 473.18 0.43 c p3
266.51 474.36 0.43 c p3
266.66 474.81 0.43 c p3
266.80 475.36 0.43 c p3
266.95 475.10 0.43 c p3
267.10 474.63 0.43 c p3
267.24 474.91 0.43 c p3
267.39 475.00 0.43 c p3
267.53 475.73 0.43 c p3
267.68 475.46 0.43 c p3
267.82 476.20 0.43 c p3
267.97 476.20 0.43 c p3
268.11 477.10 0.43 c p3
268.26 475.65 0.43 c p3
268.41 476.65 0.43 c p3
268.55 476.02 0.43 c p3
268.70 476.20 0.43 c p3
268.84 477.02 0.43 c p3
268.99 477.20 0.43 c p3
269.13 477.75 0.43 c p3
269.28 476.65 0.43 c p3
269.42 476.57 0.43 c p3
269.57 476.75 0.43 c p3
269.72 477.57 0.43 c p3
269.86 477.83 0.43 c p3
270.01 477.28 0.43 c p3
270.15 477.20 0.43 c p3
270.30 477.57 0.43 c p3
270.44 477.38 0.43 c p3
270.59 478.20 0.43 c p3
270.73 478.85 0.43 c p3
270.88 478.49 0.43 c p3
271.03 479.04 0.43 c p3
271.17 479.67 0.43 c p3
271.32 478.85 0.43 c p3
271.46 478.57 0.43 c p3
271.61 480.14 0.43 c p3
271.75 478.57 0.43 c p3
271.90 479.67 0.43 c p3
272.05 479.22 0.43 c p3
272.19 480.14 0.43 c p3
272.34 481.14 0.43 c p3
272.48 480.51 0.43 c p3
272.63 480.51 0.43 c p3
272.77 480.32 0.43 c p3
272.92 480.59 0.43 c p3
273.06 479.85 0.43 c p3
273.21 482.06 0.43 c p3
273.36 480.59 0.43 c p3
273.50 480.51 0.43 c p3
273.65 481.40 0.43 c p3
273.79 481.69 0.43 c p3
273.94 480.14 0.43 c p3
274.08 480.85 0.43 c p3
274.23 481.04 0.43 c p3
274.37 481.69 0.43 c p3
274.52 482.06 0.43 c p3
274.67 482.79 0.43 c p3
274.81 482.79 0.43 c p3
274.96 481.22 0.43 c p3
275.10 482.42 0.43 c p3
275.25 482.69 0.43 c p3
275.39 482.69 0.43 c p3
275.54 482.32 0.43 c p3
275.68 484.06 0.43 c p3
275.83 483.24 0.43 c p3
275.98 483.16 0.43 c p3
276.12 483.16 0.43 c p3
276.27 483.89 0.43 c p3
276.41 483.71 0.43 c p3
276.56 482.79 0.43 c p3
276.70 482.87 0.43 c p3
276.85 483.98 0.43 c p3
277.00 483.89 0.43 c p3
277.14 484.71 0.43 c p3
277.29 485.34 0.43 c p3
277.43 484.16 0.43 c p3
277.58 484.06 0.43 c p3
277.72 485.45 0.43 c p3
277.87 484.06 0.43 c p3
278.01 484.34 0.43 c p3
278.16 484.61 0.43 c p3
278.31 484.53 0.43 c p3
278.45 485.08 0.43 c p3
278.60 485.08 0.43 c p3
278.74 485.81 0.43 c p3
278.89 485.16 0.43 c p3
279.03 484.43 0.43 c p3
279.18 484.53 0.43 c p3
279.32 485.16 0.43 c p3
279.47 485.45 0.43 c p3
279.62 484.79 0.43 c p3
279.76 486.08 0.43 c p3
279.91 485.71 0.43 c p3
280.05 486.81 0.43 c p3
280.20 485.81 0.43 c p3
280.34 486.26 0.43 c p3
280.49 486.26 0.43 c p3
280.63 485.63 0.43 c p3
280.78 486.55 0.43 c p3
280.93 487.10 0.43 c p3
281.07 486.45 0.43 c p3
281.22 487.00 0.43 c p3
281.36 487.28 0.43 c p3
281.51 487.18 0.43 c p3
281.65 487.36 0.43 c p3
281.80 486.63 0.43 c p3
281.95 486.18 0.43 c p3
282.09 487.36 0.43 c p3
282.24 487.73 0.43 c p3
282.38 488.55 0.43 c p3
282.53 488.28 0.43 c p3
282.67 487.55 0.43 c p3
282.82 487.18 0.43 c p3
282.96 487.36 0.43 c p3
283.11 487.00 0.43 c p3
283.26 487.81 0.43 c p3
283.40 488.28 0.43 c p3
283.55 487.63 0.43 c p3
283.69 488.00 0.43 c p3
283.84 489.10 0.43 c p3
283.98 488.92 0.43 c p3
284.13 488.28 0.43 c p3
284.27 489.65 0.43 c p3
284.42 488.73 0.43 c p3
284.57 488.83 0.43 c p3
284.71 489.57 0.43 c p3
284.86 488.83 0.43 c p3
285.00 488.55 0.43 c p3
285.15 489.38 0.43 c p3
285.29 489.94 0.43 c p3
285.44 489.57 0.43 c p3
285.58 488.83 0.43 c p3
285.73 489.75 0.43 c p3
285.88 489.38 0.43 c p3
286.02 489.28 0.43 c p3
286.17 490.02 0.43 c p3
286.31 489.83 0.43 c p3
286.46 489.02 0.43 c p3
286.60 490.30 0.43 c p3
286.75 490.49 0.43 c p3
286.89 490.30 0.43 c p3
287.04 489.83 0.43 c p3
287.19 489.94 0.43 c p3
287.33 489.47 0.43 c p3
287.48 490.67 0.43 c p3
287.62 490.94 0.43 c p3
287.77 490.39 0.43 c p3
287.91 490.57 0.43 c p3
288.06 490.12 0.43 c p3
288.21 491.12 0.43 c p3
288.35 490.94 0.43 c p3
288.50 489.94 0.43 c p3
288.64 490.94 0.43 c p3
288.79 491.39 0.43 c p3
288.93 490.75 0.43 c p3
289.08 491.57 0.43 c p3
289.22 491.49 0.43 c p3
289.37 491.67 0.43 c p3
289.52 491.02 0.43 c p3
289.66 492.59 0.43 c p3
289.81 491.49 0.43 c p3
289.95 491.94 0.43 c p3
290.10 492.22 0.43 c p3
290.24 492.41 0.43 c p3
290.39 492.04 0.43 c p3
290.53 491.75 0.43 c p3
290.68 492.41 0.43 c p3
290.83 492.12 0.43 c p3
290.97 492.96 0.43 c p3
291.12 492.67 0.43 c p3
291.26 492.41 0.43 c p3
291.41 491.85 0.43 c p3
291.55 493.77 0.43 c p3
291.70 493.59 0.43 c p3
291.84 492.67 0.43 c p3
291.99 492.85 0.43 c p3
292.14 493.04 0.43 c p3
292.28 493.04 0.43 c p3
292.43 492.77 0.43 c p3
292.57 492.12 0.43 c p3
292.72 493.41 0.43 c p3
292.86 493.59 0.43 c p3
293.01 492.67 0.43 c p3
293.16 493.77 0.43 c p3
293.30 493.77 0.43 c p3
293.45 493.51 0.43 c p3
293.59 493.14 0.43 c p3
293.74 493.14 0.43 c p3
293.88 492.85 0.43 c p3
294.03 493.14 0.43 c p3
294.17 494.88 0.43 c p3
294.32 494.77 0.43 c p3
294.47 494.96 0.43 c p3
294.61 493.69 0.43 c p3
294.76 494.06 0.43 c p3
294.90 494.59 0.43 c p3
295.05 493.88 0.43 c p3
295.19 494.96 0.43 c p3
295.34 494.88 0.43 c p3
295.48 494.41 0.43 c p3
295.63 494.69 0.43 c p3
295.78 495.88 0.43 c p3
295.92 495.79 0.43 c p3
296.07 494.69 0.43 c p3
296.21 494.32 0.43 c p3
296.36 495.32 0.43 c p3
296.50 494.51 0.43 c p3
296.65 494.14 0.43 c p3
296.79 494.96 0.43 c p3
296.94 495.69 0.43 c p3
297.09 495.51 0.43 c p3
297.23 495.32 0.43 c p3
297.38 494.69 0.43 c p3
297.52 494.69 0.43 c p3
297.67 494.77 0.43 c p3
297.81 494.77 0.43 c p3
297.96 495.43 0.43 c p3
298.11 495.51 0.43 c p3
298.25 495.88 0.43 c p3
298.40 495.06 0.43 c p3
298.54 495.32 0.43 c p3
298.69 496.43 0.43 c p3
298.83 495.51 0.43 c p3
298.98 495.79 0.43 c p3
299.12 495.61 0.43 c p3
299.27 495.43 0.43 c p3
299.42 495.43 0.43 c p3
299.56 495.98 0.43 c p3
299.71 497.71 0.43 c p3
299.85 496.24 0.43 c p3
300.00 495.79 0.43 c p3
300.14 497.16 0.43 c p3
300.29 495.61 0.43 c p3
300.43 495.24 0.43 c p3
300.58 495.88 0.43 c p3
300.73 496.98 0.43 c p3
300.87 496.24 0.43 c p3
301.02 496.24 0.43 c p3
301.16 497.16 0.43 c p3
301.31 496.98 0.43 c p3
301.45 496.79 0.43 c p3
301.60 496.16 0.43 c p3
301.74 496.16 0.43 c p3
301.89 496.61 0.43 c p3
302.04 496.61 0.43 c p3
302.18 497.90 0.43 c p3
302.33 497.71 0.43 c p3
302.47 496.90 0.43 c p3
302.62 497.81 0.43 c p3
302.76 496.90 0.43 c p3
302.91 496.79 0.43 c p3
303.06 497.35 0.43 c p3
303.20 496.71 0.43 c p3
303.35 497.53 0.43 c p3
303.49 496.98 0.43 c p3
303.64 497.53 0.43 c p3
303.78 497.63 0.43 c p3
303.93 497.45 0.43 c p3
304.07 496.71 0.43 c p3
304.22 497.81 0.43 c p3
304.37 497.53 0.43 c p3
304.51 497.35 0.43 c p3
304.66 497.71 0.43 c p3
304.80 496.98 0.43 c p3
304.95 497.71 0.43 c p3
305.09 498.90 0.43 c p3
305.24 498.45 0.43 c p3
305.38 498.45 0.43 c p3
305.53 497.81 0.43 c p3
305.68 498.35 0.43 c p3
305.82 498.26 0.43 c p3
305.97 498.90 0.43 c p3
306.11 498.45 0.43 c p3
306.26 497.98 0.43 c p3
306.40 498.71 0.43 c p3
306.55 498.90 0.43 c p3
306.69 498.71 0.43 c p3
306.84 498.45 0.43 c p3
306.99 498.35 0.43 c p3
307.13 498.35 0.43 c p3
307.28 498.26 0.43 c p3
307.42 498.53 0.43 c p3
307.57 498.53 0.43 c p3
307.71 498.45 0.43 c p3
307.86 498.26 0.43 c p3
308.01 499.63 0.43 c p3
308.15 498.53 0.43 c p3
308.30 499.55 0.43 c p3
308.44 498.81 0.43 c p3
308.59 499.26 0.43 c p3
308.73 499.18 0.43 c p3
308.88 498.53 0.43 c p3
309.02 499.92 0.43 c p3
309.17 498.81 0.43 c p3
309.32 499.63 0.43 c p3
309.46 499.55 0.43 c p3
309.61 498.81 0.43 c p3
309.75 499.26 0.43 c p3
309.90 498.81 0.43 c p3
310.04 499.08 0.43 c p3
310.19 499.18 0.43 c p3
310.33 499.81 0.43 c p3
310.48 499.73 0.43 c p3
310.63 499.81 0.43 c p3
310.77 499.92 0.43 c p3
310.92 499.08 0.43 c p3
311.06 500.00 0.43 c p3
311.21 499.92 0.43 c p3
311.35 499.73 0.43 c p3
311.50 500.47 0.43 c p3
311.64 500.84 0.43 c p3
311.79 499.63 0.43 c p3
311.94 501.02 0.43 c p3
312.08 500.84 0.43 c p3
312.23 499.00 0.43 c p3
312.37 499.08 0.43 c p3
312.52 498.90 0.43 c p3
312.66 500.37 0.43 c p3
312.81 500.73 0.43 c p3
312.96 500.28 0.43 c p3
313.10 499.73 0.43 c p3
313.25 500.55 0.43 c p3
313.39 500.37 0.43 c p3
313.54 499.45 0.43 c p3
313.68 500.18 0.43 c p3
313.83 500.28 0.43 c p3
313.97 500.92 0.43 c p3
314.12 500.55 0.43 c p3
314.27 499.92 0.43 c p3
314.41 500.47 0.43 c p3
314.56 500.47 0.43 c p3
314.70 500.92 0.43 c p3
314.85 499.81 0.43 c p3
314.99 500.00 0.43 c p3
315.14 499.92 0.43 c p3
315.28 501.20 0.43 c p3
315.43 500.73 0.43 c p3
315.58 500.55 0.43 c p3
315.72 501.20 0.43 c p3
315.87 500.65 0.43 c p3
316.01 500.55 0.43 c p3
316.16 501.10 0.43 c p3
316.30 501.84 0.43 c p3
316.45 501.28 0.43 c p3
316.59 501.28 0.43 c p3
316.74 500.84 0.43 c p3
316.89 501.28 0.43 c p3
317.03 501.47 0.43 c p3
317.18 501.37 0.43 c p3
317.32 499.81 0.43 c p3
317.47 500.92 0.43 c p3
317.61 501.20 0.43 c p3
317.76 500.92 0.43 c p3
317.91 501.28 0.43 c p3
318.05 501.65 0.43 c p3
318.20 501.73 0.43 c p3
318.34 500.84 0.43 c p3
318.49 502.10 0.43 c p3
318.63 502.65 0.43 c p3
318.78 500.84 0.43 c p3
318.92 501.55 0.43 c p3
319.07 501.73 0.43 c p3
319.22 501.28 0.43 c p3
319.36 502.75 0.43 c p3
319.51 501.84 0.43 c p3
319.65 501.92 0.43 c p3
319.80 501.28 0.43 c p3
319.94 501.37 0.43 c p3
320.09 501.73 0.43 c p3
320.23 501.65 0.43 c p3
320.38 501.73 0.43 c p3
320.53 502.39 0.43 c p3
320.67 501.84 0.43 c p3
320.82 501.47 0.43 c p3
320.96 501.47 0.43 c p3
321.11 501.84 0.43 c p3
321.25 502.39 0.43 c p3
321.40 501.84 0.43 c p3
321.54 501.73 0.43 c p3
321.69 502.02 0.43 c p3
321.84 501.92 0.43 c p3
321.98 502.47 0.43 c p3
322.13 501.84 0.43 c p3
322.27 501.92 0.43 c p3
322.42 502.20 0.43 c p3
322.56 502.75 0.43 c p3
322.71 502.47 0.43 c p3
322.85 502.75 0.43 c p3
323.00 502.10 0.43 c p3
323.15 502.94 0.43 c p3
323.29 502.47 0.43 c p3
323.44 502.65 0.43 c p3
323.58 503.31 0.43 c p3
323.73 502.84 0.43 c p3
323.87 502.47 0.43 c p3
324.02 503.12 0.43 c p3
324.17 502.84 0.43 c p3
324.31 502.57 0.43 c p3
324.46 501.73 0.43 c p3
324.60 503.49 0.43 c p3
324.75 503.12 0.43 c p3
324.89 503.02 0.43 c p3
325.04 503.20 0.43 c p3
325.18 503.31 0.43 c p3
325.33 502.47 0.43 c p3
325.48 501.92 0.43 c p3
325.62 502.20 0.43 c p3
325.77 502.94 0.43 c p3
325.91 503.75 0.43 c p3
326.06 502.65 0.43 c p3
326.20 502.94 0.43 c p3
326.35 503.57 0.43 c p3
326.49 503.12 0.43 c p3
326.64 503.31 0.43 c p3
326.79 503.12 0.43 c p3
326.93 502.39 0.43 c p3
327.08 503.31 0.43 c p3
327.22 503.31 0.43 c p3
327.37 503.31 0.43 c p3
327.51 502.94 0.43 c p3
327.66 503.39 0.43 c p3
327.80 502.47 0.43 c p3
327.95 503.67 0.43 c p3
328.10 503.49 0.43 c p3
328.24 503.02 0.43 c p3
328.39 502.57 0.43 c p3
328.53 503.20 0.43 c p3
328.68 504.31 0.43 c p3
328.82 502.94 0.43 c p3
328.97 503.31 0.43 c p3
329.12 503.75 0.43 c p3
329.26 503.49 0.43 c p3
329.41 503.57 0.43 c p3
329.55 502.94 0.43 c p3
329.70 503.20 0.43 c p3
329.84 503.02 0.43 c p3
329.99 503.39 0.43 c p3
330.13 504.04 0.43 c p3
330.28 503.49 0.43 c p3
330.43 502.94 0.43 c p3
330.57 504.12 0.43 c p3
330.72 503.57 0.43 c p3
330.86 503.94 0.43 c p3
331.01 503.57 0.43 c p3
331.15 503.31 0.43 c p3
331.30 504.04 0.43 c p3
331.44 504.94 0.43 c p3
331.59 503.94 0.43 c p3
331.74 504.59 0.43 c p3
331.88 503.31 0.43 c p3
332.03 503.31 0.43 c p3
332.17 503.02 0.43 c p3
332.32 503.49 0.43 c p3
332.46 503.49 0.43 c p3
332.61 503.86 0.43 c p3
332.75 503.86 0.43 c p3
332.90 504.22 0.43 c p3
333.05 503.94 0.43 c p3
333.19 504.12 0.43 c p3
333.34 504.67 0.43 c p3
333.48 503.75 0.43 c p3
333.63 503.57 0.43 c p3
333.77 503.75 0.43 c p3
333.92 504.49 0.43 c p3
334.07 505.31 0.43 c p3
334.21 505.41 0.43 c p3
334.36 504.04 0.43 c p3
334.50 503.94 0.43 c p3
334.65 503.75 0.43 c p3
334.79 504.41 0.43 c p3
334.94 503.31 0.43 c p3
335.08 503.39 0.43 c p3
335.23 503.67 0.43 c p3
335.38 504.22 0.43 c p3
335.52 504.49 0.43 c p3
335.67 504.04 0.43 c p3
335.81 504.67 0.43 c p3
335.96 504.49 0.43 c p3
336.10 504.22 0.43 c p3
336.25 504.22 0.43 c p3
336.39 503.49 0.43 c p3
336.54 504.22 0.43 c p3
336.69 504.86 0.43 c p3
336.83 504.67 0.43 c p3
336.98 504.67 0.43 c p3
337.12 504.77 0.43 c p3
337.27 504.77 0.43 c p3
337.41 504.31 0.43 c p3
337.56 502.47 0.43 c p3
337.70 504.04 0.43 c p3
337.85 504.86 0.43 c p3
338.00 505.22 0.43 c p3
338.14 505.04 0.43 c p3
338.29 505.22 0.43 c p3
338.43 504.49 0.43 c p3
338.58 505.22 0.43 c p3
338.72 505.12 0.43 c p3
338.87 505.22 0.43 c p3
339.02 504.59 0.43 c p3
339.16 504.49 0.43 c p3
339.31 505.77 0.43 c p3
339.45 504.04 0.43 c p3
339.60 504.94 0.43 c p3
339.74 505.12 0.43 c p3
339.89 505.22 0.43 c p3
340.03 504.41 0.43 c p3
340.18 503.94 0.43 c p3
340.33 504.94 0.43 c p3
340.47 505.31 0.43 c p3
340.62 504.31 0.43 c p3
340.76 505.86 0.43 c p3
340.91 505.12 0.43 c p3
341.05 504.77 0.43 c p3
341.20 505.22 0.43 c p3
341.34 505.67 0.43 c p3
341.49 505.67 0.43 c p3
341.64 505.31 0.43 c p3
341.78 504.22 0.43 c p3
341.93 505.49 0.43 c p3
342.07 505.04 0.43 c p3
342.22 505.96 0.43 c p3
342.36 505.12 0.43 c p3
342.51 505.12 0.43 c p3
342.65 505.12 0.43 c p3
342.80 504.94 0.43 c p3
342.95 504.77 0.43 c p3
343.09 504.49 0.43 c p3
343.24 506.14 0.43 c p3
343.38 505.22 0.43 c p3
343.53 506.22 0.43 c p3
343.67 505.77 0.43 c p3
343.82 505.49 0.43 c p3
343.97 505.04 0.43 c p3
344.11 505.77 0.43 c p3
344.26 505.31 0.43 c p3
344.40 505.12 0.43 c p3
344.55 505.59 0.43 c p3
344.69 505.67 0.43 c p3
344.84 506.59 0.43 c p3
344.98 505.86 0.43 c p3
345.13 504.77 0.43 c p3
345.28 505.41 0.43 c p3
345.42 505.22 0.43 c p3
345.57 505.77 0.43 c p3
345.71 505.67 0.43 c p3
345.86 505.04 0.43 c p3
346.00 505.41 0.43 c p3
346.15 505.22 0.43 c p3
346.29 506.59 0.43 c p3
346.44 505.04 0.43 c p3
346.59 506.22 0.43 c p3
346.73 505.41 0.43 c p3
346.88 505.12 0.43 c p3
347.02 505.77 0.43 c p3
347.17 506.14 0.43 c p3
347.31 505.41 0.43 c p3
347.46 506.33 0.43 c p3
347.60 505.86 0.43 c p3
347.75 505.49 0.43 c p3
347.90 505.86 0.43 c p3
348.04 505.41 0.43 c p3
348.19 505.49 0.43 c p3
348.33 506.33 0.43 c p3
348.48 506.14 0.43 c p3
348.62 505.77 0.43 c p3
348.77 506.88 0.43 c p3
348.92 506.22 0.43 c p3
349.06 505.86 0.43 c p3
349.21 505.49 0.43 c p3
349.35 506.59 0.43 c p3
349.50 505.96 0.43 c p3
349.64 504.41 0.43 c p3
349.79 506.22 0.43 c p3
349.93 506.96 0.43 c p3
350.08 507.43 0.43 c p3
350.23 506.14 0.43 c p3
350.37 506.22 0.43 c p3
350.52 505.96 0.43 c p3
350.66 505.67 0.43 c p3
350.81 505.59 0.43 c p3
350.95 505.77 0.43 c p3
351.10 505.67 0.43 c p3
351.24 506.22 0.43 c p3
351.39 506.51 0.43 c p3
351.54 506.33 0.43 c p3
351.68 506.33 0.43 c p3
351.83 506.14 0.43 c p3
351.97 506.33 0.43 c p3
352.12 505.96 0.43 c p3
352.26 505.67 0.43 c p3
352.41 506.22 0.43 c p3
352.55 506.88 0.43 c p3
352.70 506.51 0.43 c p3
352.85 506.41 0.43 c p3
352.99 506.04 0.43 c p3
353.14 506.88 0.43 c p3
353.28 506.69 0.43 c p3
353.43 505.96 0.43 c p3
353.57 506.04 0.43 c p3
353.72 505.96 0.43 c p3
353.86 506.22 0.43 c p3
354.01 506.14 0.43 c p3
354.16 507.51 0.43 c p3
354.30 506.04 0.43 c p3
354.45 505.86 0.43 c p3
354.59 505.77 0.43 c p3
354.74 505.59 0.43 c p3
354.88 505.86 0.43 c p3
355.03 507.24 0.43 c p3
355.18 506.77 0.43 c p3
355.32 506.96 0.43 c p3
355.47 506.33 0.43 c p3
355.61 506.41 0.43 c p3
355.76 506.59 0.43 c p3
355.90 507.43 0.43 c p3
356.05 506.59 0.43 c p3
356.19 505.59 0.43 c p3
356.34 507.06 0.43 c p3
356.49 506.96 0.43 c p3
356.63 507.43 0.43 c p3
356.78 506.96 0.43 c p3
356.92 506.33 0.43 c p3
357.07 506.77 0.43 c p3
357.21 506.96 0.43 c p3
357.36 505.49 0.43 c p3
357.50 506.04 0.43 c p3
357.65 506.51 0.43 c p3
357.80 507.14 0.43 c p3
357.94 507.06 0.43 c p3
358.09 506.33 0.43 c p3
358.23 507.51 0.43 c p3
358.38 507.24 0.43 c p3
358.52 506.96 0.43 c p3
358.67 506.04 0.43 c p3
358.81 507.69 0.43 c p3
358.96 508.16 0.43 c p3
359.11 506.69 0.43 c p3
359.25 507.06 0.43 c p3
359.40 506.88 0.43 c p3
359.54 506.59 0.43 c p3
359.69 507.06 0.43 c p3
359.83 506.41 0.43 c p3
359.98 507.24 0.43 c p3
360.13 506.59 0.43 c p3
360.27 507.43 0.43 c p3
360.42 506.96 0.43 c p3
360.56 507.61 0.43 c p3
360.71 506.77 0.43 c p3
360.85 507.51 0.43 c p3
361.00 507.24 0.43 c p3
361.14 507.06 0.43 c p3
361.29 506.88 0.43 c p3
361.44 506.69 0.43 c p3
361.58 506.69 0.43 c p3
361.73 506.88 0.43 c p3
361.87 507.88 0.43 c p3
362.02 507.43 0.43 c p3
362.16 506.96 0.43 c p3
362.31 506.96 0.43 c p3
362.45 506.22 0.43 c p3
362.60 506.69 0.43 c p3
362.75 506.96 0.43 c p3
362.89 506.69 0.43 c p3
363.04 507.80 0.43 c p3
363.18 506.59 0.43 c p3
363.33 507.69 0.43 c p3
363.47 507.14 0.43 c p3
363.62 507.88 0.43 c p3
363.76 507.80 0.43 c p3
363.91 506.51 0.43 c p3
364.06 506.69 0.43 c p3
364.20 507.24 0.43 c p3
364.35 506.04 0.43 c p3
364.49 506.51 0.43 c p3
364.64 508.24 0.43 c p3
364.78 507.14 0.43 c p3
364.93 507.98 0.43 c p3
365.08 507.06 0.43 c p3
365.22 506.77 0.43 c p3
365.37 507.88 0.43 c p3
365.51 506.77 0.43 c p3
365.66 507.69 0.43 c p3
365.80 507.80 0.43 c p3
365.95 507.06 0.43 c p3
366.09 507.33 0.43 c p3
366.24 507.33 0.43 c p3
366.39 507.98 0.43 c p3
366.53 507.06 0.43 c p3
366.68 507.33 0.43 c p3
366.82 507.14 0.43 c p3
366.97 507.14 0.43 c p3
367.11 506.59 0.43 c p3
367.26 507.80 0.43 c p3
367.40 507.69 0.43 c p3
367.55 507.06 0.43 c p3
367.70 507.14 0.43 c p3
367.84 507.69 0.43 c p3
367.99 507.88 0.43 c p3
368.13 506.96 0.43 c p3
368.28 507.80 0.43 c p3
368.42 507.51 0.43 c p3
368.57 507.06 0.43 c p3
368.71 507.51 0.43 c p3
368.86 507.98 0.43 c p3
369.01 508.69 0.43 c p3
369.15 507.06 0.43 c p3
369.30 506.33 0.43 c p3
369.44 506.88 0.43 c p3
369.59 507.98 0.43 c p3
369.73 508.06 0.43 c p3
369.88 507.80 0.43 c p3
370.03 508.24 0.43 c p3
370.17 507.98 0.43 c p3
370.32 508.33 0.43 c p3
370.46 507.98 0.43 c p3
370.61 506.96 0.43 c p3
370.75 507.51 0.43 c p3
370.90 507.61 0.43 c p3
371.04 508.24 0.43 c p3
371.19 507.80 0.43 c p3
371.34 508.61 0.43 c p3
371.48 507.88 0.43 c p3
371.63 507.98 0.43 c p3
371.77 507.88 0.43 c p3
371.92 507.80 0.43 c p3
372.06 507.98 0.43 c p3
372.21 508.61 0.43 c p3
372.35 508.43 0.43 c p3
372.50 508.06 0.43 c p3
372.65 507.98 0.43 c p3
372.79 507.24 0.43 c p3
372.94 507.88 0.43 c p3
373.08 508.61 0.43 c p3
373.23 507.88 0.43 c p3
373.37 507.80 0.43 c p3
373.52 508.33 0.43 c p3
373.66 507.80 0.43 c p3
373.81 508.16 0.43 c p3
373.96 508.61 0.43 c p3
374.10 507.61 0.43 c p3
374.25 507.80 0.43 c p3
374.39 508.16 0.43 c p3
374.54 507.14 0.43 c p3
374.68 507.98 0.43 c p3
374.83 507.88 0.43 c p3
374.98 508.16 0.43 c p3
375.12 508.51 0.43 c p3
375.27 509.16 0.43 c p3
375.41 508.80 0.43 c p3
375.56 508.51 0.43 c p3
375.70 508.16 0.43 c p3
375.85 507.61 0.43 c p3
375.99 507.88 0.43 c p3
376.14 507.51 0.43 c p3
376.29 507.80 0.43 c p3
376.43 507.98 0.43 c p3
376.58 508.33 0.43 c p3
376.72 507.98 0.43 c p3
376.87 508.16 0.43 c p3
377.01 507.51 0.43 c p3
377.16 508.80 0.43 c p3
377.30 507.06 0.43 c p3
377.45 507.88 0.43 c p3
377.60 508.88 0.43 c p3
377.74 508.16 0.43 c p3
377.89 507.43 0.43 c p3
378.03 508.43 0.43 c p3
378.18 509.16 0.43 c p3
378.32 508.88 0.43 c p3
378.47 508.61 0.43 c p3
378.61 507.51 0.43 c p3
378.76 508.43 0.43 c p3
378.91 508.69 0.43 c p3
379.05 508.51 0.43 c p3
379.20 508.61 0.43 c p3
379.34 508.43 0.43 c p3
379.49 508.80 0.43 c p3
379.63 507.88 0.43 c p3
379.78 509.06 0.43 c p3
379.93 508.51 0.43 c p3
380.07 508.98 0.43 c p3
380.22 508.98 0.43 c p3
380.36 507.61 0.43 c p3
380.51 508.43 0.43 c p3
380.65 509.71 0.43 c p3
380.80 508.06 0.43 c p3
380.94 508.16 0.43 c p3
381.09 508.51 0.43 c p3
381.24 506.77 0.43 c p3
381.38 507.88 0.43 c p3
381.53 509.16 0.43 c p3
381.67 508.61 0.43 c p3
381.82 509.06 0.43 c p3
381.96 508.69 0.43 c p3
382.11 508.51 0.43 c p3
382.25 508.43 0.43 c p3
382.40 507.61 0.43 c p3
0.00 0.00 432.00 576.00 cl
0 0 0 srgb
0.75 setlinewidth
[] 0 setdash
1 setlinecap
1 setlinejoin
10.00 setmiterlimit
np
236.96 345.60 m
132.35 0 l
o
np
236.96 345.60 m
0 -5.76 l
o
np
270.05 345.60 m
0 -5.76 l
o
np
303.13 345.60 m
0 -5.76 l
o
np
336.22 345.60 m
0 -5.76 l
o
np
369.31 345.60 m
0 -5.76 l
o
/Font1 findfont 10 s
236.96 329.47 (0) .5 0 t
270.05 329.47 (500) .5 0 t
303.13 329.47 (1000) .5 0 t
336.22 329.47 (1500) .5 0 t
369.31 329.47 (2000) .5 0 t
np
216.00 352.00 m
0 133.76 l
o
np
216.00 352.00 m
-5.76 0 l
o
np
216.00 385.44 m
-5.76 0 l
o
np
216.00 418.88 m
-5.76 0 l
o
np
216.00 452.32 m
-5.76 0 l
o
np
216.00 485.76 m
-5.76 0 l
o
209.09 348.41 (0.0) 1 0 t
209.09 381.85 (0.2) 1 0 t
209.09 415.29 (0.4) 1 0 t
209.09 448.73 (0.6) 1 0 t
209.09 482.17 (0.8) 1 0 t
np
216.00 345.60 m
172.80 0 l
0 172.80 l
-172.80 0 l
0 -172.80 l
o
0.00 0.00 432.00 576.00 cl
/Font1 findfont 10 s
0 0 0 srgb
302.40 313.34 (Time / ms \(total\)) .5 0 t
190.66 432.00 (U / V) .5 90 t
216.00 345.60 388.80 518.40 cl
0 0 0 srgb
0.38 setlinewidth
[ 1.13 1.88] 0 setdash
1 setlinecap
1 setlinejoin
10.00 setmiterlimit
np
222.69 345.60 m
0 172.80 l
o
np
235.65 345.60 m
0 172.80 l
o
np
238.12 345.60 m
0 172.80 l
o
np
366.24 345.60 m
0 172.80 l
o
86.40 57.60 388.80 288.00 cl
1 0 0 srgb
1.50 setlinewidth
[] 0 setdash
1 setlinecap
1 setlinejoin
10.00 setmiterlimit
np
97.60 279.47 m
1.41 -5.54 l
1.40 -5.38 l
1.41 -5.24 l
1.41 -5.10 l
1.41 -4.97 l
1.40 -4.83 l
1.41 -4.70 l
1.41 -4.58 l
1.40 -4.45 l
1.41 -4.33 l
1.41 -4.22 l
1.40 -4.11 l
1.41 -3.99 l
1.41 -3.89 l
1.41 -3.78 l
1.40 -3.68 l
1.41 -3.59 l
1.41 -3.49 l
1.40 -3.39 l
1.41 -3.30 l
1.41 -3.22 l
1.40 -3.13 l
1.41 -3.04 l
1.41 -2.97 l
1.41 -2.88 l
1.40 -2.81 l
1.41 -2.73 l
1.41 -2.66 l
1.40 -2.58 l
1.41 -2.52 l
1.41 -2.45 l
1.41 -2.39 l
1.40 -2.32 l
1.41 -2.26 l
1.41 -2.20 l
1.40 -2.14 l
1.41 -2.08 l
1.41 -2.02 l
1.40 -1.98 l
1.41 -1.92 l
1.41 -1.86 l
1.41 -1.82 l
1.40 -1.77 l
1.41 -1.72 l
1.41 -1.68 l
1.40 -1.63 l
1.41 -1.59 l
1.41 -1.54 l
1.40 -1.50 l
1.41 -1.47 l
1.41 -1.42 l
1.41 -1.39 l
1.40 -1.34 l
1.41 -1.32 l
1.41 -1.27 l
1.40 -1.25 l
1.41 -1.21 l
1.41 -1.17 l
1.41 -1.15 l
1.40 -1.11 l
1.41 -1.09 l
1.41 -1.06 l
1.40 -1.02 l
1.41 -1.00 l
1.41 -0.98 l
1.40 -0.95 l
1.41 -0.92 l
1.41 -0.90 l
1.41 -0.87 l
1.40 -0.85 l
1.41 -0.83 l
1.41 -0.80 l
1.40 -0.78 l
1.41 -0.77 l
1.41 -0.74 l
1.40 -0.72 l
1.41 -0.70 l
1.41 -0.69 l
1.41 -0.66 l
1.40 -0.65 l
1.41 -0.63 l
1.41 -0.62 l
1.40 -0.59 l
1.41 -0.58 l
1.41 -0.57 l
1.41 -0.55 l
1.40 -0.54 l
1.41 -0.52 l
1.41 -0.50 l
1.40 -0.50 l
1.41 -0.48 l
1.41 -0.47 l
1.40 -0.45 l
1.41 -0.44 l
1.41 -0.44 l
1.41 -0.42 l
1.40 -0.40 l
1.41 -0.40 l
1.41 -0.39 l
238.30 86.56 lineto
1.41 -0.37 l
1.41 -0.36 l
1.40 -0.34 l
1.41 -0.34 l
1.41 -0.33 l
1.41 -0.32 l
1.40 -0.31 l
1.41 -0.30 l
1.41 -0.30 l
1.40 -0.29 l
1.41 -0.28 l
1.41 -0.27 l
1.40 -0.26 l
1.41 -0.26 l
1.41 -0.25 l
1.41 -0.24 l
1.40 -0.24 l
1.41 -0.23 l
1.41 -0.23 l
1.40 -0.22 l
1.41 -0.21 l
1.41 -0.21 l
1.41 -0.20 l
1.40 -0.19 l
1.41 -0.19 l
1.41 -0.19 l
1.40 -0.18 l
1.41 -0.18 l
1.41 -0.17 l
1.40 -0.16 l
1.41 -0.17 l
1.41 -0.15 l
1.41 -0.16 l
1.40 -0.15 l
1.41 -0.14 l
1.41 -0.14 l
1.40 -0.14 l
1.41 -0.14 l
1.41 -0.13 l
1.40 -0.12 l
1.41 -0.13 l
1.41 -0.12 l
1.41 -0.12 l
1.40 -0.11 l
1.41 -0.11 l
1.41 -0.11 l
1.40 -0.10 l
1.41 -0.11 l
1.41 -0.10 l
1.41 -0.09 l
1.40 -0.10 l
1.41 -0.09 l
1.41 -0.09 l
1.40 -0.08 l
1.41 -0.09 l
1.41 -0.08 l
1.40 -0.08 l
1.41 -0.08 l
1.41 -0.08 l
1.41 -0.07 l
1.40 -0.07 l
1.41 -0.07 l
1.41 -0.07 l
1.40 -0.06 l
1.41 -0.07 l
1.41 -0.06 l
1.40 -0.06 l
1.41 -0.06 l
1.41 -0.06 l
1.41 -0.06 l
1.40 -0.05 l
1.41 -0.05 l
1.41 -0.06 l
1.40 -0.05 l
1.41 -0.05 l
1.41 -0.04 l
1.41 -0.05 l
1.40 -0.05 l
1.41 -0.04 l
1.41 -0.04 l
1.40 -0.04 l
1.41 -0.05 l
1.41 -0.03 l
1.40 -0.04 l
1.41 -0.04 l
1.41 -0.04 l
1.41 -0.03 l
1.40 -0.04 l
1.41 -0.03 l
1.41 -0.03 l
1.40 -0.04 l
1.41 -0.03 l
1.41 -0.03 l
1.40 -0.03 l
1.41 -0.02 l
1.41 -0.03 l
1.41 -0.03 l
1.40 -0.03 l
1.41 -0.02 l
o
0.00 0.00 432.00 576.00 cl
0 0 0 srgb
0.75 setlinewidth
[] 0 setdash
1 setlinecap
1 setlinejoin
10.00 setmiterlimit
np
97.60 57.60 m
254.55 0 l
o
np
97.60 57.60 m
0 -5.76 l
o
np
161.24 57.60 m
0 -5.76 l
o
np
224.87 57.60 m
0 -5.76 l
o
np
288.51 57.60 m
0 -5.76 l
o
np
352.15 57.60 m
0 -5.76 l
o
/Font1 findfont 10 s
97.60 41.47 (0) .5 0 t
161.24 41.47 (500) .5 0 t
224.87 41.47 (1000) .5 0 t
288.51 41.47 (1500) .5 0 t
352.15 41.47 (2000) .5 0 t
np
86.40 66.13 m
0 197.30 l
o
np
86.40 66.13 m
-5.76 0 l
o
np
86.40 99.02 m
-5.76 0 l
o
np
86.40 131.90 m
-5.76 0 l
o
np
86.40 164.78 m
-5.76 0 l
o
np
86.40 197.67 m
-5.76 0 l
o
np
86.40 230.55 m
-5.76 0 l
o
np
86.40 263.43 m
-5.76 0 l
o
79.49 62.54 (0.00) 1 0 t
79.49 95.43 (0.05) 1 0 t
79.49 128.31 (0.10) 1 0 t
79.49 161.19 (0.15) 1 0 t
79.49 194.08 (0.20) 1 0 t
79.49 226.96 (0.25) 1 0 t
79.49 259.84 (0.30) 1 0 t
np
86.40 57.60 m
302.40 0 l
0 230.40 l
-302.40 0 l
0 -230.40 l
o
0.00 0.00 432.00 576.00 cl
/Font1 findfont 10 s
0 0 0 srgb
237.60 13.82 (Time / ms \(after pulse\)) .5 0 t
49.54 172.80 (Absorbance A) .5 90 t
86.40 57.60 388.80 288.00 cl
/bg { 1 1 1 srgb } def
0 0 0 srgb
0.75 setlinewidth
[] 0 setdash
1 setlinecap
1 setlinejoin
10.00 setmiterlimit
100.12 273.36 0.65 c p3
100.40 272.30 0.65 c p3
100.68 270.94 0.65 c p3
100.96 270.27 0.65 c p3
101.24 269.29 0.65 c p3
101.52 267.95 0.65 c p3
101.80 262.94 0.65 c p3
102.08 266.25 0.65 c p3
102.36 263.96 0.65 c p3
102.64 262.36 0.65 c p3
102.92 261.70 0.65 c p3
103.20 261.34 0.65 c p3
103.48 260.39 0.65 c p3
103.76 256.51 0.65 c p3
104.04 255.51 0.65 c p3
104.32 257.80 0.65 c p3
104.60 254.59 0.65 c p3
104.88 252.33 0.65 c p3
105.16 254.87 0.65 c p3
105.44 255.87 0.65 c p3
105.72 248.62 0.65 c p3
106.00 251.41 0.65 c p3
106.28 252.33 0.65 c p3
106.56 247.02 0.65 c p3
106.84 244.27 0.65 c p3
107.12 245.51 0.65 c p3
107.40 246.75 0.65 c p3
107.68 243.04 0.65 c p3
107.96 244.89 0.65 c p3
108.24 243.93 0.65 c p3
108.52 240.87 0.65 c p3
108.80 237.58 0.65 c p3
109.08 237.91 0.65 c p3
109.36 239.39 0.65 c p3
109.64 236.97 0.65 c p3
109.92 235.51 0.65 c p3
110.20 234.91 0.65 c p3
110.48 236.71 0.65 c p3
110.76 233.39 0.65 c p3
111.04 229.60 0.65 c p3
111.32 231.36 0.65 c p3
111.60 230.77 0.65 c p3
111.88 231.36 0.65 c p3
112.16 229.27 0.65 c p3
112.44 228.43 0.65 c p3
112.72 228.69 0.65 c p3
113.00 225.53 0.65 c p3
113.28 224.38 0.65 c p3
113.56 225.85 0.65 c p3
113.84 224.96 0.65 c p3
114.12 222.41 0.65 c p3
114.40 223.55 0.65 c p3
114.68 224.12 0.65 c p3
114.96 220.39 0.65 c p3
115.24 219.00 0.65 c p3
115.52 219.82 0.65 c p3
115.80 217.88 0.65 c p3
116.08 214.53 0.65 c p3
116.36 214.84 0.65 c p3
116.64 215.39 0.65 c p3
116.92 213.18 0.65 c p3
117.20 213.42 0.65 c p3
117.48 214.28 0.65 c p3
117.76 213.97 0.65 c p3
118.04 211.77 0.65 c p3
118.32 210.43 0.65 c p3
118.60 211.22 0.65 c p3
118.88 207.94 0.65 c p3
119.16 208.79 0.65 c p3
119.44 208.49 0.65 c p3
119.72 204.77 0.65 c p3
120.00 205.84 0.65 c p3
120.28 205.01 0.65 c p3
120.56 204.23 0.65 c p3
120.84 206.62 0.65 c p3
121.12 202.87 0.65 c p3
121.40 199.98 0.65 c p3
121.68 201.04 0.65 c p3
121.96 202.10 0.65 c p3
122.24 199.98 0.65 c p3
122.52 199.98 0.65 c p3
122.80 200.74 0.65 c p3
123.08 198.93 0.65 c p3
123.36 195.79 0.65 c p3
123.64 195.79 0.65 c p3
123.92 197.59 0.65 c p3
124.20 192.46 0.65 c p3
124.48 192.69 0.65 c p3
124.76 195.27 0.65 c p3
125.04 193.72 0.65 c p3
125.32 191.43 0.65 c p3
125.60 190.92 0.65 c p3
125.88 192.97 0.65 c p3
126.16 190.41 0.65 c p3
126.44 188.38 0.65 c p3
126.72 190.41 0.65 c p3
127.00 190.64 0.65 c p3
127.28 187.87 0.65 c p3
127.56 186.14 0.65 c p3
127.84 188.38 0.65 c p3
128.12 184.63 0.65 c p3
128.40 185.36 0.65 c p3
128.68 186.36 0.65 c p3
128.96 183.64 0.65 c p3
129.24 184.36 0.65 c p3
129.52 181.38 0.65 c p3
129.80 183.14 0.65 c p3
130.08 180.39 0.65 c p3
130.36 180.39 0.65 c p3
130.64 179.90 0.65 c p3
130.92 178.91 0.65 c p3
131.20 180.17 0.65 c p3
131.48 179.40 0.65 c p3
131.76 179.40 0.65 c p3
132.04 178.21 0.65 c p3
132.32 175.29 0.65 c p3
132.60 174.59 0.65 c p3
132.88 177.23 0.65 c p3
133.16 176.53 0.65 c p3
133.44 175.77 0.65 c p3
133.72 174.11 0.65 c p3
134.00 173.15 0.65 c p3
134.28 172.19 0.65 c p3
134.56 172.67 0.65 c p3
134.84 171.92 0.65 c p3
135.12 172.19 0.65 c p3
135.40 169.81 0.65 c p3
135.68 171.23 0.65 c p3
135.96 169.33 0.65 c p3
136.24 169.07 0.65 c p3
136.52 167.44 0.65 c p3
136.80 168.18 0.65 c p3
137.08 168.39 0.65 c p3
137.36 167.70 0.65 c p3
137.64 166.03 0.65 c p3
137.92 166.29 0.65 c p3
138.20 166.29 0.65 c p3
138.48 164.17 0.65 c p3
138.76 166.03 0.65 c p3
139.04 164.17 0.65 c p3
139.32 164.89 0.65 c p3
139.60 162.77 0.65 c p3
139.88 163.03 0.65 c p3
140.16 162.31 0.65 c p3
140.44 160.72 0.65 c p3
140.72 159.80 0.65 c p3
141.00 162.31 0.65 c p3
141.28 158.23 0.65 c p3
141.56 160.47 0.65 c p3
141.84 158.69 0.65 c p3
142.12 158.89 0.65 c p3
142.40 157.98 0.65 c p3
142.68 158.23 0.65 c p3
142.96 159.14 0.65 c p3
143.24 156.61 0.65 c p3
143.52 157.07 0.65 c p3
143.80 157.98 0.65 c p3
144.08 154.16 0.65 c p3
144.36 154.81 0.65 c p3
144.64 154.81 0.65 c p3
144.92 153.26 0.65 c p3
145.20 153.46 0.65 c p3
145.48 152.81 0.65 c p3
145.76 153.71 0.65 c p3
146.04 152.81 0.65 c p3
146.32 150.59 0.65 c p3
146.60 153.01 0.65 c p3
146.88 152.12 0.65 c p3
147.16 150.14 0.65 c p3
147.44 149.26 0.65 c p3
147.72 149.06 0.65 c p3
148.00 150.14 0.65 c p3
148.28 150.14 0.65 c p3
148.56 151.67 0.65 c p3
148.84 148.38 0.65 c p3
149.12 151.23 0.65 c p3
149.40 147.94 0.65 c p3
149.68 149.70 0.65 c p3
149.96 147.30 0.65 c p3
150.24 146.86 0.65 c p3
150.52 145.31 0.65 c p3
150.80 144.87 0.65 c p3
151.08 144.87 0.65 c p3
151.36 144.87 0.65 c p3
151.64 145.31 0.65 c p3
151.92 141.89 0.65 c p3
152.20 142.95 0.65 c p3
152.48 142.08 0.65 c p3
152.76 142.08 0.65 c p3
153.04 143.38 0.65 c p3
153.32 142.52 0.65 c p3
153.60 141.03 0.65 c p3
153.88 142.71 0.65 c p3
154.16 141.65 0.65 c p3
154.44 143.57 0.65 c p3
154.72 140.80 0.65 c p3
155.00 139.75 0.65 c p3
155.28 138.47 0.65 c p3
155.56 139.09 0.65 c p3
155.84 140.18 0.65 c p3
156.12 139.51 0.65 c p3
156.40 139.32 0.65 c p3
156.68 137.62 0.65 c p3
156.96 138.23 0.65 c p3
157.24 136.54 0.65 c p3
157.52 136.54 0.65 c p3
157.80 134.48 0.65 c p3
158.08 137.81 0.65 c p3
158.36 135.51 0.65 c p3
158.64 136.96 0.65 c p3
158.92 136.54 0.65 c p3
159.20 134.67 0.65 c p3
159.48 134.25 0.65 c p3
159.76 132.99 0.65 c p3
160.04 135.51 0.65 c p3
160.32 135.70 0.65 c p3
160.60 135.27 0.65 c p3
160.88 133.41 0.65 c p3
161.16 132.81 0.65 c p3
161.44 134.06 0.65 c p3
161.72 134.25 0.65 c p3
162.00 133.41 0.65 c p3
162.28 133.83 0.65 c p3
162.56 131.98 0.65 c p3
162.84 130.50 0.65 c p3
163.12 131.33 0.65 c p3
163.40 130.09 0.65 c p3
163.68 128.67 0.65 c p3
163.96 130.50 0.65 c p3
164.24 131.15 0.65 c p3
164.52 127.62 0.65 c p3
164.80 131.15 0.65 c p3
165.08 128.67 0.65 c p3
165.36 129.68 0.65 c p3
165.64 127.62 0.65 c p3
165.92 125.40 0.65 c p3
166.20 126.80 0.65 c p3
166.48 126.80 0.65 c p3
166.76 127.21 0.65 c p3
167.04 126.62 0.65 c p3
167.32 128.26 0.65 c p3
167.60 123.38 0.65 c p3
167.88 126.62 0.65 c p3
168.16 126.80 0.65 c p3
168.44 124.81 0.65 c p3
168.72 124.18 0.65 c p3
169.00 127.62 0.65 c p3
169.28 126.03 0.65 c p3
169.56 125.63 0.65 c p3
169.84 124.18 0.65 c p3
170.12 123.38 0.65 c p3
170.40 121.77 0.65 c p3
170.68 121.77 0.65 c p3
170.96 125.22 0.65 c p3
171.24 122.57 0.65 c p3
171.52 121.99 0.65 c p3
171.80 121.99 0.65 c p3
172.08 122.79 0.65 c p3
172.36 119.02 0.65 c p3
172.64 120.79 0.65 c p3
172.92 120.97 0.65 c p3
173.20 120.97 0.65 c p3
173.48 119.37 0.65 c p3
173.76 119.77 0.65 c p3
174.04 121.77 0.65 c p3
174.32 121.59 0.65 c p3
174.60 119.19 0.65 c p3
174.88 119.37 0.65 c p3
175.16 117.61 0.65 c p3
175.44 116.25 0.65 c p3
175.72 118.80 0.65 c p3
176.00 119.02 0.65 c p3
176.28 116.03 0.65 c p3
176.56 119.02 0.65 c p3
176.84 118.40 0.65 c p3
177.12 117.83 0.65 c p3
177.40 118.00 0.65 c p3
177.68 116.82 0.65 c p3
177.96 116.82 0.65 c p3
178.24 115.25 0.65 c p3
178.52 116.64 0.65 c p3
178.80 118.22 0.65 c p3
179.08 118.00 0.65 c p3
179.36 116.64 0.65 c p3
179.64 116.03 0.65 c p3
179.92 117.43 0.65 c p3
180.20 114.68 0.65 c p3
180.48 115.46 0.65 c p3
180.76 113.12 0.65 c p3
181.04 115.25 0.65 c p3
181.32 114.29 0.65 c p3
181.60 114.29 0.65 c p3
181.88 115.64 0.65 c p3
182.16 113.68 0.65 c p3
182.44 112.51 0.65 c p3
182.72 113.90 0.65 c p3
183.00 112.73 0.65 c p3
183.28 112.13 0.65 c p3
183.56 112.34 0.65 c p3
183.84 111.95 0.65 c p3
184.12 113.51 0.65 c p3
184.40 114.46 0.65 c p3
184.68 111.95 0.65 c p3
184.96 111.18 0.65 c p3
185.24 109.47 0.65 c p3
185.52 110.02 0.65 c p3
185.80 111.57 0.65 c p3
186.08 112.34 0.65 c p3
186.36 111.95 0.65 c p3
186.64 112.73 0.65 c p3
186.92 111.01 0.65 c p3
187.20 110.02 0.65 c p3
187.48 111.39 0.65 c p3
187.76 110.62 0.65 c p3
188.04 108.32 0.65 c p3
188.32 108.70 0.65 c p3
188.60 110.02 0.65 c p3
188.88 107.17 0.65 c p3
189.16 109.08 0.65 c p3
189.44 108.87 0.65 c p3
189.72 107.34 0.65 c p3
190.00 108.87 0.65 c p3
190.28 109.47 0.65 c p3
190.56 107.72 0.65 c p3
190.84 106.58 0.65 c p3
191.12 107.34 0.65 c p3
191.40 108.87 0.65 c p3
191.68 106.96 0.65 c p3
191.96 107.72 0.65 c p3
192.24 107.93 0.65 c p3
192.52 106.41 0.65 c p3
192.80 106.79 0.65 c p3
193.08 108.49 0.65 c p3
193.36 105.82 0.65 c p3
193.64 105.44 0.65 c p3
193.92 105.82 0.65 c p3
194.20 106.79 0.65 c p3
194.48 106.58 0.65 c p3
194.76 107.55 0.65 c p3
195.04 105.06 0.65 c p3
195.32 104.51 0.65 c p3
195.60 105.65 0.65 c p3
195.88 105.27 0.65 c p3
196.16 106.20 0.65 c p3
196.44 104.14 0.65 c p3
196.72 104.51 0.65 c p3
197.00 106.58 0.65 c p3
197.28 104.51 0.65 c p3
197.56 103.59 0.65 c p3
197.84 104.89 0.65 c p3
198.12 103.22 0.65 c p3
198.40 103.38 0.65 c p3
198.68 103.01 0.65 c p3
198.96 104.35 0.65 c p3
199.24 101.14 0.65 c p3
199.52 103.38 0.65 c p3
199.80 102.47 0.65 c p3
200.08 101.88 0.65 c p3
200.36 101.51 0.65 c p3
200.64 102.26 0.65 c p3
200.92 102.84 0.65 c p3
201.20 101.51 0.65 c p3
201.48 102.09 0.65 c p3
201.76 100.39 0.65 c p3
202.04 100.97 0.65 c p3
202.32 101.51 0.65 c p3
202.60 102.63 0.65 c p3
202.88 98.74 0.65 c p3
203.16 99.11 0.65 c p3
203.44 100.97 0.65 c p3
203.72 100.60 0.65 c p3
204.00 100.22 0.65 c p3
204.28 100.22 0.65 c p3
204.56 100.76 0.65 c p3
204.84 102.09 0.65 c p3
205.12 99.48 0.65 c p3
205.40 99.11 0.65 c p3
205.68 100.97 0.65 c p3
205.96 98.74 0.65 c p3
206.24 98.74 0.65 c p3
206.52 99.28 0.65 c p3
206.80 100.02 0.65 c p3
207.08 100.02 0.65 c p3
207.36 100.60 0.65 c p3
207.64 100.02 0.65 c p3
207.92 96.53 0.65 c p3
208.20 96.73 0.65 c p3
208.48 96.37 0.65 c p3
208.76 98.91 0.65 c p3
209.04 98.17 0.65 c p3
209.32 97.10 0.65 c p3
209.60 98.54 0.65 c p3
209.88 96.37 0.65 c p3
210.16 96.53 0.65 c p3
210.44 97.47 0.65 c p3
210.72 96.90 0.65 c p3
211.00 94.54 0.65 c p3
211.28 94.70 0.65 c p3
211.56 96.90 0.65 c p3
211.84 97.63 0.65 c p3
212.12 95.63 0.65 c p3
212.40 97.26 0.65 c p3
212.68 98.00 0.65 c p3
212.96 96.37 0.65 c p3
213.24 94.90 0.65 c p3
213.52 95.27 0.65 c p3
213.80 95.63 0.65 c p3
214.08 96.90 0.65 c p3
214.36 96.90 0.65 c p3
214.64 96.73 0.65 c p3
214.92 96.73 0.65 c p3
215.20 95.43 0.65 c p3
215.48 95.27 0.65 c p3
215.76 94.54 0.65 c p3
216.04 96.16 0.65 c p3
216.32 95.63 0.65 c p3
216.60 93.44 0.65 c p3
216.88 95.27 0.65 c p3
217.16 94.70 0.65 c p3
217.44 95.06 0.65 c p3
217.72 95.43 0.65 c p3
218.00 95.43 0.65 c p3
218.28 94.33 0.65 c p3
218.56 90.91 0.65 c p3
218.84 93.81 0.65 c p3
219.12 94.70 0.65 c p3
219.40 92.00 0.65 c p3
219.68 95.06 0.65 c p3
219.96 95.80 0.65 c p3
220.24 94.54 0.65 c p3
220.52 92.36 0.65 c p3
220.80 93.81 0.65 c p3
221.08 93.81 0.65 c p3
221.36 92.00 0.65 c p3
221.64 92.36 0.65 c p3
221.92 92.72 0.65 c p3
222.20 93.97 0.65 c p3
222.48 93.97 0.65 c p3
222.76 93.08 0.65 c p3
223.04 93.08 0.65 c p3
223.32 90.55 0.65 c p3
223.60 90.91 0.65 c p3
223.88 92.52 0.65 c p3
224.16 90.71 0.65 c p3
224.44 92.52 0.65 c p3
224.72 92.72 0.65 c p3
225.00 91.63 0.65 c p3
225.28 92.88 0.65 c p3
225.56 91.27 0.65 c p3
225.84 92.36 0.65 c p3
226.12 91.27 0.65 c p3
226.40 91.07 0.65 c p3
226.68 91.43 0.65 c p3
226.96 92.88 0.65 c p3
227.24 90.71 0.65 c p3
227.52 91.27 0.65 c p3
227.80 91.63 0.65 c p3
228.08 90.91 0.65 c p3
228.36 92.36 0.65 c p3
228.64 90.91 0.65 c p3
228.92 88.60 0.65 c p3
229.20 89.48 0.65 c p3
229.48 89.48 0.65 c p3
229.76 90.71 0.65 c p3
230.04 89.68 0.65 c p3
230.32 89.83 0.65 c p3
230.60 88.60 0.65 c p3
230.88 89.48 0.65 c p3
231.16 90.39 0.65 c p3
231.44 88.96 0.65 c p3
231.72 88.60 0.65 c p3
232.00 88.96 0.65 c p3
232.28 89.48 0.65 c p3
232.56 89.68 0.65 c p3
232.84 89.68 0.65 c p3
233.12 89.83 0.65 c p3
233.40 89.32 0.65 c p3
233.68 89.32 0.65 c p3
233.96 89.48 0.65 c p3
234.24 89.83 0.65 c p3
234.52 87.18 0.65 c p3
234.80 89.32 0.65 c p3
235.08 87.33 0.65 c p3
235.36 88.76 0.65 c p3
235.64 87.89 0.65 c p3
235.92 88.05 0.65 c p3
236.20 89.32 0.65 c p3
236.48 86.62 0.65 c p3
236.76 88.76 0.65 c p3
237.04 87.18 0.65 c p3
237.32 87.33 0.65 c p3
237.60 88.76 0.65 c p3
237.88 87.89 0.65 c p3
238.16 88.76 0.65 c p3
238.44 88.24 0.65 c p3
238.72 88.05 0.65 c p3
239.00 86.82 0.65 c p3
239.28 86.98 0.65 c p3
239.56 86.82 0.65 c p3
239.84 86.62 0.65 c p3
240.12 88.24 0.65 c p3
240.40 86.47 0.65 c p3
240.68 86.62 0.65 c p3
240.96 86.98 0.65 c p3
241.24 85.56 0.65 c p3
241.52 84.86 0.65 c p3
241.80 87.18 0.65 c p3
242.08 84.50 0.65 c p3
242.36 84.86 0.65 c p3
242.64 88.40 0.65 c p3
242.92 88.24 0.65 c p3
243.20 88.60 0.65 c p3
243.48 85.76 0.65 c p3
243.76 85.05 0.65 c p3
244.04 85.92 0.65 c p3
244.32 86.98 0.65 c p3
244.60 85.41 0.65 c p3
244.88 85.76 0.65 c p3
245.16 87.53 0.65 c p3
245.44 86.11 0.65 c p3
245.72 85.92 0.65 c p3
246.00 84.70 0.65 c p3
246.28 85.41 0.65 c p3
246.56 86.62 0.65 c p3
246.84 85.56 0.65 c p3
247.12 85.56 0.65 c p3
247.40 84.70 0.65 c p3
247.68 86.82 0.65 c p3
247.96 86.47 0.65 c p3
248.24 86.62 0.65 c p3
248.52 84.15 0.65 c p3
248.80 85.05 0.65 c p3
249.08 85.41 0.65 c p3
249.36 84.15 0.65 c p3
249.64 85.21 0.65 c p3
249.92 85.41 0.65 c p3
250.20 84.35 0.65 c p3
250.48 82.94 0.65 c p3
250.76 84.00 0.65 c p3
251.04 84.00 0.65 c p3
251.32 84.86 0.65 c p3
251.60 84.00 0.65 c p3
251.88 83.64 0.65 c p3
252.16 83.84 0.65 c p3
252.44 86.82 0.65 c p3
252.72 84.70 0.65 c p3
253.00 84.15 0.65 c p3
253.28 84.70 0.65 c p3
253.56 84.00 0.65 c p3
253.84 83.29 0.65 c p3
254.12 83.14 0.65 c p3
254.40 84.86 0.65 c p3
254.68 82.44 0.65 c p3
254.96 81.39 0.65 c p3
255.24 84.86 0.65 c p3
255.52 83.49 0.65 c p3
255.80 83.14 0.65 c p3
256.08 84.00 0.65 c p3
256.36 81.20 0.65 c p3
256.64 82.94 0.65 c p3
256.92 82.79 0.65 c p3
257.20 84.00 0.65 c p3
257.48 83.84 0.65 c p3
257.76 83.14 0.65 c p3
258.04 83.29 0.65 c p3
258.32 83.14 0.65 c p3
258.60 81.89 0.65 c p3
258.88 82.94 0.65 c p3
259.16 83.64 0.65 c p3
259.44 83.64 0.65 c p3
259.72 82.94 0.65 c p3
260.00 81.89 0.65 c p3
260.28 82.94 0.65 c p3
260.56 83.14 0.65 c p3
260.84 82.59 0.65 c p3
261.12 82.79 0.65 c p3
261.40 81.74 0.65 c p3
261.68 82.94 0.65 c p3
261.96 82.79 0.65 c p3
262.24 82.24 0.65 c p3
262.52 81.20 0.65 c p3
262.80 81.74 0.65 c p3
263.08 81.20 0.65 c p3
263.36 82.44 0.65 c p3
263.64 80.85 0.65 c p3
263.92 81.74 0.65 c p3
264.20 81.39 0.65 c p3
264.48 80.16 0.65 c p3
264.76 81.04 0.65 c p3
265.04 81.74 0.65 c p3
265.32 80.50 0.65 c p3
265.60 81.04 0.65 c p3
265.88 81.55 0.65 c p3
266.16 83.14 0.65 c p3
266.44 79.81 0.65 c p3
266.72 80.50 0.65 c p3
267.00 80.70 0.65 c p3
267.28 80.35 0.65 c p3
267.56 80.16 0.65 c p3
267.84 81.74 0.65 c p3
268.12 82.79 0.65 c p3
268.40 82.24 0.65 c p3
268.68 80.85 0.65 c p3
268.96 79.31 0.65 c p3
269.24 81.39 0.65 c p3
269.52 80.85 0.65 c p3
269.80 79.66 0.65 c p3
270.08 80.50 0.65 c p3
270.36 80.16 0.65 c p3
270.64 80.50 0.65 c p3
270.92 81.89 0.65 c p3
271.20 80.16 0.65 c p3
271.48 80.16 0.65 c p3
271.76 80.16 0.65 c p3
272.04 80.85 0.65 c p3
272.32 80.00 0.65 c p3
272.60 81.74 0.65 c p3
272.88 79.46 0.65 c p3
273.16 79.81 0.65 c p3
273.44 80.70 0.65 c p3
273.72 81.55 0.65 c p3
274.00 80.35 0.65 c p3
274.28 78.27 0.65 c p3
274.56 80.85 0.65 c p3
274.84 80.16 0.65 c p3
275.12 79.31 0.65 c p3
275.40 79.81 0.65 c p3
275.68 79.66 0.65 c p3
275.96 80.85 0.65 c p3
276.24 80.35 0.65 c p3
276.52 80.70 0.65 c p3
276.80 80.00 0.65 c p3
277.08 78.77 0.65 c p3
277.36 79.81 0.65 c p3
277.64 80.85 0.65 c p3
277.92 78.62 0.65 c p3
278.20 79.66 0.65 c p3
278.48 78.96 0.65 c p3
278.76 79.66 0.65 c p3
279.04 80.16 0.65 c p3
279.32 78.77 0.65 c p3
279.60 77.09 0.65 c p3
279.88 78.96 0.65 c p3
280.16 77.74 0.65 c p3
280.44 80.16 0.65 c p3
280.72 80.16 0.65 c p3
281.00 80.70 0.65 c p3
281.28 79.81 0.65 c p3
281.56 79.81 0.65 c p3
281.84 79.12 0.65 c p3
282.12 79.12 0.65 c p3
282.40 78.43 0.65 c p3
282.68 78.96 0.65 c p3
282.96 78.62 0.65 c p3
283.24 77.59 0.65 c p3
283.52 79.31 0.65 c p3
283.80 79.66 0.65 c p3
284.08 79.31 0.65 c p3
284.36 77.93 0.65 c p3
284.64 76.40 0.65 c p3
284.92 76.21 0.65 c p3
285.20 78.77 0.65 c p3
285.48 78.96 0.65 c p3
285.76 79.31 0.65 c p3
286.04 78.08 0.65 c p3
286.32 80.16 0.65 c p3
286.60 80.00 0.65 c p3
286.88 79.46 0.65 c p3
287.16 78.43 0.65 c p3
287.44 77.93 0.65 c p3
287.72 78.77 0.65 c p3
288.00 77.59 0.65 c p3
288.28 77.93 0.65 c p3
288.56 78.43 0.65 c p3
288.84 78.43 0.65 c p3
289.12 79.81 0.65 c p3
289.40 78.43 0.65 c p3
289.68 77.24 0.65 c p3
289.96 77.59 0.65 c p3
290.24 77.59 0.65 c p3
290.52 77.40 0.65 c p3
290.80 77.40 0.65 c p3
291.08 78.27 0.65 c p3
291.36 81.74 0.65 c p3
291.64 78.77 0.65 c p3
291.92 77.24 0.65 c p3
292.20 76.56 0.65 c p3
292.48 76.90 0.65 c p3
292.76 76.56 0.65 c p3
293.04 77.93 0.65 c p3
293.32 76.56 0.65 c p3
293.60 76.75 0.65 c p3
293.88 76.56 0.65 c p3
294.16 77.74 0.65 c p3
294.44 77.93 0.65 c p3
294.72 75.53 0.65 c p3
295.00 78.77 0.65 c p3
295.28 77.09 0.65 c p3
295.56 76.75 0.65 c p3
295.84 76.56 0.65 c p3
296.12 78.08 0.65 c p3
296.40 78.96 0.65 c p3
296.68 77.09 0.65 c p3
296.96 76.40 0.65 c p3
297.24 78.27 0.65 c p3
297.52 75.38 0.65 c p3
297.80 76.75 0.65 c p3
298.08 77.40 0.65 c p3
298.36 76.56 0.65 c p3
298.64 75.72 0.65 c p3
298.92 75.72 0.65 c p3
299.20 76.40 0.65 c p3
299.48 78.43 0.65 c p3
299.76 76.06 0.65 c p3
300.04 76.90 0.65 c p3
300.32 75.19 0.65 c p3
300.60 76.75 0.65 c p3
300.88 76.75 0.65 c p3
301.16 76.75 0.65 c p3
301.44 77.09 0.65 c p3
301.72 77.40 0.65 c p3
302.00 77.93 0.65 c p3
302.28 74.85 0.65 c p3
302.56 76.56 0.65 c p3
302.84 74.70 0.65 c p3
303.12 75.53 0.65 c p3
303.40 76.06 0.65 c p3
303.68 76.90 0.65 c p3
303.96 75.53 0.65 c p3
304.24 76.40 0.65 c p3
304.52 76.75 0.65 c p3
304.80 75.87 0.65 c p3
305.08 75.72 0.65 c p3
305.36 74.02 0.65 c p3
305.64 75.38 0.65 c p3
305.92 77.40 0.65 c p3
306.20 76.21 0.65 c p3
306.48 76.56 0.65 c p3
306.76 75.53 0.65 c p3
307.04 75.72 0.65 c p3
307.32 76.90 0.65 c p3
307.60 76.21 0.65 c p3
307.88 76.56 0.65 c p3
308.16 74.02 0.65 c p3
308.44 76.90 0.65 c p3
308.72 74.70 0.65 c p3
309.00 76.21 0.65 c p3
309.28 76.75 0.65 c p3
309.56 75.53 0.65 c p3
309.84 74.85 0.65 c p3
310.12 76.21 0.65 c p3
310.40 74.51 0.65 c p3
310.68 75.38 0.65 c p3
310.96 76.06 0.65 c p3
311.24 75.38 0.65 c p3
311.52 76.21 0.65 c p3
311.80 76.06 0.65 c p3
312.08 74.51 0.65 c p3
312.36 74.85 0.65 c p3
312.64 75.53 0.65 c p3
312.92 73.49 0.65 c p3
313.20 74.70 0.65 c p3
313.48 75.38 0.65 c p3
313.76 76.06 0.65 c p3
314.04 74.02 0.65 c p3
314.32 75.19 0.65 c p3
314.60 78.08 0.65 c p3
314.88 74.70 0.65 c p3
315.16 73.34 0.65 c p3
315.44 72.48 0.65 c p3
315.72 74.85 0.65 c p3
316.00 74.70 0.65 c p3
316.28 75.19 0.65 c p3
316.56 75.72 0.65 c p3
316.84 75.87 0.65 c p3
317.12 75.53 0.65 c p3
317.40 75.72 0.65 c p3
317.68 74.70 0.65 c p3
317.96 74.17 0.65 c p3
318.24 74.51 0.65 c p3
318.52 74.51 0.65 c p3
318.80 74.85 0.65 c p3
319.08 74.51 0.65 c p3
319.36 75.19 0.65 c p3
319.64 75.72 0.65 c p3
319.92 74.70 0.65 c p3
320.20 73.49 0.65 c p3
320.48 74.17 0.65 c p3
320.76 74.36 0.65 c p3
321.04 75.04 0.65 c p3
321.32 73.49 0.65 c p3
321.60 73.83 0.65 c p3
321.88 75.19 0.65 c p3
322.16 75.04 0.65 c p3
322.44 75.19 0.65 c p3
322.72 74.70 0.65 c p3
323.00 74.85 0.65 c p3
323.28 72.33 0.65 c p3
323.56 75.04 0.65 c p3
323.84 75.38 0.65 c p3
324.12 75.53 0.65 c p3
324.40 75.87 0.65 c p3
324.68 75.38 0.65 c p3
324.96 72.81 0.65 c p3
325.24 73.68 0.65 c p3
325.52 73.34 0.65 c p3
325.80 74.51 0.65 c p3
326.08 74.36 0.65 c p3
326.36 74.02 0.65 c p3
326.64 72.48 0.65 c p3
326.92 74.02 0.65 c p3
327.20 75.87 0.65 c p3
327.48 73.15 0.65 c p3
327.76 73.34 0.65 c p3
328.04 72.48 0.65 c p3
328.32 73.34 0.65 c p3
328.60 74.51 0.65 c p3
328.88 73.68 0.65 c p3
329.16 73.34 0.65 c p3
329.44 76.06 0.65 c p3
329.72 75.04 0.65 c p3
330.00 74.17 0.65 c p3
330.28 73.00 0.65 c p3
330.56 73.15 0.65 c p3
330.84 74.51 0.65 c p3
331.12 72.33 0.65 c p3
331.40 72.81 0.65 c p3
331.68 73.34 0.65 c p3
331.96 75.04 0.65 c p3
332.24 71.99 0.65 c p3
332.52 71.13 0.65 c p3
332.80 73.83 0.65 c p3
333.08 73.15 0.65 c p3
333.36 73.49 0.65 c p3
333.64 74.02 0.65 c p3
333.92 73.15 0.65 c p3
334.20 74.36 0.65 c p3
334.48 72.81 0.65 c p3
334.76 74.02 0.65 c p3
335.04 72.48 0.65 c p3
335.32 73.34 0.65 c p3
335.60 72.14 0.65 c p3
335.88 73.68 0.65 c p3
336.16 72.33 0.65 c p3
336.44 72.81 0.65 c p3
336.72 73.15 0.65 c p3
337.00 73.49 0.65 c p3
337.28 73.83 0.65 c p3
337.56 73.83 0.65 c p3
337.84 73.49 0.65 c p3
338.12 71.65 0.65 c p3
338.40 72.48 0.65 c p3
338.68 73.34 0.65 c p3
338.96 73.34 0.65 c p3
339.24 74.70 0.65 c p3
339.52 73.83 0.65 c p3
339.80 73.34 0.65 c p3
340.08 73.83 0.65 c p3
340.36 71.80 0.65 c p3
340.64 74.02 0.65 c p3
340.92 71.99 0.65 c p3
341.20 73.00 0.65 c p3
341.48 71.65 0.65 c p3
341.76 71.80 0.65 c p3
342.04 74.17 0.65 c p3
342.32 73.83 0.65 c p3
342.60 72.81 0.65 c p3
342.88 75.04 0.65 c p3
343.16 74.17 0.65 c p3
343.44 70.98 0.65 c p3
343.72 73.00 0.65 c p3
344.00 71.47 0.65 c p3
344.28 73.15 0.65 c p3
344.56 73.68 0.65 c p3
344.84 71.65 0.65 c p3
345.12 73.68 0.65 c p3
345.40 71.99 0.65 c p3
345.68 71.80 0.65 c p3
345.96 73.15 0.65 c p3
346.24 72.66 0.65 c p3
346.52 72.66 0.65 c p3
216.00 201.60 367.20 247.68 cl
0 0 0 srgb
0.75 setlinewidth
[] 0 setdash
1 setlinecap
1 setlinejoin
10.00 setmiterlimit
221.60 234.36 0.43 c p1
221.76 234.37 0.43 c p1
221.92 233.58 0.43 c p1
222.08 234.56 0.43 c p1
222.24 234.74 0.43 c p1
222.40 233.94 0.43 c p1
222.55 223.47 0.43 c p1
222.71 234.87 0.43 c p1
222.87 231.55 0.43 c p1
223.03 229.99 0.43 c p1
223.19 230.93 0.43 c p1
223.35 232.61 0.43 c p1
223.51 232.76 0.43 c p1
223.67 225.15 0.43 c p1
223.83 225.13 0.43 c p1
223.99 233.73 0.43 c p1
224.15 227.86 0.43 c p1
224.30 224.46 0.43 c p1
224.46 233.71 0.43 c p1
224.62 238.86 0.43 c p1
224.78 222.30 0.43 c p1
224.94 232.16 0.43 c p1
225.10 237.06 0.43 c p1
225.26 225.58 0.43 c p1
225.42 220.81 0.43 c p1
225.58 226.51 0.43 c p1
225.74 232.21 0.43 c p1
225.90 224.89 0.43 c p1
226.05 232.16 0.43 c p1
226.21 232.03 0.43 c p1
226.37 226.36 0.43 c p1
226.53 220.07 0.43 c p1
226.69 223.31 0.43 c p1
226.85 229.54 0.43 c p1
227.01 225.53 0.43 c p1
227.17 223.99 0.43 c p1
227.33 224.73 0.43 c p1
227.49 231.75 0.43 c p1
227.65 225.32 0.43 c p1
227.80 217.60 0.43 c p1
227.96 224.49 0.43 c p1
228.12 225.19 0.43 c p1
228.28 228.98 0.43 c p1
228.44 225.71 0.43 c p1
228.60 225.71 0.43 c p1
228.76 228.59 0.43 c p1
228.92 222.46 0.43 c p1
229.08 221.61 0.43 c p1
229.24 227.65 0.43 c p1
229.40 227.44 0.43 c p1
229.55 222.88 0.43 c p1
229.71 228.02 0.43 c p1
229.87 231.65 0.43 c p1
230.03 223.91 0.43 c p1
230.19 222.37 0.43 c p1
230.35 226.61 0.43 c p1
230.51 223.57 0.43 c p1
230.67 216.82 0.43 c p1
230.83 219.68 0.43 c p1
230.99 223.18 0.43 c p1
231.15 219.37 0.43 c p1
231.30 222.04 0.43 c p1
231.46 226.31 0.43 c p1
231.62 227.50 0.43 c p1
231.78 223.67 0.43 c p1
231.94 222.12 0.43 c p1
232.10 226.17 0.43 c p1
232.26 219.51 0.43 c p1
232.42 223.67 0.43 c p1
232.58 224.81 0.43 c p1
232.74 216.94 0.43 c p1
232.90 221.68 0.43 c p1
233.05 221.38 0.43 c p1
233.21 221.24 0.43 c p1
233.37 229.41 0.43 c p1
233.53 221.40 0.43 c p1
233.69 215.66 0.43 c p1
233.85 220.29 0.43 c p1
234.01 224.93 0.43 c p1
234.17 221.18 0.43 c p1
234.33 223.00 0.43 c p1
234.49 226.82 0.43 c p1
234.65 223.85 0.43 c p1
234.80 217.38 0.43 c p1
234.96 219.17 0.43 c p1
235.12 225.67 0.43 c p1
235.28 213.94 0.43 c p1
235.44 216.29 0.43 c p1
235.60 224.83 0.43 c p1
235.76 222.48 0.43 c p1
235.92 218.19 0.43 c p1
236.08 218.56 0.43 c p1
236.24 225.67 0.43 c p1
236.40 220.62 0.43 c p1
236.55 216.96 0.43 c p1
236.71 223.99 0.43 c p1
236.87 226.26 0.43 c p1
237.03 220.64 0.43 c p1
237.19 217.72 0.43 c p1
237.35 225.27 0.43 c p1
237.51 217.04 0.43 c p1
237.67 220.57 0.43 c p1
237.83 224.83 0.43 c p1
237.99 219.27 0.43 c p1
238.15 222.76 0.43 c p1
238.30 216.51 0.43 c p1
238.46 222.73 0.43 c p1
238.62 217.07 0.43 c p1
238.78 218.63 0.43 c p1
238.94 218.90 0.43 c p1
239.10 217.86 0.43 c p1
239.26 222.70 0.43 c p1
239.42 222.22 0.43 c p1
239.58 223.75 0.43 c p1
239.74 222.11 0.43 c p1
239.90 215.94 0.43 c p1
240.05 215.60 0.43 c p1
240.21 224.04 0.43 c p1
240.37 223.67 0.43 c p1
240.53 223.16 0.43 c p1
240.69 220.25 0.43 c p1
240.85 219.18 0.43 c p1
241.01 218.10 0.43 c p1
241.17 220.81 0.43 c p1
241.33 220.28 0.43 c p1
241.49 222.41 0.43 c p1
241.65 217.56 0.43 c p1
241.80 222.73 0.43 c p1
241.96 219.13 0.43 c p1
242.12 219.83 0.43 c p1
242.28 216.95 0.43 c p1
242.44 220.26 0.43 c p1
242.60 222.18 0.43 c p1
242.76 221.76 0.43 c p1
242.92 218.72 0.43 c p1
243.08 220.76 0.43 c p1
243.24 222.11 0.43 c p1
243.40 217.85 0.43 c p1
243.55 224.09 0.43 c p1
243.71 220.50 0.43 c p1
243.87 223.72 0.43 c p1
244.03 219.46 0.43 c p1
244.19 221.44 0.43 c p1
244.35 220.84 0.43 c p1
244.51 217.95 0.43 c p1
244.67 216.82 0.43 c p1
244.83 224.69 0.43 c p1
244.99 215.22 0.43 c p1
245.15 222.37 0.43 c p1
245.30 218.93 0.43 c p1
245.46 220.71 0.43 c p1
245.62 219.55 0.43 c p1
245.78 221.45 0.43 c p1
245.94 225.09 0.43 c p1
246.10 219.65 0.43 c p1
246.26 222.06 0.43 c p1
246.42 225.66 0.43 c p1
246.58 216.81 0.43 c p1
246.74 219.71 0.43 c p1
246.90 220.90 0.43 c p1
247.05 218.01 0.43 c p1
247.21 219.71 0.43 c p1
247.37 219.18 0.43 c p1
247.53 222.70 0.43 c p1
247.69 221.50 0.43 c p1
247.85 216.79 0.43 c p1
248.01 224.32 0.43 c p1
248.17 223.10 0.43 c p1
248.33 219.03 0.43 c p1
248.49 217.83 0.43 c p1
248.65 218.44 0.43 c p1
248.80 222.39 0.43 c p1
248.96 223.50 0.43 c p1
249.12 228.63 0.43 c p1
249.28 221.05 0.43 c p1
249.44 229.65 0.43 c p1
249.60 222.07 0.43 c p1
249.76 227.79 0.43 c p1
249.92 222.55 0.43 c p1
250.08 222.46 0.43 c p1
250.24 219.43 0.43 c p1
250.40 219.34 0.43 c p1
250.55 220.39 0.43 c p1
250.71 221.44 0.43 c p1
250.87 223.62 0.43 c p1
251.03 215.66 0.43 c p1
251.19 219.46 0.43 c p1
251.35 218.22 0.43 c p1
251.51 219.23 0.43 c p1
251.67 223.65 0.43 c p1
251.83 222.38 0.43 c p1
251.99 219.48 0.43 c p1
252.15 224.88 0.43 c p1
252.30 223.10 0.43 c p1
252.46 229.13 0.43 c p1
252.62 222.80 0.43 c p1
252.78 221.02 0.43 c p1
252.94 218.62 0.43 c p1
253.10 221.20 0.43 c p1
253.26 225.03 0.43 c p1
253.42 224.23 0.43 c p1
253.58 224.68 0.43 c p1
253.74 221.15 0.43 c p1
253.90 223.70 0.43 c p1
254.05 220.17 0.43 c p1
254.21 221.10 0.43 c p1
254.37 216.60 0.43 c p1
254.53 226.28 0.43 c p1
254.69 221.13 0.43 c p1
254.85 225.87 0.43 c p1
255.01 225.66 0.43 c p1
255.17 221.63 0.43 c p1
255.33 221.42 0.43 c p1
255.49 219.00 0.43 c p1
255.65 226.50 0.43 c p1
255.80 227.87 0.43 c p1
255.96 227.64 0.43 c p1
256.12 223.61 0.43 c p1
256.28 222.88 0.43 c p1
256.44 227.04 0.43 c p1
256.60 228.39 0.43 c p1
256.76 227.03 0.43 c p1
256.92 228.98 0.43 c p1
257.08 224.94 0.43 c p1
257.24 221.90 0.43 c p1
257.40 224.91 0.43 c p1
257.55 222.47 0.43 c p1
257.71 219.56 0.43 c p1
257.87 225.20 0.43 c p1
258.03 227.71 0.43 c p1
258.19 219.24 0.43 c p1
258.35 229.32 0.43 c p1
258.51 223.61 0.43 c p1
258.67 227.05 0.43 c p1
258.83 222.44 0.43 c p1
258.99 217.38 0.43 c p1
259.15 221.86 0.43 c p1
259.30 222.64 0.43 c p1
259.46 224.49 0.43 c p1
259.62 223.71 0.43 c p1
259.78 228.78 0.43 c p1
259.94 216.69 0.43 c p1
260.10 226.00 0.43 c p1
260.26 227.23 0.43 c p1
260.42 222.74 0.43 c p1
260.58 221.83 0.43 c p1
260.74 231.62 0.43 c p1
260.90 228.18 0.43 c p1
261.05 227.84 0.43 c p1
261.21 224.78 0.43 c p1
261.37 223.38 0.43 c p1
261.53 219.87 0.43 c p1
261.69 220.59 0.43 c p1
261.85 230.39 0.43 c p1
262.01 224.13 0.43 c p1
262.17 223.31 0.43 c p1
262.33 224.01 0.43 c p1
262.49 226.83 0.43 c p1
262.65 217.58 0.43 c p1
262.80 222.94 0.43 c p1
262.96 224.09 0.43 c p1
263.12 224.78 0.43 c p1
263.28 221.26 0.43 c p1
263.44 222.98 0.43 c p1
263.60 228.92 0.43 c p1
263.76 229.12 0.43 c p1
263.92 223.48 0.43 c p1
264.08 224.61 0.43 c p1
264.24 220.63 0.43 c p1
264.40 217.71 0.43 c p1
264.55 225.07 0.43 c p1
264.71 226.30 0.43 c p1
264.87 219.08 0.43 c p1
265.03 227.58 0.43 c p1
265.19 226.60 0.43 c p1
265.35 225.73 0.43 c p1
265.51 226.82 0.43 c p1
265.67 224.33 0.43 c p1
265.83 224.95 0.43 c p1
265.99 221.44 0.43 c p1
266.15 225.73 0.43 c p1
266.30 230.51 0.43 c p1
266.46 230.54 0.43 c p1
266.62 227.57 0.43 c p1
266.78 226.56 0.43 c p1
266.94 230.85 0.43 c p1
267.10 224.21 0.43 c p1
267.26 226.86 0.43 c p1
267.42 221.28 0.43 c p1
267.58 227.47 0.43 c p1
267.74 225.54 0.43 c p1
267.90 226.12 0.43 c p1
268.05 230.25 0.43 c p1
268.21 225.68 0.43 c p1
268.37 223.18 0.43 c p1
268.53 227.39 0.43 c p1
268.69 224.88 0.43 c p1
268.85 223.86 0.43 c p1
269.01 224.98 0.43 c p1
269.17 224.52 0.43 c p1
269.33 229.17 0.43 c p1
269.49 232.23 0.43 c p1
269.65 226.18 0.43 c p1
269.80 224.69 0.43 c p1
269.96 220.72 0.43 c p1
270.12 222.72 0.43 c p1
270.28 227.32 0.43 c p1
270.44 229.90 0.43 c p1
270.60 229.41 0.43 c p1
270.76 231.98 0.43 c p1
270.92 227.97 0.43 c p1
271.08 225.90 0.43 c p1
271.24 230.03 0.43 c p1
271.40 228.52 0.43 c p1
271.55 222.96 0.43 c p1
271.71 224.48 0.43 c p1
271.87 228.47 0.43 c p1
272.03 221.47 0.43 c p1
272.19 227.01 0.43 c p1
272.35 226.95 0.43 c p1
272.51 223.42 0.43 c p1
272.67 227.94 0.43 c p1
272.83 230.01 0.43 c p1
272.99 225.90 0.43 c p1
273.15 223.38 0.43 c p1
273.30 225.87 0.43 c p1
273.46 230.38 0.43 c p1
273.62 225.83 0.43 c p1
273.78 228.32 0.43 c p1
273.94 229.35 0.43 c p1
274.10 225.81 0.43 c p1
274.26 227.28 0.43 c p1
274.42 232.21 0.43 c p1
274.58 225.65 0.43 c p1
274.74 225.12 0.43 c p1
274.90 226.57 0.43 c p1
275.05 229.59 0.43 c p1
275.21 229.48 0.43 c p1
275.37 232.50 0.43 c p1
275.53 226.39 0.43 c p1
275.69 225.40 0.43 c p1
275.85 228.83 0.43 c p1
276.01 228.28 0.43 c p1
276.17 231.16 0.43 c p1
276.33 226.17 0.43 c p1
276.49 227.60 0.43 c p1
276.65 233.46 0.43 c p1
276.80 228.46 0.43 c p1
276.96 226.46 0.43 c p1
277.12 230.31 0.43 c p1
277.28 226.32 0.43 c p1
277.44 227.19 0.43 c p1
277.60 226.61 0.43 c p1
277.76 230.56 0.43 c p1
277.92 222.52 0.43 c p1
278.08 228.85 0.43 c p1
278.24 226.84 0.43 c p1
278.40 225.72 0.43 c p1
278.55 225.14 0.43 c p1
278.71 227.51 0.43 c p1
278.87 229.45 0.43 c p1
279.03 226.34 0.43 c p1
279.19 228.27 0.43 c p1
279.35 224.19 0.43 c p1
279.51 226.11 0.43 c p1
279.67 227.92 0.43 c p1
279.83 231.26 0.43 c p1
279.99 221.40 0.43 c p1
280.15 222.76 0.43 c p1
280.30 228.04 0.43 c p1
280.46 227.44 0.43 c p1
280.62 226.83 0.43 c p1
280.78 227.21 0.43 c p1
280.94 229.00 0.43 c p1
281.10 232.87 0.43 c p1
281.26 226.37 0.43 c p1
281.42 225.76 0.43 c p1
281.58 231.02 0.43 c p1
281.74 225.52 0.43 c p1
281.90 225.88 0.43 c p1
282.05 227.65 0.43 c p1
282.21 229.96 0.43 c p1
282.37 230.32 0.43 c p1
282.53 232.19 0.43 c p1
282.69 231.02 0.43 c p1
282.85 222.19 0.43 c p1
283.01 223.08 0.43 c p1
283.17 222.46 0.43 c p1
283.33 229.48 0.43 c p1
283.49 227.88 0.43 c p1
283.65 225.42 0.43 c p1
283.80 229.53 0.43 c p1
283.96 224.16 0.43 c p1
284.12 224.93 0.43 c p1
284.28 227.73 0.43 c p1
284.44 226.56 0.43 c p1
284.60 220.68 0.43 c p1
284.76 221.43 0.43 c p1
284.92 227.54 0.43 c p1
285.08 229.81 0.43 c p1
285.24 224.87 0.43 c p1
285.40 229.48 0.43 c p1
285.55 231.74 0.43 c p1
285.71 227.76 0.43 c p1
285.87 224.22 0.43 c p1
286.03 225.49 0.43 c p1
286.19 226.77 0.43 c p1
286.35 230.41 0.43 c p1
286.51 230.72 0.43 c p1
286.67 230.59 0.43 c p1
286.83 230.90 0.43 c p1
286.99 227.77 0.43 c p1
287.15 227.65 0.43 c p1
287.30 226.03 0.43 c p1
287.46 230.61 0.43 c p1
287.62 229.51 0.43 c p1
287.78 224.05 0.43 c p1
287.94 229.14 0.43 c p1
288.10 227.94 0.43 c p1
288.26 229.19 0.43 c p1
288.42 230.44 0.43 c p1
288.58 230.73 0.43 c p1
288.74 228.14 0.43 c p1
288.90 219.42 0.43 c p1
289.05 227.32 0.43 c p1
289.21 229.95 0.43 c p1
289.37 223.11 0.43 c p1
289.53 231.47 0.43 c p1
289.69 233.67 0.43 c p1
289.85 230.63 0.43 c p1
290.01 225.17 0.43 c p1
290.17 229.27 0.43 c p1
290.33 229.54 0.43 c p1
290.49 225.04 0.43 c p1
290.65 226.26 0.43 c p1
290.80 227.48 0.43 c p1
290.96 231.04 0.43 c p1
291.12 231.30 0.43 c p1
291.28 229.23 0.43 c p1
291.44 229.49 0.43 c p1
291.60 223.09 0.43 c p1
291.76 224.30 0.43 c p1
291.92 228.78 0.43 c p1
292.08 224.29 0.43 c p1
292.24 229.29 0.43 c p1
292.40 230.08 0.43 c p1
292.55 227.47 0.43 c p1
292.71 231.00 0.43 c p1
292.87 227.02 0.43 c p1
293.03 230.12 0.43 c p1
293.19 227.52 0.43 c p1
293.35 227.24 0.43 c p1
293.51 228.43 0.43 c p1
293.67 232.48 0.43 c p1
293.83 227.02 0.43 c p1
293.99 228.73 0.43 c p1
294.15 229.92 0.43 c p1
294.30 228.26 0.43 c p1
294.46 232.29 0.43 c p1
294.62 228.73 0.43 c p1
294.78 222.88 0.43 c p1
294.94 225.42 0.43 c p1
295.10 225.65 0.43 c p1
295.26 229.13 0.43 c p1
295.42 226.63 0.43 c p1
295.58 227.28 0.43 c p1
295.74 224.26 0.43 c p1
295.90 226.78 0.43 c p1
296.05 229.42 0.43 c p1
296.21 225.87 0.43 c p1
296.37 225.15 0.43 c p1
296.53 226.31 0.43 c p1
296.69 227.89 0.43 c p1
296.85 228.63 0.43 c p1
297.01 228.85 0.43 c p1
297.17 229.48 0.43 c p1
297.33 228.34 0.43 c p1
297.49 228.55 0.43 c p1
297.65 229.18 0.43 c p1
297.80 230.33 0.43 c p1
297.96 223.55 0.43 c p1
298.12 229.39 0.43 c p1
298.28 224.38 0.43 c p1
298.44 228.34 0.43 c p1
298.60 226.25 0.43 c p1
298.76 226.87 0.43 c p1
298.92 230.42 0.43 c p1
299.08 223.53 0.43 c p1
299.24 229.36 0.43 c p1
299.40 225.39 0.43 c p1
299.55 226.00 0.43 c p1
299.71 229.95 0.43 c p1
299.87 227.85 0.43 c p1
300.03 230.34 0.43 c p1
300.19 229.18 0.43 c p1
300.35 228.85 0.43 c p1
300.51 225.82 0.43 c p1
300.67 226.43 0.43 c p1
300.83 226.20 0.43 c p1
300.99 225.87 0.43 c p1
301.15 230.33 0.43 c p1
301.30 225.83 0.43 c p1
301.46 226.43 0.43 c p1
301.62 227.55 0.43 c p1
301.78 224.01 0.43 c p1
301.94 222.33 0.43 c p1
302.10 228.62 0.43 c p1
302.26 221.77 0.43 c p1
302.42 222.88 0.43 c p1
302.58 232.39 0.43 c p1
302.74 232.15 0.43 c p1
302.90 233.27 0.43 c p1
303.05 225.96 0.43 c p1
303.21 224.28 0.43 c p1
303.37 226.73 0.43 c p1
303.53 229.70 0.43 c p1
303.69 225.73 0.43 c p1
303.85 226.83 0.43 c p1
304.01 231.67 0.43 c p1
304.17 228.10 0.43 c p1
304.33 227.76 0.43 c p1
304.49 224.72 0.43 c p1
304.65 226.75 0.43 c p1
304.80 230.12 0.43 c p1
304.96 227.49 0.43 c p1
305.12 227.66 0.43 c p1
305.28 225.55 0.43 c p1
305.44 231.30 0.43 c p1
305.60 230.53 0.43 c p1
305.76 231.10 0.43 c p1
305.92 224.76 0.43 c p1
306.08 227.28 0.43 c p1
306.24 228.37 0.43 c p1
306.40 225.23 0.43 c p1
306.55 228.17 0.43 c p1
306.71 228.84 0.43 c p1
306.87 226.21 0.43 c p1
307.03 222.67 0.43 c p1
307.19 225.59 0.43 c p1
307.35 225.75 0.43 c p1
307.51 228.16 0.43 c p1
307.67 226.05 0.43 c p1
307.83 225.28 0.43 c p1
307.99 225.94 0.43 c p1
308.15 233.93 0.43 c p1
308.30 228.50 0.43 c p1
308.46 227.20 0.43 c p1
308.62 228.79 0.43 c p1
308.78 227.08 0.43 c p1
308.94 225.38 0.43 c p1
309.10 225.11 0.43 c p1
309.26 229.78 0.43 c p1
309.42 223.56 0.43 c p1
309.58 220.94 0.43 c p1
309.74 230.20 0.43 c p1
309.90 226.74 0.43 c p1
310.05 225.96 0.43 c p1
310.21 228.36 0.43 c p1
310.37 221.13 0.43 c p1
310.53 225.86 0.43 c p1
310.69 225.59 0.43 c p1
310.85 228.90 0.43 c p1
311.01 228.63 0.43 c p1
311.17 226.91 0.43 c p1
311.33 227.46 0.43 c p1
311.49 227.18 0.43 c p1
311.65 224.04 0.43 c p1
311.80 226.93 0.43 c p1
311.96 228.91 0.43 c p1
312.12 229.03 0.43 c p1
312.28 227.32 0.43 c p1
312.44 224.69 0.43 c p1
312.60 227.57 0.43 c p1
312.76 228.21 0.43 c p1
312.92 226.91 0.43 c p1
313.08 227.54 0.43 c p1
313.24 224.91 0.43 c p1
313.40 228.20 0.43 c p1
313.55 227.92 0.43 c p1
313.71 226.61 0.43 c p1
313.87 223.98 0.43 c p1
314.03 225.52 0.43 c p1
314.19 224.22 0.43 c p1
314.35 227.60 0.43 c p1
314.51 223.54 0.43 c p1
314.67 226.00 0.43 c p1
314.83 225.21 0.43 c p1
314.99 222.07 0.43 c p1
315.15 224.52 0.43 c p1
315.30 226.47 0.43 c p1
315.46 223.33 0.43 c p1
315.62 224.87 0.43 c p1
315.78 226.31 0.43 c p1
315.94 230.61 0.43 c p1
316.10 221.96 0.43 c p1
316.26 223.90 0.43 c p1
316.42 224.52 0.43 c p1
316.58 223.72 0.43 c p1
316.74 223.32 0.43 c p1
316.90 227.60 0.43 c p1
317.05 230.47 0.43 c p1
317.21 229.15 0.43 c p1
317.37 225.59 0.43 c p1
317.53 221.64 0.43 c p1
317.69 227.23 0.43 c p1
317.85 225.91 0.43 c p1
318.01 222.87 0.43 c p1
318.17 225.21 0.43 c p1
318.33 224.40 0.43 c p1
318.49 225.42 0.43 c p1
318.65 229.19 0.43 c p1
318.80 224.71 0.43 c p1
318.96 224.82 0.43 c p1
319.12 224.92 0.43 c p1
319.28 226.85 0.43 c p1
319.44 224.72 0.43 c p1
319.60 229.39 0.43 c p1
319.76 223.50 0.43 c p1
319.92 224.51 0.43 c p1
320.08 226.94 0.43 c p1
320.24 229.28 0.43 c p1
320.40 226.22 0.43 c p1
320.55 220.86 0.43 c p1
320.71 227.74 0.43 c p1
320.87 226.01 0.43 c p1
321.03 223.88 0.43 c p1
321.19 225.29 0.43 c p1
321.35 224.98 0.43 c p1
321.51 228.21 0.43 c p1
321.67 226.99 0.43 c p1
321.83 227.99 0.43 c p1
321.99 226.26 0.43 c p1
322.15 223.12 0.43 c p1
322.30 225.94 0.43 c p1
322.46 228.77 0.43 c p1
322.62 222.99 0.43 c p1
322.78 225.81 0.43 c p1
322.94 224.08 0.43 c p1
323.10 225.99 0.43 c p1
323.26 227.39 0.43 c p1
323.42 223.84 0.43 c p1
323.58 219.50 0.43 c p1
323.74 224.52 0.43 c p1
323.90 221.38 0.43 c p1
324.05 227.83 0.43 c p1
324.21 227.91 0.43 c p1
324.37 229.42 0.43 c p1
324.53 227.17 0.43 c p1
324.69 227.26 0.43 c p1
324.85 225.52 0.43 c p1
325.01 225.60 0.43 c p1
325.17 223.87 0.43 c p1
325.33 225.37 0.43 c p1
325.49 224.54 0.43 c p1
325.65 221.90 0.43 c p1
325.80 226.52 0.43 c p1
325.96 227.51 0.43 c p1
326.12 226.68 0.43 c p1
326.28 223.13 0.43 c p1
326.44 219.20 0.43 c p1
326.60 218.78 0.43 c p1
326.76 225.59 0.43 c p1
326.92 226.17 0.43 c p1
327.08 227.16 0.43 c p1
327.24 224.01 0.43 c p1
327.40 229.54 0.43 c p1
327.55 229.21 0.43 c p1
327.71 227.87 0.43 c p1
327.87 225.22 0.43 c p1
328.03 223.99 0.43 c p1
328.19 226.28 0.43 c p1
328.35 223.23 0.43 c p1
328.51 224.21 0.43 c p1
328.67 225.59 0.43 c p1
328.83 225.67 0.43 c p1
328.99 229.38 0.43 c p1
329.15 225.81 0.43 c p1
329.30 222.77 0.43 c p1
329.46 223.74 0.43 c p1
329.62 223.82 0.43 c p1
329.78 223.38 0.43 c p1
329.94 223.46 0.43 c p1
330.10 225.84 0.43 c p1
330.26 235.03 0.43 c p1
330.42 227.29 0.43 c p1
330.58 223.33 0.43 c p1
330.74 221.60 0.43 c p1
330.90 222.57 0.43 c p1
331.05 221.73 0.43 c p1
331.21 225.42 0.43 c p1
331.37 221.87 0.43 c p1
331.53 222.44 0.43 c p1
331.69 222.00 0.43 c p1
331.85 225.18 0.43 c p1
332.01 225.75 0.43 c p1
332.17 219.50 0.43 c p1
332.33 228.10 0.43 c p1
332.49 223.73 0.43 c p1
332.65 222.90 0.43 c p1
332.80 222.46 0.43 c p1
332.96 226.54 0.43 c p1
333.12 228.92 0.43 c p1
333.28 224.05 0.43 c p1
333.44 222.31 0.43 c p1
333.60 227.30 0.43 c p1
333.76 219.74 0.43 c p1
333.92 223.40 0.43 c p1
334.08 225.17 0.43 c p1
334.24 223.02 0.43 c p1
334.40 220.88 0.43 c p1
334.55 220.95 0.43 c p1
334.71 222.80 0.43 c p1
334.87 228.19 0.43 c p1
335.03 222.02 0.43 c p1
335.19 224.29 0.43 c p1
335.35 219.85 0.43 c p1
335.51 224.00 0.43 c p1
335.67 224.06 0.43 c p1
335.83 224.12 0.43 c p1
335.99 225.08 0.43 c p1
336.15 225.94 0.43 c p1
336.30 227.40 0.43 c p1
336.46 219.35 0.43 c p1
336.62 223.90 0.43 c p1
336.78 219.07 0.43 c p1
336.94 221.32 0.43 c p1
337.10 222.77 0.43 c p1
337.26 225.03 0.43 c p1
337.42 221.48 0.43 c p1
337.58 223.83 0.43 c p1
337.74 224.79 0.43 c p1
337.90 222.54 0.43 c p1
338.05 222.20 0.43 c p1
338.21 217.77 0.43 c p1
338.37 221.41 0.43 c p1
338.53 226.76 0.43 c p1
338.69 223.71 0.43 c p1
338.85 224.66 0.43 c p1
339.01 222.01 0.43 c p1
339.17 222.57 0.43 c p1
339.33 225.72 0.43 c p1
339.49 223.97 0.43 c p1
339.65 224.92 0.43 c p1
339.80 218.29 0.43 c p1
339.96 225.92 0.43 c p1
340.12 220.18 0.43 c p1
340.28 224.22 0.43 c p1
340.44 225.67 0.43 c p1
340.60 222.52 0.43 c p1
340.76 220.78 0.43 c p1
340.92 224.42 0.43 c p1
341.08 219.98 0.43 c p1
341.24 222.32 0.43 c p1
341.40 224.16 0.43 c p1
341.55 222.41 0.43 c p1
341.71 224.66 0.43 c p1
341.87 224.30 0.43 c p1
342.03 220.26 0.43 c p1
342.19 221.20 0.43 c p1
342.35 223.04 0.43 c p1
342.51 217.72 0.43 c p1
342.67 220.95 0.43 c p1
342.83 222.78 0.43 c p1
342.99 224.63 0.43 c p1
343.15 219.29 0.43 c p1
343.30 222.42 0.43 c p1
343.46 230.08 0.43 c p1
343.62 221.22 0.43 c p1
343.78 217.69 0.43 c p1
343.94 215.46 0.43 c p1
344.10 221.75 0.43 c p1
344.26 221.39 0.43 c p1
344.42 222.73 0.43 c p1
344.58 224.17 0.43 c p1
344.74 224.61 0.43 c p1
344.90 223.76 0.43 c p1
345.05 224.30 0.43 c p1
345.21 221.65 0.43 c p1
345.37 220.30 0.43 c p1
345.53 221.23 0.43 c p1
345.69 221.28 0.43 c p1
345.85 222.21 0.43 c p1
346.01 221.36 0.43 c p1
346.17 223.19 0.43 c p1
346.33 224.63 0.43 c p1
346.49 221.98 0.43 c p1
346.65 218.84 0.43 c p1
346.80 220.67 0.43 c p1
346.96 221.20 0.43 c p1
347.12 223.03 0.43 c p1
347.28 219.00 0.43 c p1
347.44 219.93 0.43 c p1
347.60 223.55 0.43 c p1
347.76 223.19 0.43 c p1
347.92 223.63 0.43 c p1
348.08 222.37 0.43 c p1
348.24 222.81 0.43 c p1
348.40 216.20 0.43 c p1
348.55 223.38 0.43 c p1
348.71 224.31 0.43 c p1
348.87 224.75 0.43 c p1
349.03 225.68 0.43 c p1
349.19 224.42 0.43 c p1
349.35 217.71 0.43 c p1
349.51 220.02 0.43 c p1
349.67 219.17 0.43 c p1
349.83 222.28 0.43 c p1
349.99 221.92 0.43 c p1
350.15 221.06 0.43 c p1
350.30 217.04 0.43 c p1
350.46 221.13 0.43 c p1
350.62 226.04 0.43 c p1
350.78 218.92 0.43 c p1
350.94 219.45 0.43 c p1
351.10 217.21 0.43 c p1
351.26 219.52 0.43 c p1
351.42 222.63 0.43 c p1
351.58 220.48 0.43 c p1
351.74 219.62 0.43 c p1
351.90 226.82 0.43 c p1
352.05 224.16 0.43 c p1
352.21 221.90 0.43 c p1
352.37 218.86 0.43 c p1
352.53 219.29 0.43 c p1
352.69 222.90 0.43 c p1
352.85 217.18 0.43 c p1
353.01 218.50 0.43 c p1
353.17 219.92 0.43 c p1
353.33 224.42 0.43 c p1
353.49 216.42 0.43 c p1
353.65 214.19 0.43 c p1
353.80 221.33 0.43 c p1
353.96 219.58 0.43 c p1
354.12 220.50 0.43 c p1
354.28 221.92 0.43 c p1
354.44 219.67 0.43 c p1
354.60 222.88 0.43 c p1
354.76 218.84 0.43 c p1
354.92 222.04 0.43 c p1
355.08 218.02 0.43 c p1
355.24 220.32 0.43 c p1
355.40 217.19 0.43 c p1
355.55 221.27 0.43 c p1
355.71 217.74 0.43 c p1
355.87 219.05 0.43 c p1
356.03 219.97 0.43 c p1
356.19 220.89 0.43 c p1
356.35 221.81 0.43 c p1
356.51 221.84 0.43 c p1
356.67 220.98 0.43 c p1
356.83 216.17 0.43 c p1
356.99 218.37 0.43 c p1
357.15 220.67 0.43 c p1
357.30 220.70 0.43 c p1
357.46 224.30 0.43 c p1
357.62 222.04 0.43 c p1
357.78 220.78 0.43 c p1
357.94 222.09 0.43 c p1
358.10 216.78 0.43 c p1
358.26 222.64 0.43 c p1
358.42 217.33 0.43 c p1
358.58 220.02 0.43 c p1
358.74 216.50 0.43 c p1
358.90 216.92 0.43 c p1
359.05 223.18 0.43 c p1
359.21 222.31 0.43 c p1
359.37 219.66 0.43 c p1
359.53 225.54 0.43 c p1
359.69 223.28 0.43 c p1
359.85 214.91 0.43 c p1
360.01 220.26 0.43 c p1
360.17 216.24 0.43 c p1
360.33 220.70 0.43 c p1
360.49 222.12 0.43 c p1
360.65 216.81 0.43 c p1
360.80 222.17 0.43 c p1
360.96 217.74 0.43 c p1
361.12 217.27 0.43 c p1
361.28 220.85 0.43 c p1
361.44 219.59 0.43 c p1
361.60 219.62 0.43 c p1
0.00 0.00 432.00 576.00 cl
0 0 0 srgb
0.75 setlinewidth
[] 0 setdash
1 setlinecap
1 setlinejoin
10.00 setmiterlimit
np
220.17 201.60 m
144.63 0 l
o
np
220.17 201.60 m
0 -5.76 l
o
np
256.33 201.60 m
0 -5.76 l
o
np
292.48 201.60 m
0 -5.76 l
o
np
328.64 201.60 m
0 -5.76 l
o
np
364.80 201.60 m
0 -5.76 l
o
/Font1 findfont 6 s
220.17 185.47 (0) .5 0 t
256.33 185.47 (500) .5 0 t
292.48 185.47 (1000) .5 0 t
328.64 185.47 (1500) .5 0 t
364.80 185.47 (2000) .5 0 t
np
216.00 207.33 m
0 34.62 l
o
np
216.00 207.33 m
-5.76 0 l
o
np
216.00 215.99 m
-5.76 0 l
o
np
216.00 224.64 m
-5.76 0 l
o
np
216.00 233.29 m
-5.76 0 l
o
np
216.00 241.95 m
-5.76 0 l
o
209.09 205.18 (-0.010) 1 0 t
209.09 213.83 (-0.005) 1 0 t
209.09 222.49 (0.000) 1 0 t
209.09 231.14 (0.005) 1 0 t
209.09 239.79 (0.010) 1 0 t
np
216.00 201.60 m
151.20 0 l
0 46.08 l
-151.20 0 l
0 -46.08 l
o
0.00 0.00 432.00 576.00 cl
/Font1 findfont 9 s
0 0 0 srgb
291.60 262.88 (Residuals) .5 0 t
59.04 73.44 401.76 516.96 cl
ep
%%Trailer
%%Pages: 1
%%EOF
