%!PS-Adobe-3.0 EPSF-3.0
%%DocumentNeededResources: font Helvetica
%%+ font Helvetica-Bold
%%+ font Helvetica-Oblique
%%+ font Helvetica-BoldOblique
%%+ font Symbol
%%Title: R Graphics Output
%%Creator: R Software
%%Pages: (atend)
%%BoundingBox: 0 0 432 576
%%EndComments
%%BeginProlog
/bp  { gs sRGB gs } def
% begin .ps.prolog
/gs  { gsave } bind def
/gr  { grestore } bind def
/ep  { showpage gr gr } bind def
/m   { moveto } bind def
/l  { rlineto } bind def
/np  { newpath } bind def
/cp  { closepath } bind def
/f   { fill } bind def
/o   { stroke } bind def
/c   { newpath 0 360 arc } bind def
/r   { 4 2 roll moveto 1 copy 3 -1 roll exch 0 exch rlineto 0 rlineto -1 mul 0 exch rlineto closepath } bind def
/p1  { stroke } bind def
/p2  { gsave bg fill grestore newpath } bind def
/p3  { gsave bg fill grestore stroke } bind def
/p6  { gsave bg eofill grestore newpath } bind def
/p7  { gsave bg eofill grestore stroke } bind def
/t   { 5 -2 roll moveto gsave rotate
       1 index stringwidth pop
       mul neg 0 rmoveto show grestore } bind def
/ta  { 4 -2 roll moveto gsave rotate show } bind def
/tb  { 2 -1 roll 0 rmoveto show } bind def
/cl  { grestore gsave newpath 3 index 3 index moveto 1 index
       4 -1 roll lineto  exch 1 index lineto lineto
       closepath clip newpath } bind def
/rgb { setrgbcolor } bind def
/s   { scalefont setfont } bind def
% end   .ps.prolog
/sRGB { [ /CIEBasedABC
          << /DecodeLMN
               [ { dup 0.03928 le
                        {12.92321 div}
                        {0.055 add 1.055 div 2.4 exp }
                     ifelse
                 } bind dup dup
               ]
             /MatrixLMN [0.412457 0.212673 0.019334
                         0.357576 0.715152 0.119192
                         0.180437 0.072175 0.950301]
             /WhitePoint [0.9505 1.0 1.0890]
           >>
         ] setcolorspace } bind def
/srgb { setcolor } bind def
% begin encoding
/WinAnsiEncoding [
 /.notdef /.notdef /.notdef /.notdef /.notdef /.notdef /.notdef /.notdef
 /.notdef /.notdef /.notdef /.notdef /.notdef /.notdef /.notdef /.notdef
 /.notdef /.notdef /.notdef /.notdef /.notdef /.notdef /.notdef /.notdef
 /.notdef /.notdef /.notdef /.notdef /.notdef /.notdef /.notdef /.notdef
 /space /exclam /quotedbl /numbersign /dollar /percent /ampersand /quoteright
 /parenleft /parenright /asterisk /plus /comma /minus /period /slash
 /zero /one /two /three /four /five /six /seven
 /eight /nine /colon /semicolon /less /equal /greater /question
 /at /A /B /C /D /E /F /G
 /H /I /J /K /L /M /N /O
 /P /Q /R /S /T /U /V /W
 /X /Y /Z /bracketleft /backslash /bracketright /asciicircum /underscore
 /grave /a /b /c /d /e /f /g
 /h /i /j /k /l /m /n /o
 /p /q /r /s /t /u /v /w
 /x /y /z /braceleft /bar /braceright /asciitilde /.notdef
 /Euro /.notdef /quotesinglbase /florin /quotedblbase /ellipsis /dagger /daggerdbl
 /circumflex /perthousand /Scaron /guilsinglleft /OE /.notdef /Zcaron /.notdef
 /.notdef /quoteleft /quoteright /quotedblleft /quotedblright /bullet /endash /emdash
 /tilde /trademark /scaron /guilsinglright /oe /.notdef /zcaron /Ydieresis
 /space /exclamdown /cent /sterling /currency /yen /brokenbar /section
 /dieresis /copyright /ordfeminine /guillemotleft /logicalnot /hyphen /registered /macron
 /degree /plusminus /twosuperior /threesuperior /acute /mu /paragraph /periodcentered
 /cedilla /onesuperior /ordmasculine /guillemotright /onequarter /onehalf /threequarters /questiondown
 /Agrave /Aacute /Acircumflex /Atilde /Adieresis /Aring /AE /Ccedilla
 /Egrave /Eacute /Ecircumflex /Edieresis /Igrave /Iacute /Icircumflex /Idieresis
 /Eth /Ntilde /Ograve /Oacute /Ocircumflex /Otilde /Odieresis /multiply
 /Oslash /Ugrave /Uacute /Ucircumflex /Udieresis /Yacute /Thorn /germandbls
 /agrave /aacute /acircumflex /atilde /adieresis /aring /ae /ccedilla
 /egrave /eacute /ecircumflex /edieresis /igrave /iacute /icircumflex /idieresis
 /eth /ntilde /ograve /oacute /ocircumflex /otilde /odieresis /divide
 /oslash /ugrave /uacute /ucircumflex /udieresis /yacute /thorn /ydieresis
]
 def
% end encoding
%%IncludeResource: font Helvetica
/Helvetica findfont
dup length dict begin
  {1 index /FID ne {def} {pop pop} ifelse} forall
  /Encoding WinAnsiEncoding def
  currentdict
  end
/Font1 exch definefont pop
%%IncludeResource: font Helvetica-Bold
/Helvetica-Bold findfont
dup length dict begin
  {1 index /FID ne {def} {pop pop} ifelse} forall
  /Encoding WinAnsiEncoding def
  currentdict
  end
/Font2 exch definefont pop
%%IncludeResource: font Helvetica-Oblique
/Helvetica-Oblique findfont
dup length dict begin
  {1 index /FID ne {def} {pop pop} ifelse} forall
  /Encoding WinAnsiEncoding def
  currentdict
  end
/Font3 exch definefont pop
%%IncludeResource: font Helvetica-BoldOblique
/Helvetica-BoldOblique findfont
dup length dict begin
  {1 index /FID ne {def} {pop pop} ifelse} forall
  /Encoding WinAnsiEncoding def
  currentdict
  end
/Font4 exch definefont pop
%%IncludeResource: font Symbol
/Symbol findfont
dup length dict begin
  {1 index /FID ne {def} {pop pop} ifelse} forall
  currentdict
  end
/Font5 exch definefont pop
%%EndProlog
%%Page: 1 1
bp
/bg { 1 1 1 srgb } def
0.00 0.00 432.00 576.00 r p2
0.00 0.00 432.00 576.00 cl
0.00 0.00 432.00 576.00 cl
0.00 0.00 432.00 576.00 cl
/Font1 findfont 12 s
0 0 0 srgb
48.00 508.72 (PCP-ETH) 0 0 t
48.00 494.89 (Flash light photolysis) 0 0 t
/Font1 findfont 9 s
48.00 457.54 (File: In) 0 ta
-0.180 (v) tb
-0.225 (estigation_2_MSLM.dat) tb gr
48.00 334.87 (T) 0 ta
-1.080 (ue Mar 01 15:32:50 2022) tb gr
48.00 430.87 (Fit funtion:  a + b * e) 0 ta
-0.270 (xp\(-c * t\)) tb gr
48.00 420.50 (t-Inter) 0 ta
0.270 (v) tb
-0.225 (all: 33.000 ... 2004.200 ms) tb gr
48.00 410.14 (P) 0 ta
-0.360 (ar) tb
-0.090 (ameters \(Standard de) tb
-0.270 (viation\):) tb gr
48.00 399.77 (  a = 0.01124 \(0.00017\)) 0 0 t
48.00 389.40 (  b = 0.30396 \(0.00039\)) 0 0 t
48.00 379.03 (  c = 2.274e+00 \(6.288e-03\) s^-1) 0 0 t
48.00 368.66 (  tau = 4.398e-01 \(1.216e-03\) s) 0 0 t
216.00 345.60 388.80 518.40 cl
0 0 0 srgb
0.75 setlinewidth
[] 0 setdash
1 setlinecap
1 setlinejoin
10.00 setmiterlimit
np
222.40 509.57 m
0.15 0.42 l
0.14 0.45 l
0.15 0.12 l
0.14 -0.28 l
0.15 -0.83 l
0.14 0.41 l
0.15 0.42 l
0.14 -0.13 l
0.15 -0.86 l
0.15 0.70 l
0.14 -0.29 l
0.15 -0.25 l
0.14 -0.16 l
0.15 0.57 l
0.14 1.15 l
0.15 -1.02 l
0.14 -1.41 l
0.15 1.41 l
0.15 -0.42 l
0.14 0.29 l
0.15 0.29 l
0.14 -0.29 l
0.15 0.42 l
0.14 -0.83 l
0.15 0.70 l
0.15 0.70 l
0.14 -0.57 l
0.15 -0.71 l
0.14 1.15 l
0.15 -1.27 l
0.14 0.83 l
0.15 -0.83 l
0.14 -0.29 l
0.15 0.83 l
0.15 0.16 l
0.14 0.99 l
0.15 -1.98 l
0.14 0 l
0.15 -0.29 l
0.14 -0.57 l
0.15 1.85 l
0.14 -0.58 l
0.15 0.99 l
0.15 -0.70 l
0.14 -0.16 l
0.15 -0.25 l
0.14 0 l
0.15 0 l
0.14 0.12 l
0.15 0.99 l
0.14 -0.99 l
0.15 0.58 l
0.15 0.13 l
0.14 -0.58 l
0.15 -0.54 l
0.14 1.40 l
0.15 -0.99 l
0.14 0.42 l
0.15 -0.13 l
0.15 0.86 l
0.14 -0.57 l
0.15 -0.45 l
0.14 0 l
0.15 -0.41 l
0.14 0.16 l
0.15 -1.60 l
0.14 0.73 l
0.15 1.12 l
0.15 -0.54 l
0.14 2.84 l
0.15 -3.00 l
0.14 0.45 l
0.15 -0.29 l
0.14 2.27 l
0.15 -1.98 l
0.14 1.27 l
0.15 -1.15 l
0.15 0.13 l
0.14 0.86 l
0.15 -0.28 l
0.14 -0.71 l
0.15 -0.28 l
0.14 0 l
0.15 0.99 l
0.14 0.28 l
0.15 -0.12 l
0.15 -0.29 l
0.14 -1.44 l
0.15 1.44 l
0.14 0.70 l
0.15 -0.57 l
0.14 -0.83 l
0.15 0.12 l
0.15 -0.28 l
0.14 -0.29 l
0.15 0.70 l
0.14 0 l
0.15 0 l
0.14 -0.83 l
236.96 429.06 lineto
0.14 0.56 l
0.15 -0.40 l
0.15 0 l
0.14 0.86 l
0.15 0.58 l
0.14 0.70 l
0.15 0 l
0.14 -2.30 l
0.15 2.75 l
0.14 0 l
0.15 -1.44 l
0.15 1.44 l
0.14 0.29 l
0.15 0.86 l
0.14 -1.44 l
0.15 1.72 l
0.14 0.42 l
0.15 -0.70 l
0.14 -0.29 l
0.15 0.99 l
0.15 -0.16 l
0.14 0.16 l
0.15 -0.16 l
0.14 0.86 l
0.15 1.73 l
0.14 -1.86 l
0.15 0.87 l
0.15 1.43 l
0.14 -0.86 l
0.15 -1.31 l
0.14 1.73 l
0.15 2.01 l
0.14 -1.57 l
0.15 0.99 l
0.14 -0.12 l
0.15 0.57 l
0.15 0.29 l
0.14 0 l
0.15 0.41 l
0.14 0.29 l
0.15 0.29 l
0.14 1.15 l
0.15 0.86 l
0.14 -0.86 l
0.15 -0.29 l
0.15 0.99 l
0.14 -0.42 l
0.15 1.28 l
0.14 -0.57 l
0.15 0.57 l
0.14 0.16 l
0.15 -0.16 l
0.14 0.45 l
0.15 0.70 l
0.15 0.29 l
0.14 -1.15 l
0.15 0.28 l
0.14 0.87 l
0.15 1.15 l
0.14 -0.99 l
0.15 0 l
0.15 0.70 l
0.14 0.99 l
0.15 -0.42 l
0.14 0.29 l
0.15 0.29 l
0.14 0.57 l
0.15 -1.02 l
0.14 0.58 l
0.15 0.28 l
0.15 -0.57 l
0.14 1.72 l
0.15 -0.29 l
0.14 -0.86 l
0.15 1.02 l
0.14 0 l
0.15 0.99 l
0.14 0.58 l
0.15 -0.70 l
0.15 0.99 l
0.14 0.16 l
0.15 0.57 l
0.14 0.29 l
0.15 -0.86 l
0.14 0.99 l
0.15 -0.99 l
0.14 0.99 l
0.15 1.27 l
0.15 -0.41 l
0.14 0 l
0.15 0.57 l
0.14 0.99 l
0.15 -0.57 l
0.14 -0.71 l
0.15 0.99 l
0.15 0.58 l
0.14 0.16 l
0.15 -0.58 l
0.14 0.87 l
251.52 451.86 lineto
0.14 0.57 l
0.15 0.42 l
0.14 0.16 l
0.15 0.41 l
0.15 1.31 l
0.14 -0.16 l
0.15 0.57 l
0.14 -0.57 l
0.15 0.45 l
0.14 -0.74 l
0.15 0.74 l
0.14 0.12 l
0.15 0.99 l
0.15 -0.28 l
0.14 0.86 l
0.15 0.45 l
0.14 -1.31 l
0.15 0.57 l
0.14 0.29 l
0.15 0.29 l
0.14 -0.29 l
0.15 -0.70 l
0.15 2.14 l
0.14 0.16 l
0.15 -0.74 l
0.14 0 l
0.15 0.58 l
0.14 0.57 l
0.15 -0.86 l
0.14 1.43 l
0.15 -0.57 l
0.15 1.15 l
0.14 -0.70 l
0.15 0.70 l
0.14 0.16 l
0.15 0.29 l
0.14 -0.16 l
0.15 0.28 l
0.15 1.28 l
0.14 -0.99 l
0.15 -0.29 l
0.14 0.29 l
0.15 1.15 l
0.14 1.44 l
0.15 -1.31 l
0.14 0.57 l
0.15 0.74 l
0.15 -0.58 l
0.14 0 l
0.15 0.29 l
0.14 -0.73 l
0.15 2.01 l
0.14 -1.44 l
0.15 0.73 l
0.14 0.87 l
0.15 0 l
0.15 0.12 l
0.14 -0.70 l
0.15 0.58 l
0.14 1.56 l
0.15 -0.86 l
0.14 -1.28 l
0.15 1.44 l
0.14 0.13 l
0.15 -0.13 l
0.15 -0.74 l
0.14 1.44 l
0.15 -1.44 l
0.14 0.45 l
0.15 0.99 l
0.14 1.85 l
0.15 -0.70 l
0.15 -0.86 l
0.14 -0.16 l
0.15 0.29 l
0.14 0.73 l
0.15 -0.45 l
0.14 2.17 l
0.15 -0.28 l
0.14 -0.58 l
0.15 -0.57 l
0.15 1.43 l
0.14 -0.57 l
0.15 -1.02 l
0.14 0.16 l
0.15 1.72 l
0.14 0.58 l
0.15 -2.18 l
0.14 1.44 l
0.15 -0.41 l
0.15 1.15 l
0.14 -0.74 l
0.15 -0.29 l
0.14 2.17 l
0.15 1.28 l
0.14 -2.58 l
0.15 2.01 l
0.14 0.28 l
0.15 0.87 l
266.08 470.05 lineto
0.14 1.57 l
0.15 0.57 l
0.14 -0.29 l
0.15 -0.70 l
0.14 2.27 l
0.15 -0.99 l
0.15 0.13 l
0.14 1.02 l
0.15 -0.29 l
0.14 -0.86 l
0.15 0.57 l
0.14 0 l
0.15 0.71 l
0.14 -0.13 l
0.15 -1.60 l
0.15 2.17 l
0.14 -0.57 l
0.15 -0.58 l
0.14 0 l
0.15 0.99 l
0.14 0.29 l
0.15 0.16 l
0.14 -1.15 l
0.15 1.44 l
0.15 2.01 l
0.14 -0.74 l
0.15 -1.85 l
0.14 1.28 l
0.15 -0.99 l
0.14 0.86 l
0.15 0 l
0.14 0.13 l
0.15 -0.13 l
0.15 0.99 l
0.14 0.86 l
0.15 -0.57 l
0.14 0 l
0.15 0.16 l
0.14 -1.88 l
0.15 2.13 l
0.15 -0.41 l
0.14 0.16 l
0.15 0.25 l
0.14 1.15 l
0.15 -0.70 l
0.14 0.86 l
0.15 -0.86 l
0.14 0.42 l
0.15 0.28 l
0.15 0.29 l
0.14 -0.29 l
0.15 0.87 l
0.14 1.30 l
0.15 -2.45 l
0.14 0.44 l
0.15 -0.16 l
0.14 2.59 l
0.15 -1.44 l
0.15 0.16 l
0.14 -0.73 l
0.15 0 l
0.14 1.02 l
0.15 0.41 l
0.14 0 l
0.15 -0.70 l
0.14 0.13 l
0.15 0.29 l
0.15 0.73 l
0.14 0.70 l
0.15 -0.70 l
0.14 -0.86 l
0.15 1.72 l
0.14 -0.86 l
0.15 -0.16 l
0.15 -0.13 l
0.14 0.71 l
0.15 0.86 l
0.14 -1.28 l
0.15 0.29 l
0.14 1.28 l
0.15 -0.13 l
0.14 -1.02 l
0.15 0 l
0.15 1.02 l
0.14 -0.16 l
0.15 0 l
0.14 0.70 l
0.15 -0.41 l
0.14 -0.29 l
0.15 0 l
0.14 0.99 l
0.15 1.31 l
0.15 -1.02 l
0.14 -1.41 l
0.15 0.42 l
0.14 -0.29 l
0.15 2.14 l
0.14 -0.13 l
0.15 0.13 l
280.63 483.94 lineto
0.15 -1.02 l
0.15 1.59 l
0.14 -0.16 l
0.15 0.29 l
0.14 -1.15 l
0.15 0.86 l
0.14 1.15 l
0.15 -0.12 l
0.15 -1.03 l
0.14 0.45 l
0.15 0.29 l
0.14 -1.15 l
0.15 0 l
0.14 2.14 l
0.15 -1.28 l
0.14 -0.16 l
0.15 0.58 l
0.15 1.15 l
0.14 -0.71 l
0.15 -0.44 l
0.14 1.02 l
0.15 -0.16 l
0.14 0.29 l
0.15 -0.13 l
0.14 -0.86 l
0.15 0.41 l
0.15 1.72 l
0.14 0 l
0.15 -2.01 l
0.14 1.44 l
0.15 -0.41 l
0.14 0.28 l
0.15 0.86 l
0.14 -1.59 l
0.15 1.43 l
0.15 -1.56 l
0.14 0 l
0.15 1.15 l
0.14 -0.29 l
0.15 0.58 l
0.14 -2.01 l
0.15 2.29 l
0.14 0.42 l
0.15 0 l
0.15 0.29 l
0.14 -0.16 l
0.15 0.73 l
0.14 -1.85 l
0.15 1.40 l
0.14 -0.28 l
0.15 0.28 l
0.15 0.16 l
0.14 -0.99 l
0.15 1.28 l
0.14 -0.73 l
0.15 0.28 l
0.14 0 l
0.15 1.44 l
0.14 -0.99 l
0.15 -0.16 l
0.15 0.74 l
0.14 0.70 l
0.15 -2.84 l
0.14 2.14 l
0.15 0.12 l
0.14 -0.28 l
0.15 -0.71 l
0.14 -0.28 l
0.15 0.57 l
0.15 1.85 l
0.14 -1.43 l
0.15 1.15 l
0.14 0 l
0.15 0.16 l
0.14 -1.60 l
0.15 0.16 l
0.14 1.28 l
0.15 -0.87 l
0.15 -0.28 l
0.14 1.43 l
0.15 0.29 l
0.14 -0.29 l
0.15 -0.57 l
0.14 0.16 l
0.15 -0.74 l
0.15 1.03 l
0.14 -0.87 l
0.15 2.72 l
0.14 -0.87 l
0.15 -1.43 l
0.14 1.02 l
0.15 0.13 l
0.14 0.16 l
0.15 -1.73 l
0.15 1.57 l
0.14 1.02 l
0.15 -1.31 l
0.14 1.44 l
0.15 -0.58 l
295.19 492.11 lineto
0.15 -1.02 l
0.14 0.57 l
0.15 0.58 l
0.15 -0.29 l
0.14 -0.13 l
0.15 1.28 l
0.14 0.70 l
0.15 -1.56 l
0.14 1.28 l
0.15 -1.12 l
0.14 0.13 l
0.15 0 l
0.15 -0.13 l
0.14 1.28 l
0.15 -0.99 l
0.14 -0.29 l
0.15 0.70 l
0.14 0.58 l
0.15 -1.28 l
0.15 0.57 l
0.14 -0.28 l
0.15 1.40 l
0.14 -0.83 l
0.15 0 l
0.14 -0.86 l
0.15 1.12 l
0.14 -0.71 l
0.15 0.29 l
0.15 0.70 l
0.14 -0.28 l
0.15 -0.99 l
0.14 1.15 l
0.15 0.99 l
0.14 -1.57 l
0.15 0.29 l
0.14 0.86 l
0.15 0.86 l
0.15 -0.44 l
0.14 -1.70 l
0.15 0 l
0.14 3.00 l
0.15 -1.43 l
0.14 -1.15 l
0.15 1.15 l
0.14 0.29 l
0.15 -1.03 l
0.15 0.45 l
0.14 -0.73 l
0.15 1.72 l
0.14 -1.44 l
0.15 2.01 l
0.14 -2.01 l
0.15 1.03 l
0.15 0.86 l
0.14 0 l
0.15 -1.02 l
0.14 1.14 l
0.15 0 l
0.14 -0.41 l
0.15 0.57 l
0.14 0.42 l
0.15 -0.42 l
0.15 -0.16 l
0.14 -0.28 l
0.15 -0.29 l
0.14 -0.41 l
0.15 0.28 l
0.14 1.44 l
0.15 -0.58 l
0.14 -0.44 l
0.15 0.86 l
0.15 0.16 l
0.14 -1.31 l
0.15 0.73 l
0.14 -1.88 l
0.15 2.01 l
0.14 -0.41 l
0.15 0.86 l
0.14 -0.16 l
0.15 0.16 l
0.15 -0.74 l
0.14 1.31 l
0.15 -1.43 l
0.14 -0.45 l
0.15 0.73 l
0.14 0 l
0.15 -0.57 l
0.15 2.14 l
0.14 -1.73 l
0.15 0.45 l
0.14 1.57 l
0.15 -1.57 l
0.14 0.58 l
0.15 0.41 l
0.14 -0.13 l
0.15 0 l
0.15 -0.57 l
0.14 0.41 l
0.15 0.45 l
309.75 497.12 lineto
0.15 0 l
0.14 1.15 l
0.15 -1.59 l
0.14 0.57 l
0.15 1.02 l
0.15 -1.02 l
0.14 -0.13 l
0.15 -0.16 l
0.14 0.74 l
0.15 -0.74 l
0.14 0 l
0.15 -0.70 l
0.14 0.86 l
0.15 1.86 l
0.15 -0.87 l
0.14 0.87 l
0.15 -1.86 l
0.14 0.99 l
0.15 -1.15 l
0.14 0.74 l
0.15 -0.16 l
0.15 0.45 l
0.14 -0.16 l
0.15 -0.87 l
0.14 1.44 l
0.15 0.86 l
0.14 -1.56 l
0.15 1.12 l
0.14 -0.26 l
0.15 0.83 l
0.15 -1.28 l
0.14 0.58 l
0.15 -0.86 l
0.14 1.43 l
0.15 -0.57 l
0.14 -1.57 l
0.15 2.27 l
0.14 -0.29 l
0.15 -1.11 l
0.15 -0.16 l
0.14 0.86 l
0.15 0.41 l
0.14 -0.41 l
0.15 0.99 l
0.14 -0.86 l
0.15 0.28 l
0.14 -0.83 l
0.15 0 l
0.15 0.13 l
0.14 1.85 l
0.15 -1.69 l
0.14 0 l
0.15 0.70 l
0.14 0 l
0.15 0 l
0.15 -0.28 l
0.14 0.70 l
0.15 0 l
0.14 -1.28 l
0.15 0.99 l
0.14 -0.41 l
0.15 -0.29 l
0.14 1.15 l
0.15 0.12 l
0.15 -0.28 l
0.14 -1.12 l
0.15 -0.16 l
0.14 1.72 l
0.15 0.13 l
0.14 -1.15 l
0.15 1.31 l
0.14 0.29 l
0.15 -1.60 l
0.15 1.31 l
0.14 -1.31 l
0.15 -0.12 l
0.14 1.43 l
0.15 -1.02 l
0.14 0 l
0.15 -0.99 l
0.14 1.72 l
0.15 0.42 l
0.15 -1.56 l
0.14 1.14 l
0.15 0.29 l
0.14 -0.29 l
0.15 -0.28 l
0.14 0.41 l
0.15 0.58 l
0.14 0.73 l
0.15 -0.86 l
0.15 -0.74 l
0.14 -0.41 l
0.15 0.99 l
0.14 -1.28 l
0.15 0.99 l
0.14 0.29 l
0.15 -0.42 l
0.15 0.87 l
324.31 500.83 lineto
0.15 -1.28 l
0.14 0.70 l
0.15 -0.41 l
0.14 0.41 l
0.15 0.74 l
0.14 -1.03 l
0.15 0.29 l
0.15 0.16 l
0.14 -0.45 l
0.15 0 l
0.14 0 l
0.15 0.74 l
0.14 -0.16 l
0.15 0.45 l
0.14 0.70 l
0.15 0 l
0.15 -0.86 l
0.14 0.86 l
0.15 -1.57 l
0.14 1.15 l
0.15 -0.16 l
0.14 0.87 l
0.15 -0.29 l
0.14 -0.99 l
0.15 0 l
0.15 0.41 l
0.14 0.16 l
0.15 -0.16 l
0.14 0 l
0.15 0.16 l
0.14 -0.16 l
0.15 -0.41 l
0.15 -0.74 l
0.14 1.89 l
0.15 -0.16 l
0.14 -0.70 l
0.15 -0.16 l
0.14 -0.13 l
0.15 0.41 l
0.14 0.16 l
0.15 0 l
0.15 -0.16 l
0.14 -0.41 l
0.15 1.28 l
0.14 -1.15 l
0.15 0.16 l
0.14 -0.16 l
0.15 -0.42 l
0.14 0.13 l
0.15 -0.42 l
0.15 0.42 l
0.14 1.72 l
0.15 0.58 l
0.14 -1.15 l
0.15 0.29 l
0.14 0.73 l
0.15 0.29 l
0.14 -1.89 l
0.15 1.03 l
0.15 1.27 l
0.14 -2.01 l
0.15 0.58 l
0.14 1.43 l
0.15 -0.86 l
0.14 -0.41 l
0.15 -0.29 l
0.15 0.70 l
0.14 -0.41 l
0.15 0.70 l
0.14 -0.29 l
0.15 -0.29 l
0.14 -0.57 l
0.15 0.73 l
0.14 -0.16 l
0.15 0.45 l
0.15 -0.86 l
0.14 0 l
0.15 0.29 l
0.14 -1.03 l
0.15 0.87 l
0.14 0.73 l
0.15 -0.29 l
0.14 -0.28 l
0.15 -0.16 l
0.15 -0.13 l
0.14 0.70 l
0.15 -0.86 l
0.14 0.57 l
0.15 0.45 l
0.14 -0.57 l
0.15 1.27 l
0.14 -1.43 l
0.15 0 l
0.15 1.02 l
0.14 -0.16 l
0.15 0.44 l
0.14 -1.30 l
0.15 0.57 l
0.14 0.29 l
338.87 503.00 lineto
0.15 0.86 l
0.14 -2.01 l
0.15 1.28 l
0.14 -1.57 l
0.15 1.72 l
0.14 -1.59 l
0.15 1.31 l
0.14 -0.74 l
0.15 1.02 l
0.15 -0.57 l
0.14 -1.31 l
0.15 1.15 l
0.14 0.58 l
0.15 -0.13 l
0.14 -0.16 l
0.15 1.72 l
0.14 -0.99 l
0.15 -0.29 l
0.15 -0.57 l
0.14 0 l
0.15 0.13 l
0.14 0.44 l
0.15 -1.14 l
0.14 1.27 l
0.15 0.58 l
0.14 -1.44 l
0.15 0.16 l
0.15 0.99 l
0.14 0.41 l
0.15 -1.11 l
0.14 -0.29 l
0.15 0.42 l
0.14 -0.58 l
0.15 -0.70 l
0.15 1.56 l
0.14 0 l
0.15 -0.41 l
0.14 -1.15 l
0.15 1.43 l
0.14 0.58 l
0.15 -1.31 l
0.14 1.02 l
0.15 0.29 l
0.15 -0.73 l
0.14 0.86 l
0.15 -2.01 l
0.14 1.02 l
0.15 -0.45 l
0.14 0 l
0.15 1.15 l
0.14 -0.13 l
0.15 0 l
0.15 1.57 l
0.14 -2.88 l
0.15 1.15 l
0.14 -0.13 l
0.15 -0.28 l
0.14 0.13 l
0.15 -0.58 l
0.14 1.44 l
0.15 -0.58 l
0.15 0.86 l
0.14 0.13 l
0.15 -0.99 l
0.14 0.29 l
0.15 -0.70 l
0.14 0.99 l
0.15 -0.42 l
0.15 0.83 l
0.14 -0.70 l
0.15 0.16 l
0.14 0.99 l
0.15 -1.15 l
0.14 0.16 l
0.15 -0.45 l
0.14 -0.13 l
0.15 0 l
0.15 0.29 l
0.14 -0.16 l
0.15 1.44 l
0.14 -1.28 l
0.15 0.42 l
0.14 -0.42 l
0.15 0 l
0.14 0.83 l
0.15 -0.83 l
0.15 1.57 l
0.14 0.57 l
0.15 -1.15 l
0.14 -0.99 l
0.15 1.57 l
0.14 -1.03 l
0.15 -1.40 l
0.14 1.98 l
0.15 -0.70 l
0.15 -0.71 l
0.14 0.99 l
0.15 -0.28 l
0.14 -0.58 l
353.43 504.69 lineto
0.14 0 l
0.15 -0.70 l
0.14 -0.42 l
0.15 0.70 l
0.15 0.42 l
0.14 -0.13 l
0.15 -0.86 l
0.14 1.15 l
0.15 -1.15 l
0.14 -0.57 l
0.15 0.44 l
0.15 0.13 l
0.14 1.72 l
0.15 -1.31 l
0.14 -0.25 l
0.15 -0.73 l
0.14 0 l
0.15 0.73 l
0.14 0.70 l
0.15 -0.16 l
0.15 0.45 l
0.14 -0.58 l
0.15 -0.57 l
0.14 1.56 l
0.15 -0.12 l
0.14 -1.44 l
0.15 0 l
0.14 0.16 l
0.15 1.85 l
0.15 -2.43 l
0.14 1.28 l
0.15 -0.86 l
0.14 0.29 l
0.15 -1.57 l
0.14 1.57 l
0.15 1.15 l
0.14 -1.15 l
0.15 -0.42 l
0.15 1.57 l
0.14 -0.16 l
0.15 0.16 l
0.14 -1.15 l
0.15 -0.13 l
0.14 0.99 l
0.15 -0.86 l
0.15 0 l
0.14 -0.13 l
0.15 1.40 l
0.14 -1.69 l
0.15 0.99 l
0.14 0.58 l
0.15 -1.15 l
0.14 0.57 l
0.15 -0.99 l
0.15 0.13 l
0.14 1.15 l
0.15 0.13 l
0.14 -0.99 l
0.15 1.56 l
0.14 -0.41 l
0.15 0.41 l
0.14 0.16 l
0.15 -0.45 l
0.15 -0.41 l
0.14 0.29 l
0.15 -0.74 l
0.14 -0.54 l
0.15 0.54 l
0.14 0.16 l
0.15 0.13 l
0.14 0.86 l
0.15 -0.86 l
0.15 -1.56 l
0.14 0.98 l
0.15 -0.12 l
0.14 0.86 l
0.15 0.13 l
0.14 -0.58 l
0.15 1.44 l
0.15 -1.85 l
0.14 1.15 l
0.15 0.57 l
0.14 -1.44 l
0.15 0.87 l
0.14 -0.29 l
0.15 0.13 l
0.14 -0.13 l
0.15 0.70 l
0.15 -1.28 l
0.14 1.57 l
0.15 -0.42 l
0.14 -0.16 l
0.15 -1.15 l
0.14 1.15 l
0.15 -0.41 l
0.14 0.57 l
0.15 -1.31 l
0.15 1.89 l
0.14 -0.86 l
currentpoint o m
367.99 504.27 lineto
0.14 0.87 l
0.15 -0.16 l
0.14 0.16 l
0.15 -0.45 l
0.14 0.16 l
0.15 -0.29 l
0.15 0.29 l
0.14 0 l
0.15 0.57 l
0.14 -0.16 l
0.15 -1.40 l
0.14 1.85 l
0.15 0.29 l
0.15 -0.74 l
0.14 1.31 l
0.15 -1.43 l
0.14 -0.58 l
0.15 0.86 l
0.14 -1.15 l
0.15 0.87 l
0.14 -0.74 l
0.15 0.74 l
0.15 -0.29 l
0.14 1.15 l
0.15 -1.15 l
0.14 0.41 l
0.15 1.60 l
0.14 -0.73 l
0.15 -0.58 l
0.14 -0.99 l
0.15 1.73 l
0.15 -1.73 l
0.14 0.58 l
0.15 0.12 l
0.14 0.45 l
0.15 -0.86 l
0.14 -0.16 l
0.15 1.31 l
0.14 -0.86 l
0.15 -0.58 l
0.15 1.57 l
0.14 -0.58 l
0.15 -0.29 l
0.14 -0.12 l
0.15 0.57 l
0.14 -0.45 l
0.15 0.74 l
0.15 -0.58 l
0.14 -0.73 l
0.15 0.45 l
0.14 0.12 l
0.15 -0.28 l
0.14 0.44 l
0.15 -0.44 l
0.14 1.15 l
0.15 -0.99 l
0.15 0.57 l
0.14 0.86 l
0.15 -0.57 l
0.14 0.41 l
0.15 -0.70 l
0.14 -0.45 l
0.15 0.29 l
0.14 -0.41 l
0.15 0.70 l
0.15 -1.85 l
0.14 0.99 l
0.15 -0.29 l
0.14 1.02 l
0.15 0 l
0.14 0.70 l
0.15 0.16 l
0.14 -0.73 l
0.15 -0.58 l
0.15 -0.41 l
0.14 1.28 l
0.15 -1.28 l
0.14 1.15 l
0.15 0.41 l
0.14 0.16 l
0.15 -1.31 l
0.15 0.74 l
0.14 0.41 l
0.15 -1.56 l
0.14 0.13 l
0.15 0.57 l
0.14 0 l
0.15 -0.57 l
0.14 0.28 l
0.15 0.45 l
0.15 -0.86 l
0.14 -0.16 l
0.15 0.73 l
0.14 1.15 l
0.15 -1.31 l
0.14 0.74 l
0.15 -0.58 l
0.14 -0.16 l
0.15 0.45 l
o
/bg { 1 1 1 srgb } def
222.40 509.57 0.43 c p3
222.55 509.99 0.43 c p3
222.69 510.44 0.43 c p3
222.84 510.56 0.43 c p3
222.98 510.28 0.43 c p3
223.13 509.45 0.43 c p3
223.27 509.86 0.43 c p3
223.42 510.28 0.43 c p3
223.56 510.15 0.43 c p3
223.71 509.29 0.43 c p3
223.86 509.99 0.43 c p3
224.00 509.70 0.43 c p3
224.15 509.45 0.43 c p3
224.29 509.29 0.43 c p3
224.44 509.86 0.43 c p3
224.58 511.01 0.43 c p3
224.73 509.99 0.43 c p3
224.87 508.58 0.43 c p3
225.02 509.99 0.43 c p3
225.17 509.57 0.43 c p3
225.31 509.86 0.43 c p3
225.46 510.15 0.43 c p3
225.60 509.86 0.43 c p3
225.75 510.28 0.43 c p3
225.89 509.45 0.43 c p3
226.04 510.15 0.43 c p3
226.19 510.85 0.43 c p3
226.33 510.28 0.43 c p3
226.48 509.57 0.43 c p3
226.62 510.72 0.43 c p3
226.77 509.45 0.43 c p3
226.91 510.28 0.43 c p3
227.06 509.45 0.43 c p3
227.20 509.16 0.43 c p3
227.35 509.99 0.43 c p3
227.50 510.15 0.43 c p3
227.64 511.14 0.43 c p3
227.79 509.16 0.43 c p3
227.93 509.16 0.43 c p3
228.08 508.87 0.43 c p3
228.22 508.30 0.43 c p3
228.37 510.15 0.43 c p3
228.51 509.57 0.43 c p3
228.66 510.56 0.43 c p3
228.81 509.86 0.43 c p3
228.95 509.70 0.43 c p3
229.10 509.45 0.43 c p3
229.24 509.45 0.43 c p3
229.39 509.45 0.43 c p3
229.53 509.57 0.43 c p3
229.68 510.56 0.43 c p3
229.82 509.57 0.43 c p3
229.97 510.15 0.43 c p3
230.12 510.28 0.43 c p3
230.26 509.70 0.43 c p3
230.41 509.16 0.43 c p3
230.55 510.56 0.43 c p3
230.70 509.57 0.43 c p3
230.84 509.99 0.43 c p3
230.99 509.86 0.43 c p3
231.14 510.72 0.43 c p3
231.28 510.15 0.43 c p3
231.43 509.70 0.43 c p3
231.57 509.70 0.43 c p3
231.72 509.29 0.43 c p3
231.86 509.45 0.43 c p3
232.01 507.85 0.43 c p3
232.15 508.58 0.43 c p3
232.30 509.70 0.43 c p3
232.45 509.16 0.43 c p3
232.59 512.00 0.43 c p3
232.74 509.00 0.43 c p3
232.88 509.45 0.43 c p3
233.03 509.16 0.43 c p3
233.17 511.43 0.43 c p3
233.32 509.45 0.43 c p3
233.46 510.72 0.43 c p3
233.61 509.57 0.43 c p3
233.76 509.70 0.43 c p3
233.90 510.56 0.43 c p3
234.05 510.28 0.43 c p3
234.19 509.57 0.43 c p3
234.34 509.29 0.43 c p3
234.48 509.29 0.43 c p3
234.63 510.28 0.43 c p3
234.77 510.56 0.43 c p3
234.92 510.44 0.43 c p3
235.07 510.15 0.43 c p3
235.21 508.71 0.43 c p3
235.36 510.15 0.43 c p3
235.50 510.85 0.43 c p3
235.65 510.28 0.43 c p3
235.79 509.45 0.43 c p3
235.94 509.57 0.43 c p3
236.09 509.29 0.43 c p3
236.23 509.00 0.43 c p3
236.38 509.70 0.43 c p3
236.52 509.70 0.43 c p3
236.67 509.70 0.43 c p3
236.81 508.87 0.43 c p3
236.96 429.06 0.43 c p3
237.10 429.62 0.43 c p3
237.25 429.22 0.43 c p3
237.40 429.22 0.43 c p3
237.54 430.08 0.43 c p3
237.69 430.66 0.43 c p3
237.83 431.36 0.43 c p3
237.98 431.36 0.43 c p3
238.12 429.06 0.43 c p3
238.27 431.81 0.43 c p3
238.41 431.81 0.43 c p3
238.56 430.37 0.43 c p3
238.71 431.81 0.43 c p3
238.85 432.10 0.43 c p3
239.00 432.96 0.43 c p3
239.14 431.52 0.43 c p3
239.29 433.24 0.43 c p3
239.43 433.66 0.43 c p3
239.58 432.96 0.43 c p3
239.72 432.67 0.43 c p3
239.87 433.66 0.43 c p3
240.02 433.50 0.43 c p3
240.16 433.66 0.43 c p3
240.31 433.50 0.43 c p3
240.45 434.36 0.43 c p3
240.60 436.09 0.43 c p3
240.74 434.23 0.43 c p3
240.89 435.10 0.43 c p3
241.04 436.53 0.43 c p3
241.18 435.67 0.43 c p3
241.33 434.36 0.43 c p3
241.47 436.09 0.43 c p3
241.62 438.10 0.43 c p3
241.76 436.53 0.43 c p3
241.91 437.52 0.43 c p3
242.05 437.40 0.43 c p3
242.20 437.97 0.43 c p3
242.35 438.26 0.43 c p3
242.49 438.26 0.43 c p3
242.64 438.67 0.43 c p3
242.78 438.96 0.43 c p3
242.93 439.25 0.43 c p3
243.07 440.40 0.43 c p3
243.22 441.26 0.43 c p3
243.36 440.40 0.43 c p3
243.51 440.11 0.43 c p3
243.66 441.10 0.43 c p3
243.80 440.68 0.43 c p3
243.95 441.96 0.43 c p3
244.09 441.39 0.43 c p3
244.24 441.96 0.43 c p3
244.38 442.12 0.43 c p3
244.53 441.96 0.43 c p3
244.67 442.41 0.43 c p3
244.82 443.11 0.43 c p3
244.97 443.40 0.43 c p3
245.11 442.25 0.43 c p3
245.26 442.53 0.43 c p3
245.40 443.40 0.43 c p3
245.55 444.55 0.43 c p3
245.69 443.56 0.43 c p3
245.84 443.56 0.43 c p3
245.99 444.26 0.43 c p3
246.13 445.25 0.43 c p3
246.28 444.83 0.43 c p3
246.42 445.12 0.43 c p3
246.57 445.41 0.43 c p3
246.71 445.98 0.43 c p3
246.86 444.96 0.43 c p3
247.00 445.54 0.43 c p3
247.15 445.82 0.43 c p3
247.30 445.25 0.43 c p3
247.44 446.97 0.43 c p3
247.59 446.68 0.43 c p3
247.73 445.82 0.43 c p3
247.88 446.84 0.43 c p3
248.02 446.84 0.43 c p3
248.17 447.83 0.43 c p3
248.31 448.41 0.43 c p3
248.46 447.71 0.43 c p3
248.61 448.70 0.43 c p3
248.75 448.86 0.43 c p3
248.90 449.43 0.43 c p3
249.04 449.72 0.43 c p3
249.19 448.86 0.43 c p3
249.33 449.85 0.43 c p3
249.48 448.86 0.43 c p3
249.62 449.85 0.43 c p3
249.77 451.12 0.43 c p3
249.92 450.71 0.43 c p3
250.06 450.71 0.43 c p3
250.21 451.28 0.43 c p3
250.35 452.27 0.43 c p3
250.50 451.70 0.43 c p3
250.64 450.99 0.43 c p3
250.79 451.98 0.43 c p3
250.94 452.56 0.43 c p3
251.08 452.72 0.43 c p3
251.23 452.14 0.43 c p3
251.37 453.01 0.43 c p3
251.52 451.86 0.43 c p3
251.66 452.43 0.43 c p3
251.81 452.85 0.43 c p3
251.95 453.01 0.43 c p3
252.10 453.42 0.43 c p3
252.25 454.73 0.43 c p3
252.39 454.57 0.43 c p3
252.54 455.14 0.43 c p3
252.68 454.57 0.43 c p3
252.83 455.02 0.43 c p3
252.97 454.28 0.43 c p3
253.12 455.02 0.43 c p3
253.26 455.14 0.43 c p3
253.41 456.13 0.43 c p3
253.56 455.85 0.43 c p3
253.70 456.71 0.43 c p3
253.85 457.16 0.43 c p3
253.99 455.85 0.43 c p3
254.14 456.42 0.43 c p3
254.28 456.71 0.43 c p3
254.43 457.00 0.43 c p3
254.57 456.71 0.43 c p3
254.72 456.01 0.43 c p3
254.87 458.15 0.43 c p3
255.01 458.31 0.43 c p3
255.16 457.57 0.43 c p3
255.30 457.57 0.43 c p3
255.45 458.15 0.43 c p3
255.59 458.72 0.43 c p3
255.74 457.86 0.43 c p3
255.88 459.29 0.43 c p3
256.03 458.72 0.43 c p3
256.18 459.87 0.43 c p3
256.32 459.17 0.43 c p3
256.47 459.87 0.43 c p3
256.61 460.03 0.43 c p3
256.76 460.32 0.43 c p3
256.90 460.16 0.43 c p3
257.05 460.44 0.43 c p3
257.20 461.72 0.43 c p3
257.34 460.73 0.43 c p3
257.49 460.44 0.43 c p3
257.63 460.73 0.43 c p3
257.78 461.88 0.43 c p3
257.92 463.32 0.43 c p3
258.07 462.01 0.43 c p3
258.21 462.58 0.43 c p3
258.36 463.32 0.43 c p3
258.51 462.74 0.43 c p3
258.65 462.74 0.43 c p3
258.80 463.03 0.43 c p3
258.94 462.30 0.43 c p3
259.09 464.31 0.43 c p3
259.23 462.87 0.43 c p3
259.38 463.60 0.43 c p3
259.52 464.47 0.43 c p3
259.67 464.47 0.43 c p3
259.82 464.59 0.43 c p3
259.96 463.89 0.43 c p3
260.11 464.47 0.43 c p3
260.25 466.03 0.43 c p3
260.40 465.17 0.43 c p3
260.54 463.89 0.43 c p3
260.69 465.33 0.43 c p3
260.83 465.46 0.43 c p3
260.98 465.33 0.43 c p3
261.13 464.59 0.43 c p3
261.27 466.03 0.43 c p3
261.42 464.59 0.43 c p3
261.56 465.04 0.43 c p3
261.71 466.03 0.43 c p3
261.85 467.88 0.43 c p3
262.00 467.18 0.43 c p3
262.15 466.32 0.43 c p3
262.29 466.16 0.43 c p3
262.44 466.45 0.43 c p3
262.58 467.18 0.43 c p3
262.73 466.73 0.43 c p3
262.87 468.90 0.43 c p3
263.02 468.62 0.43 c p3
263.16 468.04 0.43 c p3
263.31 467.47 0.43 c p3
263.46 468.90 0.43 c p3
263.60 468.33 0.43 c p3
263.75 467.31 0.43 c p3
263.89 467.47 0.43 c p3
264.04 469.19 0.43 c p3
264.18 469.77 0.43 c p3
264.33 467.59 0.43 c p3
264.47 469.03 0.43 c p3
264.62 468.62 0.43 c p3
264.77 469.77 0.43 c p3
264.91 469.03 0.43 c p3
265.06 468.74 0.43 c p3
265.20 470.91 0.43 c p3
265.35 472.19 0.43 c p3
265.49 469.61 0.43 c p3
265.64 471.62 0.43 c p3
265.78 471.90 0.43 c p3
265.93 472.77 0.43 c p3
266.08 470.05 0.43 c p3
266.22 471.62 0.43 c p3
266.37 472.19 0.43 c p3
266.51 471.90 0.43 c p3
266.66 471.20 0.43 c p3
266.80 473.47 0.43 c p3
266.95 472.48 0.43 c p3
267.10 472.61 0.43 c p3
267.24 473.63 0.43 c p3
267.39 473.34 0.43 c p3
267.53 472.48 0.43 c p3
267.68 473.05 0.43 c p3
267.82 473.05 0.43 c p3
267.97 473.76 0.43 c p3
268.11 473.63 0.43 c p3
268.26 472.03 0.43 c p3
268.41 474.20 0.43 c p3
268.55 473.63 0.43 c p3
268.70 473.05 0.43 c p3
268.84 473.05 0.43 c p3
268.99 474.04 0.43 c p3
269.13 474.33 0.43 c p3
269.28 474.49 0.43 c p3
269.42 473.34 0.43 c p3
269.57 474.78 0.43 c p3
269.72 476.79 0.43 c p3
269.86 476.05 0.43 c p3
270.01 474.20 0.43 c p3
270.15 475.48 0.43 c p3
270.30 474.49 0.43 c p3
270.44 475.35 0.43 c p3
270.59 475.35 0.43 c p3
270.73 475.48 0.43 c p3
270.88 475.35 0.43 c p3
271.03 476.34 0.43 c p3
271.17 477.20 0.43 c p3
271.32 476.63 0.43 c p3
271.46 476.63 0.43 c p3
271.61 476.79 0.43 c p3
271.75 474.91 0.43 c p3
271.90 477.04 0.43 c p3
272.05 476.63 0.43 c p3
272.19 476.79 0.43 c p3
272.34 477.04 0.43 c p3
272.48 478.19 0.43 c p3
272.63 477.49 0.43 c p3
272.77 478.35 0.43 c p3
272.92 477.49 0.43 c p3
273.06 477.91 0.43 c p3
273.21 478.19 0.43 c p3
273.36 478.48 0.43 c p3
273.50 478.19 0.43 c p3
273.65 479.06 0.43 c p3
273.79 480.36 0.43 c p3
273.94 477.91 0.43 c p3
274.08 478.35 0.43 c p3
274.23 478.19 0.43 c p3
274.37 480.78 0.43 c p3
274.52 479.34 0.43 c p3
274.67 479.50 0.43 c p3
274.81 478.77 0.43 c p3
274.96 478.77 0.43 c p3
275.10 479.79 0.43 c p3
275.25 480.20 0.43 c p3
275.39 480.20 0.43 c p3
275.54 479.50 0.43 c p3
275.68 479.63 0.43 c p3
275.83 479.92 0.43 c p3
275.98 480.65 0.43 c p3
276.12 481.35 0.43 c p3
276.27 480.65 0.43 c p3
276.41 479.79 0.43 c p3
276.56 481.51 0.43 c p3
276.70 480.65 0.43 c p3
276.85 480.49 0.43 c p3
277.00 480.36 0.43 c p3
277.14 481.07 0.43 c p3
277.29 481.93 0.43 c p3
277.43 480.65 0.43 c p3
277.58 480.94 0.43 c p3
277.72 482.22 0.43 c p3
277.87 482.09 0.43 c p3
278.01 481.07 0.43 c p3
278.16 481.07 0.43 c p3
278.31 482.09 0.43 c p3
278.45 481.93 0.43 c p3
278.60 481.93 0.43 c p3
278.74 482.63 0.43 c p3
278.89 482.22 0.43 c p3
279.03 481.93 0.43 c p3
279.18 481.93 0.43 c p3
279.32 482.92 0.43 c p3
279.47 484.23 0.43 c p3
279.62 483.21 0.43 c p3
279.76 481.80 0.43 c p3
279.91 482.22 0.43 c p3
280.05 481.93 0.43 c p3
280.20 484.07 0.43 c p3
280.34 483.94 0.43 c p3
280.49 484.07 0.43 c p3
280.63 483.94 0.43 c p3
280.78 482.92 0.43 c p3
280.93 484.51 0.43 c p3
281.07 484.35 0.43 c p3
281.22 484.64 0.43 c p3
281.36 483.49 0.43 c p3
281.51 484.35 0.43 c p3
281.65 485.50 0.43 c p3
281.80 485.38 0.43 c p3
281.95 484.35 0.43 c p3
282.09 484.80 0.43 c p3
282.24 485.09 0.43 c p3
282.38 483.94 0.43 c p3
282.53 483.94 0.43 c p3
282.67 486.08 0.43 c p3
282.82 484.80 0.43 c p3
282.96 484.64 0.43 c p3
283.11 485.22 0.43 c p3
283.26 486.37 0.43 c p3
283.40 485.66 0.43 c p3
283.55 485.22 0.43 c p3
283.69 486.24 0.43 c p3
283.84 486.08 0.43 c p3
283.98 486.37 0.43 c p3
284.13 486.24 0.43 c p3
284.27 485.38 0.43 c p3
284.42 485.79 0.43 c p3
284.57 487.51 0.43 c p3
284.71 487.51 0.43 c p3
284.86 485.50 0.43 c p3
285.00 486.94 0.43 c p3
285.15 486.53 0.43 c p3
285.29 486.81 0.43 c p3
285.44 487.67 0.43 c p3
285.58 486.08 0.43 c p3
285.73 487.51 0.43 c p3
285.88 485.95 0.43 c p3
286.02 485.95 0.43 c p3
286.17 487.10 0.43 c p3
286.31 486.81 0.43 c p3
286.46 487.39 0.43 c p3
286.60 485.38 0.43 c p3
286.75 487.67 0.43 c p3
286.89 488.09 0.43 c p3
287.04 488.09 0.43 c p3
287.19 488.38 0.43 c p3
287.33 488.22 0.43 c p3
287.48 488.95 0.43 c p3
287.62 487.10 0.43 c p3
287.77 488.50 0.43 c p3
287.91 488.22 0.43 c p3
288.06 488.50 0.43 c p3
288.21 488.66 0.43 c p3
288.35 487.67 0.43 c p3
288.50 488.95 0.43 c p3
288.64 488.22 0.43 c p3
288.79 488.50 0.43 c p3
288.93 488.50 0.43 c p3
289.08 489.94 0.43 c p3
289.22 488.95 0.43 c p3
289.37 488.79 0.43 c p3
289.52 489.53 0.43 c p3
289.66 490.23 0.43 c p3
289.81 487.39 0.43 c p3
289.95 489.53 0.43 c p3
290.10 489.65 0.43 c p3
290.24 489.37 0.43 c p3
290.39 488.66 0.43 c p3
290.53 488.38 0.43 c p3
290.68 488.95 0.43 c p3
290.83 490.80 0.43 c p3
290.97 489.37 0.43 c p3
291.12 490.52 0.43 c p3
291.26 490.52 0.43 c p3
291.41 490.68 0.43 c p3
291.55 489.08 0.43 c p3
291.70 489.24 0.43 c p3
291.84 490.52 0.43 c p3
291.99 489.65 0.43 c p3
292.14 489.37 0.43 c p3
292.28 490.80 0.43 c p3
292.43 491.09 0.43 c p3
292.57 490.80 0.43 c p3
292.72 490.23 0.43 c p3
292.86 490.39 0.43 c p3
293.01 489.65 0.43 c p3
293.16 490.68 0.43 c p3
293.30 489.81 0.43 c p3
293.45 492.53 0.43 c p3
293.59 491.66 0.43 c p3
293.74 490.23 0.43 c p3
293.88 491.25 0.43 c p3
294.03 491.38 0.43 c p3
294.17 491.54 0.43 c p3
294.32 489.81 0.43 c p3
294.47 491.38 0.43 c p3
294.61 492.40 0.43 c p3
294.76 491.09 0.43 c p3
294.90 492.53 0.43 c p3
295.05 491.95 0.43 c p3
295.19 492.11 0.43 c p3
295.34 491.09 0.43 c p3
295.48 491.66 0.43 c p3
295.63 492.24 0.43 c p3
295.78 491.95 0.43 c p3
295.92 491.82 0.43 c p3
296.07 493.10 0.43 c p3
296.21 493.80 0.43 c p3
296.36 492.24 0.43 c p3
296.50 493.52 0.43 c p3
296.65 492.40 0.43 c p3
296.79 492.53 0.43 c p3
296.94 492.53 0.43 c p3
297.09 492.40 0.43 c p3
297.23 493.68 0.43 c p3
297.38 492.69 0.43 c p3
297.52 492.40 0.43 c p3
297.67 493.10 0.43 c p3
297.81 493.68 0.43 c p3
297.96 492.40 0.43 c p3
298.11 492.97 0.43 c p3
298.25 492.69 0.43 c p3
298.40 494.09 0.43 c p3
298.54 493.26 0.43 c p3
298.69 493.26 0.43 c p3
298.83 492.40 0.43 c p3
298.98 493.52 0.43 c p3
299.12 492.81 0.43 c p3
299.27 493.10 0.43 c p3
299.42 493.80 0.43 c p3
299.56 493.52 0.43 c p3
299.71 492.53 0.43 c p3
299.85 493.68 0.43 c p3
300.00 494.67 0.43 c p3
300.14 493.10 0.43 c p3
300.29 493.39 0.43 c p3
300.43 494.25 0.43 c p3
300.58 495.11 0.43 c p3
300.73 494.67 0.43 c p3
300.87 492.97 0.43 c p3
301.02 492.97 0.43 c p3
301.16 495.97 0.43 c p3
301.31 494.54 0.43 c p3
301.45 493.39 0.43 c p3
301.60 494.54 0.43 c p3
301.74 494.83 0.43 c p3
301.89 493.80 0.43 c p3
302.04 494.25 0.43 c p3
302.18 493.52 0.43 c p3
302.33 495.24 0.43 c p3
302.47 493.80 0.43 c p3
302.62 495.81 0.43 c p3
302.76 493.80 0.43 c p3
302.91 494.83 0.43 c p3
303.06 495.69 0.43 c p3
303.20 495.69 0.43 c p3
303.35 494.67 0.43 c p3
303.49 495.81 0.43 c p3
303.64 495.81 0.43 c p3
303.78 495.40 0.43 c p3
303.93 495.97 0.43 c p3
304.07 496.39 0.43 c p3
304.22 495.97 0.43 c p3
304.37 495.81 0.43 c p3
304.51 495.53 0.43 c p3
304.66 495.24 0.43 c p3
304.80 494.83 0.43 c p3
304.95 495.11 0.43 c p3
305.09 496.55 0.43 c p3
305.24 495.97 0.43 c p3
305.38 495.53 0.43 c p3
305.53 496.39 0.43 c p3
305.68 496.55 0.43 c p3
305.82 495.24 0.43 c p3
305.97 495.97 0.43 c p3
306.11 494.09 0.43 c p3
306.26 496.10 0.43 c p3
306.40 495.69 0.43 c p3
306.55 496.55 0.43 c p3
306.69 496.39 0.43 c p3
306.84 496.55 0.43 c p3
306.99 495.81 0.43 c p3
307.13 497.12 0.43 c p3
307.28 495.69 0.43 c p3
307.42 495.24 0.43 c p3
307.57 495.97 0.43 c p3
307.71 495.97 0.43 c p3
307.86 495.40 0.43 c p3
308.01 497.54 0.43 c p3
308.15 495.81 0.43 c p3
308.30 496.26 0.43 c p3
308.44 497.83 0.43 c p3
308.59 496.26 0.43 c p3
308.73 496.84 0.43 c p3
308.88 497.25 0.43 c p3
309.02 497.12 0.43 c p3
309.17 497.12 0.43 c p3
309.32 496.55 0.43 c p3
309.46 496.96 0.43 c p3
309.61 497.41 0.43 c p3
309.75 497.12 0.43 c p3
309.90 497.12 0.43 c p3
310.04 498.27 0.43 c p3
310.19 496.68 0.43 c p3
310.33 497.25 0.43 c p3
310.48 498.27 0.43 c p3
310.63 497.25 0.43 c p3
310.77 497.12 0.43 c p3
310.92 496.96 0.43 c p3
311.06 497.70 0.43 c p3
311.21 496.96 0.43 c p3
311.35 496.96 0.43 c p3
311.50 496.26 0.43 c p3
311.64 497.12 0.43 c p3
311.79 498.98 0.43 c p3
311.94 498.11 0.43 c p3
312.08 498.98 0.43 c p3
312.23 497.12 0.43 c p3
312.37 498.11 0.43 c p3
312.52 496.96 0.43 c p3
312.66 497.70 0.43 c p3
312.81 497.54 0.43 c p3
312.96 497.99 0.43 c p3
313.10 497.83 0.43 c p3
313.25 496.96 0.43 c p3
313.39 498.40 0.43 c p3
313.54 499.26 0.43 c p3
313.68 497.70 0.43 c p3
313.83 498.82 0.43 c p3
313.97 498.56 0.43 c p3
314.12 499.39 0.43 c p3
314.27 498.11 0.43 c p3
314.41 498.69 0.43 c p3
314.56 497.83 0.43 c p3
314.70 499.26 0.43 c p3
314.85 498.69 0.43 c p3
314.99 497.12 0.43 c p3
315.14 499.39 0.43 c p3
315.28 499.10 0.43 c p3
315.43 497.99 0.43 c p3
315.58 497.83 0.43 c p3
315.72 498.69 0.43 c p3
315.87 499.10 0.43 c p3
316.01 498.69 0.43 c p3
316.16 499.68 0.43 c p3
316.30 498.82 0.43 c p3
316.45 499.10 0.43 c p3
316.59 498.27 0.43 c p3
316.74 498.27 0.43 c p3
316.89 498.40 0.43 c p3
317.03 500.25 0.43 c p3
317.18 498.56 0.43 c p3
317.32 498.56 0.43 c p3
317.47 499.26 0.43 c p3
317.61 499.26 0.43 c p3
317.76 499.26 0.43 c p3
317.91 498.98 0.43 c p3
318.05 499.68 0.43 c p3
318.20 499.68 0.43 c p3
318.34 498.40 0.43 c p3
318.49 499.39 0.43 c p3
318.63 498.98 0.43 c p3
318.78 498.69 0.43 c p3
318.92 499.84 0.43 c p3
319.07 499.96 0.43 c p3
319.22 499.68 0.43 c p3
319.36 498.56 0.43 c p3
319.51 498.40 0.43 c p3
319.65 500.12 0.43 c p3
319.80 500.25 0.43 c p3
319.94 499.10 0.43 c p3
320.09 500.41 0.43 c p3
320.23 500.70 0.43 c p3
320.38 499.10 0.43 c p3
320.53 500.41 0.43 c p3
320.67 499.10 0.43 c p3
320.82 498.98 0.43 c p3
320.96 500.41 0.43 c p3
321.11 499.39 0.43 c p3
321.25 499.39 0.43 c p3
321.40 498.40 0.43 c p3
321.54 500.12 0.43 c p3
321.69 500.54 0.43 c p3
321.84 498.98 0.43 c p3
321.98 500.12 0.43 c p3
322.13 500.41 0.43 c p3
322.27 500.12 0.43 c p3
322.42 499.84 0.43 c p3
322.56 500.25 0.43 c p3
322.71 500.83 0.43 c p3
322.85 501.56 0.43 c p3
323.00 500.70 0.43 c p3
323.15 499.96 0.43 c p3
323.29 499.55 0.43 c p3
323.44 500.54 0.43 c p3
323.58 499.26 0.43 c p3
323.73 500.25 0.43 c p3
323.87 500.54 0.43 c p3
324.02 500.12 0.43 c p3
324.17 500.99 0.43 c p3
324.31 500.83 0.43 c p3
324.46 499.55 0.43 c p3
324.60 500.25 0.43 c p3
324.75 499.84 0.43 c p3
324.89 500.25 0.43 c p3
325.04 500.99 0.43 c p3
325.18 499.96 0.43 c p3
325.33 500.25 0.43 c p3
325.48 500.41 0.43 c p3
325.62 499.96 0.43 c p3
325.77 499.96 0.43 c p3
325.91 499.96 0.43 c p3
326.06 500.70 0.43 c p3
326.20 500.54 0.43 c p3
326.35 500.99 0.43 c p3
326.49 501.69 0.43 c p3
326.64 501.69 0.43 c p3
326.79 500.83 0.43 c p3
326.93 501.69 0.43 c p3
327.08 500.12 0.43 c p3
327.22 501.27 0.43 c p3
327.37 501.11 0.43 c p3
327.51 501.98 0.43 c p3
327.66 501.69 0.43 c p3
327.80 500.70 0.43 c p3
327.95 500.70 0.43 c p3
328.10 501.11 0.43 c p3
328.24 501.27 0.43 c p3
328.39 501.11 0.43 c p3
328.53 501.11 0.43 c p3
328.68 501.27 0.43 c p3
328.82 501.11 0.43 c p3
328.97 500.70 0.43 c p3
329.12 499.96 0.43 c p3
329.26 501.85 0.43 c p3
329.41 501.69 0.43 c p3
329.55 500.99 0.43 c p3
329.70 500.83 0.43 c p3
329.84 500.70 0.43 c p3
329.99 501.11 0.43 c p3
330.13 501.27 0.43 c p3
330.28 501.27 0.43 c p3
330.43 501.11 0.43 c p3
330.57 500.70 0.43 c p3
330.72 501.98 0.43 c p3
330.86 500.83 0.43 c p3
331.01 500.99 0.43 c p3
331.15 500.83 0.43 c p3
331.30 500.41 0.43 c p3
331.44 500.54 0.43 c p3
331.59 500.12 0.43 c p3
331.74 500.54 0.43 c p3
331.88 502.26 0.43 c p3
332.03 502.84 0.43 c p3
332.17 501.69 0.43 c p3
332.32 501.98 0.43 c p3
332.46 502.71 0.43 c p3
332.61 503.00 0.43 c p3
332.75 501.11 0.43 c p3
332.90 502.14 0.43 c p3
333.05 503.41 0.43 c p3
333.19 501.40 0.43 c p3
333.34 501.98 0.43 c p3
333.48 503.41 0.43 c p3
333.63 502.55 0.43 c p3
333.77 502.14 0.43 c p3
333.92 501.85 0.43 c p3
334.07 502.55 0.43 c p3
334.21 502.14 0.43 c p3
334.36 502.84 0.43 c p3
334.50 502.55 0.43 c p3
334.65 502.26 0.43 c p3
334.79 501.69 0.43 c p3
334.94 502.42 0.43 c p3
335.08 502.26 0.43 c p3
335.23 502.71 0.43 c p3
335.38 501.85 0.43 c p3
335.52 501.85 0.43 c p3
335.67 502.14 0.43 c p3
335.81 501.11 0.43 c p3
335.96 501.98 0.43 c p3
336.10 502.71 0.43 c p3
336.25 502.42 0.43 c p3
336.39 502.14 0.43 c p3
336.54 501.98 0.43 c p3
336.69 501.85 0.43 c p3
336.83 502.55 0.43 c p3
336.98 501.69 0.43 c p3
337.12 502.26 0.43 c p3
337.27 502.71 0.43 c p3
337.41 502.14 0.43 c p3
337.56 503.41 0.43 c p3
337.70 501.98 0.43 c p3
337.85 501.98 0.43 c p3
338.00 503.00 0.43 c p3
338.14 502.84 0.43 c p3
338.29 503.28 0.43 c p3
338.43 501.98 0.43 c p3
338.58 502.55 0.43 c p3
338.72 502.84 0.43 c p3
338.87 503.00 0.43 c p3
339.02 503.86 0.43 c p3
339.16 501.85 0.43 c p3
339.31 503.13 0.43 c p3
339.45 501.56 0.43 c p3
339.60 503.28 0.43 c p3
339.74 501.69 0.43 c p3
339.89 503.00 0.43 c p3
340.03 502.26 0.43 c p3
340.18 503.28 0.43 c p3
340.33 502.71 0.43 c p3
340.47 501.40 0.43 c p3
340.62 502.55 0.43 c p3
340.76 503.13 0.43 c p3
340.91 503.00 0.43 c p3
341.05 502.84 0.43 c p3
341.20 504.56 0.43 c p3
341.34 503.57 0.43 c p3
341.49 503.28 0.43 c p3
341.64 502.71 0.43 c p3
341.78 502.71 0.43 c p3
341.93 502.84 0.43 c p3
342.07 503.28 0.43 c p3
342.22 502.14 0.43 c p3
342.36 503.41 0.43 c p3
342.51 503.99 0.43 c p3
342.65 502.55 0.43 c p3
342.80 502.71 0.43 c p3
342.95 503.70 0.43 c p3
343.09 504.11 0.43 c p3
343.24 503.00 0.43 c p3
343.38 502.71 0.43 c p3
343.53 503.13 0.43 c p3
343.67 502.55 0.43 c p3
343.82 501.85 0.43 c p3
343.97 503.41 0.43 c p3
344.11 503.41 0.43 c p3
344.26 503.00 0.43 c p3
344.40 501.85 0.43 c p3
344.55 503.28 0.43 c p3
344.69 503.86 0.43 c p3
344.84 502.55 0.43 c p3
344.98 503.57 0.43 c p3
345.13 503.86 0.43 c p3
345.28 503.13 0.43 c p3
345.42 503.99 0.43 c p3
345.57 501.98 0.43 c p3
345.71 503.00 0.43 c p3
345.86 502.55 0.43 c p3
346.00 502.55 0.43 c p3
346.15 503.70 0.43 c p3
346.29 503.57 0.43 c p3
346.44 503.57 0.43 c p3
346.59 505.14 0.43 c p3
346.73 502.26 0.43 c p3
346.88 503.41 0.43 c p3
347.02 503.28 0.43 c p3
347.17 503.00 0.43 c p3
347.31 503.13 0.43 c p3
347.46 502.55 0.43 c p3
347.60 503.99 0.43 c p3
347.75 503.41 0.43 c p3
347.90 504.27 0.43 c p3
348.04 504.40 0.43 c p3
348.19 503.41 0.43 c p3
348.33 503.70 0.43 c p3
348.48 503.00 0.43 c p3
348.62 503.99 0.43 c p3
348.77 503.57 0.43 c p3
348.92 504.40 0.43 c p3
349.06 503.70 0.43 c p3
349.21 503.86 0.43 c p3
349.35 504.85 0.43 c p3
349.50 503.70 0.43 c p3
349.64 503.86 0.43 c p3
349.79 503.41 0.43 c p3
349.93 503.28 0.43 c p3
350.08 503.28 0.43 c p3
350.23 503.57 0.43 c p3
350.37 503.41 0.43 c p3
350.52 504.85 0.43 c p3
350.66 503.57 0.43 c p3
350.81 503.99 0.43 c p3
350.95 503.57 0.43 c p3
351.10 503.57 0.43 c p3
351.24 504.40 0.43 c p3
351.39 503.57 0.43 c p3
351.54 505.14 0.43 c p3
351.68 505.71 0.43 c p3
351.83 504.56 0.43 c p3
351.97 503.57 0.43 c p3
352.12 505.14 0.43 c p3
352.26 504.11 0.43 c p3
352.41 502.71 0.43 c p3
352.55 504.69 0.43 c p3
352.70 503.99 0.43 c p3
352.85 503.28 0.43 c p3
352.99 504.27 0.43 c p3
353.14 503.99 0.43 c p3
353.28 503.41 0.43 c p3
353.43 504.69 0.43 c p3
353.57 504.69 0.43 c p3
353.72 503.99 0.43 c p3
353.86 503.57 0.43 c p3
354.01 504.27 0.43 c p3
354.16 504.69 0.43 c p3
354.30 504.56 0.43 c p3
354.45 503.70 0.43 c p3
354.59 504.85 0.43 c p3
354.74 503.70 0.43 c p3
354.88 503.13 0.43 c p3
355.03 503.57 0.43 c p3
355.18 503.70 0.43 c p3
355.32 505.42 0.43 c p3
355.47 504.11 0.43 c p3
355.61 503.86 0.43 c p3
355.76 503.13 0.43 c p3
355.90 503.13 0.43 c p3
356.05 503.86 0.43 c p3
356.19 504.56 0.43 c p3
356.34 504.40 0.43 c p3
356.49 504.85 0.43 c p3
356.63 504.27 0.43 c p3
356.78 503.70 0.43 c p3
356.92 505.26 0.43 c p3
357.07 505.14 0.43 c p3
357.21 503.70 0.43 c p3
357.36 503.70 0.43 c p3
357.50 503.86 0.43 c p3
357.65 505.71 0.43 c p3
357.80 503.28 0.43 c p3
357.94 504.56 0.43 c p3
358.09 503.70 0.43 c p3
358.23 503.99 0.43 c p3
358.38 502.42 0.43 c p3
358.52 503.99 0.43 c p3
358.67 505.14 0.43 c p3
358.81 503.99 0.43 c p3
358.96 503.57 0.43 c p3
359.11 505.14 0.43 c p3
359.25 504.98 0.43 c p3
359.40 505.14 0.43 c p3
359.54 503.99 0.43 c p3
359.69 503.86 0.43 c p3
359.83 504.85 0.43 c p3
359.98 503.99 0.43 c p3
360.13 503.99 0.43 c p3
360.27 503.86 0.43 c p3
360.42 505.26 0.43 c p3
360.56 503.57 0.43 c p3
360.71 504.56 0.43 c p3
360.85 505.14 0.43 c p3
361.00 503.99 0.43 c p3
361.14 504.56 0.43 c p3
361.29 503.57 0.43 c p3
361.44 503.70 0.43 c p3
361.58 504.85 0.43 c p3
361.73 504.98 0.43 c p3
361.87 503.99 0.43 c p3
362.02 505.55 0.43 c p3
362.16 505.14 0.43 c p3
362.31 505.55 0.43 c p3
362.45 505.71 0.43 c p3
362.60 505.26 0.43 c p3
362.75 504.85 0.43 c p3
362.89 505.14 0.43 c p3
363.04 504.40 0.43 c p3
363.18 503.86 0.43 c p3
363.33 504.40 0.43 c p3
363.47 504.56 0.43 c p3
363.62 504.69 0.43 c p3
363.76 505.55 0.43 c p3
363.91 504.69 0.43 c p3
364.06 503.13 0.43 c p3
364.20 504.11 0.43 c p3
364.35 503.99 0.43 c p3
364.49 504.85 0.43 c p3
364.64 504.98 0.43 c p3
364.78 504.40 0.43 c p3
364.93 505.84 0.43 c p3
365.08 503.99 0.43 c p3
365.22 505.14 0.43 c p3
365.37 505.71 0.43 c p3
365.51 504.27 0.43 c p3
365.66 505.14 0.43 c p3
365.80 504.85 0.43 c p3
365.95 504.98 0.43 c p3
366.09 504.85 0.43 c p3
366.24 505.55 0.43 c p3
366.39 504.27 0.43 c p3
366.53 505.84 0.43 c p3
366.68 505.42 0.43 c p3
366.82 505.26 0.43 c p3
366.97 504.11 0.43 c p3
367.11 505.26 0.43 c p3
367.26 504.85 0.43 c p3
367.40 505.42 0.43 c p3
367.55 504.11 0.43 c p3
367.70 506.00 0.43 c p3
367.84 505.14 0.43 c p3
367.99 504.27 0.43 c p3
368.13 505.14 0.43 c p3
368.28 504.98 0.43 c p3
368.42 505.14 0.43 c p3
368.57 504.69 0.43 c p3
368.71 504.85 0.43 c p3
368.86 504.56 0.43 c p3
369.01 504.85 0.43 c p3
369.15 504.85 0.43 c p3
369.30 505.42 0.43 c p3
369.44 505.26 0.43 c p3
369.59 503.86 0.43 c p3
369.73 505.71 0.43 c p3
369.88 506.00 0.43 c p3
370.03 505.26 0.43 c p3
370.17 506.57 0.43 c p3
370.32 505.14 0.43 c p3
370.46 504.56 0.43 c p3
370.61 505.42 0.43 c p3
370.75 504.27 0.43 c p3
370.90 505.14 0.43 c p3
371.04 504.40 0.43 c p3
371.19 505.14 0.43 c p3
371.34 504.85 0.43 c p3
371.48 506.00 0.43 c p3
371.63 504.85 0.43 c p3
371.77 505.26 0.43 c p3
371.92 506.86 0.43 c p3
372.06 506.13 0.43 c p3
372.21 505.55 0.43 c p3
372.35 504.56 0.43 c p3
372.50 506.29 0.43 c p3
372.65 504.56 0.43 c p3
372.79 505.14 0.43 c p3
372.94 505.26 0.43 c p3
373.08 505.71 0.43 c p3
373.23 504.85 0.43 c p3
373.37 504.69 0.43 c p3
373.52 506.00 0.43 c p3
373.66 505.14 0.43 c p3
373.81 504.56 0.43 c p3
373.96 506.13 0.43 c p3
374.10 505.55 0.43 c p3
374.25 505.26 0.43 c p3
374.39 505.14 0.43 c p3
374.54 505.71 0.43 c p3
374.68 505.26 0.43 c p3
374.83 506.00 0.43 c p3
374.98 505.42 0.43 c p3
375.12 504.69 0.43 c p3
375.27 505.14 0.43 c p3
375.41 505.26 0.43 c p3
375.56 504.98 0.43 c p3
375.70 505.42 0.43 c p3
375.85 504.98 0.43 c p3
375.99 506.13 0.43 c p3
376.14 505.14 0.43 c p3
376.29 505.71 0.43 c p3
376.43 506.57 0.43 c p3
376.58 506.00 0.43 c p3
376.72 506.41 0.43 c p3
376.87 505.71 0.43 c p3
377.01 505.26 0.43 c p3
377.16 505.55 0.43 c p3
377.30 505.14 0.43 c p3
377.45 505.84 0.43 c p3
377.60 503.99 0.43 c p3
377.74 504.98 0.43 c p3
377.89 504.69 0.43 c p3
378.03 505.71 0.43 c p3
378.18 505.71 0.43 c p3
378.32 506.41 0.43 c p3
378.47 506.57 0.43 c p3
378.61 505.84 0.43 c p3
378.76 505.26 0.43 c p3
378.91 504.85 0.43 c p3
379.05 506.13 0.43 c p3
379.20 504.85 0.43 c p3
379.34 506.00 0.43 c p3
379.49 506.41 0.43 c p3
379.63 506.57 0.43 c p3
379.78 505.26 0.43 c p3
379.93 506.00 0.43 c p3
380.07 506.41 0.43 c p3
380.22 504.85 0.43 c p3
380.36 504.98 0.43 c p3
380.51 505.55 0.43 c p3
380.65 505.55 0.43 c p3
380.80 504.98 0.43 c p3
380.94 505.26 0.43 c p3
381.09 505.71 0.43 c p3
381.24 504.85 0.43 c p3
381.38 504.69 0.43 c p3
381.53 505.42 0.43 c p3
381.67 506.57 0.43 c p3
381.82 505.26 0.43 c p3
381.96 506.00 0.43 c p3
382.11 505.42 0.43 c p3
382.25 505.26 0.43 c p3
382.40 505.71 0.43 c p3
0.00 0.00 432.00 576.00 cl
0 0 0 srgb
0.75 setlinewidth
[] 0 setdash
1 setlinecap
1 setlinejoin
10.00 setmiterlimit
np
236.96 345.60 m
132.35 0 l
o
np
236.96 345.60 m
0 -5.76 l
o
np
270.05 345.60 m
0 -5.76 l
o
np
303.13 345.60 m
0 -5.76 l
o
np
336.22 345.60 m
0 -5.76 l
o
np
369.31 345.60 m
0 -5.76 l
o
/Font1 findfont 10 s
236.96 329.47 (0) .5 0 t
270.05 329.47 (500) .5 0 t
303.13 329.47 (1000) .5 0 t
336.22 329.47 (1500) .5 0 t
369.31 329.47 (2000) .5 0 t
np
216.00 352.00 m
0 156.91 l
o
np
216.00 352.00 m
-5.76 0 l
o
np
216.00 378.15 m
-5.76 0 l
o
np
216.00 404.30 m
-5.76 0 l
o
np
216.00 430.45 m
-5.76 0 l
o
np
216.00 456.60 m
-5.76 0 l
o
np
216.00 482.75 m
-5.76 0 l
o
np
216.00 508.91 m
-5.76 0 l
o
209.09 348.41 (0.0) 1 0 t
209.09 374.56 (0.1) 1 0 t
209.09 400.71 (0.2) 1 0 t
209.09 426.86 (0.3) 1 0 t
209.09 453.01 (0.4) 1 0 t
209.09 479.16 (0.5) 1 0 t
209.09 505.32 (0.6) 1 0 t
np
216.00 345.60 m
172.80 0 l
0 172.80 l
-172.80 0 l
0 -172.80 l
o
0.00 0.00 432.00 576.00 cl
/Font1 findfont 10 s
0 0 0 srgb
302.40 313.34 (Time / ms \(total\)) .5 0 t
190.66 432.00 (U / V) .5 90 t
216.00 345.60 388.80 518.40 cl
0 0 0 srgb
0.38 setlinewidth
[ 1.13 1.88] 0 setdash
1 setlinecap
1 setlinejoin
10.00 setmiterlimit
np
222.69 345.60 m
0 172.80 l
o
np
235.21 345.60 m
0 172.80 l
o
np
239.14 345.60 m
0 172.80 l
o
np
369.59 345.60 m
0 172.80 l
o
86.40 57.60 388.80 288.00 cl
1 0 0 srgb
1.50 setlinewidth
[] 0 setdash
1 setlinecap
1 setlinejoin
10.00 setmiterlimit
np
97.60 279.47 m
1.41 -5.11 l
1.40 -4.98 l
1.41 -4.86 l
1.41 -4.73 l
1.41 -4.62 l
1.40 -4.51 l
1.41 -4.39 l
1.41 -4.28 l
1.40 -4.18 l
1.41 -4.07 l
1.41 -3.97 l
1.40 -3.88 l
1.41 -3.77 l
1.41 -3.69 l
1.41 -3.59 l
1.40 -3.50 l
1.41 -3.42 l
1.41 -3.33 l
1.40 -3.25 l
1.41 -3.17 l
1.41 -3.08 l
1.40 -3.02 l
1.41 -2.93 l
1.41 -2.87 l
1.41 -2.79 l
1.40 -2.73 l
1.41 -2.65 l
1.41 -2.59 l
1.40 -2.53 l
1.41 -2.46 l
1.41 -2.41 l
1.41 -2.34 l
1.40 -2.28 l
1.41 -2.23 l
1.41 -2.17 l
1.40 -2.12 l
1.41 -2.07 l
1.41 -2.01 l
1.40 -1.97 l
1.41 -1.91 l
1.41 -1.87 l
1.41 -1.83 l
1.40 -1.77 l
1.41 -1.74 l
1.41 -1.68 l
1.40 -1.65 l
1.41 -1.61 l
1.41 -1.57 l
1.40 -1.52 l
1.41 -1.49 l
1.41 -1.46 l
1.41 -1.41 l
1.40 -1.39 l
1.41 -1.34 l
1.41 -1.32 l
1.40 -1.28 l
1.41 -1.25 l
1.41 -1.22 l
1.41 -1.19 l
1.40 -1.16 l
1.41 -1.13 l
1.41 -1.10 l
1.40 -1.07 l
1.41 -1.05 l
1.41 -1.02 l
1.40 -1.00 l
1.41 -0.97 l
1.41 -0.95 l
1.41 -0.92 l
1.40 -0.90 l
1.41 -0.88 l
1.41 -0.86 l
1.40 -0.84 l
1.41 -0.81 l
1.41 -0.80 l
1.40 -0.77 l
1.41 -0.76 l
1.41 -0.73 l
1.41 -0.72 l
1.40 -0.70 l
1.41 -0.69 l
1.41 -0.66 l
1.40 -0.65 l
1.41 -0.64 l
1.41 -0.62 l
1.41 -0.60 l
1.40 -0.59 l
1.41 -0.57 l
1.41 -0.56 l
1.40 -0.54 l
1.41 -0.54 l
1.41 -0.52 l
1.40 -0.50 l
1.41 -0.49 l
1.41 -0.48 l
1.41 -0.47 l
1.40 -0.46 l
1.41 -0.45 l
1.41 -0.43 l
238.30 90.39 lineto
1.41 -0.41 l
1.41 -0.40 l
1.40 -0.39 l
1.41 -0.39 l
1.41 -0.37 l
1.41 -0.37 l
1.40 -0.35 l
1.41 -0.35 l
1.41 -0.34 l
1.40 -0.33 l
1.41 -0.32 l
1.41 -0.31 l
1.40 -0.31 l
1.41 -0.30 l
1.41 -0.29 l
1.41 -0.28 l
1.40 -0.28 l
1.41 -0.27 l
1.41 -0.26 l
1.40 -0.26 l
1.41 -0.25 l
1.41 -0.24 l
1.41 -0.24 l
1.40 -0.23 l
1.41 -0.23 l
1.41 -0.22 l
1.40 -0.21 l
1.41 -0.21 l
1.41 -0.21 l
1.40 -0.20 l
1.41 -0.19 l
1.41 -0.19 l
1.41 -0.18 l
1.40 -0.18 l
1.41 -0.18 l
1.41 -0.17 l
1.40 -0.17 l
1.41 -0.16 l
1.41 -0.16 l
1.40 -0.16 l
1.41 -0.15 l
1.41 -0.15 l
1.41 -0.14 l
1.40 -0.14 l
1.41 -0.14 l
1.41 -0.13 l
1.40 -0.13 l
1.41 -0.13 l
1.41 -0.12 l
1.41 -0.12 l
1.40 -0.12 l
1.41 -0.11 l
1.41 -0.12 l
1.40 -0.10 l
1.41 -0.11 l
1.41 -0.10 l
1.40 -0.11 l
1.41 -0.09 l
1.41 -0.10 l
1.41 -0.09 l
1.40 -0.10 l
1.41 -0.09 l
1.41 -0.08 l
1.40 -0.09 l
1.41 -0.08 l
1.41 -0.08 l
1.40 -0.08 l
1.41 -0.08 l
1.41 -0.07 l
1.41 -0.07 l
1.40 -0.08 l
1.41 -0.06 l
1.41 -0.07 l
1.40 -0.07 l
1.41 -0.06 l
1.41 -0.07 l
1.41 -0.06 l
1.40 -0.06 l
1.41 -0.05 l
1.41 -0.06 l
1.40 -0.06 l
1.41 -0.05 l
1.41 -0.05 l
1.40 -0.05 l
1.41 -0.05 l
1.41 -0.05 l
1.41 -0.05 l
1.40 -0.05 l
1.41 -0.04 l
1.41 -0.05 l
1.40 -0.04 l
1.41 -0.04 l
1.41 -0.04 l
1.40 -0.04 l
1.41 -0.04 l
1.41 -0.04 l
1.41 -0.04 l
1.40 -0.03 l
1.41 -0.04 l
o
0.00 0.00 432.00 576.00 cl
0 0 0 srgb
0.75 setlinewidth
[] 0 setdash
1 setlinecap
1 setlinejoin
10.00 setmiterlimit
np
97.60 57.60 m
254.55 0 l
o
np
97.60 57.60 m
0 -5.76 l
o
np
161.24 57.60 m
0 -5.76 l
o
np
224.87 57.60 m
0 -5.76 l
o
np
288.51 57.60 m
0 -5.76 l
o
np
352.15 57.60 m
0 -5.76 l
o
/Font1 findfont 10 s
97.60 41.47 (0) .5 0 t
161.24 41.47 (500) .5 0 t
224.87 41.47 (1000) .5 0 t
288.51 41.47 (1500) .5 0 t
352.15 41.47 (2000) .5 0 t
np
86.40 66.13 m
0 203.05 l
o
np
86.40 66.13 m
-5.76 0 l
o
np
86.40 99.97 m
-5.76 0 l
o
np
86.40 133.82 m
-5.76 0 l
o
np
86.40 167.66 m
-5.76 0 l
o
np
86.40 201.50 m
-5.76 0 l
o
np
86.40 235.34 m
-5.76 0 l
o
np
86.40 269.18 m
-5.76 0 l
o
79.49 62.54 (0.00) 1 0 t
79.49 96.38 (0.05) 1 0 t
79.49 130.23 (0.10) 1 0 t
79.49 164.07 (0.15) 1 0 t
79.49 197.91 (0.20) 1 0 t
79.49 231.75 (0.25) 1 0 t
79.49 265.59 (0.30) 1 0 t
np
86.40 57.60 m
302.40 0 l
0 230.40 l
-302.40 0 l
0 -230.40 l
o
0.00 0.00 432.00 576.00 cl
/Font1 findfont 10 s
0 0 0 srgb
237.60 13.82 (Time / ms \(after pulse\)) .5 0 t
49.54 172.80 (Absorbance A) .5 90 t
86.40 57.60 388.80 288.00 cl
/bg { 1 1 1 srgb } def
0 0 0 srgb
0.75 setlinewidth
[] 0 setdash
1 setlinecap
1 setlinejoin
10.00 setmiterlimit
102.08 267.62 0.65 c p3
102.36 261.32 0.65 c p3
102.64 259.82 0.65 c p3
102.92 262.36 0.65 c p3
103.20 263.41 0.65 c p3
103.48 259.82 0.65 c p3
103.76 260.40 0.65 c p3
104.04 259.82 0.65 c p3
104.32 260.40 0.65 c p3
104.60 257.31 0.65 c p3
104.88 251.22 0.65 c p3
105.16 257.76 0.65 c p3
105.44 254.70 0.65 c p3
105.72 249.66 0.65 c p3
106.00 252.67 0.65 c p3
106.28 257.31 0.65 c p3
106.56 251.22 0.65 c p3
106.84 244.27 0.65 c p3
107.12 249.66 0.65 c p3
107.40 246.24 0.65 c p3
107.68 246.68 0.65 c p3
107.96 244.71 0.65 c p3
108.24 243.72 0.65 c p3
108.52 243.72 0.65 c p3
108.80 242.31 0.65 c p3
109.08 241.34 0.65 c p3
109.36 240.37 0.65 c p3
109.64 236.52 0.65 c p3
109.92 233.67 0.65 c p3
110.20 236.52 0.65 c p3
110.48 237.48 0.65 c p3
110.76 234.20 0.65 c p3
111.04 235.57 0.65 c p3
111.32 231.37 0.65 c p3
111.60 233.25 0.65 c p3
111.88 231.37 0.65 c p3
112.16 230.85 0.65 c p3
112.44 231.37 0.65 c p3
112.72 229.91 0.65 c p3
113.00 227.64 0.65 c p3
113.28 226.71 0.65 c p3
113.56 230.43 0.65 c p3
113.84 229.50 0.65 c p3
114.12 226.71 0.65 c p3
114.40 223.04 0.65 c p3
114.68 226.20 0.65 c p3
114.96 226.20 0.65 c p3
115.24 223.95 0.65 c p3
115.52 220.82 0.65 c p3
115.80 222.13 0.65 c p3
116.08 221.22 0.65 c p3
116.36 220.31 0.65 c p3
116.64 218.51 0.65 c p3
116.92 221.72 0.65 c p3
117.20 219.91 0.65 c p3
117.48 219.01 0.65 c p3
117.76 220.82 0.65 c p3
118.04 215.43 0.65 c p3
118.32 216.32 0.65 c p3
118.60 219.01 0.65 c p3
118.88 215.83 0.65 c p3
119.16 215.83 0.65 c p3
119.44 212.78 0.65 c p3
119.72 211.02 0.65 c p3
120.00 213.17 0.65 c p3
120.28 210.15 0.65 c p3
120.56 209.66 0.65 c p3
120.84 207.92 0.65 c p3
121.12 207.06 0.65 c p3
121.40 209.66 0.65 c p3
121.68 206.67 0.65 c p3
121.96 209.66 0.65 c p3
122.24 206.67 0.65 c p3
122.52 202.86 0.65 c p3
122.80 204.09 0.65 c p3
123.08 204.09 0.65 c p3
123.36 202.39 0.65 c p3
123.64 199.47 0.65 c p3
123.92 201.16 0.65 c p3
124.20 203.24 0.65 c p3
124.48 200.32 0.65 c p3
124.76 198.63 0.65 c p3
125.04 198.16 0.65 c p3
125.32 199.85 0.65 c p3
125.60 197.33 0.65 c p3
125.88 200.69 0.65 c p3
126.16 199.00 0.65 c p3
126.44 197.79 0.65 c p3
126.72 197.33 0.65 c p3
127.00 196.12 0.65 c p3
127.28 192.35 0.65 c p3
127.56 192.81 0.65 c p3
127.84 191.17 0.65 c p3
128.12 192.81 0.65 c p3
128.40 191.53 0.65 c p3
128.68 193.64 0.65 c p3
128.96 191.53 0.65 c p3
129.24 191.17 0.65 c p3
129.52 188.36 0.65 c p3
129.80 189.17 0.65 c p3
130.08 186.74 0.65 c p3
130.36 185.49 0.65 c p3
130.64 189.17 0.65 c p3
130.92 187.55 0.65 c p3
131.20 186.74 0.65 c p3
131.48 185.94 0.65 c p3
131.76 186.74 0.65 c p3
132.04 188.72 0.65 c p3
132.32 182.74 0.65 c p3
132.60 182.30 0.65 c p3
132.88 184.33 0.65 c p3
133.16 184.33 0.65 c p3
133.44 182.74 0.65 c p3
133.72 181.15 0.65 c p3
134.00 183.54 0.65 c p3
134.28 179.57 0.65 c p3
134.56 181.15 0.65 c p3
134.84 178.00 0.65 c p3
135.12 179.92 0.65 c p3
135.40 178.00 0.65 c p3
135.68 177.57 0.65 c p3
135.96 176.79 0.65 c p3
136.24 177.22 0.65 c p3
136.52 176.44 0.65 c p3
136.80 173.00 0.65 c p3
137.08 175.66 0.65 c p3
137.36 176.44 0.65 c p3
137.64 175.66 0.65 c p3
137.92 172.57 0.65 c p3
138.20 168.76 0.65 c p3
138.48 172.23 0.65 c p3
138.76 170.70 0.65 c p3
139.04 168.76 0.65 c p3
139.32 170.28 0.65 c p3
139.60 170.28 0.65 c p3
139.88 169.51 0.65 c p3
140.16 171.47 0.65 c p3
140.44 166.15 0.65 c p3
140.72 169.94 0.65 c p3
141.00 168.00 0.65 c p3
141.28 165.74 0.65 c p3
141.56 165.74 0.65 c p3
141.84 165.40 0.65 c p3
142.12 167.24 0.65 c p3
142.40 165.74 0.65 c p3
142.68 161.68 0.65 c p3
142.96 163.91 0.65 c p3
143.24 167.24 0.65 c p3
143.52 163.49 0.65 c p3
143.80 163.16 0.65 c p3
144.08 163.49 0.65 c p3
144.36 165.40 0.65 c p3
144.64 161.68 0.65 c p3
144.92 165.40 0.65 c p3
145.20 164.24 0.65 c p3
145.48 161.68 0.65 c p3
145.76 156.94 0.65 c p3
146.04 158.73 0.65 c p3
146.32 160.94 0.65 c p3
146.60 161.35 0.65 c p3
146.88 160.61 0.65 c p3
147.16 158.73 0.65 c p3
147.44 159.87 0.65 c p3
147.72 154.36 0.65 c p3
148.00 155.09 0.65 c p3
148.28 156.54 0.65 c p3
148.56 158.00 0.65 c p3
148.84 154.36 0.65 c p3
149.12 155.81 0.65 c p3
149.40 158.40 0.65 c p3
149.68 158.00 0.65 c p3
149.96 153.64 0.65 c p3
150.24 152.20 0.65 c p3
150.52 157.67 0.65 c p3
150.80 154.04 0.65 c p3
151.08 155.09 0.65 c p3
151.36 152.20 0.65 c p3
151.64 154.04 0.65 c p3
151.92 154.76 0.65 c p3
152.20 149.35 0.65 c p3
152.48 146.21 0.65 c p3
152.76 152.60 0.65 c p3
153.04 147.62 0.65 c p3
153.32 146.91 0.65 c p3
153.60 144.81 0.65 c p3
153.88 151.49 0.65 c p3
154.16 147.62 0.65 c p3
154.44 146.21 0.65 c p3
154.72 146.91 0.65 c p3
155.00 148.64 0.65 c p3
155.28 143.10 0.65 c p3
155.56 145.51 0.65 c p3
155.84 145.20 0.65 c p3
156.12 142.72 0.65 c p3
156.40 143.41 0.65 c p3
156.68 145.51 0.65 c p3
156.96 144.11 0.65 c p3
157.24 144.11 0.65 c p3
157.52 142.41 0.65 c p3
157.80 142.72 0.65 c p3
158.08 146.60 0.65 c p3
158.36 141.33 0.65 c p3
158.64 142.72 0.65 c p3
158.92 144.11 0.65 c p3
159.20 144.11 0.65 c p3
159.48 141.71 0.65 c p3
159.76 141.02 0.65 c p3
160.04 140.64 0.65 c p3
160.32 143.41 0.65 c p3
160.60 139.95 0.65 c p3
160.88 135.18 0.65 c p3
161.16 136.91 0.65 c p3
161.44 141.33 0.65 c p3
161.72 138.28 0.65 c p3
162.00 140.64 0.65 c p3
162.28 138.58 0.65 c p3
162.56 138.58 0.65 c p3
162.84 138.28 0.65 c p3
163.12 138.58 0.65 c p3
163.40 136.23 0.65 c p3
163.68 134.20 0.65 c p3
163.96 135.55 0.65 c p3
164.24 135.55 0.65 c p3
164.52 135.18 0.65 c p3
164.80 139.65 0.65 c p3
165.08 134.57 0.65 c p3
165.36 135.55 0.65 c p3
165.64 135.18 0.65 c p3
165.92 134.57 0.65 c p3
166.20 131.89 0.65 c p3
166.48 133.53 0.65 c p3
166.76 131.51 0.65 c p3
167.04 133.53 0.65 c p3
167.32 132.56 0.65 c p3
167.60 131.89 0.65 c p3
167.88 131.22 0.65 c p3
168.16 131.89 0.65 c p3
168.44 129.88 0.65 c p3
168.72 126.87 0.65 c p3
169.00 132.56 0.65 c p3
169.28 131.51 0.65 c p3
169.56 131.89 0.65 c p3
169.84 125.92 0.65 c p3
170.12 129.22 0.65 c p3
170.40 128.85 0.65 c p3
170.68 130.55 0.65 c p3
170.96 130.55 0.65 c p3
171.24 128.19 0.65 c p3
171.52 127.24 0.65 c p3
171.80 127.24 0.65 c p3
172.08 128.85 0.65 c p3
172.36 128.56 0.65 c p3
172.64 127.90 0.65 c p3
172.92 126.22 0.65 c p3
173.20 124.61 0.65 c p3
173.48 126.22 0.65 c p3
173.76 128.19 0.65 c p3
174.04 124.25 0.65 c p3
174.32 126.22 0.65 c p3
174.60 126.58 0.65 c p3
174.88 126.87 0.65 c p3
175.16 125.27 0.65 c p3
175.44 123.31 0.65 c p3
175.72 126.22 0.65 c p3
176.00 125.56 0.65 c p3
176.28 122.66 0.65 c p3
176.56 122.95 0.65 c p3
176.84 125.27 0.65 c p3
177.12 125.27 0.65 c p3
177.40 122.95 0.65 c p3
177.68 123.31 0.65 c p3
177.96 123.31 0.65 c p3
178.24 121.73 0.65 c p3
178.52 122.66 0.65 c p3
178.80 123.31 0.65 c p3
179.08 123.31 0.65 c p3
179.36 121.08 0.65 c p3
179.64 118.16 0.65 c p3
179.92 120.44 0.65 c p3
180.20 123.60 0.65 c p3
180.48 122.66 0.65 c p3
180.76 123.31 0.65 c p3
181.04 118.51 0.65 c p3
181.32 118.80 0.65 c p3
181.60 118.51 0.65 c p3
181.88 118.80 0.65 c p3
182.16 121.08 0.65 c p3
182.44 117.52 0.65 c p3
182.72 117.87 0.65 c p3
183.00 117.24 0.65 c p3
183.28 119.79 0.65 c p3
183.56 117.87 0.65 c p3
183.84 115.33 0.65 c p3
184.12 115.61 0.65 c p3
184.40 117.87 0.65 c p3
184.68 116.88 0.65 c p3
184.96 116.25 0.65 c p3
185.24 118.80 0.65 c p3
185.52 118.80 0.65 c p3
185.80 114.07 0.65 c p3
186.08 116.88 0.65 c p3
186.36 117.24 0.65 c p3
186.64 115.97 0.65 c p3
186.92 113.44 0.65 c p3
187.20 114.98 0.65 c p3
187.48 115.97 0.65 c p3
187.76 113.72 0.65 c p3
188.04 114.07 0.65 c p3
188.32 113.44 0.65 c p3
188.60 113.72 0.65 c p3
188.88 115.61 0.65 c p3
189.16 114.70 0.65 c p3
189.44 110.94 0.65 c p3
189.72 110.94 0.65 c p3
190.00 115.33 0.65 c p3
190.28 112.19 0.65 c p3
190.56 113.09 0.65 c p3
190.84 112.46 0.65 c p3
191.12 110.59 0.65 c p3
191.40 114.07 0.65 c p3
191.68 110.94 0.65 c p3
191.96 114.35 0.65 c p3
192.24 114.35 0.65 c p3
192.52 111.84 0.65 c p3
192.80 112.46 0.65 c p3
193.08 111.21 0.65 c p3
193.36 115.61 0.65 c p3
193.64 110.59 0.65 c p3
193.92 109.69 0.65 c p3
194.20 109.69 0.65 c p3
194.48 109.07 0.65 c p3
194.76 109.42 0.65 c p3
195.04 107.84 0.65 c p3
195.32 111.84 0.65 c p3
195.60 108.80 0.65 c p3
195.88 109.42 0.65 c p3
196.16 108.80 0.65 c p3
196.44 108.46 0.65 c p3
196.72 110.59 0.65 c p3
197.00 107.84 0.65 c p3
197.28 109.42 0.65 c p3
197.56 108.80 0.65 c p3
197.84 108.80 0.65 c p3
198.12 105.72 0.65 c p3
198.40 107.84 0.65 c p3
198.68 108.18 0.65 c p3
198.96 106.61 0.65 c p3
199.24 105.11 0.65 c p3
199.52 111.21 0.65 c p3
199.80 106.61 0.65 c p3
200.08 106.33 0.65 c p3
200.36 106.95 0.65 c p3
200.64 108.46 0.65 c p3
200.92 109.07 0.65 c p3
201.20 107.84 0.65 c p3
201.48 103.89 0.65 c p3
201.76 106.95 0.65 c p3
202.04 104.50 0.65 c p3
202.32 104.50 0.65 c p3
202.60 104.16 0.65 c p3
202.88 107.56 0.65 c p3
203.16 107.22 0.65 c p3
203.44 104.50 0.65 c p3
203.72 106.33 0.65 c p3
204.00 106.95 0.65 c p3
204.28 103.89 0.65 c p3
204.56 103.28 0.65 c p3
204.84 103.89 0.65 c p3
205.12 105.11 0.65 c p3
205.40 104.77 0.65 c p3
205.68 106.33 0.65 c p3
205.96 104.16 0.65 c p3
206.24 105.99 0.65 c p3
206.52 100.26 0.65 c p3
206.80 102.07 0.65 c p3
207.08 105.11 0.65 c p3
207.36 102.95 0.65 c p3
207.64 102.68 0.65 c p3
207.92 102.34 0.65 c p3
208.20 105.99 0.65 c p3
208.48 102.68 0.65 c p3
208.76 100.53 0.65 c p3
209.04 103.28 0.65 c p3
209.32 100.26 0.65 c p3
209.60 101.47 0.65 c p3
209.88 101.13 0.65 c p3
210.16 103.28 0.65 c p3
210.44 102.07 0.65 c p3
210.72 100.86 0.65 c p3
211.00 101.47 0.65 c p3
211.28 101.74 0.65 c p3
211.56 99.06 0.65 c p3
211.84 97.60 0.65 c p3
212.12 100.86 0.65 c p3
212.40 98.20 0.65 c p3
212.68 100.53 0.65 c p3
212.96 100.26 0.65 c p3
213.24 100.26 0.65 c p3
213.52 100.53 0.65 c p3
213.80 97.87 0.65 c p3
214.08 99.93 0.65 c p3
214.36 100.53 0.65 c p3
214.64 99.06 0.65 c p3
214.92 97.87 0.65 c p3
215.20 100.53 0.65 c p3
215.48 99.33 0.65 c p3
215.76 99.93 0.65 c p3
216.04 97.01 0.65 c p3
216.32 98.73 0.65 c p3
216.60 98.73 0.65 c p3
216.88 100.53 0.65 c p3
217.16 98.20 0.65 c p3
217.44 99.66 0.65 c p3
217.72 99.06 0.65 c p3
218.00 97.60 0.65 c p3
218.28 98.20 0.65 c p3
218.56 100.26 0.65 c p3
218.84 97.87 0.65 c p3
219.12 95.82 0.65 c p3
219.40 99.06 0.65 c p3
219.68 98.46 0.65 c p3
219.96 96.68 0.65 c p3
220.24 94.90 0.65 c p3
220.52 95.82 0.65 c p3
220.80 99.33 0.65 c p3
221.08 99.33 0.65 c p3
221.36 93.14 0.65 c p3
221.64 96.09 0.65 c p3
221.92 98.46 0.65 c p3
222.20 96.09 0.65 c p3
222.48 95.49 0.65 c p3
222.76 97.60 0.65 c p3
223.04 96.68 0.65 c p3
223.32 98.20 0.65 c p3
223.60 94.64 0.65 c p3
223.88 97.60 0.65 c p3
224.16 93.46 0.65 c p3
224.44 97.60 0.65 c p3
224.72 95.49 0.65 c p3
225.00 93.73 0.65 c p3
225.28 93.73 0.65 c p3
225.56 95.82 0.65 c p3
225.84 93.46 0.65 c p3
226.12 93.46 0.65 c p3
226.40 94.31 0.65 c p3
226.68 93.14 0.65 c p3
226.96 92.29 0.65 c p3
227.24 93.14 0.65 c p3
227.52 93.46 0.65 c p3
227.80 94.05 0.65 c p3
228.08 94.64 0.65 c p3
228.36 95.49 0.65 c p3
228.64 94.90 0.65 c p3
228.92 91.97 0.65 c p3
229.20 93.14 0.65 c p3
229.48 94.05 0.65 c p3
229.76 92.29 0.65 c p3
230.04 91.97 0.65 c p3
230.32 94.64 0.65 c p3
230.60 93.14 0.65 c p3
230.88 97.01 0.65 c p3
231.16 92.88 0.65 c p3
231.44 93.73 0.65 c p3
231.72 91.97 0.65 c p3
232.00 92.29 0.65 c p3
232.28 91.97 0.65 c p3
232.56 93.46 0.65 c p3
232.84 90.80 0.65 c p3
233.12 93.73 0.65 c p3
233.40 94.64 0.65 c p3
233.68 93.14 0.65 c p3
233.96 93.14 0.65 c p3
234.24 94.31 0.65 c p3
234.52 89.96 0.65 c p3
234.80 93.46 0.65 c p3
235.08 92.55 0.65 c p3
235.36 89.38 0.65 c p3
235.64 92.55 0.65 c p3
235.92 91.38 0.65 c p3
236.20 90.54 0.65 c p3
236.48 90.80 0.65 c p3
236.76 90.80 0.65 c p3
237.04 91.97 0.65 c p3
237.32 91.12 0.65 c p3
237.60 90.22 0.65 c p3
237.88 90.80 0.65 c p3
238.16 90.80 0.65 c p3
238.44 88.48 0.65 c p3
238.72 91.71 0.65 c p3
239.00 90.54 0.65 c p3
239.28 88.48 0.65 c p3
239.56 90.54 0.65 c p3
239.84 90.80 0.65 c p3
240.12 91.12 0.65 c p3
240.40 89.64 0.65 c p3
240.68 91.12 0.65 c p3
240.96 91.12 0.65 c p3
241.24 92.55 0.65 c p3
241.52 90.80 0.65 c p3
241.80 87.07 0.65 c p3
242.08 88.80 0.65 c p3
242.36 87.07 0.65 c p3
242.64 90.80 0.65 c p3
242.92 88.80 0.65 c p3
243.20 91.12 0.65 c p3
243.48 89.64 0.65 c p3
243.76 89.96 0.65 c p3
244.04 89.06 0.65 c p3
244.32 89.38 0.65 c p3
244.60 91.12 0.65 c p3
244.88 88.23 0.65 c p3
245.16 86.50 0.65 c p3
245.44 89.64 0.65 c p3
245.72 87.39 0.65 c p3
246.00 87.91 0.65 c p3
246.28 86.25 0.65 c p3
246.56 88.80 0.65 c p3
246.84 87.65 0.65 c p3
247.12 89.38 0.65 c p3
247.40 86.50 0.65 c p3
247.68 87.65 0.65 c p3
247.96 90.80 0.65 c p3
248.24 86.25 0.65 c p3
248.52 86.82 0.65 c p3
248.80 89.06 0.65 c p3
249.08 89.38 0.65 c p3
249.36 87.65 0.65 c p3
249.64 86.82 0.65 c p3
249.92 87.65 0.65 c p3
250.20 85.67 0.65 c p3
250.48 87.39 0.65 c p3
250.76 86.82 0.65 c p3
251.04 88.48 0.65 c p3
251.32 88.48 0.65 c p3
251.60 88.23 0.65 c p3
251.88 84.53 0.65 c p3
252.16 87.91 0.65 c p3
252.44 87.91 0.65 c p3
252.72 86.50 0.65 c p3
253.00 86.50 0.65 c p3
253.28 86.50 0.65 c p3
253.56 87.07 0.65 c p3
253.84 85.67 0.65 c p3
254.12 85.67 0.65 c p3
254.40 88.23 0.65 c p3
254.68 86.25 0.65 c p3
254.96 87.07 0.65 c p3
255.24 87.65 0.65 c p3
255.52 85.36 0.65 c p3
255.80 85.10 0.65 c p3
256.08 85.67 0.65 c p3
256.36 87.91 0.65 c p3
256.64 88.23 0.65 c p3
256.92 84.78 0.65 c p3
257.20 84.53 0.65 c p3
257.48 86.82 0.65 c p3
257.76 84.22 0.65 c p3
258.04 83.65 0.65 c p3
258.32 86.82 0.65 c p3
258.60 84.22 0.65 c p3
258.88 86.82 0.65 c p3
259.16 87.07 0.65 c p3
259.44 84.22 0.65 c p3
259.72 86.25 0.65 c p3
260.00 86.25 0.65 c p3
260.28 88.23 0.65 c p3
260.56 84.78 0.65 c p3
260.84 83.96 0.65 c p3
261.12 87.07 0.65 c p3
261.40 84.78 0.65 c p3
261.68 84.22 0.65 c p3
261.96 84.78 0.65 c p3
262.24 85.36 0.65 c p3
262.52 84.53 0.65 c p3
262.80 83.39 0.65 c p3
263.08 81.95 0.65 c p3
263.36 83.65 0.65 c p3
263.64 85.10 0.65 c p3
263.92 85.93 0.65 c p3
264.20 83.96 0.65 c p3
264.48 86.50 0.65 c p3
264.76 84.53 0.65 c p3
265.04 83.96 0.65 c p3
265.32 84.78 0.65 c p3
265.60 83.08 0.65 c p3
265.88 83.39 0.65 c p3
266.16 85.93 0.65 c p3
266.44 84.53 0.65 c p3
266.72 85.36 0.65 c p3
267.00 84.53 0.65 c p3
267.28 83.08 0.65 c p3
267.56 85.10 0.65 c p3
267.84 84.53 0.65 c p3
268.12 84.22 0.65 c p3
268.40 85.10 0.65 c p3
268.68 85.10 0.65 c p3
268.96 85.10 0.65 c p3
269.24 83.65 0.65 c p3
269.52 83.96 0.65 c p3
269.80 83.08 0.65 c p3
270.08 81.70 0.65 c p3
270.36 81.70 0.65 c p3
270.64 83.39 0.65 c p3
270.92 81.70 0.65 c p3
271.20 84.78 0.65 c p3
271.48 82.51 0.65 c p3
271.76 82.83 0.65 c p3
272.04 81.13 0.65 c p3
272.32 81.70 0.65 c p3
272.60 83.65 0.65 c p3
272.88 83.65 0.65 c p3
273.16 82.83 0.65 c p3
273.44 82.51 0.65 c p3
273.72 82.83 0.65 c p3
274.00 82.83 0.65 c p3
274.28 82.51 0.65 c p3
274.56 82.83 0.65 c p3
274.84 83.65 0.65 c p3
275.12 85.10 0.65 c p3
275.40 81.38 0.65 c p3
275.68 81.70 0.65 c p3
275.96 83.08 0.65 c p3
276.24 83.39 0.65 c p3
276.52 83.65 0.65 c p3
276.80 82.83 0.65 c p3
277.08 82.51 0.65 c p3
277.36 82.51 0.65 c p3
277.64 82.83 0.65 c p3
277.92 83.65 0.65 c p3
278.20 81.13 0.65 c p3
278.48 83.39 0.65 c p3
278.76 83.08 0.65 c p3
279.04 83.39 0.65 c p3
279.32 84.22 0.65 c p3
279.60 83.96 0.65 c p3
279.88 84.78 0.65 c p3
280.16 83.96 0.65 c p3
280.44 80.57 0.65 c p3
280.72 79.45 0.65 c p3
281.00 81.70 0.65 c p3
281.28 81.13 0.65 c p3
281.56 79.70 0.65 c p3
281.84 79.14 0.65 c p3
282.12 82.83 0.65 c p3
282.40 80.82 0.65 c p3
282.68 78.33 0.65 c p3
282.96 82.26 0.65 c p3
283.24 81.13 0.65 c p3
283.52 78.33 0.65 c p3
283.80 80.01 0.65 c p3
284.08 80.82 0.65 c p3
284.36 81.38 0.65 c p3
284.64 80.01 0.65 c p3
284.92 80.82 0.65 c p3
285.20 79.45 0.65 c p3
285.48 80.01 0.65 c p3
285.76 80.57 0.65 c p3
286.04 81.70 0.65 c p3
286.32 80.26 0.65 c p3
286.60 80.57 0.65 c p3
286.88 79.70 0.65 c p3
287.16 81.38 0.65 c p3
287.44 81.38 0.65 c p3
287.72 80.82 0.65 c p3
288.00 82.83 0.65 c p3
288.28 81.13 0.65 c p3
288.56 79.70 0.65 c p3
288.84 80.26 0.65 c p3
289.12 80.82 0.65 c p3
289.40 81.13 0.65 c p3
289.68 81.38 0.65 c p3
289.96 80.01 0.65 c p3
290.24 81.70 0.65 c p3
290.52 80.57 0.65 c p3
290.80 79.70 0.65 c p3
291.08 80.82 0.65 c p3
291.36 78.33 0.65 c p3
291.64 81.13 0.65 c p3
291.92 81.13 0.65 c p3
292.20 79.14 0.65 c p3
292.48 79.45 0.65 c p3
292.76 78.58 0.65 c p3
293.04 81.13 0.65 c p3
293.32 80.01 0.65 c p3
293.60 79.45 0.65 c p3
293.88 79.14 0.65 c p3
294.16 77.46 0.65 c p3
294.44 81.38 0.65 c p3
294.72 78.89 0.65 c p3
295.00 81.95 0.65 c p3
295.28 78.58 0.65 c p3
295.56 81.70 0.65 c p3
295.84 79.14 0.65 c p3
296.12 80.57 0.65 c p3
296.40 78.58 0.65 c p3
296.68 79.70 0.65 c p3
296.96 82.26 0.65 c p3
297.24 80.01 0.65 c p3
297.52 78.89 0.65 c p3
297.80 79.14 0.65 c p3
298.08 79.45 0.65 c p3
298.36 76.11 0.65 c p3
298.64 78.02 0.65 c p3
298.92 78.58 0.65 c p3
299.20 79.70 0.65 c p3
299.48 79.70 0.65 c p3
299.76 79.45 0.65 c p3
300.04 78.58 0.65 c p3
300.32 80.82 0.65 c p3
300.60 78.33 0.65 c p3
300.88 77.22 0.65 c p3
301.16 80.01 0.65 c p3
301.44 79.70 0.65 c p3
301.72 77.77 0.65 c p3
302.00 76.97 0.65 c p3
302.28 79.14 0.65 c p3
302.56 79.70 0.65 c p3
302.84 78.89 0.65 c p3
303.12 80.01 0.65 c p3
303.40 81.38 0.65 c p3
303.68 78.33 0.65 c p3
303.96 78.33 0.65 c p3
304.24 79.14 0.65 c p3
304.52 81.38 0.65 c p3
304.80 78.58 0.65 c p3
305.08 77.46 0.65 c p3
305.36 80.01 0.65 c p3
305.64 78.02 0.65 c p3
305.92 77.46 0.65 c p3
306.20 78.89 0.65 c p3
306.48 77.22 0.65 c p3
306.76 81.13 0.65 c p3
307.04 79.14 0.65 c p3
307.32 80.01 0.65 c p3
307.60 80.01 0.65 c p3
307.88 77.77 0.65 c p3
308.16 78.02 0.65 c p3
308.44 78.02 0.65 c p3
308.72 75.00 0.65 c p3
309.00 80.57 0.65 c p3
309.28 78.33 0.65 c p3
309.56 78.58 0.65 c p3
309.84 79.14 0.65 c p3
310.12 78.89 0.65 c p3
310.40 80.01 0.65 c p3
310.68 77.22 0.65 c p3
310.96 78.33 0.65 c p3
311.24 76.66 0.65 c p3
311.52 76.42 0.65 c p3
311.80 78.33 0.65 c p3
312.08 77.77 0.65 c p3
312.36 79.14 0.65 c p3
312.64 77.22 0.65 c p3
312.92 78.02 0.65 c p3
313.20 76.42 0.65 c p3
313.48 77.77 0.65 c p3
313.76 77.46 0.65 c p3
314.04 75.56 0.65 c p3
314.32 77.77 0.65 c p3
314.60 77.46 0.65 c p3
314.88 78.33 0.65 c p3
315.16 78.58 0.65 c p3
315.44 78.58 0.65 c p3
315.72 78.02 0.65 c p3
316.00 78.33 0.65 c p3
316.28 75.56 0.65 c p3
316.56 78.02 0.65 c p3
316.84 77.22 0.65 c p3
317.12 78.02 0.65 c p3
317.40 78.02 0.65 c p3
317.68 76.42 0.65 c p3
317.96 78.02 0.65 c p3
318.24 75.00 0.65 c p3
318.52 73.90 0.65 c p3
318.80 76.11 0.65 c p3
319.08 78.02 0.65 c p3
319.36 75.00 0.65 c p3
319.64 76.97 0.65 c p3
319.92 79.70 0.65 c p3
320.20 75.86 0.65 c p3
320.48 77.22 0.65 c p3
320.76 78.58 0.65 c p3
321.04 76.66 0.65 c p3
321.32 77.22 0.65 c p3
321.60 78.33 0.65 c p3
321.88 75.86 0.65 c p3
322.16 75.86 0.65 c p3
322.44 77.22 0.65 c p3
322.72 78.02 0.65 c p3
323.00 76.66 0.65 c p3
323.28 75.86 0.65 c p3
323.56 76.11 0.65 c p3
323.84 77.77 0.65 c p3
324.12 75.56 0.65 c p3
324.40 77.77 0.65 c p3
324.68 78.89 0.65 c p3
324.96 78.02 0.65 c p3
325.24 77.77 0.65 c p3
325.52 74.45 0.65 c p3
325.80 76.97 0.65 c p3
326.08 77.46 0.65 c p3
326.36 78.89 0.65 c p3
326.64 78.89 0.65 c p3
326.92 77.46 0.65 c p3
327.20 76.11 0.65 c p3
327.48 76.42 0.65 c p3
327.76 75.56 0.65 c p3
328.04 76.66 0.65 c p3
328.32 77.77 0.65 c p3
328.60 74.76 0.65 c p3
328.88 75.00 0.65 c p3
329.16 77.77 0.65 c p3
329.44 77.77 0.65 c p3
329.72 77.46 0.65 c p3
330.00 73.90 0.65 c p3
330.28 78.58 0.65 c p3
330.56 76.11 0.65 c p3
330.84 77.77 0.65 c p3
331.12 77.22 0.65 c p3
331.40 80.26 0.65 c p3
331.68 77.22 0.65 c p3
331.96 75.00 0.65 c p3
332.24 77.22 0.65 c p3
332.52 78.02 0.65 c p3
332.80 75.00 0.65 c p3
333.08 75.31 0.65 c p3
333.36 75.00 0.65 c p3
333.64 77.22 0.65 c p3
333.92 77.46 0.65 c p3
334.20 75.56 0.65 c p3
334.48 77.22 0.65 c p3
334.76 77.22 0.65 c p3
335.04 77.46 0.65 c p3
335.32 74.76 0.65 c p3
335.60 78.02 0.65 c p3
335.88 76.11 0.65 c p3
336.16 75.00 0.65 c p3
336.44 77.22 0.65 c p3
336.72 76.11 0.65 c p3
337.00 78.02 0.65 c p3
337.28 77.77 0.65 c p3
337.56 75.56 0.65 c p3
337.84 75.31 0.65 c p3
338.12 77.22 0.65 c p3
338.40 74.21 0.65 c p3
338.68 75.00 0.65 c p3
338.96 74.21 0.65 c p3
339.24 73.90 0.65 c p3
339.52 74.76 0.65 c p3
339.80 75.56 0.65 c p3
340.08 75.00 0.65 c p3
340.36 76.42 0.65 c p3
340.64 77.46 0.65 c p3
340.92 76.42 0.65 c p3
341.20 76.11 0.65 c p3
341.48 75.86 0.65 c p3
341.76 74.21 0.65 c p3
342.04 75.86 0.65 c p3
342.32 78.89 0.65 c p3
342.60 76.97 0.65 c p3
342.88 77.22 0.65 c p3
343.16 75.56 0.65 c p3
343.44 75.31 0.65 c p3
343.72 76.42 0.65 c p3
344.00 73.66 0.65 c p3
344.28 77.22 0.65 c p3
344.56 75.00 0.65 c p3
344.84 73.90 0.65 c p3
345.12 76.66 0.65 c p3
345.40 75.00 0.65 c p3
345.68 75.56 0.65 c p3
345.96 75.31 0.65 c p3
346.24 75.56 0.65 c p3
346.52 74.21 0.65 c p3
346.80 76.66 0.65 c p3
347.08 73.66 0.65 c p3
347.36 74.45 0.65 c p3
347.64 74.76 0.65 c p3
347.92 76.97 0.65 c p3
348.20 74.76 0.65 c p3
348.48 75.56 0.65 c p3
348.76 74.45 0.65 c p3
349.04 76.97 0.65 c p3
349.32 73.35 0.65 c p3
349.60 75.00 0.65 c p3
349.88 76.66 0.65 c p3
350.16 75.00 0.65 c p3
350.44 75.31 0.65 c p3
350.72 75.00 0.65 c p3
351.00 75.86 0.65 c p3
351.28 75.56 0.65 c p3
351.56 76.11 0.65 c p3
351.84 75.56 0.65 c p3
352.12 75.56 0.65 c p3
352.40 74.45 0.65 c p3
352.68 74.76 0.65 c p3
352.96 77.46 0.65 c p3
216.00 201.60 367.20 247.68 cl
0 0 0 srgb
0.75 setlinewidth
[] 0 setdash
1 setlinecap
1 setlinejoin
10.00 setmiterlimit
221.60 232.30 0.43 c p1
221.76 222.00 0.43 c p1
221.91 220.93 0.43 c p1
222.07 227.62 0.43 c p1
222.23 231.43 0.43 c p1
222.38 226.32 0.43 c p1
222.54 229.20 0.43 c p1
222.69 229.87 0.43 c p1
222.85 232.73 0.43 c p1
223.01 228.53 0.43 c p1
223.16 218.56 0.43 c p1
223.32 232.89 0.43 c p1
223.47 228.72 0.43 c p1
223.63 220.74 0.43 c p1
223.79 228.25 0.43 c p1
223.94 238.86 0.43 c p1
224.10 228.84 0.43 c p1
224.26 217.15 0.43 c p1
224.41 229.20 0.43 c p1
224.57 224.28 0.43 c p1
224.73 226.79 0.43 c p1
224.88 224.64 0.43 c p1
225.04 224.40 0.43 c p1
225.19 226.03 0.43 c p1
225.35 224.94 0.43 c p1
225.51 224.68 0.43 c p1
225.66 224.43 0.43 c p1
225.82 218.63 0.43 c p1
225.98 214.73 0.43 c p1
226.13 221.81 0.43 c p1
226.29 225.23 0.43 c p1
226.44 220.48 0.43 c p1
226.60 224.68 0.43 c p1
226.76 218.15 0.43 c p1
226.91 223.32 0.43 c p1
227.07 221.23 0.43 c p1
227.23 221.76 0.43 c p1
227.38 224.28 0.43 c p1
227.54 223.00 0.43 c p1
227.69 220.13 0.43 c p1
227.85 219.85 0.43 c p1
228.01 228.50 0.43 c p1
228.16 228.18 0.43 c p1
228.32 224.30 0.43 c p1
228.47 218.71 0.43 c p1
228.63 226.25 0.43 c p1
228.79 227.71 0.43 c p1
228.94 224.83 0.43 c p1
229.10 220.24 0.43 c p1
229.26 224.20 0.43 c p1
229.41 223.87 0.43 c p1
229.57 223.55 0.43 c p1
229.73 221.50 0.43 c p1
229.88 229.08 0.43 c p1
230.04 227.00 0.43 c p1
230.19 226.65 0.43 c p1
230.35 231.51 0.43 c p1
230.51 222.53 0.43 c p1
230.66 225.61 0.43 c p1
230.82 232.15 0.43 c p1
230.98 227.38 0.43 c p1
231.13 228.73 0.43 c p1
231.29 224.21 0.43 c p1
231.44 222.16 0.43 c p1
231.60 227.63 0.43 c p1
231.76 223.14 0.43 c p1
231.91 223.52 0.43 c p1
232.07 221.48 0.43 c p1
232.23 221.12 0.43 c p1
232.38 227.43 0.43 c p1
232.54 222.97 0.43 c p1
232.69 230.01 0.43 c p1
232.85 225.54 0.43 c p1
233.01 219.47 0.43 c p1
233.16 223.11 0.43 c p1
233.32 224.37 0.43 c p1
233.47 222.34 0.43 c p1
233.63 217.98 0.43 c p1
233.79 222.47 0.43 c p1
233.94 227.70 0.43 c p1
234.10 223.31 0.43 c p1
234.26 221.29 0.43 c p1
234.41 221.60 0.43 c p1
234.57 226.05 0.43 c p1
234.73 222.41 0.43 c p1
234.88 230.08 0.43 c p1
235.04 228.02 0.43 c p1
235.19 226.88 0.43 c p1
235.35 227.16 0.43 c p1
235.51 226.02 0.43 c p1
235.66 219.93 0.43 c p1
235.82 221.98 0.43 c p1
235.98 219.97 0.43 c p1
236.13 224.28 0.43 c p1
236.29 222.97 0.43 c p1
236.44 228.15 0.43 c p1
236.60 225.24 0.43 c p1
236.76 225.67 0.43 c p1
236.91 221.39 0.43 c p1
237.07 224.07 0.43 c p1
237.23 220.51 0.43 c p1
237.38 219.20 0.43 c p1
237.54 227.39 0.43 c p1
237.69 225.36 0.43 c p1
237.85 224.90 0.43 c p1
238.01 224.43 0.43 c p1
238.16 227.06 0.43 c p1
238.32 231.94 0.43 c p1
238.48 221.49 0.43 c p1
238.63 221.70 0.43 c p1
238.79 226.68 0.43 c p1
238.94 227.73 0.43 c p1
239.10 225.71 0.43 c p1
239.26 223.70 0.43 c p1
239.41 229.32 0.43 c p1
239.57 222.73 0.43 c p1
239.73 226.79 0.43 c p1
239.88 221.75 0.43 c p1
240.04 226.46 0.43 c p1
240.19 223.78 0.43 c p1
240.35 223.95 0.43 c p1
240.51 223.45 0.43 c p1
240.66 225.27 0.43 c p1
240.82 224.76 0.43 c p1
240.98 219.13 0.43 c p1
241.13 225.23 0.43 c p1
241.29 227.71 0.43 c p1
241.44 227.18 0.43 c p1
241.60 222.20 0.43 c p1
241.76 215.82 0.43 c p1
241.91 223.46 0.43 c p1
242.07 221.47 0.43 c p1
242.22 218.67 0.43 c p1
242.38 222.54 0.43 c p1
242.54 223.48 0.43 c p1
242.69 222.94 0.43 c p1
242.85 227.62 0.43 c p1
243.01 218.33 0.43 c p1
243.16 226.53 0.43 c p1
243.32 223.71 0.43 c p1
243.47 220.27 0.43 c p1
243.63 221.17 0.43 c p1
243.79 221.43 0.43 c p1
243.94 225.86 0.43 c p1
244.10 223.86 0.43 c p1
244.26 216.94 0.43 c p1
244.41 222.11 0.43 c p1
244.57 229.40 0.43 c p1
244.73 223.06 0.43 c p1
244.88 223.30 0.43 c p1
245.04 224.80 0.43 c p1
245.19 229.34 0.43 c p1
245.35 223.02 0.43 c p1
245.51 231.05 0.43 c p1
245.66 229.65 0.43 c p1
245.82 225.57 0.43 c p1
245.98 217.30 0.43 c p1
246.13 221.57 0.43 c p1
246.29 226.65 0.43 c p1
246.44 228.27 0.43 c p1
246.60 227.67 0.43 c p1
246.76 224.87 0.43 c p1
246.91 227.88 0.43 c p1
247.07 218.10 0.43 c p1
247.22 220.29 0.43 c p1
247.38 223.89 0.43 c p1
247.54 227.50 0.43 c p1
247.69 221.30 0.43 c p1
247.85 224.88 0.43 c p1
248.01 230.65 0.43 c p1
248.16 230.65 0.43 c p1
248.32 223.05 0.43 c p1
248.48 221.06 0.43 c p1
248.63 232.35 0.43 c p1
248.79 226.13 0.43 c p1
248.94 228.91 0.43 c p1
249.10 224.12 0.43 c p1
249.26 228.41 0.43 c p1
249.41 230.55 0.43 c p1
249.57 220.88 0.43 c p1
249.73 215.59 0.43 c p1
249.88 228.63 0.43 c p1
250.04 219.78 0.43 c p1
250.19 219.15 0.43 c p1
250.35 215.83 0.43 c p1
250.51 229.41 0.43 c p1
250.66 222.69 0.43 c p1
250.82 220.70 0.43 c p1
250.98 222.77 0.43 c p1
251.13 226.80 0.43 c p1
251.29 216.86 0.43 c p1
251.44 222.19 0.43 c p1
251.60 222.29 0.43 c p1
251.76 218.22 0.43 c p1
251.91 220.25 0.43 c p1
252.07 224.97 0.43 c p1
252.22 222.97 0.43 c p1
252.38 223.65 0.43 c p1
252.54 221.06 0.43 c p1
252.69 222.33 0.43 c p1
252.85 230.48 0.43 c p1
253.01 221.01 0.43 c p1
253.16 224.34 0.43 c p1
253.32 227.68 0.43 c p1
253.47 228.34 0.43 c p1
253.63 224.40 0.43 c p1
253.79 223.72 0.43 c p1
253.94 223.63 0.43 c p1
254.10 229.61 0.43 c p1
254.26 223.60 0.43 c p1
254.41 215.05 0.43 c p1
254.57 219.03 0.43 c p1
254.73 228.17 0.43 c p1
254.88 222.92 0.43 c p1
255.04 228.10 0.43 c p1
255.19 224.76 0.43 c p1
255.35 225.38 0.43 c p1
255.51 225.41 0.43 c p1
255.66 226.61 0.43 c p1
255.82 222.71 0.43 c p1
255.98 219.41 0.43 c p1
256.13 222.62 0.43 c p1
256.29 223.22 0.43 c p1
256.44 223.10 0.43 c p1
256.60 232.30 0.43 c p1
256.76 223.13 0.43 c p1
256.91 225.61 0.43 c p1
257.07 225.47 0.43 c p1
257.23 224.90 0.43 c p1
257.38 220.31 0.43 c p1
257.54 224.05 0.43 c p1
257.69 220.75 0.43 c p1
257.85 225.20 0.43 c p1
258.01 223.90 0.43 c p1
258.16 223.18 0.43 c p1
258.32 222.46 0.43 c p1
258.48 224.31 0.43 c p1
258.63 221.02 0.43 c p1
258.79 215.78 0.43 c p1
258.94 227.27 0.43 c p1
259.10 225.82 0.43 c p1
259.26 227.08 0.43 c p1
259.41 216.15 0.43 c p1
259.57 223.04 0.43 c p1
259.73 222.87 0.43 c p1
259.88 226.68 0.43 c p1
260.04 227.21 0.43 c p1
260.19 223.21 0.43 c p1
260.35 221.90 0.43 c p1
260.51 222.43 0.43 c p1
260.66 226.06 0.43 c p1
260.82 226.02 0.43 c p1
260.98 225.27 0.43 c p1
261.13 222.55 0.43 c p1
261.29 219.98 0.43 c p1
261.44 223.57 0.43 c p1
261.60 227.88 0.43 c p1
261.76 220.81 0.43 c p1
261.91 225.09 0.43 c p1
262.07 226.30 0.43 c p1
262.23 227.36 0.43 c p1
262.38 224.77 0.43 c p1
262.54 221.50 0.43 c p1
262.69 227.57 0.43 c p1
262.85 226.80 0.43 c p1
263.01 221.72 0.43 c p1
263.16 222.75 0.43 c p1
263.32 227.70 0.43 c p1
263.48 228.17 0.43 c p1
263.63 224.19 0.43 c p1
263.79 225.36 0.43 c p1
263.94 225.83 0.43 c p1
264.10 223.26 0.43 c p1
264.26 225.52 0.43 c p1
264.41 227.24 0.43 c p1
264.57 227.70 0.43 c p1
264.73 223.87 0.43 c p1
264.88 218.70 0.43 c p1
265.04 223.54 0.43 c p1
265.19 230.09 0.43 c p1
265.35 228.73 0.43 c p1
265.51 230.43 0.43 c p1
265.66 221.64 0.43 c p1
265.82 222.63 0.43 c p1
265.98 222.53 0.43 c p1
266.13 223.52 0.43 c p1
266.29 228.35 0.43 c p1
266.44 221.93 0.43 c p1
266.60 223.05 0.43 c p1
266.76 222.25 0.43 c p1
266.91 227.61 0.43 c p1
267.07 224.34 0.43 c p1
267.23 219.87 0.43 c p1
267.38 220.84 0.43 c p1
267.54 225.61 0.43 c p1
267.69 224.12 0.43 c p1
267.85 223.31 0.43 c p1
268.01 228.63 0.43 c p1
268.16 229.05 0.43 c p1
268.32 220.36 0.43 c p1
268.48 226.18 0.43 c p1
268.63 227.27 0.43 c p1
268.79 225.23 0.43 c p1
268.94 220.77 0.43 c p1
269.10 224.14 0.43 c p1
269.26 226.43 0.43 c p1
269.41 222.51 0.43 c p1
269.57 223.57 0.43 c p1
269.73 222.76 0.43 c p1
269.88 223.69 0.43 c p1
270.04 227.72 0.43 c p1
270.19 226.35 0.43 c p1
270.35 219.49 0.43 c p1
270.51 219.87 0.43 c p1
270.66 228.71 0.43 c p1
270.82 223.04 0.43 c p1
270.98 225.16 0.43 c p1
271.13 224.32 0.43 c p1
271.29 221.09 0.43 c p1
271.44 228.16 0.43 c p1
271.60 222.50 0.43 c p1
271.76 229.43 0.43 c p1
271.91 229.80 0.43 c p1
272.07 225.33 0.43 c p1
272.23 226.90 0.43 c p1
272.38 224.85 0.43 c p1
272.54 233.68 0.43 c p1
272.69 224.37 0.43 c p1
272.85 223.00 0.43 c p1
273.01 223.35 0.43 c p1
273.16 222.51 0.43 c p1
273.32 223.52 0.43 c p1
273.48 220.83 0.43 c p1
273.63 228.88 0.43 c p1
273.79 223.37 0.43 c p1
273.94 224.91 0.43 c p1
274.10 224.05 0.43 c p1
274.26 223.73 0.43 c p1
274.41 228.18 0.43 c p1
274.57 223.22 0.43 c p1
274.73 226.59 0.43 c p1
274.88 225.74 0.43 c p1
275.04 226.07 0.43 c p1
275.19 220.48 0.43 c p1
275.35 224.88 0.43 c p1
275.51 225.86 0.43 c p1
275.66 223.16 0.43 c p1
275.82 220.60 0.43 c p1
275.98 232.67 0.43 c p1
276.13 224.12 0.43 c p1
276.29 223.92 0.43 c p1
276.44 225.41 0.43 c p1
276.60 228.63 0.43 c p1
276.76 230.13 0.43 c p1
276.91 228.06 0.43 c p1
277.07 220.78 0.43 c p1
277.23 226.97 0.43 c p1
277.38 222.57 0.43 c p1
277.54 222.87 0.43 c p1
277.69 222.53 0.43 c p1
277.85 229.38 0.43 c p1
278.01 229.02 0.43 c p1
278.16 224.08 0.43 c p1
278.32 227.91 0.43 c p1
278.48 229.39 0.43 c p1
278.63 223.80 0.43 c p1
278.79 222.92 0.43 c p1
278.94 224.39 0.43 c p1
279.10 227.02 0.43 c p1
279.26 226.66 0.43 c p1
279.41 229.96 0.43 c p1
279.57 226.06 0.43 c p1
279.73 229.87 0.43 c p1
279.88 219.13 0.43 c p1
280.04 222.89 0.43 c p1
280.19 229.02 0.43 c p1
280.35 225.13 0.43 c p1
280.51 224.89 0.43 c p1
280.66 224.52 0.43 c p1
280.82 231.83 0.43 c p1
280.98 225.72 0.43 c p1
281.13 221.86 0.43 c p1
281.29 227.43 0.43 c p1
281.44 221.89 0.43 c p1
281.60 224.47 0.43 c p1
281.76 224.09 0.43 c p1
281.91 228.50 0.43 c p1
282.07 226.43 0.43 c p1
282.23 224.37 0.43 c p1
282.38 225.79 0.43 c p1
282.54 226.57 0.43 c p1
282.69 221.69 0.43 c p1
282.85 219.14 0.43 c p1
283.01 225.67 0.43 c p1
283.16 220.80 0.43 c p1
283.32 225.53 0.43 c p1
283.48 225.27 0.43 c p1
283.63 225.52 0.43 c p1
283.79 226.29 0.43 c p1
283.94 221.42 0.43 c p1
284.10 225.63 0.43 c p1
284.26 227.03 0.43 c p1
284.41 224.46 0.43 c p1
284.57 222.40 0.43 c p1
284.73 227.76 0.43 c p1
284.88 225.70 0.43 c p1
285.04 227.09 0.43 c p1
285.19 221.71 0.43 c p1
285.35 225.26 0.43 c p1
285.51 225.50 0.43 c p1
285.66 229.20 0.43 c p1
285.82 224.95 0.43 c p1
285.98 227.99 0.43 c p1
286.13 227.07 0.43 c p1
286.29 224.50 0.43 c p1
286.44 225.87 0.43 c p1
286.60 230.07 0.43 c p1
286.76 225.69 0.43 c p1
286.91 221.98 0.43 c p1
287.07 228.44 0.43 c p1
287.22 227.52 0.43 c p1
287.38 224.30 0.43 c p1
287.54 221.11 0.43 c p1
287.69 223.10 0.43 c p1
287.85 230.06 0.43 c p1
288.01 230.28 0.43 c p1
288.16 218.59 0.43 c p1
288.32 224.48 0.43 c p1
288.48 229.27 0.43 c p1
288.63 224.91 0.43 c p1
288.79 223.98 0.43 c p1
288.94 228.25 0.43 c p1
289.10 226.68 0.43 c p1
289.26 229.82 0.43 c p1
289.41 223.18 0.43 c p1
289.57 229.09 0.43 c p1
289.73 221.33 0.43 c p1
289.88 229.50 0.43 c p1
290.04 225.65 0.43 c p1
290.19 222.45 0.43 c p1
290.35 222.65 0.43 c p1
290.51 226.89 0.43 c p1
290.66 222.55 0.43 c p1
290.82 222.75 0.43 c p1
290.98 224.58 0.43 c p1
291.13 222.52 0.43 c p1
291.29 221.09 0.43 c p1
291.44 222.91 0.43 c p1
291.60 223.74 0.43 c p1
291.76 225.06 0.43 c p1
291.91 226.39 0.43 c p1
292.07 228.22 0.43 c p1
292.23 227.27 0.43 c p1
292.38 221.82 0.43 c p1
292.54 224.26 0.43 c p1
292.69 226.20 0.43 c p1
292.85 223.00 0.43 c p1
293.01 222.57 0.43 c p1
293.16 227.90 0.43 c p1
293.32 225.19 0.43 c p1
293.48 232.82 0.43 c p1
293.63 225.05 0.43 c p1
293.79 226.87 0.43 c p1
293.94 223.66 0.43 c p1
294.10 224.47 0.43 c p1
294.26 224.02 0.43 c p1
294.41 227.08 0.43 c p1
294.57 222.13 0.43 c p1
294.73 227.94 0.43 c p1
294.88 229.88 0.43 c p1
295.04 227.16 0.43 c p1
295.19 227.33 0.43 c p1
295.35 229.77 0.43 c p1
295.51 221.56 0.43 c p1
295.66 228.47 0.43 c p1
295.82 226.89 0.43 c p1
295.98 220.96 0.43 c p1
296.13 227.23 0.43 c p1
296.29 225.15 0.43 c p1
296.44 223.70 0.43 c p1
296.60 224.36 0.43 c p1
296.76 224.52 0.43 c p1
296.91 226.93 0.43 c p1
297.07 225.48 0.43 c p1
297.22 223.90 0.43 c p1
297.38 225.18 0.43 c p1
297.54 225.34 0.43 c p1
297.69 221.04 0.43 c p1
297.85 227.40 0.43 c p1
298.01 225.32 0.43 c p1
298.16 221.51 0.43 c p1
298.32 225.63 0.43 c p1
298.48 226.29 0.43 c p1
298.63 227.07 0.43 c p1
298.79 224.36 0.43 c p1
298.94 227.38 0.43 c p1
299.10 227.53 0.43 c p1
299.26 230.43 0.43 c p1
299.41 227.21 0.43 c p1
299.57 220.19 0.43 c p1
299.73 223.67 0.43 c p1
299.88 220.49 0.43 c p1
300.04 227.81 0.43 c p1
300.19 224.11 0.43 c p1
300.35 228.73 0.43 c p1
300.51 226.02 0.43 c p1
300.66 226.78 0.43 c p1
300.82 225.19 0.43 c p1
300.98 225.96 0.43 c p1
301.13 229.45 0.43 c p1
301.29 224.02 0.43 c p1
301.44 220.84 0.43 c p1
301.60 227.02 0.43 c p1
301.76 222.84 0.43 c p1
301.91 223.97 0.43 c p1
302.07 220.91 0.43 c p1
302.23 225.97 0.43 c p1
302.38 223.89 0.43 c p1
302.54 227.36 0.43 c p1
302.69 221.95 0.43 c p1
302.85 224.30 0.43 c p1
303.01 230.50 0.43 c p1
303.16 221.87 0.43 c p1
303.32 223.11 0.43 c p1
303.48 227.55 0.43 c p1
303.63 228.30 0.43 c p1
303.79 225.10 0.43 c p1
303.94 223.64 0.43 c p1
304.10 225.36 0.43 c p1
304.26 221.69 0.43 c p1
304.41 225.13 0.43 c p1
304.57 224.15 0.43 c p1
304.73 227.48 0.43 c p1
304.88 227.61 0.43 c p1
305.04 227.24 0.43 c p1
305.19 220.26 0.43 c p1
305.35 226.88 0.43 c p1
305.51 227.00 0.43 c p1
305.66 224.42 0.43 c p1
305.82 224.55 0.43 c p1
305.98 224.67 0.43 c p1
306.13 225.90 0.43 c p1
306.29 223.32 0.43 c p1
306.44 223.44 0.43 c p1
306.60 228.47 0.43 c p1
306.76 224.78 0.43 c p1
306.91 226.50 0.43 c p1
307.07 227.72 0.43 c p1
307.22 223.43 0.43 c p1
307.38 223.06 0.43 c p1
307.54 224.27 0.43 c p1
307.69 228.69 0.43 c p1
307.85 229.42 0.43 c p1
308.01 222.91 0.43 c p1
308.16 222.54 0.43 c p1
308.32 227.06 0.43 c p1
308.48 222.16 0.43 c p1
308.63 221.18 0.43 c p1
308.79 227.39 0.43 c p1
308.94 222.50 0.43 c p1
309.10 227.62 0.43 c p1
309.26 228.22 0.43 c p1
309.41 222.83 0.43 c p1
309.57 226.84 0.43 c p1
309.73 226.95 0.43 c p1
309.88 230.87 0.43 c p1
310.04 224.36 0.43 c p1
310.19 222.89 0.43 c p1
310.35 228.98 0.43 c p1
310.51 224.68 0.43 c p1
310.66 223.69 0.43 c p1
310.82 224.89 0.43 c p1
310.98 226.09 0.43 c p1
311.13 224.61 0.43 c p1
311.29 222.53 0.43 c p1
311.44 219.85 0.43 c p1
311.60 223.22 0.43 c p1
311.76 226.12 0.43 c p1
311.91 227.81 0.43 c p1
312.07 224.13 0.43 c p1
312.23 229.12 0.43 c p1
312.38 225.43 0.43 c p1
312.54 224.43 0.43 c p1
312.69 226.11 0.43 c p1
312.85 222.93 0.43 c p1
313.01 223.64 0.43 c p1
313.16 228.61 0.43 c p1
313.32 226.02 0.43 c p1
313.48 227.70 0.43 c p1
313.63 226.21 0.43 c p1
313.79 223.51 0.43 c p1
313.94 227.50 0.43 c p1
314.10 226.50 0.43 c p1
314.26 225.98 0.43 c p1
314.41 227.78 0.43 c p1
314.57 227.88 0.43 c p1
314.73 227.97 0.43 c p1
314.88 225.26 0.43 c p1
315.04 225.96 0.43 c p1
315.19 224.35 0.43 c p1
315.35 221.79 0.43 c p1
315.51 221.88 0.43 c p1
315.66 225.23 0.43 c p1
315.82 222.06 0.43 c p1
315.98 228.09 0.43 c p1
316.13 223.81 0.43 c p1
316.29 224.50 0.43 c p1
316.44 221.33 0.43 c p1
316.60 222.50 0.43 c p1
316.76 226.34 0.43 c p1
316.91 226.42 0.43 c p1
317.07 224.93 0.43 c p1
317.23 224.41 0.43 c p1
317.38 225.10 0.43 c p1
317.54 225.19 0.43 c p1
317.69 224.67 0.43 c p1
317.85 225.36 0.43 c p1
318.01 227.02 0.43 c p1
318.16 229.90 0.43 c p1
318.32 222.83 0.43 c p1
318.48 223.52 0.43 c p1
318.63 226.26 0.43 c p1
318.79 226.95 0.43 c p1
318.94 227.51 0.43 c p1
319.10 226.02 0.43 c p1
319.26 225.49 0.43 c p1
319.41 225.57 0.43 c p1
319.57 226.26 0.43 c p1
319.73 227.91 0.43 c p1
319.88 223.15 0.43 c p1
320.04 227.58 0.43 c p1
320.19 227.05 0.43 c p1
320.35 227.74 0.43 c p1
320.51 229.40 0.43 c p1
320.66 228.99 0.43 c p1
320.82 230.64 0.43 c p1
320.97 229.14 0.43 c p1
321.13 222.69 0.43 c p1
321.29 220.61 0.43 c p1
321.44 225.01 0.43 c p1
321.60 224.00 0.43 c p1
321.76 221.31 0.43 c p1
321.91 220.30 0.43 c p1
322.07 227.48 0.43 c p1
322.23 223.69 0.43 c p1
322.38 218.97 0.43 c p1
322.54 226.61 0.43 c p1
322.69 224.51 0.43 c p1
322.85 219.19 0.43 c p1
323.01 222.49 0.43 c p1
323.16 224.12 0.43 c p1
323.32 225.27 0.43 c p1
323.48 222.70 0.43 c p1
323.63 224.33 0.43 c p1
323.79 221.76 0.43 c p1
323.94 222.91 0.43 c p1
324.10 224.06 0.43 c p1
324.26 226.29 0.43 c p1
324.41 223.59 0.43 c p1
324.57 224.26 0.43 c p1
324.73 222.65 0.43 c p1
324.88 225.96 0.43 c p1
325.04 226.03 0.43 c p1
325.19 225.01 0.43 c p1
325.35 228.94 0.43 c p1
325.51 225.74 0.43 c p1
325.66 223.05 0.43 c p1
325.82 224.19 0.43 c p1
325.98 225.34 0.43 c p1
326.13 226.00 0.43 c p1
326.29 226.55 0.43 c p1
326.44 223.97 0.43 c p1
326.60 227.28 0.43 c p1
326.76 225.18 0.43 c p1
326.91 223.56 0.43 c p1
327.07 225.78 0.43 c p1
327.23 221.06 0.43 c p1
327.38 226.51 0.43 c p1
327.54 226.57 0.43 c p1
327.69 222.79 0.43 c p1
327.85 223.45 0.43 c p1
328.01 221.84 0.43 c p1
328.16 226.81 0.43 c p1
328.32 224.71 0.43 c p1
328.48 223.69 0.43 c p1
328.63 223.15 0.43 c p1
328.79 219.99 0.43 c p1
328.94 227.59 0.43 c p1
329.10 222.85 0.43 c p1
329.26 228.80 0.43 c p1
329.41 222.37 0.43 c p1
329.57 228.43 0.43 c p1
329.73 223.56 0.43 c p1
329.88 226.38 0.43 c p1
330.04 222.60 0.43 c p1
330.19 224.81 0.43 c p1
330.35 229.80 0.43 c p1
330.51 225.52 0.43 c p1
330.66 223.42 0.43 c p1
330.82 223.96 0.43 c p1
330.97 224.61 0.43 c p1
331.13 218.24 0.43 c p1
331.29 221.97 0.43 c p1
331.44 223.10 0.43 c p1
331.60 225.31 0.43 c p1
331.76 225.36 0.43 c p1
331.91 224.94 0.43 c p1
332.07 223.32 0.43 c p1
332.23 227.68 0.43 c p1
332.38 222.95 0.43 c p1
332.54 220.86 0.43 c p1
332.69 226.28 0.43 c p1
332.85 225.73 0.43 c p1
333.01 222.08 0.43 c p1
333.16 220.59 0.43 c p1
333.32 224.81 0.43 c p1
333.48 225.94 0.43 c p1
333.63 224.43 0.43 c p1
333.79 226.64 0.43 c p1
333.94 229.33 0.43 c p1
334.10 223.51 0.43 c p1
334.26 223.56 0.43 c p1
334.41 225.16 0.43 c p1
334.57 229.53 0.43 c p1
334.73 224.18 0.43 c p1
334.88 222.09 0.43 c p1
335.04 227.03 0.43 c p1
335.19 223.26 0.43 c p1
335.35 222.23 0.43 c p1
335.51 225.02 0.43 c p1
335.66 221.85 0.43 c p1
335.82 229.43 0.43 c p1
335.98 225.64 0.43 c p1
336.13 227.36 0.43 c p1
336.29 227.41 0.43 c p1
336.44 223.16 0.43 c p1
336.60 223.68 0.43 c p1
336.76 223.72 0.43 c p1
336.91 217.96 0.43 c p1
337.07 228.72 0.43 c p1
337.23 224.46 0.43 c p1
337.38 224.98 0.43 c p1
337.54 226.10 0.43 c p1
337.69 225.67 0.43 c p1
337.85 227.86 0.43 c p1
338.01 222.54 0.43 c p1
338.16 224.72 0.43 c p1
338.32 221.56 0.43 c p1
338.48 221.13 0.43 c p1
338.63 224.85 0.43 c p1
338.79 223.83 0.43 c p1
338.94 226.49 0.43 c p1
339.10 222.84 0.43 c p1
339.26 224.43 0.43 c p1
339.41 221.38 0.43 c p1
339.57 224.04 0.43 c p1
339.73 223.48 0.43 c p1
339.88 219.85 0.43 c p1
340.04 224.16 0.43 c p1
340.19 223.61 0.43 c p1
340.35 225.32 0.43 c p1
340.51 225.83 0.43 c p1
340.66 225.87 0.43 c p1
340.82 224.84 0.43 c p1
340.97 225.48 0.43 c p1
341.13 220.18 0.43 c p1
341.29 224.96 0.43 c p1
341.44 223.45 0.43 c p1
341.60 225.04 0.43 c p1
341.76 225.08 0.43 c p1
341.91 222.03 0.43 c p1
342.07 225.16 0.43 c p1
342.23 219.39 0.43 c p1
342.38 217.31 0.43 c p1
342.54 221.59 0.43 c p1
342.69 225.31 0.43 c p1
342.85 219.54 0.43 c p1
343.01 223.36 0.43 c p1
343.16 228.65 0.43 c p1
343.32 221.31 0.43 c p1
343.48 223.95 0.43 c p1
343.63 226.61 0.43 c p1
343.79 222.96 0.43 c p1
343.94 224.06 0.43 c p1
344.10 226.24 0.43 c p1
344.26 221.53 0.43 c p1
344.41 221.56 0.43 c p1
344.57 224.20 0.43 c p1
344.73 225.79 0.43 c p1
344.88 223.21 0.43 c p1
345.04 221.70 0.43 c p1
345.19 222.21 0.43 c p1
345.35 225.45 0.43 c p1
345.51 221.22 0.43 c p1
345.66 225.52 0.43 c p1
345.82 227.70 0.43 c p1
345.98 226.06 0.43 c p1
346.13 225.62 0.43 c p1
346.29 219.27 0.43 c p1
346.44 224.14 0.43 c p1
346.60 225.13 0.43 c p1
346.76 227.90 0.43 c p1
346.91 227.94 0.43 c p1
347.07 225.23 0.43 c p1
347.23 222.65 0.43 c p1
347.38 223.28 0.43 c p1
347.54 221.65 0.43 c p1
347.69 223.82 0.43 c p1
347.85 225.99 0.43 c p1
348.01 220.22 0.43 c p1
348.16 220.72 0.43 c p1
348.32 226.08 0.43 c p1
348.48 226.11 0.43 c p1
348.63 225.55 0.43 c p1
348.79 218.73 0.43 c p1
348.94 227.76 0.43 c p1
349.10 223.03 0.43 c p1
349.26 226.27 0.43 c p1
349.41 225.23 0.43 c p1
349.57 231.11 0.43 c p1
349.73 225.29 0.43 c p1
349.88 221.06 0.43 c p1
350.04 225.35 0.43 c p1
350.19 226.92 0.43 c p1
350.35 221.15 0.43 c p1
350.51 221.77 0.43 c p1
350.66 221.21 0.43 c p1
350.82 225.50 0.43 c p1
350.97 226.00 0.43 c p1
351.13 222.36 0.43 c p1
351.29 225.58 0.43 c p1
351.44 225.61 0.43 c p1
351.60 226.12 0.43 c p1
351.76 220.94 0.43 c p1
351.91 227.24 0.43 c p1
352.07 223.59 0.43 c p1
352.23 221.49 0.43 c p1
352.38 225.78 0.43 c p1
352.54 223.68 0.43 c p1
352.69 227.38 0.43 c p1
352.85 226.93 0.43 c p1
353.01 222.69 0.43 c p1
353.16 222.25 0.43 c p1
353.32 225.95 0.43 c p1
353.48 220.18 0.43 c p1
353.63 221.74 0.43 c p1
353.79 220.24 0.43 c p1
353.94 219.67 0.43 c p1
354.10 221.35 0.43 c p1
354.26 222.91 0.43 c p1
354.41 221.87 0.43 c p1
354.57 224.62 0.43 c p1
354.72 226.66 0.43 c p1
354.88 224.67 0.43 c p1
355.04 224.10 0.43 c p1
355.19 223.65 0.43 c p1
355.35 220.49 0.43 c p1
355.51 223.70 0.43 c p1
355.66 229.55 0.43 c p1
355.82 225.88 0.43 c p1
355.98 226.39 0.43 c p1
356.13 223.21 0.43 c p1
356.29 222.76 0.43 c p1
356.44 224.92 0.43 c p1
356.60 219.63 0.43 c p1
356.76 226.51 0.43 c p1
356.91 222.27 0.43 c p1
357.07 220.18 0.43 c p1
357.23 225.51 0.43 c p1
357.38 222.34 0.43 c p1
357.54 223.43 0.43 c p1
357.69 222.98 0.43 c p1
357.85 223.48 0.43 c p1
358.01 220.91 0.43 c p1
358.16 225.65 0.43 c p1
358.32 219.89 0.43 c p1
358.48 221.44 0.43 c p1
358.63 222.06 0.43 c p1
358.79 226.34 0.43 c p1
358.94 222.10 0.43 c p1
359.10 223.66 0.43 c p1
359.26 221.56 0.43 c p1
359.41 226.43 0.43 c p1
359.57 219.49 0.43 c p1
359.73 222.68 0.43 c p1
359.88 225.90 0.43 c p1
360.04 222.73 0.43 c p1
360.19 223.34 0.43 c p1
360.35 222.77 0.43 c p1
360.51 224.45 0.43 c p1
360.66 223.88 0.43 c p1
360.82 224.96 0.43 c p1
360.98 223.92 0.43 c p1
361.13 223.94 0.43 c p1
361.29 221.84 0.43 c p1
361.44 222.45 0.43 c p1
361.60 227.68 0.43 c p1
0.00 0.00 432.00 576.00 cl
0 0 0 srgb
0.75 setlinewidth
[] 0 setdash
1 setlinecap
1 setlinejoin
10.00 setmiterlimit
np
219.10 201.60 m
142.05 0 l
o
np
219.10 201.60 m
0 -5.76 l
o
np
254.61 201.60 m
0 -5.76 l
o
np
290.12 201.60 m
0 -5.76 l
o
np
325.63 201.60 m
0 -5.76 l
o
np
361.15 201.60 m
0 -5.76 l
o
/Font1 findfont 6 s
219.10 185.47 (0) .5 0 t
254.61 185.47 (500) .5 0 t
290.12 185.47 (1000) .5 0 t
325.63 185.47 (1500) .5 0 t
361.15 185.47 (2000) .5 0 t
np
216.00 205.11 m
0 39.06 l
o
np
216.00 205.11 m
-5.76 0 l
o
np
216.00 211.62 m
-5.76 0 l
o
np
216.00 218.13 m
-5.76 0 l
o
np
216.00 224.64 m
-5.76 0 l
o
np
216.00 231.15 m
-5.76 0 l
o
np
216.00 237.66 m
-5.76 0 l
o
np
216.00 244.17 m
-5.76 0 l
o
209.09 202.95 (-0.015) 1 0 t
209.09 209.46 (-0.010) 1 0 t
209.09 215.97 (-0.005) 1 0 t
209.09 222.49 (0.000) 1 0 t
209.09 229.00 (0.005) 1 0 t
209.09 235.51 (0.010) 1 0 t
209.09 242.02 (0.015) 1 0 t
np
216.00 201.60 m
151.20 0 l
0 46.08 l
-151.20 0 l
0 -46.08 l
o
0.00 0.00 432.00 576.00 cl
/Font1 findfont 9 s
0 0 0 srgb
291.60 262.88 (Residuals) .5 0 t
59.04 73.44 401.76 516.96 cl
ep
%%Trailer
%%Pages: 1
%%EOF
