%!PS-Adobe-3.0 EPSF-3.0
%%DocumentNeededResources: font Helvetica
%%+ font Helvetica-Bold
%%+ font Helvetica-Oblique
%%+ font Helvetica-BoldOblique
%%+ font Symbol
%%Title: R Graphics Output
%%Creator: R Software
%%Pages: (atend)
%%BoundingBox: 0 0 432 576
%%EndComments
%%BeginProlog
/bp  { gs sRGB gs } def
% begin .ps.prolog
/gs  { gsave } bind def
/gr  { grestore } bind def
/ep  { showpage gr gr } bind def
/m   { moveto } bind def
/l  { rlineto } bind def
/np  { newpath } bind def
/cp  { closepath } bind def
/f   { fill } bind def
/o   { stroke } bind def
/c   { newpath 0 360 arc } bind def
/r   { 4 2 roll moveto 1 copy 3 -1 roll exch 0 exch rlineto 0 rlineto -1 mul 0 exch rlineto closepath } bind def
/p1  { stroke } bind def
/p2  { gsave bg fill grestore newpath } bind def
/p3  { gsave bg fill grestore stroke } bind def
/p6  { gsave bg eofill grestore newpath } bind def
/p7  { gsave bg eofill grestore stroke } bind def
/t   { 5 -2 roll moveto gsave rotate
       1 index stringwidth pop
       mul neg 0 rmoveto show grestore } bind def
/ta  { 4 -2 roll moveto gsave rotate show } bind def
/tb  { 2 -1 roll 0 rmoveto show } bind def
/cl  { grestore gsave newpath 3 index 3 index moveto 1 index
       4 -1 roll lineto  exch 1 index lineto lineto
       closepath clip newpath } bind def
/rgb { setrgbcolor } bind def
/s   { scalefont setfont } bind def
% end   .ps.prolog
/sRGB { [ /CIEBasedABC
          << /DecodeLMN
               [ { dup 0.03928 le
                        {12.92321 div}
                        {0.055 add 1.055 div 2.4 exp }
                     ifelse
                 } bind dup dup
               ]
             /MatrixLMN [0.412457 0.212673 0.019334
                         0.357576 0.715152 0.119192
                         0.180437 0.072175 0.950301]
             /WhitePoint [0.9505 1.0 1.0890]
           >>
         ] setcolorspace } bind def
/srgb { setcolor } bind def
% begin encoding
/WinAnsiEncoding [
 /.notdef /.notdef /.notdef /.notdef /.notdef /.notdef /.notdef /.notdef
 /.notdef /.notdef /.notdef /.notdef /.notdef /.notdef /.notdef /.notdef
 /.notdef /.notdef /.notdef /.notdef /.notdef /.notdef /.notdef /.notdef
 /.notdef /.notdef /.notdef /.notdef /.notdef /.notdef /.notdef /.notdef
 /space /exclam /quotedbl /numbersign /dollar /percent /ampersand /quoteright
 /parenleft /parenright /asterisk /plus /comma /minus /period /slash
 /zero /one /two /three /four /five /six /seven
 /eight /nine /colon /semicolon /less /equal /greater /question
 /at /A /B /C /D /E /F /G
 /H /I /J /K /L /M /N /O
 /P /Q /R /S /T /U /V /W
 /X /Y /Z /bracketleft /backslash /bracketright /asciicircum /underscore
 /grave /a /b /c /d /e /f /g
 /h /i /j /k /l /m /n /o
 /p /q /r /s /t /u /v /w
 /x /y /z /braceleft /bar /braceright /asciitilde /.notdef
 /Euro /.notdef /quotesinglbase /florin /quotedblbase /ellipsis /dagger /daggerdbl
 /circumflex /perthousand /Scaron /guilsinglleft /OE /.notdef /Zcaron /.notdef
 /.notdef /quoteleft /quoteright /quotedblleft /quotedblright /bullet /endash /emdash
 /tilde /trademark /scaron /guilsinglright /oe /.notdef /zcaron /Ydieresis
 /space /exclamdown /cent /sterling /currency /yen /brokenbar /section
 /dieresis /copyright /ordfeminine /guillemotleft /logicalnot /hyphen /registered /macron
 /degree /plusminus /twosuperior /threesuperior /acute /mu /paragraph /periodcentered
 /cedilla /onesuperior /ordmasculine /guillemotright /onequarter /onehalf /threequarters /questiondown
 /Agrave /Aacute /Acircumflex /Atilde /Adieresis /Aring /AE /Ccedilla
 /Egrave /Eacute /Ecircumflex /Edieresis /Igrave /Iacute /Icircumflex /Idieresis
 /Eth /Ntilde /Ograve /Oacute /Ocircumflex /Otilde /Odieresis /multiply
 /Oslash /Ugrave /Uacute /Ucircumflex /Udieresis /Yacute /Thorn /germandbls
 /agrave /aacute /acircumflex /atilde /adieresis /aring /ae /ccedilla
 /egrave /eacute /ecircumflex /edieresis /igrave /iacute /icircumflex /idieresis
 /eth /ntilde /ograve /oacute /ocircumflex /otilde /odieresis /divide
 /oslash /ugrave /uacute /ucircumflex /udieresis /yacute /thorn /ydieresis
]
 def
% end encoding
%%IncludeResource: font Helvetica
/Helvetica findfont
dup length dict begin
  {1 index /FID ne {def} {pop pop} ifelse} forall
  /Encoding WinAnsiEncoding def
  currentdict
  end
/Font1 exch definefont pop
%%IncludeResource: font Helvetica-Bold
/Helvetica-Bold findfont
dup length dict begin
  {1 index /FID ne {def} {pop pop} ifelse} forall
  /Encoding WinAnsiEncoding def
  currentdict
  end
/Font2 exch definefont pop
%%IncludeResource: font Helvetica-Oblique
/Helvetica-Oblique findfont
dup length dict begin
  {1 index /FID ne {def} {pop pop} ifelse} forall
  /Encoding WinAnsiEncoding def
  currentdict
  end
/Font3 exch definefont pop
%%IncludeResource: font Helvetica-BoldOblique
/Helvetica-BoldOblique findfont
dup length dict begin
  {1 index /FID ne {def} {pop pop} ifelse} forall
  /Encoding WinAnsiEncoding def
  currentdict
  end
/Font4 exch definefont pop
%%IncludeResource: font Symbol
/Symbol findfont
dup length dict begin
  {1 index /FID ne {def} {pop pop} ifelse} forall
  currentdict
  end
/Font5 exch definefont pop
%%EndProlog
%%Page: 1 1
bp
/bg { 1 1 1 srgb } def
0.00 0.00 432.00 576.00 r p2
0.00 0.00 432.00 576.00 cl
0.00 0.00 432.00 576.00 cl
0.00 0.00 432.00 576.00 cl
/Font1 findfont 12 s
0 0 0 srgb
48.00 508.72 (PCP-ETH) 0 0 t
48.00 494.89 (Flash light photolysis) 0 0 t
/Font1 findfont 9 s
48.00 457.54 (File: Solv) 0 ta
-0.225 (ent_debendence_sol2_1_MSLM.dat) tb gr
48.00 334.87 (T) 0 ta
-1.080 (ue Mar 01 17:31:18 2022) tb gr
48.00 430.87 (Fit function:  a + b * e) 0 ta
-0.270 (xp\(-c * t\)) tb gr
48.00 420.50 (t-Inter) 0 ta
0.270 (v) tb
-0.225 (all: 72.000 ... 8820.000 ms) tb gr
48.00 410.14 (P) 0 ta
-0.360 (ar) tb
-0.090 (ameters \(Standard de) tb
-0.270 (viation\):) tb gr
48.00 399.77 (  a = -0.00408 \(0.00033\)) 0 0 t
48.00 389.40 (  b = 0.30175 \(0.00047\)) 0 0 t
48.00 379.03 (  c = 4.058e-01 \(1.718e-03\) s^-1) 0 0 t
48.00 368.66 (  tau = 2.464e+00 \(1.043e-02\) s) 0 0 t
216.00 345.60 388.80 518.40 cl
0 0 0 srgb
0.75 setlinewidth
[] 0 setdash
1 setlinecap
1 setlinejoin
10.00 setmiterlimit
np
222.40 510.67 m
0.15 -0.92 l
0.14 0.23 l
0.15 -0.91 l
0.14 0.91 l
0.15 -0.23 l
0.14 -0.23 l
0.15 -0.91 l
0.14 2.28 l
0.15 -1.60 l
0.15 0.46 l
0.14 0.69 l
0.15 -1.83 l
0.14 0.68 l
0.15 0.92 l
0.14 -0.46 l
0.15 0.23 l
0.14 -0.69 l
0.15 0.46 l
0.15 -0.46 l
0.14 0.46 l
0.15 0.23 l
0.14 -0.23 l
0.15 -1.14 l
0.14 0.91 l
0.15 0 l
0.15 -0.45 l
0.14 1.14 l
0.15 0 l
0.14 0.46 l
0.15 -0.69 l
0.14 -0.23 l
0.15 -0.91 l
0.14 2.05 l
0.15 0 l
0.15 -0.91 l
0.14 1.14 l
0.15 -2.74 l
0.14 1.83 l
0.15 0 l
0.14 -0.69 l
0.15 0.23 l
0.14 -0.23 l
0.15 1.37 l
0.15 -1.82 l
0.14 1.14 l
0.15 0 l
0.14 -0.23 l
0.15 -0.69 l
0.14 2.02 l
0.15 -2.47 l
0.14 2.47 l
0.15 -1.56 l
0.15 0.46 l
0.14 -0.23 l
0.15 0.46 l
0.14 0.23 l
0.15 0.45 l
0.14 0.19 l
0.15 -2.02 l
0.15 0.92 l
0.14 0.23 l
0.15 -0.46 l
0.14 -0.46 l
0.15 1.37 l
0.14 -1.82 l
0.15 0.91 l
0.14 0.23 l
0.15 0.46 l
0.15 -0.23 l
0.14 -1.83 l
0.15 1.60 l
0.14 -0.46 l
0.15 1.37 l
0.14 -0.68 l
0.15 -2.06 l
0.14 2.74 l
0.15 -1.60 l
0.15 0.23 l
0.14 2.25 l
0.15 -1.79 l
0.14 -0.69 l
0.15 0.46 l
0.14 0 l
0.15 -0.23 l
0.14 -1.14 l
0.15 1.83 l
0.15 -1.37 l
0.14 0.91 l
0.15 -0.46 l
0.14 0.23 l
0.15 0.69 l
0.14 -1.60 l
0.15 0.45 l
0.15 0.92 l
0.14 -1.37 l
0.15 1.14 l
0.14 -0.23 l
0.15 -0.91 l
0.14 2.47 l
236.96 430.90 lineto
0.14 1.31 l
0.15 0.93 l
0.15 -0.68 l
0.14 1.83 l
0.15 -0.92 l
0.14 0.46 l
0.15 -0.91 l
0.14 2.05 l
0.15 -1.37 l
0.14 2.29 l
0.15 -0.92 l
0.15 1.15 l
0.14 -1.83 l
0.15 2.06 l
0.14 -1.15 l
0.15 1.37 l
0.14 0 l
0.15 0.69 l
0.14 -0.23 l
0.15 0.23 l
0.15 0.65 l
0.14 -0.88 l
0.15 1.79 l
0.14 -0.91 l
0.15 1.14 l
0.14 -1.14 l
0.15 1.14 l
0.15 -0.23 l
0.14 1.37 l
0.15 -0.68 l
0.14 2.06 l
0.15 -1.83 l
0.14 2.74 l
0.15 -2.74 l
0.14 1.14 l
0.15 -0.91 l
0.15 2.28 l
0.14 -0.68 l
0.15 1.14 l
0.14 0 l
0.15 0.91 l
0.14 -1.14 l
0.15 0.92 l
0.14 -0.69 l
0.15 2.25 l
0.15 -1.56 l
0.14 1.10 l
0.15 0.23 l
0.14 0.69 l
0.15 -0.92 l
0.14 1.37 l
0.15 -1.14 l
0.14 0.69 l
0.15 0.68 l
0.15 0.23 l
0.14 -1.14 l
0.15 2.28 l
0.14 0 l
0.15 0.69 l
0.14 -1.37 l
0.15 0.91 l
0.15 -1.14 l
0.14 1.60 l
0.15 0.23 l
0.14 0 l
0.15 -0.92 l
0.14 1.38 l
0.15 0.45 l
0.14 0.23 l
0.15 0.23 l
0.15 1.11 l
0.14 -0.88 l
0.15 0.88 l
0.14 0.45 l
0.15 0.23 l
0.14 -1.56 l
0.15 2.25 l
0.14 -1.37 l
0.15 1.60 l
0.15 -0.23 l
0.14 0.91 l
0.15 -1.14 l
0.14 0.23 l
0.15 0.68 l
0.14 0 l
0.15 0.69 l
0.14 -0.23 l
0.15 -0.46 l
0.15 0.69 l
0.14 -0.69 l
0.15 1.61 l
0.14 -0.46 l
0.15 -0.46 l
0.14 1.60 l
0.15 -0.23 l
0.15 0.92 l
0.14 1.33 l
0.15 -1.33 l
0.14 0.65 l
251.52 456.13 lineto
0.14 0.87 l
0.15 -1.10 l
0.14 0.65 l
0.15 0.22 l
0.15 -0.22 l
0.14 0 l
0.15 0.45 l
0.14 1.60 l
0.15 0 l
0.14 -0.91 l
0.15 0.91 l
0.14 0 l
0.15 0 l
0.15 0.46 l
0.14 -0.69 l
0.15 0.69 l
0.14 0.46 l
0.15 -0.23 l
0.14 -0.23 l
0.15 2.06 l
0.14 -0.92 l
0.15 0.23 l
0.15 -0.23 l
0.14 -0.22 l
0.15 0.68 l
0.14 2.02 l
0.15 -2.02 l
0.14 0.23 l
0.15 1.14 l
0.14 -1.14 l
0.15 2.48 l
0.15 -0.46 l
0.14 0 l
0.15 0.46 l
0.14 -1.11 l
0.15 1.34 l
0.14 -0.23 l
0.15 0.46 l
0.15 0.91 l
0.14 -0.69 l
0.15 0 l
0.14 0.23 l
0.15 -0.68 l
0.14 2.28 l
0.15 -0.68 l
0.14 -0.23 l
0.15 0.91 l
0.15 0.23 l
0.14 -0.68 l
0.15 -0.23 l
0.14 -0.23 l
0.15 0.91 l
0.14 -0.23 l
0.15 0.69 l
0.14 1.60 l
0.15 -1.14 l
0.15 0.46 l
0.14 0.68 l
0.15 -1.14 l
0.14 0.91 l
0.15 0.46 l
0.14 -0.23 l
0.15 -0.68 l
0.14 0.22 l
0.15 1.34 l
0.15 0.68 l
0.14 -0.22 l
0.15 -0.92 l
0.14 1.60 l
0.15 -0.91 l
0.14 -0.23 l
0.15 1.37 l
0.15 0.69 l
0.14 -0.69 l
0.15 -0.23 l
0.14 0 l
0.15 2.06 l
0.14 -1.37 l
0.15 -0.69 l
0.14 1.14 l
0.15 0.69 l
0.15 -0.23 l
0.14 1.15 l
0.15 -1.38 l
0.14 0.46 l
0.15 0.46 l
0.14 -0.23 l
0.15 1.60 l
0.14 -0.91 l
0.15 -0.23 l
0.15 0.91 l
0.14 -0.46 l
0.15 0.92 l
0.14 0.46 l
0.15 -0.92 l
0.14 0.46 l
0.15 1.10 l
0.14 -0.87 l
0.15 1.79 l
266.08 474.50 lineto
0.14 0.45 l
0.15 -0.22 l
0.14 -0.23 l
0.15 0.68 l
0.14 -0.87 l
0.15 0.87 l
0.15 0.23 l
0.14 0.46 l
0.15 1.37 l
0.14 -1.83 l
0.15 0.23 l
0.14 0.69 l
0.15 -0.69 l
0.14 0.91 l
0.15 0.46 l
0.15 -0.23 l
0.14 0.46 l
0.15 -0.46 l
0.14 0.46 l
0.15 0 l
0.14 1.37 l
0.15 -1.37 l
0.14 0.69 l
0.15 -0.23 l
0.15 0.23 l
0.14 1.14 l
0.15 -0.69 l
0.14 1.15 l
0.15 -0.69 l
0.14 -0.23 l
0.15 0.23 l
0.14 0.69 l
0.15 -0.23 l
0.15 -0.46 l
0.14 1.37 l
0.15 -1.14 l
0.14 0.69 l
0.15 -0.92 l
0.14 1.14 l
0.15 0 l
0.15 1.57 l
0.14 -0.92 l
0.15 0 l
0.14 1.37 l
0.15 -0.91 l
0.14 0.23 l
0.15 -0.46 l
0.14 -0.42 l
0.15 2.02 l
0.15 -1.60 l
0.14 1.60 l
0.15 -0.91 l
0.14 0.23 l
0.15 0.68 l
0.14 -1.37 l
0.15 1.83 l
0.14 -1.37 l
0.15 0.91 l
0.15 0.69 l
0.14 0 l
0.15 1.14 l
0.14 -1.83 l
0.15 -0.23 l
0.14 1.83 l
0.15 -0.68 l
0.14 1.37 l
0.15 -2.29 l
0.15 0.69 l
0.14 0.91 l
0.15 -1.14 l
0.14 2.29 l
0.15 -0.69 l
0.14 -1.14 l
0.15 2.06 l
0.15 0.45 l
0.14 -0.68 l
0.15 0.68 l
0.14 -0.68 l
0.15 -0.69 l
0.14 0.92 l
0.15 0.91 l
0.14 -0.23 l
0.15 0 l
0.15 -0.23 l
0.14 0 l
0.15 0 l
0.14 0 l
0.15 -0.45 l
0.14 1.79 l
0.15 -0.88 l
0.14 1.11 l
0.15 -0.23 l
0.15 0.68 l
0.14 -0.68 l
0.15 0.45 l
0.14 0 l
0.15 -1.10 l
0.14 1.33 l
0.15 -0.91 l
280.63 487.46 lineto
0.15 1.14 l
0.15 -1.14 l
0.14 0.68 l
0.15 0.69 l
0.14 -1.37 l
0.15 2.05 l
0.14 -0.68 l
0.15 -0.46 l
0.15 0.46 l
0.14 -0.92 l
0.15 1.83 l
0.14 -1.60 l
0.15 0 l
0.14 1.83 l
0.15 -0.46 l
0.14 0.23 l
0.15 1.37 l
0.15 -1.83 l
0.14 0 l
0.15 0.23 l
0.14 0.23 l
0.15 0.23 l
0.14 -0.69 l
0.15 1.61 l
0.14 -0.69 l
0.15 1.14 l
0.15 -0.91 l
0.14 0.91 l
0.15 1.38 l
0.14 -2.52 l
0.15 1.37 l
0.14 -1.14 l
0.15 0.46 l
0.14 0.22 l
0.15 0.69 l
0.15 0.23 l
0.14 -1.83 l
0.15 1.14 l
0.14 0.92 l
0.15 -0.92 l
0.14 0 l
0.15 0.46 l
0.14 0.23 l
0.15 0.69 l
0.15 -0.92 l
0.14 0.69 l
0.15 0.42 l
0.14 0.68 l
0.15 0.46 l
0.14 -1.33 l
0.15 0.64 l
0.15 0.69 l
0.14 0.23 l
0.15 -1.15 l
0.14 -0.22 l
0.15 0.68 l
0.14 -0.46 l
0.15 0.46 l
0.14 -1.56 l
0.15 2.71 l
0.15 0.45 l
0.14 -1.83 l
0.15 1.15 l
0.14 -1.60 l
0.15 0.68 l
0.14 0.69 l
0.15 -0.46 l
0.14 0.92 l
0.15 -1.38 l
0.15 0.46 l
0.14 1.14 l
0.15 0 l
0.14 0 l
0.15 0.46 l
0.14 -1.14 l
0.15 0.68 l
0.14 0.69 l
0.15 -1.14 l
0.15 1.37 l
0.14 -1.14 l
0.15 1.14 l
0.14 -0.23 l
0.15 -0.69 l
0.14 1.15 l
0.15 -0.92 l
0.15 0.69 l
0.14 0.23 l
0.15 -0.46 l
0.14 1.83 l
0.15 -2.06 l
0.14 0.69 l
0.15 0.23 l
0.14 0 l
0.15 0.45 l
0.15 -0.68 l
0.14 2.06 l
0.15 -2.75 l
0.14 1.60 l
0.15 0.69 l
295.19 496.79 lineto
0.15 0.92 l
0.14 -1.15 l
0.15 0.23 l
0.15 0 l
0.14 1.60 l
0.15 -1.60 l
0.14 1.60 l
0.15 -1.60 l
0.14 1.83 l
0.15 -0.91 l
0.14 0.68 l
0.15 0.23 l
0.15 -0.45 l
0.14 0 l
0.15 0.68 l
0.14 -1.60 l
0.15 1.37 l
0.14 0.23 l
0.15 0 l
0.15 0 l
0.14 -1.14 l
0.15 1.56 l
0.14 -0.42 l
0.15 0.88 l
0.14 -0.69 l
0.15 -0.65 l
0.14 1.80 l
0.15 0.22 l
0.15 -2.47 l
0.14 2.47 l
0.15 -1.79 l
0.14 1.11 l
0.15 -1.34 l
0.14 1.11 l
0.15 0 l
0.14 1.14 l
0.15 -1.37 l
0.15 0.69 l
0.14 -0.69 l
0.15 -1.10 l
0.14 1.56 l
0.15 -0.46 l
0.14 0.92 l
0.15 0.45 l
0.14 -1.14 l
0.15 -0.23 l
0.15 1.60 l
0.14 0.46 l
0.15 -2.29 l
0.14 1.15 l
0.15 0.22 l
0.14 -0.91 l
0.15 2.29 l
0.15 -1.15 l
0.14 0 l
0.15 -0.45 l
0.14 -0.23 l
0.15 0.68 l
0.14 -0.45 l
0.15 -0.46 l
0.14 -0.46 l
0.15 0.92 l
0.15 0.91 l
0.14 0.46 l
0.15 -0.69 l
0.14 0.46 l
0.15 0.46 l
0.14 -0.46 l
0.15 -1.14 l
0.14 1.37 l
0.15 -0.69 l
0.15 0.69 l
0.14 0 l
0.15 -0.23 l
0.14 0 l
0.15 1.37 l
0.14 -2.06 l
0.15 0.69 l
0.14 0.23 l
0.15 0.91 l
0.15 -0.23 l
0.14 -1.37 l
0.15 1.83 l
0.14 -0.69 l
0.15 0.46 l
0.14 0.92 l
0.15 -1.15 l
0.15 -0.23 l
0.14 0 l
0.15 0.23 l
0.14 0.69 l
0.15 -0.69 l
0.14 0 l
0.15 -0.23 l
0.14 0 l
0.15 1.15 l
0.15 -0.46 l
0.14 -0.23 l
0.15 0.92 l
309.75 502.70 lineto
0.15 0.46 l
0.14 0.91 l
0.15 -2.51 l
0.14 2.74 l
0.15 -1.60 l
0.15 1.83 l
0.14 -1.83 l
0.15 -0.46 l
0.14 0.92 l
0.15 0.91 l
0.14 -0.45 l
0.15 0.22 l
0.14 -1.37 l
0.15 0.69 l
0.15 0.91 l
0.14 -1.37 l
0.15 1.14 l
0.14 -0.68 l
0.15 0.23 l
0.14 -0.23 l
0.15 0 l
0.15 0.91 l
0.14 0 l
0.15 -1.60 l
0.14 2.29 l
0.15 -0.92 l
0.14 -0.22 l
0.15 0.91 l
0.14 0 l
0.15 -0.69 l
0.15 0.23 l
0.14 -1.83 l
0.15 2.06 l
0.14 0.69 l
0.15 -1.15 l
0.14 -1.14 l
0.15 0.92 l
0.14 1.14 l
0.15 0 l
0.15 -0.23 l
0.14 0 l
0.15 0.23 l
0.14 -0.46 l
0.15 1.56 l
0.14 -0.68 l
0.15 -1.56 l
0.14 0.22 l
0.15 0.46 l
0.15 1.11 l
0.14 -0.88 l
0.15 -0.69 l
0.14 0 l
0.15 1.15 l
0.14 1.56 l
0.15 -1.56 l
0.15 0.87 l
0.14 -0.45 l
0.15 0.23 l
0.14 -0.23 l
0.15 -0.65 l
0.14 1.56 l
0.15 -1.79 l
0.14 -0.46 l
0.15 0.92 l
0.15 -0.23 l
0.14 0.42 l
0.15 -2.02 l
0.14 2.48 l
0.15 -0.46 l
0.14 0.23 l
0.15 -0.23 l
0.14 -0.65 l
0.15 0.46 l
0.15 -0.23 l
0.14 1.10 l
0.15 -1.10 l
0.14 0.23 l
0.15 -0.46 l
0.14 -0.23 l
0.15 1.79 l
0.14 -0.45 l
0.15 -1.34 l
0.15 1.11 l
0.14 -1.34 l
0.15 0.46 l
0.14 1.56 l
0.15 -1.10 l
0.14 0.87 l
0.15 -1.79 l
0.14 2.94 l
0.15 -1.37 l
0.15 0.45 l
0.14 0.69 l
0.15 -0.92 l
0.14 0.69 l
0.15 -0.91 l
0.14 0.45 l
0.15 -0.23 l
0.15 0 l
324.31 504.30 lineto
0.15 1.11 l
0.14 1.14 l
0.15 2.06 l
0.14 -2.97 l
0.15 -1.34 l
0.14 0.88 l
0.15 0.91 l
0.15 1.83 l
0.14 -0.23 l
0.15 -4.30 l
0.14 0 l
0.15 0.45 l
0.14 1.80 l
0.15 5.03 l
0.14 -4.12 l
0.15 -2.71 l
0.15 -0.91 l
0.14 2.48 l
0.15 2.51 l
0.14 2.75 l
0.15 -4.81 l
0.14 -2.70 l
0.15 1.60 l
0.14 1.56 l
0.15 1.14 l
0.15 0.23 l
0.14 -2.93 l
0.15 -0.69 l
0.14 2.71 l
0.15 -2.02 l
0.14 4.53 l
0.15 -3.20 l
0.15 -2.25 l
0.14 2.02 l
0.15 0.92 l
0.14 -0.69 l
0.15 1.60 l
0.14 -1.37 l
0.15 -1.79 l
0.14 2.48 l
0.15 0 l
0.15 -0.69 l
0.14 0.46 l
0.15 0.23 l
0.14 0.68 l
0.15 -0.91 l
0.14 -1.79 l
0.15 2.70 l
0.14 -0.68 l
0.15 -0.69 l
0.15 0.46 l
0.14 -2.02 l
0.15 1.79 l
0.14 -0.23 l
0.15 0.69 l
0.14 -0.46 l
0.15 -0.46 l
0.14 0.46 l
0.15 0.23 l
0.15 0.46 l
0.14 0 l
0.15 -0.46 l
0.14 0 l
0.15 0.23 l
0.14 -0.23 l
0.15 0.68 l
0.15 -2.28 l
0.14 1.14 l
0.15 0.23 l
0.14 0.23 l
0.15 0.68 l
0.14 -1.60 l
0.15 -0.87 l
0.14 2.02 l
0.15 -0.92 l
0.15 -0.23 l
0.14 0.69 l
0.15 0.23 l
0.14 -0.23 l
0.15 0.46 l
0.14 -0.23 l
0.15 -0.23 l
0.14 0.69 l
0.15 -1.83 l
0.15 0.45 l
0.14 0.69 l
0.15 -0.91 l
0.14 1.14 l
0.15 0.68 l
0.14 -1.60 l
0.15 2.29 l
0.14 -2.29 l
0.15 0.69 l
0.15 -0.69 l
0.14 -0.45 l
0.15 1.60 l
0.14 -0.69 l
0.15 -0.46 l
0.14 1.60 l
338.87 507.46 lineto
0.15 -1.14 l
0.14 0.69 l
0.15 -0.23 l
0.14 1.14 l
0.15 -1.83 l
0.14 1.15 l
0.15 0 l
0.14 -0.23 l
0.15 0.91 l
0.15 -1.83 l
0.14 0.69 l
0.15 -1.79 l
0.14 2.02 l
0.15 -0.46 l
0.14 -0.23 l
0.15 0 l
0.14 0.92 l
0.15 -0.69 l
0.15 0.69 l
0.14 0.91 l
0.15 -1.60 l
0.14 0.46 l
0.15 -0.23 l
0.14 -0.92 l
0.15 1.38 l
0.14 0 l
0.15 0.22 l
0.15 0 l
0.14 -1.14 l
0.15 -0.91 l
0.14 2.28 l
0.15 -0.68 l
0.14 0.68 l
0.15 -0.91 l
0.15 -0.46 l
0.14 1.83 l
0.15 -2.06 l
0.14 0.23 l
0.15 1.14 l
0.14 -0.91 l
0.15 0.23 l
0.14 -0.69 l
0.15 1.83 l
0.15 -0.46 l
0.14 0 l
0.15 -0.22 l
0.14 -0.23 l
0.15 -0.23 l
0.14 0 l
0.15 2.06 l
0.14 -1.15 l
0.15 -0.91 l
0.15 0.23 l
0.14 0.91 l
0.15 -0.91 l
0.14 0.23 l
0.15 -0.23 l
0.14 -0.23 l
0.15 -0.23 l
0.14 0.46 l
0.15 1.14 l
0.15 -0.69 l
0.14 -0.45 l
0.15 -1.37 l
0.14 1.37 l
0.15 -0.23 l
0.14 -0.23 l
0.15 0 l
0.15 -0.23 l
0.14 0.23 l
0.15 0.91 l
0.14 0.23 l
0.15 -0.23 l
0.14 1.15 l
0.15 -2.29 l
0.14 1.60 l
0.15 -0.91 l
0.15 1.37 l
0.14 -1.14 l
0.15 -0.23 l
0.14 0.68 l
0.15 0.46 l
0.14 0.69 l
0.15 -2.52 l
0.14 0 l
0.15 2.06 l
0.15 -1.37 l
0.14 1.60 l
0.15 -1.15 l
0.14 -1.37 l
0.15 2.29 l
0.14 -1.37 l
0.15 0.45 l
0.14 -0.22 l
0.15 -1.83 l
0.15 2.28 l
0.14 0.69 l
0.15 -1.14 l
0.14 0 l
353.43 505.86 lineto
0.14 1.60 l
0.15 0.69 l
0.14 -1.37 l
0.15 0.23 l
0.15 0.23 l
0.14 -1.83 l
0.15 1.37 l
0.14 1.14 l
0.15 0 l
0.14 -0.68 l
0.15 0.91 l
0.15 -1.37 l
0.14 0.91 l
0.15 0 l
0.14 -0.45 l
0.15 -0.23 l
0.14 -1.60 l
0.15 2.05 l
0.14 -0.91 l
0.15 0.46 l
0.15 0.91 l
0.14 -1.14 l
0.15 -0.23 l
0.14 -0.46 l
0.15 0.46 l
0.14 2.74 l
0.15 -1.37 l
0.14 -0.46 l
0.15 -0.91 l
0.15 -1.14 l
0.14 2.74 l
0.15 -1.83 l
0.14 1.60 l
0.15 -0.46 l
0.14 -0.91 l
0.15 0.46 l
0.14 0.91 l
0.15 0 l
0.15 0.46 l
0.14 -3.20 l
0.15 2.06 l
0.14 -0.69 l
0.15 1.14 l
0.14 1.38 l
0.15 -3.21 l
0.15 0 l
0.14 0.23 l
0.15 2.75 l
0.14 -1.38 l
0.15 -0.22 l
0.14 -0.23 l
0.15 -0.69 l
0.14 0.69 l
0.15 0 l
0.15 0.45 l
0.14 -1.37 l
0.15 0.92 l
0.14 1.14 l
0.15 -1.83 l
0.14 1.83 l
0.15 -0.46 l
0.14 -0.68 l
0.15 -0.23 l
0.15 0.23 l
0.14 -0.69 l
0.15 2.75 l
0.14 -2.29 l
0.15 0.23 l
0.14 1.60 l
0.15 -1.37 l
0.14 -0.92 l
0.15 0.92 l
0.15 -0.46 l
0.14 0.91 l
0.15 -1.14 l
0.14 0.46 l
0.15 0 l
0.14 0.23 l
0.15 -0.69 l
0.15 2.06 l
0.14 -1.37 l
0.15 -0.92 l
0.14 1.37 l
0.15 0 l
0.14 0.23 l
0.15 0 l
0.14 0.23 l
0.15 -1.14 l
0.15 0.23 l
0.14 1.14 l
0.15 -0.23 l
0.14 -1.60 l
0.15 0.69 l
0.14 -0.23 l
0.15 0 l
0.14 1.14 l
0.15 -1.14 l
0.15 0 l
0.14 0.23 l
currentpoint o m
367.99 505.86 lineto
0.14 2.52 l
0.15 -2.29 l
0.14 0.23 l
0.15 1.37 l
0.14 -1.60 l
0.15 1.60 l
0.15 -0.45 l
0.14 -0.69 l
0.15 -0.23 l
0.14 0.46 l
0.15 -0.69 l
0.14 0.92 l
0.15 1.60 l
0.15 -2.06 l
0.14 0.91 l
0.15 -1.60 l
0.14 0.69 l
0.15 0.46 l
0.14 1.14 l
0.15 -1.37 l
0.14 -0.69 l
0.15 0.92 l
0.15 0.91 l
0.14 -0.46 l
0.15 -0.22 l
0.14 -0.23 l
0.15 1.14 l
0.14 -0.46 l
0.15 0.23 l
0.14 -0.68 l
0.15 0.68 l
0.15 -0.46 l
0.14 0 l
0.15 0 l
0.14 -0.68 l
0.15 0 l
0.14 -0.46 l
0.15 0.46 l
0.14 0.68 l
0.15 -0.45 l
0.15 0 l
0.14 -0.23 l
0.15 -0.23 l
0.14 1.14 l
0.15 1.60 l
0.14 -1.14 l
0.15 -1.37 l
0.15 0 l
0.14 -0.23 l
0.15 0.69 l
0.14 0.45 l
0.15 -1.37 l
0.14 0 l
0.15 0.23 l
0.14 0.69 l
0.15 1.83 l
0.15 -1.83 l
0.14 0.22 l
0.15 0 l
0.14 -0.22 l
0.15 1.37 l
0.14 -1.60 l
0.15 0 l
0.14 -0.46 l
0.15 0 l
0.15 0.46 l
0.14 0.68 l
0.15 0 l
0.14 -0.91 l
0.15 -1.14 l
0.14 1.37 l
0.15 -0.46 l
0.14 1.14 l
0.15 -0.23 l
0.15 -0.22 l
0.14 -0.46 l
0.15 0.23 l
0.14 0.68 l
0.15 0.92 l
0.14 -2.06 l
0.15 1.60 l
0.15 -0.46 l
0.14 -0.91 l
0.15 0.68 l
0.14 0 l
0.15 -0.22 l
0.14 0 l
0.15 -0.69 l
0.14 0.69 l
0.15 0.22 l
0.15 -1.37 l
0.14 1.37 l
0.15 -0.45 l
0.14 0 l
0.15 1.60 l
0.14 -1.60 l
0.15 0 l
0.14 0 l
0.15 -0.69 l
o
/bg { 1 1 1 srgb } def
222.40 510.67 0.43 c p3
222.55 509.75 0.43 c p3
222.69 509.98 0.43 c p3
222.84 509.07 0.43 c p3
222.98 509.98 0.43 c p3
223.13 509.75 0.43 c p3
223.27 509.52 0.43 c p3
223.42 508.61 0.43 c p3
223.56 510.89 0.43 c p3
223.71 509.29 0.43 c p3
223.86 509.75 0.43 c p3
224.00 510.44 0.43 c p3
224.15 508.61 0.43 c p3
224.29 509.29 0.43 c p3
224.44 510.21 0.43 c p3
224.58 509.75 0.43 c p3
224.73 509.98 0.43 c p3
224.87 509.29 0.43 c p3
225.02 509.75 0.43 c p3
225.17 509.29 0.43 c p3
225.31 509.75 0.43 c p3
225.46 509.98 0.43 c p3
225.60 509.75 0.43 c p3
225.75 508.61 0.43 c p3
225.89 509.52 0.43 c p3
226.04 509.52 0.43 c p3
226.19 509.07 0.43 c p3
226.33 510.21 0.43 c p3
226.48 510.21 0.43 c p3
226.62 510.67 0.43 c p3
226.77 509.98 0.43 c p3
226.91 509.75 0.43 c p3
227.06 508.84 0.43 c p3
227.20 510.89 0.43 c p3
227.35 510.89 0.43 c p3
227.50 509.98 0.43 c p3
227.64 511.12 0.43 c p3
227.79 508.38 0.43 c p3
227.93 510.21 0.43 c p3
228.08 510.21 0.43 c p3
228.22 509.52 0.43 c p3
228.37 509.75 0.43 c p3
228.51 509.52 0.43 c p3
228.66 510.89 0.43 c p3
228.81 509.07 0.43 c p3
228.95 510.21 0.43 c p3
229.10 510.21 0.43 c p3
229.24 509.98 0.43 c p3
229.39 509.29 0.43 c p3
229.53 511.31 0.43 c p3
229.68 508.84 0.43 c p3
229.82 511.31 0.43 c p3
229.97 509.75 0.43 c p3
230.12 510.21 0.43 c p3
230.26 509.98 0.43 c p3
230.41 510.44 0.43 c p3
230.55 510.67 0.43 c p3
230.70 511.12 0.43 c p3
230.84 511.31 0.43 c p3
230.99 509.29 0.43 c p3
231.14 510.21 0.43 c p3
231.28 510.44 0.43 c p3
231.43 509.98 0.43 c p3
231.57 509.52 0.43 c p3
231.72 510.89 0.43 c p3
231.86 509.07 0.43 c p3
232.01 509.98 0.43 c p3
232.15 510.21 0.43 c p3
232.30 510.67 0.43 c p3
232.45 510.44 0.43 c p3
232.59 508.61 0.43 c p3
232.74 510.21 0.43 c p3
232.88 509.75 0.43 c p3
233.03 511.12 0.43 c p3
233.17 510.44 0.43 c p3
233.32 508.38 0.43 c p3
233.46 511.12 0.43 c p3
233.61 509.52 0.43 c p3
233.76 509.75 0.43 c p3
233.90 512.00 0.43 c p3
234.05 510.21 0.43 c p3
234.19 509.52 0.43 c p3
234.34 509.98 0.43 c p3
234.48 509.98 0.43 c p3
234.63 509.75 0.43 c p3
234.77 508.61 0.43 c p3
234.92 510.44 0.43 c p3
235.07 509.07 0.43 c p3
235.21 509.98 0.43 c p3
235.36 509.52 0.43 c p3
235.50 509.75 0.43 c p3
235.65 510.44 0.43 c p3
235.79 508.84 0.43 c p3
235.94 509.29 0.43 c p3
236.09 510.21 0.43 c p3
236.23 508.84 0.43 c p3
236.38 509.98 0.43 c p3
236.52 509.75 0.43 c p3
236.67 508.84 0.43 c p3
236.81 511.31 0.43 c p3
236.96 430.90 0.43 c p3
237.10 432.21 0.43 c p3
237.25 433.14 0.43 c p3
237.40 432.46 0.43 c p3
237.54 434.29 0.43 c p3
237.69 433.37 0.43 c p3
237.83 433.83 0.43 c p3
237.98 432.92 0.43 c p3
238.12 434.97 0.43 c p3
238.27 433.60 0.43 c p3
238.41 435.89 0.43 c p3
238.56 434.97 0.43 c p3
238.71 436.12 0.43 c p3
238.85 434.29 0.43 c p3
239.00 436.35 0.43 c p3
239.14 435.20 0.43 c p3
239.29 436.57 0.43 c p3
239.43 436.57 0.43 c p3
239.58 437.26 0.43 c p3
239.72 437.03 0.43 c p3
239.87 437.26 0.43 c p3
240.02 437.91 0.43 c p3
240.16 437.03 0.43 c p3
240.31 438.82 0.43 c p3
240.45 437.91 0.43 c p3
240.60 439.05 0.43 c p3
240.74 437.91 0.43 c p3
240.89 439.05 0.43 c p3
241.04 438.82 0.43 c p3
241.18 440.19 0.43 c p3
241.33 439.51 0.43 c p3
241.47 441.57 0.43 c p3
241.62 439.74 0.43 c p3
241.76 442.48 0.43 c p3
241.91 439.74 0.43 c p3
242.05 440.88 0.43 c p3
242.20 439.97 0.43 c p3
242.35 442.25 0.43 c p3
242.49 441.57 0.43 c p3
242.64 442.71 0.43 c p3
242.78 442.71 0.43 c p3
242.93 443.62 0.43 c p3
243.07 442.48 0.43 c p3
243.22 443.40 0.43 c p3
243.36 442.71 0.43 c p3
243.51 444.96 0.43 c p3
243.66 443.40 0.43 c p3
243.80 444.50 0.43 c p3
243.95 444.73 0.43 c p3
244.09 445.42 0.43 c p3
244.24 444.50 0.43 c p3
244.38 445.87 0.43 c p3
244.53 444.73 0.43 c p3
244.67 445.42 0.43 c p3
244.82 446.10 0.43 c p3
244.97 446.33 0.43 c p3
245.11 445.19 0.43 c p3
245.26 447.47 0.43 c p3
245.40 447.47 0.43 c p3
245.55 448.16 0.43 c p3
245.69 446.79 0.43 c p3
245.84 447.70 0.43 c p3
245.99 446.56 0.43 c p3
246.13 448.16 0.43 c p3
246.28 448.39 0.43 c p3
246.42 448.39 0.43 c p3
246.57 447.47 0.43 c p3
246.71 448.85 0.43 c p3
246.86 449.30 0.43 c p3
247.00 449.53 0.43 c p3
247.15 449.76 0.43 c p3
247.30 450.87 0.43 c p3
247.44 449.99 0.43 c p3
247.59 450.87 0.43 c p3
247.73 451.32 0.43 c p3
247.88 451.55 0.43 c p3
248.02 449.99 0.43 c p3
248.17 452.24 0.43 c p3
248.31 450.87 0.43 c p3
248.46 452.47 0.43 c p3
248.61 452.24 0.43 c p3
248.75 453.15 0.43 c p3
248.90 452.01 0.43 c p3
249.04 452.24 0.43 c p3
249.19 452.92 0.43 c p3
249.33 452.92 0.43 c p3
249.48 453.61 0.43 c p3
249.62 453.38 0.43 c p3
249.77 452.92 0.43 c p3
249.92 453.61 0.43 c p3
250.06 452.92 0.43 c p3
250.21 454.53 0.43 c p3
250.35 454.07 0.43 c p3
250.50 453.61 0.43 c p3
250.64 455.21 0.43 c p3
250.79 454.98 0.43 c p3
250.94 455.90 0.43 c p3
251.08 457.23 0.43 c p3
251.23 455.90 0.43 c p3
251.37 456.55 0.43 c p3
251.52 456.13 0.43 c p3
251.66 457.00 0.43 c p3
251.81 455.90 0.43 c p3
251.95 456.55 0.43 c p3
252.10 456.77 0.43 c p3
252.25 456.55 0.43 c p3
252.39 456.55 0.43 c p3
252.54 457.00 0.43 c p3
252.68 458.60 0.43 c p3
252.83 458.60 0.43 c p3
252.97 457.69 0.43 c p3
253.12 458.60 0.43 c p3
253.26 458.60 0.43 c p3
253.41 458.60 0.43 c p3
253.56 459.06 0.43 c p3
253.70 458.37 0.43 c p3
253.85 459.06 0.43 c p3
253.99 459.52 0.43 c p3
254.14 459.29 0.43 c p3
254.28 459.06 0.43 c p3
254.43 461.12 0.43 c p3
254.57 460.20 0.43 c p3
254.72 460.43 0.43 c p3
254.87 460.20 0.43 c p3
255.01 459.98 0.43 c p3
255.16 460.66 0.43 c p3
255.30 462.68 0.43 c p3
255.45 460.66 0.43 c p3
255.59 460.89 0.43 c p3
255.74 462.03 0.43 c p3
255.88 460.89 0.43 c p3
256.03 463.37 0.43 c p3
256.18 462.91 0.43 c p3
256.32 462.91 0.43 c p3
256.47 463.37 0.43 c p3
256.61 462.26 0.43 c p3
256.76 463.60 0.43 c p3
256.90 463.37 0.43 c p3
257.05 463.83 0.43 c p3
257.20 464.74 0.43 c p3
257.34 464.05 0.43 c p3
257.49 464.05 0.43 c p3
257.63 464.28 0.43 c p3
257.78 463.60 0.43 c p3
257.92 465.88 0.43 c p3
258.07 465.20 0.43 c p3
258.21 464.97 0.43 c p3
258.36 465.88 0.43 c p3
258.51 466.11 0.43 c p3
258.65 465.43 0.43 c p3
258.80 465.20 0.43 c p3
258.94 464.97 0.43 c p3
259.09 465.88 0.43 c p3
259.23 465.65 0.43 c p3
259.38 466.34 0.43 c p3
259.52 467.94 0.43 c p3
259.67 466.80 0.43 c p3
259.82 467.26 0.43 c p3
259.96 467.94 0.43 c p3
260.11 466.80 0.43 c p3
260.25 467.71 0.43 c p3
260.40 468.17 0.43 c p3
260.54 467.94 0.43 c p3
260.69 467.26 0.43 c p3
260.83 467.48 0.43 c p3
260.98 468.82 0.43 c p3
261.13 469.50 0.43 c p3
261.27 469.28 0.43 c p3
261.42 468.36 0.43 c p3
261.56 469.96 0.43 c p3
261.71 469.05 0.43 c p3
261.85 468.82 0.43 c p3
262.00 470.19 0.43 c p3
262.15 470.88 0.43 c p3
262.29 470.19 0.43 c p3
262.44 469.96 0.43 c p3
262.58 469.96 0.43 c p3
262.73 472.02 0.43 c p3
262.87 470.65 0.43 c p3
263.02 469.96 0.43 c p3
263.16 471.10 0.43 c p3
263.31 471.79 0.43 c p3
263.46 471.56 0.43 c p3
263.60 472.71 0.43 c p3
263.75 471.33 0.43 c p3
263.89 471.79 0.43 c p3
264.04 472.25 0.43 c p3
264.18 472.02 0.43 c p3
264.33 473.62 0.43 c p3
264.47 472.71 0.43 c p3
264.62 472.48 0.43 c p3
264.77 473.39 0.43 c p3
264.91 472.93 0.43 c p3
265.06 473.85 0.43 c p3
265.20 474.31 0.43 c p3
265.35 473.39 0.43 c p3
265.49 473.85 0.43 c p3
265.64 474.95 0.43 c p3
265.78 474.08 0.43 c p3
265.93 475.87 0.43 c p3
266.08 474.50 0.43 c p3
266.22 474.95 0.43 c p3
266.37 474.73 0.43 c p3
266.51 474.50 0.43 c p3
266.66 475.18 0.43 c p3
266.80 474.31 0.43 c p3
266.95 475.18 0.43 c p3
267.10 475.41 0.43 c p3
267.24 475.87 0.43 c p3
267.39 477.24 0.43 c p3
267.53 475.41 0.43 c p3
267.68 475.64 0.43 c p3
267.82 476.33 0.43 c p3
267.97 475.64 0.43 c p3
268.11 476.55 0.43 c p3
268.26 477.01 0.43 c p3
268.41 476.78 0.43 c p3
268.55 477.24 0.43 c p3
268.70 476.78 0.43 c p3
268.84 477.24 0.43 c p3
268.99 477.24 0.43 c p3
269.13 478.61 0.43 c p3
269.28 477.24 0.43 c p3
269.42 477.93 0.43 c p3
269.57 477.70 0.43 c p3
269.72 477.93 0.43 c p3
269.86 479.07 0.43 c p3
270.01 478.38 0.43 c p3
270.15 479.53 0.43 c p3
270.30 478.84 0.43 c p3
270.44 478.61 0.43 c p3
270.59 478.84 0.43 c p3
270.73 479.53 0.43 c p3
270.88 479.30 0.43 c p3
271.03 478.84 0.43 c p3
271.17 480.21 0.43 c p3
271.32 479.07 0.43 c p3
271.46 479.76 0.43 c p3
271.61 478.84 0.43 c p3
271.75 479.98 0.43 c p3
271.90 479.98 0.43 c p3
272.05 481.55 0.43 c p3
272.19 480.63 0.43 c p3
272.34 480.63 0.43 c p3
272.48 482.00 0.43 c p3
272.63 481.09 0.43 c p3
272.77 481.32 0.43 c p3
272.92 480.86 0.43 c p3
273.06 480.44 0.43 c p3
273.21 482.46 0.43 c p3
273.36 480.86 0.43 c p3
273.50 482.46 0.43 c p3
273.65 481.55 0.43 c p3
273.79 481.78 0.43 c p3
273.94 482.46 0.43 c p3
274.08 481.09 0.43 c p3
274.23 482.92 0.43 c p3
274.37 481.55 0.43 c p3
274.52 482.46 0.43 c p3
274.67 483.15 0.43 c p3
274.81 483.15 0.43 c p3
274.96 484.29 0.43 c p3
275.10 482.46 0.43 c p3
275.25 482.23 0.43 c p3
275.39 484.06 0.43 c p3
275.54 483.38 0.43 c p3
275.68 484.75 0.43 c p3
275.83 482.46 0.43 c p3
275.98 483.15 0.43 c p3
276.12 484.06 0.43 c p3
276.27 482.92 0.43 c p3
276.41 485.21 0.43 c p3
276.56 484.52 0.43 c p3
276.70 483.38 0.43 c p3
276.85 485.44 0.43 c p3
277.00 485.89 0.43 c p3
277.14 485.21 0.43 c p3
277.29 485.89 0.43 c p3
277.43 485.21 0.43 c p3
277.58 484.52 0.43 c p3
277.72 485.44 0.43 c p3
277.87 486.35 0.43 c p3
278.01 486.12 0.43 c p3
278.16 486.12 0.43 c p3
278.31 485.89 0.43 c p3
278.45 485.89 0.43 c p3
278.60 485.89 0.43 c p3
278.74 485.89 0.43 c p3
278.89 485.44 0.43 c p3
279.03 487.23 0.43 c p3
279.18 486.35 0.43 c p3
279.32 487.46 0.43 c p3
279.47 487.23 0.43 c p3
279.62 487.91 0.43 c p3
279.76 487.23 0.43 c p3
279.91 487.68 0.43 c p3
280.05 487.68 0.43 c p3
280.20 486.58 0.43 c p3
280.34 487.91 0.43 c p3
280.49 487.00 0.43 c p3
280.63 487.46 0.43 c p3
280.78 488.60 0.43 c p3
280.93 487.46 0.43 c p3
281.07 488.14 0.43 c p3
281.22 488.83 0.43 c p3
281.36 487.46 0.43 c p3
281.51 489.51 0.43 c p3
281.65 488.83 0.43 c p3
281.80 488.37 0.43 c p3
281.95 488.83 0.43 c p3
282.09 487.91 0.43 c p3
282.24 489.74 0.43 c p3
282.38 488.14 0.43 c p3
282.53 488.14 0.43 c p3
282.67 489.97 0.43 c p3
282.82 489.51 0.43 c p3
282.96 489.74 0.43 c p3
283.11 491.11 0.43 c p3
283.26 489.28 0.43 c p3
283.40 489.28 0.43 c p3
283.55 489.51 0.43 c p3
283.69 489.74 0.43 c p3
283.84 489.97 0.43 c p3
283.98 489.28 0.43 c p3
284.13 490.89 0.43 c p3
284.27 490.20 0.43 c p3
284.42 491.34 0.43 c p3
284.57 490.43 0.43 c p3
284.71 491.34 0.43 c p3
284.86 492.72 0.43 c p3
285.00 490.20 0.43 c p3
285.15 491.57 0.43 c p3
285.29 490.43 0.43 c p3
285.44 490.89 0.43 c p3
285.58 491.11 0.43 c p3
285.73 491.80 0.43 c p3
285.88 492.03 0.43 c p3
286.02 490.20 0.43 c p3
286.17 491.34 0.43 c p3
286.31 492.26 0.43 c p3
286.46 491.34 0.43 c p3
286.60 491.34 0.43 c p3
286.75 491.80 0.43 c p3
286.89 492.03 0.43 c p3
287.04 492.72 0.43 c p3
287.19 491.80 0.43 c p3
287.33 492.49 0.43 c p3
287.48 492.91 0.43 c p3
287.62 493.59 0.43 c p3
287.77 494.05 0.43 c p3
287.91 492.72 0.43 c p3
288.06 493.36 0.43 c p3
288.21 494.05 0.43 c p3
288.35 494.28 0.43 c p3
288.50 493.13 0.43 c p3
288.64 492.91 0.43 c p3
288.79 493.59 0.43 c p3
288.93 493.13 0.43 c p3
289.08 493.59 0.43 c p3
289.22 492.03 0.43 c p3
289.37 494.74 0.43 c p3
289.52 495.19 0.43 c p3
289.66 493.36 0.43 c p3
289.81 494.51 0.43 c p3
289.95 492.91 0.43 c p3
290.10 493.59 0.43 c p3
290.24 494.28 0.43 c p3
290.39 493.82 0.43 c p3
290.53 494.74 0.43 c p3
290.68 493.36 0.43 c p3
290.83 493.82 0.43 c p3
290.97 494.96 0.43 c p3
291.12 494.96 0.43 c p3
291.26 494.96 0.43 c p3
291.41 495.42 0.43 c p3
291.55 494.28 0.43 c p3
291.70 494.96 0.43 c p3
291.84 495.65 0.43 c p3
291.99 494.51 0.43 c p3
292.14 495.88 0.43 c p3
292.28 494.74 0.43 c p3
292.43 495.88 0.43 c p3
292.57 495.65 0.43 c p3
292.72 494.96 0.43 c p3
292.86 496.11 0.43 c p3
293.01 495.19 0.43 c p3
293.16 495.88 0.43 c p3
293.30 496.11 0.43 c p3
293.45 495.65 0.43 c p3
293.59 497.48 0.43 c p3
293.74 495.42 0.43 c p3
293.88 496.11 0.43 c p3
294.03 496.34 0.43 c p3
294.17 496.34 0.43 c p3
294.32 496.79 0.43 c p3
294.47 496.11 0.43 c p3
294.61 498.17 0.43 c p3
294.76 495.42 0.43 c p3
294.90 497.02 0.43 c p3
295.05 497.71 0.43 c p3
295.19 496.79 0.43 c p3
295.34 497.71 0.43 c p3
295.48 496.56 0.43 c p3
295.63 496.79 0.43 c p3
295.78 496.79 0.43 c p3
295.92 498.39 0.43 c p3
296.07 496.79 0.43 c p3
296.21 498.39 0.43 c p3
296.36 496.79 0.43 c p3
296.50 498.62 0.43 c p3
296.65 497.71 0.43 c p3
296.79 498.39 0.43 c p3
296.94 498.62 0.43 c p3
297.09 498.17 0.43 c p3
297.23 498.17 0.43 c p3
297.38 498.85 0.43 c p3
297.52 497.25 0.43 c p3
297.67 498.62 0.43 c p3
297.81 498.85 0.43 c p3
297.96 498.85 0.43 c p3
298.11 498.85 0.43 c p3
298.25 497.71 0.43 c p3
298.40 499.27 0.43 c p3
298.54 498.85 0.43 c p3
298.69 499.73 0.43 c p3
298.83 499.04 0.43 c p3
298.98 498.39 0.43 c p3
299.12 500.19 0.43 c p3
299.27 500.41 0.43 c p3
299.42 497.94 0.43 c p3
299.56 500.41 0.43 c p3
299.71 498.62 0.43 c p3
299.85 499.73 0.43 c p3
300.00 498.39 0.43 c p3
300.14 499.50 0.43 c p3
300.29 499.50 0.43 c p3
300.43 500.64 0.43 c p3
300.58 499.27 0.43 c p3
300.73 499.96 0.43 c p3
300.87 499.27 0.43 c p3
301.02 498.17 0.43 c p3
301.16 499.73 0.43 c p3
301.31 499.27 0.43 c p3
301.45 500.19 0.43 c p3
301.60 500.64 0.43 c p3
301.74 499.50 0.43 c p3
301.89 499.27 0.43 c p3
302.04 500.87 0.43 c p3
302.18 501.33 0.43 c p3
302.33 499.04 0.43 c p3
302.47 500.19 0.43 c p3
302.62 500.41 0.43 c p3
302.76 499.50 0.43 c p3
302.91 501.79 0.43 c p3
303.06 500.64 0.43 c p3
303.20 500.64 0.43 c p3
303.35 500.19 0.43 c p3
303.49 499.96 0.43 c p3
303.64 500.64 0.43 c p3
303.78 500.19 0.43 c p3
303.93 499.73 0.43 c p3
304.07 499.27 0.43 c p3
304.22 500.19 0.43 c p3
304.37 501.10 0.43 c p3
304.51 501.56 0.43 c p3
304.66 500.87 0.43 c p3
304.80 501.33 0.43 c p3
304.95 501.79 0.43 c p3
305.09 501.33 0.43 c p3
305.24 500.19 0.43 c p3
305.38 501.56 0.43 c p3
305.53 500.87 0.43 c p3
305.68 501.56 0.43 c p3
305.82 501.56 0.43 c p3
305.97 501.33 0.43 c p3
306.11 501.33 0.43 c p3
306.26 502.70 0.43 c p3
306.40 500.64 0.43 c p3
306.55 501.33 0.43 c p3
306.69 501.56 0.43 c p3
306.84 502.47 0.43 c p3
306.99 502.24 0.43 c p3
307.13 500.87 0.43 c p3
307.28 502.70 0.43 c p3
307.42 502.01 0.43 c p3
307.57 502.47 0.43 c p3
307.71 503.39 0.43 c p3
307.86 502.24 0.43 c p3
308.01 502.01 0.43 c p3
308.15 502.01 0.43 c p3
308.30 502.24 0.43 c p3
308.44 502.93 0.43 c p3
308.59 502.24 0.43 c p3
308.73 502.24 0.43 c p3
308.88 502.01 0.43 c p3
309.02 502.01 0.43 c p3
309.17 503.16 0.43 c p3
309.32 502.70 0.43 c p3
309.46 502.47 0.43 c p3
309.61 503.39 0.43 c p3
309.75 502.70 0.43 c p3
309.90 503.16 0.43 c p3
310.04 504.07 0.43 c p3
310.19 501.56 0.43 c p3
310.33 504.30 0.43 c p3
310.48 502.70 0.43 c p3
310.63 504.53 0.43 c p3
310.77 502.70 0.43 c p3
310.92 502.24 0.43 c p3
311.06 503.16 0.43 c p3
311.21 504.07 0.43 c p3
311.35 503.62 0.43 c p3
311.50 503.84 0.43 c p3
311.64 502.47 0.43 c p3
311.79 503.16 0.43 c p3
311.94 504.07 0.43 c p3
312.08 502.70 0.43 c p3
312.23 503.84 0.43 c p3
312.37 503.16 0.43 c p3
312.52 503.39 0.43 c p3
312.66 503.16 0.43 c p3
312.81 503.16 0.43 c p3
312.96 504.07 0.43 c p3
313.10 504.07 0.43 c p3
313.25 502.47 0.43 c p3
313.39 504.76 0.43 c p3
313.54 503.84 0.43 c p3
313.68 503.62 0.43 c p3
313.83 504.53 0.43 c p3
313.97 504.53 0.43 c p3
314.12 503.84 0.43 c p3
314.27 504.07 0.43 c p3
314.41 502.24 0.43 c p3
314.56 504.30 0.43 c p3
314.70 504.99 0.43 c p3
314.85 503.84 0.43 c p3
314.99 502.70 0.43 c p3
315.14 503.62 0.43 c p3
315.28 504.76 0.43 c p3
315.43 504.76 0.43 c p3
315.58 504.53 0.43 c p3
315.72 504.53 0.43 c p3
315.87 504.76 0.43 c p3
316.01 504.30 0.43 c p3
316.16 505.86 0.43 c p3
316.30 505.18 0.43 c p3
316.45 503.62 0.43 c p3
316.59 503.84 0.43 c p3
316.74 504.30 0.43 c p3
316.89 505.41 0.43 c p3
317.03 504.53 0.43 c p3
317.18 503.84 0.43 c p3
317.32 503.84 0.43 c p3
317.47 504.99 0.43 c p3
317.61 506.55 0.43 c p3
317.76 504.99 0.43 c p3
317.91 505.86 0.43 c p3
318.05 505.41 0.43 c p3
318.20 505.64 0.43 c p3
318.34 505.41 0.43 c p3
318.49 504.76 0.43 c p3
318.63 506.32 0.43 c p3
318.78 504.53 0.43 c p3
318.92 504.07 0.43 c p3
319.07 504.99 0.43 c p3
319.22 504.76 0.43 c p3
319.36 505.18 0.43 c p3
319.51 503.16 0.43 c p3
319.65 505.64 0.43 c p3
319.80 505.18 0.43 c p3
319.94 505.41 0.43 c p3
320.09 505.18 0.43 c p3
320.23 504.53 0.43 c p3
320.38 504.99 0.43 c p3
320.53 504.76 0.43 c p3
320.67 505.86 0.43 c p3
320.82 504.76 0.43 c p3
320.96 504.99 0.43 c p3
321.11 504.53 0.43 c p3
321.25 504.30 0.43 c p3
321.40 506.09 0.43 c p3
321.54 505.64 0.43 c p3
321.69 504.30 0.43 c p3
321.84 505.41 0.43 c p3
321.98 504.07 0.43 c p3
322.13 504.53 0.43 c p3
322.27 506.09 0.43 c p3
322.42 504.99 0.43 c p3
322.56 505.86 0.43 c p3
322.71 504.07 0.43 c p3
322.85 507.01 0.43 c p3
323.00 505.64 0.43 c p3
323.15 506.09 0.43 c p3
323.29 506.78 0.43 c p3
323.44 505.86 0.43 c p3
323.58 506.55 0.43 c p3
323.73 505.64 0.43 c p3
323.87 506.09 0.43 c p3
324.02 505.86 0.43 c p3
324.17 505.86 0.43 c p3
324.31 504.30 0.43 c p3
324.46 505.41 0.43 c p3
324.60 506.55 0.43 c p3
324.75 508.61 0.43 c p3
324.89 505.64 0.43 c p3
325.04 504.30 0.43 c p3
325.18 505.18 0.43 c p3
325.33 506.09 0.43 c p3
325.48 507.92 0.43 c p3
325.62 507.69 0.43 c p3
325.77 503.39 0.43 c p3
325.91 503.39 0.43 c p3
326.06 503.84 0.43 c p3
326.20 505.64 0.43 c p3
326.35 510.67 0.43 c p3
326.49 506.55 0.43 c p3
326.64 503.84 0.43 c p3
326.79 502.93 0.43 c p3
326.93 505.41 0.43 c p3
327.08 507.92 0.43 c p3
327.22 510.67 0.43 c p3
327.37 505.86 0.43 c p3
327.51 503.16 0.43 c p3
327.66 504.76 0.43 c p3
327.80 506.32 0.43 c p3
327.95 507.46 0.43 c p3
328.10 507.69 0.43 c p3
328.24 504.76 0.43 c p3
328.39 504.07 0.43 c p3
328.53 506.78 0.43 c p3
328.68 504.76 0.43 c p3
328.82 509.29 0.43 c p3
328.97 506.09 0.43 c p3
329.12 503.84 0.43 c p3
329.26 505.86 0.43 c p3
329.41 506.78 0.43 c p3
329.55 506.09 0.43 c p3
329.70 507.69 0.43 c p3
329.84 506.32 0.43 c p3
329.99 504.53 0.43 c p3
330.13 507.01 0.43 c p3
330.28 507.01 0.43 c p3
330.43 506.32 0.43 c p3
330.57 506.78 0.43 c p3
330.72 507.01 0.43 c p3
330.86 507.69 0.43 c p3
331.01 506.78 0.43 c p3
331.15 504.99 0.43 c p3
331.30 507.69 0.43 c p3
331.44 507.01 0.43 c p3
331.59 506.32 0.43 c p3
331.74 506.78 0.43 c p3
331.88 504.76 0.43 c p3
332.03 506.55 0.43 c p3
332.17 506.32 0.43 c p3
332.32 507.01 0.43 c p3
332.46 506.55 0.43 c p3
332.61 506.09 0.43 c p3
332.75 506.55 0.43 c p3
332.90 506.78 0.43 c p3
333.05 507.24 0.43 c p3
333.19 507.24 0.43 c p3
333.34 506.78 0.43 c p3
333.48 506.78 0.43 c p3
333.63 507.01 0.43 c p3
333.77 506.78 0.43 c p3
333.92 507.46 0.43 c p3
334.07 505.18 0.43 c p3
334.21 506.32 0.43 c p3
334.36 506.55 0.43 c p3
334.50 506.78 0.43 c p3
334.65 507.46 0.43 c p3
334.79 505.86 0.43 c p3
334.94 504.99 0.43 c p3
335.08 507.01 0.43 c p3
335.23 506.09 0.43 c p3
335.38 505.86 0.43 c p3
335.52 506.55 0.43 c p3
335.67 506.78 0.43 c p3
335.81 506.55 0.43 c p3
335.96 507.01 0.43 c p3
336.10 506.78 0.43 c p3
336.25 506.55 0.43 c p3
336.39 507.24 0.43 c p3
336.54 505.41 0.43 c p3
336.69 505.86 0.43 c p3
336.83 506.55 0.43 c p3
336.98 505.64 0.43 c p3
337.12 506.78 0.43 c p3
337.27 507.46 0.43 c p3
337.41 505.86 0.43 c p3
337.56 508.15 0.43 c p3
337.70 505.86 0.43 c p3
337.85 506.55 0.43 c p3
338.00 505.86 0.43 c p3
338.14 505.41 0.43 c p3
338.29 507.01 0.43 c p3
338.43 506.32 0.43 c p3
338.58 505.86 0.43 c p3
338.72 507.46 0.43 c p3
338.87 507.46 0.43 c p3
339.02 506.32 0.43 c p3
339.16 507.01 0.43 c p3
339.31 506.78 0.43 c p3
339.45 507.92 0.43 c p3
339.60 506.09 0.43 c p3
339.74 507.24 0.43 c p3
339.89 507.24 0.43 c p3
340.03 507.01 0.43 c p3
340.18 507.92 0.43 c p3
340.33 506.09 0.43 c p3
340.47 506.78 0.43 c p3
340.62 504.99 0.43 c p3
340.76 507.01 0.43 c p3
340.91 506.55 0.43 c p3
341.05 506.32 0.43 c p3
341.20 506.32 0.43 c p3
341.34 507.24 0.43 c p3
341.49 506.55 0.43 c p3
341.64 507.24 0.43 c p3
341.78 508.15 0.43 c p3
341.93 506.55 0.43 c p3
342.07 507.01 0.43 c p3
342.22 506.78 0.43 c p3
342.36 505.86 0.43 c p3
342.51 507.24 0.43 c p3
342.65 507.24 0.43 c p3
342.80 507.46 0.43 c p3
342.95 507.46 0.43 c p3
343.09 506.32 0.43 c p3
343.24 505.41 0.43 c p3
343.38 507.69 0.43 c p3
343.53 507.01 0.43 c p3
343.67 507.69 0.43 c p3
343.82 506.78 0.43 c p3
343.97 506.32 0.43 c p3
344.11 508.15 0.43 c p3
344.26 506.09 0.43 c p3
344.40 506.32 0.43 c p3
344.55 507.46 0.43 c p3
344.69 506.55 0.43 c p3
344.84 506.78 0.43 c p3
344.98 506.09 0.43 c p3
345.13 507.92 0.43 c p3
345.28 507.46 0.43 c p3
345.42 507.46 0.43 c p3
345.57 507.24 0.43 c p3
345.71 507.01 0.43 c p3
345.86 506.78 0.43 c p3
346.00 506.78 0.43 c p3
346.15 508.84 0.43 c p3
346.29 507.69 0.43 c p3
346.44 506.78 0.43 c p3
346.59 507.01 0.43 c p3
346.73 507.92 0.43 c p3
346.88 507.01 0.43 c p3
347.02 507.24 0.43 c p3
347.17 507.01 0.43 c p3
347.31 506.78 0.43 c p3
347.46 506.55 0.43 c p3
347.60 507.01 0.43 c p3
347.75 508.15 0.43 c p3
347.90 507.46 0.43 c p3
348.04 507.01 0.43 c p3
348.19 505.64 0.43 c p3
348.33 507.01 0.43 c p3
348.48 506.78 0.43 c p3
348.62 506.55 0.43 c p3
348.77 506.55 0.43 c p3
348.92 506.32 0.43 c p3
349.06 506.55 0.43 c p3
349.21 507.46 0.43 c p3
349.35 507.69 0.43 c p3
349.50 507.46 0.43 c p3
349.64 508.61 0.43 c p3
349.79 506.32 0.43 c p3
349.93 507.92 0.43 c p3
350.08 507.01 0.43 c p3
350.23 508.38 0.43 c p3
350.37 507.24 0.43 c p3
350.52 507.01 0.43 c p3
350.66 507.69 0.43 c p3
350.81 508.15 0.43 c p3
350.95 508.84 0.43 c p3
351.10 506.32 0.43 c p3
351.24 506.32 0.43 c p3
351.39 508.38 0.43 c p3
351.54 507.01 0.43 c p3
351.68 508.61 0.43 c p3
351.83 507.46 0.43 c p3
351.97 506.09 0.43 c p3
352.12 508.38 0.43 c p3
352.26 507.01 0.43 c p3
352.41 507.46 0.43 c p3
352.55 507.24 0.43 c p3
352.70 505.41 0.43 c p3
352.85 507.69 0.43 c p3
352.99 508.38 0.43 c p3
353.14 507.24 0.43 c p3
353.28 507.24 0.43 c p3
353.43 505.86 0.43 c p3
353.57 507.46 0.43 c p3
353.72 508.15 0.43 c p3
353.86 506.78 0.43 c p3
354.01 507.01 0.43 c p3
354.16 507.24 0.43 c p3
354.30 505.41 0.43 c p3
354.45 506.78 0.43 c p3
354.59 507.92 0.43 c p3
354.74 507.92 0.43 c p3
354.88 507.24 0.43 c p3
355.03 508.15 0.43 c p3
355.18 506.78 0.43 c p3
355.32 507.69 0.43 c p3
355.47 507.69 0.43 c p3
355.61 507.24 0.43 c p3
355.76 507.01 0.43 c p3
355.90 505.41 0.43 c p3
356.05 507.46 0.43 c p3
356.19 506.55 0.43 c p3
356.34 507.01 0.43 c p3
356.49 507.92 0.43 c p3
356.63 506.78 0.43 c p3
356.78 506.55 0.43 c p3
356.92 506.09 0.43 c p3
357.07 506.55 0.43 c p3
357.21 509.29 0.43 c p3
357.36 507.92 0.43 c p3
357.50 507.46 0.43 c p3
357.65 506.55 0.43 c p3
357.80 505.41 0.43 c p3
357.94 508.15 0.43 c p3
358.09 506.32 0.43 c p3
358.23 507.92 0.43 c p3
358.38 507.46 0.43 c p3
358.52 506.55 0.43 c p3
358.67 507.01 0.43 c p3
358.81 507.92 0.43 c p3
358.96 507.92 0.43 c p3
359.11 508.38 0.43 c p3
359.25 505.18 0.43 c p3
359.40 507.24 0.43 c p3
359.54 506.55 0.43 c p3
359.69 507.69 0.43 c p3
359.83 509.07 0.43 c p3
359.98 505.86 0.43 c p3
360.13 505.86 0.43 c p3
360.27 506.09 0.43 c p3
360.42 508.84 0.43 c p3
360.56 507.46 0.43 c p3
360.71 507.24 0.43 c p3
360.85 507.01 0.43 c p3
361.00 506.32 0.43 c p3
361.14 507.01 0.43 c p3
361.29 507.01 0.43 c p3
361.44 507.46 0.43 c p3
361.58 506.09 0.43 c p3
361.73 507.01 0.43 c p3
361.87 508.15 0.43 c p3
362.02 506.32 0.43 c p3
362.16 508.15 0.43 c p3
362.31 507.69 0.43 c p3
362.45 507.01 0.43 c p3
362.60 506.78 0.43 c p3
362.75 507.01 0.43 c p3
362.89 506.32 0.43 c p3
363.04 509.07 0.43 c p3
363.18 506.78 0.43 c p3
363.33 507.01 0.43 c p3
363.47 508.61 0.43 c p3
363.62 507.24 0.43 c p3
363.76 506.32 0.43 c p3
363.91 507.24 0.43 c p3
364.06 506.78 0.43 c p3
364.20 507.69 0.43 c p3
364.35 506.55 0.43 c p3
364.49 507.01 0.43 c p3
364.64 507.01 0.43 c p3
364.78 507.24 0.43 c p3
364.93 506.55 0.43 c p3
365.08 508.61 0.43 c p3
365.22 507.24 0.43 c p3
365.37 506.32 0.43 c p3
365.51 507.69 0.43 c p3
365.66 507.69 0.43 c p3
365.80 507.92 0.43 c p3
365.95 507.92 0.43 c p3
366.09 508.15 0.43 c p3
366.24 507.01 0.43 c p3
366.39 507.24 0.43 c p3
366.53 508.38 0.43 c p3
366.68 508.15 0.43 c p3
366.82 506.55 0.43 c p3
366.97 507.24 0.43 c p3
367.11 507.01 0.43 c p3
367.26 507.01 0.43 c p3
367.40 508.15 0.43 c p3
367.55 507.01 0.43 c p3
367.70 507.01 0.43 c p3
367.84 507.24 0.43 c p3
367.99 505.86 0.43 c p3
368.13 508.38 0.43 c p3
368.28 506.09 0.43 c p3
368.42 506.32 0.43 c p3
368.57 507.69 0.43 c p3
368.71 506.09 0.43 c p3
368.86 507.69 0.43 c p3
369.01 507.24 0.43 c p3
369.15 506.55 0.43 c p3
369.30 506.32 0.43 c p3
369.44 506.78 0.43 c p3
369.59 506.09 0.43 c p3
369.73 507.01 0.43 c p3
369.88 508.61 0.43 c p3
370.03 506.55 0.43 c p3
370.17 507.46 0.43 c p3
370.32 505.86 0.43 c p3
370.46 506.55 0.43 c p3
370.61 507.01 0.43 c p3
370.75 508.15 0.43 c p3
370.90 506.78 0.43 c p3
371.04 506.09 0.43 c p3
371.19 507.01 0.43 c p3
371.34 507.92 0.43 c p3
371.48 507.46 0.43 c p3
371.63 507.24 0.43 c p3
371.77 507.01 0.43 c p3
371.92 508.15 0.43 c p3
372.06 507.69 0.43 c p3
372.21 507.92 0.43 c p3
372.35 507.24 0.43 c p3
372.50 507.92 0.43 c p3
372.65 507.46 0.43 c p3
372.79 507.46 0.43 c p3
372.94 507.46 0.43 c p3
373.08 506.78 0.43 c p3
373.23 506.78 0.43 c p3
373.37 506.32 0.43 c p3
373.52 506.78 0.43 c p3
373.66 507.46 0.43 c p3
373.81 507.01 0.43 c p3
373.96 507.01 0.43 c p3
374.10 506.78 0.43 c p3
374.25 506.55 0.43 c p3
374.39 507.69 0.43 c p3
374.54 509.29 0.43 c p3
374.68 508.15 0.43 c p3
374.83 506.78 0.43 c p3
374.98 506.78 0.43 c p3
375.12 506.55 0.43 c p3
375.27 507.24 0.43 c p3
375.41 507.69 0.43 c p3
375.56 506.32 0.43 c p3
375.70 506.32 0.43 c p3
375.85 506.55 0.43 c p3
375.99 507.24 0.43 c p3
376.14 509.07 0.43 c p3
376.29 507.24 0.43 c p3
376.43 507.46 0.43 c p3
376.58 507.46 0.43 c p3
376.72 507.24 0.43 c p3
376.87 508.61 0.43 c p3
377.01 507.01 0.43 c p3
377.16 507.01 0.43 c p3
377.30 506.55 0.43 c p3
377.45 506.55 0.43 c p3
377.60 507.01 0.43 c p3
377.74 507.69 0.43 c p3
377.89 507.69 0.43 c p3
378.03 506.78 0.43 c p3
378.18 505.64 0.43 c p3
378.32 507.01 0.43 c p3
378.47 506.55 0.43 c p3
378.61 507.69 0.43 c p3
378.76 507.46 0.43 c p3
378.91 507.24 0.43 c p3
379.05 506.78 0.43 c p3
379.20 507.01 0.43 c p3
379.34 507.69 0.43 c p3
379.49 508.61 0.43 c p3
379.63 506.55 0.43 c p3
379.78 508.15 0.43 c p3
379.93 507.69 0.43 c p3
380.07 506.78 0.43 c p3
380.22 507.46 0.43 c p3
380.36 507.46 0.43 c p3
380.51 507.24 0.43 c p3
380.65 507.24 0.43 c p3
380.80 506.55 0.43 c p3
380.94 507.24 0.43 c p3
381.09 507.46 0.43 c p3
381.24 506.09 0.43 c p3
381.38 507.46 0.43 c p3
381.53 507.01 0.43 c p3
381.67 507.01 0.43 c p3
381.82 508.61 0.43 c p3
381.96 507.01 0.43 c p3
382.11 507.01 0.43 c p3
382.25 507.01 0.43 c p3
382.40 506.32 0.43 c p3
0.00 0.00 432.00 576.00 cl
0 0 0 srgb
0.75 setlinewidth
[] 0 setdash
1 setlinecap
1 setlinejoin
10.00 setmiterlimit
np
236.96 345.60 m
145.59 0 l
o
np
236.96 345.60 m
0 -5.76 l
o
np
261.22 345.60 m
0 -5.76 l
o
np
285.49 345.60 m
0 -5.76 l
o
np
309.75 345.60 m
0 -5.76 l
o
np
334.02 345.60 m
0 -5.76 l
o
np
358.28 345.60 m
0 -5.76 l
o
np
382.55 345.60 m
0 -5.76 l
o
/Font1 findfont 10 s
236.96 329.47 (0) .5 0 t
261.22 329.47 (2000) .5 0 t
309.75 329.47 (6000) .5 0 t
358.28 329.47 (10000) .5 0 t
np
216.00 352.00 m
0 156.11 l
o
np
216.00 352.00 m
-5.76 0 l
o
np
216.00 383.22 m
-5.76 0 l
o
np
216.00 414.44 m
-5.76 0 l
o
np
216.00 445.66 m
-5.76 0 l
o
np
216.00 476.89 m
-5.76 0 l
o
np
216.00 508.11 m
-5.76 0 l
o
209.09 348.41 (0.00) 1 0 t
209.09 379.63 (0.05) 1 0 t
209.09 410.85 (0.10) 1 0 t
209.09 442.07 (0.15) 1 0 t
209.09 473.30 (0.20) 1 0 t
209.09 504.52 (0.25) 1 0 t
np
216.00 345.60 m
172.80 0 l
0 172.80 l
-172.80 0 l
0 -172.80 l
o
0.00 0.00 432.00 576.00 cl
/Font1 findfont 10 s
0 0 0 srgb
302.40 313.34 (Time / ms \(total\)) .5 0 t
190.66 432.00 (U / V) .5 90 t
216.00 345.60 388.80 518.40 cl
0 0 0 srgb
0.38 setlinewidth
[ 1.13 1.88] 0 setdash
1 setlinecap
1 setlinejoin
10.00 setmiterlimit
np
224.00 345.60 m
0 172.80 l
o
np
235.07 345.60 m
0 172.80 l
o
np
237.83 345.60 m
0 172.80 l
o
np
343.97 345.60 m
0 172.80 l
o
86.40 57.60 388.80 288.00 cl
1 0 0 srgb
1.50 setlinewidth
[] 0 setdash
1 setlinecap
1 setlinejoin
10.00 setmiterlimit
np
97.60 279.47 m
1.41 -5.20 l
1.40 -5.07 l
1.41 -4.95 l
1.41 -4.83 l
1.41 -4.71 l
1.40 -4.60 l
1.41 -4.49 l
1.41 -4.38 l
1.40 -4.27 l
1.41 -4.17 l
1.41 -4.07 l
1.40 -3.97 l
1.41 -3.87 l
1.41 -3.78 l
1.41 -3.69 l
1.40 -3.60 l
1.41 -3.52 l
1.41 -3.43 l
1.40 -3.34 l
1.41 -3.27 l
1.41 -3.18 l
1.40 -3.11 l
1.41 -3.03 l
1.41 -2.96 l
1.41 -2.89 l
1.40 -2.82 l
1.41 -2.75 l
1.41 -2.69 l
1.40 -2.62 l
1.41 -2.55 l
1.41 -2.50 l
1.41 -2.43 l
1.40 -2.37 l
1.41 -2.32 l
1.41 -2.26 l
1.40 -2.21 l
1.41 -2.15 l
1.41 -2.11 l
1.40 -2.05 l
1.41 -2.00 l
1.41 -1.95 l
1.41 -1.91 l
1.40 -1.86 l
1.41 -1.81 l
1.41 -1.77 l
1.40 -1.73 l
1.41 -1.68 l
1.41 -1.65 l
1.40 -1.61 l
1.41 -1.56 l
1.41 -1.53 l
1.41 -1.49 l
1.40 -1.46 l
1.41 -1.42 l
1.41 -1.39 l
1.40 -1.35 l
1.41 -1.32 l
1.41 -1.29 l
1.41 -1.25 l
1.40 -1.23 l
1.41 -1.20 l
1.41 -1.17 l
1.40 -1.14 l
1.41 -1.11 l
1.41 -1.08 l
1.40 -1.06 l
1.41 -1.04 l
1.41 -1.00 l
1.41 -0.99 l
1.40 -0.96 l
1.41 -0.94 l
1.41 -0.91 l
1.40 -0.89 l
1.41 -0.87 l
1.41 -0.85 l
1.40 -0.83 l
1.41 -0.81 l
1.41 -0.79 l
1.41 -0.77 l
1.40 -0.75 l
1.41 -0.74 l
1.41 -0.71 l
1.40 -0.70 l
1.41 -0.68 l
1.41 -0.67 l
1.41 -0.65 l
1.40 -0.63 l
1.41 -0.62 l
1.41 -0.60 l
1.40 -0.59 l
1.41 -0.58 l
1.41 -0.56 l
1.40 -0.54 l
1.41 -0.54 l
1.41 -0.52 l
1.41 -0.51 l
1.40 -0.49 l
1.41 -0.49 l
1.41 -0.47 l
238.30 83.09 lineto
1.41 -0.45 l
1.41 -0.44 l
1.40 -0.43 l
1.41 -0.42 l
1.41 -0.40 l
1.41 -0.40 l
1.40 -0.39 l
1.41 -0.38 l
1.41 -0.37 l
1.40 -0.36 l
1.41 -0.35 l
1.41 -0.35 l
1.40 -0.33 l
1.41 -0.33 l
1.41 -0.32 l
1.41 -0.31 l
1.40 -0.30 l
1.41 -0.30 l
1.41 -0.29 l
1.40 -0.28 l
1.41 -0.28 l
1.41 -0.27 l
1.41 -0.26 l
1.40 -0.26 l
1.41 -0.25 l
1.41 -0.24 l
1.40 -0.24 l
1.41 -0.23 l
1.41 -0.23 l
1.40 -0.22 l
1.41 -0.21 l
1.41 -0.21 l
1.41 -0.21 l
1.40 -0.20 l
1.41 -0.20 l
1.41 -0.19 l
1.40 -0.18 l
1.41 -0.19 l
1.41 -0.17 l
1.40 -0.18 l
1.41 -0.16 l
1.41 -0.17 l
1.41 -0.16 l
1.40 -0.16 l
1.41 -0.15 l
1.41 -0.15 l
1.40 -0.15 l
1.41 -0.14 l
1.41 -0.14 l
1.41 -0.13 l
1.40 -0.14 l
1.41 -0.12 l
1.41 -0.13 l
1.40 -0.12 l
1.41 -0.12 l
1.41 -0.12 l
1.40 -0.11 l
1.41 -0.12 l
1.41 -0.11 l
1.41 -0.10 l
1.40 -0.10 l
1.41 -0.11 l
1.41 -0.09 l
1.40 -0.10 l
1.41 -0.09 l
1.41 -0.10 l
1.40 -0.09 l
1.41 -0.08 l
1.41 -0.09 l
1.41 -0.08 l
1.40 -0.08 l
1.41 -0.08 l
1.41 -0.08 l
1.40 -0.07 l
1.41 -0.08 l
1.41 -0.07 l
1.41 -0.07 l
1.40 -0.07 l
1.41 -0.06 l
1.41 -0.07 l
1.40 -0.06 l
1.41 -0.07 l
1.41 -0.06 l
1.40 -0.05 l
1.41 -0.06 l
1.41 -0.06 l
1.41 -0.05 l
1.40 -0.06 l
1.41 -0.05 l
1.41 -0.05 l
1.40 -0.05 l
1.41 -0.05 l
1.41 -0.05 l
1.40 -0.04 l
1.41 -0.05 l
1.41 -0.04 l
1.41 -0.04 l
1.40 -0.05 l
1.41 -0.04 l
o
0.00 0.00 432.00 576.00 cl
0 0 0 srgb
0.75 setlinewidth
[] 0 setdash
1 setlinecap
1 setlinejoin
10.00 setmiterlimit
np
97.60 57.60 m
280.00 0 l
o
np
97.60 57.60 m
0 -5.76 l
o
np
144.27 57.60 m
0 -5.76 l
o
np
190.93 57.60 m
0 -5.76 l
o
np
237.60 57.60 m
0 -5.76 l
o
np
284.27 57.60 m
0 -5.76 l
o
np
330.93 57.60 m
0 -5.76 l
o
np
377.60 57.60 m
0 -5.76 l
o
/Font1 findfont 10 s
97.60 41.47 (0) .5 0 t
144.27 41.47 (2000) .5 0 t
190.93 41.47 (4000) .5 0 t
237.60 41.47 (6000) .5 0 t
284.27 41.47 (8000) .5 0 t
330.93 41.47 (10000) .5 0 t
377.60 41.47 (12000) .5 0 t
np
86.40 67.39 m
0 213.73 l
o
np
86.40 67.39 m
-5.76 0 l
o
np
86.40 103.01 m
-5.76 0 l
o
np
86.40 138.63 m
-5.76 0 l
o
np
86.40 174.26 m
-5.76 0 l
o
np
86.40 209.88 m
-5.76 0 l
o
np
86.40 245.50 m
-5.76 0 l
o
np
86.40 281.12 m
-5.76 0 l
o
79.49 63.80 (0.00) 1 0 t
79.49 99.42 (0.05) 1 0 t
79.49 135.04 (0.10) 1 0 t
79.49 170.67 (0.15) 1 0 t
79.49 206.29 (0.20) 1 0 t
79.49 241.91 (0.25) 1 0 t
79.49 277.53 (0.30) 1 0 t
np
86.40 57.60 m
302.40 0 l
0 230.40 l
-302.40 0 l
0 -230.40 l
o
0.00 0.00 432.00 576.00 cl
/Font1 findfont 10 s
0 0 0 srgb
237.60 13.82 (Time / ms \(after pulse\)) .5 0 t
49.54 172.80 (Absorbance A) .5 90 t
86.40 57.60 388.80 288.00 cl
/bg { 1 1 1 srgb } def
0 0 0 srgb
0.75 setlinewidth
[] 0 setdash
1 setlinecap
1 setlinejoin
10.00 setmiterlimit
99.56 270.89 0.65 c p3
99.84 274.36 0.65 c p3
100.12 266.59 0.65 c p3
100.40 271.75 0.65 c p3
100.68 263.20 0.65 c p3
100.96 266.59 0.65 c p3
101.24 262.36 0.65 c p3
101.52 269.16 0.65 c p3
101.80 261.52 0.65 c p3
102.08 265.74 0.65 c p3
102.36 260.68 0.65 c p3
102.64 260.68 0.65 c p3
102.92 258.18 0.65 c p3
103.20 259.01 0.65 c p3
103.48 258.18 0.65 c p3
103.76 255.84 0.65 c p3
104.04 259.01 0.65 c p3
104.32 252.56 0.65 c p3
104.60 255.84 0.65 c p3
104.88 251.74 0.65 c p3
105.16 255.84 0.65 c p3
105.44 251.74 0.65 c p3
105.72 252.56 0.65 c p3
106.00 247.71 0.65 c p3
106.28 250.12 0.65 c p3
106.56 242.93 0.65 c p3
106.84 249.32 0.65 c p3
107.12 239.79 0.65 c p3
107.40 249.32 0.65 c p3
107.68 245.31 0.65 c p3
107.96 248.51 0.65 c p3
108.24 240.57 0.65 c p3
108.52 242.93 0.65 c p3
108.80 239.01 0.65 c p3
109.08 239.01 0.65 c p3
109.36 235.90 0.65 c p3
109.64 239.79 0.65 c p3
109.92 236.67 0.65 c p3
110.20 239.01 0.65 c p3
110.48 231.43 0.65 c p3
110.76 236.67 0.65 c p3
111.04 232.96 0.65 c p3
111.32 232.19 0.65 c p3
111.60 229.91 0.65 c p3
111.88 232.96 0.65 c p3
112.16 228.40 0.65 c p3
112.44 232.19 0.65 c p3
112.72 229.91 0.65 c p3
113.00 227.65 0.65 c p3
113.28 226.90 0.65 c p3
113.56 230.67 0.65 c p3
113.84 223.17 0.65 c p3
114.12 223.17 0.65 c p3
114.40 220.95 0.65 c p3
114.68 225.40 0.65 c p3
114.96 222.43 0.65 c p3
115.24 226.15 0.65 c p3
115.52 220.95 0.65 c p3
115.80 220.22 0.65 c p3
116.08 220.22 0.65 c p3
116.36 223.17 0.65 c p3
116.64 218.75 0.65 c p3
116.92 217.29 0.65 c p3
117.20 216.57 0.65 c p3
117.48 215.84 0.65 c p3
117.76 212.37 0.65 c p3
118.04 215.12 0.65 c p3
118.32 212.37 0.65 c p3
118.60 210.94 0.65 c p3
118.88 210.23 0.65 c p3
119.16 215.12 0.65 c p3
119.44 208.10 0.65 c p3
119.72 212.37 0.65 c p3
120.00 207.40 0.65 c p3
120.28 208.10 0.65 c p3
120.56 205.29 0.65 c p3
120.84 208.81 0.65 c p3
121.12 208.10 0.65 c p3
121.40 205.99 0.65 c p3
121.68 205.99 0.65 c p3
121.96 203.89 0.65 c p3
122.24 204.59 0.65 c p3
122.52 205.99 0.65 c p3
122.80 203.89 0.65 c p3
123.08 205.99 0.65 c p3
123.36 201.12 0.65 c p3
123.64 202.51 0.65 c p3
123.92 203.89 0.65 c p3
124.20 199.06 0.65 c p3
124.48 199.74 0.65 c p3
124.76 197.01 0.65 c p3
125.04 193.06 0.65 c p3
125.32 197.01 0.65 c p3
125.60 195.08 0.65 c p3
125.88 196.33 0.65 c p3
126.16 193.73 0.65 c p3
126.44 197.01 0.65 c p3
126.72 195.08 0.65 c p3
127.00 194.41 0.65 c p3
127.28 195.08 0.65 c p3
127.56 195.08 0.65 c p3
127.84 193.73 0.65 c p3
128.12 189.05 0.65 c p3
128.40 189.05 0.65 c p3
128.68 191.72 0.65 c p3
128.96 189.05 0.65 c p3
129.24 189.05 0.65 c p3
129.52 189.05 0.65 c p3
129.80 187.73 0.65 c p3
130.08 189.72 0.65 c p3
130.36 187.73 0.65 c p3
130.64 186.41 0.65 c p3
130.92 187.07 0.65 c p3
131.20 187.73 0.65 c p3
131.48 181.84 0.65 c p3
131.76 184.44 0.65 c p3
132.04 183.79 0.65 c p3
132.32 184.44 0.65 c p3
132.60 185.10 0.65 c p3
132.88 183.13 0.65 c p3
133.16 177.44 0.65 c p3
133.44 183.13 0.65 c p3
133.72 182.48 0.65 c p3
134.00 179.25 0.65 c p3
134.28 182.48 0.65 c p3
134.56 175.52 0.65 c p3
134.84 176.80 0.65 c p3
135.12 176.80 0.65 c p3
135.40 175.52 0.65 c p3
135.68 178.61 0.65 c p3
135.96 174.89 0.65 c p3
136.24 175.52 0.65 c p3
136.52 174.26 0.65 c p3
136.80 171.74 0.65 c p3
137.08 173.62 0.65 c p3
137.36 173.62 0.65 c p3
137.64 172.99 0.65 c p3
137.92 174.89 0.65 c p3
138.20 168.61 0.65 c p3
138.48 170.48 0.65 c p3
138.76 171.11 0.65 c p3
139.04 168.61 0.65 c p3
139.32 167.99 0.65 c p3
139.60 169.86 0.65 c p3
139.88 170.48 0.65 c p3
140.16 171.11 0.65 c p3
140.44 168.61 0.65 c p3
140.72 169.24 0.65 c p3
141.00 167.37 0.65 c p3
141.28 163.07 0.65 c p3
141.56 166.14 0.65 c p3
141.84 164.91 0.65 c p3
142.12 163.07 0.65 c p3
142.40 166.14 0.65 c p3
142.68 163.68 0.65 c p3
142.96 162.46 0.65 c p3
143.24 163.07 0.65 c p3
143.52 164.91 0.65 c p3
143.80 164.30 0.65 c p3
144.08 160.74 0.65 c p3
144.36 158.93 0.65 c p3
144.64 159.53 0.65 c p3
144.92 161.95 0.65 c p3
145.20 157.73 0.65 c p3
145.48 160.14 0.65 c p3
145.76 160.74 0.65 c p3
146.04 157.13 0.65 c p3
146.32 155.34 0.65 c p3
146.60 157.13 0.65 c p3
146.88 157.73 0.65 c p3
147.16 157.73 0.65 c p3
147.44 152.37 0.65 c p3
147.72 155.93 0.65 c p3
148.00 157.73 0.65 c p3
148.28 154.74 0.65 c p3
148.56 152.97 0.65 c p3
148.84 153.56 0.65 c p3
149.12 150.61 0.65 c p3
149.40 154.15 0.65 c p3
149.68 152.97 0.65 c p3
149.96 151.79 0.65 c p3
150.24 152.37 0.65 c p3
150.52 148.28 0.65 c p3
150.80 150.61 0.65 c p3
151.08 151.20 0.65 c p3
151.36 148.86 0.65 c p3
151.64 150.03 0.65 c p3
151.92 147.70 0.65 c p3
152.20 146.54 0.65 c p3
152.48 148.86 0.65 c p3
152.76 147.70 0.65 c p3
153.04 144.90 0.65 c p3
153.32 147.11 0.65 c p3
153.60 142.61 0.65 c p3
153.88 146.05 0.65 c p3
154.16 144.90 0.65 c p3
154.44 145.48 0.65 c p3
154.72 146.05 0.65 c p3
155.00 144.33 0.65 c p3
155.28 146.54 0.65 c p3
155.56 144.33 0.65 c p3
155.84 143.75 0.65 c p3
156.12 142.61 0.65 c p3
156.40 139.20 0.65 c p3
156.68 143.75 0.65 c p3
156.96 143.18 0.65 c p3
157.24 141.47 0.65 c p3
157.52 143.18 0.65 c p3
157.80 140.90 0.65 c p3
158.08 139.76 0.65 c p3
158.36 140.33 0.65 c p3
158.64 139.20 0.65 c p3
158.92 140.33 0.65 c p3
159.20 139.20 0.65 c p3
159.48 139.20 0.65 c p3
159.76 135.83 0.65 c p3
160.04 139.20 0.65 c p3
160.32 137.51 0.65 c p3
160.60 138.07 0.65 c p3
160.88 137.51 0.65 c p3
161.16 134.71 0.65 c p3
161.44 136.39 0.65 c p3
161.72 133.60 0.65 c p3
162.00 135.27 0.65 c p3
162.28 135.83 0.65 c p3
162.56 135.27 0.65 c p3
162.84 133.60 0.65 c p3
163.12 134.15 0.65 c p3
163.40 135.27 0.65 c p3
163.68 131.94 0.65 c p3
163.96 134.71 0.65 c p3
164.24 133.05 0.65 c p3
164.52 135.27 0.65 c p3
164.80 132.49 0.65 c p3
165.08 132.49 0.65 c p3
165.36 128.74 0.65 c p3
165.64 130.93 0.65 c p3
165.92 130.93 0.65 c p3
166.20 127.65 0.65 c p3
166.48 129.83 0.65 c p3
166.76 129.28 0.65 c p3
167.04 130.38 0.65 c p3
167.32 131.39 0.65 c p3
167.60 126.56 0.65 c p3
167.88 130.38 0.65 c p3
168.16 126.56 0.65 c p3
168.44 128.74 0.65 c p3
168.72 128.19 0.65 c p3
169.00 126.56 0.65 c p3
169.28 129.83 0.65 c p3
169.56 125.48 0.65 c p3
169.84 128.74 0.65 c p3
170.12 126.56 0.65 c p3
170.40 124.94 0.65 c p3
170.68 124.94 0.65 c p3
170.96 122.25 0.65 c p3
171.24 126.56 0.65 c p3
171.52 127.10 0.65 c p3
171.80 122.79 0.65 c p3
172.08 124.40 0.65 c p3
172.36 121.18 0.65 c p3
172.64 126.56 0.65 c p3
172.92 124.94 0.65 c p3
173.20 122.79 0.65 c p3
173.48 125.48 0.65 c p3
173.76 120.12 0.65 c p3
174.04 121.72 0.65 c p3
174.32 124.40 0.65 c p3
174.60 119.59 0.65 c p3
174.88 118.53 0.65 c p3
175.16 120.12 0.65 c p3
175.44 118.53 0.65 c p3
175.72 120.12 0.65 c p3
176.00 121.72 0.65 c p3
176.28 119.59 0.65 c p3
176.56 117.48 0.65 c p3
176.84 118.00 0.65 c p3
177.12 118.00 0.65 c p3
177.40 118.53 0.65 c p3
177.68 118.53 0.65 c p3
177.96 118.53 0.65 c p3
178.24 118.53 0.65 c p3
178.52 119.59 0.65 c p3
178.80 115.46 0.65 c p3
179.08 117.48 0.65 c p3
179.36 114.94 0.65 c p3
179.64 115.46 0.65 c p3
179.92 113.90 0.65 c p3
180.20 115.46 0.65 c p3
180.48 114.42 0.65 c p3
180.76 114.42 0.65 c p3
181.04 116.95 0.65 c p3
181.32 113.90 0.65 c p3
181.60 115.99 0.65 c p3
181.88 114.94 0.65 c p3
182.16 112.34 0.65 c p3
182.44 114.94 0.65 c p3
182.72 113.38 0.65 c p3
183.00 111.82 0.65 c p3
183.28 114.94 0.65 c p3
183.56 110.27 0.65 c p3
183.84 111.82 0.65 c p3
184.12 112.86 0.65 c p3
184.40 111.82 0.65 c p3
184.68 113.90 0.65 c p3
184.96 109.76 0.65 c p3
185.24 113.38 0.65 c p3
185.52 113.38 0.65 c p3
185.80 109.25 0.65 c p3
186.08 110.27 0.65 c p3
186.36 109.76 0.65 c p3
186.64 106.69 0.65 c p3
186.92 110.79 0.65 c p3
187.20 110.79 0.65 c p3
187.48 110.27 0.65 c p3
187.76 109.76 0.65 c p3
188.04 109.25 0.65 c p3
188.32 110.79 0.65 c p3
188.60 107.20 0.65 c p3
188.88 108.73 0.65 c p3
189.16 106.19 0.65 c p3
189.44 108.22 0.65 c p3
189.72 106.19 0.65 c p3
190.00 103.15 0.65 c p3
190.28 108.73 0.65 c p3
190.56 105.68 0.65 c p3
190.84 108.22 0.65 c p3
191.12 107.20 0.65 c p3
191.40 106.69 0.65 c p3
191.68 105.17 0.65 c p3
191.96 104.67 0.65 c p3
192.24 108.73 0.65 c p3
192.52 106.19 0.65 c p3
192.80 104.16 0.65 c p3
193.08 106.19 0.65 c p3
193.36 106.19 0.65 c p3
193.64 105.17 0.65 c p3
193.92 104.67 0.65 c p3
194.20 103.15 0.65 c p3
194.48 105.17 0.65 c p3
194.76 103.66 0.65 c p3
195.04 102.73 0.65 c p3
195.32 101.23 0.65 c p3
195.60 100.23 0.65 c p3
195.88 103.15 0.65 c p3
196.16 101.73 0.65 c p3
196.44 100.23 0.65 c p3
196.72 99.74 0.65 c p3
197.00 102.23 0.65 c p3
197.28 102.73 0.65 c p3
197.56 101.23 0.65 c p3
197.84 102.23 0.65 c p3
198.12 101.23 0.65 c p3
198.40 104.67 0.65 c p3
198.68 98.74 0.65 c p3
198.96 97.75 0.65 c p3
199.24 101.73 0.65 c p3
199.52 99.24 0.65 c p3
199.80 102.73 0.65 c p3
200.08 101.23 0.65 c p3
200.36 99.74 0.65 c p3
200.64 100.73 0.65 c p3
200.92 98.74 0.65 c p3
201.20 101.73 0.65 c p3
201.48 100.73 0.65 c p3
201.76 98.25 0.65 c p3
202.04 98.25 0.65 c p3
202.32 98.25 0.65 c p3
202.60 97.26 0.65 c p3
202.88 99.74 0.65 c p3
203.16 98.25 0.65 c p3
203.44 96.77 0.65 c p3
203.72 99.24 0.65 c p3
204.00 96.27 0.65 c p3
204.28 98.74 0.65 c p3
204.56 96.27 0.65 c p3
204.84 96.77 0.65 c p3
205.12 98.25 0.65 c p3
205.40 95.78 0.65 c p3
205.68 97.75 0.65 c p3
205.96 96.27 0.65 c p3
206.24 95.78 0.65 c p3
206.52 96.77 0.65 c p3
206.80 92.85 0.65 c p3
207.08 97.26 0.65 c p3
207.36 95.78 0.65 c p3
207.64 95.29 0.65 c p3
207.92 95.29 0.65 c p3
208.20 94.31 0.65 c p3
208.48 95.78 0.65 c p3
208.76 91.39 0.65 c p3
209.04 97.26 0.65 c p3
209.32 93.82 0.65 c p3
209.60 92.36 0.65 c p3
209.88 94.31 0.65 c p3
210.16 92.36 0.65 c p3
210.44 94.80 0.65 c p3
210.72 94.31 0.65 c p3
211.00 94.31 0.65 c p3
211.28 90.91 0.65 c p3
211.56 94.31 0.65 c p3
211.84 90.91 0.65 c p3
212.12 94.31 0.65 c p3
212.40 90.43 0.65 c p3
212.68 92.36 0.65 c p3
212.96 90.91 0.65 c p3
213.24 90.43 0.65 c p3
213.52 91.39 0.65 c p3
213.80 91.39 0.65 c p3
214.08 89.95 0.65 c p3
214.36 93.34 0.65 c p3
214.64 90.43 0.65 c p3
214.92 89.95 0.65 c p3
215.20 89.95 0.65 c p3
215.48 89.95 0.65 c p3
215.76 92.36 0.65 c p3
216.04 89.06 0.65 c p3
216.32 89.95 0.65 c p3
216.60 88.11 0.65 c p3
216.88 89.54 0.65 c p3
217.16 90.91 0.65 c p3
217.44 87.15 0.65 c p3
217.72 86.67 0.65 c p3
218.00 91.88 0.65 c p3
218.28 86.67 0.65 c p3
218.56 90.43 0.65 c p3
218.84 88.11 0.65 c p3
219.12 90.91 0.65 c p3
219.40 88.58 0.65 c p3
219.68 88.58 0.65 c p3
219.96 86.20 0.65 c p3
220.24 89.06 0.65 c p3
220.52 87.63 0.65 c p3
220.80 89.06 0.65 c p3
221.08 91.39 0.65 c p3
221.36 88.11 0.65 c p3
221.64 89.06 0.65 c p3
221.92 87.15 0.65 c p3
222.20 86.20 0.65 c p3
222.48 88.58 0.65 c p3
222.76 89.06 0.65 c p3
223.04 85.72 0.65 c p3
223.32 84.77 0.65 c p3
223.60 89.54 0.65 c p3
223.88 87.15 0.65 c p3
224.16 86.67 0.65 c p3
224.44 88.58 0.65 c p3
224.72 83.82 0.65 c p3
225.00 86.20 0.65 c p3
225.28 86.20 0.65 c p3
225.56 87.15 0.65 c p3
225.84 87.63 0.65 c p3
226.12 86.20 0.65 c p3
226.40 87.15 0.65 c p3
226.68 88.11 0.65 c p3
226.96 89.06 0.65 c p3
227.24 87.15 0.65 c p3
227.52 85.24 0.65 c p3
227.80 84.30 0.65 c p3
228.08 85.72 0.65 c p3
228.36 84.77 0.65 c p3
228.64 83.82 0.65 c p3
228.92 84.77 0.65 c p3
229.20 87.15 0.65 c p3
229.48 84.30 0.65 c p3
229.76 85.72 0.65 c p3
230.04 84.30 0.65 c p3
230.32 84.30 0.65 c p3
230.60 84.77 0.65 c p3
230.88 84.77 0.65 c p3
231.16 81.94 0.65 c p3
231.44 86.20 0.65 c p3
231.72 84.77 0.65 c p3
232.00 84.30 0.65 c p3
232.28 82.41 0.65 c p3
232.56 82.88 0.65 c p3
232.84 85.72 0.65 c p3
233.12 81.94 0.65 c p3
233.40 83.35 0.65 c p3
233.68 82.41 0.65 c p3
233.96 80.53 0.65 c p3
234.24 82.88 0.65 c p3
234.52 83.35 0.65 c p3
234.80 83.35 0.65 c p3
235.08 82.88 0.65 c p3
235.36 81.47 0.65 c p3
235.64 82.88 0.65 c p3
235.92 82.88 0.65 c p3
236.20 83.35 0.65 c p3
236.48 83.35 0.65 c p3
236.76 81.00 0.65 c p3
237.04 81.94 0.65 c p3
237.32 82.41 0.65 c p3
237.60 80.53 0.65 c p3
237.88 81.94 0.65 c p3
238.16 81.00 0.65 c p3
238.44 79.13 0.65 c p3
238.72 84.30 0.65 c p3
239.00 78.67 0.65 c p3
239.28 81.94 0.65 c p3
239.56 78.21 0.65 c p3
239.84 81.94 0.65 c p3
240.12 82.88 0.65 c p3
240.40 81.00 0.65 c p3
240.68 79.13 0.65 c p3
240.96 80.07 0.65 c p3
241.24 79.60 0.65 c p3
241.52 82.41 0.65 c p3
241.80 81.00 0.65 c p3
242.08 79.13 0.65 c p3
242.36 81.94 0.65 c p3
242.64 79.60 0.65 c p3
242.92 81.00 0.65 c p3
243.20 80.53 0.65 c p3
243.48 81.00 0.65 c p3
243.76 81.00 0.65 c p3
244.04 79.13 0.65 c p3
244.32 79.13 0.65 c p3
244.60 82.41 0.65 c p3
244.88 77.74 0.65 c p3
245.16 79.60 0.65 c p3
245.44 80.07 0.65 c p3
245.72 78.21 0.65 c p3
246.00 78.21 0.65 c p3
246.28 79.60 0.65 c p3
246.56 79.13 0.65 c p3
246.84 82.88 0.65 c p3
247.12 78.67 0.65 c p3
247.40 77.28 0.65 c p3
247.68 79.60 0.65 c p3
247.96 81.94 0.65 c p3
248.24 80.07 0.65 c p3
248.52 77.74 0.65 c p3
248.80 77.74 0.65 c p3
249.08 78.21 0.65 c p3
249.36 78.21 0.65 c p3
249.64 77.74 0.65 c p3
249.92 78.67 0.65 c p3
250.20 75.51 0.65 c p3
250.48 76.89 0.65 c p3
250.76 80.07 0.65 c p3
251.04 79.60 0.65 c p3
251.32 78.67 0.65 c p3
251.60 76.43 0.65 c p3
251.88 78.21 0.65 c p3
252.16 79.60 0.65 c p3
252.44 79.60 0.65 c p3
252.72 77.28 0.65 c p3
253.00 74.14 0.65 c p3
253.28 77.28 0.65 c p3
253.56 75.51 0.65 c p3
253.84 76.43 0.65 c p3
254.12 75.97 0.65 c p3
254.40 76.43 0.65 c p3
254.68 77.74 0.65 c p3
254.96 74.59 0.65 c p3
255.24 78.21 0.65 c p3
255.52 79.13 0.65 c p3
255.80 77.28 0.65 c p3
256.08 77.74 0.65 c p3
256.36 76.89 0.65 c p3
256.64 81.00 0.65 c p3
256.92 75.97 0.65 c p3
257.20 76.89 0.65 c p3
257.48 76.43 0.65 c p3
257.76 76.89 0.65 c p3
258.04 78.21 0.65 c p3
258.32 77.28 0.65 c p3
258.60 77.74 0.65 c p3
258.88 75.51 0.65 c p3
259.16 77.74 0.65 c p3
259.44 77.28 0.65 c p3
259.72 78.21 0.65 c p3
260.00 78.67 0.65 c p3
260.28 75.05 0.65 c p3
260.56 75.97 0.65 c p3
260.84 78.67 0.65 c p3
261.12 76.43 0.65 c p3
261.40 79.13 0.65 c p3
261.68 78.21 0.65 c p3
261.96 75.05 0.65 c p3
262.24 77.28 0.65 c p3
262.52 75.51 0.65 c p3
262.80 79.13 0.65 c p3
263.08 73.22 0.65 c p3
263.36 75.97 0.65 c p3
263.64 75.05 0.65 c p3
263.92 73.68 0.65 c p3
264.20 75.51 0.65 c p3
264.48 74.14 0.65 c p3
264.76 75.97 0.65 c p3
265.04 75.05 0.65 c p3
265.32 75.51 0.65 c p3
265.60 75.51 0.65 c p3
265.88 78.67 0.65 c p3
266.16 76.43 0.65 c p3
266.44 74.14 0.65 c p3
266.72 70.04 0.65 c p3
267.00 75.97 0.65 c p3
267.28 78.67 0.65 c p3
267.56 76.89 0.65 c p3
267.84 75.05 0.65 c p3
268.12 71.40 0.65 c p3
268.40 71.85 0.65 c p3
268.68 80.53 0.65 c p3
268.96 80.53 0.65 c p3
269.24 79.60 0.65 c p3
269.52 75.97 0.65 c p3
269.80 66.00 0.65 c p3
270.08 74.14 0.65 c p3
270.36 79.60 0.65 c p3
270.64 81.47 0.65 c p3
270.92 76.43 0.65 c p3
271.20 71.40 0.65 c p3
271.48 66.00 0.65 c p3
271.76 75.51 0.65 c p3
272.04 81.00 0.65 c p3
272.32 77.74 0.65 c p3
272.60 74.59 0.65 c p3
272.88 72.31 0.65 c p3
273.16 71.85 0.65 c p3
273.44 77.74 0.65 c p3
273.72 79.13 0.65 c p3
274.00 73.68 0.65 c p3
274.28 77.74 0.65 c p3
274.56 68.69 0.65 c p3
274.84 75.05 0.65 c p3
275.12 79.60 0.65 c p3
275.40 75.51 0.65 c p3
275.68 73.68 0.65 c p3
275.96 75.05 0.65 c p3
276.24 71.85 0.65 c p3
276.52 74.59 0.65 c p3
276.80 78.21 0.65 c p3
277.08 73.22 0.65 c p3
277.36 73.22 0.65 c p3
277.64 74.59 0.65 c p3
277.92 73.68 0.65 c p3
278.20 73.22 0.65 c p3
278.48 71.85 0.65 c p3
278.76 73.68 0.65 c p3
279.04 77.28 0.65 c p3
279.32 71.85 0.65 c p3
279.60 73.22 0.65 c p3
279.88 74.59 0.65 c p3
280.16 73.68 0.65 c p3
280.44 77.74 0.65 c p3
280.72 74.14 0.65 c p3
281.00 74.59 0.65 c p3
281.28 73.22 0.65 c p3
281.56 74.14 0.65 c p3
281.84 75.05 0.65 c p3
282.12 74.14 0.65 c p3
282.40 73.68 0.65 c p3
282.68 72.76 0.65 c p3
282.96 72.76 0.65 c p3
283.24 73.68 0.65 c p3
283.52 73.68 0.65 c p3
283.80 73.22 0.65 c p3
284.08 73.68 0.65 c p3
284.36 72.31 0.65 c p3
284.64 76.89 0.65 c p3
284.92 74.59 0.65 c p3
285.20 74.14 0.65 c p3
285.48 73.68 0.65 c p3
285.76 72.31 0.65 c p3
286.04 75.51 0.65 c p3
286.32 77.28 0.65 c p3
286.60 73.22 0.65 c p3
286.88 75.05 0.65 c p3
287.16 75.51 0.65 c p3
287.44 74.14 0.65 c p3
287.72 73.68 0.65 c p3
288.00 74.14 0.65 c p3
288.28 73.22 0.65 c p3
288.56 73.68 0.65 c p3
288.84 74.14 0.65 c p3
289.12 72.76 0.65 c p3
289.40 76.43 0.65 c p3
289.68 75.51 0.65 c p3
289.96 74.14 0.65 c p3
290.24 75.97 0.65 c p3
290.52 73.68 0.65 c p3
290.80 72.31 0.65 c p3
291.08 75.51 0.65 c p3
291.36 70.95 0.65 c p3
291.64 75.51 0.65 c p3
291.92 74.14 0.65 c p3
292.20 75.51 0.65 c p3
292.48 76.43 0.65 c p3
292.76 73.22 0.65 c p3
293.04 74.59 0.65 c p3
293.32 75.51 0.65 c p3
293.60 72.31 0.65 c p3
293.88 72.31 0.65 c p3
294.16 74.59 0.65 c p3
294.44 73.22 0.65 c p3
294.72 73.68 0.65 c p3
295.00 71.40 0.65 c p3
295.28 75.05 0.65 c p3
295.56 72.76 0.65 c p3
295.84 72.76 0.65 c p3
296.12 73.22 0.65 c p3
296.40 71.40 0.65 c p3
296.68 75.05 0.65 c p3
296.96 73.68 0.65 c p3
297.24 77.28 0.65 c p3
297.52 73.22 0.65 c p3
297.80 74.14 0.65 c p3
298.08 74.59 0.65 c p3
298.36 74.59 0.65 c p3
298.64 72.76 0.65 c p3
298.92 74.14 0.65 c p3
299.20 72.76 0.65 c p3
299.48 70.95 0.65 c p3
299.76 74.14 0.65 c p3
300.04 73.22 0.65 c p3
300.32 73.68 0.65 c p3
300.60 75.51 0.65 c p3
300.88 72.76 0.65 c p3
301.16 72.76 0.65 c p3
301.44 72.31 0.65 c p3
301.72 72.31 0.65 c p3
302.00 74.59 0.65 c p3
302.28 76.43 0.65 c p3
302.56 71.85 0.65 c p3
302.84 73.22 0.65 c p3
303.12 71.85 0.65 c p3
303.40 73.68 0.65 c p3
303.68 74.59 0.65 c p3
216.00 201.60 367.20 247.68 cl
0 0 0 srgb
0.75 setlinewidth
[] 0 setdash
1 setlinecap
1 setlinejoin
10.00 setmiterlimit
221.60 222.52 0.43 c p1
221.79 229.43 0.43 c p1
221.98 219.01 0.43 c p1
222.18 228.49 0.43 c p1
222.37 216.86 0.43 c p1
222.56 223.60 0.43 c p1
222.75 218.60 0.43 c p1
222.94 230.58 0.43 c p1
223.14 220.32 0.43 c p1
223.33 228.31 0.43 c p1
223.52 222.01 0.43 c p1
223.71 223.49 0.43 c p1
223.90 221.12 0.43 c p1
224.10 223.86 0.43 c p1
224.29 224.04 0.43 c p1
224.48 221.89 0.43 c p1
224.67 228.21 0.43 c p1
224.86 219.72 0.43 c p1
225.06 226.20 0.43 c p1
225.25 221.32 0.43 c p1
225.44 229.04 0.43 c p1
225.63 224.15 0.43 c p1
225.82 226.81 0.43 c p1
226.02 220.73 0.43 c p1
226.21 225.84 0.43 c p1
226.40 216.15 0.43 c p1
226.59 227.36 0.43 c p1
226.79 214.06 0.43 c p1
226.98 230.09 0.43 c p1
227.17 225.28 0.43 c p1
227.36 231.55 0.43 c p1
227.55 220.67 0.43 c p1
227.75 225.64 0.43 c p1
227.94 220.93 0.43 c p1
228.13 222.25 0.43 c p1
228.32 218.79 0.43 c p1
228.51 226.08 0.43 c p1
228.71 222.59 0.43 c p1
228.90 227.48 0.43 c p1
229.09 217.11 0.43 c p1
229.28 226.47 0.43 c p1
229.47 222.02 0.43 c p1
229.67 222.12 0.43 c p1
229.86 219.87 0.43 c p1
230.05 225.82 0.43 c p1
230.24 220.06 0.43 c p1
230.43 227.15 0.43 c p1
230.63 224.88 0.43 c p1
230.82 222.63 0.43 c p1
231.01 222.70 0.43 c p1
231.20 229.73 0.43 c p1
231.39 219.41 0.43 c p1
231.59 220.62 0.43 c p1
231.78 218.42 0.43 c p1
231.97 226.46 0.43 c p1
232.16 223.08 0.43 c p1
232.35 229.99 0.43 c p1
232.55 223.18 0.43 c p1
232.74 223.23 0.43 c p1
232.93 224.40 0.43 c p1
233.12 230.10 0.43 c p1
233.31 224.47 0.43 c p1
233.51 223.38 0.43 c p1
233.70 223.41 0.43 c p1
233.89 223.44 0.43 c p1
234.08 219.22 0.43 c p1
234.27 224.60 0.43 c p1
234.47 221.48 0.43 c p1
234.66 220.40 0.43 c p1
234.85 220.42 0.43 c p1
235.04 229.07 0.43 c p1
235.24 219.37 0.43 c p1
235.43 227.03 0.43 c p1
235.62 220.48 0.43 c p1
235.81 222.65 0.43 c p1
236.00 219.41 0.43 c p1
236.20 225.90 0.43 c p1
236.39 225.89 0.43 c p1
236.58 223.71 0.43 c p1
236.77 224.77 0.43 c p1
236.96 222.60 0.43 c p1
237.16 224.73 0.43 c p1
237.35 227.93 0.43 c p1
237.54 225.74 0.43 c p1
237.73 230.00 0.43 c p1
237.92 223.54 0.43 c p1
238.12 226.70 0.43 c p1
238.31 229.86 0.43 c p1
238.50 223.43 0.43 c p1
238.69 225.50 0.43 c p1
238.88 222.30 0.43 c p1
239.08 217.22 0.43 c p1
239.27 224.30 0.43 c p1
239.46 222.33 0.43 c p1
239.65 225.23 0.43 c p1
239.84 222.22 0.43 c p1
240.04 228.24 0.43 c p1
240.23 226.25 0.43 c p1
240.42 226.18 0.43 c p1
240.61 228.18 0.43 c p1
240.80 229.14 0.43 c p1
241.00 228.02 0.43 c p1
241.19 221.76 0.43 c p1
241.38 222.71 0.43 c p1
241.57 227.75 0.43 c p1
241.76 224.58 0.43 c p1
241.96 225.51 0.43 c p1
242.15 226.44 0.43 c p1
242.34 225.33 0.43 c p1
242.53 229.31 0.43 c p1
242.72 227.16 0.43 c p1
242.92 226.04 0.43 c p1
243.11 227.96 0.43 c p1
243.30 229.87 0.43 c p1
243.49 221.70 0.43 c p1
243.69 226.60 0.43 c p1
243.88 226.49 0.43 c p1
244.07 228.37 0.43 c p1
244.26 230.26 0.43 c p1
244.45 228.12 0.43 c p1
244.65 220.21 0.43 c p1
244.84 229.85 0.43 c p1
245.03 229.71 0.43 c p1
245.22 225.60 0.43 c p1
245.41 231.43 0.43 c p1
245.61 221.56 0.43 c p1
245.80 224.37 0.43 c p1
245.99 225.21 0.43 c p1
246.18 224.08 0.43 c p1
246.37 229.67 0.43 c p1
246.57 224.77 0.43 c p1
246.76 226.57 0.43 c p1
246.95 225.44 0.43 c p1
247.14 222.38 0.43 c p1
247.33 226.10 0.43 c p1
247.53 226.91 0.43 c p1
247.72 226.74 0.43 c p1
247.91 230.46 0.43 c p1
248.10 221.60 0.43 c p1
248.29 225.27 0.43 c p1
248.49 227.02 0.43 c p1
248.68 223.96 0.43 c p1
248.87 223.79 0.43 c p1
249.06 227.44 0.43 c p1
249.25 229.18 0.43 c p1
249.45 230.91 0.43 c p1
249.64 227.84 0.43 c p1
249.83 229.56 0.43 c p1
250.02 227.45 0.43 c p1
250.21 221.58 0.43 c p1
250.41 227.06 0.43 c p1
250.60 225.91 0.43 c p1
250.79 223.83 0.43 c p1
250.98 229.29 0.43 c p1
251.17 226.25 0.43 c p1
251.37 225.10 0.43 c p1
251.56 226.77 0.43 c p1
251.75 230.33 0.43 c p1
251.94 230.11 0.43 c p1
252.13 225.36 0.43 c p1
252.33 223.28 0.43 c p1
252.52 224.92 0.43 c p1
252.71 229.36 0.43 c p1
252.90 223.56 0.43 c p1
253.10 227.97 0.43 c p1
253.29 229.60 0.43 c p1
253.48 224.74 0.43 c p1
253.67 222.67 0.43 c p1
253.86 226.12 0.43 c p1
254.06 227.72 0.43 c p1
254.25 228.41 0.43 c p1
254.44 220.85 0.43 c p1
254.63 227.00 0.43 c p1
254.82 230.43 0.43 c p1
255.02 226.51 0.43 c p1
255.21 224.44 0.43 c p1
255.40 226.01 0.43 c p1
255.59 222.14 0.43 c p1
255.78 228.24 0.43 c p1
255.98 227.07 0.43 c p1
256.17 225.91 0.43 c p1
256.36 227.46 0.43 c p1
256.55 221.79 0.43 c p1
256.74 226.03 0.43 c p1
256.94 227.57 0.43 c p1
257.13 224.60 0.43 c p1
257.32 227.03 0.43 c p1
257.51 224.07 0.43 c p1
257.70 222.91 0.43 c p1
257.90 227.11 0.43 c p1
258.09 225.94 0.43 c p1
258.28 222.25 0.43 c p1
258.47 226.27 0.43 c p1
258.66 219.94 0.43 c p1
258.86 225.85 0.43 c p1
259.05 224.68 0.43 c p1
259.24 226.17 0.43 c p1
259.43 227.66 0.43 c p1
259.62 225.59 0.43 c p1
259.82 229.59 0.43 c p1
260.01 226.77 0.43 c p1
260.20 226.48 0.43 c p1
260.39 225.30 0.43 c p1
260.58 220.63 0.43 c p1
260.78 228.22 0.43 c p1
260.97 227.92 0.43 c p1
261.16 225.85 0.43 c p1
261.35 229.06 0.43 c p1
261.55 226.11 0.43 c p1
261.74 224.93 0.43 c p1
261.93 226.37 0.43 c p1
262.12 225.18 0.43 c p1
262.31 227.48 0.43 c p1
262.51 226.29 0.43 c p1
262.70 226.84 0.43 c p1
262.89 222.20 0.43 c p1
263.08 227.93 0.43 c p1
263.27 225.88 0.43 c p1
263.47 227.28 0.43 c p1
263.66 226.95 0.43 c p1
263.85 223.18 0.43 c p1
264.04 226.29 0.43 c p1
264.23 222.53 0.43 c p1
264.43 225.63 0.43 c p1
264.62 227.01 0.43 c p1
264.81 226.68 0.43 c p1
265.00 224.63 0.43 c p1
265.19 226.00 0.43 c p1
265.39 228.23 0.43 c p1
265.58 223.61 0.43 c p1
265.77 228.39 0.43 c p1
265.96 226.33 0.43 c p1
266.15 230.26 0.43 c p1
266.35 226.49 0.43 c p1
266.54 226.99 0.43 c p1
266.73 221.70 0.43 c p1
266.92 225.57 0.43 c p1
267.11 226.07 0.43 c p1
267.31 221.50 0.43 c p1
267.50 225.36 0.43 c p1
267.69 225.00 0.43 c p1
267.88 227.17 0.43 c p1
268.07 229.20 0.43 c p1
268.27 222.24 0.43 c p1
268.46 228.60 0.43 c p1
268.65 223.19 0.43 c p1
268.84 227.02 0.43 c p1
269.03 226.65 0.43 c p1
269.23 224.60 0.43 c p1
269.42 230.10 0.43 c p1
269.61 223.86 0.43 c p1
269.80 229.34 0.43 c p1
270.00 226.44 0.43 c p1
270.19 224.40 0.43 c p1
270.38 224.86 0.43 c p1
270.57 221.17 0.43 c p1
270.76 228.25 0.43 c p1
270.96 229.54 0.43 c p1
271.15 223.34 0.43 c p1
271.34 226.26 0.43 c p1
271.53 221.75 0.43 c p1
271.72 230.47 0.43 c p1
271.92 228.40 0.43 c p1
272.11 225.53 0.43 c p1
272.30 230.10 0.43 c p1
272.49 222.28 0.43 c p1
272.68 225.17 0.43 c p1
272.88 229.72 0.43 c p1
273.07 222.74 0.43 c p1
273.26 221.53 0.43 c p1
273.45 224.40 0.43 c p1
273.64 222.37 0.43 c p1
273.84 225.23 0.43 c p1
274.03 228.10 0.43 c p1
274.22 225.24 0.43 c p1
274.41 222.39 0.43 c p1
274.60 223.61 0.43 c p1
274.80 224.02 0.43 c p1
274.99 225.23 0.43 c p1
275.18 225.64 0.43 c p1
275.37 226.03 0.43 c p1
275.56 226.43 0.43 c p1
275.76 228.46 0.43 c p1
275.95 222.50 0.43 c p1
276.14 225.99 0.43 c p1
276.33 222.47 0.43 c p1
276.52 223.67 0.43 c p1
276.72 221.64 0.43 c p1
276.91 224.44 0.43 c p1
277.10 223.21 0.43 c p1
277.29 223.59 0.43 c p1
277.48 227.87 0.43 c p1
277.68 223.55 0.43 c p1
277.87 227.14 0.43 c p1
278.06 225.90 0.43 c p1
278.25 222.27 0.43 c p1
278.44 226.64 0.43 c p1
278.64 224.60 0.43 c p1
278.83 222.57 0.43 c p1
279.02 227.74 0.43 c p1
279.21 220.92 0.43 c p1
279.41 223.66 0.43 c p1
279.60 225.61 0.43 c p1
279.79 224.37 0.43 c p1
279.98 227.93 0.43 c p1
280.17 221.91 0.43 c p1
280.37 227.83 0.43 c p1
280.56 228.18 0.43 c p1
280.75 222.17 0.43 c p1
280.94 224.10 0.43 c p1
281.13 223.65 0.43 c p1
281.33 219.28 0.43 c p1
281.52 225.92 0.43 c p1
281.71 226.26 0.43 c p1
281.90 225.81 0.43 c p1
282.09 225.35 0.43 c p1
282.29 224.90 0.43 c p1
282.48 227.61 0.43 c p1
282.67 222.42 0.43 c p1
282.86 225.11 0.43 c p1
283.05 221.51 0.43 c p1
283.25 224.97 0.43 c p1
283.44 222.16 0.43 c p1
283.63 217.82 0.43 c p1
283.82 226.73 0.43 c p1
284.01 222.35 0.43 c p1
284.21 226.59 0.43 c p1
284.40 225.33 0.43 c p1
284.59 224.86 0.43 c p1
284.78 222.83 0.43 c p1
284.97 222.37 0.43 c p1
285.17 228.95 0.43 c p1
285.36 225.33 0.43 c p1
285.55 222.52 0.43 c p1
285.74 225.95 0.43 c p1
285.93 226.25 0.43 c p1
286.13 224.99 0.43 c p1
286.32 224.52 0.43 c p1
286.51 222.49 0.43 c p1
286.70 225.90 0.43 c p1
286.89 223.87 0.43 c p1
287.09 222.74 0.43 c p1
287.28 220.72 0.43 c p1
287.47 219.48 0.43 c p1
287.66 224.27 0.43 c p1
287.86 222.37 0.43 c p1
288.05 220.35 0.43 c p1
288.24 219.88 0.43 c p1
288.43 224.01 0.43 c p1
288.62 225.06 0.43 c p1
288.82 223.03 0.43 c p1
289.01 224.86 0.43 c p1
289.20 223.60 0.43 c p1
289.39 229.16 0.43 c p1
289.58 220.33 0.43 c p1
289.78 219.08 0.43 c p1
289.97 225.48 0.43 c p1
290.16 221.92 0.43 c p1
290.35 227.57 0.43 c p1
290.54 225.53 0.43 c p1
290.74 223.50 0.43 c p1
290.93 225.30 0.43 c p1
291.12 222.51 0.43 c p1
291.31 227.37 0.43 c p1
291.50 226.10 0.43 c p1
291.70 222.54 0.43 c p1
291.89 222.80 0.43 c p1
292.08 223.06 0.43 c p1
292.27 221.80 0.43 c p1
292.46 225.87 0.43 c p1
292.66 223.84 0.43 c p1
292.85 221.82 0.43 c p1
293.04 225.88 0.43 c p1
293.23 221.57 0.43 c p1
293.42 225.62 0.43 c p1
293.62 222.07 0.43 c p1
293.81 223.08 0.43 c p1
294.00 225.61 0.43 c p1
294.19 222.06 0.43 c p1
294.38 225.34 0.43 c p1
294.58 223.31 0.43 c p1
294.77 222.80 0.43 c p1
294.96 224.55 0.43 c p1
295.15 218.77 0.43 c p1
295.34 225.80 0.43 c p1
295.54 223.76 0.43 c p1
295.73 223.25 0.43 c p1
295.92 223.48 0.43 c p1
296.11 222.21 0.43 c p1
296.31 224.71 0.43 c p1
296.50 218.19 0.43 c p1
296.69 227.45 0.43 c p1
296.88 222.39 0.43 c p1
297.07 220.38 0.43 c p1
297.27 223.60 0.43 c p1
297.46 220.83 0.43 c p1
297.65 224.81 0.43 c p1
297.84 224.29 0.43 c p1
298.03 224.51 0.43 c p1
298.23 219.50 0.43 c p1
298.42 224.96 0.43 c p1
298.61 219.94 0.43 c p1
298.80 225.40 0.43 c p1
298.99 219.64 0.43 c p1
299.19 222.84 0.43 c p1
299.38 220.82 0.43 c p1
299.57 220.29 0.43 c p1
299.76 221.99 0.43 c p1
299.95 222.21 0.43 c p1
300.15 220.19 0.43 c p1
300.34 225.62 0.43 c p1
300.53 221.36 0.43 c p1
300.72 220.82 0.43 c p1
300.91 221.03 0.43 c p1
301.11 221.24 0.43 c p1
301.30 225.17 0.43 c p1
301.49 220.29 0.43 c p1
301.68 221.86 0.43 c p1
301.87 219.23 0.43 c p1
302.07 221.65 0.43 c p1
302.26 223.95 0.43 c p1
302.45 218.36 0.43 c p1
302.64 217.83 0.43 c p1
302.83 226.04 0.43 c p1
303.03 218.22 0.43 c p1
303.22 224.20 0.43 c p1
303.41 220.82 0.43 c p1
303.60 225.34 0.43 c p1
303.79 221.95 0.43 c p1
303.99 222.14 0.43 c p1
304.18 218.66 0.43 c p1
304.37 223.27 0.43 c p1
304.56 221.24 0.43 c p1
304.76 223.65 0.43 c p1
304.95 227.42 0.43 c p1
305.14 222.55 0.43 c p1
305.33 224.21 0.43 c p1
305.52 221.45 0.43 c p1
305.72 220.16 0.43 c p1
305.91 224.03 0.43 c p1
306.10 224.95 0.43 c p1
306.29 219.98 0.43 c p1
306.48 218.70 0.43 c p1
306.68 226.23 0.43 c p1
306.87 222.72 0.43 c p1
307.06 222.17 0.43 c p1
307.25 225.29 0.43 c p1
307.44 218.14 0.43 c p1
307.64 221.97 0.43 c p1
307.83 222.14 0.43 c p1
308.02 223.78 0.43 c p1
308.21 224.69 0.43 c p1
308.40 222.66 0.43 c p1
308.60 224.30 0.43 c p1
308.79 225.95 0.43 c p1
308.98 227.59 0.43 c p1
309.17 224.81 0.43 c p1
309.36 222.05 0.43 c p1
309.56 220.76 0.43 c p1
309.75 223.11 0.43 c p1
309.94 221.82 0.43 c p1
310.13 220.53 0.43 c p1
310.32 222.15 0.43 c p1
310.52 225.98 0.43 c p1
310.71 221.75 0.43 c p1
310.90 224.10 0.43 c p1
311.09 222.07 0.43 c p1
311.28 222.23 0.43 c p1
311.48 223.12 0.43 c p1
311.67 223.28 0.43 c p1
311.86 219.08 0.43 c p1
312.05 225.79 0.43 c p1
312.24 223.75 0.43 c p1
312.44 223.18 0.43 c p1
312.63 220.43 0.43 c p1
312.82 221.31 0.43 c p1
313.01 225.83 0.43 c p1
313.20 220.17 0.43 c p1
313.40 222.49 0.43 c p1
313.59 221.20 0.43 c p1
313.78 218.46 0.43 c p1
313.97 222.22 0.43 c p1
314.17 223.10 0.43 c p1
314.36 223.24 0.43 c p1
314.55 222.67 0.43 c p1
314.74 220.64 0.43 c p1
314.93 222.96 0.43 c p1
315.13 223.11 0.43 c p1
315.32 223.98 0.43 c p1
315.51 224.12 0.43 c p1
315.70 220.65 0.43 c p1
315.89 222.24 0.43 c p1
316.09 223.10 0.43 c p1
316.28 220.36 0.43 c p1
316.47 222.66 0.43 c p1
316.66 221.36 0.43 c p1
316.85 218.62 0.43 c p1
317.05 226.71 0.43 c p1
317.24 218.18 0.43 c p1
317.43 223.35 0.43 c p1
317.62 217.74 0.43 c p1
317.81 223.63 0.43 c p1
318.01 225.21 0.43 c p1
318.20 222.45 0.43 c p1
318.39 219.71 0.43 c p1
318.58 221.28 0.43 c p1
318.77 220.70 0.43 c p1
318.97 225.15 0.43 c p1
319.16 223.12 0.43 c p1
319.35 220.37 0.43 c p1
319.54 224.82 0.43 c p1
319.73 221.35 0.43 c p1
319.93 223.64 0.43 c p1
320.12 223.05 0.43 c p1
320.31 223.89 0.43 c p1
320.50 224.02 0.43 c p1
320.69 221.27 0.43 c p1
320.89 221.40 0.43 c p1
321.08 226.57 0.43 c p1
321.27 219.51 0.43 c p1
321.46 222.49 0.43 c p1
321.65 223.33 0.43 c p1
321.85 220.59 0.43 c p1
322.04 220.71 0.43 c p1
322.23 222.98 0.43 c p1
322.42 222.38 0.43 c p1
322.62 228.27 0.43 c p1
322.81 221.91 0.43 c p1
323.00 219.89 0.43 c p1
323.19 223.58 0.43 c p1
323.38 227.30 0.43 c p1
323.58 224.53 0.43 c p1
323.77 221.07 0.43 c p1
323.96 221.19 0.43 c p1
324.15 222.02 0.43 c p1
324.34 222.13 0.43 c p1
324.54 221.54 0.43 c p1
324.73 223.08 0.43 c p1
324.92 218.33 0.43 c p1
325.11 220.57 0.43 c p1
325.30 225.57 0.43 c p1
325.50 224.96 0.43 c p1
325.69 223.64 0.43 c p1
325.88 220.31 0.43 c p1
326.07 223.15 0.43 c p1
326.26 225.41 0.43 c p1
326.46 225.51 0.43 c p1
326.65 222.05 0.43 c p1
326.84 217.32 0.43 c p1
327.03 222.26 0.43 c p1
327.22 219.65 0.43 c p1
327.42 221.18 0.43 c p1
327.61 220.57 0.43 c p1
327.80 221.39 0.43 c p1
327.99 223.51 0.43 c p1
328.18 218.77 0.43 c p1
328.38 224.43 0.43 c p1
328.57 225.96 0.43 c p1
328.76 223.21 0.43 c p1
328.95 224.03 0.43 c p1
329.14 222.82 0.43 c p1
329.34 229.25 0.43 c p1
329.53 221.61 0.43 c p1
329.72 223.13 0.43 c p1
329.91 222.52 0.43 c p1
330.10 223.33 0.43 c p1
330.30 225.45 0.43 c p1
330.49 224.12 0.43 c p1
330.68 224.93 0.43 c p1
330.87 221.59 0.43 c p1
331.07 225.12 0.43 c p1
331.26 224.51 0.43 c p1
331.45 226.03 0.43 c p1
331.64 226.84 0.43 c p1
331.83 221.37 0.43 c p1
332.03 222.88 0.43 c p1
332.22 227.13 0.43 c p1
332.41 223.78 0.43 c p1
332.60 228.03 0.43 c p1
332.79 226.69 0.43 c p1
332.99 221.93 0.43 c p1
333.18 225.45 0.43 c p1
333.37 222.82 0.43 c p1
333.56 228.49 0.43 c p1
333.75 219.48 0.43 c p1
333.95 223.80 0.43 c p1
334.14 222.48 0.43 c p1
334.33 220.45 0.43 c p1
334.52 223.36 0.43 c p1
334.71 221.33 0.43 c p1
334.91 224.25 0.43 c p1
335.10 222.92 0.43 c p1
335.29 223.72 0.43 c p1
335.48 223.80 0.43 c p1
335.67 228.75 0.43 c p1
335.87 225.39 0.43 c p1
336.06 221.94 0.43 c p1
336.25 215.73 0.43 c p1
336.44 224.94 0.43 c p1
336.63 229.18 0.43 c p1
336.83 226.53 0.43 c p1
337.02 223.77 0.43 c p1
337.21 218.24 0.43 c p1
337.40 219.02 0.43 c p1
337.59 232.46 0.43 c p1
337.79 232.54 0.43 c p1
337.98 231.19 0.43 c p1
338.17 225.68 0.43 c p1
338.36 210.42 0.43 c p1
338.55 223.02 0.43 c p1
338.75 231.51 0.43 c p1
338.94 234.47 0.43 c p1
339.13 226.79 0.43 c p1
339.32 219.13 0.43 c p1
339.51 210.89 0.43 c p1
339.71 225.61 0.43 c p1
339.90 234.14 0.43 c p1
340.09 229.20 0.43 c p1
340.28 224.43 0.43 c p1
340.48 220.99 0.43 c p1
340.67 220.37 0.43 c p1
340.86 229.51 0.43 c p1
341.05 231.72 0.43 c p1
341.24 223.40 0.43 c p1
341.44 229.73 0.43 c p1
341.63 215.87 0.43 c p1
341.82 225.74 0.43 c p1
342.01 232.82 0.43 c p1
342.20 226.59 0.43 c p1
342.40 223.84 0.43 c p1
342.59 226.03 0.43 c p1
342.78 221.18 0.43 c p1
342.97 225.47 0.43 c p1
343.16 231.10 0.43 c p1
343.36 223.50 0.43 c p1
343.55 223.57 0.43 c p1
343.74 225.75 0.43 c p1
343.93 224.41 0.43 c p1
344.12 223.78 0.43 c p1
344.32 221.75 0.43 c p1
344.51 224.62 0.43 c p1
344.70 230.24 0.43 c p1
344.89 221.95 0.43 c p1
345.08 224.12 0.43 c p1
345.28 226.31 0.43 c p1
345.47 224.96 0.43 c p1
345.66 231.29 0.43 c p1
345.85 225.80 0.43 c p1
346.04 226.57 0.43 c p1
346.24 224.53 0.43 c p1
346.43 226.00 0.43 c p1
346.62 227.48 0.43 c p1
346.81 226.13 0.43 c p1
347.00 225.49 0.43 c p1
347.20 224.15 0.43 c p1
347.39 224.22 0.43 c p1
347.58 225.69 0.43 c p1
347.77 225.75 0.43 c p1
347.96 225.11 0.43 c p1
348.16 225.88 0.43 c p1
348.35 223.83 0.43 c p1
348.54 230.95 0.43 c p1
348.73 227.47 0.43 c p1
348.93 226.83 0.43 c p1
349.12 226.19 0.43 c p1
349.31 224.14 0.43 c p1
349.50 229.13 0.43 c p1
349.69 231.91 0.43 c p1
349.89 225.72 0.43 c p1
350.08 228.60 0.43 c p1
350.27 229.37 0.43 c p1
350.46 227.31 0.43 c p1
350.65 226.67 0.43 c p1
350.85 227.43 0.43 c p1
351.04 226.08 0.43 c p1
351.23 226.84 0.43 c p1
351.42 227.61 0.43 c p1
351.61 225.55 0.43 c p1
351.81 231.26 0.43 c p1
352.00 229.90 0.43 c p1
352.19 227.84 0.43 c p1
352.38 230.72 0.43 c p1
352.57 227.24 0.43 c p1
352.77 225.19 0.43 c p1
352.96 230.18 0.43 c p1
353.15 223.21 0.43 c p1
353.34 230.29 0.43 c p1
353.53 228.23 0.43 c p1
353.73 230.40 0.43 c p1
353.92 231.87 0.43 c p1
354.11 226.98 0.43 c p1
354.30 229.15 0.43 c p1
354.49 230.62 0.43 c p1
354.69 225.74 0.43 c p1
354.88 225.79 0.43 c p1
355.07 229.36 0.43 c p1
355.26 227.30 0.43 c p1
355.45 228.06 0.43 c p1
355.65 224.60 0.43 c p1
355.84 230.28 0.43 c p1
356.03 226.81 0.43 c p1
356.22 226.86 0.43 c p1
356.41 227.61 0.43 c p1
356.61 224.86 0.43 c p1
356.80 230.53 0.43 c p1
356.99 228.47 0.43 c p1
357.18 234.06 0.43 c p1
357.38 227.86 0.43 c p1
357.57 229.32 0.43 c p1
357.76 230.08 0.43 c p1
357.95 230.13 0.43 c p1
358.14 227.36 0.43 c p1
358.34 229.52 0.43 c p1
358.53 227.46 0.43 c p1
358.72 224.71 0.43 c p1
358.91 229.66 0.43 c p1
359.10 228.30 0.43 c p1
359.30 229.05 0.43 c p1
359.49 231.93 0.43 c p1
359.68 227.74 0.43 c p1
359.87 227.79 0.43 c p1
360.06 227.14 0.43 c p1
360.26 227.18 0.43 c p1
360.45 230.74 0.43 c p1
360.64 233.62 0.43 c p1
360.83 226.62 0.43 c p1
361.02 228.77 0.43 c p1
361.22 226.71 0.43 c p1
361.41 229.56 0.43 c p1
361.60 231.02 0.43 c p1
0.00 0.00 432.00 576.00 cl
0 0 0 srgb
0.75 setlinewidth
[] 0 setdash
1 setlinecap
1 setlinejoin
10.00 setmiterlimit
np
220.26 201.60 m
128.02 0 l
o
np
220.26 201.60 m
0 -5.76 l
o
np
252.26 201.60 m
0 -5.76 l
o
np
284.27 201.60 m
0 -5.76 l
o
np
316.28 201.60 m
0 -5.76 l
o
np
348.28 201.60 m
0 -5.76 l
o
/Font1 findfont 6 s
220.26 185.47 (0) .5 0 t
252.26 185.47 (2000) .5 0 t
284.27 185.47 (4000) .5 0 t
316.28 185.47 (6000) .5 0 t
348.28 185.47 (8000) .5 0 t
np
216.00 202.71 m
0 43.86 l
o
np
216.00 202.71 m
-5.76 0 l
o
np
216.00 213.67 m
-5.76 0 l
o
np
216.00 224.64 m
-5.76 0 l
o
np
216.00 235.61 m
-5.76 0 l
o
np
216.00 246.57 m
-5.76 0 l
o
209.09 200.55 (-0.02) 1 0 t
209.09 211.52 (-0.01) 1 0 t
209.09 222.49 (0.00) 1 0 t
209.09 233.45 (0.01) 1 0 t
209.09 244.42 (0.02) 1 0 t
np
216.00 201.60 m
151.20 0 l
0 46.08 l
-151.20 0 l
0 -46.08 l
o
0.00 0.00 432.00 576.00 cl
/Font1 findfont 9 s
0 0 0 srgb
291.60 262.88 (Residuals) .5 0 t
59.04 73.44 401.76 516.96 cl
ep
%%Trailer
%%Pages: 1
%%EOF
