%!PS-Adobe-3.0 EPSF-3.0
%%DocumentNeededResources: font Helvetica
%%+ font Helvetica-Bold
%%+ font Helvetica-Oblique
%%+ font Helvetica-BoldOblique
%%+ font Symbol
%%Title: R Graphics Output
%%Creator: R Software
%%Pages: (atend)
%%BoundingBox: 0 0 432 576
%%EndComments
%%BeginProlog
/bp  { gs sRGB gs } def
% begin .ps.prolog
/gs  { gsave } bind def
/gr  { grestore } bind def
/ep  { showpage gr gr } bind def
/m   { moveto } bind def
/l  { rlineto } bind def
/np  { newpath } bind def
/cp  { closepath } bind def
/f   { fill } bind def
/o   { stroke } bind def
/c   { newpath 0 360 arc } bind def
/r   { 4 2 roll moveto 1 copy 3 -1 roll exch 0 exch rlineto 0 rlineto -1 mul 0 exch rlineto closepath } bind def
/p1  { stroke } bind def
/p2  { gsave bg fill grestore newpath } bind def
/p3  { gsave bg fill grestore stroke } bind def
/p6  { gsave bg eofill grestore newpath } bind def
/p7  { gsave bg eofill grestore stroke } bind def
/t   { 5 -2 roll moveto gsave rotate
       1 index stringwidth pop
       mul neg 0 rmoveto show grestore } bind def
/ta  { 4 -2 roll moveto gsave rotate show } bind def
/tb  { 2 -1 roll 0 rmoveto show } bind def
/cl  { grestore gsave newpath 3 index 3 index moveto 1 index
       4 -1 roll lineto  exch 1 index lineto lineto
       closepath clip newpath } bind def
/rgb { setrgbcolor } bind def
/s   { scalefont setfont } bind def
% end   .ps.prolog
/sRGB { [ /CIEBasedABC
          << /DecodeLMN
               [ { dup 0.03928 le
                        {12.92321 div}
                        {0.055 add 1.055 div 2.4 exp }
                     ifelse
                 } bind dup dup
               ]
             /MatrixLMN [0.412457 0.212673 0.019334
                         0.357576 0.715152 0.119192
                         0.180437 0.072175 0.950301]
             /WhitePoint [0.9505 1.0 1.0890]
           >>
         ] setcolorspace } bind def
/srgb { setcolor } bind def
% begin encoding
/WinAnsiEncoding [
 /.notdef /.notdef /.notdef /.notdef /.notdef /.notdef /.notdef /.notdef
 /.notdef /.notdef /.notdef /.notdef /.notdef /.notdef /.notdef /.notdef
 /.notdef /.notdef /.notdef /.notdef /.notdef /.notdef /.notdef /.notdef
 /.notdef /.notdef /.notdef /.notdef /.notdef /.notdef /.notdef /.notdef
 /space /exclam /quotedbl /numbersign /dollar /percent /ampersand /quoteright
 /parenleft /parenright /asterisk /plus /comma /minus /period /slash
 /zero /one /two /three /four /five /six /seven
 /eight /nine /colon /semicolon /less /equal /greater /question
 /at /A /B /C /D /E /F /G
 /H /I /J /K /L /M /N /O
 /P /Q /R /S /T /U /V /W
 /X /Y /Z /bracketleft /backslash /bracketright /asciicircum /underscore
 /grave /a /b /c /d /e /f /g
 /h /i /j /k /l /m /n /o
 /p /q /r /s /t /u /v /w
 /x /y /z /braceleft /bar /braceright /asciitilde /.notdef
 /Euro /.notdef /quotesinglbase /florin /quotedblbase /ellipsis /dagger /daggerdbl
 /circumflex /perthousand /Scaron /guilsinglleft /OE /.notdef /Zcaron /.notdef
 /.notdef /quoteleft /quoteright /quotedblleft /quotedblright /bullet /endash /emdash
 /tilde /trademark /scaron /guilsinglright /oe /.notdef /zcaron /Ydieresis
 /space /exclamdown /cent /sterling /currency /yen /brokenbar /section
 /dieresis /copyright /ordfeminine /guillemotleft /logicalnot /hyphen /registered /macron
 /degree /plusminus /twosuperior /threesuperior /acute /mu /paragraph /periodcentered
 /cedilla /onesuperior /ordmasculine /guillemotright /onequarter /onehalf /threequarters /questiondown
 /Agrave /Aacute /Acircumflex /Atilde /Adieresis /Aring /AE /Ccedilla
 /Egrave /Eacute /Ecircumflex /Edieresis /Igrave /Iacute /Icircumflex /Idieresis
 /Eth /Ntilde /Ograve /Oacute /Ocircumflex /Otilde /Odieresis /multiply
 /Oslash /Ugrave /Uacute /Ucircumflex /Udieresis /Yacute /Thorn /germandbls
 /agrave /aacute /acircumflex /atilde /adieresis /aring /ae /ccedilla
 /egrave /eacute /ecircumflex /edieresis /igrave /iacute /icircumflex /idieresis
 /eth /ntilde /ograve /oacute /ocircumflex /otilde /odieresis /divide
 /oslash /ugrave /uacute /ucircumflex /udieresis /yacute /thorn /ydieresis
]
 def
% end encoding
%%IncludeResource: font Helvetica
/Helvetica findfont
dup length dict begin
  {1 index /FID ne {def} {pop pop} ifelse} forall
  /Encoding WinAnsiEncoding def
  currentdict
  end
/Font1 exch definefont pop
%%IncludeResource: font Helvetica-Bold
/Helvetica-Bold findfont
dup length dict begin
  {1 index /FID ne {def} {pop pop} ifelse} forall
  /Encoding WinAnsiEncoding def
  currentdict
  end
/Font2 exch definefont pop
%%IncludeResource: font Helvetica-Oblique
/Helvetica-Oblique findfont
dup length dict begin
  {1 index /FID ne {def} {pop pop} ifelse} forall
  /Encoding WinAnsiEncoding def
  currentdict
  end
/Font3 exch definefont pop
%%IncludeResource: font Helvetica-BoldOblique
/Helvetica-BoldOblique findfont
dup length dict begin
  {1 index /FID ne {def} {pop pop} ifelse} forall
  /Encoding WinAnsiEncoding def
  currentdict
  end
/Font4 exch definefont pop
%%IncludeResource: font Symbol
/Symbol findfont
dup length dict begin
  {1 index /FID ne {def} {pop pop} ifelse} forall
  currentdict
  end
/Font5 exch definefont pop
%%EndProlog
%%Page: 1 1
bp
/bg { 1 1 1 srgb } def
0.00 0.00 432.00 576.00 r p2
0.00 0.00 432.00 576.00 cl
0.00 0.00 432.00 576.00 cl
0.00 0.00 432.00 576.00 cl
/Font1 findfont 12 s
0 0 0 srgb
48.00 508.72 (PCP-ETH) 0 0 t
48.00 494.89 (Flash light photolysis) 0 0 t
/Font1 findfont 9 s
48.00 457.54 (File: T) 0 ta
-1.080 (emper) tb
-0.090 (ature_dependence_14f_MSLM.dat) tb gr
48.00 334.87 (T) 0 ta
-1.080 (ue Mar 08 17:23:14 2022) tb gr
48.00 430.87 (Fit function:  a + b * e) 0 ta
-0.270 (xp\(-c * t\)) tb gr
48.00 420.50 (t-Inter) 0 ta
0.270 (v) tb
-0.225 (all: 11.000 ... 151.000 ms) tb gr
48.00 410.14 (P) 0 ta
-0.360 (ar) tb
-0.090 (ameters \(Standard de) tb
-0.270 (viation\):) tb gr
48.00 399.77 (  a = 0.00299 \(0.00098\)) 0 0 t
48.00 389.40 (  b = 0.17434 \(0.00165\)) 0 0 t
48.00 379.03 (  c = 2.184e+01 \(5.229e-01\) s^-1) 0 0 t
48.00 368.66 (  tau = 4.578e-02 \(1.096e-03\) s) 0 0 t
216.00 345.60 388.80 518.40 cl
0 0 0 srgb
0.75 setlinewidth
[] 0 setdash
1 setlinecap
1 setlinejoin
10.00 setmiterlimit
np
222.40 424.68 m
0.15 0.24 l
0.14 0.70 l
0.15 -0.82 l
0.14 0 l
0.15 0 l
0.14 0.12 l
0.15 -0.47 l
0.14 0.59 l
0.15 0.82 l
0.15 0 l
0.14 -1.29 l
0.15 0.47 l
0.14 0 l
0.15 -0.47 l
0.14 0.23 l
0.15 -0.12 l
0.14 0.59 l
0.15 0.35 l
0.15 -0.23 l
0.14 -0.47 l
0.15 -0.12 l
0.14 -0.47 l
0.15 -0.11 l
0.14 1.29 l
0.15 0.23 l
0.15 -0.23 l
0.14 0 l
0.15 -0.12 l
0.14 -0.24 l
0.15 -1.50 l
0.14 1.27 l
0.15 0.82 l
0.14 0.12 l
0.15 -0.12 l
0.15 -0.59 l
0.14 0.36 l
0.15 -0.71 l
0.14 -0.58 l
0.15 0.58 l
0.14 0.35 l
0.15 0.24 l
0.14 0 l
0.15 0.47 l
0.15 -0.35 l
0.14 -0.83 l
0.15 -0.11 l
0.14 0.82 l
0.15 -0.59 l
0.14 0.71 l
0.15 0.58 l
0.14 -0.94 l
0.15 1.06 l
0.15 -1.29 l
0.14 0.23 l
0.15 -0.23 l
0.14 0 l
0.15 -0.12 l
0.14 1.06 l
0.15 -0.35 l
0.15 -0.83 l
0.14 0 l
0.15 0.12 l
0.14 0.24 l
0.15 0.35 l
0.14 -0.47 l
0.15 0.47 l
0.14 -0.12 l
0.15 0 l
0.15 0.35 l
0.14 -0.11 l
0.15 -0.12 l
0.14 -0.12 l
0.15 0 l
0.14 -0.35 l
0.15 0.59 l
0.14 0 l
0.15 -0.59 l
0.15 0.47 l
0.14 0.12 l
0.15 -0.47 l
0.14 -0.12 l
0.15 -0.24 l
0.14 0.71 l
0.15 0.12 l
0.14 -0.47 l
0.15 0.35 l
0.15 -0.24 l
0.14 -0.35 l
0.15 0 l
0.14 0.59 l
0.15 0.58 l
0.14 0.59 l
0.15 -0.59 l
0.15 -0.46 l
0.14 -0.36 l
0.15 -0.35 l
0.14 0 l
0.15 0 l
0.14 0.94 l
236.96 512.00 lineto
0.14 -113.52 l
0.15 1.40 l
0.15 0.93 l
0.14 0.59 l
0.15 0.82 l
0.14 1.27 l
0.15 0.82 l
0.14 0.59 l
0.15 0.68 l
0.14 -0.33 l
0.15 0.21 l
0.15 0.12 l
0.14 0.70 l
0.15 -0.11 l
0.14 1.17 l
0.15 0.12 l
0.14 0 l
0.15 0.23 l
0.14 0.47 l
0.15 -0.12 l
0.15 -0.35 l
0.14 1.50 l
0.15 -0.23 l
0.14 0.23 l
0.15 0.71 l
0.14 0.35 l
0.15 -0.47 l
0.15 1.06 l
0.14 -0.12 l
0.15 0.23 l
0.14 0.69 l
0.15 0.82 l
0.14 -0.47 l
0.15 0.35 l
0.14 -0.12 l
0.15 0.71 l
0.15 -0.47 l
0.14 0.70 l
0.15 1.52 l
0.14 -0.35 l
0.15 0.35 l
0.14 0.45 l
0.15 -1.03 l
0.14 0.23 l
0.15 1.39 l
0.15 -0.24 l
0.14 0 l
0.15 0 l
0.14 0.47 l
0.15 -0.58 l
0.14 -0.24 l
0.15 -0.11 l
0.14 1.05 l
0.15 -0.94 l
0.15 0.94 l
0.14 0.35 l
0.15 -0.23 l
0.14 0.70 l
0.15 0 l
0.14 -0.12 l
0.15 0 l
0.15 0.82 l
0.14 -0.82 l
0.15 0.94 l
0.14 0.45 l
0.15 0.23 l
0.14 0.24 l
0.15 0 l
0.14 0.35 l
0.15 0.70 l
0.15 0.36 l
0.14 -0.36 l
0.15 -0.23 l
0.14 -0.47 l
0.15 0.47 l
0.14 -0.23 l
0.15 0.35 l
0.14 0 l
0.15 0 l
0.15 0.58 l
0.14 0.12 l
0.15 0.23 l
0.14 0.36 l
0.15 -0.59 l
0.14 0.12 l
0.15 -0.59 l
0.14 0.70 l
0.15 0.36 l
0.15 -0.36 l
0.14 0.12 l
0.15 -0.47 l
0.14 0.71 l
0.15 0 l
0.14 -0.59 l
0.15 0.23 l
0.15 0.57 l
0.14 0.47 l
0.15 0.23 l
0.14 0 l
251.52 421.54 lineto
0.14 0.70 l
0.15 -0.23 l
0.14 -0.24 l
0.15 0.71 l
0.15 0.11 l
0.14 -0.46 l
0.15 0.46 l
0.14 -0.11 l
0.15 -0.71 l
0.14 0.71 l
0.15 -0.35 l
0.14 -0.24 l
0.15 0.82 l
0.15 -0.35 l
0.14 -0.47 l
0.15 -0.23 l
0.14 0.35 l
0.15 0.12 l
0.14 -0.36 l
0.15 0.24 l
0.14 -0.24 l
0.15 0.24 l
0.15 0.12 l
0.14 0.58 l
0.15 -0.47 l
0.14 0.71 l
0.15 0.23 l
0.14 -0.70 l
0.15 0 l
0.14 1.52 l
0.15 -0.35 l
0.15 0.23 l
0.14 -0.70 l
0.15 -0.23 l
0.14 0.35 l
0.15 0.11 l
0.14 0.24 l
0.15 -0.12 l
0.15 -0.35 l
0.14 0.35 l
0.15 0.59 l
0.14 -0.24 l
0.15 -0.70 l
0.14 0 l
0.15 0 l
0.14 0.35 l
0.15 0.12 l
0.15 -0.12 l
0.14 0 l
0.15 -0.12 l
0.14 -0.11 l
0.15 0.11 l
0.14 -0.35 l
0.15 -0.93 l
0.14 1.28 l
0.15 0.81 l
0.15 -1.39 l
0.14 0.35 l
0.15 0.35 l
0.14 -0.35 l
0.15 0.47 l
0.14 0.12 l
0.15 0.11 l
0.14 0 l
0.15 0.12 l
0.15 0.12 l
0.14 0.68 l
0.15 -0.35 l
0.14 -0.12 l
0.15 -0.11 l
0.14 0.82 l
0.15 -0.12 l
0.15 0.23 l
0.14 -0.11 l
0.15 0.11 l
0.14 -0.23 l
0.15 -0.47 l
0.14 -0.23 l
0.15 -0.22 l
0.14 -0.23 l
0.15 0.45 l
0.15 0.23 l
0.14 -0.12 l
0.15 -0.45 l
0.14 0 l
0.15 -0.58 l
0.14 0.11 l
0.15 0 l
0.14 1.04 l
0.15 -0.33 l
0.15 0.21 l
0.14 0.71 l
0.15 -0.47 l
0.14 0.11 l
0.15 -0.11 l
0.14 -0.69 l
0.15 0.24 l
0.14 0.68 l
0.15 -0.35 l
266.08 425.27 lineto
0.14 -1.05 l
0.15 -0.22 l
0.14 0.68 l
0.15 0.12 l
0.14 -0.12 l
0.15 -0.35 l
0.15 1.29 l
0.14 -0.35 l
0.15 0.12 l
0.14 -0.47 l
0.15 -0.35 l
0.14 -0.24 l
0.15 -0.21 l
0.14 0.33 l
0.15 0.59 l
0.15 -0.24 l
0.14 -0.35 l
0.15 -0.33 l
0.14 0 l
0.15 -0.35 l
0.14 -0.24 l
0.15 0.12 l
0.14 0.68 l
0.15 -0.11 l
0.15 0.70 l
0.14 -0.12 l
0.15 -0.35 l
0.14 -0.80 l
0.15 0.68 l
0.14 0 l
0.15 0.12 l
0.14 0.12 l
0.15 0.47 l
0.15 -0.36 l
0.14 -0.11 l
0.15 0.47 l
0.14 -0.36 l
0.15 -0.23 l
0.14 0.47 l
0.15 0.12 l
0.15 0.35 l
0.14 -0.47 l
0.15 -0.35 l
0.14 -0.24 l
0.15 -0.33 l
0.14 0.80 l
0.15 -0.35 l
0.14 0.23 l
0.15 0.59 l
0.15 0.35 l
0.14 -0.82 l
0.15 -0.35 l
0.14 -0.33 l
0.15 -0.35 l
0.14 0.23 l
0.15 0.22 l
0.14 0.11 l
0.15 0 l
0.15 -0.21 l
0.14 -0.35 l
0.15 0.11 l
0.14 -0.11 l
0.15 0.11 l
0.14 0.24 l
0.15 0.21 l
0.14 0.12 l
0.15 -0.23 l
0.15 -0.10 l
0.14 0 l
0.15 -0.12 l
0.14 0.22 l
0.15 1.05 l
0.14 0 l
0.15 -0.23 l
0.15 0 l
0.14 -0.12 l
0.15 -0.80 l
0.14 -0.24 l
0.15 0.34 l
0.14 0.82 l
0.15 -0.47 l
0.14 0.70 l
0.15 -0.59 l
0.15 -0.23 l
0.14 -0.57 l
0.15 0.69 l
0.14 -0.35 l
0.15 0.35 l
0.14 0.82 l
0.15 -0.94 l
0.14 1.06 l
0.15 -1.29 l
0.15 0 l
0.14 -0.57 l
0.15 0.57 l
0.14 -0.45 l
0.15 0.11 l
0.14 0 l
0.15 -0.11 l
280.63 424.33 lineto
0.15 -0.33 l
0.15 -0.94 l
0.14 0.12 l
0.15 0.82 l
0.14 0.22 l
0.15 0.70 l
0.14 -0.35 l
0.15 -0.12 l
0.15 -0.33 l
0.14 0.56 l
0.15 -0.91 l
0.14 0.80 l
0.15 -0.12 l
0.14 0.23 l
0.15 0 l
0.14 0.36 l
0.15 -0.82 l
0.15 0.23 l
0.14 -0.33 l
0.15 -0.59 l
0.14 0.47 l
0.15 -0.12 l
0.14 0.92 l
0.15 -0.23 l
0.14 0 l
0.15 -0.12 l
0.15 -0.68 l
0.14 0.23 l
0.15 0 l
0.14 -0.12 l
0.15 0.45 l
0.14 1.06 l
0.15 -1.27 l
0.14 -0.24 l
0.15 -0.23 l
0.15 -0.82 l
0.14 0.47 l
0.15 1.03 l
0.14 -0.33 l
0.15 -0.12 l
0.14 0.57 l
0.15 -0.68 l
0.14 0.45 l
0.15 0.35 l
0.15 -1.16 l
0.14 0.71 l
0.15 0.92 l
0.14 -0.47 l
0.15 0.23 l
0.14 -0.12 l
0.15 -0.56 l
0.15 0.10 l
0.14 -0.22 l
0.15 0.22 l
0.14 0.35 l
0.15 0 l
0.14 0.94 l
0.15 -0.47 l
0.14 -0.71 l
0.15 -0.33 l
0.15 -0.12 l
0.14 0.34 l
0.15 0.11 l
0.14 0.71 l
0.15 -0.12 l
0.14 -0.59 l
0.15 0.47 l
0.14 -0.47 l
0.15 -0.80 l
0.15 0.35 l
0.14 0.34 l
0.15 0.23 l
0.14 0.12 l
0.15 0 l
0.14 -0.57 l
0.15 -0.12 l
0.14 -0.11 l
0.15 0.56 l
0.15 -0.68 l
0.14 0.57 l
0.15 -0.10 l
0.14 -0.35 l
0.15 0.35 l
0.14 -0.12 l
0.15 -0.23 l
0.15 0.23 l
0.14 0.22 l
0.15 0.46 l
0.14 0.24 l
0.15 0.23 l
0.14 0 l
0.15 0 l
0.14 -0.47 l
0.15 0.36 l
0.15 -0.36 l
0.14 0 l
0.15 0.24 l
0.14 0.35 l
0.15 -0.70 l
295.19 425.15 lineto
0.15 -0.93 l
0.14 -0.22 l
0.15 0.22 l
0.15 0 l
0.14 0.46 l
0.15 0.36 l
0.14 0 l
0.15 -0.24 l
0.14 -0.35 l
0.15 0 l
0.14 -1.27 l
0.15 0.82 l
0.15 0.45 l
0.14 -0.12 l
0.15 0.12 l
0.14 0.70 l
0.15 -1.62 l
0.14 0.24 l
0.15 -0.12 l
0.15 0.80 l
0.14 -0.23 l
0.15 0.35 l
0.14 0.23 l
0.15 0.59 l
0.14 -0.59 l
0.15 -0.23 l
0.14 0.11 l
0.15 -0.23 l
0.15 0.47 l
0.14 -0.12 l
0.15 1.06 l
0.14 -0.71 l
0.15 0.12 l
0.14 -0.82 l
0.15 0.12 l
0.14 -0.35 l
0.15 0.23 l
0.15 0.70 l
0.14 -0.23 l
0.15 -0.24 l
0.14 -0.23 l
0.15 0.59 l
0.14 -0.71 l
0.15 0 l
0.14 0.47 l
0.15 -0.12 l
0.15 0 l
0.14 0.94 l
0.15 -0.47 l
0.14 -0.35 l
0.15 -0.92 l
0.14 -0.11 l
0.15 1.03 l
0.15 -0.58 l
0.14 0.23 l
0.15 0.23 l
0.14 -0.11 l
0.15 -0.24 l
0.14 0.12 l
0.15 -0.57 l
0.14 0 l
0.15 0.80 l
0.15 0.24 l
0.14 -0.59 l
0.15 0.12 l
0.14 0 l
0.15 0.70 l
0.14 -0.70 l
0.15 -0.23 l
0.14 1.05 l
0.15 -0.59 l
0.15 0.83 l
0.14 -0.12 l
0.15 0 l
0.14 0 l
0.15 -0.71 l
0.14 -0.23 l
0.15 -0.57 l
0.14 0.69 l
0.15 0.82 l
0.15 -0.12 l
0.14 -1.15 l
0.15 0.80 l
0.14 -0.80 l
0.15 -0.24 l
0.14 0.34 l
0.15 0.46 l
0.15 -0.35 l
0.14 0.82 l
0.15 -0.58 l
0.14 -0.35 l
0.15 -0.22 l
0.14 0.22 l
0.15 0.11 l
0.14 -0.21 l
0.15 -0.12 l
0.15 1.27 l
0.14 -0.23 l
0.15 -0.24 l
309.75 424.80 lineto
0.15 -1.03 l
0.14 0.80 l
0.15 -0.45 l
0.14 0.45 l
0.15 1.05 l
0.15 -0.23 l
0.14 0.47 l
0.15 -0.59 l
0.14 -0.82 l
0.15 -0.33 l
0.14 0.68 l
0.15 0.12 l
0.14 0.23 l
0.15 -0.70 l
0.15 0.82 l
0.14 -0.59 l
0.15 0.12 l
0.14 -0.68 l
0.15 -0.24 l
0.14 0.45 l
0.15 0 l
0.15 0.12 l
0.14 1.06 l
0.15 -0.59 l
0.14 -0.47 l
0.15 -0.80 l
0.14 0.47 l
0.15 0 l
0.14 0.10 l
0.15 0.58 l
0.15 -0.23 l
0.14 0.47 l
0.15 -1.16 l
0.14 0.80 l
0.15 -0.80 l
0.14 0.57 l
0.15 0.12 l
0.14 0.11 l
0.15 -0.35 l
0.15 0.47 l
0.14 0.35 l
0.15 -0.23 l
0.14 -0.47 l
0.15 0.12 l
0.14 -0.24 l
0.15 0.47 l
0.14 0.35 l
0.15 0 l
0.15 0.24 l
0.14 -0.47 l
0.15 -1.27 l
0.14 0.23 l
0.15 0.69 l
0.14 0.35 l
0.15 -0.12 l
0.15 -0.35 l
0.14 0.12 l
0.15 -0.24 l
0.14 -0.11 l
0.15 -0.22 l
0.14 0 l
0.15 0.45 l
0.14 -0.57 l
0.15 0.12 l
0.15 0.22 l
0.14 -0.34 l
0.15 0 l
0.14 -0.58 l
0.15 0.35 l
0.14 -0.59 l
0.15 0.94 l
0.14 0.22 l
0.15 0.23 l
0.15 0.12 l
0.14 0.47 l
0.15 -0.71 l
0.14 -0.45 l
0.15 0.80 l
0.14 0.24 l
0.15 0.12 l
0.14 -0.59 l
0.15 0.59 l
0.15 -0.82 l
0.14 0.11 l
0.15 -0.21 l
0.14 0.33 l
0.15 0.12 l
0.14 0.11 l
0.15 0.94 l
0.14 -1.05 l
0.15 -0.35 l
0.15 -0.69 l
0.14 1.74 l
0.15 -0.70 l
0.14 0.47 l
0.15 -0.12 l
0.14 0 l
0.15 -0.24 l
0.15 -1.15 l
324.31 423.65 lineto
0.15 -0.82 l
0.14 0.82 l
0.15 -0.12 l
0.14 0.92 l
0.15 -0.45 l
0.14 -0.23 l
0.15 1.15 l
0.15 -2.09 l
0.14 1.50 l
0.15 -1.03 l
0.14 0.92 l
0.15 -0.34 l
0.14 0.92 l
0.15 0.12 l
0.14 -0.35 l
0.15 0.11 l
0.15 -0.46 l
0.14 0.11 l
0.15 0.59 l
0.14 -0.12 l
0.15 0.24 l
0.14 -0.12 l
0.15 0.35 l
0.14 -1.05 l
0.15 0.11 l
0.15 0.71 l
0.14 -0.82 l
0.15 -0.57 l
0.14 1.50 l
0.15 -0.23 l
0.14 -0.24 l
0.15 -0.68 l
0.15 0.80 l
0.14 -0.92 l
0.15 0.57 l
0.14 -0.12 l
0.15 0.35 l
0.14 -0.80 l
0.15 0.45 l
0.14 -0.33 l
0.15 -0.23 l
0.15 0 l
0.14 0 l
0.15 -0.71 l
0.14 0.59 l
0.15 0.12 l
0.14 0.56 l
0.15 0.12 l
0.14 0.12 l
0.15 -0.24 l
0.15 -0.68 l
0.14 0.57 l
0.15 0.70 l
0.14 -0.12 l
0.15 -0.12 l
0.14 0.36 l
0.15 0.11 l
0.14 -0.47 l
0.15 -0.23 l
0.15 -0.12 l
0.14 -0.68 l
0.15 1.27 l
0.14 -0.35 l
0.15 0 l
0.14 0 l
0.15 0 l
0.15 -0.35 l
0.14 -0.10 l
0.15 0.33 l
0.14 -0.12 l
0.15 -0.11 l
0.14 0.93 l
0.15 -0.93 l
0.14 0.46 l
0.15 -0.46 l
0.15 0.46 l
0.14 -1.03 l
0.15 -0.12 l
0.14 0.80 l
0.15 -0.56 l
0.14 0.11 l
0.15 0 l
0.14 0.45 l
0.15 -0.80 l
0.15 0.35 l
0.14 0.69 l
0.15 -0.35 l
0.14 0.70 l
0.15 -0.59 l
0.14 0.35 l
0.15 -0.68 l
0.14 0.12 l
0.15 0.21 l
0.15 0.24 l
0.14 0 l
0.15 0 l
0.14 0.47 l
0.15 0.70 l
0.14 -0.47 l
338.87 424.80 lineto
0.15 -1.03 l
0.14 0.56 l
0.15 0.24 l
0.14 0.82 l
0.15 -0.82 l
0.14 0.11 l
0.15 0.36 l
0.14 -0.24 l
0.15 -0.58 l
0.15 -0.10 l
0.14 -0.24 l
0.15 0.45 l
0.14 -0.33 l
0.15 -0.23 l
0.14 0.45 l
0.15 -0.69 l
0.14 0.47 l
0.15 -0.47 l
0.15 0.59 l
0.14 -0.24 l
0.15 0.45 l
0.14 0.35 l
0.15 0.47 l
0.14 -0.70 l
0.15 -0.12 l
0.14 0.12 l
0.15 0.12 l
0.15 -0.35 l
0.14 0.82 l
0.15 0.35 l
0.14 0.12 l
0.15 -0.59 l
0.14 0.12 l
0.15 -0.36 l
0.15 -0.46 l
0.14 -0.34 l
0.15 1.27 l
0.14 0.24 l
0.15 -0.12 l
0.14 -0.94 l
0.15 -0.21 l
0.14 -0.47 l
0.15 0.35 l
0.15 -0.12 l
0.14 0.12 l
0.15 0.33 l
0.14 -0.21 l
0.15 0.21 l
0.14 -0.80 l
0.15 0.35 l
0.14 -0.58 l
0.15 0.58 l
0.15 0.45 l
0.14 -0.56 l
0.15 0.68 l
0.14 0.47 l
0.15 0.59 l
0.14 -1.29 l
0.15 0.11 l
0.14 0.35 l
0.15 -0.80 l
0.15 0.34 l
0.14 1.52 l
0.15 -0.35 l
0.14 -0.94 l
0.15 0.23 l
0.14 -0.11 l
0.15 -0.35 l
0.15 0.46 l
0.14 -0.23 l
0.15 0.47 l
0.14 0 l
0.15 0.47 l
0.14 -0.71 l
0.15 -0.56 l
0.14 -0.12 l
0.15 0.57 l
0.15 -0.69 l
0.14 0.34 l
0.15 -0.22 l
0.14 -0.23 l
0.15 -0.36 l
0.14 0.59 l
0.15 -0.82 l
0.14 0.70 l
0.15 0.34 l
0.15 0 l
0.14 0 l
0.15 0 l
0.14 0.11 l
0.15 -0.80 l
0.14 1.15 l
0.15 -0.68 l
0.14 0.22 l
0.15 0.70 l
0.15 -0.47 l
0.14 0.35 l
0.15 -0.35 l
0.14 -0.57 l
353.43 424.57 lineto
0.14 -0.45 l
0.15 0.33 l
0.14 -0.23 l
0.15 0.58 l
0.15 0.59 l
0.14 -0.59 l
0.15 -0.68 l
0.14 0.10 l
0.15 0.23 l
0.14 0.12 l
0.15 -0.35 l
0.15 -0.10 l
0.14 0.56 l
0.15 0 l
0.14 -0.56 l
0.15 -0.35 l
0.14 0.11 l
0.15 -0.23 l
0.14 0.23 l
0.15 0.80 l
0.15 -0.35 l
0.14 -0.68 l
0.15 0.92 l
0.14 -0.24 l
0.15 -0.21 l
0.14 0 l
0.15 -0.12 l
0.14 1.04 l
0.15 -0.36 l
0.15 0.12 l
0.14 -0.47 l
0.15 0.35 l
0.14 -0.46 l
0.15 -0.22 l
0.14 0.68 l
0.15 -0.46 l
0.14 0.23 l
0.15 0.70 l
0.15 -1.03 l
0.14 0.21 l
0.15 -0.45 l
0.14 -0.11 l
0.15 0.11 l
0.14 0 l
0.15 0.69 l
0.15 0.11 l
0.14 -0.35 l
0.15 -0.21 l
0.14 0.10 l
0.15 -0.22 l
0.14 -0.12 l
0.15 0.12 l
0.14 -0.94 l
0.15 1.16 l
0.15 -0.10 l
0.14 0.10 l
0.15 -0.22 l
0.14 -0.47 l
0.15 0.24 l
0.14 0.11 l
0.15 0.24 l
0.14 -0.12 l
0.15 0 l
0.15 0.22 l
0.14 0.11 l
0.15 0 l
0.14 -0.11 l
0.15 0 l
0.14 0 l
0.15 1.17 l
0.14 -0.71 l
0.15 0.12 l
0.15 0.24 l
0.14 -1.39 l
0.15 -0.24 l
0.14 0.59 l
0.15 -0.47 l
0.14 0.35 l
0.15 0.45 l
0.15 0 l
0.14 -0.80 l
0.15 0.59 l
0.14 -0.59 l
0.15 -0.58 l
0.14 0.35 l
0.15 0.82 l
0.14 -0.59 l
0.15 0.24 l
0.15 0.23 l
0.14 -0.12 l
0.15 -0.47 l
0.14 -0.11 l
0.15 0.35 l
0.14 0 l
0.15 0.47 l
0.14 -0.24 l
0.15 0.34 l
0.15 0 l
0.14 0.46 l
currentpoint o m
367.99 424.45 lineto
0.14 -0.92 l
0.15 0.80 l
0.14 0.24 l
0.15 -0.57 l
0.14 1.04 l
0.15 -0.71 l
0.15 -0.11 l
0.14 -0.34 l
0.15 0.24 l
0.14 -0.47 l
0.15 0.92 l
0.14 0 l
0.15 0.11 l
0.15 -0.46 l
0.14 -0.34 l
0.15 0.34 l
0.14 -0.45 l
0.15 0 l
0.14 0.35 l
0.15 0.45 l
0.14 -0.45 l
0.15 0 l
0.15 -0.12 l
0.14 -0.59 l
0.15 -0.11 l
0.14 0.47 l
0.15 -0.47 l
0.14 0.35 l
0.15 0.57 l
0.14 -0.10 l
0.15 0.21 l
0.15 -0.92 l
0.14 0.71 l
0.15 -0.47 l
0.14 0.57 l
0.15 -0.57 l
0.14 1.15 l
0.15 -0.68 l
0.14 -0.12 l
0.15 0.12 l
0.15 0.33 l
0.14 -0.45 l
0.15 0.45 l
0.14 -0.12 l
0.15 0.71 l
0.14 -0.36 l
0.15 0 l
0.15 -0.23 l
0.14 -0.57 l
0.15 0 l
0.14 0 l
0.15 -0.23 l
0.14 0 l
0.15 0.35 l
0.14 0.45 l
0.15 -0.12 l
0.15 -0.56 l
0.14 -0.24 l
0.15 0 l
0.14 0.35 l
0.15 0.24 l
0.14 -1.17 l
0.15 1.27 l
0.14 -0.57 l
0.15 0 l
0.15 -0.70 l
0.14 0.58 l
0.15 0.47 l
0.14 0.12 l
0.15 0.56 l
0.14 0.12 l
0.15 -0.23 l
0.14 -0.35 l
0.15 0.23 l
0.15 -0.92 l
0.14 0.80 l
0.15 -0.33 l
0.14 0 l
0.15 0.45 l
0.14 -0.23 l
0.15 -0.45 l
0.15 -0.71 l
0.14 0.94 l
0.15 0 l
0.14 -0.12 l
0.15 0.24 l
0.14 0.21 l
0.15 -0.11 l
0.14 0 l
0.15 -0.34 l
0.15 -0.11 l
0.14 -0.82 l
0.15 0.58 l
0.14 0.35 l
0.15 -0.11 l
0.14 0.45 l
0.15 0.11 l
0.14 -1.15 l
0.15 -0.12 l
o
/bg { 1 1 1 srgb } def
222.40 424.68 0.43 c p3
222.55 424.92 0.43 c p3
222.69 425.62 0.43 c p3
222.84 424.80 0.43 c p3
222.98 424.80 0.43 c p3
223.13 424.80 0.43 c p3
223.27 424.92 0.43 c p3
223.42 424.45 0.43 c p3
223.56 425.04 0.43 c p3
223.71 425.86 0.43 c p3
223.86 425.86 0.43 c p3
224.00 424.57 0.43 c p3
224.15 425.04 0.43 c p3
224.29 425.04 0.43 c p3
224.44 424.57 0.43 c p3
224.58 424.80 0.43 c p3
224.73 424.68 0.43 c p3
224.87 425.27 0.43 c p3
225.02 425.62 0.43 c p3
225.17 425.39 0.43 c p3
225.31 424.92 0.43 c p3
225.46 424.80 0.43 c p3
225.60 424.33 0.43 c p3
225.75 424.22 0.43 c p3
225.89 425.51 0.43 c p3
226.04 425.74 0.43 c p3
226.19 425.51 0.43 c p3
226.33 425.51 0.43 c p3
226.48 425.39 0.43 c p3
226.62 425.15 0.43 c p3
226.77 423.65 0.43 c p3
226.91 424.92 0.43 c p3
227.06 425.74 0.43 c p3
227.20 425.86 0.43 c p3
227.35 425.74 0.43 c p3
227.50 425.15 0.43 c p3
227.64 425.51 0.43 c p3
227.79 424.80 0.43 c p3
227.93 424.22 0.43 c p3
228.08 424.80 0.43 c p3
228.22 425.15 0.43 c p3
228.37 425.39 0.43 c p3
228.51 425.39 0.43 c p3
228.66 425.86 0.43 c p3
228.81 425.51 0.43 c p3
228.95 424.68 0.43 c p3
229.10 424.57 0.43 c p3
229.24 425.39 0.43 c p3
229.39 424.80 0.43 c p3
229.53 425.51 0.43 c p3
229.68 426.09 0.43 c p3
229.82 425.15 0.43 c p3
229.97 426.21 0.43 c p3
230.12 424.92 0.43 c p3
230.26 425.15 0.43 c p3
230.41 424.92 0.43 c p3
230.55 424.92 0.43 c p3
230.70 424.80 0.43 c p3
230.84 425.86 0.43 c p3
230.99 425.51 0.43 c p3
231.14 424.68 0.43 c p3
231.28 424.68 0.43 c p3
231.43 424.80 0.43 c p3
231.57 425.04 0.43 c p3
231.72 425.39 0.43 c p3
231.86 424.92 0.43 c p3
232.01 425.39 0.43 c p3
232.15 425.27 0.43 c p3
232.30 425.27 0.43 c p3
232.45 425.62 0.43 c p3
232.59 425.51 0.43 c p3
232.74 425.39 0.43 c p3
232.88 425.27 0.43 c p3
233.03 425.27 0.43 c p3
233.17 424.92 0.43 c p3
233.32 425.51 0.43 c p3
233.46 425.51 0.43 c p3
233.61 424.92 0.43 c p3
233.76 425.39 0.43 c p3
233.90 425.51 0.43 c p3
234.05 425.04 0.43 c p3
234.19 424.92 0.43 c p3
234.34 424.68 0.43 c p3
234.48 425.39 0.43 c p3
234.63 425.51 0.43 c p3
234.77 425.04 0.43 c p3
234.92 425.39 0.43 c p3
235.07 425.15 0.43 c p3
235.21 424.80 0.43 c p3
235.36 424.80 0.43 c p3
235.50 425.39 0.43 c p3
235.65 425.97 0.43 c p3
235.79 426.56 0.43 c p3
235.94 425.97 0.43 c p3
236.09 425.51 0.43 c p3
236.23 425.15 0.43 c p3
236.38 424.80 0.43 c p3
236.52 424.80 0.43 c p3
236.67 424.80 0.43 c p3
236.81 425.74 0.43 c p3
236.96 512.00 0.43 c p3
237.10 398.48 0.43 c p3
237.25 399.88 0.43 c p3
237.40 400.81 0.43 c p3
237.54 401.40 0.43 c p3
237.69 402.22 0.43 c p3
237.83 403.49 0.43 c p3
237.98 404.31 0.43 c p3
238.12 404.90 0.43 c p3
238.27 405.58 0.43 c p3
238.41 405.25 0.43 c p3
238.56 405.46 0.43 c p3
238.71 405.58 0.43 c p3
238.85 406.28 0.43 c p3
239.00 406.17 0.43 c p3
239.14 407.34 0.43 c p3
239.29 407.46 0.43 c p3
239.43 407.46 0.43 c p3
239.58 407.69 0.43 c p3
239.72 408.16 0.43 c p3
239.87 408.04 0.43 c p3
240.02 407.69 0.43 c p3
240.16 409.19 0.43 c p3
240.31 408.96 0.43 c p3
240.45 409.19 0.43 c p3
240.60 409.90 0.43 c p3
240.74 410.25 0.43 c p3
240.89 409.78 0.43 c p3
241.04 410.84 0.43 c p3
241.18 410.72 0.43 c p3
241.33 410.95 0.43 c p3
241.47 411.64 0.43 c p3
241.62 412.46 0.43 c p3
241.76 411.99 0.43 c p3
241.91 412.34 0.43 c p3
242.05 412.22 0.43 c p3
242.20 412.93 0.43 c p3
242.35 412.46 0.43 c p3
242.49 413.16 0.43 c p3
242.64 414.68 0.43 c p3
242.78 414.33 0.43 c p3
242.93 414.68 0.43 c p3
243.07 415.13 0.43 c p3
243.22 414.10 0.43 c p3
243.36 414.33 0.43 c p3
243.51 415.72 0.43 c p3
243.66 415.48 0.43 c p3
243.80 415.48 0.43 c p3
243.95 415.48 0.43 c p3
244.09 415.95 0.43 c p3
244.24 415.37 0.43 c p3
244.38 415.13 0.43 c p3
244.53 415.02 0.43 c p3
244.67 416.07 0.43 c p3
244.82 415.13 0.43 c p3
244.97 416.07 0.43 c p3
245.11 416.42 0.43 c p3
245.26 416.19 0.43 c p3
245.40 416.89 0.43 c p3
245.55 416.89 0.43 c p3
245.69 416.77 0.43 c p3
245.84 416.77 0.43 c p3
245.99 417.59 0.43 c p3
246.13 416.77 0.43 c p3
246.28 417.71 0.43 c p3
246.42 418.16 0.43 c p3
246.57 418.39 0.43 c p3
246.71 418.63 0.43 c p3
246.86 418.63 0.43 c p3
247.00 418.98 0.43 c p3
247.15 419.68 0.43 c p3
247.30 420.04 0.43 c p3
247.44 419.68 0.43 c p3
247.59 419.45 0.43 c p3
247.73 418.98 0.43 c p3
247.88 419.45 0.43 c p3
248.02 419.22 0.43 c p3
248.17 419.57 0.43 c p3
248.31 419.57 0.43 c p3
248.46 419.57 0.43 c p3
248.61 420.15 0.43 c p3
248.75 420.27 0.43 c p3
248.90 420.50 0.43 c p3
249.04 420.86 0.43 c p3
249.19 420.27 0.43 c p3
249.33 420.39 0.43 c p3
249.48 419.80 0.43 c p3
249.62 420.50 0.43 c p3
249.77 420.86 0.43 c p3
249.92 420.50 0.43 c p3
250.06 420.62 0.43 c p3
250.21 420.15 0.43 c p3
250.35 420.86 0.43 c p3
250.50 420.86 0.43 c p3
250.64 420.27 0.43 c p3
250.79 420.50 0.43 c p3
250.94 421.07 0.43 c p3
251.08 421.54 0.43 c p3
251.23 421.77 0.43 c p3
251.37 421.77 0.43 c p3
251.52 421.54 0.43 c p3
251.66 422.24 0.43 c p3
251.81 422.01 0.43 c p3
251.95 421.77 0.43 c p3
252.10 422.48 0.43 c p3
252.25 422.59 0.43 c p3
252.39 422.13 0.43 c p3
252.54 422.59 0.43 c p3
252.68 422.48 0.43 c p3
252.83 421.77 0.43 c p3
252.97 422.48 0.43 c p3
253.12 422.13 0.43 c p3
253.26 421.89 0.43 c p3
253.41 422.71 0.43 c p3
253.56 422.36 0.43 c p3
253.70 421.89 0.43 c p3
253.85 421.66 0.43 c p3
253.99 422.01 0.43 c p3
254.14 422.13 0.43 c p3
254.28 421.77 0.43 c p3
254.43 422.01 0.43 c p3
254.57 421.77 0.43 c p3
254.72 422.01 0.43 c p3
254.87 422.13 0.43 c p3
255.01 422.71 0.43 c p3
255.16 422.24 0.43 c p3
255.30 422.95 0.43 c p3
255.45 423.18 0.43 c p3
255.59 422.48 0.43 c p3
255.74 422.48 0.43 c p3
255.88 424.00 0.43 c p3
256.03 423.65 0.43 c p3
256.18 423.88 0.43 c p3
256.32 423.18 0.43 c p3
256.47 422.95 0.43 c p3
256.61 423.30 0.43 c p3
256.76 423.41 0.43 c p3
256.90 423.65 0.43 c p3
257.05 423.53 0.43 c p3
257.20 423.18 0.43 c p3
257.34 423.53 0.43 c p3
257.49 424.12 0.43 c p3
257.63 423.88 0.43 c p3
257.78 423.18 0.43 c p3
257.92 423.18 0.43 c p3
258.07 423.18 0.43 c p3
258.21 423.53 0.43 c p3
258.36 423.65 0.43 c p3
258.51 423.53 0.43 c p3
258.65 423.53 0.43 c p3
258.80 423.41 0.43 c p3
258.94 423.30 0.43 c p3
259.09 423.41 0.43 c p3
259.23 423.06 0.43 c p3
259.38 422.13 0.43 c p3
259.52 423.41 0.43 c p3
259.67 424.22 0.43 c p3
259.82 422.83 0.43 c p3
259.96 423.18 0.43 c p3
260.11 423.53 0.43 c p3
260.25 423.18 0.43 c p3
260.40 423.65 0.43 c p3
260.54 423.77 0.43 c p3
260.69 423.88 0.43 c p3
260.83 423.88 0.43 c p3
260.98 424.00 0.43 c p3
261.13 424.12 0.43 c p3
261.27 424.80 0.43 c p3
261.42 424.45 0.43 c p3
261.56 424.33 0.43 c p3
261.71 424.22 0.43 c p3
261.85 425.04 0.43 c p3
262.00 424.92 0.43 c p3
262.15 425.15 0.43 c p3
262.29 425.04 0.43 c p3
262.44 425.15 0.43 c p3
262.58 424.92 0.43 c p3
262.73 424.45 0.43 c p3
262.87 424.22 0.43 c p3
263.02 424.00 0.43 c p3
263.16 423.77 0.43 c p3
263.31 424.22 0.43 c p3
263.46 424.45 0.43 c p3
263.60 424.33 0.43 c p3
263.75 423.88 0.43 c p3
263.89 423.88 0.43 c p3
264.04 423.30 0.43 c p3
264.18 423.41 0.43 c p3
264.33 423.41 0.43 c p3
264.47 424.45 0.43 c p3
264.62 424.12 0.43 c p3
264.77 424.33 0.43 c p3
264.91 425.04 0.43 c p3
265.06 424.57 0.43 c p3
265.20 424.68 0.43 c p3
265.35 424.57 0.43 c p3
265.49 423.88 0.43 c p3
265.64 424.12 0.43 c p3
265.78 424.80 0.43 c p3
265.93 424.45 0.43 c p3
266.08 425.27 0.43 c p3
266.22 424.22 0.43 c p3
266.37 424.00 0.43 c p3
266.51 424.68 0.43 c p3
266.66 424.80 0.43 c p3
266.80 424.68 0.43 c p3
266.95 424.33 0.43 c p3
267.10 425.62 0.43 c p3
267.24 425.27 0.43 c p3
267.39 425.39 0.43 c p3
267.53 424.92 0.43 c p3
267.68 424.57 0.43 c p3
267.82 424.33 0.43 c p3
267.97 424.12 0.43 c p3
268.11 424.45 0.43 c p3
268.26 425.04 0.43 c p3
268.41 424.80 0.43 c p3
268.55 424.45 0.43 c p3
268.70 424.12 0.43 c p3
268.84 424.12 0.43 c p3
268.99 423.77 0.43 c p3
269.13 423.53 0.43 c p3
269.28 423.65 0.43 c p3
269.42 424.33 0.43 c p3
269.57 424.22 0.43 c p3
269.72 424.92 0.43 c p3
269.86 424.80 0.43 c p3
270.01 424.45 0.43 c p3
270.15 423.65 0.43 c p3
270.30 424.33 0.43 c p3
270.44 424.33 0.43 c p3
270.59 424.45 0.43 c p3
270.73 424.57 0.43 c p3
270.88 425.04 0.43 c p3
271.03 424.68 0.43 c p3
271.17 424.57 0.43 c p3
271.32 425.04 0.43 c p3
271.46 424.68 0.43 c p3
271.61 424.45 0.43 c p3
271.75 424.92 0.43 c p3
271.90 425.04 0.43 c p3
272.05 425.39 0.43 c p3
272.19 424.92 0.43 c p3
272.34 424.57 0.43 c p3
272.48 424.33 0.43 c p3
272.63 424.00 0.43 c p3
272.77 424.80 0.43 c p3
272.92 424.45 0.43 c p3
273.06 424.68 0.43 c p3
273.21 425.27 0.43 c p3
273.36 425.62 0.43 c p3
273.50 424.80 0.43 c p3
273.65 424.45 0.43 c p3
273.79 424.12 0.43 c p3
273.94 423.77 0.43 c p3
274.08 424.00 0.43 c p3
274.23 424.22 0.43 c p3
274.37 424.33 0.43 c p3
274.52 424.33 0.43 c p3
274.67 424.12 0.43 c p3
274.81 423.77 0.43 c p3
274.96 423.88 0.43 c p3
275.10 423.77 0.43 c p3
275.25 423.88 0.43 c p3
275.39 424.12 0.43 c p3
275.54 424.33 0.43 c p3
275.68 424.45 0.43 c p3
275.83 424.22 0.43 c p3
275.98 424.12 0.43 c p3
276.12 424.12 0.43 c p3
276.27 424.00 0.43 c p3
276.41 424.22 0.43 c p3
276.56 425.27 0.43 c p3
276.70 425.27 0.43 c p3
276.85 425.04 0.43 c p3
277.00 425.04 0.43 c p3
277.14 424.92 0.43 c p3
277.29 424.12 0.43 c p3
277.43 423.88 0.43 c p3
277.58 424.22 0.43 c p3
277.72 425.04 0.43 c p3
277.87 424.57 0.43 c p3
278.01 425.27 0.43 c p3
278.16 424.68 0.43 c p3
278.31 424.45 0.43 c p3
278.45 423.88 0.43 c p3
278.60 424.57 0.43 c p3
278.74 424.22 0.43 c p3
278.89 424.57 0.43 c p3
279.03 425.39 0.43 c p3
279.18 424.45 0.43 c p3
279.32 425.51 0.43 c p3
279.47 424.22 0.43 c p3
279.62 424.22 0.43 c p3
279.76 423.65 0.43 c p3
279.91 424.22 0.43 c p3
280.05 423.77 0.43 c p3
280.20 423.88 0.43 c p3
280.34 423.88 0.43 c p3
280.49 423.77 0.43 c p3
280.63 424.33 0.43 c p3
280.78 424.00 0.43 c p3
280.93 423.06 0.43 c p3
281.07 423.18 0.43 c p3
281.22 424.00 0.43 c p3
281.36 424.22 0.43 c p3
281.51 424.92 0.43 c p3
281.65 424.57 0.43 c p3
281.80 424.45 0.43 c p3
281.95 424.12 0.43 c p3
282.09 424.68 0.43 c p3
282.24 423.77 0.43 c p3
282.38 424.57 0.43 c p3
282.53 424.45 0.43 c p3
282.67 424.68 0.43 c p3
282.82 424.68 0.43 c p3
282.96 425.04 0.43 c p3
283.11 424.22 0.43 c p3
283.26 424.45 0.43 c p3
283.40 424.12 0.43 c p3
283.55 423.53 0.43 c p3
283.69 424.00 0.43 c p3
283.84 423.88 0.43 c p3
283.98 424.80 0.43 c p3
284.13 424.57 0.43 c p3
284.27 424.57 0.43 c p3
284.42 424.45 0.43 c p3
284.57 423.77 0.43 c p3
284.71 424.00 0.43 c p3
284.86 424.00 0.43 c p3
285.00 423.88 0.43 c p3
285.15 424.33 0.43 c p3
285.29 425.39 0.43 c p3
285.44 424.12 0.43 c p3
285.58 423.88 0.43 c p3
285.73 423.65 0.43 c p3
285.88 422.83 0.43 c p3
286.02 423.30 0.43 c p3
286.17 424.33 0.43 c p3
286.31 424.00 0.43 c p3
286.46 423.88 0.43 c p3
286.60 424.45 0.43 c p3
286.75 423.77 0.43 c p3
286.89 424.22 0.43 c p3
287.04 424.57 0.43 c p3
287.19 423.41 0.43 c p3
287.33 424.12 0.43 c p3
287.48 425.04 0.43 c p3
287.62 424.57 0.43 c p3
287.77 424.80 0.43 c p3
287.91 424.68 0.43 c p3
288.06 424.12 0.43 c p3
288.21 424.22 0.43 c p3
288.35 424.00 0.43 c p3
288.50 424.22 0.43 c p3
288.64 424.57 0.43 c p3
288.79 424.57 0.43 c p3
288.93 425.51 0.43 c p3
289.08 425.04 0.43 c p3
289.22 424.33 0.43 c p3
289.37 424.00 0.43 c p3
289.52 423.88 0.43 c p3
289.66 424.22 0.43 c p3
289.81 424.33 0.43 c p3
289.95 425.04 0.43 c p3
290.10 424.92 0.43 c p3
290.24 424.33 0.43 c p3
290.39 424.80 0.43 c p3
290.53 424.33 0.43 c p3
290.68 423.53 0.43 c p3
290.83 423.88 0.43 c p3
290.97 424.22 0.43 c p3
291.12 424.45 0.43 c p3
291.26 424.57 0.43 c p3
291.41 424.57 0.43 c p3
291.55 424.00 0.43 c p3
291.70 423.88 0.43 c p3
291.84 423.77 0.43 c p3
291.99 424.33 0.43 c p3
292.14 423.65 0.43 c p3
292.28 424.22 0.43 c p3
292.43 424.12 0.43 c p3
292.57 423.77 0.43 c p3
292.72 424.12 0.43 c p3
292.86 424.00 0.43 c p3
293.01 423.77 0.43 c p3
293.16 424.00 0.43 c p3
293.30 424.22 0.43 c p3
293.45 424.68 0.43 c p3
293.59 424.92 0.43 c p3
293.74 425.15 0.43 c p3
293.88 425.15 0.43 c p3
294.03 425.15 0.43 c p3
294.17 424.68 0.43 c p3
294.32 425.04 0.43 c p3
294.47 424.68 0.43 c p3
294.61 424.68 0.43 c p3
294.76 424.92 0.43 c p3
294.90 425.27 0.43 c p3
295.05 424.57 0.43 c p3
295.19 425.15 0.43 c p3
295.34 424.22 0.43 c p3
295.48 424.00 0.43 c p3
295.63 424.22 0.43 c p3
295.78 424.22 0.43 c p3
295.92 424.68 0.43 c p3
296.07 425.04 0.43 c p3
296.21 425.04 0.43 c p3
296.36 424.80 0.43 c p3
296.50 424.45 0.43 c p3
296.65 424.45 0.43 c p3
296.79 423.18 0.43 c p3
296.94 424.00 0.43 c p3
297.09 424.45 0.43 c p3
297.23 424.33 0.43 c p3
297.38 424.45 0.43 c p3
297.52 425.15 0.43 c p3
297.67 423.53 0.43 c p3
297.81 423.77 0.43 c p3
297.96 423.65 0.43 c p3
298.11 424.45 0.43 c p3
298.25 424.22 0.43 c p3
298.40 424.57 0.43 c p3
298.54 424.80 0.43 c p3
298.69 425.39 0.43 c p3
298.83 424.80 0.43 c p3
298.98 424.57 0.43 c p3
299.12 424.68 0.43 c p3
299.27 424.45 0.43 c p3
299.42 424.92 0.43 c p3
299.56 424.80 0.43 c p3
299.71 425.86 0.43 c p3
299.85 425.15 0.43 c p3
300.00 425.27 0.43 c p3
300.14 424.45 0.43 c p3
300.29 424.57 0.43 c p3
300.43 424.22 0.43 c p3
300.58 424.45 0.43 c p3
300.73 425.15 0.43 c p3
300.87 424.92 0.43 c p3
301.02 424.68 0.43 c p3
301.16 424.45 0.43 c p3
301.31 425.04 0.43 c p3
301.45 424.33 0.43 c p3
301.60 424.33 0.43 c p3
301.74 424.80 0.43 c p3
301.89 424.68 0.43 c p3
302.04 424.68 0.43 c p3
302.18 425.62 0.43 c p3
302.33 425.15 0.43 c p3
302.47 424.80 0.43 c p3
302.62 423.88 0.43 c p3
302.76 423.77 0.43 c p3
302.91 424.80 0.43 c p3
303.06 424.22 0.43 c p3
303.20 424.45 0.43 c p3
303.35 424.68 0.43 c p3
303.49 424.57 0.43 c p3
303.64 424.33 0.43 c p3
303.78 424.45 0.43 c p3
303.93 423.88 0.43 c p3
304.07 423.88 0.43 c p3
304.22 424.68 0.43 c p3
304.37 424.92 0.43 c p3
304.51 424.33 0.43 c p3
304.66 424.45 0.43 c p3
304.80 424.45 0.43 c p3
304.95 425.15 0.43 c p3
305.09 424.45 0.43 c p3
305.24 424.22 0.43 c p3
305.38 425.27 0.43 c p3
305.53 424.68 0.43 c p3
305.68 425.51 0.43 c p3
305.82 425.39 0.43 c p3
305.97 425.39 0.43 c p3
306.11 425.39 0.43 c p3
306.26 424.68 0.43 c p3
306.40 424.45 0.43 c p3
306.55 423.88 0.43 c p3
306.69 424.57 0.43 c p3
306.84 425.39 0.43 c p3
306.99 425.27 0.43 c p3
307.13 424.12 0.43 c p3
307.28 424.92 0.43 c p3
307.42 424.12 0.43 c p3
307.57 423.88 0.43 c p3
307.71 424.22 0.43 c p3
307.86 424.68 0.43 c p3
308.01 424.33 0.43 c p3
308.15 425.15 0.43 c p3
308.30 424.57 0.43 c p3
308.44 424.22 0.43 c p3
308.59 424.00 0.43 c p3
308.73 424.22 0.43 c p3
308.88 424.33 0.43 c p3
309.02 424.12 0.43 c p3
309.17 424.00 0.43 c p3
309.32 425.27 0.43 c p3
309.46 425.04 0.43 c p3
309.61 424.80 0.43 c p3
309.75 424.80 0.43 c p3
309.90 423.77 0.43 c p3
310.04 424.57 0.43 c p3
310.19 424.12 0.43 c p3
310.33 424.57 0.43 c p3
310.48 425.62 0.43 c p3
310.63 425.39 0.43 c p3
310.77 425.86 0.43 c p3
310.92 425.27 0.43 c p3
311.06 424.45 0.43 c p3
311.21 424.12 0.43 c p3
311.35 424.80 0.43 c p3
311.50 424.92 0.43 c p3
311.64 425.15 0.43 c p3
311.79 424.45 0.43 c p3
311.94 425.27 0.43 c p3
312.08 424.68 0.43 c p3
312.23 424.80 0.43 c p3
312.37 424.12 0.43 c p3
312.52 423.88 0.43 c p3
312.66 424.33 0.43 c p3
312.81 424.33 0.43 c p3
312.96 424.45 0.43 c p3
313.10 425.51 0.43 c p3
313.25 424.92 0.43 c p3
313.39 424.45 0.43 c p3
313.54 423.65 0.43 c p3
313.68 424.12 0.43 c p3
313.83 424.12 0.43 c p3
313.97 424.22 0.43 c p3
314.12 424.80 0.43 c p3
314.27 424.57 0.43 c p3
314.41 425.04 0.43 c p3
314.56 423.88 0.43 c p3
314.70 424.68 0.43 c p3
314.85 423.88 0.43 c p3
314.99 424.45 0.43 c p3
315.14 424.57 0.43 c p3
315.28 424.68 0.43 c p3
315.43 424.33 0.43 c p3
315.58 424.80 0.43 c p3
315.72 425.15 0.43 c p3
315.87 424.92 0.43 c p3
316.01 424.45 0.43 c p3
316.16 424.57 0.43 c p3
316.30 424.33 0.43 c p3
316.45 424.80 0.43 c p3
316.59 425.15 0.43 c p3
316.74 425.15 0.43 c p3
316.89 425.39 0.43 c p3
317.03 424.92 0.43 c p3
317.18 423.65 0.43 c p3
317.32 423.88 0.43 c p3
317.47 424.57 0.43 c p3
317.61 424.92 0.43 c p3
317.76 424.80 0.43 c p3
317.91 424.45 0.43 c p3
318.05 424.57 0.43 c p3
318.20 424.33 0.43 c p3
318.34 424.22 0.43 c p3
318.49 424.00 0.43 c p3
318.63 424.00 0.43 c p3
318.78 424.45 0.43 c p3
318.92 423.88 0.43 c p3
319.07 424.00 0.43 c p3
319.22 424.22 0.43 c p3
319.36 423.88 0.43 c p3
319.51 423.88 0.43 c p3
319.65 423.30 0.43 c p3
319.80 423.65 0.43 c p3
319.94 423.06 0.43 c p3
320.09 424.00 0.43 c p3
320.23 424.22 0.43 c p3
320.38 424.45 0.43 c p3
320.53 424.57 0.43 c p3
320.67 425.04 0.43 c p3
320.82 424.33 0.43 c p3
320.96 423.88 0.43 c p3
321.11 424.68 0.43 c p3
321.25 424.92 0.43 c p3
321.40 425.04 0.43 c p3
321.54 424.45 0.43 c p3
321.69 425.04 0.43 c p3
321.84 424.22 0.43 c p3
321.98 424.33 0.43 c p3
322.13 424.12 0.43 c p3
322.27 424.45 0.43 c p3
322.42 424.57 0.43 c p3
322.56 424.68 0.43 c p3
322.71 425.62 0.43 c p3
322.85 424.57 0.43 c p3
323.00 424.22 0.43 c p3
323.15 423.53 0.43 c p3
323.29 425.27 0.43 c p3
323.44 424.57 0.43 c p3
323.58 425.04 0.43 c p3
323.73 424.92 0.43 c p3
323.87 424.92 0.43 c p3
324.02 424.68 0.43 c p3
324.17 423.53 0.43 c p3
324.31 423.65 0.43 c p3
324.46 422.83 0.43 c p3
324.60 423.65 0.43 c p3
324.75 423.53 0.43 c p3
324.89 424.45 0.43 c p3
325.04 424.00 0.43 c p3
325.18 423.77 0.43 c p3
325.33 424.92 0.43 c p3
325.48 422.83 0.43 c p3
325.62 424.33 0.43 c p3
325.77 423.30 0.43 c p3
325.91 424.22 0.43 c p3
326.06 423.88 0.43 c p3
326.20 424.80 0.43 c p3
326.35 424.92 0.43 c p3
326.49 424.57 0.43 c p3
326.64 424.68 0.43 c p3
326.79 424.22 0.43 c p3
326.93 424.33 0.43 c p3
327.08 424.92 0.43 c p3
327.22 424.80 0.43 c p3
327.37 425.04 0.43 c p3
327.51 424.92 0.43 c p3
327.66 425.27 0.43 c p3
327.80 424.22 0.43 c p3
327.95 424.33 0.43 c p3
328.10 425.04 0.43 c p3
328.24 424.22 0.43 c p3
328.39 423.65 0.43 c p3
328.53 425.15 0.43 c p3
328.68 424.92 0.43 c p3
328.82 424.68 0.43 c p3
328.97 424.00 0.43 c p3
329.12 424.80 0.43 c p3
329.26 423.88 0.43 c p3
329.41 424.45 0.43 c p3
329.55 424.33 0.43 c p3
329.70 424.68 0.43 c p3
329.84 423.88 0.43 c p3
329.99 424.33 0.43 c p3
330.13 424.00 0.43 c p3
330.28 423.77 0.43 c p3
330.43 423.77 0.43 c p3
330.57 423.77 0.43 c p3
330.72 423.06 0.43 c p3
330.86 423.65 0.43 c p3
331.01 423.77 0.43 c p3
331.15 424.33 0.43 c p3
331.30 424.45 0.43 c p3
331.44 424.57 0.43 c p3
331.59 424.33 0.43 c p3
331.74 423.65 0.43 c p3
331.88 424.22 0.43 c p3
332.03 424.92 0.43 c p3
332.17 424.80 0.43 c p3
332.32 424.68 0.43 c p3
332.46 425.04 0.43 c p3
332.61 425.15 0.43 c p3
332.75 424.68 0.43 c p3
332.90 424.45 0.43 c p3
333.05 424.33 0.43 c p3
333.19 423.65 0.43 c p3
333.34 424.92 0.43 c p3
333.48 424.57 0.43 c p3
333.63 424.57 0.43 c p3
333.77 424.57 0.43 c p3
333.92 424.57 0.43 c p3
334.07 424.22 0.43 c p3
334.21 424.12 0.43 c p3
334.36 424.45 0.43 c p3
334.50 424.33 0.43 c p3
334.65 424.22 0.43 c p3
334.79 425.15 0.43 c p3
334.94 424.22 0.43 c p3
335.08 424.68 0.43 c p3
335.23 424.22 0.43 c p3
335.38 424.68 0.43 c p3
335.52 423.65 0.43 c p3
335.67 423.53 0.43 c p3
335.81 424.33 0.43 c p3
335.96 423.77 0.43 c p3
336.10 423.88 0.43 c p3
336.25 423.88 0.43 c p3
336.39 424.33 0.43 c p3
336.54 423.53 0.43 c p3
336.69 423.88 0.43 c p3
336.83 424.57 0.43 c p3
336.98 424.22 0.43 c p3
337.12 424.92 0.43 c p3
337.27 424.33 0.43 c p3
337.41 424.68 0.43 c p3
337.56 424.00 0.43 c p3
337.70 424.12 0.43 c p3
337.85 424.33 0.43 c p3
338.00 424.57 0.43 c p3
338.14 424.57 0.43 c p3
338.29 424.57 0.43 c p3
338.43 425.04 0.43 c p3
338.58 425.74 0.43 c p3
338.72 425.27 0.43 c p3
338.87 424.80 0.43 c p3
339.02 423.77 0.43 c p3
339.16 424.33 0.43 c p3
339.31 424.57 0.43 c p3
339.45 425.39 0.43 c p3
339.60 424.57 0.43 c p3
339.74 424.68 0.43 c p3
339.89 425.04 0.43 c p3
340.03 424.80 0.43 c p3
340.18 424.22 0.43 c p3
340.33 424.12 0.43 c p3
340.47 423.88 0.43 c p3
340.62 424.33 0.43 c p3
340.76 424.00 0.43 c p3
340.91 423.77 0.43 c p3
341.05 424.22 0.43 c p3
341.20 423.53 0.43 c p3
341.34 424.00 0.43 c p3
341.49 423.53 0.43 c p3
341.64 424.12 0.43 c p3
341.78 423.88 0.43 c p3
341.93 424.33 0.43 c p3
342.07 424.68 0.43 c p3
342.22 425.15 0.43 c p3
342.36 424.45 0.43 c p3
342.51 424.33 0.43 c p3
342.65 424.45 0.43 c p3
342.80 424.57 0.43 c p3
342.95 424.22 0.43 c p3
343.09 425.04 0.43 c p3
343.24 425.39 0.43 c p3
343.38 425.51 0.43 c p3
343.53 424.92 0.43 c p3
343.67 425.04 0.43 c p3
343.82 424.68 0.43 c p3
343.97 424.22 0.43 c p3
344.11 423.88 0.43 c p3
344.26 425.15 0.43 c p3
344.40 425.39 0.43 c p3
344.55 425.27 0.43 c p3
344.69 424.33 0.43 c p3
344.84 424.12 0.43 c p3
344.98 423.65 0.43 c p3
345.13 424.00 0.43 c p3
345.28 423.88 0.43 c p3
345.42 424.00 0.43 c p3
345.57 424.33 0.43 c p3
345.71 424.12 0.43 c p3
345.86 424.33 0.43 c p3
346.00 423.53 0.43 c p3
346.15 423.88 0.43 c p3
346.29 423.30 0.43 c p3
346.44 423.88 0.43 c p3
346.59 424.33 0.43 c p3
346.73 423.77 0.43 c p3
346.88 424.45 0.43 c p3
347.02 424.92 0.43 c p3
347.17 425.51 0.43 c p3
347.31 424.22 0.43 c p3
347.46 424.33 0.43 c p3
347.60 424.68 0.43 c p3
347.75 423.88 0.43 c p3
347.90 424.22 0.43 c p3
348.04 425.74 0.43 c p3
348.19 425.39 0.43 c p3
348.33 424.45 0.43 c p3
348.48 424.68 0.43 c p3
348.62 424.57 0.43 c p3
348.77 424.22 0.43 c p3
348.92 424.68 0.43 c p3
349.06 424.45 0.43 c p3
349.21 424.92 0.43 c p3
349.35 424.92 0.43 c p3
349.50 425.39 0.43 c p3
349.64 424.68 0.43 c p3
349.79 424.12 0.43 c p3
349.93 424.00 0.43 c p3
350.08 424.57 0.43 c p3
350.23 423.88 0.43 c p3
350.37 424.22 0.43 c p3
350.52 424.00 0.43 c p3
350.66 423.77 0.43 c p3
350.81 423.41 0.43 c p3
350.95 424.00 0.43 c p3
351.10 423.18 0.43 c p3
351.24 423.88 0.43 c p3
351.39 424.22 0.43 c p3
351.54 424.22 0.43 c p3
351.68 424.22 0.43 c p3
351.83 424.22 0.43 c p3
351.97 424.33 0.43 c p3
352.12 423.53 0.43 c p3
352.26 424.68 0.43 c p3
352.41 424.00 0.43 c p3
352.55 424.22 0.43 c p3
352.70 424.92 0.43 c p3
352.85 424.45 0.43 c p3
352.99 424.80 0.43 c p3
353.14 424.45 0.43 c p3
353.28 423.88 0.43 c p3
353.43 424.57 0.43 c p3
353.57 424.12 0.43 c p3
353.72 424.45 0.43 c p3
353.86 424.22 0.43 c p3
354.01 424.80 0.43 c p3
354.16 425.39 0.43 c p3
354.30 424.80 0.43 c p3
354.45 424.12 0.43 c p3
354.59 424.22 0.43 c p3
354.74 424.45 0.43 c p3
354.88 424.57 0.43 c p3
355.03 424.22 0.43 c p3
355.18 424.12 0.43 c p3
355.32 424.68 0.43 c p3
355.47 424.68 0.43 c p3
355.61 424.12 0.43 c p3
355.76 423.77 0.43 c p3
355.90 423.88 0.43 c p3
356.05 423.65 0.43 c p3
356.19 423.88 0.43 c p3
356.34 424.68 0.43 c p3
356.49 424.33 0.43 c p3
356.63 423.65 0.43 c p3
356.78 424.57 0.43 c p3
356.92 424.33 0.43 c p3
357.07 424.12 0.43 c p3
357.21 424.12 0.43 c p3
357.36 424.00 0.43 c p3
357.50 425.04 0.43 c p3
357.65 424.68 0.43 c p3
357.80 424.80 0.43 c p3
357.94 424.33 0.43 c p3
358.09 424.68 0.43 c p3
358.23 424.22 0.43 c p3
358.38 424.00 0.43 c p3
358.52 424.68 0.43 c p3
358.67 424.22 0.43 c p3
358.81 424.45 0.43 c p3
358.96 425.15 0.43 c p3
359.11 424.12 0.43 c p3
359.25 424.33 0.43 c p3
359.40 423.88 0.43 c p3
359.54 423.77 0.43 c p3
359.69 423.88 0.43 c p3
359.83 423.88 0.43 c p3
359.98 424.57 0.43 c p3
360.13 424.68 0.43 c p3
360.27 424.33 0.43 c p3
360.42 424.12 0.43 c p3
360.56 424.22 0.43 c p3
360.71 424.00 0.43 c p3
360.85 423.88 0.43 c p3
361.00 424.00 0.43 c p3
361.14 423.06 0.43 c p3
361.29 424.22 0.43 c p3
361.44 424.12 0.43 c p3
361.58 424.22 0.43 c p3
361.73 424.00 0.43 c p3
361.87 423.53 0.43 c p3
362.02 423.77 0.43 c p3
362.16 423.88 0.43 c p3
362.31 424.12 0.43 c p3
362.45 424.00 0.43 c p3
362.60 424.00 0.43 c p3
362.75 424.22 0.43 c p3
362.89 424.33 0.43 c p3
363.04 424.33 0.43 c p3
363.18 424.22 0.43 c p3
363.33 424.22 0.43 c p3
363.47 424.22 0.43 c p3
363.62 425.39 0.43 c p3
363.76 424.68 0.43 c p3
363.91 424.80 0.43 c p3
364.06 425.04 0.43 c p3
364.20 423.65 0.43 c p3
364.35 423.41 0.43 c p3
364.49 424.00 0.43 c p3
364.64 423.53 0.43 c p3
364.78 423.88 0.43 c p3
364.93 424.33 0.43 c p3
365.08 424.33 0.43 c p3
365.22 423.53 0.43 c p3
365.37 424.12 0.43 c p3
365.51 423.53 0.43 c p3
365.66 422.95 0.43 c p3
365.80 423.30 0.43 c p3
365.95 424.12 0.43 c p3
366.09 423.53 0.43 c p3
366.24 423.77 0.43 c p3
366.39 424.00 0.43 c p3
366.53 423.88 0.43 c p3
366.68 423.41 0.43 c p3
366.82 423.30 0.43 c p3
366.97 423.65 0.43 c p3
367.11 423.65 0.43 c p3
367.26 424.12 0.43 c p3
367.40 423.88 0.43 c p3
367.55 424.22 0.43 c p3
367.70 424.22 0.43 c p3
367.84 424.68 0.43 c p3
367.99 424.45 0.43 c p3
368.13 423.53 0.43 c p3
368.28 424.33 0.43 c p3
368.42 424.57 0.43 c p3
368.57 424.00 0.43 c p3
368.71 425.04 0.43 c p3
368.86 424.33 0.43 c p3
369.01 424.22 0.43 c p3
369.15 423.88 0.43 c p3
369.30 424.12 0.43 c p3
369.44 423.65 0.43 c p3
369.59 424.57 0.43 c p3
369.73 424.57 0.43 c p3
369.88 424.68 0.43 c p3
370.03 424.22 0.43 c p3
370.17 423.88 0.43 c p3
370.32 424.22 0.43 c p3
370.46 423.77 0.43 c p3
370.61 423.77 0.43 c p3
370.75 424.12 0.43 c p3
370.90 424.57 0.43 c p3
371.04 424.12 0.43 c p3
371.19 424.12 0.43 c p3
371.34 424.00 0.43 c p3
371.48 423.41 0.43 c p3
371.63 423.30 0.43 c p3
371.77 423.77 0.43 c p3
371.92 423.30 0.43 c p3
372.06 423.65 0.43 c p3
372.21 424.22 0.43 c p3
372.35 424.12 0.43 c p3
372.50 424.33 0.43 c p3
372.65 423.41 0.43 c p3
372.79 424.12 0.43 c p3
372.94 423.65 0.43 c p3
373.08 424.22 0.43 c p3
373.23 423.65 0.43 c p3
373.37 424.80 0.43 c p3
373.52 424.12 0.43 c p3
373.66 424.00 0.43 c p3
373.81 424.12 0.43 c p3
373.96 424.45 0.43 c p3
374.10 424.00 0.43 c p3
374.25 424.45 0.43 c p3
374.39 424.33 0.43 c p3
374.54 425.04 0.43 c p3
374.68 424.68 0.43 c p3
374.83 424.68 0.43 c p3
374.98 424.45 0.43 c p3
375.12 423.88 0.43 c p3
375.27 423.88 0.43 c p3
375.41 423.88 0.43 c p3
375.56 423.65 0.43 c p3
375.70 423.65 0.43 c p3
375.85 424.00 0.43 c p3
375.99 424.45 0.43 c p3
376.14 424.33 0.43 c p3
376.29 423.77 0.43 c p3
376.43 423.53 0.43 c p3
376.58 423.53 0.43 c p3
376.72 423.88 0.43 c p3
376.87 424.12 0.43 c p3
377.01 422.95 0.43 c p3
377.16 424.22 0.43 c p3
377.30 423.65 0.43 c p3
377.45 423.65 0.43 c p3
377.60 422.95 0.43 c p3
377.74 423.53 0.43 c p3
377.89 424.00 0.43 c p3
378.03 424.12 0.43 c p3
378.18 424.68 0.43 c p3
378.32 424.80 0.43 c p3
378.47 424.57 0.43 c p3
378.61 424.22 0.43 c p3
378.76 424.45 0.43 c p3
378.91 423.53 0.43 c p3
379.05 424.33 0.43 c p3
379.20 424.00 0.43 c p3
379.34 424.00 0.43 c p3
379.49 424.45 0.43 c p3
379.63 424.22 0.43 c p3
379.78 423.77 0.43 c p3
379.93 423.06 0.43 c p3
380.07 424.00 0.43 c p3
380.22 424.00 0.43 c p3
380.36 423.88 0.43 c p3
380.51 424.12 0.43 c p3
380.65 424.33 0.43 c p3
380.80 424.22 0.43 c p3
380.94 424.22 0.43 c p3
381.09 423.88 0.43 c p3
381.24 423.77 0.43 c p3
381.38 422.95 0.43 c p3
381.53 423.53 0.43 c p3
381.67 423.88 0.43 c p3
381.82 423.77 0.43 c p3
381.96 424.22 0.43 c p3
382.11 424.33 0.43 c p3
382.25 423.18 0.43 c p3
382.40 423.06 0.43 c p3
0.00 0.00 432.00 576.00 cl
0 0 0 srgb
0.75 setlinewidth
[] 0 setdash
1 setlinecap
1 setlinejoin
10.00 setmiterlimit
np
236.96 345.60 m
145.59 0 l
o
np
236.96 345.60 m
0 -5.76 l
o
np
266.08 345.60 m
0 -5.76 l
o
np
295.19 345.60 m
0 -5.76 l
o
np
324.31 345.60 m
0 -5.76 l
o
np
353.43 345.60 m
0 -5.76 l
o
np
382.55 345.60 m
0 -5.76 l
o
/Font1 findfont 10 s
236.96 329.47 (0) .5 0 t
266.08 329.47 (200) .5 0 t
295.19 329.47 (400) .5 0 t
324.31 329.47 (600) .5 0 t
353.43 329.47 (800) .5 0 t
382.55 329.47 (1000) .5 0 t
np
216.00 352.00 m
0 160.01 l
o
np
216.00 352.00 m
-5.76 0 l
o
np
216.00 384.00 m
-5.76 0 l
o
np
216.00 416.01 m
-5.76 0 l
o
np
216.00 448.01 m
-5.76 0 l
o
np
216.00 480.01 m
-5.76 0 l
o
np
216.00 512.01 m
-5.76 0 l
o
209.09 348.41 (0.0) 1 0 t
209.09 380.41 (0.1) 1 0 t
209.09 412.42 (0.2) 1 0 t
209.09 444.42 (0.3) 1 0 t
209.09 476.42 (0.4) 1 0 t
209.09 508.42 (0.5) 1 0 t
np
216.00 345.60 m
172.80 0 l
0 172.80 l
-172.80 0 l
0 -172.80 l
o
0.00 0.00 432.00 576.00 cl
/Font1 findfont 10 s
0 0 0 srgb
302.40 313.34 (Time / ms \(total\)) .5 0 t
190.66 432.00 (U / V) .5 90 t
216.00 345.60 388.80 518.40 cl
0 0 0 srgb
0.38 setlinewidth
[ 1.13 1.88] 0 setdash
1 setlinecap
1 setlinejoin
10.00 setmiterlimit
np
222.69 345.60 m
0 172.80 l
o
np
233.76 345.60 m
0 172.80 l
o
np
238.56 345.60 m
0 172.80 l
o
np
258.94 345.60 m
0 172.80 l
o
86.40 57.60 388.80 288.00 cl
1 0 0 srgb
1.50 setlinewidth
[] 0 setdash
1 setlinecap
1 setlinejoin
10.00 setmiterlimit
np
97.60 279.47 m
1.41 -21.81 l
1.40 -19.53 l
1.41 -17.51 l
1.41 -15.69 l
1.41 -14.05 l
1.40 -12.60 l
1.41 -11.28 l
1.41 -10.11 l
1.40 -9.07 l
1.41 -8.11 l
1.41 -7.28 l
1.40 -6.52 l
1.41 -5.84 l
1.41 -5.23 l
1.41 -4.69 l
1.40 -4.20 l
1.41 -3.77 l
1.41 -3.37 l
1.40 -3.03 l
1.41 -2.70 l
1.41 -2.43 l
1.40 -2.18 l
1.41 -1.94 l
1.41 -1.75 l
1.41 -1.57 l
1.40 -1.40 l
1.41 -1.25 l
1.41 -1.13 l
1.40 -1.01 l
1.41 -0.90 l
1.41 -0.81 l
1.41 -0.73 l
1.40 -0.65 l
1.41 -0.58 l
1.41 -0.52 l
1.40 -0.47 l
1.41 -0.42 l
1.41 -0.37 l
1.40 -0.34 l
1.41 -0.30 l
1.41 -0.27 l
1.41 -0.24 l
1.40 -0.22 l
1.41 -0.20 l
1.41 -0.17 l
1.40 -0.16 l
1.41 -0.14 l
1.41 -0.12 l
1.40 -0.11 l
1.41 -0.10 l
1.41 -0.09 l
1.41 -0.09 l
1.40 -0.07 l
1.41 -0.06 l
1.41 -0.06 l
1.40 -0.05 l
1.41 -0.05 l
1.41 -0.04 l
1.41 -0.04 l
1.40 -0.03 l
1.41 -0.03 l
1.41 -0.03 l
1.40 -0.02 l
1.41 -0.02 l
1.41 -0.02 l
1.40 -0.02 l
1.41 -0.02 l
1.41 -0.01 l
1.41 -0.01 l
1.40 -0.01 l
1.41 -0.01 l
1.41 -0.01 l
1.40 -0.01 l
1.41 -0.01 l
1.41 -0.01 l
1.40 0 l
1.41 -0.01 l
1.41 0 l
1.41 -0.01 l
1.40 0 l
1.41 0 l
1.41 -0.01 l
1.40 0 l
1.41 0 l
1.41 0 l
1.41 0 l
1.40 -0.01 l
1.41 0 l
1.41 0 l
1.40 0 l
1.41 0 l
1.41 0 l
1.40 0 l
1.41 0 l
1.41 -0.01 l
1.41 0 l
1.40 0 l
1.41 0 l
1.41 0 l
238.30 69.73 lineto
1.41 0 l
1.41 0 l
1.40 0 l
1.41 0 l
1.41 0 l
1.41 0 l
1.40 0 l
1.41 0 l
1.41 0 l
1.40 0 l
1.41 0 l
1.41 0 l
1.40 0 l
1.41 0 l
1.41 0 l
1.41 0 l
1.40 0 l
1.41 0 l
1.41 0 l
1.40 0 l
1.41 0 l
1.41 0 l
1.41 0 l
1.40 0 l
1.41 0 l
1.41 0 l
1.40 0 l
1.41 0 l
1.41 0 l
1.40 0 l
1.41 0 l
1.41 0 l
1.41 0 l
1.40 0 l
1.41 0 l
1.41 0 l
1.40 0 l
1.41 0 l
1.41 0 l
1.40 0 l
1.41 0 l
1.41 0 l
1.41 0 l
1.40 0 l
1.41 0 l
1.41 0 l
1.40 0 l
1.41 0 l
1.41 0 l
1.41 0 l
1.40 0 l
1.41 0 l
1.41 0 l
1.40 0 l
1.41 0 l
1.41 0 l
1.40 0 l
1.41 0 l
1.41 0 l
1.41 0 l
1.40 0 l
1.41 0 l
1.41 0 l
1.40 0 l
1.41 0 l
1.41 0 l
1.40 0 l
1.41 0 l
1.41 0 l
1.41 0 l
1.40 0 l
1.41 0 l
1.41 0 l
1.40 0 l
1.41 0 l
1.41 0 l
1.41 0 l
1.40 0 l
1.41 0 l
1.41 0 l
1.40 0 l
1.41 0 l
1.41 0 l
1.40 0 l
1.41 0 l
1.41 0 l
1.41 0 l
1.40 0 l
1.41 0 l
1.41 0 l
1.40 0 l
1.41 0 l
1.41 0 l
1.40 0 l
1.41 0 l
1.41 0 l
1.41 0 l
1.40 0 l
1.41 0 l
o
0.00 0.00 432.00 576.00 cl
0 0 0 srgb
0.75 setlinewidth
[] 0 setdash
1 setlinecap
1 setlinejoin
10.00 setmiterlimit
np
97.60 57.60 m
280.00 0 l
o
np
97.60 57.60 m
0 -5.76 l
o
np
153.60 57.60 m
0 -5.76 l
o
np
209.60 57.60 m
0 -5.76 l
o
np
265.60 57.60 m
0 -5.76 l
o
np
321.60 57.60 m
0 -5.76 l
o
np
377.60 57.60 m
0 -5.76 l
o
/Font1 findfont 10 s
97.60 41.47 (0) .5 0 t
153.60 41.47 (200) .5 0 t
209.60 41.47 (400) .5 0 t
265.60 41.47 (600) .5 0 t
321.60 41.47 (800) .5 0 t
377.60 41.47 (1000) .5 0 t
np
86.40 66.13 m
0 180.46 l
o
np
86.40 66.13 m
-5.76 0 l
o
np
86.40 126.29 m
-5.76 0 l
o
np
86.40 186.44 m
-5.76 0 l
o
np
86.40 246.59 m
-5.76 0 l
o
79.49 62.54 (0.00) 1 0 t
79.49 122.70 (0.05) 1 0 t
79.49 182.85 (0.10) 1 0 t
79.49 243.00 (0.15) 1 0 t
np
86.40 57.60 m
302.40 0 l
0 230.40 l
-302.40 0 l
0 -230.40 l
o
0.00 0.00 432.00 576.00 cl
/Font1 findfont 10 s
0 0 0 srgb
237.60 13.82 (Time / ms \(after pulse\)) .5 0 t
49.54 172.80 (Absorbance A) .5 90 t
86.40 57.60 388.80 288.00 cl
/bg { 1 1 1 srgb } def
0 0 0 srgb
0.75 setlinewidth
[] 0 setdash
1 setlinecap
1 setlinejoin
10.00 setmiterlimit
100.96 229.99 0.65 c p3
101.24 228.84 0.65 c p3
101.52 222.03 0.65 c p3
101.80 223.16 0.65 c p3
102.08 211.97 0.65 c p3
102.36 210.87 0.65 c p3
102.64 210.87 0.65 c p3
102.92 208.66 0.65 c p3
103.20 204.28 0.65 c p3
103.48 205.38 0.65 c p3
103.76 208.66 0.65 c p3
104.04 194.74 0.65 c p3
104.32 196.88 0.65 c p3
104.60 194.74 0.65 c p3
104.88 188.35 0.65 c p3
105.16 185.19 0.65 c p3
105.44 189.41 0.65 c p3
105.72 179.96 0.65 c p3
106.00 181.00 0.65 c p3
106.28 178.92 0.65 c p3
106.56 172.90 0.65 c p3
106.84 165.76 0.65 c p3
107.12 169.82 0.65 c p3
107.40 166.77 0.65 c p3
107.68 167.79 0.65 c p3
107.96 161.72 0.65 c p3
108.24 165.76 0.65 c p3
108.52 159.72 0.65 c p3
108.80 146.86 0.65 c p3
109.08 149.80 0.65 c p3
109.36 146.86 0.65 c p3
109.64 143.13 0.65 c p3
109.92 151.77 0.65 c p3
110.20 149.80 0.65 c p3
110.48 138.30 0.65 c p3
110.76 140.23 0.65 c p3
111.04 140.23 0.65 c p3
111.32 140.23 0.65 c p3
111.60 136.38 0.65 c p3
111.88 141.19 0.65 c p3
112.16 143.13 0.65 c p3
112.44 144.10 0.65 c p3
112.72 135.43 0.65 c p3
113.00 143.13 0.65 c p3
113.28 135.43 0.65 c p3
113.56 132.57 0.65 c p3
113.84 134.47 0.65 c p3
114.12 128.78 0.65 c p3
114.40 128.78 0.65 c p3
114.68 129.72 0.65 c p3
114.96 129.72 0.65 c p3
115.24 123.15 0.65 c p3
115.52 129.72 0.65 c p3
115.80 122.21 0.65 c p3
116.08 118.65 0.65 c p3
116.36 116.81 0.65 c p3
116.64 114.97 0.65 c p3
116.92 114.97 0.65 c p3
117.20 112.21 0.65 c p3
117.48 106.76 0.65 c p3
117.76 104.05 0.65 c p3
118.04 106.76 0.65 c p3
118.32 108.57 0.65 c p3
118.60 112.21 0.65 c p3
118.88 108.57 0.65 c p3
119.16 110.39 0.65 c p3
119.44 107.66 0.65 c p3
119.72 107.66 0.65 c p3
120.00 107.66 0.65 c p3
120.28 103.15 0.65 c p3
120.56 102.25 0.65 c p3
120.84 100.46 0.65 c p3
121.12 97.79 0.65 c p3
121.40 102.25 0.65 c p3
121.68 101.36 0.65 c p3
121.96 105.86 0.65 c p3
122.24 100.46 0.65 c p3
122.52 97.79 0.65 c p3
122.80 100.46 0.65 c p3
123.08 99.57 0.65 c p3
123.36 103.15 0.65 c p3
123.64 97.79 0.65 c p3
123.92 97.79 0.65 c p3
124.20 102.25 0.65 c p3
124.48 100.46 0.65 c p3
124.76 96.16 0.65 c p3
125.04 92.63 0.65 c p3
125.32 90.87 0.65 c p3
125.60 90.87 0.65 c p3
125.88 92.63 0.65 c p3
126.16 87.37 0.65 c p3
126.44 89.11 0.65 c p3
126.72 90.87 0.65 c p3
127.00 85.63 0.65 c p3
127.28 84.76 0.65 c p3
127.56 88.24 0.65 c p3
127.84 84.76 0.65 c p3
128.12 85.63 0.65 c p3
128.40 90.87 0.65 c p3
128.68 85.63 0.65 c p3
128.96 88.24 0.65 c p3
129.24 89.99 0.65 c p3
129.52 83.89 0.65 c p3
129.80 86.50 0.65 c p3
130.08 89.99 0.65 c p3
130.36 91.75 0.65 c p3
130.64 89.11 0.65 c p3
130.92 88.24 0.65 c p3
131.20 90.87 0.65 c p3
131.48 89.11 0.65 c p3
131.76 90.87 0.65 c p3
132.04 89.11 0.65 c p3
132.32 88.24 0.65 c p3
132.60 83.89 0.65 c p3
132.88 87.37 0.65 c p3
133.16 82.17 0.65 c p3
133.44 80.44 0.65 c p3
133.72 85.63 0.65 c p3
134.00 85.63 0.65 c p3
134.28 74.45 0.65 c p3
134.56 77.01 0.65 c p3
134.84 75.31 0.65 c p3
135.12 80.44 0.65 c p3
135.40 82.17 0.65 c p3
135.68 79.58 0.65 c p3
135.96 78.72 0.65 c p3
136.24 77.01 0.65 c p3
136.52 77.87 0.65 c p3
136.80 80.44 0.65 c p3
137.08 77.87 0.65 c p3
137.36 73.60 0.65 c p3
137.64 75.31 0.65 c p3
137.92 80.44 0.65 c p3
138.20 80.44 0.65 c p3
138.48 80.44 0.65 c p3
138.76 77.87 0.65 c p3
139.04 77.01 0.65 c p3
139.32 77.87 0.65 c p3
139.60 77.87 0.65 c p3
139.88 78.72 0.65 c p3
140.16 79.58 0.65 c p3
216.00 201.60 367.20 247.68 cl
0 0 0 srgb
0.75 setlinewidth
[] 0 setdash
1 setlinecap
1 setlinejoin
10.00 setmiterlimit
221.60 223.11 0.43 c p1
222.60 226.31 0.43 c p1
223.60 221.66 0.43 c p1
224.60 227.77 0.43 c p1
225.60 216.95 0.43 c p1
226.60 219.80 0.43 c p1
227.60 224.08 0.43 c p1
228.60 225.24 0.43 c p1
229.60 223.35 0.43 c p1
230.60 228.84 0.43 c p1
231.60 237.24 0.43 c p1
232.60 222.05 0.43 c p1
233.60 228.73 0.43 c p1
234.60 229.46 0.43 c p1
235.60 224.32 0.43 c p1
236.60 223.51 0.43 c p1
237.60 232.71 0.43 c p1
238.60 223.16 0.43 c p1
239.60 227.87 0.43 c p1
240.60 228.24 0.43 c p1
241.60 223.15 0.43 c p1
242.60 216.48 0.43 c p1
243.60 225.05 0.43 c p1
244.60 223.82 0.43 c p1
245.60 228.09 0.43 c p1
246.60 222.63 0.43 c p1
247.60 230.90 0.43 c p1
248.60 225.34 0.43 c p1
249.60 210.42 0.43 c p1
250.60 217.02 0.43 c p1
251.60 215.53 0.43 c p1
252.60 212.91 0.43 c p1
253.60 227.13 0.43 c p1
254.60 226.81 0.43 c p1
255.60 213.42 0.43 c p1
256.60 218.32 0.43 c p1
257.60 220.53 0.43 c p1
258.60 222.70 0.43 c p1
259.60 219.57 0.43 c p1
260.60 228.22 0.43 c p1
261.60 232.90 0.43 c p1
262.60 236.22 0.43 c p1
263.60 226.31 0.43 c p1
264.60 238.73 0.43 c p1
265.60 230.08 0.43 c p1
266.60 227.99 0.43 c p1
267.60 232.37 0.43 c p1
268.60 226.34 0.43 c p1
269.60 228.05 0.43 c p1
270.60 231.01 0.43 c p1
271.60 232.64 0.43 c p1
272.60 225.26 0.43 c p1
273.60 235.80 0.43 c p1
274.60 227.07 0.43 c p1
275.60 223.71 0.43 c p1
276.60 222.65 0.43 c p1
277.60 221.56 0.43 c p1
278.60 222.97 0.43 c p1
279.60 220.58 0.43 c p1
280.60 214.47 0.43 c p1
281.60 212.08 0.43 c p1
282.60 217.07 0.43 c p1
283.60 220.80 0.43 c p1
284.60 227.01 0.43 c p1
285.60 223.23 0.43 c p1
286.60 226.89 0.43 c p1
287.60 224.32 0.43 c p1
288.60 225.45 0.43 c p1
289.60 226.55 0.43 c p1
290.60 221.46 0.43 c p1
291.60 221.29 0.43 c p1
292.60 219.88 0.43 c p1
293.60 217.24 0.43 c p1
294.60 224.32 0.43 c p1
295.60 224.06 0.43 c p1
296.60 231.16 0.43 c p1
297.60 224.71 0.43 c p1
298.60 221.97 0.43 c p1
299.60 226.51 0.43 c p1
300.60 226.15 0.43 c p1
301.60 231.90 0.43 c p1
302.60 225.40 0.43 c p1
303.60 226.21 0.43 c p1
304.60 233.11 0.43 c p1
305.60 231.44 0.43 c p1
306.60 226.32 0.43 c p1
307.60 222.23 0.43 c p1
308.60 220.56 0.43 c p1
309.60 221.27 0.43 c p1
310.60 224.37 0.43 c p1
311.60 217.87 0.43 c p1
312.60 220.92 0.43 c p1
313.60 223.97 0.43 c p1
314.60 217.45 0.43 c p1
315.60 216.89 0.43 c p1
316.60 222.26 0.43 c p1
317.60 218.10 0.43 c p1
318.60 219.87 0.43 c p1
319.60 227.60 0.43 c p1
320.60 221.00 0.43 c p1
321.60 225.12 0.43 c p1
322.60 228.05 0.43 c p1
323.60 220.24 0.43 c p1
324.60 224.31 0.43 c p1
325.60 229.59 0.43 c p1
326.60 232.48 0.43 c p1
327.60 229.36 0.43 c p1
328.60 228.64 0.43 c p1
329.60 232.69 0.43 c p1
330.60 230.74 0.43 c p1
331.60 233.58 0.43 c p1
332.60 231.61 0.43 c p1
333.60 230.84 0.43 c p1
334.60 225.31 0.43 c p1
335.60 230.47 0.43 c p1
336.60 223.75 0.43 c p1
337.60 221.78 0.43 c p1
338.60 229.25 0.43 c p1
339.60 229.61 0.43 c p1
340.60 214.71 0.43 c p1
341.60 218.56 0.43 c p1
342.60 216.57 0.43 c p1
343.60 223.93 0.43 c p1
344.60 226.62 0.43 c p1
345.60 223.41 0.43 c p1
346.60 222.56 0.43 c p1
347.60 220.53 0.43 c p1
348.60 222.00 0.43 c p1
349.60 225.82 0.43 c p1
350.60 222.59 0.43 c p1
351.60 217.05 0.43 c p1
352.60 219.65 0.43 c p1
353.60 226.94 0.43 c p1
354.60 227.21 0.43 c p1
355.60 227.47 0.43 c p1
356.60 224.21 0.43 c p1
357.60 223.29 0.43 c p1
358.60 224.70 0.43 c p1
359.60 224.94 0.43 c p1
360.60 226.34 0.43 c p1
361.60 227.75 0.43 c p1
0.00 0.00 432.00 576.00 cl
0 0 0 srgb
0.75 setlinewidth
[] 0 setdash
1 setlinecap
1 setlinejoin
10.00 setmiterlimit
np
229.60 201.60 m
120.00 0 l
o
np
229.60 201.60 m
0 -5.76 l
o
np
249.60 201.60 m
0 -5.76 l
o
np
269.60 201.60 m
0 -5.76 l
o
np
289.60 201.60 m
0 -5.76 l
o
np
309.60 201.60 m
0 -5.76 l
o
np
329.60 201.60 m
0 -5.76 l
o
np
349.60 201.60 m
0 -5.76 l
o
/Font1 findfont 6 s
229.60 185.47 (20) .5 0 t
249.60 185.47 (40) .5 0 t
269.60 185.47 (60) .5 0 t
289.60 185.47 (80) .5 0 t
309.60 185.47 (100) .5 0 t
329.60 185.47 (120) .5 0 t
349.60 185.47 (140) .5 0 t
np
216.00 208.20 m
0 32.88 l
o
np
216.00 208.20 m
-5.76 0 l
o
np
216.00 216.42 m
-5.76 0 l
o
np
216.00 224.64 m
-5.76 0 l
o
np
216.00 232.86 m
-5.76 0 l
o
np
216.00 241.08 m
-5.76 0 l
o
209.09 206.05 (-0.010) 1 0 t
209.09 214.27 (-0.005) 1 0 t
209.09 222.49 (0.000) 1 0 t
209.09 230.70 (0.005) 1 0 t
209.09 238.92 (0.010) 1 0 t
np
216.00 201.60 m
151.20 0 l
0 46.08 l
-151.20 0 l
0 -46.08 l
o
0.00 0.00 432.00 576.00 cl
/Font1 findfont 9 s
0 0 0 srgb
291.60 262.88 (Residuals) .5 0 t
59.04 73.44 401.76 516.96 cl
ep
%%Trailer
%%Pages: 1
%%EOF
