%!PS-Adobe-3.0 EPSF-3.0
%%DocumentNeededResources: font Helvetica
%%+ font Helvetica-Bold
%%+ font Helvetica-Oblique
%%+ font Helvetica-BoldOblique
%%+ font Symbol
%%Title: R Graphics Output
%%Creator: R Software
%%Pages: (atend)
%%BoundingBox: 0 0 432 576
%%EndComments
%%BeginProlog
/bp  { gs sRGB gs } def
% begin .ps.prolog
/gs  { gsave } bind def
/gr  { grestore } bind def
/ep  { showpage gr gr } bind def
/m   { moveto } bind def
/l  { rlineto } bind def
/np  { newpath } bind def
/cp  { closepath } bind def
/f   { fill } bind def
/o   { stroke } bind def
/c   { newpath 0 360 arc } bind def
/r   { 4 2 roll moveto 1 copy 3 -1 roll exch 0 exch rlineto 0 rlineto -1 mul 0 exch rlineto closepath } bind def
/p1  { stroke } bind def
/p2  { gsave bg fill grestore newpath } bind def
/p3  { gsave bg fill grestore stroke } bind def
/p6  { gsave bg eofill grestore newpath } bind def
/p7  { gsave bg eofill grestore stroke } bind def
/t   { 5 -2 roll moveto gsave rotate
       1 index stringwidth pop
       mul neg 0 rmoveto show grestore } bind def
/ta  { 4 -2 roll moveto gsave rotate show } bind def
/tb  { 2 -1 roll 0 rmoveto show } bind def
/cl  { grestore gsave newpath 3 index 3 index moveto 1 index
       4 -1 roll lineto  exch 1 index lineto lineto
       closepath clip newpath } bind def
/rgb { setrgbcolor } bind def
/s   { scalefont setfont } bind def
% end   .ps.prolog
/sRGB { [ /CIEBasedABC
          << /DecodeLMN
               [ { dup 0.03928 le
                        {12.92321 div}
                        {0.055 add 1.055 div 2.4 exp }
                     ifelse
                 } bind dup dup
               ]
             /MatrixLMN [0.412457 0.212673 0.019334
                         0.357576 0.715152 0.119192
                         0.180437 0.072175 0.950301]
             /WhitePoint [0.9505 1.0 1.0890]
           >>
         ] setcolorspace } bind def
/srgb { setcolor } bind def
% begin encoding
/WinAnsiEncoding [
 /.notdef /.notdef /.notdef /.notdef /.notdef /.notdef /.notdef /.notdef
 /.notdef /.notdef /.notdef /.notdef /.notdef /.notdef /.notdef /.notdef
 /.notdef /.notdef /.notdef /.notdef /.notdef /.notdef /.notdef /.notdef
 /.notdef /.notdef /.notdef /.notdef /.notdef /.notdef /.notdef /.notdef
 /space /exclam /quotedbl /numbersign /dollar /percent /ampersand /quoteright
 /parenleft /parenright /asterisk /plus /comma /minus /period /slash
 /zero /one /two /three /four /five /six /seven
 /eight /nine /colon /semicolon /less /equal /greater /question
 /at /A /B /C /D /E /F /G
 /H /I /J /K /L /M /N /O
 /P /Q /R /S /T /U /V /W
 /X /Y /Z /bracketleft /backslash /bracketright /asciicircum /underscore
 /grave /a /b /c /d /e /f /g
 /h /i /j /k /l /m /n /o
 /p /q /r /s /t /u /v /w
 /x /y /z /braceleft /bar /braceright /asciitilde /.notdef
 /Euro /.notdef /quotesinglbase /florin /quotedblbase /ellipsis /dagger /daggerdbl
 /circumflex /perthousand /Scaron /guilsinglleft /OE /.notdef /Zcaron /.notdef
 /.notdef /quoteleft /quoteright /quotedblleft /quotedblright /bullet /endash /emdash
 /tilde /trademark /scaron /guilsinglright /oe /.notdef /zcaron /Ydieresis
 /space /exclamdown /cent /sterling /currency /yen /brokenbar /section
 /dieresis /copyright /ordfeminine /guillemotleft /logicalnot /hyphen /registered /macron
 /degree /plusminus /twosuperior /threesuperior /acute /mu /paragraph /periodcentered
 /cedilla /onesuperior /ordmasculine /guillemotright /onequarter /onehalf /threequarters /questiondown
 /Agrave /Aacute /Acircumflex /Atilde /Adieresis /Aring /AE /Ccedilla
 /Egrave /Eacute /Ecircumflex /Edieresis /Igrave /Iacute /Icircumflex /Idieresis
 /Eth /Ntilde /Ograve /Oacute /Ocircumflex /Otilde /Odieresis /multiply
 /Oslash /Ugrave /Uacute /Ucircumflex /Udieresis /Yacute /Thorn /germandbls
 /agrave /aacute /acircumflex /atilde /adieresis /aring /ae /ccedilla
 /egrave /eacute /ecircumflex /edieresis /igrave /iacute /icircumflex /idieresis
 /eth /ntilde /ograve /oacute /ocircumflex /otilde /odieresis /divide
 /oslash /ugrave /uacute /ucircumflex /udieresis /yacute /thorn /ydieresis
]
 def
% end encoding
%%IncludeResource: font Helvetica
/Helvetica findfont
dup length dict begin
  {1 index /FID ne {def} {pop pop} ifelse} forall
  /Encoding WinAnsiEncoding def
  currentdict
  end
/Font1 exch definefont pop
%%IncludeResource: font Helvetica-Bold
/Helvetica-Bold findfont
dup length dict begin
  {1 index /FID ne {def} {pop pop} ifelse} forall
  /Encoding WinAnsiEncoding def
  currentdict
  end
/Font2 exch definefont pop
%%IncludeResource: font Helvetica-Oblique
/Helvetica-Oblique findfont
dup length dict begin
  {1 index /FID ne {def} {pop pop} ifelse} forall
  /Encoding WinAnsiEncoding def
  currentdict
  end
/Font3 exch definefont pop
%%IncludeResource: font Helvetica-BoldOblique
/Helvetica-BoldOblique findfont
dup length dict begin
  {1 index /FID ne {def} {pop pop} ifelse} forall
  /Encoding WinAnsiEncoding def
  currentdict
  end
/Font4 exch definefont pop
%%IncludeResource: font Symbol
/Symbol findfont
dup length dict begin
  {1 index /FID ne {def} {pop pop} ifelse} forall
  currentdict
  end
/Font5 exch definefont pop
%%EndProlog
%%Page: 1 1
bp
/bg { 1 1 1 srgb } def
0.00 0.00 432.00 576.00 r p2
0.00 0.00 432.00 576.00 cl
0.00 0.00 432.00 576.00 cl
0.00 0.00 432.00 576.00 cl
/Font1 findfont 12 s
0 0 0 srgb
48.00 508.72 (PCP-ETH) 0 0 t
48.00 494.89 (Flash light photolysis) 0 0 t
/Font1 findfont 9 s
48.00 457.54 (File: T) 0 ta
-1.080 (emper) tb
-0.090 (ature_dependence_9_MSLM.dat) tb gr
48.00 334.87 (T) 0 ta
-1.080 (ue Mar 08 17:20:29 2022) tb gr
48.00 430.87 (Fit function:  a + b * e) 0 ta
-0.270 (xp\(-c * t\)) tb gr
48.00 420.50 (t-Inter) 0 ta
0.270 (v) tb
-0.225 (all: 12.000 ... 528.000 ms) tb gr
48.00 410.14 (P) 0 ta
-0.360 (ar) tb
-0.090 (ameters \(Standard de) tb
-0.270 (viation\):) tb gr
48.00 399.77 (  a = 0.00519 \(0.00021\)) 0 0 t
48.00 389.40 (  b = 0.12841 \(0.00053\)) 0 0 t
48.00 379.03 (  c = 8.916e+00 \(7.511e-02\) s^-1) 0 0 t
48.00 368.66 (  tau = 1.122e-01 \(9.448e-04\) s) 0 0 t
216.00 345.60 388.80 518.40 cl
0 0 0 srgb
0.75 setlinewidth
[] 0 setdash
1 setlinecap
1 setlinejoin
10.00 setmiterlimit
np
222.40 509.34 m
0.15 0.36 l
0.14 0.89 l
0.15 -0.71 l
0.14 0.86 l
0.15 -0.50 l
0.14 0.86 l
0.15 -0.69 l
0.14 0 l
0.15 0.33 l
0.15 0.54 l
0.14 0.18 l
0.15 -0.87 l
0.14 -0.18 l
0.15 -1.07 l
0.14 0.90 l
0.15 0 l
0.14 0.50 l
0.15 -0.50 l
0.15 0.68 l
0.14 -0.33 l
0.15 -0.71 l
0.14 0.18 l
0.15 -1.44 l
0.14 1.26 l
0.15 -0.18 l
0.15 0.18 l
0.14 0.18 l
0.15 1.76 l
0.14 -0.90 l
0.15 -0.51 l
0.14 -0.17 l
0.15 -1.08 l
0.14 1.08 l
0.15 -0.18 l
0.15 1.22 l
0.14 -0.69 l
0.15 0.69 l
0.14 -0.87 l
0.15 0 l
0.14 -0.71 l
0.15 0.54 l
0.14 -0.18 l
0.15 -0.18 l
0.15 0.53 l
0.14 0.18 l
0.15 -0.89 l
0.14 -0.18 l
0.15 1.22 l
0.14 -0.15 l
0.15 -0.53 l
0.14 0.86 l
0.15 -1.04 l
0.15 0.71 l
0.14 -0.35 l
0.15 1.04 l
0.14 -1.58 l
0.15 -0.18 l
0.14 1.40 l
0.15 -0.51 l
0.15 0.51 l
0.14 -0.68 l
0.15 0.86 l
0.14 -0.51 l
0.15 -0.53 l
0.14 0 l
0.15 1.04 l
0.14 -1.22 l
0.15 1.04 l
0.15 0.54 l
0.14 -1.58 l
0.15 0.36 l
0.14 0.17 l
0.15 0.51 l
0.14 0.72 l
0.15 -0.36 l
0.14 0.36 l
0.15 0.36 l
0.15 -2.30 l
0.14 0 l
0.15 0.71 l
0.14 -1.07 l
0.15 0.72 l
0.14 0.35 l
0.15 0.69 l
0.14 0 l
0.15 -1.58 l
0.15 0.89 l
0.14 -0.17 l
0.15 1.58 l
0.14 -1.08 l
0.15 1.08 l
0.14 -0.90 l
0.15 -0.86 l
0.15 1.40 l
0.14 -1.58 l
0.15 0.71 l
0.14 -0.89 l
0.15 0.36 l
0.14 -1.26 l
236.96 469.02 lineto
0.14 -6.96 l
0.15 2.32 l
0.15 -0.54 l
0.14 1.80 l
0.15 0.53 l
0.14 2.13 l
0.15 1.43 l
0.14 0 l
0.15 0.18 l
0.14 -0.89 l
0.15 1.07 l
0.15 2.31 l
0.14 -0.33 l
0.15 0.86 l
0.14 0.36 l
0.15 0.90 l
0.14 -3.02 l
0.15 3.38 l
0.14 -1.62 l
0.15 1.44 l
0.15 -0.18 l
0.14 1.08 l
0.15 0 l
0.14 0.90 l
0.15 0 l
0.14 -0.90 l
0.15 1.94 l
0.15 0.36 l
0.14 0.36 l
0.15 -1.76 l
0.14 3.73 l
0.15 -1.79 l
0.14 -0.36 l
0.15 0.54 l
0.14 0 l
0.15 -0.36 l
0.15 0 l
0.14 2.87 l
0.15 -1.61 l
0.14 0.89 l
0.15 -0.89 l
0.14 1.43 l
0.15 -1.97 l
0.14 2.15 l
0.15 0.18 l
0.15 -0.54 l
0.14 -0.36 l
0.15 2.13 l
0.14 0 l
0.15 -1.05 l
0.14 1.23 l
0.15 -1.41 l
0.14 0.87 l
0.15 0 l
0.15 1.43 l
0.14 -0.53 l
0.15 -0.18 l
0.14 0.53 l
0.15 0.18 l
0.14 0.90 l
0.15 -1.61 l
0.15 2.15 l
0.14 -0.36 l
0.15 0.72 l
0.14 0.36 l
0.15 -1.98 l
0.14 1.26 l
0.15 0.54 l
0.14 1.40 l
0.15 -2.30 l
0.15 2.48 l
0.14 0.36 l
0.15 0.18 l
0.14 -1.40 l
0.15 0.53 l
0.14 0.87 l
0.15 0.90 l
0.14 -0.54 l
0.15 -0.36 l
0.15 0.72 l
0.14 -0.54 l
0.15 1.26 l
0.14 -1.08 l
0.15 0 l
0.14 -0.36 l
0.15 1.44 l
0.14 -0.54 l
0.15 0.54 l
0.15 1.25 l
0.14 -0.89 l
0.15 0 l
0.14 1.43 l
0.15 -0.54 l
0.14 -0.53 l
0.15 0.18 l
0.15 -0.36 l
0.14 2.12 l
0.15 -2.12 l
0.14 0.18 l
251.52 491.15 lineto
0.14 -0.18 l
0.15 0.69 l
0.14 -1.05 l
0.15 1.05 l
0.15 -0.33 l
0.14 1.05 l
0.15 -1.05 l
0.14 1.59 l
0.15 -0.36 l
0.14 0.18 l
0.15 -0.72 l
0.14 1.61 l
0.15 -0.18 l
0.15 0.18 l
0.14 -0.35 l
0.15 -1.95 l
0.14 1.05 l
0.15 0.90 l
0.14 0.89 l
0.15 -1.25 l
0.14 0.18 l
0.15 0.53 l
0.15 -0.71 l
0.14 1.61 l
0.15 -1.25 l
0.14 1.43 l
0.15 -0.18 l
0.14 0.54 l
0.15 -1.62 l
0.14 1.44 l
0.15 -0.18 l
0.15 0.54 l
0.14 0.18 l
0.15 0.36 l
0.14 -0.18 l
0.15 -0.90 l
0.14 0.90 l
0.15 0.18 l
0.15 0.36 l
0.14 -2.34 l
0.15 4.10 l
0.14 -1.43 l
0.15 0.53 l
0.14 0 l
0.15 0.18 l
0.14 -0.36 l
0.15 -0.53 l
0.15 1.79 l
0.14 -1.26 l
0.15 0.18 l
0.14 -0.53 l
0.15 1.79 l
0.14 -2.84 l
0.15 2.12 l
0.14 0 l
0.15 0.36 l
0.15 0.18 l
0.14 -1.26 l
0.15 1.62 l
0.14 -0.36 l
0.15 -0.54 l
0.14 0 l
0.15 1.26 l
0.14 -0.72 l
0.15 0.36 l
0.15 -0.54 l
0.14 0.18 l
0.15 0 l
0.14 0.36 l
0.15 0 l
0.14 0.18 l
0.15 0.18 l
0.15 0.54 l
0.14 0.54 l
0.15 -1.44 l
0.14 1.44 l
0.15 -1.44 l
0.14 0.36 l
0.15 1.79 l
0.14 -1.43 l
0.15 1.43 l
0.15 -1.97 l
0.14 1.08 l
0.15 -0.18 l
0.14 1.43 l
0.15 -0.54 l
0.14 -0.71 l
0.15 0.53 l
0.14 -0.53 l
0.15 1.58 l
0.15 -0.87 l
0.14 1.77 l
0.15 -2.30 l
0.14 2.30 l
0.15 -2.13 l
0.14 0.72 l
0.15 -1.07 l
0.14 0.89 l
0.15 1.05 l
266.08 500.06 lineto
0.14 1.41 l
0.15 -0.87 l
0.14 1.23 l
0.15 -0.87 l
0.14 0.69 l
0.15 -1.59 l
0.15 0.90 l
0.14 0.87 l
0.15 0.36 l
0.14 0.18 l
0.15 -0.36 l
0.14 -0.36 l
0.15 -0.87 l
0.14 1.05 l
0.15 0.72 l
0.15 -1.26 l
0.14 1.44 l
0.15 -1.62 l
0.14 0.18 l
0.15 -0.18 l
0.14 0.36 l
0.15 0.54 l
0.14 1.08 l
0.15 -1.26 l
0.15 0.72 l
0.14 -1.44 l
0.15 1.62 l
0.14 0.18 l
0.15 -1.62 l
0.14 1.44 l
0.15 -0.72 l
0.14 1.61 l
0.15 -2.33 l
0.15 2.33 l
0.14 -0.35 l
0.15 0.71 l
0.14 -0.71 l
0.15 -1.08 l
0.14 0.18 l
0.15 0.54 l
0.15 1.25 l
0.14 -1.25 l
0.15 1.43 l
0.14 -1.07 l
0.15 0.53 l
0.14 0.54 l
0.15 -0.72 l
0.14 1.26 l
0.15 -1.79 l
0.15 0.89 l
0.14 -0.89 l
0.15 1.25 l
0.14 -0.72 l
0.15 -0.53 l
0.14 1.25 l
0.15 0.90 l
0.14 -0.72 l
0.15 -0.90 l
0.15 0.90 l
0.14 -1.43 l
0.15 1.61 l
0.14 -1.26 l
0.15 0.90 l
0.14 0.36 l
0.15 0.18 l
0.14 -1.44 l
0.15 0.90 l
0.15 1.26 l
0.14 -1.08 l
0.15 0.18 l
0.14 -0.90 l
0.15 0.90 l
0.14 -0.90 l
0.15 0 l
0.15 0.72 l
0.14 -0.36 l
0.15 0.90 l
0.14 -1.08 l
0.15 1.44 l
0.14 -1.44 l
0.15 1.62 l
0.14 -1.26 l
0.15 0.72 l
0.15 -0.90 l
0.14 1.44 l
0.15 -0.18 l
0.14 -0.54 l
0.15 -0.36 l
0.14 -0.36 l
0.15 2.31 l
0.14 -1.95 l
0.15 1.26 l
0.15 -1.08 l
0.14 0 l
0.15 -0.18 l
0.14 1.26 l
0.15 -1.98 l
0.14 1.62 l
0.15 0 l
280.63 505.24 lineto
0.15 0.87 l
0.15 -1.59 l
0.14 1.59 l
0.15 -0.87 l
0.14 1.23 l
0.15 -0.87 l
0.14 0.33 l
0.15 0.54 l
0.15 -0.54 l
0.14 0.36 l
0.15 -1.59 l
0.14 1.59 l
0.15 -0.69 l
0.14 1.05 l
0.15 -1.59 l
0.14 0.18 l
0.15 1.94 l
0.15 -1.58 l
0.14 -0.36 l
0.15 -0.18 l
0.14 1.41 l
0.15 -2.49 l
0.14 2.31 l
0.15 -1.05 l
0.14 1.41 l
0.15 -0.54 l
0.15 -0.51 l
0.14 1.23 l
0.15 0.17 l
0.14 -0.17 l
0.15 -0.72 l
0.14 -0.51 l
0.15 -0.18 l
0.14 1.41 l
0.15 -1.05 l
0.15 -0.54 l
0.14 1.59 l
0.15 0.17 l
0.14 -0.17 l
0.15 -0.54 l
0.14 -0.18 l
0.15 0.72 l
0.14 0.35 l
0.15 -1.58 l
0.15 0.69 l
0.14 -0.87 l
0.15 1.05 l
0.14 -1.23 l
0.15 2.12 l
0.14 -0.53 l
0.15 -1.05 l
0.15 1.40 l
0.14 -1.25 l
0.15 1.07 l
0.14 -0.89 l
0.15 1.43 l
0.14 -1.76 l
0.15 1.22 l
0.14 0.18 l
0.15 -0.53 l
0.15 -0.36 l
0.14 1.07 l
0.15 0 l
0.14 -1.07 l
0.15 0.89 l
0.14 -1.07 l
0.15 0.89 l
0.14 -0.71 l
0.15 0.36 l
0.15 0.35 l
0.14 0.90 l
0.15 -0.72 l
0.14 -0.18 l
0.15 0.90 l
0.14 -2.12 l
0.15 1.58 l
0.14 -1.07 l
0.15 2.87 l
0.15 -2.16 l
0.14 0.72 l
0.15 -1.25 l
0.14 1.25 l
0.15 -0.18 l
0.14 0.36 l
0.15 0.36 l
0.15 -1.97 l
0.14 1.97 l
0.15 -2.33 l
0.14 1.97 l
0.15 -1.43 l
0.14 0 l
0.15 1.25 l
0.14 -1.07 l
0.15 0.35 l
0.15 -1.22 l
0.14 0.87 l
0.15 0.18 l
0.14 0.35 l
0.15 -0.71 l
295.19 508.08 lineto
0.15 0 l
0.14 -0.54 l
0.15 -0.36 l
0.15 -0.89 l
0.14 2.69 l
0.15 -2.51 l
0.14 1.97 l
0.15 -2.33 l
0.14 1.97 l
0.15 -1.43 l
0.14 2.15 l
0.15 -1.62 l
0.15 0.72 l
0.14 0.54 l
0.15 -0.90 l
0.14 -1.43 l
0.15 0.36 l
0.14 2.15 l
0.15 0 l
0.15 -1.44 l
0.14 0.54 l
0.15 0.18 l
0.14 -0.18 l
0.15 0.18 l
0.14 -1.25 l
0.15 0.35 l
0.14 0.90 l
0.15 -1.25 l
0.15 1.97 l
0.14 -1.44 l
0.15 1.08 l
0.14 -1.08 l
0.15 1.44 l
0.14 -1.97 l
0.15 1.61 l
0.14 0.18 l
0.15 -0.90 l
0.15 0.18 l
0.14 0.36 l
0.15 1.26 l
0.14 -1.80 l
0.15 0.54 l
0.14 -0.18 l
0.15 0.36 l
0.14 -0.36 l
0.15 -0.72 l
0.15 0.54 l
0.14 -0.72 l
0.15 1.26 l
0.14 -1.61 l
0.15 2.33 l
0.14 -0.90 l
0.15 -0.54 l
0.15 -1.61 l
0.14 1.61 l
0.15 -0.71 l
0.14 0 l
0.15 0.89 l
0.14 -1.25 l
0.15 0.36 l
0.14 0 l
0.15 0.89 l
0.15 -0.18 l
0.14 0 l
0.15 0.36 l
0.14 0.54 l
0.15 0.54 l
0.14 -1.08 l
0.15 1.08 l
0.14 -1.26 l
0.15 0.54 l
0.15 -0.72 l
0.14 1.08 l
0.15 -0.54 l
0.14 0.36 l
0.15 -0.36 l
0.14 1.08 l
0.15 -0.72 l
0.14 0.18 l
0.15 0.54 l
0.15 -1.44 l
0.14 0.72 l
0.15 -0.54 l
0.14 0.90 l
0.15 -1.08 l
0.14 0.72 l
0.15 -0.36 l
0.15 -0.36 l
0.14 0.90 l
0.15 -1.97 l
0.14 2.15 l
0.15 -2.51 l
0.14 2.33 l
0.15 -1.26 l
0.14 0.18 l
0.15 0 l
0.15 -0.18 l
0.14 0.36 l
0.15 -0.18 l
309.75 507.90 lineto
0.15 -0.36 l
0.14 0.72 l
0.15 -0.72 l
0.14 0.54 l
0.15 0.90 l
0.15 -1.44 l
0.14 1.44 l
0.15 -2.33 l
0.14 0.89 l
0.15 0.72 l
0.14 -0.18 l
0.15 -0.36 l
0.14 0.36 l
0.15 0.36 l
0.15 -1.44 l
0.14 1.44 l
0.15 -1.26 l
0.14 1.26 l
0.15 -2.15 l
0.14 0.71 l
0.15 0 l
0.15 1.26 l
0.14 0.18 l
0.15 -0.72 l
0.14 0 l
0.15 0.72 l
0.14 0.36 l
0.15 -1.62 l
0.14 2.70 l
0.15 -1.98 l
0.15 1.44 l
0.14 -1.98 l
0.15 0.54 l
0.14 0.54 l
0.15 -1.08 l
0.14 0.36 l
0.15 -0.18 l
0.14 2.16 l
0.15 -1.26 l
0.15 -0.90 l
0.14 0.18 l
0.15 0.72 l
0.14 0.72 l
0.15 -2.16 l
0.14 2.16 l
0.15 -1.26 l
0.14 0.54 l
0.15 -0.54 l
0.15 -0.54 l
0.14 0 l
0.15 1.98 l
0.14 -1.80 l
0.15 -0.36 l
0.14 2.16 l
0.15 -1.80 l
0.15 1.08 l
0.14 -1.08 l
0.15 1.26 l
0.14 -1.62 l
0.15 1.08 l
0.14 -0.72 l
0.15 0.36 l
0.14 0.72 l
0.15 -1.26 l
0.15 1.08 l
0.14 -1.79 l
0.15 1.43 l
0.14 -0.36 l
0.15 1.80 l
0.14 -2.16 l
0.15 0.54 l
0.14 0.18 l
0.15 -1.25 l
0.15 1.43 l
0.14 -0.18 l
0.15 0.72 l
0.14 -1.80 l
0.15 1.98 l
0.14 -2.15 l
0.15 1.61 l
0.14 -0.54 l
0.15 -0.36 l
0.15 0.18 l
0.14 -1.25 l
0.15 1.61 l
0.14 0.18 l
0.15 0.72 l
0.14 -1.26 l
0.15 1.44 l
0.14 -0.54 l
0.15 -0.54 l
0.15 0.54 l
0.14 0.72 l
0.15 -0.36 l
0.14 -1.26 l
0.15 -0.18 l
0.14 -0.71 l
0.15 0.89 l
0.15 -0.18 l
324.31 508.26 lineto
0.15 1.08 l
0.14 -0.90 l
0.15 -0.18 l
0.14 -1.26 l
0.15 2.52 l
0.14 -1.62 l
0.15 0.36 l
0.15 0 l
0.14 1.62 l
0.15 -2.52 l
0.14 1.80 l
0.15 -0.54 l
0.14 -1.62 l
0.15 0.90 l
0.14 0 l
0.15 1.62 l
0.15 -3.41 l
0.14 2.51 l
0.15 -1.08 l
0.14 0.72 l
0.15 -0.18 l
0.14 -0.54 l
0.15 1.80 l
0.14 -1.26 l
0.15 1.08 l
0.15 -0.54 l
0.14 -0.54 l
0.15 0 l
0.14 0.72 l
0.15 -2.51 l
0.14 2.87 l
0.15 -0.72 l
0.15 -0.36 l
0.14 0.72 l
0.15 -1.44 l
0.14 1.44 l
0.15 -1.08 l
0.14 1.26 l
0.15 -1.08 l
0.14 1.26 l
0.15 -1.44 l
0.15 0.54 l
0.14 -1.26 l
0.15 2.34 l
0.14 0.18 l
0.15 -2.16 l
0.14 0 l
0.15 0.72 l
0.14 0.18 l
0.15 -0.90 l
0.15 1.80 l
0.14 -1.08 l
0.15 0.36 l
0.14 -0.18 l
0.15 -1.08 l
0.14 1.80 l
0.15 -1.98 l
0.14 0.90 l
0.15 -0.18 l
0.15 1.44 l
0.14 -0.18 l
0.15 -1.80 l
0.14 0.72 l
0.15 0.18 l
0.14 0.90 l
0.15 -1.44 l
0.15 1.26 l
0.14 -1.08 l
0.15 1.80 l
0.14 -1.44 l
0.15 -0.18 l
0.14 0.72 l
0.15 0.36 l
0.14 -1.80 l
0.15 0.72 l
0.15 0.90 l
0.14 -0.54 l
0.15 0 l
0.14 -0.54 l
0.15 1.26 l
0.14 -0.54 l
0.15 0.72 l
0.14 -1.62 l
0.15 -0.54 l
0.15 0.54 l
0.14 0.90 l
0.15 0.18 l
0.14 -0.18 l
0.15 0 l
0.14 0.36 l
0.15 0.18 l
0.14 -1.26 l
0.15 0.18 l
0.15 0 l
0.14 -0.36 l
0.15 0.72 l
0.14 -1.43 l
0.15 1.79 l
0.14 -1.62 l
338.87 509.52 lineto
0.15 -2.34 l
0.14 1.26 l
0.15 0 l
0.14 0.54 l
0.15 -0.36 l
0.14 -1.08 l
0.15 1.26 l
0.14 -0.72 l
0.15 1.98 l
0.15 -2.52 l
0.14 2.16 l
0.15 -1.62 l
0.14 0 l
0.15 -1.08 l
0.14 1.44 l
0.15 0 l
0.14 0.72 l
0.15 -1.26 l
0.15 -0.36 l
0.14 0.90 l
0.15 -1.79 l
0.14 1.25 l
0.15 0.54 l
0.14 0.36 l
0.15 -2.33 l
0.14 1.97 l
0.15 0.90 l
0.15 -0.54 l
0.14 -0.18 l
0.15 -0.90 l
0.14 1.08 l
0.15 -0.90 l
0.14 0.72 l
0.15 -1.44 l
0.15 1.80 l
0.14 -1.08 l
0.15 0.18 l
0.14 0.90 l
0.15 -0.72 l
0.14 0 l
0.15 -1.08 l
0.14 0.72 l
0.15 -0.54 l
0.15 0.90 l
0.14 0.36 l
0.15 0.54 l
0.14 0 l
0.15 -1.26 l
0.14 1.26 l
0.15 -0.90 l
0.14 0 l
0.15 -1.26 l
0.15 2.16 l
0.14 -1.80 l
0.15 2.34 l
0.14 -2.16 l
0.15 1.44 l
0.14 -0.72 l
0.15 -0.54 l
0.14 0.90 l
0.15 -1.26 l
0.15 1.44 l
0.14 -1.97 l
0.15 2.33 l
0.14 -1.08 l
0.15 0.18 l
0.14 0.90 l
0.15 -1.08 l
0.15 1.62 l
0.14 -1.44 l
0.15 0.36 l
0.14 -0.90 l
0.15 1.62 l
0.14 -1.44 l
0.15 0.36 l
0.14 -1.08 l
0.15 0.36 l
0.15 1.26 l
0.14 -0.18 l
0.15 0.72 l
0.14 -1.44 l
0.15 -0.54 l
0.14 0.18 l
0.15 0.18 l
0.14 0.36 l
0.15 1.08 l
0.15 -0.90 l
0.14 -0.18 l
0.15 0.72 l
0.14 -1.26 l
0.15 0.90 l
0.14 -1.61 l
0.15 0.89 l
0.14 -0.89 l
0.15 1.43 l
0.15 -0.90 l
0.14 0.36 l
0.15 0 l
0.14 -0.18 l
353.43 508.26 lineto
0.14 -1.61 l
0.15 1.97 l
0.14 -0.72 l
0.15 1.62 l
0.15 -0.36 l
0.14 0 l
0.15 -1.80 l
0.14 0.72 l
0.15 -1.08 l
0.14 1.08 l
0.15 1.44 l
0.15 -1.80 l
0.14 0.90 l
0.15 -1.97 l
0.14 1.79 l
0.15 -1.44 l
0.14 1.98 l
0.15 -2.15 l
0.14 1.07 l
0.15 0.90 l
0.15 -0.72 l
0.14 -0.36 l
0.15 0.36 l
0.14 0.72 l
0.15 -1.62 l
0.14 0.54 l
0.15 -0.36 l
0.14 1.62 l
0.15 -0.72 l
0.15 1.44 l
0.14 -1.26 l
0.15 -1.26 l
0.14 1.80 l
0.15 -0.36 l
0.14 0.54 l
0.15 -1.80 l
0.14 0.54 l
0.15 -0.18 l
0.15 -0.36 l
0.14 -0.53 l
0.15 0.17 l
0.14 1.62 l
0.15 -1.44 l
0.14 1.62 l
0.15 -0.90 l
0.15 0.72 l
0.14 -0.90 l
0.15 2.16 l
0.14 -1.08 l
0.15 1.08 l
0.14 -1.62 l
0.15 -0.36 l
0.14 0.36 l
0.15 0.18 l
0.15 -0.36 l
0.14 -0.54 l
0.15 -0.89 l
0.14 1.07 l
0.15 1.44 l
0.14 -1.26 l
0.15 0.90 l
0.14 -0.18 l
0.15 -1.62 l
0.15 0.90 l
0.14 0.72 l
0.15 0.72 l
0.14 -2.51 l
0.15 0.89 l
0.14 0 l
0.15 1.08 l
0.14 -0.36 l
0.15 1.08 l
0.15 -2.69 l
0.14 0 l
0.15 1.43 l
0.14 -1.08 l
0.15 1.08 l
0.14 -1.97 l
0.15 3.05 l
0.15 -2.16 l
0.14 0.90 l
0.15 -0.54 l
0.14 -0.54 l
0.15 0.72 l
0.14 -0.36 l
0.15 2.34 l
0.14 -1.98 l
0.15 1.26 l
0.15 -1.44 l
0.14 0.90 l
0.15 -1.26 l
0.14 1.08 l
0.15 -0.18 l
0.14 -0.54 l
0.15 0.54 l
0.14 0.54 l
0.15 -0.18 l
0.15 -1.26 l
0.14 -0.89 l
currentpoint o m
367.99 508.26 lineto
0.14 0.36 l
0.15 -2.33 l
0.14 1.61 l
0.15 -0.36 l
0.14 0.72 l
0.15 0.90 l
0.15 -0.36 l
0.14 0.54 l
0.15 -1.08 l
0.14 0.54 l
0.15 -1.44 l
0.14 1.08 l
0.15 -1.26 l
0.15 0.72 l
0.14 0 l
0.15 1.08 l
0.14 -0.54 l
0.15 -1.26 l
0.14 1.08 l
0.15 0.54 l
0.14 -0.90 l
0.15 0 l
0.15 -0.54 l
0.14 0.18 l
0.15 1.08 l
0.14 -0.36 l
0.15 0 l
0.14 -1.43 l
0.15 1.43 l
0.14 0.36 l
0.15 -0.36 l
0.15 -1.43 l
0.14 1.61 l
0.15 0.18 l
0.14 -1.44 l
0.15 1.26 l
0.14 -1.44 l
0.15 1.08 l
0.14 -1.25 l
0.15 1.43 l
0.15 -0.36 l
0.14 -0.72 l
0.15 0.72 l
0.14 0 l
0.15 -0.18 l
0.14 1.08 l
0.15 -0.18 l
0.15 -1.62 l
0.14 1.26 l
0.15 0.36 l
0.14 0.72 l
0.15 -1.08 l
0.14 -0.18 l
0.15 0.36 l
0.14 -0.18 l
0.15 -0.18 l
0.15 -2.30 l
0.14 2.30 l
0.15 -0.54 l
0.14 1.44 l
0.15 -1.98 l
0.14 1.98 l
0.15 -1.08 l
0.14 0.72 l
0.15 0.18 l
0.15 -0.72 l
0.14 1.44 l
0.15 -1.08 l
0.14 0.18 l
0.15 0.36 l
0.14 0.36 l
0.15 -2.34 l
0.14 1.62 l
0.15 -0.36 l
0.15 0.72 l
0.14 -0.90 l
0.15 0.36 l
0.14 0.36 l
0.15 -1.80 l
0.14 2.34 l
0.15 -2.51 l
0.15 1.61 l
0.14 -2.15 l
0.15 2.33 l
0.14 -0.90 l
0.15 1.26 l
0.14 -1.98 l
0.15 1.44 l
0.14 0.72 l
0.15 -1.26 l
0.15 0.36 l
0.14 -0.90 l
0.15 1.62 l
0.14 -0.90 l
0.15 0.36 l
0.14 -0.72 l
0.15 0.18 l
0.14 -0.72 l
0.15 -0.18 l
o
/bg { 1 1 1 srgb } def
222.40 509.34 0.43 c p3
222.55 509.70 0.43 c p3
222.69 510.59 0.43 c p3
222.84 509.88 0.43 c p3
222.98 510.74 0.43 c p3
223.13 510.24 0.43 c p3
223.27 511.10 0.43 c p3
223.42 510.41 0.43 c p3
223.56 510.41 0.43 c p3
223.71 510.74 0.43 c p3
223.86 511.28 0.43 c p3
224.00 511.46 0.43 c p3
224.15 510.59 0.43 c p3
224.29 510.41 0.43 c p3
224.44 509.34 0.43 c p3
224.58 510.24 0.43 c p3
224.73 510.24 0.43 c p3
224.87 510.74 0.43 c p3
225.02 510.24 0.43 c p3
225.17 510.92 0.43 c p3
225.31 510.59 0.43 c p3
225.46 509.88 0.43 c p3
225.60 510.06 0.43 c p3
225.75 508.62 0.43 c p3
225.89 509.88 0.43 c p3
226.04 509.70 0.43 c p3
226.19 509.88 0.43 c p3
226.33 510.06 0.43 c p3
226.48 511.82 0.43 c p3
226.62 510.92 0.43 c p3
226.77 510.41 0.43 c p3
226.91 510.24 0.43 c p3
227.06 509.16 0.43 c p3
227.20 510.24 0.43 c p3
227.35 510.06 0.43 c p3
227.50 511.28 0.43 c p3
227.64 510.59 0.43 c p3
227.79 511.28 0.43 c p3
227.93 510.41 0.43 c p3
228.08 510.41 0.43 c p3
228.22 509.70 0.43 c p3
228.37 510.24 0.43 c p3
228.51 510.06 0.43 c p3
228.66 509.88 0.43 c p3
228.81 510.41 0.43 c p3
228.95 510.59 0.43 c p3
229.10 509.70 0.43 c p3
229.24 509.52 0.43 c p3
229.39 510.74 0.43 c p3
229.53 510.59 0.43 c p3
229.68 510.06 0.43 c p3
229.82 510.92 0.43 c p3
229.97 509.88 0.43 c p3
230.12 510.59 0.43 c p3
230.26 510.24 0.43 c p3
230.41 511.28 0.43 c p3
230.55 509.70 0.43 c p3
230.70 509.52 0.43 c p3
230.84 510.92 0.43 c p3
230.99 510.41 0.43 c p3
231.14 510.92 0.43 c p3
231.28 510.24 0.43 c p3
231.43 511.10 0.43 c p3
231.57 510.59 0.43 c p3
231.72 510.06 0.43 c p3
231.86 510.06 0.43 c p3
232.01 511.10 0.43 c p3
232.15 509.88 0.43 c p3
232.30 510.92 0.43 c p3
232.45 511.46 0.43 c p3
232.59 509.88 0.43 c p3
232.74 510.24 0.43 c p3
232.88 510.41 0.43 c p3
233.03 510.92 0.43 c p3
233.17 511.64 0.43 c p3
233.32 511.28 0.43 c p3
233.46 511.64 0.43 c p3
233.61 512.00 0.43 c p3
233.76 509.70 0.43 c p3
233.90 509.70 0.43 c p3
234.05 510.41 0.43 c p3
234.19 509.34 0.43 c p3
234.34 510.06 0.43 c p3
234.48 510.41 0.43 c p3
234.63 511.10 0.43 c p3
234.77 511.10 0.43 c p3
234.92 509.52 0.43 c p3
235.07 510.41 0.43 c p3
235.21 510.24 0.43 c p3
235.36 511.82 0.43 c p3
235.50 510.74 0.43 c p3
235.65 511.82 0.43 c p3
235.79 510.92 0.43 c p3
235.94 510.06 0.43 c p3
236.09 511.46 0.43 c p3
236.23 509.88 0.43 c p3
236.38 510.59 0.43 c p3
236.52 509.70 0.43 c p3
236.67 510.06 0.43 c p3
236.81 508.80 0.43 c p3
236.96 469.02 0.43 c p3
237.10 462.06 0.43 c p3
237.25 464.38 0.43 c p3
237.40 463.84 0.43 c p3
237.54 465.64 0.43 c p3
237.69 466.17 0.43 c p3
237.83 468.30 0.43 c p3
237.98 469.73 0.43 c p3
238.12 469.73 0.43 c p3
238.27 469.91 0.43 c p3
238.41 469.02 0.43 c p3
238.56 470.09 0.43 c p3
238.71 472.40 0.43 c p3
238.85 472.07 0.43 c p3
239.00 472.93 0.43 c p3
239.14 473.29 0.43 c p3
239.29 474.19 0.43 c p3
239.43 471.17 0.43 c p3
239.58 474.55 0.43 c p3
239.72 472.93 0.43 c p3
239.87 474.37 0.43 c p3
240.02 474.19 0.43 c p3
240.16 475.27 0.43 c p3
240.31 475.27 0.43 c p3
240.45 476.17 0.43 c p3
240.60 476.17 0.43 c p3
240.74 475.27 0.43 c p3
240.89 477.21 0.43 c p3
241.04 477.57 0.43 c p3
241.18 477.93 0.43 c p3
241.33 476.17 0.43 c p3
241.47 479.90 0.43 c p3
241.62 478.11 0.43 c p3
241.76 477.75 0.43 c p3
241.91 478.29 0.43 c p3
242.05 478.29 0.43 c p3
242.20 477.93 0.43 c p3
242.35 477.93 0.43 c p3
242.49 480.80 0.43 c p3
242.64 479.19 0.43 c p3
242.78 480.08 0.43 c p3
242.93 479.19 0.43 c p3
243.07 480.62 0.43 c p3
243.22 478.65 0.43 c p3
243.36 480.80 0.43 c p3
243.51 480.98 0.43 c p3
243.66 480.44 0.43 c p3
243.80 480.08 0.43 c p3
243.95 482.21 0.43 c p3
244.09 482.21 0.43 c p3
244.24 481.16 0.43 c p3
244.38 482.39 0.43 c p3
244.53 480.98 0.43 c p3
244.67 481.85 0.43 c p3
244.82 481.85 0.43 c p3
244.97 483.28 0.43 c p3
245.11 482.75 0.43 c p3
245.26 482.57 0.43 c p3
245.40 483.10 0.43 c p3
245.55 483.28 0.43 c p3
245.69 484.18 0.43 c p3
245.84 482.57 0.43 c p3
245.99 484.72 0.43 c p3
246.13 484.36 0.43 c p3
246.28 485.08 0.43 c p3
246.42 485.44 0.43 c p3
246.57 483.46 0.43 c p3
246.71 484.72 0.43 c p3
246.86 485.26 0.43 c p3
247.00 486.66 0.43 c p3
247.15 484.36 0.43 c p3
247.30 486.84 0.43 c p3
247.44 487.20 0.43 c p3
247.59 487.38 0.43 c p3
247.73 485.98 0.43 c p3
247.88 486.51 0.43 c p3
248.02 487.38 0.43 c p3
248.17 488.28 0.43 c p3
248.31 487.74 0.43 c p3
248.46 487.38 0.43 c p3
248.61 488.10 0.43 c p3
248.75 487.56 0.43 c p3
248.90 488.82 0.43 c p3
249.04 487.74 0.43 c p3
249.19 487.74 0.43 c p3
249.33 487.38 0.43 c p3
249.48 488.82 0.43 c p3
249.62 488.28 0.43 c p3
249.77 488.82 0.43 c p3
249.92 490.07 0.43 c p3
250.06 489.18 0.43 c p3
250.21 489.18 0.43 c p3
250.35 490.61 0.43 c p3
250.50 490.07 0.43 c p3
250.64 489.54 0.43 c p3
250.79 489.72 0.43 c p3
250.94 489.36 0.43 c p3
251.08 491.48 0.43 c p3
251.23 489.36 0.43 c p3
251.37 489.54 0.43 c p3
251.52 491.15 0.43 c p3
251.66 490.97 0.43 c p3
251.81 491.66 0.43 c p3
251.95 490.61 0.43 c p3
252.10 491.66 0.43 c p3
252.25 491.33 0.43 c p3
252.39 492.38 0.43 c p3
252.54 491.33 0.43 c p3
252.68 492.92 0.43 c p3
252.83 492.56 0.43 c p3
252.97 492.74 0.43 c p3
253.12 492.02 0.43 c p3
253.26 493.63 0.43 c p3
253.41 493.45 0.43 c p3
253.56 493.63 0.43 c p3
253.70 493.28 0.43 c p3
253.85 491.33 0.43 c p3
253.99 492.38 0.43 c p3
254.14 493.28 0.43 c p3
254.28 494.17 0.43 c p3
254.43 492.92 0.43 c p3
254.57 493.10 0.43 c p3
254.72 493.63 0.43 c p3
254.87 492.92 0.43 c p3
255.01 494.53 0.43 c p3
255.16 493.28 0.43 c p3
255.30 494.71 0.43 c p3
255.45 494.53 0.43 c p3
255.59 495.07 0.43 c p3
255.74 493.45 0.43 c p3
255.88 494.89 0.43 c p3
256.03 494.71 0.43 c p3
256.18 495.25 0.43 c p3
256.32 495.43 0.43 c p3
256.47 495.79 0.43 c p3
256.61 495.61 0.43 c p3
256.76 494.71 0.43 c p3
256.90 495.61 0.43 c p3
257.05 495.79 0.43 c p3
257.20 496.15 0.43 c p3
257.34 493.81 0.43 c p3
257.49 497.91 0.43 c p3
257.63 496.48 0.43 c p3
257.78 497.01 0.43 c p3
257.92 497.01 0.43 c p3
258.07 497.19 0.43 c p3
258.21 496.83 0.43 c p3
258.36 496.30 0.43 c p3
258.51 498.09 0.43 c p3
258.65 496.83 0.43 c p3
258.80 497.01 0.43 c p3
258.94 496.48 0.43 c p3
259.09 498.27 0.43 c p3
259.23 495.43 0.43 c p3
259.38 497.55 0.43 c p3
259.52 497.55 0.43 c p3
259.67 497.91 0.43 c p3
259.82 498.09 0.43 c p3
259.96 496.83 0.43 c p3
260.11 498.45 0.43 c p3
260.25 498.09 0.43 c p3
260.40 497.55 0.43 c p3
260.54 497.55 0.43 c p3
260.69 498.81 0.43 c p3
260.83 498.09 0.43 c p3
260.98 498.45 0.43 c p3
261.13 497.91 0.43 c p3
261.27 498.09 0.43 c p3
261.42 498.09 0.43 c p3
261.56 498.45 0.43 c p3
261.71 498.45 0.43 c p3
261.85 498.63 0.43 c p3
262.00 498.81 0.43 c p3
262.15 499.35 0.43 c p3
262.29 499.89 0.43 c p3
262.44 498.45 0.43 c p3
262.58 499.89 0.43 c p3
262.73 498.45 0.43 c p3
262.87 498.81 0.43 c p3
263.02 500.60 0.43 c p3
263.16 499.17 0.43 c p3
263.31 500.60 0.43 c p3
263.46 498.63 0.43 c p3
263.60 499.71 0.43 c p3
263.75 499.53 0.43 c p3
263.89 500.96 0.43 c p3
264.04 500.42 0.43 c p3
264.18 499.71 0.43 c p3
264.33 500.24 0.43 c p3
264.47 499.71 0.43 c p3
264.62 501.29 0.43 c p3
264.77 500.42 0.43 c p3
264.91 502.19 0.43 c p3
265.06 499.89 0.43 c p3
265.20 502.19 0.43 c p3
265.35 500.06 0.43 c p3
265.49 500.78 0.43 c p3
265.64 499.71 0.43 c p3
265.78 500.60 0.43 c p3
265.93 501.65 0.43 c p3
266.08 500.06 0.43 c p3
266.22 501.47 0.43 c p3
266.37 500.60 0.43 c p3
266.51 501.83 0.43 c p3
266.66 500.96 0.43 c p3
266.80 501.65 0.43 c p3
266.95 500.06 0.43 c p3
267.10 500.96 0.43 c p3
267.24 501.83 0.43 c p3
267.39 502.19 0.43 c p3
267.53 502.37 0.43 c p3
267.68 502.01 0.43 c p3
267.82 501.65 0.43 c p3
267.97 500.78 0.43 c p3
268.11 501.83 0.43 c p3
268.26 502.55 0.43 c p3
268.41 501.29 0.43 c p3
268.55 502.73 0.43 c p3
268.70 501.11 0.43 c p3
268.84 501.29 0.43 c p3
268.99 501.11 0.43 c p3
269.13 501.47 0.43 c p3
269.28 502.01 0.43 c p3
269.42 503.09 0.43 c p3
269.57 501.83 0.43 c p3
269.72 502.55 0.43 c p3
269.86 501.11 0.43 c p3
270.01 502.73 0.43 c p3
270.15 502.91 0.43 c p3
270.30 501.29 0.43 c p3
270.44 502.73 0.43 c p3
270.59 502.01 0.43 c p3
270.73 503.62 0.43 c p3
270.88 501.29 0.43 c p3
271.03 503.62 0.43 c p3
271.17 503.27 0.43 c p3
271.32 503.98 0.43 c p3
271.46 503.27 0.43 c p3
271.61 502.19 0.43 c p3
271.75 502.37 0.43 c p3
271.90 502.91 0.43 c p3
272.05 504.16 0.43 c p3
272.19 502.91 0.43 c p3
272.34 504.34 0.43 c p3
272.48 503.27 0.43 c p3
272.63 503.80 0.43 c p3
272.77 504.34 0.43 c p3
272.92 503.62 0.43 c p3
273.06 504.88 0.43 c p3
273.21 503.09 0.43 c p3
273.36 503.98 0.43 c p3
273.50 503.09 0.43 c p3
273.65 504.34 0.43 c p3
273.79 503.62 0.43 c p3
273.94 503.09 0.43 c p3
274.08 504.34 0.43 c p3
274.23 505.24 0.43 c p3
274.37 504.52 0.43 c p3
274.52 503.62 0.43 c p3
274.67 504.52 0.43 c p3
274.81 503.09 0.43 c p3
274.96 504.70 0.43 c p3
275.10 503.44 0.43 c p3
275.25 504.34 0.43 c p3
275.39 504.70 0.43 c p3
275.54 504.88 0.43 c p3
275.68 503.44 0.43 c p3
275.83 504.34 0.43 c p3
275.98 505.60 0.43 c p3
276.12 504.52 0.43 c p3
276.27 504.70 0.43 c p3
276.41 503.80 0.43 c p3
276.56 504.70 0.43 c p3
276.70 503.80 0.43 c p3
276.85 503.80 0.43 c p3
277.00 504.52 0.43 c p3
277.14 504.16 0.43 c p3
277.29 505.06 0.43 c p3
277.43 503.98 0.43 c p3
277.58 505.42 0.43 c p3
277.72 503.98 0.43 c p3
277.87 505.60 0.43 c p3
278.01 504.34 0.43 c p3
278.16 505.06 0.43 c p3
278.31 504.16 0.43 c p3
278.45 505.60 0.43 c p3
278.60 505.42 0.43 c p3
278.74 504.88 0.43 c p3
278.89 504.52 0.43 c p3
279.03 504.16 0.43 c p3
279.18 506.47 0.43 c p3
279.32 504.52 0.43 c p3
279.47 505.78 0.43 c p3
279.62 504.70 0.43 c p3
279.76 504.70 0.43 c p3
279.91 504.52 0.43 c p3
280.05 505.78 0.43 c p3
280.20 503.80 0.43 c p3
280.34 505.42 0.43 c p3
280.49 505.42 0.43 c p3
280.63 505.24 0.43 c p3
280.78 506.11 0.43 c p3
280.93 504.52 0.43 c p3
281.07 506.11 0.43 c p3
281.22 505.24 0.43 c p3
281.36 506.47 0.43 c p3
281.51 505.60 0.43 c p3
281.65 505.93 0.43 c p3
281.80 506.47 0.43 c p3
281.95 505.93 0.43 c p3
282.09 506.29 0.43 c p3
282.24 504.70 0.43 c p3
282.38 506.29 0.43 c p3
282.53 505.60 0.43 c p3
282.67 506.65 0.43 c p3
282.82 505.06 0.43 c p3
282.96 505.24 0.43 c p3
283.11 507.18 0.43 c p3
283.26 505.60 0.43 c p3
283.40 505.24 0.43 c p3
283.55 505.06 0.43 c p3
283.69 506.47 0.43 c p3
283.84 503.98 0.43 c p3
283.98 506.29 0.43 c p3
284.13 505.24 0.43 c p3
284.27 506.65 0.43 c p3
284.42 506.11 0.43 c p3
284.57 505.60 0.43 c p3
284.71 506.83 0.43 c p3
284.86 507.00 0.43 c p3
285.00 506.83 0.43 c p3
285.15 506.11 0.43 c p3
285.29 505.60 0.43 c p3
285.44 505.42 0.43 c p3
285.58 506.83 0.43 c p3
285.73 505.78 0.43 c p3
285.88 505.24 0.43 c p3
286.02 506.83 0.43 c p3
286.17 507.00 0.43 c p3
286.31 506.83 0.43 c p3
286.46 506.29 0.43 c p3
286.60 506.11 0.43 c p3
286.75 506.83 0.43 c p3
286.89 507.18 0.43 c p3
287.04 505.60 0.43 c p3
287.19 506.29 0.43 c p3
287.33 505.42 0.43 c p3
287.48 506.47 0.43 c p3
287.62 505.24 0.43 c p3
287.77 507.36 0.43 c p3
287.91 506.83 0.43 c p3
288.06 505.78 0.43 c p3
288.21 507.18 0.43 c p3
288.35 505.93 0.43 c p3
288.50 507.00 0.43 c p3
288.64 506.11 0.43 c p3
288.79 507.54 0.43 c p3
288.93 505.78 0.43 c p3
289.08 507.00 0.43 c p3
289.22 507.18 0.43 c p3
289.37 506.65 0.43 c p3
289.52 506.29 0.43 c p3
289.66 507.36 0.43 c p3
289.81 507.36 0.43 c p3
289.95 506.29 0.43 c p3
290.10 507.18 0.43 c p3
290.24 506.11 0.43 c p3
290.39 507.00 0.43 c p3
290.53 506.29 0.43 c p3
290.68 506.65 0.43 c p3
290.83 507.00 0.43 c p3
290.97 507.90 0.43 c p3
291.12 507.18 0.43 c p3
291.26 507.00 0.43 c p3
291.41 507.90 0.43 c p3
291.55 505.78 0.43 c p3
291.70 507.36 0.43 c p3
291.84 506.29 0.43 c p3
291.99 509.16 0.43 c p3
292.14 507.00 0.43 c p3
292.28 507.72 0.43 c p3
292.43 506.47 0.43 c p3
292.57 507.72 0.43 c p3
292.72 507.54 0.43 c p3
292.86 507.90 0.43 c p3
293.01 508.26 0.43 c p3
293.16 506.29 0.43 c p3
293.30 508.26 0.43 c p3
293.45 505.93 0.43 c p3
293.59 507.90 0.43 c p3
293.74 506.47 0.43 c p3
293.88 506.47 0.43 c p3
294.03 507.72 0.43 c p3
294.17 506.65 0.43 c p3
294.32 507.00 0.43 c p3
294.47 505.78 0.43 c p3
294.61 506.65 0.43 c p3
294.76 506.83 0.43 c p3
294.90 507.18 0.43 c p3
295.05 506.47 0.43 c p3
295.19 508.08 0.43 c p3
295.34 508.08 0.43 c p3
295.48 507.54 0.43 c p3
295.63 507.18 0.43 c p3
295.78 506.29 0.43 c p3
295.92 508.98 0.43 c p3
296.07 506.47 0.43 c p3
296.21 508.44 0.43 c p3
296.36 506.11 0.43 c p3
296.50 508.08 0.43 c p3
296.65 506.65 0.43 c p3
296.79 508.80 0.43 c p3
296.94 507.18 0.43 c p3
297.09 507.90 0.43 c p3
297.23 508.44 0.43 c p3
297.38 507.54 0.43 c p3
297.52 506.11 0.43 c p3
297.67 506.47 0.43 c p3
297.81 508.62 0.43 c p3
297.96 508.62 0.43 c p3
298.11 507.18 0.43 c p3
298.25 507.72 0.43 c p3
298.40 507.90 0.43 c p3
298.54 507.72 0.43 c p3
298.69 507.90 0.43 c p3
298.83 506.65 0.43 c p3
298.98 507.00 0.43 c p3
299.12 507.90 0.43 c p3
299.27 506.65 0.43 c p3
299.42 508.62 0.43 c p3
299.56 507.18 0.43 c p3
299.71 508.26 0.43 c p3
299.85 507.18 0.43 c p3
300.00 508.62 0.43 c p3
300.14 506.65 0.43 c p3
300.29 508.26 0.43 c p3
300.43 508.44 0.43 c p3
300.58 507.54 0.43 c p3
300.73 507.72 0.43 c p3
300.87 508.08 0.43 c p3
301.02 509.34 0.43 c p3
301.16 507.54 0.43 c p3
301.31 508.08 0.43 c p3
301.45 507.90 0.43 c p3
301.60 508.26 0.43 c p3
301.74 507.90 0.43 c p3
301.89 507.18 0.43 c p3
302.04 507.72 0.43 c p3
302.18 507.00 0.43 c p3
302.33 508.26 0.43 c p3
302.47 506.65 0.43 c p3
302.62 508.98 0.43 c p3
302.76 508.08 0.43 c p3
302.91 507.54 0.43 c p3
303.06 505.93 0.43 c p3
303.20 507.54 0.43 c p3
303.35 506.83 0.43 c p3
303.49 506.83 0.43 c p3
303.64 507.72 0.43 c p3
303.78 506.47 0.43 c p3
303.93 506.83 0.43 c p3
304.07 506.83 0.43 c p3
304.22 507.72 0.43 c p3
304.37 507.54 0.43 c p3
304.51 507.54 0.43 c p3
304.66 507.90 0.43 c p3
304.80 508.44 0.43 c p3
304.95 508.98 0.43 c p3
305.09 507.90 0.43 c p3
305.24 508.98 0.43 c p3
305.38 507.72 0.43 c p3
305.53 508.26 0.43 c p3
305.68 507.54 0.43 c p3
305.82 508.62 0.43 c p3
305.97 508.08 0.43 c p3
306.11 508.44 0.43 c p3
306.26 508.08 0.43 c p3
306.40 509.16 0.43 c p3
306.55 508.44 0.43 c p3
306.69 508.62 0.43 c p3
306.84 509.16 0.43 c p3
306.99 507.72 0.43 c p3
307.13 508.44 0.43 c p3
307.28 507.90 0.43 c p3
307.42 508.80 0.43 c p3
307.57 507.72 0.43 c p3
307.71 508.44 0.43 c p3
307.86 508.08 0.43 c p3
308.01 507.72 0.43 c p3
308.15 508.62 0.43 c p3
308.30 506.65 0.43 c p3
308.44 508.80 0.43 c p3
308.59 506.29 0.43 c p3
308.73 508.62 0.43 c p3
308.88 507.36 0.43 c p3
309.02 507.54 0.43 c p3
309.17 507.54 0.43 c p3
309.32 507.36 0.43 c p3
309.46 507.72 0.43 c p3
309.61 507.54 0.43 c p3
309.75 507.90 0.43 c p3
309.90 507.54 0.43 c p3
310.04 508.26 0.43 c p3
310.19 507.54 0.43 c p3
310.33 508.08 0.43 c p3
310.48 508.98 0.43 c p3
310.63 507.54 0.43 c p3
310.77 508.98 0.43 c p3
310.92 506.65 0.43 c p3
311.06 507.54 0.43 c p3
311.21 508.26 0.43 c p3
311.35 508.08 0.43 c p3
311.50 507.72 0.43 c p3
311.64 508.08 0.43 c p3
311.79 508.44 0.43 c p3
311.94 507.00 0.43 c p3
312.08 508.44 0.43 c p3
312.23 507.18 0.43 c p3
312.37 508.44 0.43 c p3
312.52 506.29 0.43 c p3
312.66 507.00 0.43 c p3
312.81 507.00 0.43 c p3
312.96 508.26 0.43 c p3
313.10 508.44 0.43 c p3
313.25 507.72 0.43 c p3
313.39 507.72 0.43 c p3
313.54 508.44 0.43 c p3
313.68 508.80 0.43 c p3
313.83 507.18 0.43 c p3
313.97 509.88 0.43 c p3
314.12 507.90 0.43 c p3
314.27 509.34 0.43 c p3
314.41 507.36 0.43 c p3
314.56 507.90 0.43 c p3
314.70 508.44 0.43 c p3
314.85 507.36 0.43 c p3
314.99 507.72 0.43 c p3
315.14 507.54 0.43 c p3
315.28 509.70 0.43 c p3
315.43 508.44 0.43 c p3
315.58 507.54 0.43 c p3
315.72 507.72 0.43 c p3
315.87 508.44 0.43 c p3
316.01 509.16 0.43 c p3
316.16 507.00 0.43 c p3
316.30 509.16 0.43 c p3
316.45 507.90 0.43 c p3
316.59 508.44 0.43 c p3
316.74 507.90 0.43 c p3
316.89 507.36 0.43 c p3
317.03 507.36 0.43 c p3
317.18 509.34 0.43 c p3
317.32 507.54 0.43 c p3
317.47 507.18 0.43 c p3
317.61 509.34 0.43 c p3
317.76 507.54 0.43 c p3
317.91 508.62 0.43 c p3
318.05 507.54 0.43 c p3
318.20 508.80 0.43 c p3
318.34 507.18 0.43 c p3
318.49 508.26 0.43 c p3
318.63 507.54 0.43 c p3
318.78 507.90 0.43 c p3
318.92 508.62 0.43 c p3
319.07 507.36 0.43 c p3
319.22 508.44 0.43 c p3
319.36 506.65 0.43 c p3
319.51 508.08 0.43 c p3
319.65 507.72 0.43 c p3
319.80 509.52 0.43 c p3
319.94 507.36 0.43 c p3
320.09 507.90 0.43 c p3
320.23 508.08 0.43 c p3
320.38 506.83 0.43 c p3
320.53 508.26 0.43 c p3
320.67 508.08 0.43 c p3
320.82 508.80 0.43 c p3
320.96 507.00 0.43 c p3
321.11 508.98 0.43 c p3
321.25 506.83 0.43 c p3
321.40 508.44 0.43 c p3
321.54 507.90 0.43 c p3
321.69 507.54 0.43 c p3
321.84 507.72 0.43 c p3
321.98 506.47 0.43 c p3
322.13 508.08 0.43 c p3
322.27 508.26 0.43 c p3
322.42 508.98 0.43 c p3
322.56 507.72 0.43 c p3
322.71 509.16 0.43 c p3
322.85 508.62 0.43 c p3
323.00 508.08 0.43 c p3
323.15 508.62 0.43 c p3
323.29 509.34 0.43 c p3
323.44 508.98 0.43 c p3
323.58 507.72 0.43 c p3
323.73 507.54 0.43 c p3
323.87 506.83 0.43 c p3
324.02 507.72 0.43 c p3
324.17 507.54 0.43 c p3
324.31 508.26 0.43 c p3
324.46 509.34 0.43 c p3
324.60 508.44 0.43 c p3
324.75 508.26 0.43 c p3
324.89 507.00 0.43 c p3
325.04 509.52 0.43 c p3
325.18 507.90 0.43 c p3
325.33 508.26 0.43 c p3
325.48 508.26 0.43 c p3
325.62 509.88 0.43 c p3
325.77 507.36 0.43 c p3
325.91 509.16 0.43 c p3
326.06 508.62 0.43 c p3
326.20 507.00 0.43 c p3
326.35 507.90 0.43 c p3
326.49 507.90 0.43 c p3
326.64 509.52 0.43 c p3
326.79 506.11 0.43 c p3
326.93 508.62 0.43 c p3
327.08 507.54 0.43 c p3
327.22 508.26 0.43 c p3
327.37 508.08 0.43 c p3
327.51 507.54 0.43 c p3
327.66 509.34 0.43 c p3
327.80 508.08 0.43 c p3
327.95 509.16 0.43 c p3
328.10 508.62 0.43 c p3
328.24 508.08 0.43 c p3
328.39 508.08 0.43 c p3
328.53 508.80 0.43 c p3
328.68 506.29 0.43 c p3
328.82 509.16 0.43 c p3
328.97 508.44 0.43 c p3
329.12 508.08 0.43 c p3
329.26 508.80 0.43 c p3
329.41 507.36 0.43 c p3
329.55 508.80 0.43 c p3
329.70 507.72 0.43 c p3
329.84 508.98 0.43 c p3
329.99 507.90 0.43 c p3
330.13 509.16 0.43 c p3
330.28 507.72 0.43 c p3
330.43 508.26 0.43 c p3
330.57 507.00 0.43 c p3
330.72 509.34 0.43 c p3
330.86 509.52 0.43 c p3
331.01 507.36 0.43 c p3
331.15 507.36 0.43 c p3
331.30 508.08 0.43 c p3
331.44 508.26 0.43 c p3
331.59 507.36 0.43 c p3
331.74 509.16 0.43 c p3
331.88 508.08 0.43 c p3
332.03 508.44 0.43 c p3
332.17 508.26 0.43 c p3
332.32 507.18 0.43 c p3
332.46 508.98 0.43 c p3
332.61 507.00 0.43 c p3
332.75 507.90 0.43 c p3
332.90 507.72 0.43 c p3
333.05 509.16 0.43 c p3
333.19 508.98 0.43 c p3
333.34 507.18 0.43 c p3
333.48 507.90 0.43 c p3
333.63 508.08 0.43 c p3
333.77 508.98 0.43 c p3
333.92 507.54 0.43 c p3
334.07 508.80 0.43 c p3
334.21 507.72 0.43 c p3
334.36 509.52 0.43 c p3
334.50 508.08 0.43 c p3
334.65 507.90 0.43 c p3
334.79 508.62 0.43 c p3
334.94 508.98 0.43 c p3
335.08 507.18 0.43 c p3
335.23 507.90 0.43 c p3
335.38 508.80 0.43 c p3
335.52 508.26 0.43 c p3
335.67 508.26 0.43 c p3
335.81 507.72 0.43 c p3
335.96 508.98 0.43 c p3
336.10 508.44 0.43 c p3
336.25 509.16 0.43 c p3
336.39 507.54 0.43 c p3
336.54 507.00 0.43 c p3
336.69 507.54 0.43 c p3
336.83 508.44 0.43 c p3
336.98 508.62 0.43 c p3
337.12 508.44 0.43 c p3
337.27 508.44 0.43 c p3
337.41 508.80 0.43 c p3
337.56 508.98 0.43 c p3
337.70 507.72 0.43 c p3
337.85 507.90 0.43 c p3
338.00 507.90 0.43 c p3
338.14 507.54 0.43 c p3
338.29 508.26 0.43 c p3
338.43 506.83 0.43 c p3
338.58 508.62 0.43 c p3
338.72 507.00 0.43 c p3
338.87 509.52 0.43 c p3
339.02 507.18 0.43 c p3
339.16 508.44 0.43 c p3
339.31 508.44 0.43 c p3
339.45 508.98 0.43 c p3
339.60 508.62 0.43 c p3
339.74 507.54 0.43 c p3
339.89 508.80 0.43 c p3
340.03 508.08 0.43 c p3
340.18 510.06 0.43 c p3
340.33 507.54 0.43 c p3
340.47 509.70 0.43 c p3
340.62 508.08 0.43 c p3
340.76 508.08 0.43 c p3
340.91 507.00 0.43 c p3
341.05 508.44 0.43 c p3
341.20 508.44 0.43 c p3
341.34 509.16 0.43 c p3
341.49 507.90 0.43 c p3
341.64 507.54 0.43 c p3
341.78 508.44 0.43 c p3
341.93 506.65 0.43 c p3
342.07 507.90 0.43 c p3
342.22 508.44 0.43 c p3
342.36 508.80 0.43 c p3
342.51 506.47 0.43 c p3
342.65 508.44 0.43 c p3
342.80 509.34 0.43 c p3
342.95 508.80 0.43 c p3
343.09 508.62 0.43 c p3
343.24 507.72 0.43 c p3
343.38 508.80 0.43 c p3
343.53 507.90 0.43 c p3
343.67 508.62 0.43 c p3
343.82 507.18 0.43 c p3
343.97 508.98 0.43 c p3
344.11 507.90 0.43 c p3
344.26 508.08 0.43 c p3
344.40 508.98 0.43 c p3
344.55 508.26 0.43 c p3
344.69 508.26 0.43 c p3
344.84 507.18 0.43 c p3
344.98 507.90 0.43 c p3
345.13 507.36 0.43 c p3
345.28 508.26 0.43 c p3
345.42 508.62 0.43 c p3
345.57 509.16 0.43 c p3
345.71 509.16 0.43 c p3
345.86 507.90 0.43 c p3
346.00 509.16 0.43 c p3
346.15 508.26 0.43 c p3
346.29 508.26 0.43 c p3
346.44 507.00 0.43 c p3
346.59 509.16 0.43 c p3
346.73 507.36 0.43 c p3
346.88 509.70 0.43 c p3
347.02 507.54 0.43 c p3
347.17 508.98 0.43 c p3
347.31 508.26 0.43 c p3
347.46 507.72 0.43 c p3
347.60 508.62 0.43 c p3
347.75 507.36 0.43 c p3
347.90 508.80 0.43 c p3
348.04 506.83 0.43 c p3
348.19 509.16 0.43 c p3
348.33 508.08 0.43 c p3
348.48 508.26 0.43 c p3
348.62 509.16 0.43 c p3
348.77 508.08 0.43 c p3
348.92 509.70 0.43 c p3
349.06 508.26 0.43 c p3
349.21 508.62 0.43 c p3
349.35 507.72 0.43 c p3
349.50 509.34 0.43 c p3
349.64 507.90 0.43 c p3
349.79 508.26 0.43 c p3
349.93 507.18 0.43 c p3
350.08 507.54 0.43 c p3
350.23 508.80 0.43 c p3
350.37 508.62 0.43 c p3
350.52 509.34 0.43 c p3
350.66 507.90 0.43 c p3
350.81 507.36 0.43 c p3
350.95 507.54 0.43 c p3
351.10 507.72 0.43 c p3
351.24 508.08 0.43 c p3
351.39 509.16 0.43 c p3
351.54 508.26 0.43 c p3
351.68 508.08 0.43 c p3
351.83 508.80 0.43 c p3
351.97 507.54 0.43 c p3
352.12 508.44 0.43 c p3
352.26 506.83 0.43 c p3
352.41 507.72 0.43 c p3
352.55 506.83 0.43 c p3
352.70 508.26 0.43 c p3
352.85 507.36 0.43 c p3
352.99 507.72 0.43 c p3
353.14 507.72 0.43 c p3
353.28 507.54 0.43 c p3
353.43 508.26 0.43 c p3
353.57 506.65 0.43 c p3
353.72 508.62 0.43 c p3
353.86 507.90 0.43 c p3
354.01 509.52 0.43 c p3
354.16 509.16 0.43 c p3
354.30 509.16 0.43 c p3
354.45 507.36 0.43 c p3
354.59 508.08 0.43 c p3
354.74 507.00 0.43 c p3
354.88 508.08 0.43 c p3
355.03 509.52 0.43 c p3
355.18 507.72 0.43 c p3
355.32 508.62 0.43 c p3
355.47 506.65 0.43 c p3
355.61 508.44 0.43 c p3
355.76 507.00 0.43 c p3
355.90 508.98 0.43 c p3
356.05 506.83 0.43 c p3
356.19 507.90 0.43 c p3
356.34 508.80 0.43 c p3
356.49 508.08 0.43 c p3
356.63 507.72 0.43 c p3
356.78 508.08 0.43 c p3
356.92 508.80 0.43 c p3
357.07 507.18 0.43 c p3
357.21 507.72 0.43 c p3
357.36 507.36 0.43 c p3
357.50 508.98 0.43 c p3
357.65 508.26 0.43 c p3
357.80 509.70 0.43 c p3
357.94 508.44 0.43 c p3
358.09 507.18 0.43 c p3
358.23 508.98 0.43 c p3
358.38 508.62 0.43 c p3
358.52 509.16 0.43 c p3
358.67 507.36 0.43 c p3
358.81 507.90 0.43 c p3
358.96 507.72 0.43 c p3
359.11 507.36 0.43 c p3
359.25 506.83 0.43 c p3
359.40 507.00 0.43 c p3
359.54 508.62 0.43 c p3
359.69 507.18 0.43 c p3
359.83 508.80 0.43 c p3
359.98 507.90 0.43 c p3
360.13 508.62 0.43 c p3
360.27 507.72 0.43 c p3
360.42 509.88 0.43 c p3
360.56 508.80 0.43 c p3
360.71 509.88 0.43 c p3
360.85 508.26 0.43 c p3
361.00 507.90 0.43 c p3
361.14 508.26 0.43 c p3
361.29 508.44 0.43 c p3
361.44 508.08 0.43 c p3
361.58 507.54 0.43 c p3
361.73 506.65 0.43 c p3
361.87 507.72 0.43 c p3
362.02 509.16 0.43 c p3
362.16 507.90 0.43 c p3
362.31 508.80 0.43 c p3
362.45 508.62 0.43 c p3
362.60 507.00 0.43 c p3
362.75 507.90 0.43 c p3
362.89 508.62 0.43 c p3
363.04 509.34 0.43 c p3
363.18 506.83 0.43 c p3
363.33 507.72 0.43 c p3
363.47 507.72 0.43 c p3
363.62 508.80 0.43 c p3
363.76 508.44 0.43 c p3
363.91 509.52 0.43 c p3
364.06 506.83 0.43 c p3
364.20 506.83 0.43 c p3
364.35 508.26 0.43 c p3
364.49 507.18 0.43 c p3
364.64 508.26 0.43 c p3
364.78 506.29 0.43 c p3
364.93 509.34 0.43 c p3
365.08 507.18 0.43 c p3
365.22 508.08 0.43 c p3
365.37 507.54 0.43 c p3
365.51 507.00 0.43 c p3
365.66 507.72 0.43 c p3
365.80 507.36 0.43 c p3
365.95 509.70 0.43 c p3
366.09 507.72 0.43 c p3
366.24 508.98 0.43 c p3
366.39 507.54 0.43 c p3
366.53 508.44 0.43 c p3
366.68 507.18 0.43 c p3
366.82 508.26 0.43 c p3
366.97 508.08 0.43 c p3
367.11 507.54 0.43 c p3
367.26 508.08 0.43 c p3
367.40 508.62 0.43 c p3
367.55 508.44 0.43 c p3
367.70 507.18 0.43 c p3
367.84 506.29 0.43 c p3
367.99 508.26 0.43 c p3
368.13 508.62 0.43 c p3
368.28 506.29 0.43 c p3
368.42 507.90 0.43 c p3
368.57 507.54 0.43 c p3
368.71 508.26 0.43 c p3
368.86 509.16 0.43 c p3
369.01 508.80 0.43 c p3
369.15 509.34 0.43 c p3
369.30 508.26 0.43 c p3
369.44 508.80 0.43 c p3
369.59 507.36 0.43 c p3
369.73 508.44 0.43 c p3
369.88 507.18 0.43 c p3
370.03 507.90 0.43 c p3
370.17 507.90 0.43 c p3
370.32 508.98 0.43 c p3
370.46 508.44 0.43 c p3
370.61 507.18 0.43 c p3
370.75 508.26 0.43 c p3
370.90 508.80 0.43 c p3
371.04 507.90 0.43 c p3
371.19 507.90 0.43 c p3
371.34 507.36 0.43 c p3
371.48 507.54 0.43 c p3
371.63 508.62 0.43 c p3
371.77 508.26 0.43 c p3
371.92 508.26 0.43 c p3
372.06 506.83 0.43 c p3
372.21 508.26 0.43 c p3
372.35 508.62 0.43 c p3
372.50 508.26 0.43 c p3
372.65 506.83 0.43 c p3
372.79 508.44 0.43 c p3
372.94 508.62 0.43 c p3
373.08 507.18 0.43 c p3
373.23 508.44 0.43 c p3
373.37 507.00 0.43 c p3
373.52 508.08 0.43 c p3
373.66 506.83 0.43 c p3
373.81 508.26 0.43 c p3
373.96 507.90 0.43 c p3
374.10 507.18 0.43 c p3
374.25 507.90 0.43 c p3
374.39 507.90 0.43 c p3
374.54 507.72 0.43 c p3
374.68 508.80 0.43 c p3
374.83 508.62 0.43 c p3
374.98 507.00 0.43 c p3
375.12 508.26 0.43 c p3
375.27 508.62 0.43 c p3
375.41 509.34 0.43 c p3
375.56 508.26 0.43 c p3
375.70 508.08 0.43 c p3
375.85 508.44 0.43 c p3
375.99 508.26 0.43 c p3
376.14 508.08 0.43 c p3
376.29 505.78 0.43 c p3
376.43 508.08 0.43 c p3
376.58 507.54 0.43 c p3
376.72 508.98 0.43 c p3
376.87 507.00 0.43 c p3
377.01 508.98 0.43 c p3
377.16 507.90 0.43 c p3
377.30 508.62 0.43 c p3
377.45 508.80 0.43 c p3
377.60 508.08 0.43 c p3
377.74 509.52 0.43 c p3
377.89 508.44 0.43 c p3
378.03 508.62 0.43 c p3
378.18 508.98 0.43 c p3
378.32 509.34 0.43 c p3
378.47 507.00 0.43 c p3
378.61 508.62 0.43 c p3
378.76 508.26 0.43 c p3
378.91 508.98 0.43 c p3
379.05 508.08 0.43 c p3
379.20 508.44 0.43 c p3
379.34 508.80 0.43 c p3
379.49 507.00 0.43 c p3
379.63 509.34 0.43 c p3
379.78 506.83 0.43 c p3
379.93 508.44 0.43 c p3
380.07 506.29 0.43 c p3
380.22 508.62 0.43 c p3
380.36 507.72 0.43 c p3
380.51 508.98 0.43 c p3
380.65 507.00 0.43 c p3
380.80 508.44 0.43 c p3
380.94 509.16 0.43 c p3
381.09 507.90 0.43 c p3
381.24 508.26 0.43 c p3
381.38 507.36 0.43 c p3
381.53 508.98 0.43 c p3
381.67 508.08 0.43 c p3
381.82 508.44 0.43 c p3
381.96 507.72 0.43 c p3
382.11 507.90 0.43 c p3
382.25 507.18 0.43 c p3
382.40 507.00 0.43 c p3
0.00 0.00 432.00 576.00 cl
0 0 0 srgb
0.75 setlinewidth
[] 0 setdash
1 setlinecap
1 setlinejoin
10.00 setmiterlimit
np
236.96 345.60 m
145.59 0 l
o
np
236.96 345.60 m
0 -5.76 l
o
np
266.08 345.60 m
0 -5.76 l
o
np
295.19 345.60 m
0 -5.76 l
o
np
324.31 345.60 m
0 -5.76 l
o
np
353.43 345.60 m
0 -5.76 l
o
np
382.55 345.60 m
0 -5.76 l
o
/Font1 findfont 10 s
236.96 329.47 (0) .5 0 t
266.08 329.47 (200) .5 0 t
295.19 329.47 (400) .5 0 t
324.31 329.47 (600) .5 0 t
353.43 329.47 (800) .5 0 t
382.55 329.47 (1000) .5 0 t
np
216.00 352.00 m
0 147.02 l
o
np
216.00 352.00 m
-5.76 0 l
o
np
216.00 376.50 m
-5.76 0 l
o
np
216.00 401.01 m
-5.76 0 l
o
np
216.00 425.51 m
-5.76 0 l
o
np
216.00 450.01 m
-5.76 0 l
o
np
216.00 474.52 m
-5.76 0 l
o
np
216.00 499.02 m
-5.76 0 l
o
209.09 348.41 (0.00) 1 0 t
209.09 372.91 (0.05) 1 0 t
209.09 397.42 (0.10) 1 0 t
209.09 421.92 (0.15) 1 0 t
209.09 446.42 (0.20) 1 0 t
209.09 470.93 (0.25) 1 0 t
209.09 495.43 (0.30) 1 0 t
np
216.00 345.60 m
172.80 0 l
0 172.80 l
-172.80 0 l
0 -172.80 l
o
0.00 0.00 432.00 576.00 cl
/Font1 findfont 10 s
0 0 0 srgb
302.40 313.34 (Time / ms \(total\)) .5 0 t
190.66 432.00 (U / V) .5 90 t
216.00 345.60 388.80 518.40 cl
0 0 0 srgb
0.38 setlinewidth
[ 1.13 1.88] 0 setdash
1 setlinecap
1 setlinejoin
10.00 setmiterlimit
np
222.55 345.60 m
0 172.80 l
o
np
235.07 345.60 m
0 172.80 l
o
np
238.71 345.60 m
0 172.80 l
o
np
313.83 345.60 m
0 172.80 l
o
86.40 57.60 388.80 288.00 cl
1 0 0 srgb
1.50 setlinewidth
[] 0 setdash
1 setlinecap
1 setlinejoin
10.00 setmiterlimit
np
97.60 279.47 m
1.41 -8.99 l
1.40 -8.59 l
1.41 -8.21 l
1.41 -7.86 l
1.41 -7.51 l
1.40 -7.18 l
1.41 -6.87 l
1.41 -6.56 l
1.40 -6.28 l
1.41 -6.00 l
1.41 -5.74 l
1.40 -5.49 l
1.41 -5.25 l
1.41 -5.02 l
1.41 -4.80 l
1.40 -4.58 l
1.41 -4.39 l
1.41 -4.19 l
1.40 -4.02 l
1.41 -3.83 l
1.41 -3.67 l
1.40 -3.50 l
1.41 -3.36 l
1.41 -3.20 l
1.41 -3.07 l
1.40 -2.93 l
1.41 -2.80 l
1.41 -2.68 l
1.40 -2.56 l
1.41 -2.45 l
1.41 -2.35 l
1.41 -2.24 l
1.40 -2.14 l
1.41 -2.05 l
1.41 -1.96 l
1.40 -1.87 l
1.41 -1.79 l
1.41 -1.71 l
1.40 -1.64 l
1.41 -1.56 l
1.41 -1.50 l
1.41 -1.43 l
1.40 -1.37 l
1.41 -1.31 l
1.41 -1.25 l
1.40 -1.20 l
1.41 -1.14 l
1.41 -1.09 l
1.40 -1.05 l
1.41 -1.00 l
1.41 -0.96 l
1.41 -0.91 l
1.40 -0.88 l
1.41 -0.83 l
1.41 -0.80 l
1.40 -0.77 l
1.41 -0.73 l
1.41 -0.69 l
1.41 -0.67 l
1.40 -0.64 l
1.41 -0.61 l
1.41 -0.59 l
1.40 -0.56 l
1.41 -0.53 l
1.41 -0.51 l
1.40 -0.49 l
1.41 -0.47 l
1.41 -0.44 l
1.41 -0.43 l
1.40 -0.41 l
1.41 -0.39 l
1.41 -0.37 l
1.40 -0.36 l
1.41 -0.34 l
1.41 -0.32 l
1.40 -0.32 l
1.41 -0.30 l
1.41 -0.28 l
1.41 -0.27 l
1.40 -0.26 l
1.41 -0.25 l
1.41 -0.24 l
1.40 -0.23 l
1.41 -0.22 l
1.41 -0.21 l
1.41 -0.20 l
1.40 -0.19 l
1.41 -0.18 l
1.41 -0.17 l
1.40 -0.17 l
1.41 -0.16 l
1.41 -0.15 l
1.40 -0.15 l
1.41 -0.14 l
1.41 -0.13 l
1.41 -0.13 l
1.40 -0.12 l
1.41 -0.11 l
1.41 -0.12 l
238.30 76.74 lineto
1.41 -0.10 l
1.41 -0.10 l
1.40 -0.09 l
1.41 -0.09 l
1.41 -0.09 l
1.41 -0.08 l
1.40 -0.08 l
1.41 -0.07 l
1.41 -0.07 l
1.40 -0.07 l
1.41 -0.07 l
1.41 -0.06 l
1.40 -0.06 l
1.41 -0.05 l
1.41 -0.06 l
1.41 -0.05 l
1.40 -0.05 l
1.41 -0.05 l
1.41 -0.04 l
1.40 -0.05 l
1.41 -0.04 l
1.41 -0.04 l
1.41 -0.04 l
1.40 -0.03 l
1.41 -0.04 l
1.41 -0.03 l
1.40 -0.03 l
1.41 -0.03 l
1.41 -0.03 l
1.40 -0.03 l
1.41 -0.03 l
1.41 -0.02 l
1.41 -0.03 l
1.40 -0.02 l
1.41 -0.02 l
1.41 -0.02 l
1.40 -0.02 l
1.41 -0.02 l
1.41 -0.02 l
1.40 -0.02 l
1.41 -0.01 l
1.41 -0.02 l
1.41 -0.02 l
1.40 -0.01 l
1.41 -0.02 l
1.41 -0.01 l
1.40 -0.01 l
1.41 -0.01 l
1.41 -0.02 l
1.41 -0.01 l
1.40 -0.01 l
1.41 -0.01 l
1.41 -0.01 l
1.40 -0.01 l
1.41 -0.01 l
1.41 -0.01 l
1.40 0 l
1.41 -0.01 l
1.41 -0.01 l
1.41 -0.01 l
1.40 0 l
1.41 -0.01 l
1.41 -0.01 l
1.40 0 l
1.41 -0.01 l
1.41 0 l
1.40 -0.01 l
1.41 0 l
1.41 -0.01 l
1.41 0 l
1.40 -0.01 l
1.41 0 l
1.41 -0.01 l
1.40 0 l
1.41 0 l
1.41 -0.01 l
1.41 0 l
1.40 0 l
1.41 -0.01 l
1.41 0 l
1.40 0 l
1.41 -0.01 l
1.41 0 l
1.40 0 l
1.41 0 l
1.41 -0.01 l
1.41 0 l
1.40 0 l
1.41 0 l
1.41 0 l
1.40 -0.01 l
1.41 0 l
1.41 0 l
1.40 0 l
1.41 0 l
1.41 0 l
1.41 0 l
1.40 -0.01 l
1.41 0 l
o
0.00 0.00 432.00 576.00 cl
0 0 0 srgb
0.75 setlinewidth
[] 0 setdash
1 setlinecap
1 setlinejoin
10.00 setmiterlimit
np
97.60 57.60 m
280.00 0 l
o
np
97.60 57.60 m
0 -5.76 l
o
np
153.60 57.60 m
0 -5.76 l
o
np
209.60 57.60 m
0 -5.76 l
o
np
265.60 57.60 m
0 -5.76 l
o
np
321.60 57.60 m
0 -5.76 l
o
np
377.60 57.60 m
0 -5.76 l
o
/Font1 findfont 10 s
97.60 41.47 (0) .5 0 t
153.60 41.47 (200) .5 0 t
209.60 41.47 (400) .5 0 t
265.60 41.47 (600) .5 0 t
321.60 41.47 (800) .5 0 t
377.60 41.47 (1000) .5 0 t
np
86.40 66.13 m
0 191.63 l
o
np
86.40 66.13 m
-5.76 0 l
o
np
86.40 98.07 m
-5.76 0 l
o
np
86.40 130.01 m
-5.76 0 l
o
np
86.40 161.95 m
-5.76 0 l
o
np
86.40 193.88 m
-5.76 0 l
o
np
86.40 225.82 m
-5.76 0 l
o
np
86.40 257.76 m
-5.76 0 l
o
79.49 62.54 (0.00) 1 0 t
79.49 94.48 (0.02) 1 0 t
79.49 126.42 (0.04) 1 0 t
79.49 158.36 (0.06) 1 0 t
79.49 190.29 (0.08) 1 0 t
79.49 222.23 (0.10) 1 0 t
79.49 254.17 (0.12) 1 0 t
np
86.40 57.60 m
302.40 0 l
0 230.40 l
-302.40 0 l
0 -230.40 l
o
0.00 0.00 432.00 576.00 cl
/Font1 findfont 10 s
0 0 0 srgb
237.60 13.82 (Time / ms \(after pulse\)) .5 0 t
49.54 172.80 (Absorbance A) .5 90 t
86.40 57.60 388.80 288.00 cl
/bg { 1 1 1 srgb } def
0 0 0 srgb
0.75 setlinewidth
[] 0 setdash
1 setlinecap
1 setlinejoin
10.00 setmiterlimit
101.24 256.44 0.65 c p3
101.52 258.34 0.65 c p3
101.80 253.34 0.65 c p3
102.08 251.29 0.65 c p3
102.36 246.18 0.65 c p3
102.64 263.54 0.65 c p3
102.92 244.14 0.65 c p3
103.20 253.34 0.65 c p3
103.48 245.16 0.65 c p3
103.76 246.18 0.65 c p3
104.04 240.09 0.65 c p3
104.32 240.09 0.65 c p3
104.60 235.06 0.65 c p3
104.88 235.06 0.65 c p3
105.16 240.09 0.65 c p3
105.44 229.24 0.65 c p3
105.72 227.26 0.65 c p3
106.00 225.27 0.65 c p3
106.28 235.06 0.65 c p3
106.56 214.49 0.65 c p3
106.84 224.29 0.65 c p3
107.12 226.26 0.65 c p3
107.40 223.30 0.65 c p3
107.68 223.30 0.65 c p3
107.96 225.27 0.65 c p3
108.24 225.27 0.65 c p3
108.52 209.64 0.65 c p3
108.80 218.39 0.65 c p3
109.08 213.51 0.65 c p3
109.36 218.39 0.65 c p3
109.64 210.61 0.65 c p3
109.92 221.33 0.65 c p3
110.20 209.64 0.65 c p3
110.48 208.67 0.65 c p3
110.76 211.57 0.65 c p3
111.04 213.51 0.65 c p3
111.32 202.11 0.65 c p3
111.60 202.11 0.65 c p3
111.88 207.71 0.65 c p3
112.16 201.16 0.65 c p3
112.44 208.67 0.65 c p3
112.72 204.02 0.65 c p3
113.00 204.02 0.65 c p3
113.28 196.40 0.65 c p3
113.56 199.25 0.65 c p3
113.84 200.20 0.65 c p3
114.12 197.35 0.65 c p3
114.40 196.40 0.65 c p3
114.68 191.67 0.65 c p3
114.96 200.20 0.65 c p3
115.24 188.85 0.65 c p3
115.52 190.73 0.65 c p3
115.80 186.98 0.65 c p3
116.08 185.11 0.65 c p3
116.36 195.45 0.65 c p3
116.64 188.85 0.65 c p3
116.92 186.05 0.65 c p3
117.20 178.77 0.65 c p3
117.48 190.73 0.65 c p3
117.76 177.84 0.65 c p3
118.04 176.00 0.65 c p3
118.32 175.08 0.65 c p3
118.60 182.32 0.65 c p3
118.88 179.54 0.65 c p3
119.16 175.08 0.65 c p3
119.44 170.50 0.65 c p3
119.72 173.24 0.65 c p3
120.00 175.08 0.65 c p3
120.28 171.41 0.65 c p3
120.56 174.16 0.65 c p3
120.84 167.77 0.65 c p3
121.12 173.24 0.65 c p3
121.40 173.24 0.65 c p3
121.68 175.08 0.65 c p3
121.96 167.77 0.65 c p3
122.24 170.50 0.65 c p3
122.52 167.77 0.65 c p3
122.80 161.43 0.65 c p3
123.08 165.95 0.65 c p3
123.36 165.95 0.65 c p3
123.64 158.73 0.65 c p3
123.92 161.43 0.65 c p3
124.20 164.14 0.65 c p3
124.48 163.23 0.65 c p3
124.76 165.04 0.65 c p3
125.04 154.40 0.65 c p3
125.32 165.04 0.65 c p3
125.60 164.14 0.65 c p3
125.88 156.04 0.65 c p3
126.16 156.93 0.65 c p3
126.44 153.51 0.65 c p3
126.72 158.73 0.65 c p3
127.00 153.51 0.65 c p3
127.28 155.14 0.65 c p3
127.56 149.95 0.65 c p3
127.84 155.14 0.65 c p3
128.12 147.30 0.65 c p3
128.40 149.07 0.65 c p3
128.68 148.18 0.65 c p3
128.96 151.73 0.65 c p3
129.24 143.77 0.65 c p3
129.52 144.65 0.65 c p3
129.80 143.77 0.65 c p3
130.08 145.53 0.65 c p3
130.36 155.14 0.65 c p3
130.64 149.95 0.65 c p3
130.92 145.53 0.65 c p3
131.20 141.14 0.65 c p3
131.48 147.30 0.65 c p3
131.76 146.41 0.65 c p3
132.04 143.77 0.65 c p3
132.32 147.30 0.65 c p3
132.60 139.39 0.65 c p3
132.88 145.53 0.65 c p3
133.16 138.52 0.65 c p3
133.44 139.39 0.65 c p3
133.72 136.78 0.65 c p3
134.00 144.65 0.65 c p3
134.28 137.65 0.65 c p3
134.56 138.52 0.65 c p3
134.84 135.91 0.65 c p3
135.12 135.04 0.65 c p3
135.40 133.31 0.65 c p3
135.68 134.17 0.65 c p3
135.96 138.52 0.65 c p3
136.24 134.17 0.65 c p3
136.52 133.31 0.65 c p3
136.80 131.58 0.65 c p3
137.08 142.89 0.65 c p3
137.36 123.14 0.65 c p3
137.64 130.00 0.65 c p3
137.92 127.42 0.65 c p3
138.20 127.42 0.65 c p3
138.48 126.56 0.65 c p3
138.76 128.28 0.65 c p3
139.04 130.86 0.65 c p3
139.32 122.29 0.65 c p3
139.60 128.28 0.65 c p3
139.88 127.42 0.65 c p3
140.16 130.00 0.65 c p3
140.44 121.43 0.65 c p3
140.72 135.04 0.65 c p3
141.00 124.85 0.65 c p3
141.28 124.85 0.65 c p3
141.56 123.14 0.65 c p3
141.84 122.29 0.65 c p3
142.12 128.28 0.65 c p3
142.40 120.58 0.65 c p3
142.68 122.29 0.65 c p3
142.96 124.85 0.65 c p3
143.24 124.85 0.65 c p3
143.52 118.89 0.65 c p3
143.80 122.29 0.65 c p3
144.08 120.58 0.65 c p3
144.36 123.14 0.65 c p3
144.64 122.29 0.65 c p3
144.92 122.29 0.65 c p3
145.20 120.58 0.65 c p3
145.48 120.58 0.65 c p3
145.76 119.74 0.65 c p3
146.04 118.89 0.65 c p3
146.32 116.35 0.65 c p3
146.60 113.82 0.65 c p3
146.88 120.58 0.65 c p3
147.16 113.82 0.65 c p3
147.44 120.58 0.65 c p3
147.72 118.89 0.65 c p3
148.00 110.46 0.65 c p3
148.28 117.19 0.65 c p3
148.56 110.46 0.65 c p3
148.84 119.74 0.65 c p3
149.12 114.66 0.65 c p3
149.40 115.50 0.65 c p3
149.68 108.79 0.65 c p3
149.96 111.30 0.65 c p3
150.24 114.66 0.65 c p3
150.52 112.14 0.65 c p3
150.80 114.66 0.65 c p3
151.08 107.26 0.65 c p3
151.36 111.30 0.65 c p3
151.64 103.10 0.65 c p3
151.92 113.82 0.65 c p3
152.20 103.10 0.65 c p3
152.48 112.98 0.65 c p3
152.76 109.62 0.65 c p3
153.04 114.66 0.65 c p3
153.32 110.46 0.65 c p3
153.60 105.59 0.65 c p3
153.88 112.98 0.65 c p3
154.16 106.42 0.65 c p3
154.44 110.46 0.65 c p3
154.72 104.76 0.65 c p3
155.00 108.79 0.65 c p3
155.28 105.59 0.65 c p3
155.56 112.98 0.65 c p3
155.84 108.79 0.65 c p3
156.12 104.76 0.65 c p3
156.40 103.10 0.65 c p3
156.68 102.27 0.65 c p3
156.96 103.93 0.65 c p3
157.24 105.59 0.65 c p3
157.52 109.62 0.65 c p3
157.80 104.76 0.65 c p3
158.08 101.45 0.65 c p3
158.36 107.26 0.65 c p3
158.64 100.62 0.65 c p3
158.92 108.09 0.65 c p3
159.20 107.26 0.65 c p3
159.48 108.09 0.65 c p3
159.76 106.42 0.65 c p3
160.04 103.93 0.65 c p3
160.32 98.97 0.65 c p3
160.60 104.76 0.65 c p3
160.88 101.45 0.65 c p3
161.16 108.09 0.65 c p3
161.44 100.62 0.65 c p3
161.72 99.79 0.65 c p3
162.00 107.26 0.65 c p3
162.28 100.62 0.65 c p3
162.56 103.93 0.65 c p3
162.84 96.50 0.65 c p3
163.12 107.26 0.65 c p3
163.40 96.50 0.65 c p3
163.68 98.15 0.65 c p3
163.96 94.86 0.65 c p3
164.24 98.15 0.65 c p3
164.52 103.10 0.65 c p3
164.80 102.27 0.65 c p3
165.08 99.79 0.65 c p3
165.36 94.04 0.65 c p3
165.64 99.79 0.65 c p3
165.92 93.22 0.65 c p3
166.20 98.15 0.65 c p3
166.48 95.68 0.65 c p3
166.76 93.22 0.65 c p3
167.04 96.50 0.65 c p3
167.32 90.78 0.65 c p3
167.60 98.97 0.65 c p3
167.88 94.86 0.65 c p3
168.16 98.97 0.65 c p3
168.44 93.22 0.65 c p3
168.72 96.50 0.65 c p3
169.00 98.97 0.65 c p3
169.28 93.22 0.65 c p3
169.56 89.15 0.65 c p3
169.84 92.41 0.65 c p3
170.12 96.50 0.65 c p3
170.40 92.41 0.65 c p3
170.68 98.97 0.65 c p3
170.96 91.59 0.65 c p3
171.24 97.32 0.65 c p3
171.52 93.22 0.65 c p3
171.80 91.59 0.65 c p3
172.08 90.78 0.65 c p3
172.36 97.32 0.65 c p3
172.64 93.22 0.65 c p3
172.92 87.53 0.65 c p3
173.20 92.41 0.65 c p3
173.48 91.59 0.65 c p3
173.76 95.68 0.65 c p3
174.04 91.59 0.65 c p3
174.32 95.68 0.65 c p3
174.60 95.68 0.65 c p3
174.88 92.41 0.65 c p3
175.16 94.04 0.65 c p3
175.44 89.97 0.65 c p3
175.72 94.86 0.65 c p3
176.00 88.34 0.65 c p3
176.28 94.86 0.65 c p3
176.56 87.53 0.65 c p3
176.84 93.22 0.65 c p3
177.12 89.97 0.65 c p3
177.40 94.04 0.65 c p3
177.68 87.53 0.65 c p3
177.96 88.34 0.65 c p3
178.24 90.78 0.65 c p3
178.52 92.41 0.65 c p3
178.80 94.04 0.65 c p3
179.08 83.62 0.65 c p3
179.36 92.41 0.65 c p3
179.64 86.72 0.65 c p3
179.92 91.59 0.65 c p3
180.20 91.59 0.65 c p3
180.48 92.41 0.65 c p3
180.76 86.72 0.65 c p3
181.04 95.68 0.65 c p3
181.32 88.34 0.65 c p3
181.60 88.34 0.65 c p3
181.88 89.15 0.65 c p3
182.16 85.24 0.65 c p3
182.44 92.41 0.65 c p3
182.72 85.24 0.65 c p3
183.00 89.15 0.65 c p3
183.28 83.62 0.65 c p3
183.56 87.53 0.65 c p3
183.84 86.05 0.65 c p3
184.12 83.62 0.65 c p3
184.40 86.05 0.65 c p3
184.68 84.43 0.65 c p3
184.96 91.59 0.65 c p3
185.24 84.43 0.65 c p3
185.52 87.53 0.65 c p3
185.80 82.82 0.65 c p3
186.08 89.97 0.65 c p3
186.36 89.15 0.65 c p3
186.64 80.41 0.65 c p3
186.92 87.53 0.65 c p3
187.20 89.15 0.65 c p3
187.48 89.97 0.65 c p3
187.76 83.62 0.65 c p3
188.04 94.86 0.65 c p3
188.32 84.43 0.65 c p3
188.60 89.15 0.65 c p3
188.88 82.82 0.65 c p3
189.16 85.24 0.65 c p3
189.44 87.53 0.65 c p3
189.72 82.01 0.65 c p3
190.00 81.21 0.65 c p3
190.28 82.01 0.65 c p3
190.56 85.24 0.65 c p3
190.84 87.53 0.65 c p3
191.12 88.34 0.65 c p3
191.40 82.01 0.65 c p3
191.68 86.72 0.65 c p3
191.96 89.15 0.65 c p3
192.24 82.01 0.65 c p3
192.52 81.21 0.65 c p3
192.80 82.01 0.65 c p3
193.08 84.43 0.65 c p3
193.36 85.24 0.65 c p3
193.64 82.01 0.65 c p3
193.92 80.41 0.65 c p3
194.20 87.53 0.65 c p3
194.48 84.43 0.65 c p3
194.76 88.34 0.65 c p3
195.04 83.62 0.65 c p3
195.32 89.15 0.65 c p3
195.60 79.61 0.65 c p3
195.88 82.01 0.65 c p3
196.16 86.72 0.65 c p3
196.44 80.41 0.65 c p3
196.72 86.05 0.65 c p3
197.00 81.21 0.65 c p3
197.28 85.24 0.65 c p3
197.56 78.81 0.65 c p3
197.84 86.72 0.65 c p3
198.12 81.21 0.65 c p3
198.40 80.41 0.65 c p3
198.68 82.82 0.65 c p3
198.96 84.43 0.65 c p3
199.24 79.61 0.65 c p3
199.52 79.61 0.65 c p3
199.80 84.43 0.65 c p3
200.08 80.41 0.65 c p3
200.36 85.24 0.65 c p3
200.64 81.21 0.65 c p3
200.92 84.43 0.65 c p3
201.20 82.82 0.65 c p3
201.48 81.21 0.65 c p3
201.76 77.21 0.65 c p3
202.04 80.41 0.65 c p3
202.32 81.21 0.65 c p3
202.60 77.21 0.65 c p3
202.88 86.72 0.65 c p3
203.16 79.61 0.65 c p3
203.44 84.43 0.65 c p3
203.72 71.64 0.65 c p3
204.00 81.21 0.65 c p3
204.28 78.01 0.65 c p3
204.56 83.62 0.65 c p3
204.84 78.01 0.65 c p3
205.12 78.81 0.65 c p3
205.40 77.21 0.65 c p3
205.68 75.61 0.65 c p3
205.96 84.43 0.65 c p3
206.24 75.61 0.65 c p3
206.52 86.05 0.65 c p3
206.80 77.21 0.65 c p3
207.08 83.62 0.65 c p3
207.36 83.62 0.65 c p3
207.64 78.01 0.65 c p3
207.92 82.82 0.65 c p3
208.20 81.21 0.65 c p3
208.48 86.72 0.65 c p3
208.76 82.82 0.65 c p3
209.04 82.01 0.65 c p3
209.32 80.41 0.65 c p3
209.60 83.62 0.65 c p3
209.88 76.41 0.65 c p3
210.16 76.41 0.65 c p3
210.44 78.81 0.65 c p3
210.72 80.41 0.65 c p3
211.00 84.43 0.65 c p3
211.28 72.43 0.65 c p3
211.56 83.62 0.65 c p3
211.84 74.82 0.65 c p3
212.12 85.24 0.65 c p3
212.40 76.41 0.65 c p3
212.68 82.82 0.65 c p3
212.96 73.23 0.65 c p3
213.24 80.41 0.65 c p3
213.52 77.21 0.65 c p3
213.80 74.82 0.65 c p3
214.08 78.81 0.65 c p3
214.36 85.24 0.65 c p3
214.64 83.62 0.65 c p3
214.92 74.02 0.65 c p3
215.20 74.02 0.65 c p3
215.48 80.41 0.65 c p3
215.76 78.01 0.65 c p3
216.04 77.21 0.65 c p3
216.32 78.01 0.65 c p3
216.60 77.21 0.65 c p3
216.88 82.82 0.65 c p3
217.16 81.21 0.65 c p3
217.44 77.21 0.65 c p3
217.72 82.82 0.65 c p3
218.00 74.02 0.65 c p3
218.28 80.41 0.65 c p3
218.56 75.61 0.65 c p3
218.84 80.41 0.65 c p3
219.12 74.02 0.65 c p3
219.40 82.82 0.65 c p3
219.68 75.61 0.65 c p3
219.96 74.82 0.65 c p3
220.24 78.81 0.65 c p3
220.52 78.01 0.65 c p3
220.80 76.41 0.65 c p3
221.08 70.85 0.65 c p3
221.36 78.81 0.65 c p3
221.64 76.41 0.65 c p3
221.92 77.21 0.65 c p3
222.20 75.61 0.65 c p3
222.48 77.21 0.65 c p3
222.76 80.41 0.65 c p3
223.04 78.01 0.65 c p3
223.32 81.21 0.65 c p3
223.60 75.61 0.65 c p3
223.88 82.82 0.65 c p3
224.16 72.43 0.65 c p3
224.44 76.41 0.65 c p3
224.72 78.81 0.65 c p3
225.00 86.05 0.65 c p3
225.28 78.81 0.65 c p3
225.56 82.01 0.65 c p3
225.84 82.01 0.65 c p3
226.12 78.01 0.65 c p3
226.40 83.62 0.65 c p3
226.68 82.01 0.65 c p3
226.96 82.01 0.65 c p3
227.24 78.01 0.65 c p3
227.52 78.81 0.65 c p3
227.80 78.81 0.65 c p3
228.08 77.21 0.65 c p3
228.36 74.82 0.65 c p3
228.64 72.43 0.65 c p3
228.92 77.21 0.65 c p3
229.20 72.43 0.65 c p3
229.48 78.01 0.65 c p3
229.76 75.61 0.65 c p3
230.04 78.81 0.65 c p3
230.32 74.02 0.65 c p3
230.60 76.41 0.65 c p3
230.88 74.82 0.65 c p3
231.16 76.41 0.65 c p3
231.44 71.64 0.65 c p3
231.72 74.82 0.65 c p3
232.00 74.02 0.65 c p3
232.28 71.64 0.65 c p3
232.56 78.01 0.65 c p3
232.84 74.82 0.65 c p3
233.12 77.21 0.65 c p3
233.40 73.23 0.65 c p3
233.68 78.01 0.65 c p3
233.96 74.82 0.65 c p3
234.24 76.41 0.65 c p3
234.52 78.01 0.65 c p3
234.80 74.02 0.65 c p3
235.08 82.82 0.65 c p3
235.36 73.23 0.65 c p3
235.64 84.43 0.65 c p3
235.92 74.02 0.65 c p3
236.20 79.61 0.65 c p3
236.48 78.81 0.65 c p3
236.76 78.81 0.65 c p3
237.04 79.61 0.65 c p3
237.32 78.01 0.65 c p3
237.60 78.81 0.65 c p3
237.88 77.21 0.65 c p3
238.16 78.81 0.65 c p3
238.44 75.61 0.65 c p3
238.72 78.81 0.65 c p3
239.00 76.41 0.65 c p3
239.28 72.43 0.65 c p3
239.56 78.81 0.65 c p3
239.84 72.43 0.65 c p3
240.12 82.82 0.65 c p3
240.40 78.81 0.65 c p3
240.68 75.61 0.65 c p3
240.96 76.41 0.65 c p3
241.24 78.01 0.65 c p3
241.52 76.41 0.65 c p3
241.80 74.82 0.65 c p3
242.08 81.21 0.65 c p3
242.36 74.82 0.65 c p3
242.64 80.41 0.65 c p3
242.92 74.82 0.65 c p3
243.20 84.43 0.65 c p3
243.48 81.21 0.65 c p3
243.76 81.21 0.65 c p3
244.04 75.61 0.65 c p3
244.32 74.82 0.65 c p3
244.60 78.01 0.65 c p3
244.88 78.01 0.65 c p3
245.16 74.82 0.65 c p3
245.44 73.23 0.65 c p3
245.72 80.41 0.65 c p3
216.00 201.60 367.20 247.68 cl
0 0 0 srgb
0.75 setlinewidth
[] 0 setdash
1 setlinecap
1 setlinejoin
10.00 setmiterlimit
221.60 224.07 0.43 c p1
221.87 227.52 0.43 c p1
222.14 224.20 0.43 c p1
222.41 223.74 0.43 c p1
222.69 220.27 0.43 c p1
222.96 238.86 0.43 c p1
223.23 221.33 0.43 c p1
223.50 231.88 0.43 c p1
223.77 225.34 0.43 c p1
224.04 227.82 0.43 c p1
224.31 223.31 0.43 c p1
224.58 224.76 0.43 c p1
224.86 221.27 0.43 c p1
225.13 222.70 0.43 c p1
225.40 229.06 0.43 c p1
225.67 219.80 0.43 c p1
225.94 219.25 0.43 c p1
226.21 218.68 0.43 c p1
226.48 229.66 0.43 c p1
226.76 210.81 0.43 c p1
227.03 221.78 0.43 c p1
227.30 225.05 0.43 c p1
227.57 223.46 0.43 c p1
227.84 224.77 0.43 c p1
228.11 228.01 0.43 c p1
228.38 229.29 0.43 c p1
228.65 215.21 0.43 c p1
228.93 225.07 0.43 c p1
229.20 221.53 0.43 c p1
229.47 227.56 0.43 c p1
229.74 221.14 0.43 c p1
230.01 232.90 0.43 c p1
230.28 222.62 0.43 c p1
230.55 222.87 0.43 c p1
230.82 226.90 0.43 c p1
231.10 229.98 0.43 c p1
231.37 219.95 0.43 c p1
231.64 221.10 0.43 c p1
231.91 227.75 0.43 c p1
232.18 222.44 0.43 c p1
232.45 230.95 0.43 c p1
232.72 227.50 0.43 c p1
233.00 228.60 0.43 c p1
233.27 222.21 0.43 c p1
233.54 226.09 0.43 c p1
233.81 228.10 0.43 c p1
234.08 226.37 0.43 c p1
234.35 226.49 0.43 c p1
234.62 222.90 0.43 c p1
234.89 232.31 0.43 c p1
235.17 222.20 0.43 c p1
235.44 225.06 0.43 c p1
235.71 222.39 0.43 c p1
235.98 221.55 0.43 c p1
236.25 232.70 0.43 c p1
236.52 227.20 0.43 c p1
236.79 225.42 0.43 c p1
237.07 219.24 0.43 c p1
237.34 231.95 0.43 c p1
237.61 220.24 0.43 c p1
237.88 219.37 0.43 c p1
238.15 219.40 0.43 c p1
238.42 227.43 0.43 c p1
238.69 225.62 0.43 c p1
238.96 222.14 0.43 c p1
239.24 218.54 0.43 c p1
239.51 222.13 0.43 c p1
239.78 224.82 0.43 c p1
240.05 222.10 0.43 c p1
240.32 225.66 0.43 c p1
240.59 220.24 0.43 c p1
240.86 226.48 0.43 c p1
241.13 227.32 0.43 c p1
241.41 229.96 0.43 c p1
241.68 223.61 0.43 c p1
241.95 227.11 0.43 c p1
242.22 225.25 0.43 c p1
242.49 219.83 0.43 c p1
242.76 225.07 0.43 c p1
243.03 225.86 0.43 c p1
243.31 219.56 0.43 c p1
243.58 222.99 0.43 c p1
243.85 226.43 0.43 c p1
244.12 226.30 0.43 c p1
244.39 228.84 0.43 c p1
244.66 219.14 0.43 c p1
244.93 230.34 0.43 c p1
245.20 230.19 0.43 c p1
245.48 222.97 0.43 c p1
245.75 224.57 0.43 c p1
246.02 221.93 0.43 c p1
246.29 227.77 0.43 c p1
246.56 223.35 0.43 c p1
246.83 225.66 0.43 c p1
247.10 221.25 0.43 c p1
247.38 227.04 0.43 c p1
247.65 220.02 0.43 c p1
247.92 222.43 0.43 c p1
248.19 222.23 0.43 c p1
248.46 226.38 0.43 c p1
248.73 219.23 0.43 c p1
249.00 220.74 0.43 c p1
249.27 220.53 0.43 c p1
249.55 222.90 0.43 c p1
249.82 232.97 0.43 c p1
250.09 228.50 0.43 c p1
250.36 224.79 0.43 c p1
250.63 221.09 0.43 c p1
250.90 227.75 0.43 c p1
251.17 227.49 0.43 c p1
251.44 225.50 0.43 c p1
251.72 229.56 0.43 c p1
251.99 222.39 0.43 c p1
252.26 229.00 0.43 c p1
252.53 222.70 0.43 c p1
252.80 224.13 0.43 c p1
253.07 222.13 0.43 c p1
253.34 230.43 0.43 c p1
253.62 224.11 0.43 c p1
253.89 225.53 0.43 c p1
254.16 223.51 0.43 c p1
254.43 223.21 0.43 c p1
254.70 222.04 0.43 c p1
254.97 223.43 0.43 c p1
255.24 228.23 0.43 c p1
255.51 224.49 0.43 c p1
255.79 224.16 0.43 c p1
256.06 222.98 0.43 c p1
256.33 234.61 0.43 c p1
256.60 215.71 0.43 c p1
256.87 222.95 0.43 c p1
257.14 220.92 0.43 c p1
257.41 221.42 0.43 c p1
257.69 221.06 0.43 c p1
257.96 223.24 0.43 c p1
258.23 226.25 0.43 c p1
258.50 218.31 0.43 c p1
258.77 224.67 0.43 c p1
259.04 224.30 0.43 c p1
259.31 227.29 0.43 c p1
259.58 219.35 0.43 c p1
259.86 233.17 0.43 c p1
260.13 223.61 0.43 c p1
260.40 224.06 0.43 c p1
260.67 222.82 0.43 c p1
260.94 222.43 0.43 c p1
261.21 228.75 0.43 c p1
261.48 221.63 0.43 c p1
261.76 223.73 0.43 c p1
262.03 226.67 0.43 c p1
262.30 227.09 0.43 c p1
262.57 221.65 0.43 c p1
262.84 225.40 0.43 c p1
263.11 224.14 0.43 c p1
263.38 227.06 0.43 c p1
263.65 226.63 0.43 c p1
263.93 227.03 0.43 c p1
264.20 225.75 0.43 c p1
264.47 226.14 0.43 c p1
264.74 225.70 0.43 c p1
265.01 225.25 0.43 c p1
265.28 223.14 0.43 c p1
265.55 221.03 0.43 c p1
265.82 228.06 0.43 c p1
266.10 221.78 0.43 c p1
266.37 228.80 0.43 c p1
266.64 227.49 0.43 c p1
266.91 219.58 0.43 c p1
267.18 226.55 0.43 c p1
267.45 220.29 0.43 c p1
267.72 229.76 0.43 c p1
268.00 225.12 0.43 c p1
268.27 226.30 0.43 c p1
268.54 220.04 0.43 c p1
268.81 222.85 0.43 c p1
269.08 226.49 0.43 c p1
269.35 224.35 0.43 c p1
269.62 227.16 0.43 c p1
269.89 220.21 0.43 c p1
270.17 224.51 0.43 c p1
270.44 216.78 0.43 c p1
270.71 227.63 0.43 c p1
270.98 217.42 0.43 c p1
271.25 227.43 0.43 c p1
271.52 224.45 0.43 c p1
271.79 229.70 0.43 c p1
272.07 225.88 0.43 c p1
272.34 221.41 0.43 c p1
272.61 228.96 0.43 c p1
272.88 222.82 0.43 c p1
273.15 227.08 0.43 c p1
273.42 221.78 0.43 c p1
273.69 226.02 0.43 c p1
273.96 223.17 0.43 c p1
274.24 230.71 0.43 c p1
274.51 226.88 0.43 c p1
274.78 223.20 0.43 c p1
275.05 221.85 0.43 c p1
275.32 221.31 0.43 c p1
275.59 223.21 0.43 c p1
275.86 225.11 0.43 c p1
276.13 229.34 0.43 c p1
276.41 224.83 0.43 c p1
276.68 221.84 0.43 c p1
276.95 227.80 0.43 c p1
277.22 221.54 0.43 c p1
277.49 229.14 0.43 c p1
277.76 228.57 0.43 c p1
278.03 229.64 0.43 c p1
278.31 228.25 0.43 c p1
278.58 226.05 0.43 c p1
278.85 221.42 0.43 c p1
279.12 227.36 0.43 c p1
279.39 224.34 0.43 c p1
279.66 231.10 0.43 c p1
279.93 224.00 0.43 c p1
280.20 223.42 0.43 c p1
280.48 230.99 0.43 c p1
280.75 224.70 0.43 c p1
281.02 228.18 0.43 c p1
281.29 221.11 0.43 c p1
281.56 231.90 0.43 c p1
281.83 221.55 0.43 c p1
282.10 223.39 0.43 c p1
282.38 220.38 0.43 c p1
282.65 223.82 0.43 c p1
282.92 228.90 0.43 c p1
283.19 228.30 0.43 c p1
283.46 226.08 0.43 c p1
283.73 220.64 0.43 c p1
284.00 226.49 0.43 c p1
284.27 220.25 0.43 c p1
284.55 225.28 0.43 c p1
284.82 223.06 0.43 c p1
285.09 220.85 0.43 c p1
285.36 224.27 0.43 c p1
285.63 218.84 0.43 c p1
285.90 227.08 0.43 c p1
286.17 223.24 0.43 c p1
286.44 227.46 0.43 c p1
286.72 222.01 0.43 c p1
286.99 225.41 0.43 c p1
287.26 228.02 0.43 c p1
287.53 222.57 0.43 c p1
287.80 218.75 0.43 c p1
288.07 222.13 0.43 c p1
288.34 226.33 0.43 c p1
288.62 222.48 0.43 c p1
288.89 229.10 0.43 c p1
289.16 222.03 0.43 c p1
289.43 227.84 0.43 c p1
289.70 223.98 0.43 c p1
289.97 222.55 0.43 c p1
290.24 221.92 0.43 c p1
290.51 228.51 0.43 c p1
290.79 224.65 0.43 c p1
291.06 219.22 0.43 c p1
291.33 224.18 0.43 c p1
291.60 223.54 0.43 c p1
291.87 227.71 0.43 c p1
292.14 223.85 0.43 c p1
292.41 228.03 0.43 c p1
292.69 228.18 0.43 c p1
292.96 225.12 0.43 c p1
293.23 226.88 0.43 c p1
293.50 223.03 0.43 c p1
293.77 227.98 0.43 c p1
294.04 221.73 0.43 c p1
294.31 228.28 0.43 c p1
294.58 221.22 0.43 c p1
294.86 226.96 0.43 c p1
295.13 223.91 0.43 c p1
295.40 228.05 0.43 c p1
295.67 221.80 0.43 c p1
295.94 222.73 0.43 c p1
296.21 225.27 0.43 c p1
296.48 227.00 0.43 c p1
296.76 228.75 0.43 c p1
297.03 218.65 0.43 c p1
297.30 227.41 0.43 c p1
297.57 221.95 0.43 c p1
297.84 226.87 0.43 c p1
298.11 227.00 0.43 c p1
298.38 227.93 0.43 c p1
298.65 222.47 0.43 c p1
298.93 231.40 0.43 c p1
299.20 224.31 0.43 c p1
299.47 224.44 0.43 c p1
299.74 225.36 0.43 c p1
300.01 221.63 0.43 c p1
300.28 228.80 0.43 c p1
300.55 221.88 0.43 c p1
300.82 225.84 0.43 c p1
301.10 220.53 0.43 c p1
301.37 224.48 0.43 c p1
301.64 223.14 0.43 c p1
301.91 220.88 0.43 c p1
302.18 223.37 0.43 c p1
302.45 221.89 0.43 c p1
302.72 229.04 0.43 c p1
303.00 222.12 0.43 c p1
303.27 225.27 0.43 c p1
303.54 220.75 0.43 c p1
303.81 227.88 0.43 c p1
304.08 227.19 0.43 c p1
304.35 218.70 0.43 c p1
304.62 225.80 0.43 c p1
304.89 227.50 0.43 c p1
305.17 228.40 0.43 c p1
305.44 222.28 0.43 c p1
305.71 233.42 0.43 c p1
305.98 223.27 0.43 c p1
306.25 228.01 0.43 c p1
306.52 221.89 0.43 c p1
306.79 224.36 0.43 c p1
307.07 226.71 0.43 c p1
307.34 221.39 0.43 c p1
307.61 220.69 0.43 c p1
307.88 221.58 0.43 c p1
308.15 224.83 0.43 c p1
308.42 227.18 0.43 c p1
308.69 228.07 0.43 c p1
308.96 221.94 0.43 c p1
309.24 226.66 0.43 c p1
309.51 229.13 0.43 c p1
309.78 222.21 0.43 c p1
310.05 221.51 0.43 c p1
310.32 222.39 0.43 c p1
310.59 224.85 0.43 c p1
310.86 225.72 0.43 c p1
311.13 222.64 0.43 c p1
311.41 221.15 0.43 c p1
311.68 228.23 0.43 c p1
311.95 225.27 0.43 c p1
312.22 229.19 0.43 c p1
312.49 224.64 0.43 c p1
312.76 230.15 0.43 c p1
313.03 220.85 0.43 c p1
313.31 223.29 0.43 c p1
313.58 228.00 0.43 c p1
313.85 221.87 0.43 c p1
314.12 227.49 0.43 c p1
314.39 222.81 0.43 c p1
314.66 226.85 0.43 c p1
314.93 220.60 0.43 c p1
315.20 228.45 0.43 c p1
315.48 223.11 0.43 c p1
315.75 222.40 0.43 c p1
316.02 224.84 0.43 c p1
316.29 226.49 0.43 c p1
316.56 221.83 0.43 c p1
316.83 221.90 0.43 c p1
317.10 226.70 0.43 c p1
317.38 222.82 0.43 c p1
317.65 227.63 0.43 c p1
317.92 223.75 0.43 c p1
318.19 226.97 0.43 c p1
318.46 225.46 0.43 c p1
318.73 223.94 0.43 c p1
319.00 220.08 0.43 c p1
319.27 223.29 0.43 c p1
319.55 224.14 0.43 c p1
319.82 220.27 0.43 c p1
320.09 229.68 0.43 c p1
320.36 222.75 0.43 c p1
320.63 227.55 0.43 c p1
320.90 215.05 0.43 c p1
321.17 224.51 0.43 c p1
321.44 221.43 0.43 c p1
321.72 227.00 0.43 c p1
321.99 221.54 0.43 c p1
322.26 222.39 0.43 c p1
322.53 220.88 0.43 c p1
322.80 219.37 0.43 c p1
323.07 228.09 0.43 c p1
323.34 219.48 0.43 c p1
323.62 229.79 0.43 c p1
323.89 221.16 0.43 c p1
324.16 227.52 0.43 c p1
324.43 227.57 0.43 c p1
324.70 222.11 0.43 c p1
324.97 226.89 0.43 c p1
325.24 225.36 0.43 c p1
325.51 230.83 0.43 c p1
325.79 227.05 0.43 c p1
326.06 226.31 0.43 c p1
326.33 224.79 0.43 c p1
326.60 228.00 0.43 c p1
326.87 220.96 0.43 c p1
327.14 221.01 0.43 c p1
327.41 223.41 0.43 c p1
327.69 225.04 0.43 c p1
327.96 229.03 0.43 c p1
328.23 217.30 0.43 c p1
328.50 228.34 0.43 c p1
328.77 219.73 0.43 c p1
329.04 230.02 0.43 c p1
329.31 221.39 0.43 c p1
329.58 227.74 0.43 c p1
329.86 218.36 0.43 c p1
330.13 225.46 0.43 c p1
330.40 222.36 0.43 c p1
330.67 220.06 0.43 c p1
330.94 224.02 0.43 c p1
331.21 230.38 0.43 c p1
331.48 228.84 0.43 c p1
331.76 219.45 0.43 c p1
332.03 219.49 0.43 c p1
332.30 225.81 0.43 c p1
332.57 223.49 0.43 c p1
332.84 222.75 0.43 c p1
333.11 223.57 0.43 c p1
333.38 222.83 0.43 c p1
333.65 228.38 0.43 c p1
333.93 226.84 0.43 c p1
334.20 222.95 0.43 c p1
334.47 228.50 0.43 c p1
334.74 219.90 0.43 c p1
335.01 226.21 0.43 c p1
335.28 221.54 0.43 c p1
335.55 226.29 0.43 c p1
335.82 220.05 0.43 c p1
336.10 228.73 0.43 c p1
336.37 221.69 0.43 c p1
336.64 220.94 0.43 c p1
336.91 224.90 0.43 c p1
337.18 224.15 0.43 c p1
337.45 222.62 0.43 c p1
337.72 217.19 0.43 c p1
338.00 225.04 0.43 c p1
338.27 222.72 0.43 c p1
338.54 223.54 0.43 c p1
338.81 222.01 0.43 c p1
339.08 223.61 0.43 c p1
339.35 226.78 0.43 c p1
339.62 224.46 0.43 c p1
339.89 227.64 0.43 c p1
340.17 222.17 0.43 c p1
340.44 229.28 0.43 c p1
340.71 219.12 0.43 c p1
340.98 223.05 0.43 c p1
341.25 225.44 0.43 c p1
341.52 232.58 0.43 c p1
341.79 225.50 0.43 c p1
342.07 228.68 0.43 c p1
342.34 228.71 0.43 c p1
342.61 224.80 0.43 c p1
342.88 230.35 0.43 c p1
343.15 228.80 0.43 c p1
343.42 228.83 0.43 c p1
343.69 224.92 0.43 c p1
343.96 225.74 0.43 c p1
344.24 225.77 0.43 c p1
344.51 224.22 0.43 c p1
344.78 221.90 0.43 c p1
345.05 219.59 0.43 c p1
345.32 224.31 0.43 c p1
345.59 219.65 0.43 c p1
345.86 225.15 0.43 c p1
346.13 222.82 0.43 c p1
346.41 225.99 0.43 c p1
346.68 221.31 0.43 c p1
346.95 223.68 0.43 c p1
347.22 222.14 0.43 c p1
347.49 223.74 0.43 c p1
347.76 219.08 0.43 c p1
348.03 222.22 0.43 c p1
348.31 221.46 0.43 c p1
348.58 219.15 0.43 c p1
348.85 225.43 0.43 c p1
349.12 222.32 0.43 c p1
349.39 224.69 0.43 c p1
349.66 220.81 0.43 c p1
349.93 225.52 0.43 c p1
350.20 222.41 0.43 c p1
350.48 224.00 0.43 c p1
350.75 225.59 0.43 c p1
351.02 221.70 0.43 c p1
351.29 230.37 0.43 c p1
351.56 220.97 0.43 c p1
351.83 231.99 0.43 c p1
352.10 221.79 0.43 c p1
352.38 227.30 0.43 c p1
352.65 226.54 0.43 c p1
352.92 226.56 0.43 c p1
353.19 227.37 0.43 c p1
353.46 225.81 0.43 c p1
353.73 226.62 0.43 c p1
354.00 225.07 0.43 c p1
354.27 226.66 0.43 c p1
354.55 223.55 0.43 c p1
354.82 226.70 0.43 c p1
355.09 224.37 0.43 c p1
355.36 220.48 0.43 c p1
355.63 226.76 0.43 c p1
355.90 220.52 0.43 c p1
356.17 230.74 0.43 c p1
356.44 226.82 0.43 c p1
356.72 223.70 0.43 c p1
356.99 224.50 0.43 c p1
357.26 226.09 0.43 c p1
357.53 224.54 0.43 c p1
357.80 222.99 0.43 c p1
358.07 229.29 0.43 c p1
358.34 223.03 0.43 c p1
358.62 228.54 0.43 c p1
358.89 223.06 0.43 c p1
359.16 232.53 0.43 c p1
359.43 229.38 0.43 c p1
359.70 229.40 0.43 c p1
359.97 223.92 0.43 c p1
360.24 223.15 0.43 c p1
360.51 226.30 0.43 c p1
360.79 226.32 0.43 c p1
361.06 223.20 0.43 c p1
361.33 221.66 0.43 c p1
361.60 228.73 0.43 c p1
0.00 0.00 432.00 576.00 cl
0 0 0 srgb
0.75 setlinewidth
[] 0 setdash
1 setlinecap
1 setlinejoin
10.00 setmiterlimit
np
218.07 201.60 m
135.66 0 l
o
np
218.07 201.60 m
0 -5.76 l
o
np
245.20 201.60 m
0 -5.76 l
o
np
272.34 201.60 m
0 -5.76 l
o
np
299.47 201.60 m
0 -5.76 l
o
np
326.60 201.60 m
0 -5.76 l
o
np
353.73 201.60 m
0 -5.76 l
o
/Font1 findfont 6 s
218.07 185.47 (0) .5 0 t
245.20 185.47 (100) .5 0 t
272.34 185.47 (200) .5 0 t
299.47 185.47 (300) .5 0 t
326.60 185.47 (400) .5 0 t
353.73 185.47 (500) .5 0 t
np
216.00 208.95 m
0 31.38 l
o
np
216.00 208.95 m
-5.76 0 l
o
np
216.00 216.80 m
-5.76 0 l
o
np
216.00 224.64 m
-5.76 0 l
o
np
216.00 232.48 m
-5.76 0 l
o
np
216.00 240.33 m
-5.76 0 l
o
209.09 206.80 (-0.010) 1 0 t
209.09 214.64 (-0.005) 1 0 t
209.09 222.49 (0.000) 1 0 t
209.09 230.33 (0.005) 1 0 t
209.09 238.17 (0.010) 1 0 t
np
216.00 201.60 m
151.20 0 l
0 46.08 l
-151.20 0 l
0 -46.08 l
o
0.00 0.00 432.00 576.00 cl
/Font1 findfont 9 s
0 0 0 srgb
291.60 262.88 (Residuals) .5 0 t
59.04 73.44 401.76 516.96 cl
ep
%%Trailer
%%Pages: 1
%%EOF
