%!PS-Adobe-3.0 EPSF-3.0
%%DocumentNeededResources: font Helvetica
%%+ font Helvetica-Bold
%%+ font Helvetica-Oblique
%%+ font Helvetica-BoldOblique
%%+ font Symbol
%%Title: R Graphics Output
%%Creator: R Software
%%Pages: (atend)
%%BoundingBox: 0 0 432 576
%%EndComments
%%BeginProlog
/bp  { gs sRGB gs } def
% begin .ps.prolog
/gs  { gsave } bind def
/gr  { grestore } bind def
/ep  { showpage gr gr } bind def
/m   { moveto } bind def
/l  { rlineto } bind def
/np  { newpath } bind def
/cp  { closepath } bind def
/f   { fill } bind def
/o   { stroke } bind def
/c   { newpath 0 360 arc } bind def
/r   { 4 2 roll moveto 1 copy 3 -1 roll exch 0 exch rlineto 0 rlineto -1 mul 0 exch rlineto closepath } bind def
/p1  { stroke } bind def
/p2  { gsave bg fill grestore newpath } bind def
/p3  { gsave bg fill grestore stroke } bind def
/p6  { gsave bg eofill grestore newpath } bind def
/p7  { gsave bg eofill grestore stroke } bind def
/t   { 5 -2 roll moveto gsave rotate
       1 index stringwidth pop
       mul neg 0 rmoveto show grestore } bind def
/ta  { 4 -2 roll moveto gsave rotate show } bind def
/tb  { 2 -1 roll 0 rmoveto show } bind def
/cl  { grestore gsave newpath 3 index 3 index moveto 1 index
       4 -1 roll lineto  exch 1 index lineto lineto
       closepath clip newpath } bind def
/rgb { setrgbcolor } bind def
/s   { scalefont setfont } bind def
% end   .ps.prolog
/sRGB { [ /CIEBasedABC
          << /DecodeLMN
               [ { dup 0.03928 le
                        {12.92321 div}
                        {0.055 add 1.055 div 2.4 exp }
                     ifelse
                 } bind dup dup
               ]
             /MatrixLMN [0.412457 0.212673 0.019334
                         0.357576 0.715152 0.119192
                         0.180437 0.072175 0.950301]
             /WhitePoint [0.9505 1.0 1.0890]
           >>
         ] setcolorspace } bind def
/srgb { setcolor } bind def
% begin encoding
/WinAnsiEncoding [
 /.notdef /.notdef /.notdef /.notdef /.notdef /.notdef /.notdef /.notdef
 /.notdef /.notdef /.notdef /.notdef /.notdef /.notdef /.notdef /.notdef
 /.notdef /.notdef /.notdef /.notdef /.notdef /.notdef /.notdef /.notdef
 /.notdef /.notdef /.notdef /.notdef /.notdef /.notdef /.notdef /.notdef
 /space /exclam /quotedbl /numbersign /dollar /percent /ampersand /quoteright
 /parenleft /parenright /asterisk /plus /comma /minus /period /slash
 /zero /one /two /three /four /five /six /seven
 /eight /nine /colon /semicolon /less /equal /greater /question
 /at /A /B /C /D /E /F /G
 /H /I /J /K /L /M /N /O
 /P /Q /R /S /T /U /V /W
 /X /Y /Z /bracketleft /backslash /bracketright /asciicircum /underscore
 /grave /a /b /c /d /e /f /g
 /h /i /j /k /l /m /n /o
 /p /q /r /s /t /u /v /w
 /x /y /z /braceleft /bar /braceright /asciitilde /.notdef
 /Euro /.notdef /quotesinglbase /florin /quotedblbase /ellipsis /dagger /daggerdbl
 /circumflex /perthousand /Scaron /guilsinglleft /OE /.notdef /Zcaron /.notdef
 /.notdef /quoteleft /quoteright /quotedblleft /quotedblright /bullet /endash /emdash
 /tilde /trademark /scaron /guilsinglright /oe /.notdef /zcaron /Ydieresis
 /space /exclamdown /cent /sterling /currency /yen /brokenbar /section
 /dieresis /copyright /ordfeminine /guillemotleft /logicalnot /hyphen /registered /macron
 /degree /plusminus /twosuperior /threesuperior /acute /mu /paragraph /periodcentered
 /cedilla /onesuperior /ordmasculine /guillemotright /onequarter /onehalf /threequarters /questiondown
 /Agrave /Aacute /Acircumflex /Atilde /Adieresis /Aring /AE /Ccedilla
 /Egrave /Eacute /Ecircumflex /Edieresis /Igrave /Iacute /Icircumflex /Idieresis
 /Eth /Ntilde /Ograve /Oacute /Ocircumflex /Otilde /Odieresis /multiply
 /Oslash /Ugrave /Uacute /Ucircumflex /Udieresis /Yacute /Thorn /germandbls
 /agrave /aacute /acircumflex /atilde /adieresis /aring /ae /ccedilla
 /egrave /eacute /ecircumflex /edieresis /igrave /iacute /icircumflex /idieresis
 /eth /ntilde /ograve /oacute /ocircumflex /otilde /odieresis /divide
 /oslash /ugrave /uacute /ucircumflex /udieresis /yacute /thorn /ydieresis
]
 def
% end encoding
%%IncludeResource: font Helvetica
/Helvetica findfont
dup length dict begin
  {1 index /FID ne {def} {pop pop} ifelse} forall
  /Encoding WinAnsiEncoding def
  currentdict
  end
/Font1 exch definefont pop
%%IncludeResource: font Helvetica-Bold
/Helvetica-Bold findfont
dup length dict begin
  {1 index /FID ne {def} {pop pop} ifelse} forall
  /Encoding WinAnsiEncoding def
  currentdict
  end
/Font2 exch definefont pop
%%IncludeResource: font Helvetica-Oblique
/Helvetica-Oblique findfont
dup length dict begin
  {1 index /FID ne {def} {pop pop} ifelse} forall
  /Encoding WinAnsiEncoding def
  currentdict
  end
/Font3 exch definefont pop
%%IncludeResource: font Helvetica-BoldOblique
/Helvetica-BoldOblique findfont
dup length dict begin
  {1 index /FID ne {def} {pop pop} ifelse} forall
  /Encoding WinAnsiEncoding def
  currentdict
  end
/Font4 exch definefont pop
%%IncludeResource: font Symbol
/Symbol findfont
dup length dict begin
  {1 index /FID ne {def} {pop pop} ifelse} forall
  currentdict
  end
/Font5 exch definefont pop
%%EndProlog
%%Page: 1 1
bp
/bg { 1 1 1 srgb } def
0.00 0.00 432.00 576.00 r p2
0.00 0.00 432.00 576.00 cl
0.00 0.00 432.00 576.00 cl
0.00 0.00 432.00 576.00 cl
/Font1 findfont 12 s
0 0 0 srgb
48.00 508.72 (PCP-ETH) 0 0 t
48.00 494.89 (Flash light photolysis) 0 0 t
/Font1 findfont 9 s
48.00 457.54 (File: T) 0 ta
-1.080 (emper) tb
-0.090 (ature_dependence_2_MSLM.dat) tb gr
48.00 334.87 (T) 0 ta
-1.080 (ue Mar 08 17:12:43 2022) tb gr
48.00 430.87 (Fit function:  a + b * e) 0 ta
-0.270 (xp\(-c * t\)) tb gr
48.00 420.50 (t-Inter) 0 ta
0.270 (v) tb
-0.225 (all: 32.500 ... 1952.500 ms) tb gr
48.00 410.14 (P) 0 ta
-0.360 (ar) tb
-0.090 (ameters \(Standard de) tb
-0.270 (viation\):) tb gr
48.00 399.77 (  a = 0.00570 \(0.00021\)) 0 0 t
48.00 389.40 (  b = 0.12929 \(0.00034\)) 0 0 t
48.00 379.03 (  c = 1.929e+00 \(1.321e-02\) s^-1) 0 0 t
48.00 368.66 (  tau = 5.185e-01 \(3.552e-03\) s) 0 0 t
216.00 345.60 388.80 518.40 cl
0 0 0 srgb
0.75 setlinewidth
[] 0 setdash
1 setlinecap
1 setlinejoin
10.00 setmiterlimit
np
222.40 510.59 m
0.15 -0.35 l
0.14 -0.18 l
0.15 -0.35 l
0.14 0.88 l
0.15 -1.24 l
0.14 1.41 l
0.15 -1.58 l
0.14 0.70 l
0.15 1.06 l
0.15 -0.53 l
0.14 0.53 l
0.15 1.06 l
0.14 -3.00 l
0.15 0.35 l
0.14 1.06 l
0.15 -0.88 l
0.14 1.76 l
0.15 -1.41 l
0.15 -0.53 l
0.14 0.53 l
0.15 -0.53 l
0.14 0.71 l
0.15 -0.35 l
0.14 -0.18 l
0.15 0.71 l
0.15 0.70 l
0.14 -0.70 l
0.15 0.17 l
0.14 -0.17 l
0.15 -0.53 l
0.14 0.70 l
0.15 -1.23 l
0.14 0.70 l
0.15 0.71 l
0.15 0.17 l
0.14 0.18 l
0.15 0 l
0.14 -1.59 l
0.15 2.65 l
0.14 -1.76 l
0.15 -1.95 l
0.14 2.83 l
0.15 -0.71 l
0.15 0 l
0.14 0.18 l
0.15 -1.24 l
0.14 1.24 l
0.15 -0.88 l
0.14 1.41 l
0.15 0 l
0.14 -1.24 l
0.15 1.24 l
0.15 -1.94 l
0.14 1.58 l
0.15 -1.05 l
0.14 0 l
0.15 0.88 l
0.14 -0.35 l
0.15 0.70 l
0.15 0.18 l
0.14 -1.24 l
0.15 0.71 l
0.14 -0.18 l
0.15 0.88 l
0.14 -1.05 l
0.15 0 l
0.14 0.70 l
0.15 -0.18 l
0.15 -0.17 l
0.14 0 l
0.15 0 l
0.14 -0.53 l
0.15 0.88 l
0.14 0 l
0.15 -0.88 l
0.14 0 l
0.15 0.53 l
0.15 -0.35 l
0.14 0.17 l
0.15 -0.17 l
0.14 1.23 l
0.15 -0.35 l
0.14 -0.88 l
0.15 -0.18 l
0.14 0.18 l
0.15 0.17 l
0.15 0.88 l
0.14 -0.88 l
0.15 -0.35 l
0.14 0.35 l
0.15 0.53 l
0.14 -0.35 l
0.15 -0.35 l
0.15 0.35 l
0.14 -1.41 l
0.15 1.94 l
0.14 -0.53 l
0.15 -0.35 l
0.14 -0.71 l
236.96 465.67 lineto
0.14 -4.05 l
0.15 1.25 l
0.15 1.94 l
0.14 -0.52 l
0.15 0.52 l
0.14 2.27 l
0.15 -2.09 l
0.14 1.38 l
0.15 1.77 l
0.14 -1.94 l
0.15 1.59 l
0.15 0.53 l
0.14 0.17 l
0.15 0.18 l
0.14 0.35 l
0.15 1.06 l
0.14 -1.59 l
0.15 2.62 l
0.14 -0.71 l
0.15 -1.20 l
0.15 0.53 l
0.14 2.09 l
0.15 0.53 l
0.14 -1.59 l
0.15 -0.36 l
0.14 1.24 l
0.15 1.76 l
0.15 -0.35 l
0.14 -1.59 l
0.15 1.06 l
0.14 2.44 l
0.15 -1.56 l
0.14 -0.70 l
0.15 1.06 l
0.14 -0.53 l
0.15 1.91 l
0.15 -0.68 l
0.14 -0.35 l
0.15 -0.35 l
0.14 0.88 l
0.15 0.32 l
0.14 0 l
0.15 0.53 l
0.14 -1.20 l
0.15 0 l
0.15 0.85 l
0.14 1.24 l
0.15 -0.71 l
0.14 -0.35 l
0.15 0.53 l
0.14 -0.18 l
0.15 0.53 l
0.14 1.59 l
0.15 -1.24 l
0.15 -0.70 l
0.14 1.76 l
0.15 -0.53 l
0.14 0.36 l
0.15 -0.89 l
0.14 -0.17 l
0.15 1.94 l
0.15 -0.53 l
0.14 1.23 l
0.15 -1.76 l
0.14 0.18 l
0.15 0.35 l
0.14 0.70 l
0.15 0.18 l
0.14 0 l
0.15 -0.88 l
0.15 1.59 l
0.14 0.50 l
0.15 -1.21 l
0.14 0.18 l
0.15 -0.53 l
0.14 2.79 l
0.15 -0.88 l
0.14 -0.35 l
0.15 -0.50 l
0.15 1.38 l
0.14 -0.53 l
0.15 0.88 l
0.14 -1.06 l
0.15 -0.17 l
0.14 0.17 l
0.15 0.53 l
0.14 0.18 l
0.15 0.53 l
0.15 -0.53 l
0.14 0.18 l
0.15 -0.18 l
0.14 1.23 l
0.15 0 l
0.14 -0.52 l
0.15 0.52 l
0.15 1.59 l
0.14 -1.23 l
0.15 -1.24 l
0.14 1.06 l
251.52 482.70 lineto
0.14 0.88 l
0.15 -0.35 l
0.14 -0.71 l
0.15 0.71 l
0.15 0.18 l
0.14 0.17 l
0.15 -0.17 l
0.14 -1.24 l
0.15 2.12 l
0.14 0.68 l
0.15 -1.56 l
0.14 1.03 l
0.15 -1.56 l
0.15 0.88 l
0.14 1.38 l
0.15 -1.03 l
0.14 -0.53 l
0.15 0.36 l
0.14 0.85 l
0.15 0.53 l
0.14 -1.21 l
0.15 -0.70 l
0.15 1.91 l
0.14 0.35 l
0.15 -1.06 l
0.14 -0.17 l
0.15 1.06 l
0.14 -1.06 l
0.15 1.76 l
0.14 -0.35 l
0.15 0.35 l
0.15 -1.23 l
0.14 1.05 l
0.15 0.89 l
0.14 -0.89 l
0.15 0.36 l
0.14 -0.18 l
0.15 0.18 l
0.15 -0.53 l
0.14 1.06 l
0.15 -1.24 l
0.14 0.71 l
0.15 1.06 l
0.14 -0.53 l
0.15 -1.24 l
0.14 1.06 l
0.15 1.59 l
0.15 0 l
0.14 -2.12 l
0.15 0 l
0.14 1.77 l
0.15 0.88 l
0.14 -1.59 l
0.15 -0.53 l
0.14 0.35 l
0.15 2.27 l
0.15 -0.68 l
0.14 -0.70 l
0.15 -0.53 l
0.14 1.59 l
0.15 -0.71 l
0.14 -0.18 l
0.15 0 l
0.14 1.03 l
0.15 -0.14 l
0.15 0.67 l
0.14 -0.67 l
0.15 -0.89 l
0.14 1.56 l
0.15 0 l
0.14 -0.53 l
0.15 0.71 l
0.15 0.35 l
0.14 -1.20 l
0.15 0.85 l
0.14 -0.85 l
0.15 0.32 l
0.14 1.06 l
0.15 -1.06 l
0.14 0.71 l
0.15 0.17 l
0.15 0 l
0.14 1.06 l
0.15 -0.18 l
0.14 -1.94 l
0.15 2.12 l
0.14 0 l
0.15 -0.88 l
0.14 -0.53 l
0.15 0.88 l
0.15 0 l
0.14 0 l
0.15 0.18 l
0.14 -0.88 l
0.15 1.23 l
0.14 1.94 l
0.15 -2.65 l
0.14 0 l
0.15 0.89 l
266.08 491.29 lineto
0.14 0.71 l
0.15 -0.53 l
0.14 1.94 l
0.15 -1.06 l
0.14 0.35 l
0.15 -0.88 l
0.15 1.24 l
0.14 -1.06 l
0.15 0 l
0.14 0.35 l
0.15 -1.06 l
0.14 2.12 l
0.15 -0.71 l
0.14 0.18 l
0.15 -0.88 l
0.15 0.70 l
0.14 0.88 l
0.15 -0.35 l
0.14 -0.17 l
0.15 -0.18 l
0.14 0.70 l
0.15 -0.17 l
0.14 1.20 l
0.15 -1.91 l
0.15 0 l
0.14 0.71 l
0.15 -0.53 l
0.14 0.35 l
0.15 -0.70 l
0.14 1.91 l
0.15 -0.53 l
0.14 -1.74 l
0.15 0.71 l
0.15 0.88 l
0.14 0.50 l
0.15 0.18 l
0.14 -0.53 l
0.15 -0.33 l
0.14 0.33 l
0.15 0.18 l
0.15 1.41 l
0.14 -2.27 l
0.15 2.09 l
0.14 -0.18 l
0.15 -0.70 l
0.14 -1.03 l
0.15 1.03 l
0.14 1.06 l
0.15 -0.53 l
0.15 -0.53 l
0.14 0 l
0.15 0.35 l
0.14 0.88 l
0.15 0.18 l
0.14 -0.71 l
0.15 0.36 l
0.14 0.17 l
0.15 -0.17 l
0.15 -0.71 l
0.14 0.88 l
0.15 -0.17 l
0.14 1.06 l
0.15 0 l
0.14 -1.42 l
0.15 0.53 l
0.14 -0.53 l
0.15 1.95 l
0.15 -1.24 l
0.14 0 l
0.15 0.88 l
0.14 -1.23 l
0.15 -0.53 l
0.14 0.53 l
0.15 0.17 l
0.15 0.53 l
0.14 0.89 l
0.15 -1.42 l
0.14 0.71 l
0.15 1.59 l
0.14 -0.18 l
0.15 -0.17 l
0.14 -0.89 l
0.15 -1.41 l
0.15 2.65 l
0.14 0.35 l
0.15 -1.76 l
0.14 0.35 l
0.15 0 l
0.14 0.35 l
0.15 0 l
0.14 -1.06 l
0.15 0.18 l
0.15 0.35 l
0.14 1.24 l
0.15 -0.18 l
0.14 -0.70 l
0.15 0.17 l
0.14 0.18 l
0.15 1.06 l
280.63 497.44 lineto
0.15 -0.71 l
0.15 0.18 l
0.14 1.73 l
0.15 0.18 l
0.14 -1.20 l
0.15 -0.53 l
0.14 1.41 l
0.15 0 l
0.15 -0.71 l
0.14 -0.35 l
0.15 0.35 l
0.14 1.21 l
0.15 -0.50 l
0.14 -0.36 l
0.15 0.86 l
0.14 -0.36 l
0.15 0.36 l
0.15 -1.21 l
0.14 0.18 l
0.15 1.20 l
0.14 -0.85 l
0.15 0 l
0.14 -0.35 l
0.15 0.67 l
0.14 1.42 l
0.15 -1.56 l
0.15 0.50 l
0.14 -0.68 l
0.15 0.85 l
0.14 -1.20 l
0.15 1.20 l
0.14 -0.67 l
0.15 1.20 l
0.14 0.89 l
0.15 -1.06 l
0.15 -1.21 l
0.14 -0.53 l
0.15 1.56 l
0.14 0.35 l
0.15 1.06 l
0.14 -2.62 l
0.15 0.68 l
0.14 1.77 l
0.15 0 l
0.15 -1.06 l
0.14 0.17 l
0.15 -1.06 l
0.14 1.95 l
0.15 -0.89 l
0.14 0.36 l
0.15 0.70 l
0.15 -0.53 l
0.14 -0.17 l
0.15 -1.24 l
0.14 0.35 l
0.15 3.00 l
0.14 -1.05 l
0.15 -0.71 l
0.14 -1.24 l
0.15 0.89 l
0.15 1.41 l
0.14 -1.77 l
0.15 -0.35 l
0.14 1.41 l
0.15 0 l
0.14 -0.35 l
0.15 -0.53 l
0.14 0.71 l
0.15 0 l
0.15 -0.18 l
0.14 0 l
0.15 -1.41 l
0.14 0.88 l
0.15 1.41 l
0.14 -1.76 l
0.15 1.06 l
0.14 -0.53 l
0.15 0.88 l
0.15 0.71 l
0.14 -0.53 l
0.15 -0.89 l
0.14 0.36 l
0.15 0.53 l
0.14 -0.18 l
0.15 -1.41 l
0.15 1.23 l
0.14 -0.17 l
0.15 1.06 l
0.14 0.17 l
0.15 -0.88 l
0.14 0.88 l
0.15 0.35 l
0.14 -0.17 l
0.15 -0.71 l
0.15 -0.17 l
0.14 1.41 l
0.15 -1.06 l
0.14 -0.18 l
0.15 0.36 l
295.19 500.41 lineto
0.15 1.06 l
0.14 -0.53 l
0.15 0.18 l
0.15 0.88 l
0.14 -0.18 l
0.15 0.35 l
0.14 -1.23 l
0.15 0.71 l
0.14 -0.36 l
0.15 0.53 l
0.14 -0.88 l
0.15 0.53 l
0.15 1.41 l
0.14 0 l
0.15 -1.41 l
0.14 0.35 l
0.15 1.24 l
0.14 -1.77 l
0.15 0.53 l
0.15 -0.17 l
0.14 1.05 l
0.15 0.18 l
0.14 -0.18 l
0.15 -0.53 l
0.14 0.18 l
0.15 -0.88 l
0.14 0.35 l
0.15 0 l
0.15 1.06 l
0.14 0.18 l
0.15 -0.36 l
0.14 0.18 l
0.15 -0.18 l
0.14 -0.35 l
0.15 -0.88 l
0.14 0.53 l
0.15 1.73 l
0.15 -1.20 l
0.14 0.53 l
0.15 -0.18 l
0.14 0 l
0.15 0 l
0.14 0.50 l
0.15 0.18 l
0.14 -1.03 l
0.15 0.53 l
0.15 -1.06 l
0.14 1.38 l
0.15 -0.85 l
0.14 -0.36 l
0.15 0.53 l
0.14 -0.17 l
0.15 0.85 l
0.15 0.53 l
0.14 1.06 l
0.15 -1.91 l
0.14 0 l
0.15 -0.18 l
0.14 -0.18 l
0.15 1.39 l
0.14 -0.36 l
0.15 -0.35 l
0.15 -0.15 l
0.14 0.15 l
0.15 -1.03 l
0.14 0.88 l
0.15 -0.17 l
0.14 0.17 l
0.15 -0.70 l
0.14 0.85 l
0.15 0.71 l
0.15 -1.56 l
0.14 0.17 l
0.15 0.53 l
0.14 -0.53 l
0.15 1.21 l
0.14 -0.18 l
0.15 -0.35 l
0.14 0.53 l
0.15 0.18 l
0.15 -0.36 l
0.14 0.18 l
0.15 -0.68 l
0.14 -0.35 l
0.15 0.35 l
0.14 0.15 l
0.15 -1.21 l
0.15 0.89 l
0.14 0.67 l
0.15 -0.35 l
0.14 0.53 l
0.15 -0.18 l
0.14 0.53 l
0.15 -0.35 l
0.14 -0.35 l
0.15 0.35 l
0.15 0.35 l
0.14 -0.35 l
0.15 0.88 l
309.75 504.26 lineto
0.15 0 l
0.14 0.71 l
0.15 -0.35 l
0.14 -0.53 l
0.15 -1.56 l
0.15 0.85 l
0.14 1.06 l
0.15 -0.53 l
0.14 -0.18 l
0.15 1.77 l
0.14 -1.06 l
0.15 -1.21 l
0.14 1.03 l
0.15 0.53 l
0.15 -0.70 l
0.14 -0.36 l
0.15 2.12 l
0.14 -1.76 l
0.15 0 l
0.14 1.41 l
0.15 -1.94 l
0.15 2.12 l
0.14 -2.62 l
0.15 1.38 l
0.14 -0.71 l
0.15 1.24 l
0.14 0.35 l
0.15 -1.06 l
0.14 0 l
0.15 -1.03 l
0.15 1.56 l
0.14 0 l
0.15 -0.35 l
0.14 0.35 l
0.15 0 l
0.14 0.36 l
0.15 -0.53 l
0.14 -0.71 l
0.15 1.06 l
0.15 -0.18 l
0.14 0.53 l
0.15 -0.70 l
0.14 0.70 l
0.15 -0.35 l
0.14 -0.71 l
0.15 0.53 l
0.14 -0.35 l
0.15 0.88 l
0.15 0.36 l
0.14 0.52 l
0.15 -2.11 l
0.14 0.88 l
0.15 0.18 l
0.14 -1.06 l
0.15 1.59 l
0.15 0.17 l
0.14 -0.35 l
0.15 -0.71 l
0.14 -0.35 l
0.15 1.41 l
0.14 0.35 l
0.15 0.18 l
0.14 -1.41 l
0.15 0.71 l
0.15 -1.24 l
0.14 1.59 l
0.15 0.17 l
0.14 -1.23 l
0.15 0.18 l
0.14 -0.71 l
0.15 1.24 l
0.14 -0.89 l
0.15 0.89 l
0.15 0.17 l
0.14 -0.35 l
0.15 -1.06 l
0.14 -0.35 l
0.15 0.53 l
0.14 1.41 l
0.15 -1.06 l
0.14 0.88 l
0.15 -0.17 l
0.15 0 l
0.14 -1.24 l
0.15 0.71 l
0.14 0.88 l
0.15 -0.88 l
0.14 0.53 l
0.15 0.35 l
0.14 -0.88 l
0.15 1.05 l
0.15 -1.23 l
0.14 0.18 l
0.15 0.53 l
0.14 -0.36 l
0.15 -0.35 l
0.14 0.35 l
0.15 -0.35 l
0.15 0.88 l
324.31 506.73 lineto
0.15 -1.41 l
0.14 0.18 l
0.15 0.88 l
0.14 -0.18 l
0.15 0 l
0.14 0.71 l
0.15 -1.94 l
0.15 2.12 l
0.14 -1.77 l
0.15 0.71 l
0.14 0.53 l
0.15 -1.24 l
0.14 1.77 l
0.15 -1.06 l
0.14 -0.35 l
0.15 -0.18 l
0.15 0.18 l
0.14 -0.18 l
0.15 0.53 l
0.14 -0.53 l
0.15 0 l
0.14 0.53 l
0.15 0.35 l
0.14 -2.12 l
0.15 1.42 l
0.15 0.17 l
0.14 -0.35 l
0.15 -1.06 l
0.14 1.24 l
0.15 0.52 l
0.14 -0.88 l
0.15 0.18 l
0.15 1.41 l
0.14 -1.06 l
0.15 -0.88 l
0.14 2.47 l
0.15 -1.94 l
0.14 1.06 l
0.15 -0.53 l
0.14 0.17 l
0.15 0.36 l
0.15 -0.71 l
0.14 0.53 l
0.15 0.18 l
0.14 0.35 l
0.15 -0.88 l
0.14 0.17 l
0.15 -0.52 l
0.14 1.23 l
0.15 -1.41 l
0.15 0.53 l
0.14 0.17 l
0.15 -0.70 l
0.14 0.88 l
0.15 0 l
0.14 0.71 l
0.15 -2.30 l
0.14 1.41 l
0.15 0.89 l
0.15 -0.71 l
0.14 0.18 l
0.15 -0.36 l
0.14 1.24 l
0.15 -1.06 l
0.14 0 l
0.15 0.53 l
0.15 0 l
0.14 0.53 l
0.15 -0.35 l
0.14 -0.71 l
0.15 1.06 l
0.14 -1.41 l
0.15 1.76 l
0.14 -1.76 l
0.15 0.17 l
0.15 1.24 l
0.14 -1.06 l
0.15 0.53 l
0.14 -0.18 l
0.15 0.53 l
0.14 -1.23 l
0.15 0 l
0.14 0.35 l
0.15 -0.53 l
0.15 1.24 l
0.14 -0.36 l
0.15 -0.17 l
0.14 0 l
0.15 0.35 l
0.14 -0.18 l
0.15 0.36 l
0.14 -1.06 l
0.15 1.59 l
0.15 0 l
0.14 -1.59 l
0.15 1.41 l
0.14 -1.41 l
0.15 1.06 l
0.14 -0.53 l
338.87 507.44 lineto
0.15 -0.18 l
0.14 -1.58 l
0.15 0.17 l
0.14 1.77 l
0.15 0.17 l
0.14 -0.70 l
0.15 0.35 l
0.14 -0.53 l
0.15 -0.35 l
0.15 0.17 l
0.14 0.53 l
0.15 -0.88 l
0.14 0.35 l
0.15 0.36 l
0.14 -0.53 l
0.15 0.17 l
0.14 0.36 l
0.15 0.17 l
0.15 0.18 l
0.14 -1.41 l
0.15 1.23 l
0.14 -0.17 l
0.15 0.35 l
0.14 0 l
0.15 -1.24 l
0.14 0.71 l
0.15 0.71 l
0.15 -0.53 l
0.14 0.70 l
0.15 -0.17 l
0.14 -0.18 l
0.15 -0.71 l
0.14 0.36 l
0.15 0.17 l
0.15 0 l
0.14 -0.35 l
0.15 0.71 l
0.14 -0.18 l
0.15 0.53 l
0.14 -0.35 l
0.15 0 l
0.14 0 l
0.15 -1.42 l
0.15 1.92 l
0.14 -0.86 l
0.15 0.18 l
0.14 -0.53 l
0.15 -0.18 l
0.14 1.24 l
0.15 -0.35 l
0.14 -0.18 l
0.15 0.53 l
0.15 -0.88 l
0.14 1.03 l
0.15 -0.50 l
0.14 -0.53 l
0.15 1.20 l
0.14 -1.03 l
0.15 0.86 l
0.14 -0.68 l
0.15 -0.71 l
0.15 0.36 l
0.14 -0.71 l
0.15 2.09 l
0.14 -1.21 l
0.15 0.36 l
0.14 -0.18 l
0.15 -0.35 l
0.15 0.70 l
0.14 -1.59 l
0.15 0.18 l
0.14 0.71 l
0.15 -0.18 l
0.14 1.06 l
0.15 0 l
0.14 -1.41 l
0.15 0.88 l
0.15 0.18 l
0.14 0 l
0.15 0 l
0.14 -1.06 l
0.15 0.88 l
0.14 -0.35 l
0.15 1.03 l
0.14 -1.21 l
0.15 0.18 l
0.15 -0.36 l
0.14 1.56 l
0.15 -1.91 l
0.14 1.06 l
0.15 -0.18 l
0.14 0.71 l
0.15 1.21 l
0.14 -1.56 l
0.15 1.38 l
0.15 -1.56 l
0.14 0.18 l
0.15 0.67 l
0.14 -0.17 l
353.43 507.97 lineto
0.14 -0.88 l
0.15 1.38 l
0.14 -1.21 l
0.15 -0.53 l
0.15 0.89 l
0.14 0.67 l
0.15 -0.17 l
0.14 0.35 l
0.15 -1.21 l
0.14 -1.41 l
0.15 1.41 l
0.15 0.86 l
0.14 -0.15 l
0.15 -1.41 l
0.14 1.73 l
0.15 -1.73 l
0.14 0.88 l
0.15 0.68 l
0.14 -1.21 l
0.15 0.53 l
0.15 0.53 l
0.14 -0.35 l
0.15 0 l
0.14 -0.89 l
0.15 1.92 l
0.14 -1.39 l
0.15 -0.53 l
0.14 0.53 l
0.15 0.36 l
0.15 0 l
0.14 -0.53 l
0.15 0.35 l
0.14 0.35 l
0.15 -0.35 l
0.14 0.18 l
0.15 0.50 l
0.14 -0.68 l
0.15 1.21 l
0.15 0.70 l
0.14 -1.56 l
0.15 0.33 l
0.14 -0.33 l
0.15 0 l
0.14 0.18 l
0.15 0.15 l
0.15 0 l
0.14 1.23 l
0.15 -1.73 l
0.14 -0.53 l
0.15 0.17 l
0.14 1.56 l
0.15 -0.35 l
0.14 -0.18 l
0.15 0.18 l
0.15 -0.35 l
0.14 -0.68 l
0.15 -0.53 l
0.14 0.71 l
0.15 0.17 l
0.14 0 l
0.15 0.86 l
0.14 -0.18 l
0.15 -0.35 l
0.15 -0.68 l
0.14 -0.18 l
0.15 0.71 l
0.14 0.32 l
0.15 -0.50 l
0.14 1.21 l
0.15 -0.71 l
0.14 0.36 l
0.15 -0.36 l
0.15 0 l
0.14 0 l
0.15 0 l
0.14 0 l
0.15 -1.38 l
0.14 1.21 l
0.15 0.35 l
0.15 -0.85 l
0.14 0 l
0.15 -0.89 l
0.14 0.71 l
0.15 -0.71 l
0.14 1.24 l
0.15 0 l
0.14 1.38 l
0.15 -1.56 l
0.15 -0.35 l
0.14 0 l
0.15 0.68 l
0.14 -0.33 l
0.15 0.33 l
0.14 -0.15 l
0.15 -0.53 l
0.14 0.85 l
0.15 0.53 l
0.15 -1.03 l
0.14 0.68 l
currentpoint o m
367.99 508.29 lineto
0.14 0.53 l
0.15 0.18 l
0.14 -0.88 l
0.15 0.17 l
0.14 -0.17 l
0.15 -0.86 l
0.15 1.03 l
0.14 -1.20 l
0.15 1.38 l
0.14 0.18 l
0.15 0.35 l
0.14 0.18 l
0.15 -1.74 l
0.15 0.53 l
0.14 1.03 l
0.15 -0.88 l
0.14 0.88 l
0.15 -1.38 l
0.14 1.03 l
0.15 0 l
0.14 -2.27 l
0.15 1.91 l
0.15 -1.38 l
0.14 1.06 l
0.15 -0.18 l
0.14 0.50 l
0.15 -0.17 l
0.14 -0.50 l
0.15 0.85 l
0.14 0.18 l
0.15 -1.21 l
0.15 0 l
0.14 1.74 l
0.15 -1.74 l
0.14 0.53 l
0.15 1.03 l
0.14 -0.53 l
0.15 -1.21 l
0.14 2.27 l
0.15 -1.06 l
0.15 -0.50 l
0.14 -1.06 l
0.15 1.56 l
0.14 0.18 l
0.15 -0.86 l
0.14 -0.53 l
0.15 1.39 l
0.15 0.53 l
0.14 -0.36 l
0.15 -0.70 l
0.14 -0.33 l
0.15 0.68 l
0.14 0 l
0.15 0.35 l
0.14 -1.03 l
0.15 0.86 l
0.15 0.17 l
0.14 -0.70 l
0.15 0.17 l
0.14 -0.67 l
0.15 0.67 l
0.14 0.53 l
0.15 -0.53 l
0.14 1.06 l
0.15 -1.73 l
0.15 0.85 l
0.14 -0.18 l
0.15 0.18 l
0.14 0.18 l
0.15 0.53 l
0.14 -0.18 l
0.15 -0.71 l
0.14 -0.17 l
0.15 0.70 l
0.15 -0.17 l
0.14 -0.53 l
0.15 0.17 l
0.14 0.53 l
0.15 -0.35 l
0.14 0.18 l
0.15 -1.56 l
0.15 1.38 l
0.14 0.71 l
0.15 -0.36 l
0.14 0.36 l
0.15 -0.71 l
0.14 0.18 l
0.15 1.76 l
0.14 -1.59 l
0.15 -1.03 l
0.15 0.68 l
0.14 0.18 l
0.15 0.17 l
0.14 0.71 l
0.15 0.35 l
0.14 -0.53 l
0.15 -1.06 l
0.14 1.59 l
0.15 -0.70 l
o
/bg { 1 1 1 srgb } def
222.40 510.59 0.43 c p3
222.55 510.24 0.43 c p3
222.69 510.06 0.43 c p3
222.84 509.71 0.43 c p3
222.98 510.59 0.43 c p3
223.13 509.35 0.43 c p3
223.27 510.76 0.43 c p3
223.42 509.18 0.43 c p3
223.56 509.88 0.43 c p3
223.71 510.94 0.43 c p3
223.86 510.41 0.43 c p3
224.00 510.94 0.43 c p3
224.15 512.00 0.43 c p3
224.29 509.00 0.43 c p3
224.44 509.35 0.43 c p3
224.58 510.41 0.43 c p3
224.73 509.53 0.43 c p3
224.87 511.29 0.43 c p3
225.02 509.88 0.43 c p3
225.17 509.35 0.43 c p3
225.31 509.88 0.43 c p3
225.46 509.35 0.43 c p3
225.60 510.06 0.43 c p3
225.75 509.71 0.43 c p3
225.89 509.53 0.43 c p3
226.04 510.24 0.43 c p3
226.19 510.94 0.43 c p3
226.33 510.24 0.43 c p3
226.48 510.41 0.43 c p3
226.62 510.24 0.43 c p3
226.77 509.71 0.43 c p3
226.91 510.41 0.43 c p3
227.06 509.18 0.43 c p3
227.20 509.88 0.43 c p3
227.35 510.59 0.43 c p3
227.50 510.76 0.43 c p3
227.64 510.94 0.43 c p3
227.79 510.94 0.43 c p3
227.93 509.35 0.43 c p3
228.08 512.00 0.43 c p3
228.22 510.24 0.43 c p3
228.37 508.29 0.43 c p3
228.51 511.12 0.43 c p3
228.66 510.41 0.43 c p3
228.81 510.41 0.43 c p3
228.95 510.59 0.43 c p3
229.10 509.35 0.43 c p3
229.24 510.59 0.43 c p3
229.39 509.71 0.43 c p3
229.53 511.12 0.43 c p3
229.68 511.12 0.43 c p3
229.82 509.88 0.43 c p3
229.97 511.12 0.43 c p3
230.12 509.18 0.43 c p3
230.26 510.76 0.43 c p3
230.41 509.71 0.43 c p3
230.55 509.71 0.43 c p3
230.70 510.59 0.43 c p3
230.84 510.24 0.43 c p3
230.99 510.94 0.43 c p3
231.14 511.12 0.43 c p3
231.28 509.88 0.43 c p3
231.43 510.59 0.43 c p3
231.57 510.41 0.43 c p3
231.72 511.29 0.43 c p3
231.86 510.24 0.43 c p3
232.01 510.24 0.43 c p3
232.15 510.94 0.43 c p3
232.30 510.76 0.43 c p3
232.45 510.59 0.43 c p3
232.59 510.59 0.43 c p3
232.74 510.59 0.43 c p3
232.88 510.06 0.43 c p3
233.03 510.94 0.43 c p3
233.17 510.94 0.43 c p3
233.32 510.06 0.43 c p3
233.46 510.06 0.43 c p3
233.61 510.59 0.43 c p3
233.76 510.24 0.43 c p3
233.90 510.41 0.43 c p3
234.05 510.24 0.43 c p3
234.19 511.47 0.43 c p3
234.34 511.12 0.43 c p3
234.48 510.24 0.43 c p3
234.63 510.06 0.43 c p3
234.77 510.24 0.43 c p3
234.92 510.41 0.43 c p3
235.07 511.29 0.43 c p3
235.21 510.41 0.43 c p3
235.36 510.06 0.43 c p3
235.50 510.41 0.43 c p3
235.65 510.94 0.43 c p3
235.79 510.59 0.43 c p3
235.94 510.24 0.43 c p3
236.09 510.59 0.43 c p3
236.23 509.18 0.43 c p3
236.38 511.12 0.43 c p3
236.52 510.59 0.43 c p3
236.67 510.24 0.43 c p3
236.81 509.53 0.43 c p3
236.96 465.67 0.43 c p3
237.10 461.62 0.43 c p3
237.25 462.87 0.43 c p3
237.40 464.81 0.43 c p3
237.54 464.29 0.43 c p3
237.69 464.81 0.43 c p3
237.83 467.08 0.43 c p3
237.98 464.99 0.43 c p3
238.12 466.37 0.43 c p3
238.27 468.14 0.43 c p3
238.41 466.20 0.43 c p3
238.56 467.79 0.43 c p3
238.71 468.32 0.43 c p3
238.85 468.49 0.43 c p3
239.00 468.67 0.43 c p3
239.14 469.02 0.43 c p3
239.29 470.08 0.43 c p3
239.43 468.49 0.43 c p3
239.58 471.11 0.43 c p3
239.72 470.40 0.43 c p3
239.87 469.20 0.43 c p3
240.02 469.73 0.43 c p3
240.16 471.82 0.43 c p3
240.31 472.35 0.43 c p3
240.45 470.76 0.43 c p3
240.60 470.40 0.43 c p3
240.74 471.64 0.43 c p3
240.89 473.40 0.43 c p3
241.04 473.05 0.43 c p3
241.18 471.46 0.43 c p3
241.33 472.52 0.43 c p3
241.47 474.96 0.43 c p3
241.62 473.40 0.43 c p3
241.76 472.70 0.43 c p3
241.91 473.76 0.43 c p3
242.05 473.23 0.43 c p3
242.20 475.14 0.43 c p3
242.35 474.46 0.43 c p3
242.49 474.11 0.43 c p3
242.64 473.76 0.43 c p3
242.78 474.64 0.43 c p3
242.93 474.96 0.43 c p3
243.07 474.96 0.43 c p3
243.22 475.49 0.43 c p3
243.36 474.29 0.43 c p3
243.51 474.29 0.43 c p3
243.66 475.14 0.43 c p3
243.80 476.38 0.43 c p3
243.95 475.67 0.43 c p3
244.09 475.32 0.43 c p3
244.24 475.85 0.43 c p3
244.38 475.67 0.43 c p3
244.53 476.20 0.43 c p3
244.67 477.79 0.43 c p3
244.82 476.55 0.43 c p3
244.97 475.85 0.43 c p3
245.11 477.61 0.43 c p3
245.26 477.08 0.43 c p3
245.40 477.44 0.43 c p3
245.55 476.55 0.43 c p3
245.69 476.38 0.43 c p3
245.84 478.32 0.43 c p3
245.99 477.79 0.43 c p3
246.13 479.02 0.43 c p3
246.28 477.26 0.43 c p3
246.42 477.44 0.43 c p3
246.57 477.79 0.43 c p3
246.71 478.49 0.43 c p3
246.86 478.67 0.43 c p3
247.00 478.67 0.43 c p3
247.15 477.79 0.43 c p3
247.30 479.38 0.43 c p3
247.44 479.88 0.43 c p3
247.59 478.67 0.43 c p3
247.73 478.85 0.43 c p3
247.88 478.32 0.43 c p3
248.02 481.11 0.43 c p3
248.17 480.23 0.43 c p3
248.31 479.88 0.43 c p3
248.46 479.38 0.43 c p3
248.61 480.76 0.43 c p3
248.75 480.23 0.43 c p3
248.90 481.11 0.43 c p3
249.04 480.05 0.43 c p3
249.19 479.88 0.43 c p3
249.33 480.05 0.43 c p3
249.48 480.58 0.43 c p3
249.62 480.76 0.43 c p3
249.77 481.29 0.43 c p3
249.92 480.76 0.43 c p3
250.06 480.94 0.43 c p3
250.21 480.76 0.43 c p3
250.35 481.99 0.43 c p3
250.50 481.99 0.43 c p3
250.64 481.47 0.43 c p3
250.79 481.99 0.43 c p3
250.94 483.58 0.43 c p3
251.08 482.35 0.43 c p3
251.23 481.11 0.43 c p3
251.37 482.17 0.43 c p3
251.52 482.70 0.43 c p3
251.66 483.58 0.43 c p3
251.81 483.23 0.43 c p3
251.95 482.52 0.43 c p3
252.10 483.23 0.43 c p3
252.25 483.41 0.43 c p3
252.39 483.58 0.43 c p3
252.54 483.41 0.43 c p3
252.68 482.17 0.43 c p3
252.83 484.29 0.43 c p3
252.97 484.97 0.43 c p3
253.12 483.41 0.43 c p3
253.26 484.44 0.43 c p3
253.41 482.88 0.43 c p3
253.56 483.76 0.43 c p3
253.70 485.14 0.43 c p3
253.85 484.11 0.43 c p3
253.99 483.58 0.43 c p3
254.14 483.94 0.43 c p3
254.28 484.79 0.43 c p3
254.43 485.32 0.43 c p3
254.57 484.11 0.43 c p3
254.72 483.41 0.43 c p3
254.87 485.32 0.43 c p3
255.01 485.67 0.43 c p3
255.16 484.61 0.43 c p3
255.30 484.44 0.43 c p3
255.45 485.50 0.43 c p3
255.59 484.44 0.43 c p3
255.74 486.20 0.43 c p3
255.88 485.85 0.43 c p3
256.03 486.20 0.43 c p3
256.18 484.97 0.43 c p3
256.32 486.02 0.43 c p3
256.47 486.91 0.43 c p3
256.61 486.02 0.43 c p3
256.76 486.38 0.43 c p3
256.90 486.20 0.43 c p3
257.05 486.38 0.43 c p3
257.20 485.85 0.43 c p3
257.34 486.91 0.43 c p3
257.49 485.67 0.43 c p3
257.63 486.38 0.43 c p3
257.78 487.44 0.43 c p3
257.92 486.91 0.43 c p3
258.07 485.67 0.43 c p3
258.21 486.73 0.43 c p3
258.36 488.32 0.43 c p3
258.51 488.32 0.43 c p3
258.65 486.20 0.43 c p3
258.80 486.20 0.43 c p3
258.94 487.97 0.43 c p3
259.09 488.85 0.43 c p3
259.23 487.26 0.43 c p3
259.38 486.73 0.43 c p3
259.52 487.08 0.43 c p3
259.67 489.35 0.43 c p3
259.82 488.67 0.43 c p3
259.96 487.97 0.43 c p3
260.11 487.44 0.43 c p3
260.25 489.03 0.43 c p3
260.40 488.32 0.43 c p3
260.54 488.14 0.43 c p3
260.69 488.14 0.43 c p3
260.83 489.17 0.43 c p3
260.98 489.03 0.43 c p3
261.13 489.70 0.43 c p3
261.27 489.03 0.43 c p3
261.42 488.14 0.43 c p3
261.56 489.70 0.43 c p3
261.71 489.70 0.43 c p3
261.85 489.17 0.43 c p3
262.00 489.88 0.43 c p3
262.15 490.23 0.43 c p3
262.29 489.03 0.43 c p3
262.44 489.88 0.43 c p3
262.58 489.03 0.43 c p3
262.73 489.35 0.43 c p3
262.87 490.41 0.43 c p3
263.02 489.35 0.43 c p3
263.16 490.06 0.43 c p3
263.31 490.23 0.43 c p3
263.46 490.23 0.43 c p3
263.60 491.29 0.43 c p3
263.75 491.11 0.43 c p3
263.89 489.17 0.43 c p3
264.04 491.29 0.43 c p3
264.18 491.29 0.43 c p3
264.33 490.41 0.43 c p3
264.47 489.88 0.43 c p3
264.62 490.76 0.43 c p3
264.77 490.76 0.43 c p3
264.91 490.76 0.43 c p3
265.06 490.94 0.43 c p3
265.20 490.06 0.43 c p3
265.35 491.29 0.43 c p3
265.49 493.23 0.43 c p3
265.64 490.58 0.43 c p3
265.78 490.58 0.43 c p3
265.93 491.47 0.43 c p3
266.08 491.29 0.43 c p3
266.22 492.00 0.43 c p3
266.37 491.47 0.43 c p3
266.51 493.41 0.43 c p3
266.66 492.35 0.43 c p3
266.80 492.70 0.43 c p3
266.95 491.82 0.43 c p3
267.10 493.06 0.43 c p3
267.24 492.00 0.43 c p3
267.39 492.00 0.43 c p3
267.53 492.35 0.43 c p3
267.68 491.29 0.43 c p3
267.82 493.41 0.43 c p3
267.97 492.70 0.43 c p3
268.11 492.88 0.43 c p3
268.26 492.00 0.43 c p3
268.41 492.70 0.43 c p3
268.55 493.58 0.43 c p3
268.70 493.23 0.43 c p3
268.84 493.06 0.43 c p3
268.99 492.88 0.43 c p3
269.13 493.58 0.43 c p3
269.28 493.41 0.43 c p3
269.42 494.61 0.43 c p3
269.57 492.70 0.43 c p3
269.72 492.70 0.43 c p3
269.86 493.41 0.43 c p3
270.01 492.88 0.43 c p3
270.15 493.23 0.43 c p3
270.30 492.53 0.43 c p3
270.44 494.44 0.43 c p3
270.59 493.91 0.43 c p3
270.73 492.17 0.43 c p3
270.88 492.88 0.43 c p3
271.03 493.76 0.43 c p3
271.17 494.26 0.43 c p3
271.32 494.44 0.43 c p3
271.46 493.91 0.43 c p3
271.61 493.58 0.43 c p3
271.75 493.91 0.43 c p3
271.90 494.09 0.43 c p3
272.05 495.50 0.43 c p3
272.19 493.23 0.43 c p3
272.34 495.32 0.43 c p3
272.48 495.14 0.43 c p3
272.63 494.44 0.43 c p3
272.77 493.41 0.43 c p3
272.92 494.44 0.43 c p3
273.06 495.50 0.43 c p3
273.21 494.97 0.43 c p3
273.36 494.44 0.43 c p3
273.50 494.44 0.43 c p3
273.65 494.79 0.43 c p3
273.79 495.67 0.43 c p3
273.94 495.85 0.43 c p3
274.08 495.14 0.43 c p3
274.23 495.50 0.43 c p3
274.37 495.67 0.43 c p3
274.52 495.50 0.43 c p3
274.67 494.79 0.43 c p3
274.81 495.67 0.43 c p3
274.96 495.50 0.43 c p3
275.10 496.56 0.43 c p3
275.25 496.56 0.43 c p3
275.39 495.14 0.43 c p3
275.54 495.67 0.43 c p3
275.68 495.14 0.43 c p3
275.83 497.09 0.43 c p3
275.98 495.85 0.43 c p3
276.12 495.85 0.43 c p3
276.27 496.73 0.43 c p3
276.41 495.50 0.43 c p3
276.56 494.97 0.43 c p3
276.70 495.50 0.43 c p3
276.85 495.67 0.43 c p3
277.00 496.20 0.43 c p3
277.14 497.09 0.43 c p3
277.29 495.67 0.43 c p3
277.43 496.38 0.43 c p3
277.58 497.97 0.43 c p3
277.72 497.79 0.43 c p3
277.87 497.62 0.43 c p3
278.01 496.73 0.43 c p3
278.16 495.32 0.43 c p3
278.31 497.97 0.43 c p3
278.45 498.32 0.43 c p3
278.60 496.56 0.43 c p3
278.74 496.91 0.43 c p3
278.89 496.91 0.43 c p3
279.03 497.26 0.43 c p3
279.18 497.26 0.43 c p3
279.32 496.20 0.43 c p3
279.47 496.38 0.43 c p3
279.62 496.73 0.43 c p3
279.76 497.97 0.43 c p3
279.91 497.79 0.43 c p3
280.05 497.09 0.43 c p3
280.20 497.26 0.43 c p3
280.34 497.44 0.43 c p3
280.49 498.50 0.43 c p3
280.63 497.44 0.43 c p3
280.78 496.73 0.43 c p3
280.93 496.91 0.43 c p3
281.07 498.64 0.43 c p3
281.22 498.82 0.43 c p3
281.36 497.62 0.43 c p3
281.51 497.09 0.43 c p3
281.65 498.50 0.43 c p3
281.80 498.50 0.43 c p3
281.95 497.79 0.43 c p3
282.09 497.44 0.43 c p3
282.24 497.79 0.43 c p3
282.38 499.00 0.43 c p3
282.53 498.50 0.43 c p3
282.67 498.14 0.43 c p3
282.82 499.00 0.43 c p3
282.96 498.64 0.43 c p3
283.11 499.00 0.43 c p3
283.26 497.79 0.43 c p3
283.40 497.97 0.43 c p3
283.55 499.17 0.43 c p3
283.69 498.32 0.43 c p3
283.84 498.32 0.43 c p3
283.98 497.97 0.43 c p3
284.13 498.64 0.43 c p3
284.27 500.06 0.43 c p3
284.42 498.50 0.43 c p3
284.57 499.00 0.43 c p3
284.71 498.32 0.43 c p3
284.86 499.17 0.43 c p3
285.00 497.97 0.43 c p3
285.15 499.17 0.43 c p3
285.29 498.50 0.43 c p3
285.44 499.70 0.43 c p3
285.58 500.59 0.43 c p3
285.73 499.53 0.43 c p3
285.88 498.32 0.43 c p3
286.02 497.79 0.43 c p3
286.17 499.35 0.43 c p3
286.31 499.70 0.43 c p3
286.46 500.76 0.43 c p3
286.60 498.14 0.43 c p3
286.75 498.82 0.43 c p3
286.89 500.59 0.43 c p3
287.04 500.59 0.43 c p3
287.19 499.53 0.43 c p3
287.33 499.70 0.43 c p3
287.48 498.64 0.43 c p3
287.62 500.59 0.43 c p3
287.77 499.70 0.43 c p3
287.91 500.06 0.43 c p3
288.06 500.76 0.43 c p3
288.21 500.23 0.43 c p3
288.35 500.06 0.43 c p3
288.50 498.82 0.43 c p3
288.64 499.17 0.43 c p3
288.79 502.17 0.43 c p3
288.93 501.12 0.43 c p3
289.08 500.41 0.43 c p3
289.22 499.17 0.43 c p3
289.37 500.06 0.43 c p3
289.52 501.47 0.43 c p3
289.66 499.70 0.43 c p3
289.81 499.35 0.43 c p3
289.95 500.76 0.43 c p3
290.10 500.76 0.43 c p3
290.24 500.41 0.43 c p3
290.39 499.88 0.43 c p3
290.53 500.59 0.43 c p3
290.68 500.59 0.43 c p3
290.83 500.41 0.43 c p3
290.97 500.41 0.43 c p3
291.12 499.00 0.43 c p3
291.26 499.88 0.43 c p3
291.41 501.29 0.43 c p3
291.55 499.53 0.43 c p3
291.70 500.59 0.43 c p3
291.84 500.06 0.43 c p3
291.99 500.94 0.43 c p3
292.14 501.65 0.43 c p3
292.28 501.12 0.43 c p3
292.43 500.23 0.43 c p3
292.57 500.59 0.43 c p3
292.72 501.12 0.43 c p3
292.86 500.94 0.43 c p3
293.01 499.53 0.43 c p3
293.16 500.76 0.43 c p3
293.30 500.59 0.43 c p3
293.45 501.65 0.43 c p3
293.59 501.82 0.43 c p3
293.74 500.94 0.43 c p3
293.88 501.82 0.43 c p3
294.03 502.17 0.43 c p3
294.17 502.00 0.43 c p3
294.32 501.29 0.43 c p3
294.47 501.12 0.43 c p3
294.61 502.53 0.43 c p3
294.76 501.47 0.43 c p3
294.90 501.29 0.43 c p3
295.05 501.65 0.43 c p3
295.19 500.41 0.43 c p3
295.34 501.47 0.43 c p3
295.48 500.94 0.43 c p3
295.63 501.12 0.43 c p3
295.78 502.00 0.43 c p3
295.92 501.82 0.43 c p3
296.07 502.17 0.43 c p3
296.21 500.94 0.43 c p3
296.36 501.65 0.43 c p3
296.50 501.29 0.43 c p3
296.65 501.82 0.43 c p3
296.79 500.94 0.43 c p3
296.94 501.47 0.43 c p3
297.09 502.88 0.43 c p3
297.23 502.88 0.43 c p3
297.38 501.47 0.43 c p3
297.52 501.82 0.43 c p3
297.67 503.06 0.43 c p3
297.81 501.29 0.43 c p3
297.96 501.82 0.43 c p3
298.11 501.65 0.43 c p3
298.25 502.70 0.43 c p3
298.40 502.88 0.43 c p3
298.54 502.70 0.43 c p3
298.69 502.17 0.43 c p3
298.83 502.35 0.43 c p3
298.98 501.47 0.43 c p3
299.12 501.82 0.43 c p3
299.27 501.82 0.43 c p3
299.42 502.88 0.43 c p3
299.56 503.06 0.43 c p3
299.71 502.70 0.43 c p3
299.85 502.88 0.43 c p3
300.00 502.70 0.43 c p3
300.14 502.35 0.43 c p3
300.29 501.47 0.43 c p3
300.43 502.00 0.43 c p3
300.58 503.73 0.43 c p3
300.73 502.53 0.43 c p3
300.87 503.06 0.43 c p3
301.02 502.88 0.43 c p3
301.16 502.88 0.43 c p3
301.31 502.88 0.43 c p3
301.45 503.38 0.43 c p3
301.60 503.56 0.43 c p3
301.74 502.53 0.43 c p3
301.89 503.06 0.43 c p3
302.04 502.00 0.43 c p3
302.18 503.38 0.43 c p3
302.33 502.53 0.43 c p3
302.47 502.17 0.43 c p3
302.62 502.70 0.43 c p3
302.76 502.53 0.43 c p3
302.91 503.38 0.43 c p3
303.06 503.91 0.43 c p3
303.20 504.97 0.43 c p3
303.35 503.06 0.43 c p3
303.49 503.06 0.43 c p3
303.64 502.88 0.43 c p3
303.78 502.70 0.43 c p3
303.93 504.09 0.43 c p3
304.07 503.73 0.43 c p3
304.22 503.38 0.43 c p3
304.37 503.23 0.43 c p3
304.51 503.38 0.43 c p3
304.66 502.35 0.43 c p3
304.80 503.23 0.43 c p3
304.95 503.06 0.43 c p3
305.09 503.23 0.43 c p3
305.24 502.53 0.43 c p3
305.38 503.38 0.43 c p3
305.53 504.09 0.43 c p3
305.68 502.53 0.43 c p3
305.82 502.70 0.43 c p3
305.97 503.23 0.43 c p3
306.11 502.70 0.43 c p3
306.26 503.91 0.43 c p3
306.40 503.73 0.43 c p3
306.55 503.38 0.43 c p3
306.69 503.91 0.43 c p3
306.84 504.09 0.43 c p3
306.99 503.73 0.43 c p3
307.13 503.91 0.43 c p3
307.28 503.23 0.43 c p3
307.42 502.88 0.43 c p3
307.57 503.23 0.43 c p3
307.71 503.38 0.43 c p3
307.86 502.17 0.43 c p3
308.01 503.06 0.43 c p3
308.15 503.73 0.43 c p3
308.30 503.38 0.43 c p3
308.44 503.91 0.43 c p3
308.59 503.73 0.43 c p3
308.73 504.26 0.43 c p3
308.88 503.91 0.43 c p3
309.02 503.56 0.43 c p3
309.17 503.91 0.43 c p3
309.32 504.26 0.43 c p3
309.46 503.91 0.43 c p3
309.61 504.79 0.43 c p3
309.75 504.26 0.43 c p3
309.90 504.26 0.43 c p3
310.04 504.97 0.43 c p3
310.19 504.62 0.43 c p3
310.33 504.09 0.43 c p3
310.48 502.53 0.43 c p3
310.63 503.38 0.43 c p3
310.77 504.44 0.43 c p3
310.92 503.91 0.43 c p3
311.06 503.73 0.43 c p3
311.21 505.50 0.43 c p3
311.35 504.44 0.43 c p3
311.50 503.23 0.43 c p3
311.64 504.26 0.43 c p3
311.79 504.79 0.43 c p3
311.94 504.09 0.43 c p3
312.08 503.73 0.43 c p3
312.23 505.85 0.43 c p3
312.37 504.09 0.43 c p3
312.52 504.09 0.43 c p3
312.66 505.50 0.43 c p3
312.81 503.56 0.43 c p3
312.96 505.68 0.43 c p3
313.10 503.06 0.43 c p3
313.25 504.44 0.43 c p3
313.39 503.73 0.43 c p3
313.54 504.97 0.43 c p3
313.68 505.32 0.43 c p3
313.83 504.26 0.43 c p3
313.97 504.26 0.43 c p3
314.12 503.23 0.43 c p3
314.27 504.79 0.43 c p3
314.41 504.79 0.43 c p3
314.56 504.44 0.43 c p3
314.70 504.79 0.43 c p3
314.85 504.79 0.43 c p3
314.99 505.15 0.43 c p3
315.14 504.62 0.43 c p3
315.28 503.91 0.43 c p3
315.43 504.97 0.43 c p3
315.58 504.79 0.43 c p3
315.72 505.32 0.43 c p3
315.87 504.62 0.43 c p3
316.01 505.32 0.43 c p3
316.16 504.97 0.43 c p3
316.30 504.26 0.43 c p3
316.45 504.79 0.43 c p3
316.59 504.44 0.43 c p3
316.74 505.32 0.43 c p3
316.89 505.68 0.43 c p3
317.03 506.20 0.43 c p3
317.18 504.09 0.43 c p3
317.32 504.97 0.43 c p3
317.47 505.15 0.43 c p3
317.61 504.09 0.43 c p3
317.76 505.68 0.43 c p3
317.91 505.85 0.43 c p3
318.05 505.50 0.43 c p3
318.20 504.79 0.43 c p3
318.34 504.44 0.43 c p3
318.49 505.85 0.43 c p3
318.63 506.20 0.43 c p3
318.78 506.38 0.43 c p3
318.92 504.97 0.43 c p3
319.07 505.68 0.43 c p3
319.22 504.44 0.43 c p3
319.36 506.03 0.43 c p3
319.51 506.20 0.43 c p3
319.65 504.97 0.43 c p3
319.80 505.15 0.43 c p3
319.94 504.44 0.43 c p3
320.09 505.68 0.43 c p3
320.23 504.79 0.43 c p3
320.38 505.68 0.43 c p3
320.53 505.85 0.43 c p3
320.67 505.50 0.43 c p3
320.82 504.44 0.43 c p3
320.96 504.09 0.43 c p3
321.11 504.62 0.43 c p3
321.25 506.03 0.43 c p3
321.40 504.97 0.43 c p3
321.54 505.85 0.43 c p3
321.69 505.68 0.43 c p3
321.84 505.68 0.43 c p3
321.98 504.44 0.43 c p3
322.13 505.15 0.43 c p3
322.27 506.03 0.43 c p3
322.42 505.15 0.43 c p3
322.56 505.68 0.43 c p3
322.71 506.03 0.43 c p3
322.85 505.15 0.43 c p3
323.00 506.20 0.43 c p3
323.15 504.97 0.43 c p3
323.29 505.15 0.43 c p3
323.44 505.68 0.43 c p3
323.58 505.32 0.43 c p3
323.73 504.97 0.43 c p3
323.87 505.32 0.43 c p3
324.02 504.97 0.43 c p3
324.17 505.85 0.43 c p3
324.31 506.73 0.43 c p3
324.46 505.32 0.43 c p3
324.60 505.50 0.43 c p3
324.75 506.38 0.43 c p3
324.89 506.20 0.43 c p3
325.04 506.20 0.43 c p3
325.18 506.91 0.43 c p3
325.33 504.97 0.43 c p3
325.48 507.09 0.43 c p3
325.62 505.32 0.43 c p3
325.77 506.03 0.43 c p3
325.91 506.56 0.43 c p3
326.06 505.32 0.43 c p3
326.20 507.09 0.43 c p3
326.35 506.03 0.43 c p3
326.49 505.68 0.43 c p3
326.64 505.50 0.43 c p3
326.79 505.68 0.43 c p3
326.93 505.50 0.43 c p3
327.08 506.03 0.43 c p3
327.22 505.50 0.43 c p3
327.37 505.50 0.43 c p3
327.51 506.03 0.43 c p3
327.66 506.38 0.43 c p3
327.80 504.26 0.43 c p3
327.95 505.68 0.43 c p3
328.10 505.85 0.43 c p3
328.24 505.50 0.43 c p3
328.39 504.44 0.43 c p3
328.53 505.68 0.43 c p3
328.68 506.20 0.43 c p3
328.82 505.32 0.43 c p3
328.97 505.50 0.43 c p3
329.12 506.91 0.43 c p3
329.26 505.85 0.43 c p3
329.41 504.97 0.43 c p3
329.55 507.44 0.43 c p3
329.70 505.50 0.43 c p3
329.84 506.56 0.43 c p3
329.99 506.03 0.43 c p3
330.13 506.20 0.43 c p3
330.28 506.56 0.43 c p3
330.43 505.85 0.43 c p3
330.57 506.38 0.43 c p3
330.72 506.56 0.43 c p3
330.86 506.91 0.43 c p3
331.01 506.03 0.43 c p3
331.15 506.20 0.43 c p3
331.30 505.68 0.43 c p3
331.44 506.91 0.43 c p3
331.59 505.50 0.43 c p3
331.74 506.03 0.43 c p3
331.88 506.20 0.43 c p3
332.03 505.50 0.43 c p3
332.17 506.38 0.43 c p3
332.32 506.38 0.43 c p3
332.46 507.09 0.43 c p3
332.61 504.79 0.43 c p3
332.75 506.20 0.43 c p3
332.90 507.09 0.43 c p3
333.05 506.38 0.43 c p3
333.19 506.56 0.43 c p3
333.34 506.20 0.43 c p3
333.48 507.44 0.43 c p3
333.63 506.38 0.43 c p3
333.77 506.38 0.43 c p3
333.92 506.91 0.43 c p3
334.07 506.91 0.43 c p3
334.21 507.44 0.43 c p3
334.36 507.09 0.43 c p3
334.50 506.38 0.43 c p3
334.65 507.44 0.43 c p3
334.79 506.03 0.43 c p3
334.94 507.79 0.43 c p3
335.08 506.03 0.43 c p3
335.23 506.20 0.43 c p3
335.38 507.44 0.43 c p3
335.52 506.38 0.43 c p3
335.67 506.91 0.43 c p3
335.81 506.73 0.43 c p3
335.96 507.26 0.43 c p3
336.10 506.03 0.43 c p3
336.25 506.03 0.43 c p3
336.39 506.38 0.43 c p3
336.54 505.85 0.43 c p3
336.69 507.09 0.43 c p3
336.83 506.73 0.43 c p3
336.98 506.56 0.43 c p3
337.12 506.56 0.43 c p3
337.27 506.91 0.43 c p3
337.41 506.73 0.43 c p3
337.56 507.09 0.43 c p3
337.70 506.03 0.43 c p3
337.85 507.62 0.43 c p3
338.00 507.62 0.43 c p3
338.14 506.03 0.43 c p3
338.29 507.44 0.43 c p3
338.43 506.03 0.43 c p3
338.58 507.09 0.43 c p3
338.72 506.56 0.43 c p3
338.87 507.44 0.43 c p3
339.02 507.26 0.43 c p3
339.16 505.68 0.43 c p3
339.31 505.85 0.43 c p3
339.45 507.62 0.43 c p3
339.60 507.79 0.43 c p3
339.74 507.09 0.43 c p3
339.89 507.44 0.43 c p3
340.03 506.91 0.43 c p3
340.18 506.56 0.43 c p3
340.33 506.73 0.43 c p3
340.47 507.26 0.43 c p3
340.62 506.38 0.43 c p3
340.76 506.73 0.43 c p3
340.91 507.09 0.43 c p3
341.05 506.56 0.43 c p3
341.20 506.73 0.43 c p3
341.34 507.09 0.43 c p3
341.49 507.26 0.43 c p3
341.64 507.44 0.43 c p3
341.78 506.03 0.43 c p3
341.93 507.26 0.43 c p3
342.07 507.09 0.43 c p3
342.22 507.44 0.43 c p3
342.36 507.44 0.43 c p3
342.51 506.20 0.43 c p3
342.65 506.91 0.43 c p3
342.80 507.62 0.43 c p3
342.95 507.09 0.43 c p3
343.09 507.79 0.43 c p3
343.24 507.62 0.43 c p3
343.38 507.44 0.43 c p3
343.53 506.73 0.43 c p3
343.67 507.09 0.43 c p3
343.82 507.26 0.43 c p3
343.97 507.26 0.43 c p3
344.11 506.91 0.43 c p3
344.26 507.62 0.43 c p3
344.40 507.44 0.43 c p3
344.55 507.97 0.43 c p3
344.69 507.62 0.43 c p3
344.84 507.62 0.43 c p3
344.98 507.62 0.43 c p3
345.13 506.20 0.43 c p3
345.28 508.12 0.43 c p3
345.42 507.26 0.43 c p3
345.57 507.44 0.43 c p3
345.71 506.91 0.43 c p3
345.86 506.73 0.43 c p3
346.00 507.97 0.43 c p3
346.15 507.62 0.43 c p3
346.29 507.44 0.43 c p3
346.44 507.97 0.43 c p3
346.59 507.09 0.43 c p3
346.73 508.12 0.43 c p3
346.88 507.62 0.43 c p3
347.02 507.09 0.43 c p3
347.17 508.29 0.43 c p3
347.31 507.26 0.43 c p3
347.46 508.12 0.43 c p3
347.60 507.44 0.43 c p3
347.75 506.73 0.43 c p3
347.90 507.09 0.43 c p3
348.04 506.38 0.43 c p3
348.19 508.47 0.43 c p3
348.33 507.26 0.43 c p3
348.48 507.62 0.43 c p3
348.62 507.44 0.43 c p3
348.77 507.09 0.43 c p3
348.92 507.79 0.43 c p3
349.06 506.20 0.43 c p3
349.21 506.38 0.43 c p3
349.35 507.09 0.43 c p3
349.50 506.91 0.43 c p3
349.64 507.97 0.43 c p3
349.79 507.97 0.43 c p3
349.93 506.56 0.43 c p3
350.08 507.44 0.43 c p3
350.23 507.62 0.43 c p3
350.37 507.62 0.43 c p3
350.52 507.62 0.43 c p3
350.66 506.56 0.43 c p3
350.81 507.44 0.43 c p3
350.95 507.09 0.43 c p3
351.10 508.12 0.43 c p3
351.24 506.91 0.43 c p3
351.39 507.09 0.43 c p3
351.54 506.73 0.43 c p3
351.68 508.29 0.43 c p3
351.83 506.38 0.43 c p3
351.97 507.44 0.43 c p3
352.12 507.26 0.43 c p3
352.26 507.97 0.43 c p3
352.41 509.18 0.43 c p3
352.55 507.62 0.43 c p3
352.70 509.00 0.43 c p3
352.85 507.44 0.43 c p3
352.99 507.62 0.43 c p3
353.14 508.29 0.43 c p3
353.28 508.12 0.43 c p3
353.43 507.97 0.43 c p3
353.57 507.09 0.43 c p3
353.72 508.47 0.43 c p3
353.86 507.26 0.43 c p3
354.01 506.73 0.43 c p3
354.16 507.62 0.43 c p3
354.30 508.29 0.43 c p3
354.45 508.12 0.43 c p3
354.59 508.47 0.43 c p3
354.74 507.26 0.43 c p3
354.88 505.85 0.43 c p3
355.03 507.26 0.43 c p3
355.18 508.12 0.43 c p3
355.32 507.97 0.43 c p3
355.47 506.56 0.43 c p3
355.61 508.29 0.43 c p3
355.76 506.56 0.43 c p3
355.90 507.44 0.43 c p3
356.05 508.12 0.43 c p3
356.19 506.91 0.43 c p3
356.34 507.44 0.43 c p3
356.49 507.97 0.43 c p3
356.63 507.62 0.43 c p3
356.78 507.62 0.43 c p3
356.92 506.73 0.43 c p3
357.07 508.65 0.43 c p3
357.21 507.26 0.43 c p3
357.36 506.73 0.43 c p3
357.50 507.26 0.43 c p3
357.65 507.62 0.43 c p3
357.80 507.62 0.43 c p3
357.94 507.09 0.43 c p3
358.09 507.44 0.43 c p3
358.23 507.79 0.43 c p3
358.38 507.44 0.43 c p3
358.52 507.62 0.43 c p3
358.67 508.12 0.43 c p3
358.81 507.44 0.43 c p3
358.96 508.65 0.43 c p3
359.11 509.35 0.43 c p3
359.25 507.79 0.43 c p3
359.40 508.12 0.43 c p3
359.54 507.79 0.43 c p3
359.69 507.79 0.43 c p3
359.83 507.97 0.43 c p3
359.98 508.12 0.43 c p3
360.13 508.12 0.43 c p3
360.27 509.35 0.43 c p3
360.42 507.62 0.43 c p3
360.56 507.09 0.43 c p3
360.71 507.26 0.43 c p3
360.85 508.82 0.43 c p3
361.00 508.47 0.43 c p3
361.14 508.29 0.43 c p3
361.29 508.47 0.43 c p3
361.44 508.12 0.43 c p3
361.58 507.44 0.43 c p3
361.73 506.91 0.43 c p3
361.87 507.62 0.43 c p3
362.02 507.79 0.43 c p3
362.16 507.79 0.43 c p3
362.31 508.65 0.43 c p3
362.45 508.47 0.43 c p3
362.60 508.12 0.43 c p3
362.75 507.44 0.43 c p3
362.89 507.26 0.43 c p3
363.04 507.97 0.43 c p3
363.18 508.29 0.43 c p3
363.33 507.79 0.43 c p3
363.47 509.00 0.43 c p3
363.62 508.29 0.43 c p3
363.76 508.65 0.43 c p3
363.91 508.29 0.43 c p3
364.06 508.29 0.43 c p3
364.20 508.29 0.43 c p3
364.35 508.29 0.43 c p3
364.49 508.29 0.43 c p3
364.64 506.91 0.43 c p3
364.78 508.12 0.43 c p3
364.93 508.47 0.43 c p3
365.08 507.62 0.43 c p3
365.22 507.62 0.43 c p3
365.37 506.73 0.43 c p3
365.51 507.44 0.43 c p3
365.66 506.73 0.43 c p3
365.80 507.97 0.43 c p3
365.95 507.97 0.43 c p3
366.09 509.35 0.43 c p3
366.24 507.79 0.43 c p3
366.39 507.44 0.43 c p3
366.53 507.44 0.43 c p3
366.68 508.12 0.43 c p3
366.82 507.79 0.43 c p3
366.97 508.12 0.43 c p3
367.11 507.97 0.43 c p3
367.26 507.44 0.43 c p3
367.40 508.29 0.43 c p3
367.55 508.82 0.43 c p3
367.70 507.79 0.43 c p3
367.84 508.47 0.43 c p3
367.99 508.29 0.43 c p3
368.13 508.82 0.43 c p3
368.28 509.00 0.43 c p3
368.42 508.12 0.43 c p3
368.57 508.29 0.43 c p3
368.71 508.12 0.43 c p3
368.86 507.26 0.43 c p3
369.01 508.29 0.43 c p3
369.15 507.09 0.43 c p3
369.30 508.47 0.43 c p3
369.44 508.65 0.43 c p3
369.59 509.00 0.43 c p3
369.73 509.18 0.43 c p3
369.88 507.44 0.43 c p3
370.03 507.97 0.43 c p3
370.17 509.00 0.43 c p3
370.32 508.12 0.43 c p3
370.46 509.00 0.43 c p3
370.61 507.62 0.43 c p3
370.75 508.65 0.43 c p3
370.90 508.65 0.43 c p3
371.04 506.38 0.43 c p3
371.19 508.29 0.43 c p3
371.34 506.91 0.43 c p3
371.48 507.97 0.43 c p3
371.63 507.79 0.43 c p3
371.77 508.29 0.43 c p3
371.92 508.12 0.43 c p3
372.06 507.62 0.43 c p3
372.21 508.47 0.43 c p3
372.35 508.65 0.43 c p3
372.50 507.44 0.43 c p3
372.65 507.44 0.43 c p3
372.79 509.18 0.43 c p3
372.94 507.44 0.43 c p3
373.08 507.97 0.43 c p3
373.23 509.00 0.43 c p3
373.37 508.47 0.43 c p3
373.52 507.26 0.43 c p3
373.66 509.53 0.43 c p3
373.81 508.47 0.43 c p3
373.96 507.97 0.43 c p3
374.10 506.91 0.43 c p3
374.25 508.47 0.43 c p3
374.39 508.65 0.43 c p3
374.54 507.79 0.43 c p3
374.68 507.26 0.43 c p3
374.83 508.65 0.43 c p3
374.98 509.18 0.43 c p3
375.12 508.82 0.43 c p3
375.27 508.12 0.43 c p3
375.41 507.79 0.43 c p3
375.56 508.47 0.43 c p3
375.70 508.47 0.43 c p3
375.85 508.82 0.43 c p3
375.99 507.79 0.43 c p3
376.14 508.65 0.43 c p3
376.29 508.82 0.43 c p3
376.43 508.12 0.43 c p3
376.58 508.29 0.43 c p3
376.72 507.62 0.43 c p3
376.87 508.29 0.43 c p3
377.01 508.82 0.43 c p3
377.16 508.29 0.43 c p3
377.30 509.35 0.43 c p3
377.45 507.62 0.43 c p3
377.60 508.47 0.43 c p3
377.74 508.29 0.43 c p3
377.89 508.47 0.43 c p3
378.03 508.65 0.43 c p3
378.18 509.18 0.43 c p3
378.32 509.00 0.43 c p3
378.47 508.29 0.43 c p3
378.61 508.12 0.43 c p3
378.76 508.82 0.43 c p3
378.91 508.65 0.43 c p3
379.05 508.12 0.43 c p3
379.20 508.29 0.43 c p3
379.34 508.82 0.43 c p3
379.49 508.47 0.43 c p3
379.63 508.65 0.43 c p3
379.78 507.09 0.43 c p3
379.93 508.47 0.43 c p3
380.07 509.18 0.43 c p3
380.22 508.82 0.43 c p3
380.36 509.18 0.43 c p3
380.51 508.47 0.43 c p3
380.65 508.65 0.43 c p3
380.80 510.41 0.43 c p3
380.94 508.82 0.43 c p3
381.09 507.79 0.43 c p3
381.24 508.47 0.43 c p3
381.38 508.65 0.43 c p3
381.53 508.82 0.43 c p3
381.67 509.53 0.43 c p3
381.82 509.88 0.43 c p3
381.96 509.35 0.43 c p3
382.11 508.29 0.43 c p3
382.25 509.88 0.43 c p3
382.40 509.18 0.43 c p3
0.00 0.00 432.00 576.00 cl
0 0 0 srgb
0.75 setlinewidth
[] 0 setdash
1 setlinecap
1 setlinejoin
10.00 setmiterlimit
np
236.96 345.60 m
145.59 0 l
o
np
236.96 345.60 m
0 -5.76 l
o
np
266.08 345.60 m
0 -5.76 l
o
np
295.19 345.60 m
0 -5.76 l
o
np
324.31 345.60 m
0 -5.76 l
o
np
353.43 345.60 m
0 -5.76 l
o
np
382.55 345.60 m
0 -5.76 l
o
/Font1 findfont 10 s
236.96 329.47 (0) .5 0 t
266.08 329.47 (500) .5 0 t
295.19 329.47 (1000) .5 0 t
353.43 329.47 (2000) .5 0 t
np
216.00 352.00 m
0 144.59 l
o
np
216.00 352.00 m
-5.76 0 l
o
np
216.00 376.10 m
-5.76 0 l
o
np
216.00 400.20 m
-5.76 0 l
o
np
216.00 424.29 m
-5.76 0 l
o
np
216.00 448.39 m
-5.76 0 l
o
np
216.00 472.49 m
-5.76 0 l
o
np
216.00 496.59 m
-5.76 0 l
o
209.09 348.41 (0.00) 1 0 t
209.09 372.51 (0.05) 1 0 t
209.09 396.61 (0.10) 1 0 t
209.09 420.70 (0.15) 1 0 t
209.09 444.80 (0.20) 1 0 t
209.09 468.90 (0.25) 1 0 t
209.09 493.00 (0.30) 1 0 t
np
216.00 345.60 m
172.80 0 l
0 172.80 l
-172.80 0 l
0 -172.80 l
o
0.00 0.00 432.00 576.00 cl
/Font1 findfont 10 s
0 0 0 srgb
302.40 313.34 (Time / ms \(total\)) .5 0 t
190.66 432.00 (U / V) .5 90 t
216.00 345.60 388.80 518.40 cl
0 0 0 srgb
0.38 setlinewidth
[ 1.13 1.88] 0 setdash
1 setlinecap
1 setlinejoin
10.00 setmiterlimit
np
222.69 345.60 m
0 172.80 l
o
np
235.21 345.60 m
0 172.80 l
o
np
238.85 345.60 m
0 172.80 l
o
np
350.66 345.60 m
0 172.80 l
o
86.40 57.60 388.80 288.00 cl
1 0 0 srgb
1.50 setlinewidth
[] 0 setdash
1 setlinecap
1 setlinejoin
10.00 setmiterlimit
np
97.60 279.47 m
1.41 -4.89 l
1.40 -4.78 l
1.41 -4.66 l
1.41 -4.55 l
1.41 -4.43 l
1.40 -4.34 l
1.41 -4.23 l
1.41 -4.12 l
1.40 -4.03 l
1.41 -3.94 l
1.41 -3.83 l
1.40 -3.75 l
1.41 -3.66 l
1.41 -3.57 l
1.41 -3.48 l
1.40 -3.40 l
1.41 -3.32 l
1.41 -3.24 l
1.40 -3.16 l
1.41 -3.09 l
1.41 -3.01 l
1.40 -2.94 l
1.41 -2.87 l
1.41 -2.80 l
1.41 -2.74 l
1.40 -2.67 l
1.41 -2.60 l
1.41 -2.54 l
1.40 -2.49 l
1.41 -2.42 l
1.41 -2.36 l
1.41 -2.31 l
1.40 -2.25 l
1.41 -2.20 l
1.41 -2.15 l
1.40 -2.09 l
1.41 -2.05 l
1.41 -1.99 l
1.40 -1.95 l
1.41 -1.90 l
1.41 -1.86 l
1.41 -1.81 l
1.40 -1.77 l
1.41 -1.72 l
1.41 -1.68 l
1.40 -1.65 l
1.41 -1.60 l
1.41 -1.57 l
1.40 -1.53 l
1.41 -1.49 l
1.41 -1.46 l
1.41 -1.42 l
1.40 -1.39 l
1.41 -1.35 l
1.41 -1.32 l
1.40 -1.29 l
1.41 -1.26 l
1.41 -1.23 l
1.41 -1.20 l
1.40 -1.17 l
1.41 -1.14 l
1.41 -1.12 l
1.40 -1.09 l
1.41 -1.06 l
1.41 -1.04 l
1.40 -1.01 l
1.41 -0.99 l
1.41 -0.97 l
1.41 -0.94 l
1.40 -0.92 l
1.41 -0.89 l
1.41 -0.88 l
1.40 -0.85 l
1.41 -0.84 l
1.41 -0.81 l
1.40 -0.80 l
1.41 -0.77 l
1.41 -0.76 l
1.41 -0.74 l
1.40 -0.72 l
1.41 -0.70 l
1.41 -0.69 l
1.40 -0.67 l
1.41 -0.66 l
1.41 -0.64 l
1.41 -0.62 l
1.40 -0.61 l
1.41 -0.59 l
1.41 -0.58 l
1.40 -0.57 l
1.41 -0.55 l
1.41 -0.54 l
1.40 -0.53 l
1.41 -0.51 l
1.41 -0.50 l
1.41 -0.49 l
1.40 -0.48 l
1.41 -0.47 l
1.41 -0.45 l
238.30 93.26 lineto
1.41 -0.43 l
1.41 -0.42 l
1.40 -0.42 l
1.41 -0.40 l
1.41 -0.39 l
1.41 -0.39 l
1.40 -0.37 l
1.41 -0.37 l
1.41 -0.35 l
1.40 -0.35 l
1.41 -0.34 l
1.41 -0.34 l
1.40 -0.32 l
1.41 -0.32 l
1.41 -0.31 l
1.41 -0.30 l
1.40 -0.29 l
1.41 -0.29 l
1.41 -0.28 l
1.40 -0.27 l
1.41 -0.27 l
1.41 -0.26 l
1.41 -0.26 l
1.40 -0.24 l
1.41 -0.25 l
1.41 -0.23 l
1.40 -0.23 l
1.41 -0.23 l
1.41 -0.22 l
1.40 -0.21 l
1.41 -0.21 l
1.41 -0.21 l
1.41 -0.20 l
1.40 -0.19 l
1.41 -0.19 l
1.41 -0.19 l
1.40 -0.18 l
1.41 -0.18 l
1.41 -0.17 l
1.40 -0.17 l
1.41 -0.16 l
1.41 -0.16 l
1.41 -0.16 l
1.40 -0.15 l
1.41 -0.15 l
1.41 -0.15 l
1.40 -0.14 l
1.41 -0.14 l
1.41 -0.14 l
1.41 -0.13 l
1.40 -0.13 l
1.41 -0.12 l
1.41 -0.13 l
1.40 -0.12 l
1.41 -0.11 l
1.41 -0.12 l
1.40 -0.11 l
1.41 -0.11 l
1.41 -0.11 l
1.41 -0.10 l
1.40 -0.10 l
1.41 -0.10 l
1.41 -0.10 l
1.40 -0.09 l
1.41 -0.09 l
1.41 -0.09 l
1.40 -0.09 l
1.41 -0.09 l
1.41 -0.08 l
1.41 -0.08 l
1.40 -0.08 l
1.41 -0.08 l
1.41 -0.07 l
1.40 -0.08 l
1.41 -0.07 l
1.41 -0.07 l
1.41 -0.07 l
1.40 -0.07 l
1.41 -0.06 l
1.41 -0.07 l
1.40 -0.06 l
1.41 -0.06 l
1.41 -0.06 l
1.40 -0.06 l
1.41 -0.05 l
1.41 -0.06 l
1.41 -0.05 l
1.40 -0.05 l
1.41 -0.06 l
1.41 -0.05 l
1.40 -0.05 l
1.41 -0.04 l
1.41 -0.05 l
1.40 -0.05 l
1.41 -0.04 l
1.41 -0.04 l
1.41 -0.05 l
1.40 -0.04 l
1.41 -0.04 l
o
0.00 0.00 432.00 576.00 cl
0 0 0 srgb
0.75 setlinewidth
[] 0 setdash
1 setlinecap
1 setlinejoin
10.00 setmiterlimit
np
97.60 57.60 m
280.00 0 l
o
np
97.60 57.60 m
0 -5.76 l
o
np
153.60 57.60 m
0 -5.76 l
o
np
209.60 57.60 m
0 -5.76 l
o
np
265.60 57.60 m
0 -5.76 l
o
np
321.60 57.60 m
0 -5.76 l
o
np
377.60 57.60 m
0 -5.76 l
o
/Font1 findfont 10 s
97.60 41.47 (0) .5 0 t
153.60 41.47 (500) .5 0 t
209.60 41.47 (1000) .5 0 t
265.60 41.47 (1500) .5 0 t
321.60 41.47 (2000) .5 0 t
377.60 41.47 (2500) .5 0 t
np
86.40 66.13 m
0 221.26 l
o
np
86.40 66.13 m
-5.76 0 l
o
np
86.40 97.74 m
-5.76 0 l
o
np
86.40 129.35 m
-5.76 0 l
o
np
86.40 160.96 m
-5.76 0 l
o
np
86.40 192.56 m
-5.76 0 l
o
np
86.40 224.17 m
-5.76 0 l
o
np
86.40 255.78 m
-5.76 0 l
o
np
86.40 287.39 m
-5.76 0 l
o
79.49 62.54 (0.00) 1 0 t
79.49 94.15 (0.02) 1 0 t
79.49 125.76 (0.04) 1 0 t
79.49 157.37 (0.06) 1 0 t
79.49 188.97 (0.08) 1 0 t
79.49 220.58 (0.10) 1 0 t
79.49 252.19 (0.12) 1 0 t
79.49 283.80 (0.14) 1 0 t
np
86.40 57.60 m
302.40 0 l
0 230.40 l
-302.40 0 l
0 -230.40 l
o
0.00 0.00 432.00 576.00 cl
/Font1 findfont 10 s
0 0 0 srgb
237.60 13.82 (Time / ms \(after pulse\)) .5 0 t
49.54 172.80 (Absorbance A) .5 90 t
86.40 57.60 388.80 288.00 cl
/bg { 1 1 1 srgb } def
0 0 0 srgb
0.75 setlinewidth
[] 0 setdash
1 setlinecap
1 setlinejoin
10.00 setmiterlimit
101.52 276.71 0.65 c p3
101.80 275.67 0.65 c p3
102.08 273.60 0.65 c p3
102.36 267.41 0.65 c p3
102.64 276.71 0.65 c p3
102.92 261.46 0.65 c p3
103.20 265.54 0.65 c p3
103.48 272.57 0.65 c p3
103.76 269.47 0.65 c p3
104.04 257.40 0.65 c p3
104.32 254.38 0.65 c p3
104.60 263.50 0.65 c p3
104.88 265.54 0.65 c p3
105.16 258.41 0.65 c p3
105.44 248.36 0.65 c p3
105.72 250.36 0.65 c p3
106.00 259.43 0.65 c p3
106.28 253.37 0.65 c p3
106.56 239.60 0.65 c p3
106.84 248.36 0.65 c p3
107.12 252.36 0.65 c p3
107.40 246.37 0.65 c p3
107.68 249.36 0.65 c p3
107.96 238.62 0.65 c p3
108.24 242.40 0.65 c p3
108.52 244.38 0.65 c p3
108.80 246.37 0.65 c p3
109.08 241.41 0.65 c p3
109.36 239.60 0.65 c p3
109.64 239.60 0.65 c p3
109.92 236.65 0.65 c p3
110.20 243.39 0.65 c p3
110.48 243.39 0.65 c p3
110.76 238.62 0.65 c p3
111.04 231.76 0.65 c p3
111.32 235.67 0.65 c p3
111.60 237.64 0.65 c p3
111.88 234.69 0.65 c p3
112.16 235.67 0.65 c p3
112.44 232.74 0.65 c p3
112.72 224.02 0.65 c p3
113.00 230.79 0.65 c p3
113.28 234.69 0.65 c p3
113.56 224.98 0.65 c p3
113.84 227.88 0.65 c p3
114.12 225.95 0.65 c p3
114.40 230.79 0.65 c p3
114.68 231.76 0.65 c p3
114.96 221.13 0.65 c p3
115.24 224.02 0.65 c p3
115.52 217.31 0.65 c p3
115.80 226.91 0.65 c p3
116.08 225.95 0.65 c p3
116.36 224.02 0.65 c p3
116.64 220.18 0.65 c p3
116.92 219.22 0.65 c p3
117.20 219.22 0.65 c p3
117.48 224.02 0.65 c p3
117.76 215.41 0.65 c p3
118.04 212.72 0.65 c p3
118.32 219.22 0.65 c p3
118.60 218.26 0.65 c p3
118.88 221.13 0.65 c p3
119.16 206.12 0.65 c p3
119.44 210.82 0.65 c p3
119.72 212.72 0.65 c p3
120.00 215.41 0.65 c p3
120.28 207.99 0.65 c p3
120.56 210.82 0.65 c p3
120.84 206.12 0.65 c p3
121.12 211.77 0.65 c p3
121.40 212.72 0.65 c p3
121.68 211.77 0.65 c p3
121.96 208.94 0.65 c p3
122.24 207.99 0.65 c p3
122.52 205.18 0.65 c p3
122.80 207.99 0.65 c p3
123.08 207.06 0.65 c p3
123.36 207.99 0.65 c p3
123.64 201.44 0.65 c p3
123.92 201.44 0.65 c p3
124.20 204.24 0.65 c p3
124.48 201.44 0.65 c p3
124.76 193.10 0.65 c p3
125.04 199.58 0.65 c p3
125.32 206.12 0.65 c p3
125.60 200.51 0.65 c p3
125.88 197.72 0.65 c p3
126.16 193.10 0.65 c p3
126.44 194.95 0.65 c p3
126.72 198.65 0.65 c p3
127.00 194.95 0.65 c p3
127.28 194.03 0.65 c p3
127.56 193.10 0.65 c p3
127.84 194.03 0.65 c p3
128.12 200.51 0.65 c p3
128.40 189.43 0.65 c p3
128.68 185.93 0.65 c p3
128.96 194.03 0.65 c p3
129.24 188.67 0.65 c p3
129.52 196.80 0.65 c p3
129.80 192.18 0.65 c p3
130.08 185.02 0.65 c p3
130.36 190.35 0.65 c p3
130.64 193.10 0.65 c p3
130.92 191.27 0.65 c p3
131.20 186.84 0.65 c p3
131.48 184.11 0.65 c p3
131.76 190.35 0.65 c p3
132.04 194.03 0.65 c p3
132.32 184.11 0.65 c p3
132.60 182.30 0.65 c p3
132.88 187.75 0.65 c p3
133.16 188.67 0.65 c p3
133.44 183.20 0.65 c p3
133.72 188.67 0.65 c p3
134.00 179.58 0.65 c p3
134.28 181.39 0.65 c p3
134.56 179.58 0.65 c p3
134.84 185.93 0.65 c p3
135.12 180.48 0.65 c p3
135.40 175.98 0.65 c p3
135.68 180.48 0.65 c p3
135.96 178.68 0.65 c p3
136.24 179.58 0.65 c p3
136.52 178.68 0.65 c p3
136.80 181.39 0.65 c p3
137.08 175.98 0.65 c p3
137.36 182.30 0.65 c p3
137.64 178.68 0.65 c p3
137.92 173.29 0.65 c p3
138.20 175.98 0.65 c p3
138.48 182.30 0.65 c p3
138.76 176.88 0.65 c p3
139.04 168.83 0.65 c p3
139.32 168.83 0.65 c p3
139.60 179.58 0.65 c p3
139.88 179.58 0.65 c p3
140.16 170.61 0.65 c p3
140.44 166.17 0.65 c p3
140.72 174.19 0.65 c p3
141.00 176.88 0.65 c p3
141.28 175.08 0.65 c p3
141.56 163.67 0.65 c p3
141.84 167.06 0.65 c p3
142.12 170.61 0.65 c p3
142.40 173.29 0.65 c p3
142.68 165.29 0.65 c p3
142.96 168.83 0.65 c p3
143.24 169.72 0.65 c p3
143.52 169.72 0.65 c p3
143.80 164.55 0.65 c p3
144.08 165.29 0.65 c p3
144.36 161.91 0.65 c p3
144.64 165.29 0.65 c p3
144.92 169.72 0.65 c p3
145.20 161.91 0.65 c p3
145.48 161.91 0.65 c p3
145.76 164.55 0.65 c p3
146.04 161.03 0.65 c p3
146.32 159.27 0.65 c p3
146.60 165.29 0.65 c p3
146.88 161.03 0.65 c p3
147.16 165.29 0.65 c p3
147.44 163.67 0.65 c p3
147.72 158.40 0.65 c p3
148.00 163.67 0.65 c p3
148.28 160.15 0.65 c p3
148.56 159.27 0.65 c p3
148.84 159.27 0.65 c p3
149.12 154.04 0.65 c p3
149.40 154.91 0.65 c p3
149.68 164.55 0.65 c p3
149.96 154.04 0.65 c p3
150.24 154.04 0.65 c p3
150.52 158.40 0.65 c p3
150.80 161.03 0.65 c p3
151.08 156.65 0.65 c p3
151.36 156.65 0.65 c p3
151.64 156.65 0.65 c p3
151.92 155.78 0.65 c p3
152.20 160.15 0.65 c p3
152.48 154.04 0.65 c p3
152.76 144.53 0.65 c p3
153.04 157.52 0.65 c p3
153.32 157.52 0.65 c p3
153.60 153.17 0.65 c p3
153.88 154.04 0.65 c p3
154.16 150.57 0.65 c p3
154.44 153.17 0.65 c p3
154.72 143.68 0.65 c p3
155.00 148.84 0.65 c p3
155.28 147.11 0.65 c p3
155.56 151.43 0.65 c p3
155.84 145.39 0.65 c p3
156.12 150.57 0.65 c p3
156.40 150.57 0.65 c p3
156.68 148.84 0.65 c p3
156.96 154.04 0.65 c p3
157.24 143.68 0.65 c p3
157.52 147.11 0.65 c p3
157.80 146.25 0.65 c p3
158.08 150.57 0.65 c p3
158.36 147.11 0.65 c p3
158.64 142.82 0.65 c p3
158.92 144.53 0.65 c p3
159.20 145.39 0.65 c p3
159.48 146.25 0.65 c p3
159.76 142.82 0.65 c p3
160.04 143.68 0.65 c p3
160.32 137.85 0.65 c p3
160.60 147.11 0.65 c p3
160.88 147.11 0.65 c p3
161.16 143.68 0.65 c p3
161.44 146.25 0.65 c p3
161.72 144.53 0.65 c p3
162.00 147.97 0.65 c p3
162.28 138.70 0.65 c p3
162.56 141.25 0.65 c p3
162.84 149.70 0.65 c p3
163.12 146.25 0.65 c p3
163.40 141.97 0.65 c p3
163.68 139.55 0.65 c p3
163.96 138.70 0.65 c p3
164.24 141.25 0.65 c p3
164.52 142.82 0.65 c p3
164.80 141.25 0.65 c p3
165.08 140.40 0.65 c p3
165.36 133.61 0.65 c p3
165.64 144.53 0.65 c p3
165.92 134.46 0.65 c p3
166.20 135.30 0.65 c p3
166.48 138.70 0.65 c p3
166.76 143.68 0.65 c p3
167.04 138.70 0.65 c p3
167.32 133.61 0.65 c p3
167.60 136.15 0.65 c p3
167.88 138.70 0.65 c p3
168.16 138.70 0.65 c p3
168.44 137.00 0.65 c p3
168.72 132.77 0.65 c p3
169.00 131.93 0.65 c p3
169.28 135.30 0.65 c p3
169.56 133.61 0.65 c p3
169.84 132.77 0.65 c p3
170.12 133.61 0.65 c p3
170.40 137.00 0.65 c p3
170.68 132.77 0.65 c p3
170.96 133.61 0.65 c p3
171.24 128.57 0.65 c p3
171.52 128.57 0.65 c p3
171.80 135.30 0.65 c p3
172.08 132.77 0.65 c p3
172.36 135.30 0.65 c p3
172.64 126.06 0.65 c p3
172.92 131.93 0.65 c p3
173.20 131.93 0.65 c p3
173.48 127.73 0.65 c p3
173.76 133.61 0.65 c p3
174.04 136.15 0.65 c p3
174.32 133.61 0.65 c p3
174.60 132.77 0.65 c p3
174.88 130.25 0.65 c p3
175.16 126.06 0.65 c p3
175.44 132.77 0.65 c p3
175.72 129.41 0.65 c p3
176.00 121.89 0.65 c p3
176.28 122.73 0.65 c p3
176.56 123.56 0.65 c p3
176.84 127.73 0.65 c p3
177.12 134.46 0.65 c p3
177.40 121.89 0.65 c p3
177.68 120.24 0.65 c p3
177.96 128.57 0.65 c p3
178.24 126.89 0.65 c p3
178.52 126.89 0.65 c p3
178.80 125.22 0.65 c p3
179.08 125.22 0.65 c p3
179.36 130.25 0.65 c p3
179.64 129.41 0.65 c p3
179.92 127.73 0.65 c p3
180.20 121.89 0.65 c p3
180.48 122.73 0.65 c p3
180.76 126.06 0.65 c p3
181.04 125.22 0.65 c p3
181.32 124.39 0.65 c p3
181.60 119.41 0.65 c p3
181.88 124.39 0.65 c p3
182.16 127.73 0.65 c p3
182.44 126.89 0.65 c p3
182.72 118.72 0.65 c p3
183.00 117.90 0.65 c p3
183.28 123.56 0.65 c p3
183.56 126.06 0.65 c p3
183.84 119.41 0.65 c p3
184.12 119.41 0.65 c p3
184.40 122.73 0.65 c p3
184.68 124.39 0.65 c p3
184.96 122.73 0.65 c p3
185.24 117.07 0.65 c p3
185.52 119.41 0.65 c p3
185.80 121.07 0.65 c p3
186.08 117.07 0.65 c p3
186.36 118.72 0.65 c p3
186.64 117.07 0.65 c p3
186.92 122.73 0.65 c p3
187.20 121.89 0.65 c p3
187.48 116.25 0.65 c p3
187.76 120.24 0.65 c p3
188.04 120.24 0.65 c p3
188.32 121.89 0.65 c p3
188.60 118.72 0.65 c p3
188.88 112.15 0.65 c p3
189.16 119.41 0.65 c p3
189.44 117.07 0.65 c p3
189.72 120.24 0.65 c p3
190.00 116.25 0.65 c p3
190.28 121.89 0.65 c p3
190.56 116.25 0.65 c p3
190.84 119.41 0.65 c p3
191.12 113.78 0.65 c p3
191.40 109.69 0.65 c p3
191.68 114.60 0.65 c p3
191.96 120.24 0.65 c p3
192.24 122.73 0.65 c p3
192.52 115.43 0.65 c p3
192.80 113.78 0.65 c p3
193.08 108.88 0.65 c p3
193.36 121.07 0.65 c p3
193.64 117.90 0.65 c p3
193.92 109.69 0.65 c p3
194.20 109.69 0.65 c p3
194.48 114.60 0.65 c p3
194.76 113.78 0.65 c p3
195.04 118.72 0.65 c p3
195.32 109.69 0.65 c p3
195.60 113.78 0.65 c p3
195.88 112.15 0.65 c p3
196.16 108.88 0.65 c p3
196.44 111.33 0.65 c p3
196.72 112.15 0.65 c p3
197.00 117.90 0.65 c p3
197.28 116.25 0.65 c p3
197.56 102.40 0.65 c p3
197.84 107.25 0.65 c p3
198.12 110.51 0.65 c p3
198.40 116.25 0.65 c p3
198.68 112.15 0.65 c p3
198.96 105.63 0.65 c p3
199.24 113.78 0.65 c p3
199.52 115.43 0.65 c p3
199.80 108.88 0.65 c p3
200.08 108.88 0.65 c p3
200.36 110.51 0.65 c p3
200.64 112.96 0.65 c p3
200.92 109.69 0.65 c p3
201.20 109.69 0.65 c p3
201.48 110.51 0.65 c p3
201.76 110.51 0.65 c p3
202.04 117.07 0.65 c p3
202.32 112.96 0.65 c p3
202.60 106.44 0.65 c p3
202.88 114.60 0.65 c p3
203.16 109.69 0.65 c p3
203.44 112.15 0.65 c p3
203.72 108.07 0.65 c p3
204.00 104.82 0.65 c p3
204.28 107.25 0.65 c p3
204.56 111.33 0.65 c p3
204.84 109.69 0.65 c p3
205.12 107.25 0.65 c p3
205.40 108.07 0.65 c p3
205.68 114.60 0.65 c p3
205.96 108.88 0.65 c p3
206.24 109.69 0.65 c p3
206.52 104.82 0.65 c p3
206.80 104.01 0.65 c p3
207.08 108.07 0.65 c p3
207.36 104.01 0.65 c p3
207.64 102.40 0.65 c p3
207.92 103.20 0.65 c p3
208.20 106.44 0.65 c p3
208.48 107.25 0.65 c p3
208.76 100.78 0.65 c p3
209.04 105.63 0.65 c p3
209.32 106.44 0.65 c p3
209.60 104.82 0.65 c p3
209.88 110.51 0.65 c p3
210.16 105.63 0.65 c p3
210.44 108.07 0.65 c p3
210.72 107.25 0.65 c p3
211.00 103.20 0.65 c p3
211.28 104.01 0.65 c p3
211.56 102.40 0.65 c p3
211.84 108.07 0.65 c p3
212.12 104.82 0.65 c p3
212.40 106.44 0.65 c p3
212.68 104.01 0.65 c p3
212.96 108.07 0.65 c p3
213.24 105.63 0.65 c p3
213.52 99.18 0.65 c p3
213.80 99.18 0.65 c p3
214.08 105.63 0.65 c p3
214.36 104.01 0.65 c p3
214.64 98.37 0.65 c p3
214.92 106.44 0.65 c p3
215.20 104.01 0.65 c p3
215.48 104.82 0.65 c p3
215.76 99.98 0.65 c p3
216.04 99.18 0.65 c p3
216.32 99.98 0.65 c p3
216.60 102.40 0.65 c p3
216.88 101.59 0.65 c p3
217.16 105.63 0.65 c p3
217.44 104.01 0.65 c p3
217.72 104.01 0.65 c p3
218.00 99.18 0.65 c p3
218.28 98.37 0.65 c p3
218.56 99.98 0.65 c p3
218.84 99.18 0.65 c p3
219.12 99.98 0.65 c p3
219.40 101.59 0.65 c p3
219.68 105.63 0.65 c p3
219.96 103.20 0.65 c p3
220.24 95.31 0.65 c p3
220.52 100.78 0.65 c p3
220.80 98.37 0.65 c p3
221.08 99.18 0.65 c p3
221.36 99.18 0.65 c p3
221.64 99.18 0.65 c p3
221.92 96.91 0.65 c p3
222.20 96.10 0.65 c p3
222.48 100.78 0.65 c p3
222.76 98.37 0.65 c p3
223.04 103.20 0.65 c p3
223.32 96.91 0.65 c p3
223.60 100.78 0.65 c p3
223.88 102.40 0.65 c p3
224.16 99.98 0.65 c p3
224.44 100.78 0.65 c p3
224.72 96.91 0.65 c p3
225.00 94.51 0.65 c p3
225.28 89.74 0.65 c p3
225.56 98.37 0.65 c p3
225.84 98.37 0.65 c p3
226.12 99.18 0.65 c p3
226.40 99.98 0.65 c p3
226.68 93.71 0.65 c p3
226.96 95.31 0.65 c p3
227.24 96.91 0.65 c p3
227.52 97.57 0.65 c p3
227.80 96.91 0.65 c p3
228.08 101.59 0.65 c p3
228.36 97.57 0.65 c p3
228.64 98.37 0.65 c p3
228.92 97.57 0.65 c p3
229.20 100.78 0.65 c p3
229.48 96.91 0.65 c p3
229.76 93.71 0.65 c p3
230.04 100.78 0.65 c p3
230.32 99.98 0.65 c p3
230.60 97.57 0.65 c p3
230.88 99.98 0.65 c p3
231.16 94.51 0.65 c p3
231.44 95.31 0.65 c p3
231.72 96.91 0.65 c p3
232.00 94.51 0.65 c p3
232.28 93.71 0.65 c p3
232.56 95.31 0.65 c p3
232.84 94.51 0.65 c p3
233.12 97.57 0.65 c p3
233.40 99.18 0.65 c p3
233.68 97.57 0.65 c p3
233.96 96.91 0.65 c p3
234.24 102.40 0.65 c p3
234.52 98.37 0.65 c p3
234.80 95.31 0.65 c p3
235.08 96.91 0.65 c p3
235.36 94.51 0.65 c p3
235.64 95.31 0.65 c p3
235.92 92.91 0.65 c p3
236.20 94.51 0.65 c p3
236.48 96.10 0.65 c p3
236.76 94.51 0.65 c p3
237.04 92.91 0.65 c p3
237.32 94.51 0.65 c p3
237.60 90.53 0.65 c p3
237.88 92.91 0.65 c p3
238.16 92.91 0.65 c p3
238.44 89.74 0.65 c p3
238.72 91.33 0.65 c p3
239.00 93.71 0.65 c p3
239.28 100.78 0.65 c p3
239.56 96.91 0.65 c p3
239.84 92.12 0.65 c p3
240.12 94.51 0.65 c p3
240.40 95.31 0.65 c p3
240.68 87.37 0.65 c p3
240.96 92.12 0.65 c p3
241.24 97.57 0.65 c p3
241.52 92.91 0.65 c p3
241.80 90.53 0.65 c p3
242.08 93.71 0.65 c p3
242.36 95.31 0.65 c p3
242.64 85.79 0.65 c p3
242.92 93.71 0.65 c p3
243.20 93.71 0.65 c p3
243.48 87.37 0.65 c p3
243.76 96.10 0.65 c p3
244.04 86.58 0.65 c p3
244.32 98.37 0.65 c p3
244.60 92.12 0.65 c p3
244.88 95.31 0.65 c p3
245.16 89.74 0.65 c p3
245.44 88.16 0.65 c p3
245.72 92.91 0.65 c p3
246.00 92.91 0.65 c p3
246.28 97.57 0.65 c p3
246.56 90.53 0.65 c p3
246.84 90.53 0.65 c p3
247.12 92.12 0.65 c p3
247.40 90.53 0.65 c p3
247.68 90.53 0.65 c p3
247.96 88.95 0.65 c p3
248.24 91.33 0.65 c p3
248.52 94.51 0.65 c p3
248.80 89.74 0.65 c p3
249.08 90.53 0.65 c p3
249.36 88.16 0.65 c p3
249.64 91.33 0.65 c p3
249.92 88.16 0.65 c p3
250.20 89.74 0.65 c p3
250.48 92.91 0.65 c p3
250.76 90.53 0.65 c p3
251.04 92.12 0.65 c p3
251.32 88.16 0.65 c p3
251.60 86.58 0.65 c p3
251.88 84.22 0.65 c p3
252.16 93.71 0.65 c p3
252.44 89.74 0.65 c p3
252.72 88.95 0.65 c p3
253.00 93.71 0.65 c p3
253.28 86.58 0.65 c p3
253.56 85.79 0.65 c p3
253.84 87.37 0.65 c p3
254.12 90.53 0.65 c p3
254.40 92.12 0.65 c p3
254.68 85.79 0.65 c p3
254.96 84.22 0.65 c p3
255.24 83.43 0.65 c p3
255.52 89.74 0.65 c p3
255.80 86.58 0.65 c p3
256.08 92.12 0.65 c p3
256.36 85.00 0.65 c p3
256.64 84.22 0.65 c p3
256.92 89.74 0.65 c p3
257.20 88.95 0.65 c p3
257.48 92.12 0.65 c p3
257.76 86.58 0.65 c p3
258.04 90.53 0.65 c p3
258.32 86.58 0.65 c p3
258.60 85.79 0.65 c p3
258.88 87.37 0.65 c p3
259.16 92.12 0.65 c p3
259.44 93.71 0.65 c p3
259.72 91.33 0.65 c p3
260.00 85.00 0.65 c p3
260.28 89.74 0.65 c p3
260.56 85.79 0.65 c p3
260.84 86.58 0.65 c p3
261.12 86.58 0.65 c p3
261.40 92.12 0.65 c p3
261.68 88.95 0.65 c p3
261.96 85.00 0.65 c p3
262.24 88.95 0.65 c p3
262.52 86.58 0.65 c p3
262.80 85.00 0.65 c p3
263.08 88.95 0.65 c p3
263.36 84.22 0.65 c p3
263.64 89.74 0.65 c p3
263.92 88.95 0.65 c p3
264.20 86.58 0.65 c p3
264.48 88.16 0.65 c p3
264.76 89.74 0.65 c p3
265.04 88.16 0.65 c p3
265.32 89.74 0.65 c p3
265.60 85.79 0.65 c p3
265.88 81.87 0.65 c p3
266.16 88.16 0.65 c p3
266.44 87.37 0.65 c p3
266.72 83.43 0.65 c p3
267.00 84.22 0.65 c p3
267.28 84.22 0.65 c p3
267.56 81.08 0.65 c p3
267.84 89.74 0.65 c p3
268.12 80.30 0.65 c p3
268.40 88.16 0.65 c p3
268.68 85.00 0.65 c p3
268.96 82.65 0.65 c p3
269.24 88.16 0.65 c p3
269.52 80.30 0.65 c p3
269.80 85.00 0.65 c p3
270.08 86.58 0.65 c p3
270.36 87.37 0.65 c p3
270.64 86.58 0.65 c p3
270.92 87.37 0.65 c p3
271.20 85.00 0.65 c p3
271.48 87.37 0.65 c p3
271.76 87.37 0.65 c p3
272.04 85.00 0.65 c p3
272.32 83.43 0.65 c p3
272.60 92.91 0.65 c p3
272.88 86.58 0.65 c p3
273.16 85.79 0.65 c p3
273.44 87.37 0.65 c p3
273.72 92.12 0.65 c p3
274.00 86.58 0.65 c p3
274.28 84.22 0.65 c p3
274.56 88.16 0.65 c p3
274.84 87.37 0.65 c p3
275.12 81.08 0.65 c p3
275.40 85.79 0.65 c p3
275.68 89.74 0.65 c p3
275.96 78.74 0.65 c p3
276.24 87.37 0.65 c p3
276.52 82.65 0.65 c p3
276.80 85.00 0.65 c p3
277.08 84.22 0.65 c p3
277.36 82.65 0.65 c p3
277.64 85.79 0.65 c p3
277.92 83.43 0.65 c p3
278.20 82.65 0.65 c p3
278.48 81.08 0.65 c p3
278.76 85.00 0.65 c p3
279.04 84.22 0.65 c p3
279.32 86.58 0.65 c p3
279.60 81.08 0.65 c p3
279.88 87.37 0.65 c p3
280.16 85.00 0.65 c p3
280.44 84.22 0.65 c p3
280.72 87.37 0.65 c p3
281.00 83.43 0.65 c p3
281.28 83.43 0.65 c p3
281.56 80.30 0.65 c p3
281.84 90.53 0.65 c p3
282.12 84.22 0.65 c p3
282.40 80.30 0.65 c p3
282.68 83.43 0.65 c p3
282.96 82.65 0.65 c p3
283.24 84.22 0.65 c p3
283.52 78.74 0.65 c p3
283.80 83.43 0.65 c p3
284.08 83.43 0.65 c p3
284.36 81.08 0.65 c p3
284.64 81.08 0.65 c p3
284.92 78.74 0.65 c p3
285.20 80.30 0.65 c p3
285.48 83.43 0.65 c p3
285.76 78.74 0.65 c p3
286.04 85.00 0.65 c p3
286.32 77.18 0.65 c p3
286.60 85.00 0.65 c p3
286.88 84.22 0.65 c p3
287.16 78.74 0.65 c p3
287.44 83.43 0.65 c p3
287.72 81.08 0.65 c p3
288.00 81.87 0.65 c p3
288.28 79.52 0.65 c p3
288.56 85.00 0.65 c p3
288.84 85.00 0.65 c p3
289.12 83.43 0.65 c p3
289.40 85.79 0.65 c p3
289.68 80.30 0.65 c p3
289.96 81.87 0.65 c p3
290.24 82.65 0.65 c p3
290.52 82.65 0.65 c p3
290.80 81.08 0.65 c p3
291.08 81.87 0.65 c p3
291.36 80.30 0.65 c p3
291.64 85.00 0.65 c p3
291.92 77.96 0.65 c p3
292.20 77.96 0.65 c p3
292.48 85.00 0.65 c p3
292.76 78.74 0.65 c p3
293.04 85.00 0.65 c p3
293.32 80.30 0.65 c p3
293.60 82.65 0.65 c p3
293.88 78.74 0.65 c p3
294.16 79.52 0.65 c p3
294.44 86.58 0.65 c p3
294.72 85.79 0.65 c p3
295.00 77.96 0.65 c p3
295.28 77.18 0.65 c p3
295.56 80.30 0.65 c p3
295.84 78.74 0.65 c p3
296.12 81.08 0.65 c p3
296.40 82.65 0.65 c p3
296.68 81.87 0.65 c p3
296.96 79.52 0.65 c p3
297.24 83.43 0.65 c p3
297.52 81.87 0.65 c p3
297.80 80.30 0.65 c p3
298.08 82.65 0.65 c p3
298.36 81.87 0.65 c p3
298.64 80.30 0.65 c p3
298.92 79.52 0.65 c p3
299.20 78.74 0.65 c p3
299.48 85.00 0.65 c p3
299.76 79.52 0.65 c p3
300.04 80.30 0.65 c p3
300.32 78.74 0.65 c p3
300.60 78.74 0.65 c p3
300.88 84.22 0.65 c p3
301.16 81.08 0.65 c p3
301.44 77.96 0.65 c p3
301.72 80.30 0.65 c p3
302.00 77.18 0.65 c p3
302.28 77.96 0.65 c p3
302.56 78.74 0.65 c p3
302.84 81.87 0.65 c p3
303.12 80.30 0.65 c p3
303.40 79.52 0.65 c p3
303.68 79.52 0.65 c p3
303.96 81.08 0.65 c p3
304.24 77.96 0.65 c p3
304.52 78.74 0.65 c p3
304.80 76.41 0.65 c p3
305.08 77.96 0.65 c p3
305.36 77.96 0.65 c p3
305.64 77.96 0.65 c p3
305.92 84.22 0.65 c p3
306.20 75.76 0.65 c p3
306.48 79.52 0.65 c p3
306.76 78.74 0.65 c p3
307.04 81.08 0.65 c p3
307.32 81.87 0.65 c p3
307.60 76.41 0.65 c p3
307.88 77.96 0.65 c p3
308.16 78.74 0.65 c p3
308.44 76.41 0.65 c p3
308.72 80.30 0.65 c p3
309.00 75.76 0.65 c p3
309.28 77.96 0.65 c p3
309.56 80.30 0.65 c p3
309.84 74.98 0.65 c p3
310.12 79.52 0.65 c p3
310.40 75.76 0.65 c p3
310.68 78.74 0.65 c p3
310.96 81.87 0.65 c p3
311.24 80.30 0.65 c p3
311.52 83.43 0.65 c p3
311.80 74.21 0.65 c p3
312.08 79.52 0.65 c p3
312.36 77.96 0.65 c p3
312.64 78.74 0.65 c p3
312.92 80.30 0.65 c p3
313.20 77.18 0.65 c p3
313.48 84.22 0.65 c p3
313.76 83.43 0.65 c p3
314.04 80.30 0.65 c p3
314.32 81.08 0.65 c p3
314.60 76.41 0.65 c p3
314.88 76.41 0.65 c p3
315.16 82.65 0.65 c p3
315.44 78.74 0.65 c p3
315.72 77.96 0.65 c p3
316.00 77.96 0.65 c p3
316.28 77.96 0.65 c p3
316.56 82.65 0.65 c p3
216.00 201.60 367.20 247.68 cl
0 0 0 srgb
0.75 setlinewidth
[] 0 setdash
1 setlinecap
1 setlinejoin
10.00 setmiterlimit
221.60 235.22 0.43 c p1
221.78 235.10 0.43 c p1
221.96 233.94 0.43 c p1
222.15 228.67 0.43 c p1
222.33 238.86 0.43 c p1
222.51 224.52 0.43 c p1
222.69 229.49 0.43 c p1
222.88 237.41 0.43 c p1
223.06 235.20 0.43 c p1
223.24 224.02 0.43 c p1
223.42 221.88 0.43 c p1
223.61 231.87 0.43 c p1
223.79 234.78 0.43 c p1
223.97 228.52 0.43 c p1
224.15 219.34 0.43 c p1
224.33 222.20 0.43 c p1
224.52 232.11 0.43 c p1
224.70 226.91 0.43 c p1
224.88 213.99 0.43 c p1
225.06 223.59 0.43 c p1
225.25 228.43 0.43 c p1
225.43 223.27 0.43 c p1
225.61 227.09 0.43 c p1
225.79 217.18 0.43 c p1
225.97 221.78 0.43 c p1
226.16 224.58 0.43 c p1
226.34 227.38 0.43 c p1
226.52 223.23 0.43 c p1
226.70 222.23 0.43 c p1
226.89 223.03 0.43 c p1
227.07 220.88 0.43 c p1
227.25 228.41 0.43 c p1
227.43 229.20 0.43 c p1
227.62 225.22 0.43 c p1
227.80 219.15 0.43 c p1
227.98 223.84 0.43 c p1
228.16 226.58 0.43 c p1
228.34 224.41 0.43 c p1
228.53 226.15 0.43 c p1
228.71 223.99 0.43 c p1
228.89 216.03 0.43 c p1
229.07 223.56 0.43 c p1
229.26 228.21 0.43 c p1
229.44 219.25 0.43 c p1
229.62 222.90 0.43 c p1
229.80 221.71 0.43 c p1
229.99 227.29 0.43 c p1
230.17 229.00 0.43 c p1
230.35 219.10 0.43 c p1
230.53 222.71 0.43 c p1
230.71 216.73 0.43 c p1
230.90 227.05 0.43 c p1
231.08 226.81 0.43 c p1
231.26 225.59 0.43 c p1
231.44 222.46 0.43 c p1
231.63 222.22 0.43 c p1
231.81 222.92 0.43 c p1
231.99 228.42 0.43 c p1
232.17 220.51 0.43 c p1
232.36 218.51 0.43 c p1
232.54 225.70 0.43 c p1
232.72 225.43 0.43 c p1
232.90 228.99 0.43 c p1
233.08 214.66 0.43 c p1
233.27 220.04 0.43 c p1
233.45 222.61 0.43 c p1
233.63 225.97 0.43 c p1
233.81 219.23 0.43 c p1
234.00 222.72 0.43 c p1
234.18 218.68 0.43 c p1
234.36 224.98 0.43 c p1
234.54 226.59 0.43 c p1
234.72 226.29 0.43 c p1
234.91 224.11 0.43 c p1
235.09 223.81 0.43 c p1
235.27 221.64 0.43 c p1
235.45 225.10 0.43 c p1
235.64 224.79 0.43 c p1
235.82 226.37 0.43 c p1
236.00 220.44 0.43 c p1
236.18 221.07 0.43 c p1
236.37 224.50 0.43 c p1
236.55 222.32 0.43 c p1
236.73 214.60 0.43 c p1
236.91 221.69 0.43 c p1
237.09 228.84 0.43 c p1
237.28 223.84 0.43 c p1
237.46 221.67 0.43 c p1
237.64 217.65 0.43 c p1
237.82 220.09 0.43 c p1
238.01 224.39 0.43 c p1
238.19 221.29 0.43 c p1
238.37 220.96 0.43 c p1
238.55 220.62 0.43 c p1
238.74 222.13 0.43 c p1
238.92 229.20 0.43 c p1
239.10 218.71 0.43 c p1
239.28 215.78 0.43 c p1
239.46 224.45 0.43 c p1
239.65 219.67 0.43 c p1
239.83 228.36 0.43 c p1
240.01 224.32 0.43 c p1
240.19 217.72 0.43 c p1
240.38 223.61 0.43 c p1
240.56 226.92 0.43 c p1
240.74 225.64 0.43 c p1
240.92 221.77 0.43 c p1
241.11 219.59 0.43 c p1
241.29 226.38 0.43 c p1
241.47 230.60 0.43 c p1
241.65 221.23 0.43 c p1
241.83 219.96 0.43 c p1
242.02 225.95 0.43 c p1
242.20 227.40 0.43 c p1
242.38 222.47 0.43 c p1
242.56 228.46 0.43 c p1
242.75 219.91 0.43 c p1
242.93 222.24 0.43 c p1
243.11 220.95 0.43 c p1
243.29 227.82 0.43 c p1
243.47 222.89 0.43 c p1
243.66 218.91 0.43 c p1
243.84 223.92 0.43 c p1
244.02 222.63 0.43 c p1
244.20 224.03 0.43 c p1
244.39 223.64 0.43 c p1
244.57 226.85 0.43 c p1
244.75 221.94 0.43 c p1
244.93 228.75 0.43 c p1
245.12 225.63 0.43 c p1
245.30 220.74 0.43 c p1
245.48 223.92 0.43 c p1
245.66 230.72 0.43 c p1
245.84 225.79 0.43 c p1
246.03 218.23 0.43 c p1
246.21 218.71 0.43 c p1
246.39 229.94 0.43 c p1
246.57 230.41 0.43 c p1
246.76 221.92 0.43 c p1
246.94 217.96 0.43 c p1
247.12 226.44 0.43 c p1
247.30 229.59 0.43 c p1
247.49 228.27 0.43 c p1
247.67 217.32 0.43 c p1
247.85 221.17 0.43 c p1
248.03 225.18 0.43 c p1
248.21 228.32 0.43 c p1
248.40 220.77 0.43 c p1
248.58 224.76 0.43 c p1
248.76 226.10 0.43 c p1
248.94 226.55 0.43 c p1
249.13 221.83 0.43 c p1
249.31 223.01 0.43 c p1
249.49 220.07 0.43 c p1
249.67 223.89 0.43 c p1
249.86 228.76 0.43 c p1
250.04 221.38 0.43 c p1
250.22 221.81 0.43 c p1
250.40 224.89 0.43 c p1
250.58 221.79 0.43 c p1
250.77 220.47 0.43 c p1
250.95 226.90 0.43 c p1
251.13 223.07 0.43 c p1
251.31 227.75 0.43 c p1
251.50 226.55 0.43 c p1
251.68 221.69 0.43 c p1
251.86 227.38 0.43 c p1
252.04 224.27 0.43 c p1
252.22 223.81 0.43 c p1
252.41 224.21 0.43 c p1
252.59 219.38 0.43 c p1
252.77 220.66 0.43 c p1
252.95 230.70 0.43 c p1
253.14 220.59 0.43 c p1
253.32 220.99 0.43 c p1
253.50 225.75 0.43 c p1
253.68 228.77 0.43 c p1
253.87 224.79 0.43 c p1
254.05 225.18 0.43 c p1
254.23 225.57 0.43 c p1
254.41 225.08 0.43 c p1
254.59 229.84 0.43 c p1
254.78 224.11 0.43 c p1
254.96 215.00 0.43 c p1
255.14 228.36 0.43 c p1
255.32 228.74 0.43 c p1
255.51 224.76 0.43 c p1
255.69 226.00 0.43 c p1
255.87 222.91 0.43 c p1
256.05 225.88 0.43 c p1
256.24 216.76 0.43 c p1
256.42 222.29 0.43 c p1
256.60 220.93 0.43 c p1
256.78 225.61 0.43 c p1
256.96 219.93 0.43 c p1
257.15 225.47 0.43 c p1
257.33 225.83 0.43 c p1
257.51 224.45 0.43 c p1
257.69 230.01 0.43 c p1
257.88 220.01 0.43 c p1
258.06 223.79 0.43 c p1
258.24 223.28 0.43 c p1
258.42 227.94 0.43 c p1
258.61 224.84 0.43 c p1
258.79 220.89 0.43 c p1
258.97 222.95 0.43 c p1
259.15 224.15 0.43 c p1
259.33 225.35 0.43 c p1
259.52 222.26 0.43 c p1
259.70 223.45 0.43 c p1
259.88 217.96 0.43 c p1
260.06 227.55 0.43 c p1
260.25 227.88 0.43 c p1
260.43 224.78 0.43 c p1
260.61 227.68 0.43 c p1
260.79 226.29 0.43 c p1
260.97 230.06 0.43 c p1
261.16 221.11 0.43 c p1
261.34 223.98 0.43 c p1
261.52 232.75 0.43 c p1
261.70 229.62 0.43 c p1
261.89 225.66 0.43 c p1
262.07 223.56 0.43 c p1
262.25 223.02 0.43 c p1
262.43 225.89 0.43 c p1
262.62 227.77 0.43 c p1
262.80 226.51 0.43 c p1
262.98 225.97 0.43 c p1
263.16 219.49 0.43 c p1
263.34 230.71 0.43 c p1
263.53 220.95 0.43 c p1
263.71 222.09 0.43 c p1
263.89 225.79 0.43 c p1
264.07 231.06 0.43 c p1
264.26 226.39 0.43 c p1
264.44 221.60 0.43 c p1
264.62 224.43 0.43 c p1
264.80 227.27 0.43 c p1
264.99 227.57 0.43 c p1
265.17 226.16 0.43 c p1
265.35 222.22 0.43 c p1
265.53 221.67 0.43 c p1
265.71 225.33 0.43 c p1
265.90 223.93 0.43 c p1
266.08 223.37 0.43 c p1
266.26 224.49 0.43 c p1
266.44 228.16 0.43 c p1
266.63 224.21 0.43 c p1
266.81 225.33 0.43 c p1
266.99 220.57 0.43 c p1
267.17 220.84 0.43 c p1
267.36 227.85 0.43 c p1
267.54 225.59 0.43 c p1
267.72 228.40 0.43 c p1
267.90 219.43 0.43 c p1
268.08 225.57 0.43 c p1
268.27 225.83 0.43 c p1
268.45 221.91 0.43 c p1
268.63 228.05 0.43 c p1
268.81 230.85 0.43 c p1
269.00 228.58 0.43 c p1
269.18 228.00 0.43 c p1
269.36 225.74 0.43 c p1
269.54 221.81 0.43 c p1
269.72 228.78 0.43 c p1
269.91 225.67 0.43 c p1
270.09 218.42 0.43 c p1
270.27 219.51 0.43 c p1
270.45 220.59 0.43 c p1
270.64 225.01 0.43 c p1
270.82 231.99 0.43 c p1
271.00 219.68 0.43 c p1
271.18 218.28 0.43 c p1
271.37 226.85 0.43 c p1
271.55 225.42 0.43 c p1
271.73 225.67 0.43 c p1
271.91 224.24 0.43 c p1
272.09 224.48 0.43 c p1
272.28 229.75 0.43 c p1
272.46 229.15 0.43 c p1
272.64 227.71 0.43 c p1
272.82 222.12 0.43 c p1
273.01 223.18 0.43 c p1
273.19 226.75 0.43 c p1
273.37 226.15 0.43 c p1
273.55 225.55 0.43 c p1
273.74 220.81 0.43 c p1
273.92 226.01 0.43 c p1
274.10 229.58 0.43 c p1
274.28 228.98 0.43 c p1
274.46 221.03 0.43 c p1
274.65 220.44 0.43 c p1
274.83 226.32 0.43 c p1
275.01 229.04 0.43 c p1
275.19 222.63 0.43 c p1
275.38 222.85 0.43 c p1
275.56 226.38 0.43 c p1
275.74 228.27 0.43 c p1
275.92 226.82 0.43 c p1
276.11 221.39 0.43 c p1
276.29 223.94 0.43 c p1
276.47 225.81 0.43 c p1
276.65 222.04 0.43 c p1
276.83 223.90 0.43 c p1
277.02 222.46 0.43 c p1
277.20 228.33 0.43 c p1
277.38 227.71 0.43 c p1
277.56 222.27 0.43 c p1
277.75 226.47 0.43 c p1
277.93 226.68 0.43 c p1
278.11 228.54 0.43 c p1
278.29 225.58 0.43 c p1
278.47 219.21 0.43 c p1
278.66 226.67 0.43 c p1
278.84 224.54 0.43 c p1
279.02 227.91 0.43 c p1
279.20 224.12 0.43 c p1
279.39 229.96 0.43 c p1
279.57 224.52 0.43 c p1
279.75 227.88 0.43 c p1
279.93 222.45 0.43 c p1
280.12 218.56 0.43 c p1
280.30 223.66 0.43 c p1
280.48 229.49 0.43 c p1
280.66 232.17 0.43 c p1
280.84 225.06 0.43 c p1
281.03 223.61 0.43 c p1
281.21 218.90 0.43 c p1
281.39 231.27 0.43 c p1
281.57 228.29 0.43 c p1
281.76 220.28 0.43 c p1
281.94 220.47 0.43 c p1
282.12 225.56 0.43 c p1
282.30 224.93 0.43 c p1
282.49 230.05 0.43 c p1
282.67 221.21 0.43 c p1
282.85 225.48 0.43 c p1
283.03 224.02 0.43 c p1
283.21 220.94 0.43 c p1
283.40 223.57 0.43 c p1
283.58 224.56 0.43 c p1
283.76 230.49 0.43 c p1
283.94 229.02 0.43 c p1
284.13 215.35 0.43 c p1
284.31 220.38 0.43 c p1
284.49 223.81 0.43 c p1
284.67 229.72 0.43 c p1
284.86 225.79 0.43 c p1
285.04 219.45 0.43 c p1
285.22 227.77 0.43 c p1
285.40 229.59 0.43 c p1
285.58 223.21 0.43 c p1
285.77 223.38 0.43 c p1
285.95 225.18 0.43 c p1
286.13 227.80 0.43 c p1
286.31 224.70 0.43 c p1
286.50 224.87 0.43 c p1
286.68 225.85 0.43 c p1
286.86 226.01 0.43 c p1
287.04 232.73 0.43 c p1
287.22 228.79 0.43 c p1
287.41 222.43 0.43 c p1
287.59 230.75 0.43 c p1
287.77 226.00 0.43 c p1
287.95 228.61 0.43 c p1
288.14 224.69 0.43 c p1
288.32 221.61 0.43 c p1
288.50 224.20 0.43 c p1
288.68 228.42 0.43 c p1
288.87 226.95 0.43 c p1
289.05 224.66 0.43 c p1
289.23 225.63 0.43 c p1
289.41 232.32 0.43 c p1
289.59 226.75 0.43 c p1
289.78 227.72 0.43 c p1
289.96 223.00 0.43 c p1
290.14 222.34 0.43 c p1
290.32 226.54 0.43 c p1
290.51 222.64 0.43 c p1
290.69 221.17 0.43 c p1
290.87 222.12 0.43 c p1
291.05 225.51 0.43 c p1
291.24 226.47 0.43 c p1
291.42 220.15 0.43 c p1
291.60 225.14 0.43 c p1
291.78 226.09 0.43 c p1
291.96 224.61 0.43 c p1
292.15 230.44 0.43 c p1
292.33 225.71 0.43 c p1
292.51 228.28 0.43 c p1
292.69 227.61 0.43 c p1
292.88 223.70 0.43 c p1
293.06 224.65 0.43 c p1
293.24 223.17 0.43 c p1
293.42 228.98 0.43 c p1
293.61 225.87 0.43 c p1
293.79 227.63 0.43 c p1
293.97 225.34 0.43 c p1
294.15 229.53 0.43 c p1
294.33 227.23 0.43 c p1
294.52 220.91 0.43 c p1
294.70 221.04 0.43 c p1
294.88 227.63 0.43 c p1
295.06 226.14 0.43 c p1
295.25 220.64 0.43 c p1
295.43 228.83 0.43 c p1
295.61 226.53 0.43 c p1
295.79 227.47 0.43 c p1
295.97 222.76 0.43 c p1
296.16 222.09 0.43 c p1
296.34 223.02 0.43 c p1
296.52 225.56 0.43 c p1
296.70 224.88 0.43 c p1
296.89 229.05 0.43 c p1
297.07 227.55 0.43 c p1
297.25 227.68 0.43 c p1
297.43 222.97 0.43 c p1
297.62 222.29 0.43 c p1
297.80 224.02 0.43 c p1
297.98 223.34 0.43 c p1
298.16 224.26 0.43 c p1
298.34 225.99 0.43 c p1
298.53 230.15 0.43 c p1
298.71 227.85 0.43 c p1
298.89 220.07 0.43 c p1
299.07 225.67 0.43 c p1
299.26 223.38 0.43 c p1
299.44 224.30 0.43 c p1
299.62 224.41 0.43 c p1
299.80 224.53 0.43 c p1
299.99 222.38 0.43 c p1
300.17 221.69 0.43 c p1
300.35 226.48 0.43 c p1
300.53 224.19 0.43 c p1
300.71 229.13 0.43 c p1
300.90 222.95 0.43 c p1
301.08 226.94 0.43 c p1
301.26 228.66 0.43 c p1
301.44 226.36 0.43 c p1
301.63 227.27 0.43 c p1
301.81 223.51 0.43 c p1
301.99 221.22 0.43 c p1
302.17 216.57 0.43 c p1
302.36 225.30 0.43 c p1
302.54 225.41 0.43 c p1
302.72 226.32 0.43 c p1
302.90 227.23 0.43 c p1
303.08 221.07 0.43 c p1
303.27 222.77 0.43 c p1
303.45 224.48 0.43 c p1
303.63 225.25 0.43 c p1
303.81 224.69 0.43 c p1
304.00 229.48 0.43 c p1
304.18 225.56 0.43 c p1
304.36 226.47 0.43 c p1
304.54 225.77 0.43 c p1
304.72 229.08 0.43 c p1
304.91 225.31 0.43 c p1
305.09 222.22 0.43 c p1
305.27 229.39 0.43 c p1
305.45 228.68 0.43 c p1
305.64 226.38 0.43 c p1
305.82 228.88 0.43 c p1
306.00 223.51 0.43 c p1
306.18 224.41 0.43 c p1
306.37 226.11 0.43 c p1
306.55 223.81 0.43 c p1
306.73 223.11 0.43 c p1
306.91 224.80 0.43 c p1
307.09 224.10 0.43 c p1
307.28 227.26 0.43 c p1
307.46 228.95 0.43 c p1
307.64 227.45 0.43 c p1
307.82 226.87 0.43 c p1
308.01 232.45 0.43 c p1
308.19 228.53 0.43 c p1
308.37 225.55 0.43 c p1
308.55 227.25 0.43 c p1
308.74 224.94 0.43 c p1
308.92 225.83 0.43 c p1
309.10 223.53 0.43 c p1
309.28 225.22 0.43 c p1
309.46 226.90 0.43 c p1
309.65 225.40 0.43 c p1
309.83 223.89 0.43 c p1
310.01 225.57 0.43 c p1
310.19 221.69 0.43 c p1
310.38 224.16 0.43 c p1
310.56 224.25 0.43 c p1
310.74 221.16 0.43 c p1
310.92 222.83 0.43 c p1
311.11 225.30 0.43 c p1
311.29 232.46 0.43 c p1
311.47 228.67 0.43 c p1
311.65 223.97 0.43 c p1
311.83 226.44 0.43 c p1
312.02 227.32 0.43 c p1
312.20 219.47 0.43 c p1
312.38 224.31 0.43 c p1
312.56 229.84 0.43 c p1
312.75 225.27 0.43 c p1
312.93 222.97 0.43 c p1
313.11 226.23 0.43 c p1
313.29 227.90 0.43 c p1
313.47 218.47 0.43 c p1
313.66 226.47 0.43 c p1
313.84 226.55 0.43 c p1
314.02 220.29 0.43 c p1
314.20 229.10 0.43 c p1
314.39 219.66 0.43 c p1
314.57 231.53 0.43 c p1
314.75 225.36 0.43 c p1
314.93 228.62 0.43 c p1
315.12 223.13 0.43 c p1
315.30 221.63 0.43 c p1
315.48 226.46 0.43 c p1
315.66 226.54 0.43 c p1
315.84 231.27 0.43 c p1
316.03 224.31 0.43 c p1
316.21 224.39 0.43 c p1
316.39 226.05 0.43 c p1
316.57 224.54 0.43 c p1
316.76 224.61 0.43 c p1
316.94 223.10 0.43 c p1
317.12 225.55 0.43 c p1
317.30 228.81 0.43 c p1
317.49 224.11 0.43 c p1
317.67 224.98 0.43 c p1
317.85 222.68 0.43 c p1
318.03 225.91 0.43 c p1
318.21 222.82 0.43 c p1
318.40 224.47 0.43 c p1
318.58 227.72 0.43 c p1
318.76 225.41 0.43 c p1
318.94 227.06 0.43 c p1
319.13 223.17 0.43 c p1
319.31 221.66 0.43 c p1
319.49 219.37 0.43 c p1
319.67 228.93 0.43 c p1
319.86 225.03 0.43 c p1
320.04 224.31 0.43 c p1
320.22 229.14 0.43 c p1
320.40 222.08 0.43 c p1
320.58 221.35 0.43 c p1
320.77 223.00 0.43 c p1
320.95 226.23 0.43 c p1
321.13 227.88 0.43 c p1
321.31 221.62 0.43 c p1
321.50 220.11 0.43 c p1
321.68 219.39 0.43 c p1
321.86 225.76 0.43 c p1
322.04 222.67 0.43 c p1
322.22 228.27 0.43 c p1
322.41 221.22 0.43 c p1
322.59 220.50 0.43 c p1
322.77 226.09 0.43 c p1
322.95 225.36 0.43 c p1
323.14 228.59 0.43 c p1
323.32 223.11 0.43 c p1
323.50 227.13 0.43 c p1
323.68 223.24 0.43 c p1
323.87 222.51 0.43 c p1
324.05 224.15 0.43 c p1
324.23 228.96 0.43 c p1
324.41 230.61 0.43 c p1
324.59 228.29 0.43 c p1
324.78 222.03 0.43 c p1
324.96 226.82 0.43 c p1
325.14 222.94 0.43 c p1
325.32 223.78 0.43 c p1
325.51 223.84 0.43 c p1
325.69 229.44 0.43 c p1
325.87 226.33 0.43 c p1
326.05 222.44 0.43 c p1
326.24 226.44 0.43 c p1
326.42 224.13 0.43 c p1
326.60 222.62 0.43 c p1
326.78 226.62 0.43 c p1
326.96 221.94 0.43 c p1
327.15 227.52 0.43 c p1
327.33 226.78 0.43 c p1
327.51 224.47 0.43 c p1
327.69 226.11 0.43 c p1
327.88 227.74 0.43 c p1
328.06 226.22 0.43 c p1
328.24 227.86 0.43 c p1
328.42 223.96 0.43 c p1
328.61 220.09 0.43 c p1
328.79 226.44 0.43 c p1
328.97 225.70 0.43 c p1
329.15 221.82 0.43 c p1
329.33 222.66 0.43 c p1
329.52 222.71 0.43 c p1
329.70 219.63 0.43 c p1
329.88 228.34 0.43 c p1
330.06 218.96 0.43 c p1
330.25 226.86 0.43 c p1
330.43 223.76 0.43 c p1
330.61 221.46 0.43 c p1
330.79 227.01 0.43 c p1
330.97 219.21 0.43 c p1
331.16 223.96 0.43 c p1
331.34 225.59 0.43 c p1
331.52 226.43 0.43 c p1
331.70 225.69 0.43 c p1
331.89 226.53 0.43 c p1
332.07 224.22 0.43 c p1
332.25 226.63 0.43 c p1
332.43 226.68 0.43 c p1
332.62 224.36 0.43 c p1
332.80 222.84 0.43 c p1
332.98 232.37 0.43 c p1
333.16 226.08 0.43 c p1
333.34 225.34 0.43 c p1
333.53 226.97 0.43 c p1
333.71 231.76 0.43 c p1
333.89 226.27 0.43 c p1
334.07 223.96 0.43 c p1
334.26 227.95 0.43 c p1
334.44 227.20 0.43 c p1
334.62 220.97 0.43 c p1
334.80 225.72 0.43 c p1
334.99 229.71 0.43 c p1
335.17 218.76 0.43 c p1
335.35 227.43 0.43 c p1
335.53 222.76 0.43 c p1
335.71 225.16 0.43 c p1
335.90 224.42 0.43 c p1
336.08 222.90 0.43 c p1
336.26 226.08 0.43 c p1
336.44 223.77 0.43 c p1
336.63 223.03 0.43 c p1
336.81 221.51 0.43 c p1
336.99 225.47 0.43 c p1
337.17 224.73 0.43 c p1
337.36 227.13 0.43 c p1
337.54 221.68 0.43 c p1
337.72 228.01 0.43 c p1
337.90 225.69 0.43 c p1
338.08 224.94 0.43 c p1
338.27 228.13 0.43 c p1
338.45 224.24 0.43 c p1
338.63 224.28 0.43 c p1
338.81 221.19 0.43 c p1
339.00 231.46 0.43 c p1
339.18 225.19 0.43 c p1
339.36 221.32 0.43 c p1
339.54 224.49 0.43 c p1
339.72 223.75 0.43 c p1
339.91 225.35 0.43 c p1
340.09 219.92 0.43 c p1
340.27 224.65 0.43 c p1
340.45 224.69 0.43 c p1
340.64 222.38 0.43 c p1
340.82 222.42 0.43 c p1
341.00 220.12 0.43 c p1
341.18 221.72 0.43 c p1
341.37 224.89 0.43 c p1
341.55 220.23 0.43 c p1
341.73 226.53 0.43 c p1
341.91 218.75 0.43 c p1
342.09 226.61 0.43 c p1
342.28 225.86 0.43 c p1
342.46 220.42 0.43 c p1
342.64 225.15 0.43 c p1
342.82 222.84 0.43 c p1
343.01 223.66 0.43 c p1
343.19 221.35 0.43 c p1
343.37 226.87 0.43 c p1
343.55 226.91 0.43 c p1
343.74 225.37 0.43 c p1
343.92 227.77 0.43 c p1
344.10 222.32 0.43 c p1
344.28 223.92 0.43 c p1
344.46 224.74 0.43 c p1
344.65 224.77 0.43 c p1
344.83 223.24 0.43 c p1
345.01 224.06 0.43 c p1
345.19 222.53 0.43 c p1
345.38 227.27 0.43 c p1
345.56 220.26 0.43 c p1
345.74 220.30 0.43 c p1
345.92 227.37 0.43 c p1
346.11 221.14 0.43 c p1
346.29 227.44 0.43 c p1
346.47 222.77 0.43 c p1
346.65 225.15 0.43 c p1
346.83 221.28 0.43 c p1
347.02 222.09 0.43 c p1
347.20 229.18 0.43 c p1
347.38 228.42 0.43 c p1
347.56 220.63 0.43 c p1
347.75 219.89 0.43 c p1
347.93 223.04 0.43 c p1
348.11 221.51 0.43 c p1
348.29 223.88 0.43 c p1
348.48 225.48 0.43 c p1
348.66 224.73 0.43 c p1
348.84 222.42 0.43 c p1
349.02 226.36 0.43 c p1
349.20 224.82 0.43 c p1
349.39 223.29 0.43 c p1
349.57 225.67 0.43 c p1
349.75 224.92 0.43 c p1
349.93 223.39 0.43 c p1
350.12 222.64 0.43 c p1
350.30 221.89 0.43 c p1
350.48 228.18 0.43 c p1
350.66 222.73 0.43 c p1
350.84 223.54 0.43 c p1
351.03 222.01 0.43 c p1
351.21 222.04 0.43 c p1
351.39 227.54 0.43 c p1
351.57 224.44 0.43 c p1
351.76 221.35 0.43 c p1
351.94 223.72 0.43 c p1
352.12 220.63 0.43 c p1
352.30 221.44 0.43 c p1
352.49 222.24 0.43 c p1
352.67 225.40 0.43 c p1
352.85 223.86 0.43 c p1
353.03 223.11 0.43 c p1
353.21 223.14 0.43 c p1
353.40 224.73 0.43 c p1
353.58 221.64 0.43 c p1
353.76 222.44 0.43 c p1
353.94 220.14 0.43 c p1
354.13 221.72 0.43 c p1
354.31 221.75 0.43 c p1
354.49 221.77 0.43 c p1
354.67 228.06 0.43 c p1
354.86 219.63 0.43 c p1
355.04 223.42 0.43 c p1
355.22 222.66 0.43 c p1
355.40 225.03 0.43 c p1
355.58 225.84 0.43 c p1
355.77 220.41 0.43 c p1
355.95 221.99 0.43 c p1
356.13 222.79 0.43 c p1
356.31 220.49 0.43 c p1
356.50 224.41 0.43 c p1
356.68 219.89 0.43 c p1
356.86 222.12 0.43 c p1
357.04 224.48 0.43 c p1
357.22 219.19 0.43 c p1
357.41 223.76 0.43 c p1
357.59 220.02 0.43 c p1
357.77 223.02 0.43 c p1
357.95 226.17 0.43 c p1
358.14 224.64 0.43 c p1
358.32 227.79 0.43 c p1
358.50 218.60 0.43 c p1
358.68 223.93 0.43 c p1
358.87 222.39 0.43 c p1
359.05 223.20 0.43 c p1
359.23 224.78 0.43 c p1
359.41 221.69 0.43 c p1
359.59 228.75 0.43 c p1
359.78 227.99 0.43 c p1
359.96 224.88 0.43 c p1
360.14 225.68 0.43 c p1
360.32 221.03 0.43 c p1
360.51 221.06 0.43 c p1
360.69 227.32 0.43 c p1
360.87 223.43 0.43 c p1
361.05 222.68 0.43 c p1
361.24 222.70 0.43 c p1
361.42 222.73 0.43 c p1
361.60 227.43 0.43 c p1
0.00 0.00 432.00 576.00 cl
0 0 0 srgb
0.75 setlinewidth
[] 0 setdash
1 setlinecap
1 setlinejoin
10.00 setmiterlimit
np
219.05 201.60 m
145.83 0 l
o
np
219.05 201.60 m
0 -5.76 l
o
np
255.51 201.60 m
0 -5.76 l
o
np
291.96 201.60 m
0 -5.76 l
o
np
328.42 201.60 m
0 -5.76 l
o
np
364.88 201.60 m
0 -5.76 l
o
/Font1 findfont 6 s
219.05 185.47 (0) .5 0 t
255.51 185.47 (500) .5 0 t
291.96 185.47 (1000) .5 0 t
328.42 185.47 (1500) .5 0 t
364.88 185.47 (2000) .5 0 t
np
216.00 208.84 m
0 31.60 l
o
np
216.00 208.84 m
-5.76 0 l
o
np
216.00 216.74 m
-5.76 0 l
o
np
216.00 224.64 m
-5.76 0 l
o
np
216.00 232.54 m
-5.76 0 l
o
np
216.00 240.44 m
-5.76 0 l
o
209.09 206.69 (-0.010) 1 0 t
209.09 214.59 (-0.005) 1 0 t
209.09 222.49 (0.000) 1 0 t
209.09 230.38 (0.005) 1 0 t
209.09 238.28 (0.010) 1 0 t
np
216.00 201.60 m
151.20 0 l
0 46.08 l
-151.20 0 l
0 -46.08 l
o
0.00 0.00 432.00 576.00 cl
/Font1 findfont 9 s
0 0 0 srgb
291.60 262.88 (Residuals) .5 0 t
59.04 73.44 401.76 516.96 cl
ep
%%Trailer
%%Pages: 1
%%EOF
