%!PS-Adobe-3.0 EPSF-3.0
%%DocumentNeededResources: font Helvetica
%%+ font Helvetica-Bold
%%+ font Helvetica-Oblique
%%+ font Helvetica-BoldOblique
%%+ font Symbol
%%Title: R Graphics Output
%%Creator: R Software
%%Pages: (atend)
%%BoundingBox: 0 0 432 576
%%EndComments
%%BeginProlog
/bp  { gs sRGB gs } def
% begin .ps.prolog
/gs  { gsave } bind def
/gr  { grestore } bind def
/ep  { showpage gr gr } bind def
/m   { moveto } bind def
/l  { rlineto } bind def
/np  { newpath } bind def
/cp  { closepath } bind def
/f   { fill } bind def
/o   { stroke } bind def
/c   { newpath 0 360 arc } bind def
/r   { 4 2 roll moveto 1 copy 3 -1 roll exch 0 exch rlineto 0 rlineto -1 mul 0 exch rlineto closepath } bind def
/p1  { stroke } bind def
/p2  { gsave bg fill grestore newpath } bind def
/p3  { gsave bg fill grestore stroke } bind def
/p6  { gsave bg eofill grestore newpath } bind def
/p7  { gsave bg eofill grestore stroke } bind def
/t   { 5 -2 roll moveto gsave rotate
       1 index stringwidth pop
       mul neg 0 rmoveto show grestore } bind def
/ta  { 4 -2 roll moveto gsave rotate show } bind def
/tb  { 2 -1 roll 0 rmoveto show } bind def
/cl  { grestore gsave newpath 3 index 3 index moveto 1 index
       4 -1 roll lineto  exch 1 index lineto lineto
       closepath clip newpath } bind def
/rgb { setrgbcolor } bind def
/s   { scalefont setfont } bind def
% end   .ps.prolog
/sRGB { [ /CIEBasedABC
          << /DecodeLMN
               [ { dup 0.03928 le
                        {12.92321 div}
                        {0.055 add 1.055 div 2.4 exp }
                     ifelse
                 } bind dup dup
               ]
             /MatrixLMN [0.412457 0.212673 0.019334
                         0.357576 0.715152 0.119192
                         0.180437 0.072175 0.950301]
             /WhitePoint [0.9505 1.0 1.0890]
           >>
         ] setcolorspace } bind def
/srgb { setcolor } bind def
% begin encoding
/WinAnsiEncoding [
 /.notdef /.notdef /.notdef /.notdef /.notdef /.notdef /.notdef /.notdef
 /.notdef /.notdef /.notdef /.notdef /.notdef /.notdef /.notdef /.notdef
 /.notdef /.notdef /.notdef /.notdef /.notdef /.notdef /.notdef /.notdef
 /.notdef /.notdef /.notdef /.notdef /.notdef /.notdef /.notdef /.notdef
 /space /exclam /quotedbl /numbersign /dollar /percent /ampersand /quoteright
 /parenleft /parenright /asterisk /plus /comma /minus /period /slash
 /zero /one /two /three /four /five /six /seven
 /eight /nine /colon /semicolon /less /equal /greater /question
 /at /A /B /C /D /E /F /G
 /H /I /J /K /L /M /N /O
 /P /Q /R /S /T /U /V /W
 /X /Y /Z /bracketleft /backslash /bracketright /asciicircum /underscore
 /grave /a /b /c /d /e /f /g
 /h /i /j /k /l /m /n /o
 /p /q /r /s /t /u /v /w
 /x /y /z /braceleft /bar /braceright /asciitilde /.notdef
 /Euro /.notdef /quotesinglbase /florin /quotedblbase /ellipsis /dagger /daggerdbl
 /circumflex /perthousand /Scaron /guilsinglleft /OE /.notdef /Zcaron /.notdef
 /.notdef /quoteleft /quoteright /quotedblleft /quotedblright /bullet /endash /emdash
 /tilde /trademark /scaron /guilsinglright /oe /.notdef /zcaron /Ydieresis
 /space /exclamdown /cent /sterling /currency /yen /brokenbar /section
 /dieresis /copyright /ordfeminine /guillemotleft /logicalnot /hyphen /registered /macron
 /degree /plusminus /twosuperior /threesuperior /acute /mu /paragraph /periodcentered
 /cedilla /onesuperior /ordmasculine /guillemotright /onequarter /onehalf /threequarters /questiondown
 /Agrave /Aacute /Acircumflex /Atilde /Adieresis /Aring /AE /Ccedilla
 /Egrave /Eacute /Ecircumflex /Edieresis /Igrave /Iacute /Icircumflex /Idieresis
 /Eth /Ntilde /Ograve /Oacute /Ocircumflex /Otilde /Odieresis /multiply
 /Oslash /Ugrave /Uacute /Ucircumflex /Udieresis /Yacute /Thorn /germandbls
 /agrave /aacute /acircumflex /atilde /adieresis /aring /ae /ccedilla
 /egrave /eacute /ecircumflex /edieresis /igrave /iacute /icircumflex /idieresis
 /eth /ntilde /ograve /oacute /ocircumflex /otilde /odieresis /divide
 /oslash /ugrave /uacute /ucircumflex /udieresis /yacute /thorn /ydieresis
]
 def
% end encoding
%%IncludeResource: font Helvetica
/Helvetica findfont
dup length dict begin
  {1 index /FID ne {def} {pop pop} ifelse} forall
  /Encoding WinAnsiEncoding def
  currentdict
  end
/Font1 exch definefont pop
%%IncludeResource: font Helvetica-Bold
/Helvetica-Bold findfont
dup length dict begin
  {1 index /FID ne {def} {pop pop} ifelse} forall
  /Encoding WinAnsiEncoding def
  currentdict
  end
/Font2 exch definefont pop
%%IncludeResource: font Helvetica-Oblique
/Helvetica-Oblique findfont
dup length dict begin
  {1 index /FID ne {def} {pop pop} ifelse} forall
  /Encoding WinAnsiEncoding def
  currentdict
  end
/Font3 exch definefont pop
%%IncludeResource: font Helvetica-BoldOblique
/Helvetica-BoldOblique findfont
dup length dict begin
  {1 index /FID ne {def} {pop pop} ifelse} forall
  /Encoding WinAnsiEncoding def
  currentdict
  end
/Font4 exch definefont pop
%%IncludeResource: font Symbol
/Symbol findfont
dup length dict begin
  {1 index /FID ne {def} {pop pop} ifelse} forall
  currentdict
  end
/Font5 exch definefont pop
%%EndProlog
%%Page: 1 1
bp
/bg { 1 1 1 srgb } def
0.00 0.00 432.00 576.00 r p2
0.00 0.00 432.00 576.00 cl
0.00 0.00 432.00 576.00 cl
0.00 0.00 432.00 576.00 cl
/Font1 findfont 12 s
0 0 0 srgb
48.00 508.72 (PCP-ETH) 0 0 t
48.00 494.89 (Flash light photolysis) 0 0 t
/Font1 findfont 9 s
48.00 457.54 (File: T) 0 ta
-1.080 (emper) tb
-0.090 (ature_dependence_1_MSLM.dat) tb gr
48.00 334.87 (T) 0 ta
-1.080 (ue Mar 08 17:12:00 2022) tb gr
48.00 430.87 (Fit function:  a + b * e) 0 ta
-0.270 (xp\(-c * t\)) tb gr
48.00 420.50 (t-Inter) 0 ta
0.270 (v) tb
-0.225 (all: 15.000 ... 2062.500 ms) tb gr
48.00 410.14 (P) 0 ta
-0.360 (ar) tb
-0.090 (ameters \(Standard de) tb
-0.270 (viation\):) tb gr
48.00 399.77 (  a = 0.01048 \(0.00027\)) 0 0 t
48.00 389.40 (  b = 0.13147 \(0.00034\)) 0 0 t
48.00 379.03 (  c = 1.649e+00 \(1.230e-02\) s^-1) 0 0 t
48.00 368.66 (  tau = 6.066e-01 \(4.526e-03\) s) 0 0 t
216.00 345.60 388.80 518.40 cl
0 0 0 srgb
0.75 setlinewidth
[] 0 setdash
1 setlinecap
1 setlinejoin
10.00 setmiterlimit
np
222.40 510.58 m
0.15 -1.59 l
0.14 0.41 l
0.15 0 l
0.14 0.98 l
0.15 -0.41 l
0.14 1.02 l
0.15 -0.21 l
0.14 -0.60 l
0.15 -0.21 l
0.15 -0.57 l
0.14 0.98 l
0.15 0 l
0.14 -0.81 l
0.15 1.42 l
0.14 0.60 l
0.15 -2.02 l
0.14 1.62 l
0.15 -1.79 l
0.15 -0.20 l
0.14 1.18 l
0.15 0.61 l
0.14 -1.22 l
0.15 1.42 l
0.14 0.81 l
0.15 -2.43 l
0.15 1.01 l
0.14 -1.38 l
0.15 -0.41 l
0.14 2.40 l
0.15 -1.01 l
0.14 -0.41 l
0.15 -0.57 l
0.14 0.57 l
0.15 1.22 l
0.15 -0.41 l
0.14 -0.40 l
0.15 -0.21 l
0.14 0.21 l
0.15 -0.41 l
0.14 0.61 l
0.15 -0.81 l
0.14 0.81 l
0.15 -0.81 l
0.15 1.42 l
0.14 -0.61 l
0.15 0 l
0.14 -0.41 l
0.15 0.41 l
0.14 0.40 l
0.15 -1.58 l
0.14 0.37 l
0.15 0.20 l
0.15 0 l
0.14 0.20 l
0.15 -0.40 l
0.14 0.61 l
0.15 -0.41 l
0.14 0.81 l
0.15 -0.40 l
0.15 -0.21 l
0.14 0 l
0.15 1.02 l
0.14 -0.41 l
0.15 -0.61 l
0.14 0.41 l
0.15 -0.81 l
0.14 -1.19 l
0.15 0.41 l
0.15 1.39 l
0.14 0 l
0.15 1.21 l
0.14 -0.81 l
0.15 0 l
0.14 -0.40 l
0.15 -0.61 l
0.14 0 l
0.15 0.40 l
0.15 1.22 l
0.14 -0.61 l
0.15 -1.79 l
0.14 1.59 l
0.15 -0.81 l
0.14 -0.78 l
0.15 0.41 l
0.14 1.38 l
0.15 -0.61 l
0.15 0.81 l
0.14 -1.79 l
0.15 0.21 l
0.14 0 l
0.15 0.20 l
0.14 1.38 l
0.15 0.41 l
0.15 0.20 l
0.14 -0.81 l
0.15 0 l
0.14 -0.20 l
0.15 0.20 l
0.14 1.01 l
236.96 461.62 lineto
0.14 -0.63 l
0.15 1.44 l
0.15 1.42 l
0.14 -1.83 l
0.15 2.44 l
0.14 -1.63 l
0.15 0.82 l
0.14 2.39 l
0.15 0.21 l
0.14 0.20 l
0.15 0.61 l
0.15 -1.79 l
0.14 0.61 l
0.15 1.38 l
0.14 -0.40 l
0.15 -0.98 l
0.14 2.39 l
0.15 -0.60 l
0.14 0.40 l
0.15 1.22 l
0.15 -2.23 l
0.14 2.23 l
0.15 0 l
0.14 -0.20 l
0.15 -0.82 l
0.14 1.02 l
0.15 0.81 l
0.15 1.38 l
0.14 -1.99 l
0.15 0.41 l
0.14 -0.21 l
0.15 0.81 l
0.14 -0.20 l
0.15 -0.40 l
0.14 1.79 l
0.15 0 l
0.15 0.20 l
0.14 0.41 l
0.15 -0.82 l
0.14 1.22 l
0.15 -1.59 l
0.14 0 l
0.15 2.20 l
0.14 -1.62 l
0.15 0.81 l
0.15 -0.20 l
0.14 1.01 l
0.15 -0.81 l
0.14 0.20 l
0.15 1.01 l
0.14 -0.81 l
0.15 0.81 l
0.14 0 l
0.15 -0.40 l
0.15 1.22 l
0.14 -2.23 l
0.15 2.02 l
0.14 -1.01 l
0.15 1.22 l
0.14 -0.21 l
0.15 -0.61 l
0.15 1.02 l
0.14 -1.02 l
0.15 1.42 l
0.14 0.41 l
0.15 -0.41 l
0.14 1.42 l
0.15 -2.63 l
0.14 2.23 l
0.15 -1.42 l
0.15 1.22 l
0.14 -1.02 l
0.15 0.81 l
0.14 1.39 l
0.15 -1.18 l
0.14 0 l
0.15 0.81 l
0.14 -1.63 l
0.15 1.42 l
0.15 0.21 l
0.14 0.17 l
0.15 0.40 l
0.14 -0.78 l
0.15 0.98 l
0.14 -0.77 l
0.15 0.57 l
0.14 0.81 l
0.15 -1.21 l
0.15 1.01 l
0.14 -0.41 l
0.15 0 l
0.14 0.61 l
0.15 -0.61 l
0.14 0.81 l
0.15 -0.60 l
0.15 1.62 l
0.14 -1.22 l
0.15 0.20 l
0.14 1.02 l
251.52 479.56 lineto
0.14 -0.20 l
0.15 -0.41 l
0.14 -0.81 l
0.15 1.42 l
0.15 -0.61 l
0.14 1.22 l
0.15 -0.61 l
0.14 -0.40 l
0.15 1.62 l
0.14 -2.03 l
0.15 1.01 l
0.14 -0.20 l
0.15 0.81 l
0.15 1.22 l
0.14 -2.64 l
0.15 1.42 l
0.14 0 l
0.15 -0.20 l
0.14 0.81 l
0.15 -2.23 l
0.14 3.62 l
0.15 -3.01 l
0.15 2.63 l
0.14 -1.21 l
0.15 -1.02 l
0.14 2.03 l
0.15 -1.22 l
0.14 2.81 l
0.15 -2.20 l
0.14 -0.61 l
0.15 2.40 l
0.15 -1.58 l
0.14 0.98 l
0.15 0.81 l
0.14 -1.39 l
0.15 0.58 l
0.14 -0.58 l
0.15 1.39 l
0.15 -1.39 l
0.14 0.58 l
0.15 0.81 l
0.14 -0.98 l
0.15 0.77 l
0.14 -0.20 l
0.15 0 l
0.14 0.81 l
0.15 -0.61 l
0.15 1.63 l
0.14 -0.41 l
0.15 -0.20 l
0.14 0 l
0.15 -1.62 l
0.14 2.43 l
0.15 -0.41 l
0.14 -0.20 l
0.15 -0.41 l
0.15 -0.40 l
0.14 1.42 l
0.15 -0.81 l
0.14 0.20 l
0.15 0.20 l
0.14 0.41 l
0.15 0 l
0.14 -0.61 l
0.15 0.20 l
0.15 1.02 l
0.14 -1.02 l
0.15 1.02 l
0.14 -1.42 l
0.15 0.40 l
0.14 0.61 l
0.15 0 l
0.15 0.81 l
0.14 -0.40 l
0.15 0.61 l
0.14 -0.41 l
0.15 -0.61 l
0.14 1.62 l
0.15 -1.42 l
0.14 0.21 l
0.15 0.20 l
0.15 -1.01 l
0.14 1.01 l
0.15 1.01 l
0.14 -0.20 l
0.15 0.61 l
0.14 -2.64 l
0.15 2.44 l
0.14 0.81 l
0.15 -2.64 l
0.15 1.83 l
0.14 -0.81 l
0.15 0.60 l
0.14 1.02 l
0.15 -0.81 l
0.14 0.40 l
0.15 -0.40 l
0.14 -0.61 l
0.15 1.79 l
266.08 486.62 lineto
0.14 1.02 l
0.15 0.17 l
0.14 0.40 l
0.15 0.61 l
0.14 -2.40 l
0.15 1.22 l
0.15 0.57 l
0.14 -0.40 l
0.15 1.82 l
0.14 -1.42 l
0.15 -0.40 l
0.14 0.20 l
0.15 -0.98 l
0.14 2.19 l
0.15 -1.01 l
0.15 -0.20 l
0.14 -0.37 l
0.15 0.77 l
0.14 0.21 l
0.15 1.01 l
0.14 -1.22 l
0.15 1.22 l
0.14 -1.62 l
0.15 0.61 l
0.15 1.21 l
0.14 -1.82 l
0.15 1.01 l
0.14 -0.81 l
0.15 0.61 l
0.14 0.61 l
0.15 -1.42 l
0.14 1.82 l
0.15 -0.40 l
0.15 0 l
0.14 0.61 l
0.15 -0.82 l
0.14 0.41 l
0.15 0.81 l
0.14 -1.01 l
0.15 1.42 l
0.15 -1.22 l
0.14 0.81 l
0.15 -0.20 l
0.14 -0.81 l
0.15 2.03 l
0.14 -1.83 l
0.15 1.22 l
0.14 0.40 l
0.15 -1.42 l
0.15 0.61 l
0.14 1.02 l
0.15 -2.24 l
0.14 2.44 l
0.15 -1.22 l
0.14 1.02 l
0.15 -0.61 l
0.14 -0.21 l
0.15 1.22 l
0.15 -2.03 l
0.14 1.42 l
0.15 -0.40 l
0.14 0.40 l
0.15 1.02 l
0.14 -1.83 l
0.15 1.22 l
0.14 -0.81 l
0.15 0 l
0.15 2.02 l
0.14 -1.01 l
0.15 0.20 l
0.14 0 l
0.15 -0.20 l
0.14 0.20 l
0.15 -0.20 l
0.15 0.81 l
0.14 -0.61 l
0.15 -1.01 l
0.14 1.42 l
0.15 0 l
0.14 -0.20 l
0.15 0.60 l
0.14 -0.20 l
0.15 -0.61 l
0.15 0.21 l
0.14 0.98 l
0.15 -0.78 l
0.14 -0.20 l
0.15 1.38 l
0.14 -1.79 l
0.15 1.79 l
0.14 -0.20 l
0.15 -0.98 l
0.15 0.78 l
0.14 -0.78 l
0.15 1.59 l
0.14 -0.61 l
0.15 -1.99 l
0.14 2.80 l
0.15 -1.99 l
280.63 493.85 lineto
0.15 -0.20 l
0.15 -0.57 l
0.14 0.77 l
0.15 0.21 l
0.14 0 l
0.15 -0.41 l
0.14 -0.57 l
0.15 1.18 l
0.15 -1.01 l
0.14 2.02 l
0.15 -1.21 l
0.14 -1.39 l
0.15 2.40 l
0.14 -0.40 l
0.15 -0.82 l
0.14 1.02 l
0.15 -1.42 l
0.15 2.03 l
0.14 -1.83 l
0.15 0 l
0.14 1.62 l
0.15 -1.01 l
0.14 1.01 l
0.15 -0.40 l
0.14 -0.41 l
0.15 -0.40 l
0.15 0.20 l
0.14 0.81 l
0.15 -0.40 l
0.14 0.20 l
0.15 0.61 l
0.14 -0.61 l
0.15 0 l
0.14 -0.41 l
0.15 -0.81 l
0.15 1.62 l
0.14 -1.21 l
0.15 1.01 l
0.14 -0.40 l
0.15 -0.61 l
0.14 1.42 l
0.15 -1.22 l
0.14 2.23 l
0.15 0.81 l
0.15 -2.63 l
0.14 1.62 l
0.15 -0.41 l
0.14 -0.61 l
0.15 0.41 l
0.14 -1.01 l
0.15 0.60 l
0.15 -0.60 l
0.14 2.23 l
0.15 -1.63 l
0.14 1.42 l
0.15 -0.20 l
0.14 -0.61 l
0.15 2.43 l
0.14 -3.85 l
0.15 2.84 l
0.15 -1.01 l
0.14 0 l
0.15 -0.61 l
0.14 0.81 l
0.15 -0.41 l
0.14 -0.40 l
0.15 0.61 l
0.14 -0.81 l
0.15 0.20 l
0.15 1.42 l
0.14 -1.42 l
0.15 1.22 l
0.14 -2.23 l
0.15 1.82 l
0.14 0.20 l
0.15 0.61 l
0.14 -0.61 l
0.15 -1.01 l
0.15 1.82 l
0.14 -0.60 l
0.15 0.40 l
0.14 0.61 l
0.15 -1.42 l
0.14 0.20 l
0.15 0 l
0.15 0.21 l
0.14 -0.41 l
0.15 0 l
0.14 0.20 l
0.15 -1.42 l
0.14 2.23 l
0.15 -1.01 l
0.14 0.41 l
0.15 0.40 l
0.15 -0.20 l
0.14 0.40 l
0.15 -1.21 l
0.14 2.02 l
0.15 -0.20 l
295.19 496.90 lineto
0.15 -0.21 l
0.14 1.22 l
0.15 -0.20 l
0.15 -0.61 l
0.14 -0.61 l
0.15 1.42 l
0.14 -1.42 l
0.15 0.81 l
0.14 0.61 l
0.15 -1.01 l
0.14 0.60 l
0.15 0 l
0.15 0.41 l
0.14 0.78 l
0.15 -1.39 l
0.14 -0.20 l
0.15 1.01 l
0.14 -0.40 l
0.15 0.81 l
0.15 0.98 l
0.14 -1.39 l
0.15 -0.20 l
0.14 -1.01 l
0.15 1.79 l
0.14 -0.17 l
0.15 -0.81 l
0.14 1.18 l
0.15 -0.98 l
0.15 0.78 l
0.14 -0.38 l
0.15 0.58 l
0.14 -0.78 l
0.15 0.20 l
0.14 -0.20 l
0.15 0.41 l
0.14 0 l
0.15 0.37 l
0.15 0 l
0.14 -0.78 l
0.15 0.78 l
0.14 -0.37 l
0.15 0 l
0.14 0.17 l
0.15 0.20 l
0.14 0.20 l
0.15 -0.78 l
0.15 0.38 l
0.14 0 l
0.15 -0.17 l
0.14 1.59 l
0.15 -1.22 l
0.14 0.20 l
0.15 -0.98 l
0.15 0 l
0.14 0.58 l
0.15 0.40 l
0.14 0.20 l
0.15 -0.40 l
0.14 0.20 l
0.15 -0.57 l
0.14 0.77 l
0.15 -0.98 l
0.15 1.19 l
0.14 -1.59 l
0.15 1.59 l
0.14 -0.61 l
0.15 0.81 l
0.14 -0.41 l
0.15 0 l
0.14 0.61 l
0.15 -0.81 l
0.15 -0.57 l
0.14 0.77 l
0.15 0.61 l
0.14 0.61 l
0.15 -1.82 l
0.14 0.20 l
0.15 1.01 l
0.14 0 l
0.15 -1.21 l
0.15 1.42 l
0.14 0 l
0.15 -0.41 l
0.14 -1.18 l
0.15 0.57 l
0.14 0.61 l
0.15 -0.41 l
0.15 0.41 l
0.14 -0.81 l
0.15 1.22 l
0.14 -0.21 l
0.15 1.02 l
0.14 0.61 l
0.15 -1.63 l
0.14 -0.20 l
0.15 -0.41 l
0.15 1.02 l
0.14 -0.20 l
0.15 0.20 l
309.75 498.52 lineto
0.15 1.38 l
0.14 0.81 l
0.15 -0.81 l
0.14 1.02 l
0.15 0 l
0.15 -1.02 l
0.14 0.21 l
0.15 1.01 l
0.14 -0.20 l
0.15 -0.41 l
0.14 0.20 l
0.15 -1.21 l
0.14 1.21 l
0.15 -0.40 l
0.15 0 l
0.14 -0.41 l
0.15 0 l
0.14 0.81 l
0.15 -0.40 l
0.14 1.22 l
0.15 -0.41 l
0.15 0.81 l
0.14 -1.01 l
0.15 1.42 l
0.14 -2.44 l
0.15 1.42 l
0.14 -1.01 l
0.15 -0.20 l
0.14 1.21 l
0.15 -0.20 l
0.15 -0.20 l
0.14 0.81 l
0.15 0.20 l
0.14 -0.20 l
0.15 -0.61 l
0.14 0.20 l
0.15 0.81 l
0.14 -1.21 l
0.15 0 l
0.15 0.20 l
0.14 -0.41 l
0.15 -0.40 l
0.14 0.81 l
0.15 -0.81 l
0.14 0.81 l
0.15 -0.41 l
0.14 1.02 l
0.15 -0.61 l
0.15 -0.41 l
0.14 1.42 l
0.15 -2.02 l
0.14 1.62 l
0.15 -1.02 l
0.14 0.61 l
0.15 0 l
0.15 0 l
0.14 1.02 l
0.15 -0.81 l
0.14 -0.61 l
0.15 0.81 l
0.14 0.20 l
0.15 0.41 l
0.14 -0.61 l
0.15 1.01 l
0.15 -1.42 l
0.14 0.21 l
0.15 -1.22 l
0.14 1.01 l
0.15 0.81 l
0.14 -0.60 l
0.15 0.40 l
0.14 -0.40 l
0.15 0 l
0.15 0.20 l
0.14 1.01 l
0.15 -1.01 l
0.14 0.61 l
0.15 -1.02 l
0.14 1.42 l
0.15 -1.21 l
0.14 -0.82 l
0.15 1.22 l
0.15 -1.01 l
0.14 1.42 l
0.15 -0.61 l
0.14 0.40 l
0.15 -0.20 l
0.14 0.20 l
0.15 -1.62 l
0.14 1.02 l
0.15 0 l
0.15 1.21 l
0.14 -1.01 l
0.15 -0.20 l
0.14 0.81 l
0.15 -0.21 l
0.14 0.41 l
0.15 0.20 l
0.15 -0.61 l
324.31 502.54 lineto
0.15 -0.61 l
0.14 0.61 l
0.15 -0.20 l
0.14 0.40 l
0.15 -0.20 l
0.14 0.20 l
0.15 -1.21 l
0.15 1.01 l
0.14 -0.81 l
0.15 1.82 l
0.14 -1.42 l
0.15 -0.20 l
0.14 0 l
0.15 0.81 l
0.14 -0.20 l
0.15 -0.81 l
0.15 0.40 l
0.14 0.41 l
0.15 -0.20 l
0.14 0 l
0.15 0 l
0.14 0.20 l
0.15 0 l
0.14 -0.61 l
0.15 1.22 l
0.15 -1.22 l
0.14 0.41 l
0.15 -0.41 l
0.14 0.81 l
0.15 -0.40 l
0.14 0.81 l
0.15 -0.61 l
0.15 -0.41 l
0.14 0.41 l
0.15 0 l
0.14 -1.22 l
0.15 2.03 l
0.14 -0.81 l
0.15 0 l
0.14 0.61 l
0.15 -0.81 l
0.15 1.01 l
0.14 -0.81 l
0.15 -0.41 l
0.14 -0.20 l
0.15 1.83 l
0.14 -0.21 l
0.15 0 l
0.14 -1.42 l
0.15 2.40 l
0.15 -1.79 l
0.14 0.20 l
0.15 -0.20 l
0.14 -0.20 l
0.15 0.61 l
0.14 -0.21 l
0.15 -0.40 l
0.14 1.01 l
0.15 0.21 l
0.15 -1.42 l
0.14 0.81 l
0.15 0.20 l
0.14 0.61 l
0.15 -0.81 l
0.14 -0.81 l
0.15 0.60 l
0.15 1.02 l
0.14 0.17 l
0.15 0 l
0.14 -0.78 l
0.15 1.18 l
0.14 -0.98 l
0.15 -1.01 l
0.14 2.19 l
0.15 -1.18 l
0.15 -0.81 l
0.14 -1.21 l
0.15 2.43 l
0.14 0.17 l
0.15 -0.78 l
0.14 -0.81 l
0.15 0 l
0.14 1.01 l
0.15 0 l
0.15 0.98 l
0.14 -0.77 l
0.15 -1.42 l
0.14 1.99 l
0.15 0 l
0.14 -0.57 l
0.15 0.20 l
0.14 0.57 l
0.15 -0.98 l
0.15 -0.61 l
0.14 0 l
0.15 1.19 l
0.14 -0.37 l
0.15 0.20 l
0.14 0.37 l
338.87 503.96 lineto
0.15 0.17 l
0.14 0 l
0.15 0.60 l
0.14 -0.77 l
0.15 0.17 l
0.14 -0.17 l
0.15 0.77 l
0.14 -0.77 l
0.15 0 l
0.15 0.37 l
0.14 -0.78 l
0.15 0 l
0.14 0.78 l
0.15 -0.37 l
0.14 0 l
0.15 0.37 l
0.14 -0.37 l
0.15 1.59 l
0.15 -1.42 l
0.14 -0.58 l
0.15 0 l
0.14 0.78 l
0.15 0 l
0.14 -0.37 l
0.15 1.18 l
0.14 -0.81 l
0.15 -0.57 l
0.15 -0.82 l
0.14 1.59 l
0.15 0 l
0.14 0.20 l
0.15 -0.60 l
0.14 0.40 l
0.15 -0.40 l
0.15 0.60 l
0.14 -0.40 l
0.15 0.40 l
0.14 -0.20 l
0.15 0.41 l
0.14 0.81 l
0.15 -0.41 l
0.14 -1.21 l
0.15 -0.17 l
0.15 0.37 l
0.14 0.40 l
0.15 -1.18 l
0.14 0 l
0.15 1.18 l
0.14 1.42 l
0.15 -2.02 l
0.14 0 l
0.15 0.20 l
0.15 -0.20 l
0.14 1.01 l
0.15 -0.20 l
0.14 -0.21 l
0.15 0.61 l
0.14 -0.61 l
0.15 -0.40 l
0.14 1.01 l
0.15 -0.61 l
0.15 0.61 l
0.14 -1.38 l
0.15 0.77 l
0.14 0 l
0.15 -0.60 l
0.14 0.81 l
0.15 0.20 l
0.15 -0.41 l
0.14 0.41 l
0.15 -0.61 l
0.14 -0.40 l
0.15 0.20 l
0.14 0 l
0.15 0.61 l
0.14 -0.21 l
0.15 0.41 l
0.15 -0.41 l
0.14 0.61 l
0.15 0.61 l
0.14 -0.40 l
0.15 -1.79 l
0.14 0.77 l
0.15 0.61 l
0.14 -0.41 l
0.15 0.61 l
0.15 -0.40 l
0.14 0.40 l
0.15 0.21 l
0.14 -1.22 l
0.15 0.61 l
0.14 -0.41 l
0.15 1.83 l
0.14 -0.61 l
0.15 -0.61 l
0.15 1.22 l
0.14 -0.61 l
0.15 -0.81 l
0.14 0 l
353.43 505.14 lineto
0.14 0 l
0.15 0.61 l
0.14 -1.42 l
0.15 -0.57 l
0.15 0.57 l
0.14 0.81 l
0.15 0.20 l
0.14 -0.61 l
0.15 0.61 l
0.14 0 l
0.15 0.41 l
0.15 -0.81 l
0.14 0.20 l
0.15 1.22 l
0.14 -0.41 l
0.15 0.20 l
0.14 -1.01 l
0.15 0.20 l
0.14 0.41 l
0.15 0.40 l
0.15 -1.42 l
0.14 -0.20 l
0.15 1.83 l
0.14 -0.41 l
0.15 0.20 l
0.14 -0.60 l
0.15 0 l
0.14 0.81 l
0.15 0 l
0.15 -1.22 l
0.14 0.81 l
0.15 -0.40 l
0.14 0.20 l
0.15 -0.20 l
0.14 0 l
0.15 0.20 l
0.14 -0.20 l
0.15 0.20 l
0.15 0.20 l
0.14 0.41 l
0.15 0 l
0.14 -1.42 l
0.15 -0.21 l
0.14 0 l
0.15 1.63 l
0.15 -1.22 l
0.14 0.20 l
0.15 -1.21 l
0.14 3.65 l
0.15 -1.42 l
0.14 0 l
0.15 -0.41 l
0.14 0.41 l
0.15 -0.61 l
0.15 -0.20 l
0.14 -0.61 l
0.15 0.81 l
0.14 -0.41 l
0.15 1.83 l
0.14 -1.83 l
0.15 1.22 l
0.14 -0.61 l
0.15 -0.81 l
0.15 0 l
0.14 0.41 l
0.15 1.01 l
0.14 -0.41 l
0.15 -0.60 l
0.14 -0.21 l
0.15 -0.61 l
0.14 1.02 l
0.15 0 l
0.15 -0.41 l
0.14 0.41 l
0.15 1.22 l
0.14 -1.42 l
0.15 -1.02 l
0.14 0 l
0.15 2.23 l
0.15 -1.01 l
0.14 1.01 l
0.15 -0.40 l
0.14 -0.21 l
0.15 0.61 l
0.14 0 l
0.15 -2.23 l
0.14 2.23 l
0.15 -0.20 l
0.15 -0.41 l
0.14 0.41 l
0.15 -1.22 l
0.14 1.22 l
0.15 -0.81 l
0.14 -1.02 l
0.15 1.42 l
0.14 0.61 l
0.15 -0.40 l
0.15 -1.02 l
0.14 1.02 l
currentpoint o m
367.99 506.15 lineto
0.14 -0.20 l
0.15 -1.01 l
0.14 0 l
0.15 1.01 l
0.14 1.02 l
0.15 -1.02 l
0.15 0.20 l
0.14 0 l
0.15 0.61 l
0.14 -1.82 l
0.15 1.01 l
0.14 0.61 l
0.15 -0.20 l
0.15 0.61 l
0.14 -1.02 l
0.15 0.20 l
0.14 -0.40 l
0.15 1.01 l
0.14 -2.23 l
0.15 1.42 l
0.14 -0.20 l
0.15 0 l
0.15 1.22 l
0.14 -1.63 l
0.15 0.21 l
0.14 1.01 l
0.15 -1.42 l
0.14 1.42 l
0.15 0.61 l
0.14 0.20 l
0.15 -2.64 l
0.15 2.03 l
0.14 1.02 l
0.15 -1.22 l
0.14 -0.41 l
0.15 0.41 l
0.14 -0.41 l
0.15 0.61 l
0.14 -1.21 l
0.15 0.60 l
0.15 0.82 l
0.14 -1.42 l
0.15 -0.21 l
0.14 -0.20 l
0.15 0 l
0.14 1.01 l
0.15 -1.42 l
0.15 2.24 l
0.14 -0.82 l
0.15 -1.42 l
0.14 1.42 l
0.15 -0.81 l
0.14 1.02 l
0.15 -0.21 l
0.14 0.82 l
0.15 -0.61 l
0.15 -0.61 l
0.14 0.20 l
0.15 1.42 l
0.14 -1.01 l
0.15 -0.61 l
0.14 0 l
0.15 -0.20 l
0.14 1.01 l
0.15 -1.22 l
0.15 0.21 l
0.14 -0.21 l
0.15 -0.20 l
0.14 0.81 l
0.15 0.41 l
0.14 -1.02 l
0.15 1.42 l
0.14 -0.61 l
0.15 0.82 l
0.15 -1.42 l
0.14 0.60 l
0.15 0 l
0.14 -0.40 l
0.15 0.61 l
0.14 -1.22 l
0.15 1.83 l
0.15 -0.61 l
0.14 -1.02 l
0.15 0.61 l
0.14 -0.61 l
0.15 0.41 l
0.14 1.01 l
0.15 0.61 l
0.14 -2.23 l
0.15 0.61 l
0.15 0.20 l
0.14 0 l
0.15 1.62 l
0.14 -1.21 l
0.15 1.42 l
0.14 -1.63 l
0.15 0.41 l
0.14 0.41 l
0.15 -0.82 l
o
/bg { 1 1 1 srgb } def
222.40 510.58 0.43 c p3
222.55 508.99 0.43 c p3
222.69 509.40 0.43 c p3
222.84 509.40 0.43 c p3
222.98 510.38 0.43 c p3
223.13 509.97 0.43 c p3
223.27 510.99 0.43 c p3
223.42 510.78 0.43 c p3
223.56 510.18 0.43 c p3
223.71 509.97 0.43 c p3
223.86 509.40 0.43 c p3
224.00 510.38 0.43 c p3
224.15 510.38 0.43 c p3
224.29 509.57 0.43 c p3
224.44 510.99 0.43 c p3
224.58 511.59 0.43 c p3
224.73 509.57 0.43 c p3
224.87 511.19 0.43 c p3
225.02 509.40 0.43 c p3
225.17 509.20 0.43 c p3
225.31 510.38 0.43 c p3
225.46 510.99 0.43 c p3
225.60 509.77 0.43 c p3
225.75 511.19 0.43 c p3
225.89 512.00 0.43 c p3
226.04 509.57 0.43 c p3
226.19 510.58 0.43 c p3
226.33 509.20 0.43 c p3
226.48 508.79 0.43 c p3
226.62 511.19 0.43 c p3
226.77 510.18 0.43 c p3
226.91 509.77 0.43 c p3
227.06 509.20 0.43 c p3
227.20 509.77 0.43 c p3
227.35 510.99 0.43 c p3
227.50 510.58 0.43 c p3
227.64 510.18 0.43 c p3
227.79 509.97 0.43 c p3
227.93 510.18 0.43 c p3
228.08 509.77 0.43 c p3
228.22 510.38 0.43 c p3
228.37 509.57 0.43 c p3
228.51 510.38 0.43 c p3
228.66 509.57 0.43 c p3
228.81 510.99 0.43 c p3
228.95 510.38 0.43 c p3
229.10 510.38 0.43 c p3
229.24 509.97 0.43 c p3
229.39 510.38 0.43 c p3
229.53 510.78 0.43 c p3
229.68 509.20 0.43 c p3
229.82 509.57 0.43 c p3
229.97 509.77 0.43 c p3
230.12 509.77 0.43 c p3
230.26 509.97 0.43 c p3
230.41 509.57 0.43 c p3
230.55 510.18 0.43 c p3
230.70 509.77 0.43 c p3
230.84 510.58 0.43 c p3
230.99 510.18 0.43 c p3
231.14 509.97 0.43 c p3
231.28 509.97 0.43 c p3
231.43 510.99 0.43 c p3
231.57 510.58 0.43 c p3
231.72 509.97 0.43 c p3
231.86 510.38 0.43 c p3
232.01 509.57 0.43 c p3
232.15 508.38 0.43 c p3
232.30 508.79 0.43 c p3
232.45 510.18 0.43 c p3
232.59 510.18 0.43 c p3
232.74 511.39 0.43 c p3
232.88 510.58 0.43 c p3
233.03 510.58 0.43 c p3
233.17 510.18 0.43 c p3
233.32 509.57 0.43 c p3
233.46 509.57 0.43 c p3
233.61 509.97 0.43 c p3
233.76 511.19 0.43 c p3
233.90 510.58 0.43 c p3
234.05 508.79 0.43 c p3
234.19 510.38 0.43 c p3
234.34 509.57 0.43 c p3
234.48 508.79 0.43 c p3
234.63 509.20 0.43 c p3
234.77 510.58 0.43 c p3
234.92 509.97 0.43 c p3
235.07 510.78 0.43 c p3
235.21 508.99 0.43 c p3
235.36 509.20 0.43 c p3
235.50 509.20 0.43 c p3
235.65 509.40 0.43 c p3
235.79 510.78 0.43 c p3
235.94 511.19 0.43 c p3
236.09 511.39 0.43 c p3
236.23 510.58 0.43 c p3
236.38 510.58 0.43 c p3
236.52 510.38 0.43 c p3
236.67 510.58 0.43 c p3
236.81 511.59 0.43 c p3
236.96 461.62 0.43 c p3
237.10 460.99 0.43 c p3
237.25 462.43 0.43 c p3
237.40 463.85 0.43 c p3
237.54 462.02 0.43 c p3
237.69 464.46 0.43 c p3
237.83 462.83 0.43 c p3
237.98 463.65 0.43 c p3
238.12 466.04 0.43 c p3
238.27 466.25 0.43 c p3
238.41 466.45 0.43 c p3
238.56 467.06 0.43 c p3
238.71 465.27 0.43 c p3
238.85 465.88 0.43 c p3
239.00 467.26 0.43 c p3
239.14 466.86 0.43 c p3
239.29 465.88 0.43 c p3
239.43 468.27 0.43 c p3
239.58 467.67 0.43 c p3
239.72 468.07 0.43 c p3
239.87 469.29 0.43 c p3
240.02 467.06 0.43 c p3
240.16 469.29 0.43 c p3
240.31 469.29 0.43 c p3
240.45 469.09 0.43 c p3
240.60 468.27 0.43 c p3
240.74 469.29 0.43 c p3
240.89 470.10 0.43 c p3
241.04 471.48 0.43 c p3
241.18 469.49 0.43 c p3
241.33 469.90 0.43 c p3
241.47 469.69 0.43 c p3
241.62 470.50 0.43 c p3
241.76 470.30 0.43 c p3
241.91 469.90 0.43 c p3
242.05 471.69 0.43 c p3
242.20 471.69 0.43 c p3
242.35 471.89 0.43 c p3
242.49 472.30 0.43 c p3
242.64 471.48 0.43 c p3
242.78 472.70 0.43 c p3
242.93 471.11 0.43 c p3
243.07 471.11 0.43 c p3
243.22 473.31 0.43 c p3
243.36 471.69 0.43 c p3
243.51 472.50 0.43 c p3
243.66 472.30 0.43 c p3
243.80 473.31 0.43 c p3
243.95 472.50 0.43 c p3
244.09 472.70 0.43 c p3
244.24 473.71 0.43 c p3
244.38 472.90 0.43 c p3
244.53 473.71 0.43 c p3
244.67 473.71 0.43 c p3
244.82 473.31 0.43 c p3
244.97 474.53 0.43 c p3
245.11 472.30 0.43 c p3
245.26 474.32 0.43 c p3
245.40 473.31 0.43 c p3
245.55 474.53 0.43 c p3
245.69 474.32 0.43 c p3
245.84 473.71 0.43 c p3
245.99 474.73 0.43 c p3
246.13 473.71 0.43 c p3
246.28 475.13 0.43 c p3
246.42 475.54 0.43 c p3
246.57 475.13 0.43 c p3
246.71 476.55 0.43 c p3
246.86 473.92 0.43 c p3
247.00 476.15 0.43 c p3
247.15 474.73 0.43 c p3
247.30 475.95 0.43 c p3
247.44 474.93 0.43 c p3
247.59 475.74 0.43 c p3
247.73 477.13 0.43 c p3
247.88 475.95 0.43 c p3
248.02 475.95 0.43 c p3
248.17 476.76 0.43 c p3
248.31 475.13 0.43 c p3
248.46 476.55 0.43 c p3
248.61 476.76 0.43 c p3
248.75 476.93 0.43 c p3
248.90 477.33 0.43 c p3
249.04 476.55 0.43 c p3
249.19 477.53 0.43 c p3
249.33 476.76 0.43 c p3
249.48 477.33 0.43 c p3
249.62 478.14 0.43 c p3
249.77 476.93 0.43 c p3
249.92 477.94 0.43 c p3
250.06 477.53 0.43 c p3
250.21 477.53 0.43 c p3
250.35 478.14 0.43 c p3
250.50 477.53 0.43 c p3
250.64 478.34 0.43 c p3
250.79 477.74 0.43 c p3
250.94 479.36 0.43 c p3
251.08 478.14 0.43 c p3
251.23 478.34 0.43 c p3
251.37 479.36 0.43 c p3
251.52 479.56 0.43 c p3
251.66 479.36 0.43 c p3
251.81 478.95 0.43 c p3
251.95 478.14 0.43 c p3
252.10 479.56 0.43 c p3
252.25 478.95 0.43 c p3
252.39 480.17 0.43 c p3
252.54 479.56 0.43 c p3
252.68 479.16 0.43 c p3
252.83 480.78 0.43 c p3
252.97 478.75 0.43 c p3
253.12 479.76 0.43 c p3
253.26 479.56 0.43 c p3
253.41 480.37 0.43 c p3
253.56 481.59 0.43 c p3
253.70 478.95 0.43 c p3
253.85 480.37 0.43 c p3
253.99 480.37 0.43 c p3
254.14 480.17 0.43 c p3
254.28 480.98 0.43 c p3
254.43 478.75 0.43 c p3
254.57 482.37 0.43 c p3
254.72 479.36 0.43 c p3
254.87 481.99 0.43 c p3
255.01 480.78 0.43 c p3
255.16 479.76 0.43 c p3
255.30 481.79 0.43 c p3
255.45 480.57 0.43 c p3
255.59 483.38 0.43 c p3
255.74 481.18 0.43 c p3
255.88 480.57 0.43 c p3
256.03 482.97 0.43 c p3
256.18 481.39 0.43 c p3
256.32 482.37 0.43 c p3
256.47 483.18 0.43 c p3
256.61 481.79 0.43 c p3
256.76 482.37 0.43 c p3
256.90 481.79 0.43 c p3
257.05 483.18 0.43 c p3
257.20 481.79 0.43 c p3
257.34 482.37 0.43 c p3
257.49 483.18 0.43 c p3
257.63 482.20 0.43 c p3
257.78 482.97 0.43 c p3
257.92 482.77 0.43 c p3
258.07 482.77 0.43 c p3
258.21 483.58 0.43 c p3
258.36 482.97 0.43 c p3
258.51 484.60 0.43 c p3
258.65 484.19 0.43 c p3
258.80 483.99 0.43 c p3
258.94 483.99 0.43 c p3
259.09 482.37 0.43 c p3
259.23 484.80 0.43 c p3
259.38 484.39 0.43 c p3
259.52 484.19 0.43 c p3
259.67 483.78 0.43 c p3
259.82 483.38 0.43 c p3
259.96 484.80 0.43 c p3
260.11 483.99 0.43 c p3
260.25 484.19 0.43 c p3
260.40 484.39 0.43 c p3
260.54 484.80 0.43 c p3
260.69 484.80 0.43 c p3
260.83 484.19 0.43 c p3
260.98 484.39 0.43 c p3
261.13 485.41 0.43 c p3
261.27 484.39 0.43 c p3
261.42 485.41 0.43 c p3
261.56 483.99 0.43 c p3
261.71 484.39 0.43 c p3
261.85 485.00 0.43 c p3
262.00 485.00 0.43 c p3
262.15 485.81 0.43 c p3
262.29 485.41 0.43 c p3
262.44 486.02 0.43 c p3
262.58 485.61 0.43 c p3
262.73 485.00 0.43 c p3
262.87 486.62 0.43 c p3
263.02 485.20 0.43 c p3
263.16 485.41 0.43 c p3
263.31 485.61 0.43 c p3
263.46 484.60 0.43 c p3
263.60 485.61 0.43 c p3
263.75 486.62 0.43 c p3
263.89 486.42 0.43 c p3
264.04 487.03 0.43 c p3
264.18 484.39 0.43 c p3
264.33 486.83 0.43 c p3
264.47 487.64 0.43 c p3
264.62 485.00 0.43 c p3
264.77 486.83 0.43 c p3
264.91 486.02 0.43 c p3
265.06 486.62 0.43 c p3
265.20 487.64 0.43 c p3
265.35 486.83 0.43 c p3
265.49 487.23 0.43 c p3
265.64 486.83 0.43 c p3
265.78 486.22 0.43 c p3
265.93 488.01 0.43 c p3
266.08 486.62 0.43 c p3
266.22 487.64 0.43 c p3
266.37 487.81 0.43 c p3
266.51 488.21 0.43 c p3
266.66 488.82 0.43 c p3
266.80 486.42 0.43 c p3
266.95 487.64 0.43 c p3
267.10 488.21 0.43 c p3
267.24 487.81 0.43 c p3
267.39 489.63 0.43 c p3
267.53 488.21 0.43 c p3
267.68 487.81 0.43 c p3
267.82 488.01 0.43 c p3
267.97 487.03 0.43 c p3
268.11 489.22 0.43 c p3
268.26 488.21 0.43 c p3
268.41 488.01 0.43 c p3
268.55 487.64 0.43 c p3
268.70 488.41 0.43 c p3
268.84 488.62 0.43 c p3
268.99 489.63 0.43 c p3
269.13 488.41 0.43 c p3
269.28 489.63 0.43 c p3
269.42 488.01 0.43 c p3
269.57 488.62 0.43 c p3
269.72 489.83 0.43 c p3
269.86 488.01 0.43 c p3
270.01 489.02 0.43 c p3
270.15 488.21 0.43 c p3
270.30 488.82 0.43 c p3
270.44 489.43 0.43 c p3
270.59 488.01 0.43 c p3
270.73 489.83 0.43 c p3
270.88 489.43 0.43 c p3
271.03 489.43 0.43 c p3
271.17 490.04 0.43 c p3
271.32 489.22 0.43 c p3
271.46 489.63 0.43 c p3
271.61 490.44 0.43 c p3
271.75 489.43 0.43 c p3
271.90 490.85 0.43 c p3
272.05 489.63 0.43 c p3
272.19 490.44 0.43 c p3
272.34 490.24 0.43 c p3
272.48 489.43 0.43 c p3
272.63 491.46 0.43 c p3
272.77 489.63 0.43 c p3
272.92 490.85 0.43 c p3
273.06 491.25 0.43 c p3
273.21 489.83 0.43 c p3
273.36 490.44 0.43 c p3
273.50 491.46 0.43 c p3
273.65 489.22 0.43 c p3
273.79 491.66 0.43 c p3
273.94 490.44 0.43 c p3
274.08 491.46 0.43 c p3
274.23 490.85 0.43 c p3
274.37 490.64 0.43 c p3
274.52 491.86 0.43 c p3
274.67 489.83 0.43 c p3
274.81 491.25 0.43 c p3
274.96 490.85 0.43 c p3
275.10 491.25 0.43 c p3
275.25 492.27 0.43 c p3
275.39 490.44 0.43 c p3
275.54 491.66 0.43 c p3
275.68 490.85 0.43 c p3
275.83 490.85 0.43 c p3
275.98 492.87 0.43 c p3
276.12 491.86 0.43 c p3
276.27 492.06 0.43 c p3
276.41 492.06 0.43 c p3
276.56 491.86 0.43 c p3
276.70 492.06 0.43 c p3
276.85 491.86 0.43 c p3
277.00 492.67 0.43 c p3
277.14 492.06 0.43 c p3
277.29 491.05 0.43 c p3
277.43 492.47 0.43 c p3
277.58 492.47 0.43 c p3
277.72 492.27 0.43 c p3
277.87 492.87 0.43 c p3
278.01 492.67 0.43 c p3
278.16 492.06 0.43 c p3
278.31 492.27 0.43 c p3
278.45 493.25 0.43 c p3
278.60 492.47 0.43 c p3
278.74 492.27 0.43 c p3
278.89 493.65 0.43 c p3
279.03 491.86 0.43 c p3
279.18 493.65 0.43 c p3
279.32 493.45 0.43 c p3
279.47 492.47 0.43 c p3
279.62 493.25 0.43 c p3
279.76 492.47 0.43 c p3
279.91 494.06 0.43 c p3
280.05 493.45 0.43 c p3
280.20 491.46 0.43 c p3
280.34 494.26 0.43 c p3
280.49 492.27 0.43 c p3
280.63 493.85 0.43 c p3
280.78 493.65 0.43 c p3
280.93 493.08 0.43 c p3
281.07 493.85 0.43 c p3
281.22 494.06 0.43 c p3
281.36 494.06 0.43 c p3
281.51 493.65 0.43 c p3
281.65 493.08 0.43 c p3
281.80 494.26 0.43 c p3
281.95 493.25 0.43 c p3
282.09 495.27 0.43 c p3
282.24 494.06 0.43 c p3
282.38 492.67 0.43 c p3
282.53 495.07 0.43 c p3
282.67 494.67 0.43 c p3
282.82 493.85 0.43 c p3
282.96 494.87 0.43 c p3
283.11 493.45 0.43 c p3
283.26 495.48 0.43 c p3
283.40 493.65 0.43 c p3
283.55 493.65 0.43 c p3
283.69 495.27 0.43 c p3
283.84 494.26 0.43 c p3
283.98 495.27 0.43 c p3
284.13 494.87 0.43 c p3
284.27 494.46 0.43 c p3
284.42 494.06 0.43 c p3
284.57 494.26 0.43 c p3
284.71 495.07 0.43 c p3
284.86 494.67 0.43 c p3
285.00 494.87 0.43 c p3
285.15 495.48 0.43 c p3
285.29 494.87 0.43 c p3
285.44 494.87 0.43 c p3
285.58 494.46 0.43 c p3
285.73 493.65 0.43 c p3
285.88 495.27 0.43 c p3
286.02 494.06 0.43 c p3
286.17 495.07 0.43 c p3
286.31 494.67 0.43 c p3
286.46 494.06 0.43 c p3
286.60 495.48 0.43 c p3
286.75 494.26 0.43 c p3
286.89 496.49 0.43 c p3
287.04 497.30 0.43 c p3
287.19 494.67 0.43 c p3
287.33 496.29 0.43 c p3
287.48 495.88 0.43 c p3
287.62 495.27 0.43 c p3
287.77 495.68 0.43 c p3
287.91 494.67 0.43 c p3
288.06 495.27 0.43 c p3
288.21 494.67 0.43 c p3
288.35 496.90 0.43 c p3
288.50 495.27 0.43 c p3
288.64 496.69 0.43 c p3
288.79 496.49 0.43 c p3
288.93 495.88 0.43 c p3
289.08 498.31 0.43 c p3
289.22 494.46 0.43 c p3
289.37 497.30 0.43 c p3
289.52 496.29 0.43 c p3
289.66 496.29 0.43 c p3
289.81 495.68 0.43 c p3
289.95 496.49 0.43 c p3
290.10 496.08 0.43 c p3
290.24 495.68 0.43 c p3
290.39 496.29 0.43 c p3
290.53 495.48 0.43 c p3
290.68 495.68 0.43 c p3
290.83 497.10 0.43 c p3
290.97 495.68 0.43 c p3
291.12 496.90 0.43 c p3
291.26 494.67 0.43 c p3
291.41 496.49 0.43 c p3
291.55 496.69 0.43 c p3
291.70 497.30 0.43 c p3
291.84 496.69 0.43 c p3
291.99 495.68 0.43 c p3
292.14 497.50 0.43 c p3
292.28 496.90 0.43 c p3
292.43 497.30 0.43 c p3
292.57 497.91 0.43 c p3
292.72 496.49 0.43 c p3
292.86 496.69 0.43 c p3
293.01 496.69 0.43 c p3
293.16 496.90 0.43 c p3
293.30 496.49 0.43 c p3
293.45 496.49 0.43 c p3
293.59 496.69 0.43 c p3
293.74 495.27 0.43 c p3
293.88 497.50 0.43 c p3
294.03 496.49 0.43 c p3
294.17 496.90 0.43 c p3
294.32 497.30 0.43 c p3
294.47 497.10 0.43 c p3
294.61 497.50 0.43 c p3
294.76 496.29 0.43 c p3
294.90 498.31 0.43 c p3
295.05 498.11 0.43 c p3
295.19 496.90 0.43 c p3
295.34 496.69 0.43 c p3
295.48 497.91 0.43 c p3
295.63 497.71 0.43 c p3
295.78 497.10 0.43 c p3
295.92 496.49 0.43 c p3
296.07 497.91 0.43 c p3
296.21 496.49 0.43 c p3
296.36 497.30 0.43 c p3
296.50 497.91 0.43 c p3
296.65 496.90 0.43 c p3
296.79 497.50 0.43 c p3
296.94 497.50 0.43 c p3
297.09 497.91 0.43 c p3
297.23 498.69 0.43 c p3
297.38 497.30 0.43 c p3
297.52 497.10 0.43 c p3
297.67 498.11 0.43 c p3
297.81 497.71 0.43 c p3
297.96 498.52 0.43 c p3
298.11 499.50 0.43 c p3
298.25 498.11 0.43 c p3
298.40 497.91 0.43 c p3
298.54 496.90 0.43 c p3
298.69 498.69 0.43 c p3
298.83 498.52 0.43 c p3
298.98 497.71 0.43 c p3
299.12 498.89 0.43 c p3
299.27 497.91 0.43 c p3
299.42 498.69 0.43 c p3
299.56 498.31 0.43 c p3
299.71 498.89 0.43 c p3
299.85 498.11 0.43 c p3
300.00 498.31 0.43 c p3
300.14 498.11 0.43 c p3
300.29 498.52 0.43 c p3
300.43 498.52 0.43 c p3
300.58 498.89 0.43 c p3
300.73 498.89 0.43 c p3
300.87 498.11 0.43 c p3
301.02 498.89 0.43 c p3
301.16 498.52 0.43 c p3
301.31 498.52 0.43 c p3
301.45 498.69 0.43 c p3
301.60 498.89 0.43 c p3
301.74 499.09 0.43 c p3
301.89 498.31 0.43 c p3
302.04 498.69 0.43 c p3
302.18 498.69 0.43 c p3
302.33 498.52 0.43 c p3
302.47 500.11 0.43 c p3
302.62 498.89 0.43 c p3
302.76 499.09 0.43 c p3
302.91 498.11 0.43 c p3
303.06 498.11 0.43 c p3
303.20 498.69 0.43 c p3
303.35 499.09 0.43 c p3
303.49 499.29 0.43 c p3
303.64 498.89 0.43 c p3
303.78 499.09 0.43 c p3
303.93 498.52 0.43 c p3
304.07 499.29 0.43 c p3
304.22 498.31 0.43 c p3
304.37 499.50 0.43 c p3
304.51 497.91 0.43 c p3
304.66 499.50 0.43 c p3
304.80 498.89 0.43 c p3
304.95 499.70 0.43 c p3
305.09 499.29 0.43 c p3
305.24 499.29 0.43 c p3
305.38 499.90 0.43 c p3
305.53 499.09 0.43 c p3
305.68 498.52 0.43 c p3
305.82 499.29 0.43 c p3
305.97 499.90 0.43 c p3
306.11 500.51 0.43 c p3
306.26 498.69 0.43 c p3
306.40 498.89 0.43 c p3
306.55 499.90 0.43 c p3
306.69 499.90 0.43 c p3
306.84 498.69 0.43 c p3
306.99 500.11 0.43 c p3
307.13 500.11 0.43 c p3
307.28 499.70 0.43 c p3
307.42 498.52 0.43 c p3
307.57 499.09 0.43 c p3
307.71 499.70 0.43 c p3
307.86 499.29 0.43 c p3
308.01 499.70 0.43 c p3
308.15 498.89 0.43 c p3
308.30 500.11 0.43 c p3
308.44 499.90 0.43 c p3
308.59 500.92 0.43 c p3
308.73 501.53 0.43 c p3
308.88 499.90 0.43 c p3
309.02 499.70 0.43 c p3
309.17 499.29 0.43 c p3
309.32 500.31 0.43 c p3
309.46 500.11 0.43 c p3
309.61 500.31 0.43 c p3
309.75 498.52 0.43 c p3
309.90 499.90 0.43 c p3
310.04 500.71 0.43 c p3
310.19 499.90 0.43 c p3
310.33 500.92 0.43 c p3
310.48 500.92 0.43 c p3
310.63 499.90 0.43 c p3
310.77 500.11 0.43 c p3
310.92 501.12 0.43 c p3
311.06 500.92 0.43 c p3
311.21 500.51 0.43 c p3
311.35 500.71 0.43 c p3
311.50 499.50 0.43 c p3
311.64 500.71 0.43 c p3
311.79 500.31 0.43 c p3
311.94 500.31 0.43 c p3
312.08 499.90 0.43 c p3
312.23 499.90 0.43 c p3
312.37 500.71 0.43 c p3
312.52 500.31 0.43 c p3
312.66 501.53 0.43 c p3
312.81 501.12 0.43 c p3
312.96 501.93 0.43 c p3
313.10 500.92 0.43 c p3
313.25 502.34 0.43 c p3
313.39 499.90 0.43 c p3
313.54 501.32 0.43 c p3
313.68 500.31 0.43 c p3
313.83 500.11 0.43 c p3
313.97 501.32 0.43 c p3
314.12 501.12 0.43 c p3
314.27 500.92 0.43 c p3
314.41 501.73 0.43 c p3
314.56 501.93 0.43 c p3
314.70 501.73 0.43 c p3
314.85 501.12 0.43 c p3
314.99 501.32 0.43 c p3
315.14 502.13 0.43 c p3
315.28 500.92 0.43 c p3
315.43 500.92 0.43 c p3
315.58 501.12 0.43 c p3
315.72 500.71 0.43 c p3
315.87 500.31 0.43 c p3
316.01 501.12 0.43 c p3
316.16 500.31 0.43 c p3
316.30 501.12 0.43 c p3
316.45 500.71 0.43 c p3
316.59 501.73 0.43 c p3
316.74 501.12 0.43 c p3
316.89 500.71 0.43 c p3
317.03 502.13 0.43 c p3
317.18 500.11 0.43 c p3
317.32 501.73 0.43 c p3
317.47 500.71 0.43 c p3
317.61 501.32 0.43 c p3
317.76 501.32 0.43 c p3
317.91 501.32 0.43 c p3
318.05 502.34 0.43 c p3
318.20 501.53 0.43 c p3
318.34 500.92 0.43 c p3
318.49 501.73 0.43 c p3
318.63 501.93 0.43 c p3
318.78 502.34 0.43 c p3
318.92 501.73 0.43 c p3
319.07 502.74 0.43 c p3
319.22 501.32 0.43 c p3
319.36 501.53 0.43 c p3
319.51 500.31 0.43 c p3
319.65 501.32 0.43 c p3
319.80 502.13 0.43 c p3
319.94 501.53 0.43 c p3
320.09 501.93 0.43 c p3
320.23 501.53 0.43 c p3
320.38 501.53 0.43 c p3
320.53 501.73 0.43 c p3
320.67 502.74 0.43 c p3
320.82 501.73 0.43 c p3
320.96 502.34 0.43 c p3
321.11 501.32 0.43 c p3
321.25 502.74 0.43 c p3
321.40 501.53 0.43 c p3
321.54 500.71 0.43 c p3
321.69 501.93 0.43 c p3
321.84 500.92 0.43 c p3
321.98 502.34 0.43 c p3
322.13 501.73 0.43 c p3
322.27 502.13 0.43 c p3
322.42 501.93 0.43 c p3
322.56 502.13 0.43 c p3
322.71 500.51 0.43 c p3
322.85 501.53 0.43 c p3
323.00 501.53 0.43 c p3
323.15 502.74 0.43 c p3
323.29 501.73 0.43 c p3
323.44 501.53 0.43 c p3
323.58 502.34 0.43 c p3
323.73 502.13 0.43 c p3
323.87 502.54 0.43 c p3
324.02 502.74 0.43 c p3
324.17 502.13 0.43 c p3
324.31 502.54 0.43 c p3
324.46 501.93 0.43 c p3
324.60 502.54 0.43 c p3
324.75 502.34 0.43 c p3
324.89 502.74 0.43 c p3
325.04 502.54 0.43 c p3
325.18 502.74 0.43 c p3
325.33 501.53 0.43 c p3
325.48 502.54 0.43 c p3
325.62 501.73 0.43 c p3
325.77 503.55 0.43 c p3
325.91 502.13 0.43 c p3
326.06 501.93 0.43 c p3
326.20 501.93 0.43 c p3
326.35 502.74 0.43 c p3
326.49 502.54 0.43 c p3
326.64 501.73 0.43 c p3
326.79 502.13 0.43 c p3
326.93 502.54 0.43 c p3
327.08 502.34 0.43 c p3
327.22 502.34 0.43 c p3
327.37 502.34 0.43 c p3
327.51 502.54 0.43 c p3
327.66 502.54 0.43 c p3
327.80 501.93 0.43 c p3
327.95 503.15 0.43 c p3
328.10 501.93 0.43 c p3
328.24 502.34 0.43 c p3
328.39 501.93 0.43 c p3
328.53 502.74 0.43 c p3
328.68 502.34 0.43 c p3
328.82 503.15 0.43 c p3
328.97 502.54 0.43 c p3
329.12 502.13 0.43 c p3
329.26 502.54 0.43 c p3
329.41 502.54 0.43 c p3
329.55 501.32 0.43 c p3
329.70 503.35 0.43 c p3
329.84 502.54 0.43 c p3
329.99 502.54 0.43 c p3
330.13 503.15 0.43 c p3
330.28 502.34 0.43 c p3
330.43 503.35 0.43 c p3
330.57 502.54 0.43 c p3
330.72 502.13 0.43 c p3
330.86 501.93 0.43 c p3
331.01 503.76 0.43 c p3
331.15 503.55 0.43 c p3
331.30 503.55 0.43 c p3
331.44 502.13 0.43 c p3
331.59 504.53 0.43 c p3
331.74 502.74 0.43 c p3
331.88 502.94 0.43 c p3
332.03 502.74 0.43 c p3
332.17 502.54 0.43 c p3
332.32 503.15 0.43 c p3
332.46 502.94 0.43 c p3
332.61 502.54 0.43 c p3
332.75 503.55 0.43 c p3
332.90 503.76 0.43 c p3
333.05 502.34 0.43 c p3
333.19 503.15 0.43 c p3
333.34 503.35 0.43 c p3
333.48 503.96 0.43 c p3
333.63 503.15 0.43 c p3
333.77 502.34 0.43 c p3
333.92 502.94 0.43 c p3
334.07 503.96 0.43 c p3
334.21 504.13 0.43 c p3
334.36 504.13 0.43 c p3
334.50 503.35 0.43 c p3
334.65 504.53 0.43 c p3
334.79 503.55 0.43 c p3
334.94 502.54 0.43 c p3
335.08 504.73 0.43 c p3
335.23 503.55 0.43 c p3
335.38 502.74 0.43 c p3
335.52 501.53 0.43 c p3
335.67 503.96 0.43 c p3
335.81 504.13 0.43 c p3
335.96 503.35 0.43 c p3
336.10 502.54 0.43 c p3
336.25 502.54 0.43 c p3
336.39 503.55 0.43 c p3
336.54 503.55 0.43 c p3
336.69 504.53 0.43 c p3
336.83 503.76 0.43 c p3
336.98 502.34 0.43 c p3
337.12 504.33 0.43 c p3
337.27 504.33 0.43 c p3
337.41 503.76 0.43 c p3
337.56 503.96 0.43 c p3
337.70 504.53 0.43 c p3
337.85 503.55 0.43 c p3
338.00 502.94 0.43 c p3
338.14 502.94 0.43 c p3
338.29 504.13 0.43 c p3
338.43 503.76 0.43 c p3
338.58 503.96 0.43 c p3
338.72 504.33 0.43 c p3
338.87 503.96 0.43 c p3
339.02 504.13 0.43 c p3
339.16 504.13 0.43 c p3
339.31 504.73 0.43 c p3
339.45 503.96 0.43 c p3
339.60 504.13 0.43 c p3
339.74 503.96 0.43 c p3
339.89 504.73 0.43 c p3
340.03 503.96 0.43 c p3
340.18 503.96 0.43 c p3
340.33 504.33 0.43 c p3
340.47 503.55 0.43 c p3
340.62 503.55 0.43 c p3
340.76 504.33 0.43 c p3
340.91 503.96 0.43 c p3
341.05 503.96 0.43 c p3
341.20 504.33 0.43 c p3
341.34 503.96 0.43 c p3
341.49 505.55 0.43 c p3
341.64 504.13 0.43 c p3
341.78 503.55 0.43 c p3
341.93 503.55 0.43 c p3
342.07 504.33 0.43 c p3
342.22 504.33 0.43 c p3
342.36 503.96 0.43 c p3
342.51 505.14 0.43 c p3
342.65 504.33 0.43 c p3
342.80 503.76 0.43 c p3
342.95 502.94 0.43 c p3
343.09 504.53 0.43 c p3
343.24 504.53 0.43 c p3
343.38 504.73 0.43 c p3
343.53 504.13 0.43 c p3
343.67 504.53 0.43 c p3
343.82 504.13 0.43 c p3
343.97 504.73 0.43 c p3
344.11 504.33 0.43 c p3
344.26 504.73 0.43 c p3
344.40 504.53 0.43 c p3
344.55 504.94 0.43 c p3
344.69 505.75 0.43 c p3
344.84 505.34 0.43 c p3
344.98 504.13 0.43 c p3
345.13 503.96 0.43 c p3
345.28 504.33 0.43 c p3
345.42 504.73 0.43 c p3
345.57 503.55 0.43 c p3
345.71 503.55 0.43 c p3
345.86 504.73 0.43 c p3
346.00 506.15 0.43 c p3
346.15 504.13 0.43 c p3
346.29 504.13 0.43 c p3
346.44 504.33 0.43 c p3
346.59 504.13 0.43 c p3
346.73 505.14 0.43 c p3
346.88 504.94 0.43 c p3
347.02 504.73 0.43 c p3
347.17 505.34 0.43 c p3
347.31 504.73 0.43 c p3
347.46 504.33 0.43 c p3
347.60 505.34 0.43 c p3
347.75 504.73 0.43 c p3
347.90 505.34 0.43 c p3
348.04 503.96 0.43 c p3
348.19 504.73 0.43 c p3
348.33 504.73 0.43 c p3
348.48 504.13 0.43 c p3
348.62 504.94 0.43 c p3
348.77 505.14 0.43 c p3
348.92 504.73 0.43 c p3
349.06 505.14 0.43 c p3
349.21 504.53 0.43 c p3
349.35 504.13 0.43 c p3
349.50 504.33 0.43 c p3
349.64 504.33 0.43 c p3
349.79 504.94 0.43 c p3
349.93 504.73 0.43 c p3
350.08 505.14 0.43 c p3
350.23 504.73 0.43 c p3
350.37 505.34 0.43 c p3
350.52 505.95 0.43 c p3
350.66 505.55 0.43 c p3
350.81 503.76 0.43 c p3
350.95 504.53 0.43 c p3
351.10 505.14 0.43 c p3
351.24 504.73 0.43 c p3
351.39 505.34 0.43 c p3
351.54 504.94 0.43 c p3
351.68 505.34 0.43 c p3
351.83 505.55 0.43 c p3
351.97 504.33 0.43 c p3
352.12 504.94 0.43 c p3
352.26 504.53 0.43 c p3
352.41 506.36 0.43 c p3
352.55 505.75 0.43 c p3
352.70 505.14 0.43 c p3
352.85 506.36 0.43 c p3
352.99 505.75 0.43 c p3
353.14 504.94 0.43 c p3
353.28 504.94 0.43 c p3
353.43 505.14 0.43 c p3
353.57 505.14 0.43 c p3
353.72 505.75 0.43 c p3
353.86 504.33 0.43 c p3
354.01 503.76 0.43 c p3
354.16 504.33 0.43 c p3
354.30 505.14 0.43 c p3
354.45 505.34 0.43 c p3
354.59 504.73 0.43 c p3
354.74 505.34 0.43 c p3
354.88 505.34 0.43 c p3
355.03 505.75 0.43 c p3
355.18 504.94 0.43 c p3
355.32 505.14 0.43 c p3
355.47 506.36 0.43 c p3
355.61 505.95 0.43 c p3
355.76 506.15 0.43 c p3
355.90 505.14 0.43 c p3
356.05 505.34 0.43 c p3
356.19 505.75 0.43 c p3
356.34 506.15 0.43 c p3
356.49 504.73 0.43 c p3
356.63 504.53 0.43 c p3
356.78 506.36 0.43 c p3
356.92 505.95 0.43 c p3
357.07 506.15 0.43 c p3
357.21 505.55 0.43 c p3
357.36 505.55 0.43 c p3
357.50 506.36 0.43 c p3
357.65 506.36 0.43 c p3
357.80 505.14 0.43 c p3
357.94 505.95 0.43 c p3
358.09 505.55 0.43 c p3
358.23 505.75 0.43 c p3
358.38 505.55 0.43 c p3
358.52 505.55 0.43 c p3
358.67 505.75 0.43 c p3
358.81 505.55 0.43 c p3
358.96 505.75 0.43 c p3
359.11 505.95 0.43 c p3
359.25 506.36 0.43 c p3
359.40 506.36 0.43 c p3
359.54 504.94 0.43 c p3
359.69 504.73 0.43 c p3
359.83 504.73 0.43 c p3
359.98 506.36 0.43 c p3
360.13 505.14 0.43 c p3
360.27 505.34 0.43 c p3
360.42 504.13 0.43 c p3
360.56 507.78 0.43 c p3
360.71 506.36 0.43 c p3
360.85 506.36 0.43 c p3
361.00 505.95 0.43 c p3
361.14 506.36 0.43 c p3
361.29 505.75 0.43 c p3
361.44 505.55 0.43 c p3
361.58 504.94 0.43 c p3
361.73 505.75 0.43 c p3
361.87 505.34 0.43 c p3
362.02 507.17 0.43 c p3
362.16 505.34 0.43 c p3
362.31 506.56 0.43 c p3
362.45 505.95 0.43 c p3
362.60 505.14 0.43 c p3
362.75 505.14 0.43 c p3
362.89 505.55 0.43 c p3
363.04 506.56 0.43 c p3
363.18 506.15 0.43 c p3
363.33 505.55 0.43 c p3
363.47 505.34 0.43 c p3
363.62 504.73 0.43 c p3
363.76 505.75 0.43 c p3
363.91 505.75 0.43 c p3
364.06 505.34 0.43 c p3
364.20 505.75 0.43 c p3
364.35 506.97 0.43 c p3
364.49 505.55 0.43 c p3
364.64 504.53 0.43 c p3
364.78 504.53 0.43 c p3
364.93 506.76 0.43 c p3
365.08 505.75 0.43 c p3
365.22 506.76 0.43 c p3
365.37 506.36 0.43 c p3
365.51 506.15 0.43 c p3
365.66 506.76 0.43 c p3
365.80 506.76 0.43 c p3
365.95 504.53 0.43 c p3
366.09 506.76 0.43 c p3
366.24 506.56 0.43 c p3
366.39 506.15 0.43 c p3
366.53 506.56 0.43 c p3
366.68 505.34 0.43 c p3
366.82 506.56 0.43 c p3
366.97 505.75 0.43 c p3
367.11 504.73 0.43 c p3
367.26 506.15 0.43 c p3
367.40 506.76 0.43 c p3
367.55 506.36 0.43 c p3
367.70 505.34 0.43 c p3
367.84 506.36 0.43 c p3
367.99 506.15 0.43 c p3
368.13 505.95 0.43 c p3
368.28 504.94 0.43 c p3
368.42 504.94 0.43 c p3
368.57 505.95 0.43 c p3
368.71 506.97 0.43 c p3
368.86 505.95 0.43 c p3
369.01 506.15 0.43 c p3
369.15 506.15 0.43 c p3
369.30 506.76 0.43 c p3
369.44 504.94 0.43 c p3
369.59 505.95 0.43 c p3
369.73 506.56 0.43 c p3
369.88 506.36 0.43 c p3
370.03 506.97 0.43 c p3
370.17 505.95 0.43 c p3
370.32 506.15 0.43 c p3
370.46 505.75 0.43 c p3
370.61 506.76 0.43 c p3
370.75 504.53 0.43 c p3
370.90 505.95 0.43 c p3
371.04 505.75 0.43 c p3
371.19 505.75 0.43 c p3
371.34 506.97 0.43 c p3
371.48 505.34 0.43 c p3
371.63 505.55 0.43 c p3
371.77 506.56 0.43 c p3
371.92 505.14 0.43 c p3
372.06 506.56 0.43 c p3
372.21 507.17 0.43 c p3
372.35 507.37 0.43 c p3
372.50 504.73 0.43 c p3
372.65 506.76 0.43 c p3
372.79 507.78 0.43 c p3
372.94 506.56 0.43 c p3
373.08 506.15 0.43 c p3
373.23 506.56 0.43 c p3
373.37 506.15 0.43 c p3
373.52 506.76 0.43 c p3
373.66 505.55 0.43 c p3
373.81 506.15 0.43 c p3
373.96 506.97 0.43 c p3
374.10 505.55 0.43 c p3
374.25 505.34 0.43 c p3
374.39 505.14 0.43 c p3
374.54 505.14 0.43 c p3
374.68 506.15 0.43 c p3
374.83 504.73 0.43 c p3
374.98 506.97 0.43 c p3
375.12 506.15 0.43 c p3
375.27 504.73 0.43 c p3
375.41 506.15 0.43 c p3
375.56 505.34 0.43 c p3
375.70 506.36 0.43 c p3
375.85 506.15 0.43 c p3
375.99 506.97 0.43 c p3
376.14 506.36 0.43 c p3
376.29 505.75 0.43 c p3
376.43 505.95 0.43 c p3
376.58 507.37 0.43 c p3
376.72 506.36 0.43 c p3
376.87 505.75 0.43 c p3
377.01 505.75 0.43 c p3
377.16 505.55 0.43 c p3
377.30 506.56 0.43 c p3
377.45 505.34 0.43 c p3
377.60 505.55 0.43 c p3
377.74 505.34 0.43 c p3
377.89 505.14 0.43 c p3
378.03 505.95 0.43 c p3
378.18 506.36 0.43 c p3
378.32 505.34 0.43 c p3
378.47 506.76 0.43 c p3
378.61 506.15 0.43 c p3
378.76 506.97 0.43 c p3
378.91 505.55 0.43 c p3
379.05 506.15 0.43 c p3
379.20 506.15 0.43 c p3
379.34 505.75 0.43 c p3
379.49 506.36 0.43 c p3
379.63 505.14 0.43 c p3
379.78 506.97 0.43 c p3
379.93 506.36 0.43 c p3
380.07 505.34 0.43 c p3
380.22 505.95 0.43 c p3
380.36 505.34 0.43 c p3
380.51 505.75 0.43 c p3
380.65 506.76 0.43 c p3
380.80 507.37 0.43 c p3
380.94 505.14 0.43 c p3
381.09 505.75 0.43 c p3
381.24 505.95 0.43 c p3
381.38 505.95 0.43 c p3
381.53 507.57 0.43 c p3
381.67 506.36 0.43 c p3
381.82 507.78 0.43 c p3
381.96 506.15 0.43 c p3
382.11 506.56 0.43 c p3
382.25 506.97 0.43 c p3
382.40 506.15 0.43 c p3
0.00 0.00 432.00 576.00 cl
0 0 0 srgb
0.75 setlinewidth
[] 0 setdash
1 setlinecap
1 setlinejoin
10.00 setmiterlimit
np
236.96 345.60 m
145.59 0 l
o
np
236.96 345.60 m
0 -5.76 l
o
np
266.08 345.60 m
0 -5.76 l
o
np
295.19 345.60 m
0 -5.76 l
o
np
324.31 345.60 m
0 -5.76 l
o
np
353.43 345.60 m
0 -5.76 l
o
np
382.55 345.60 m
0 -5.76 l
o
/Font1 findfont 10 s
236.96 329.47 (0) .5 0 t
266.08 329.47 (500) .5 0 t
295.19 329.47 (1000) .5 0 t
353.43 329.47 (2000) .5 0 t
np
216.00 352.00 m
0 166.08 l
o
np
216.00 352.00 m
-5.76 0 l
o
np
216.00 379.68 m
-5.76 0 l
o
np
216.00 407.36 m
-5.76 0 l
o
np
216.00 435.04 m
-5.76 0 l
o
np
216.00 462.72 m
-5.76 0 l
o
np
216.00 490.40 m
-5.76 0 l
o
np
216.00 518.08 m
-5.76 0 l
o
209.09 348.41 (0.00) 1 0 t
209.09 376.09 (0.05) 1 0 t
209.09 403.77 (0.10) 1 0 t
209.09 431.45 (0.15) 1 0 t
209.09 459.13 (0.20) 1 0 t
209.09 486.81 (0.25) 1 0 t
209.09 514.49 (0.30) 1 0 t
np
216.00 345.60 m
172.80 0 l
0 172.80 l
-172.80 0 l
0 -172.80 l
o
0.00 0.00 432.00 576.00 cl
/Font1 findfont 10 s
0 0 0 srgb
302.40 313.34 (Time / ms \(total\)) .5 0 t
190.66 432.00 (U / V) .5 90 t
216.00 345.60 388.80 518.40 cl
0 0 0 srgb
0.38 setlinewidth
[ 1.13 1.88] 0 setdash
1 setlinecap
1 setlinejoin
10.00 setmiterlimit
np
222.40 345.60 m
0 172.80 l
o
np
235.50 345.60 m
0 172.80 l
o
np
237.83 345.60 m
0 172.80 l
o
np
357.07 345.60 m
0 172.80 l
o
86.40 57.60 388.80 288.00 cl
1 0 0 srgb
1.50 setlinewidth
[] 0 setdash
1 setlinecap
1 setlinejoin
10.00 setmiterlimit
np
97.60 279.47 m
1.41 -4.05 l
1.40 -3.97 l
1.41 -3.89 l
1.41 -3.80 l
1.41 -3.73 l
1.40 -3.65 l
1.41 -3.58 l
1.41 -3.50 l
1.40 -3.43 l
1.41 -3.37 l
1.41 -3.29 l
1.40 -3.22 l
1.41 -3.16 l
1.41 -3.10 l
1.41 -3.03 l
1.40 -2.97 l
1.41 -2.90 l
1.41 -2.85 l
1.40 -2.79 l
1.41 -2.73 l
1.41 -2.68 l
1.40 -2.62 l
1.41 -2.57 l
1.41 -2.52 l
1.41 -2.46 l
1.40 -2.41 l
1.41 -2.37 l
1.41 -2.31 l
1.40 -2.27 l
1.41 -2.22 l
1.41 -2.18 l
1.41 -2.13 l
1.40 -2.09 l
1.41 -2.04 l
1.41 -2.00 l
1.40 -1.97 l
1.41 -1.92 l
1.41 -1.88 l
1.40 -1.84 l
1.41 -1.81 l
1.41 -1.77 l
1.41 -1.73 l
1.40 -1.70 l
1.41 -1.66 l
1.41 -1.63 l
1.40 -1.59 l
1.41 -1.56 l
1.41 -1.53 l
1.40 -1.50 l
1.41 -1.47 l
1.41 -1.44 l
1.41 -1.41 l
1.40 -1.38 l
1.41 -1.35 l
1.41 -1.32 l
1.40 -1.30 l
1.41 -1.27 l
1.41 -1.24 l
1.41 -1.22 l
1.40 -1.19 l
1.41 -1.17 l
1.41 -1.15 l
1.40 -1.12 l
1.41 -1.10 l
1.41 -1.07 l
1.40 -1.06 l
1.41 -1.03 l
1.41 -1.01 l
1.41 -0.99 l
1.40 -0.97 l
1.41 -0.95 l
1.41 -0.93 l
1.40 -0.92 l
1.41 -0.89 l
1.41 -0.87 l
1.40 -0.86 l
1.41 -0.84 l
1.41 -0.82 l
1.41 -0.81 l
1.40 -0.78 l
1.41 -0.78 l
1.41 -0.75 l
1.40 -0.74 l
1.41 -0.73 l
1.41 -0.71 l
1.41 -0.70 l
1.40 -0.68 l
1.41 -0.67 l
1.41 -0.65 l
1.40 -0.64 l
1.41 -0.63 l
1.41 -0.62 l
1.40 -0.60 l
1.41 -0.59 l
1.41 -0.58 l
1.41 -0.56 l
1.40 -0.56 l
1.41 -0.54 l
1.41 -0.53 l
238.30 106.78 lineto
1.41 -0.51 l
1.41 -0.50 l
1.40 -0.49 l
1.41 -0.48 l
1.41 -0.47 l
1.41 -0.46 l
1.40 -0.45 l
1.41 -0.44 l
1.41 -0.43 l
1.40 -0.42 l
1.41 -0.42 l
1.41 -0.41 l
1.40 -0.39 l
1.41 -0.39 l
1.41 -0.39 l
1.41 -0.37 l
1.40 -0.37 l
1.41 -0.36 l
1.41 -0.35 l
1.40 -0.34 l
1.41 -0.34 l
1.41 -0.33 l
1.41 -0.32 l
1.40 -0.32 l
1.41 -0.31 l
1.41 -0.30 l
1.40 -0.30 l
1.41 -0.29 l
1.41 -0.29 l
1.40 -0.28 l
1.41 -0.27 l
1.41 -0.27 l
1.41 -0.27 l
1.40 -0.25 l
1.41 -0.26 l
1.41 -0.24 l
1.40 -0.25 l
1.41 -0.23 l
1.41 -0.24 l
1.40 -0.22 l
1.41 -0.23 l
1.41 -0.21 l
1.41 -0.22 l
1.40 -0.21 l
1.41 -0.20 l
1.41 -0.20 l
1.40 -0.20 l
1.41 -0.19 l
1.41 -0.19 l
1.41 -0.19 l
1.40 -0.18 l
1.41 -0.18 l
1.41 -0.17 l
1.40 -0.17 l
1.41 -0.17 l
1.41 -0.16 l
1.40 -0.16 l
1.41 -0.16 l
1.41 -0.15 l
1.41 -0.15 l
1.40 -0.15 l
1.41 -0.14 l
1.41 -0.15 l
1.40 -0.13 l
1.41 -0.14 l
1.41 -0.13 l
1.40 -0.13 l
1.41 -0.13 l
1.41 -0.12 l
1.41 -0.13 l
1.40 -0.12 l
1.41 -0.11 l
1.41 -0.12 l
1.40 -0.11 l
1.41 -0.11 l
1.41 -0.11 l
1.41 -0.11 l
1.40 -0.10 l
1.41 -0.10 l
1.41 -0.10 l
1.40 -0.10 l
1.41 -0.09 l
1.41 -0.10 l
1.40 -0.09 l
1.41 -0.09 l
1.41 -0.08 l
1.41 -0.09 l
1.40 -0.09 l
1.41 -0.08 l
1.41 -0.08 l
1.40 -0.08 l
1.41 -0.08 l
1.41 -0.07 l
1.40 -0.08 l
1.41 -0.07 l
1.41 -0.07 l
1.41 -0.07 l
1.40 -0.07 l
1.41 -0.07 l
o
0.00 0.00 432.00 576.00 cl
0 0 0 srgb
0.75 setlinewidth
[] 0 setdash
1 setlinecap
1 setlinejoin
10.00 setmiterlimit
np
97.60 57.60 m
280.00 0 l
o
np
97.60 57.60 m
0 -5.76 l
o
np
153.60 57.60 m
0 -5.76 l
o
np
209.60 57.60 m
0 -5.76 l
o
np
265.60 57.60 m
0 -5.76 l
o
np
321.60 57.60 m
0 -5.76 l
o
np
377.60 57.60 m
0 -5.76 l
o
/Font1 findfont 10 s
97.60 41.47 (0) .5 0 t
153.60 41.47 (500) .5 0 t
209.60 41.47 (1000) .5 0 t
265.60 41.47 (1500) .5 0 t
321.60 41.47 (2000) .5 0 t
377.60 41.47 (2500) .5 0 t
np
86.40 66.13 m
0 210.41 l
o
np
86.40 66.13 m
-5.76 0 l
o
np
86.40 96.19 m
-5.76 0 l
o
np
86.40 126.25 m
-5.76 0 l
o
np
86.40 156.31 m
-5.76 0 l
o
np
86.40 186.36 m
-5.76 0 l
o
np
86.40 216.42 m
-5.76 0 l
o
np
86.40 246.48 m
-5.76 0 l
o
np
86.40 276.54 m
-5.76 0 l
o
79.49 62.54 (0.00) 1 0 t
79.49 92.60 (0.02) 1 0 t
79.49 122.66 (0.04) 1 0 t
79.49 152.72 (0.06) 1 0 t
79.49 182.77 (0.08) 1 0 t
79.49 212.83 (0.10) 1 0 t
79.49 242.89 (0.12) 1 0 t
79.49 272.95 (0.14) 1 0 t
np
86.40 57.60 m
302.40 0 l
0 230.40 l
-302.40 0 l
0 -230.40 l
o
0.00 0.00 432.00 576.00 cl
/Font1 findfont 10 s
0 0 0 srgb
237.60 13.82 (Time / ms \(after pulse\)) .5 0 t
49.54 172.80 (Absorbance A) .5 90 t
86.40 57.60 388.80 288.00 cl
/bg { 1 1 1 srgb } def
0 0 0 srgb
0.75 setlinewidth
[] 0 setdash
1 setlinecap
1 setlinejoin
10.00 setmiterlimit
99.56 297.82 0.65 c p3
99.84 293.06 0.65 c p3
100.12 279.18 0.65 c p3
100.40 278.02 0.65 c p3
100.68 276.87 0.65 c p3
100.96 273.41 0.65 c p3
101.24 283.64 0.65 c p3
101.52 280.15 0.65 c p3
101.80 272.26 0.65 c p3
102.08 274.56 0.65 c p3
102.36 280.15 0.65 c p3
102.64 266.54 0.65 c p3
102.92 269.96 0.65 c p3
103.20 267.68 0.65 c p3
103.48 260.88 0.65 c p3
103.76 273.41 0.65 c p3
104.04 260.88 0.65 c p3
104.32 260.88 0.65 c p3
104.60 262.00 0.65 c p3
104.88 266.54 0.65 c p3
105.16 260.88 0.65 c p3
105.44 256.38 0.65 c p3
105.72 248.76 0.65 c p3
106.00 259.75 0.65 c p3
106.28 257.50 0.65 c p3
106.56 258.62 0.65 c p3
106.84 254.14 0.65 c p3
107.12 255.26 0.65 c p3
107.40 257.50 0.65 c p3
107.68 247.66 0.65 c p3
107.96 247.66 0.65 c p3
108.24 246.55 0.65 c p3
108.52 244.35 0.65 c p3
108.80 248.76 0.65 c p3
109.08 242.15 0.65 c p3
109.36 250.80 0.65 c p3
109.64 250.80 0.65 c p3
109.92 238.87 0.65 c p3
110.20 247.66 0.65 c p3
110.48 243.25 0.65 c p3
110.76 244.35 0.65 c p3
111.04 238.87 0.65 c p3
111.32 243.25 0.65 c p3
111.60 242.15 0.65 c p3
111.88 236.70 0.65 c p3
112.16 241.06 0.65 c p3
112.44 236.70 0.65 c p3
112.72 236.70 0.65 c p3
113.00 238.87 0.65 c p3
113.28 232.36 0.65 c p3
113.56 244.35 0.65 c p3
113.84 233.44 0.65 c p3
114.12 238.87 0.65 c p3
114.40 232.36 0.65 c p3
114.68 233.44 0.65 c p3
114.96 236.70 0.65 c p3
115.24 231.28 0.65 c p3
115.52 236.70 0.65 c p3
115.80 229.13 0.65 c p3
116.08 226.98 0.65 c p3
116.36 229.13 0.65 c p3
116.64 221.65 0.65 c p3
116.92 235.61 0.65 c p3
117.20 223.78 0.65 c p3
117.48 231.28 0.65 c p3
117.76 224.84 0.65 c p3
118.04 230.20 0.65 c p3
118.32 225.91 0.65 c p3
118.60 218.65 0.65 c p3
118.88 224.84 0.65 c p3
119.16 224.84 0.65 c p3
119.44 220.59 0.65 c p3
119.72 229.13 0.65 c p3
120.00 221.65 0.65 c p3
120.28 220.59 0.65 c p3
120.56 219.70 0.65 c p3
120.84 217.59 0.65 c p3
121.12 221.65 0.65 c p3
121.40 216.53 0.65 c p3
121.68 220.59 0.65 c p3
121.96 217.59 0.65 c p3
122.24 213.38 0.65 c p3
122.52 219.70 0.65 c p3
122.80 214.43 0.65 c p3
123.08 216.53 0.65 c p3
123.36 216.53 0.65 c p3
123.64 213.38 0.65 c p3
123.92 216.53 0.65 c p3
124.20 212.33 0.65 c p3
124.48 215.48 0.65 c p3
124.76 207.11 0.65 c p3
125.04 213.38 0.65 c p3
125.32 212.33 0.65 c p3
125.60 207.11 0.65 c p3
125.88 206.08 0.65 c p3
126.16 207.11 0.65 c p3
126.44 209.20 0.65 c p3
126.72 213.38 0.65 c p3
127.00 206.08 0.65 c p3
127.28 209.20 0.65 c p3
127.56 202.97 0.65 c p3
127.84 206.08 0.65 c p3
128.12 208.15 0.65 c p3
128.40 199.88 0.65 c p3
128.68 210.24 0.65 c p3
128.96 205.04 0.65 c p3
129.24 206.08 0.65 c p3
129.52 201.94 0.65 c p3
129.80 195.78 0.65 c p3
130.08 209.20 0.65 c p3
130.36 201.94 0.65 c p3
130.64 201.94 0.65 c p3
130.92 202.97 0.65 c p3
131.20 198.86 0.65 c p3
131.48 210.24 0.65 c p3
131.76 191.88 0.65 c p3
132.04 207.11 0.65 c p3
132.32 193.75 0.65 c p3
132.60 199.88 0.65 c p3
132.88 205.04 0.65 c p3
133.16 194.76 0.65 c p3
133.44 200.91 0.65 c p3
133.72 186.82 0.65 c p3
134.00 197.83 0.65 c p3
134.28 200.91 0.65 c p3
134.56 188.84 0.65 c p3
134.84 196.80 0.65 c p3
135.12 191.88 0.65 c p3
135.40 187.83 0.65 c p3
135.68 194.76 0.65 c p3
135.96 191.88 0.65 c p3
136.24 194.76 0.65 c p3
136.52 187.83 0.65 c p3
136.80 194.76 0.65 c p3
137.08 191.88 0.65 c p3
137.36 187.83 0.65 c p3
137.64 192.73 0.65 c p3
137.92 188.84 0.65 c p3
138.20 189.85 0.65 c p3
138.48 189.85 0.65 c p3
138.76 185.82 0.65 c p3
139.04 188.84 0.65 c p3
139.32 180.81 0.65 c p3
139.60 182.81 0.65 c p3
139.88 183.81 0.65 c p3
140.16 183.81 0.65 c p3
140.44 191.88 0.65 c p3
140.72 179.81 0.65 c p3
141.00 181.81 0.65 c p3
141.28 182.81 0.65 c p3
141.56 184.81 0.65 c p3
141.84 186.82 0.65 c p3
142.12 179.81 0.65 c p3
142.40 183.81 0.65 c p3
142.68 182.81 0.65 c p3
142.96 181.81 0.65 c p3
143.24 179.81 0.65 c p3
143.52 179.81 0.65 c p3
143.80 182.81 0.65 c p3
144.08 181.81 0.65 c p3
144.36 176.83 0.65 c p3
144.64 181.81 0.65 c p3
144.92 176.83 0.65 c p3
145.20 183.81 0.65 c p3
145.48 181.81 0.65 c p3
145.76 178.82 0.65 c p3
146.04 178.82 0.65 c p3
146.32 174.85 0.65 c p3
146.60 176.83 0.65 c p3
146.88 173.86 0.65 c p3
147.16 175.84 0.65 c p3
147.44 178.82 0.65 c p3
147.72 170.91 0.65 c p3
148.00 177.82 0.65 c p3
148.28 176.83 0.65 c p3
148.56 175.84 0.65 c p3
148.84 180.81 0.65 c p3
149.12 175.84 0.65 c p3
149.40 170.91 0.65 c p3
149.68 171.89 0.65 c p3
149.96 168.94 0.65 c p3
150.24 181.81 0.65 c p3
150.52 169.92 0.65 c p3
150.80 166.01 0.65 c p3
151.08 178.82 0.65 c p3
151.36 169.92 0.65 c p3
151.64 173.86 0.65 c p3
151.92 170.91 0.65 c p3
152.20 166.01 0.65 c p3
152.48 169.92 0.65 c p3
152.76 167.96 0.65 c p3
153.04 169.92 0.65 c p3
153.32 172.87 0.65 c p3
153.60 164.22 0.65 c p3
153.88 170.91 0.65 c p3
154.16 166.01 0.65 c p3
154.44 165.20 0.65 c p3
154.72 163.25 0.65 c p3
155.00 160.34 0.65 c p3
155.28 171.89 0.65 c p3
155.56 166.01 0.65 c p3
155.84 163.25 0.65 c p3
156.12 165.20 0.65 c p3
156.40 156.48 0.65 c p3
156.68 163.25 0.65 c p3
156.96 165.20 0.65 c p3
157.24 164.22 0.65 c p3
157.52 168.94 0.65 c p3
157.80 158.41 0.65 c p3
158.08 163.25 0.65 c p3
158.36 164.22 0.65 c p3
158.64 166.01 0.65 c p3
158.92 162.28 0.65 c p3
159.20 161.31 0.65 c p3
159.48 156.48 0.65 c p3
159.76 162.28 0.65 c p3
160.04 156.48 0.65 c p3
160.32 164.22 0.65 c p3
160.60 161.31 0.65 c p3
160.88 155.52 0.65 c p3
161.16 164.22 0.65 c p3
161.44 159.38 0.65 c p3
161.72 163.25 0.65 c p3
162.00 160.34 0.65 c p3
162.28 157.45 0.65 c p3
162.56 164.22 0.65 c p3
162.84 155.52 0.65 c p3
163.12 157.45 0.65 c p3
163.40 157.45 0.65 c p3
163.68 154.56 0.65 c p3
163.96 158.41 0.65 c p3
164.24 156.48 0.65 c p3
164.52 152.65 0.65 c p3
164.80 157.45 0.65 c p3
165.08 150.74 0.65 c p3
165.36 156.48 0.65 c p3
165.64 152.65 0.65 c p3
165.92 153.61 0.65 c p3
166.20 157.45 0.65 c p3
166.48 147.89 0.65 c p3
166.76 156.48 0.65 c p3
167.04 150.74 0.65 c p3
167.32 148.84 0.65 c p3
167.60 155.52 0.65 c p3
167.88 152.65 0.65 c p3
168.16 147.89 0.65 c p3
168.44 158.41 0.65 c p3
168.72 146.94 0.65 c p3
169.00 152.65 0.65 c p3
169.28 147.89 0.65 c p3
169.56 150.74 0.65 c p3
169.84 151.69 0.65 c p3
170.12 145.99 0.65 c p3
170.40 155.52 0.65 c p3
170.68 148.84 0.65 c p3
170.96 150.74 0.65 c p3
171.24 148.84 0.65 c p3
171.52 144.10 0.65 c p3
171.80 152.65 0.65 c p3
172.08 146.94 0.65 c p3
172.36 150.74 0.65 c p3
172.64 150.74 0.65 c p3
172.92 141.28 0.65 c p3
173.20 145.99 0.65 c p3
173.48 145.05 0.65 c p3
173.76 145.05 0.65 c p3
174.04 145.99 0.65 c p3
174.32 145.05 0.65 c p3
174.60 145.99 0.65 c p3
174.88 142.22 0.65 c p3
175.16 145.05 0.65 c p3
175.44 149.79 0.65 c p3
175.72 143.16 0.65 c p3
176.00 143.16 0.65 c p3
176.28 144.10 0.65 c p3
176.56 141.28 0.65 c p3
176.84 142.22 0.65 c p3
177.12 145.05 0.65 c p3
177.40 144.10 0.65 c p3
177.68 139.56 0.65 c p3
177.96 143.16 0.65 c p3
178.24 144.10 0.65 c p3
178.52 137.69 0.65 c p3
178.80 145.99 0.65 c p3
179.08 137.69 0.65 c p3
179.36 138.62 0.65 c p3
179.64 143.16 0.65 c p3
179.92 139.56 0.65 c p3
180.20 143.16 0.65 c p3
180.48 135.82 0.65 c p3
180.76 138.62 0.65 c p3
181.04 147.89 0.65 c p3
181.32 134.89 0.65 c p3
181.60 144.10 0.65 c p3
181.88 136.76 0.65 c p3
182.16 137.69 0.65 c p3
182.44 140.34 0.65 c p3
182.72 136.76 0.65 c p3
183.00 135.82 0.65 c p3
183.28 135.82 0.65 c p3
183.56 137.69 0.65 c p3
183.84 140.34 0.65 c p3
184.12 134.89 0.65 c p3
184.40 139.56 0.65 c p3
184.68 130.26 0.65 c p3
184.96 135.82 0.65 c p3
185.24 142.22 0.65 c p3
185.52 131.18 0.65 c p3
185.80 133.03 0.65 c p3
186.08 136.76 0.65 c p3
186.36 132.11 0.65 c p3
186.64 138.62 0.65 c p3
186.92 129.33 0.65 c p3
187.20 137.69 0.65 c p3
187.48 137.69 0.65 c p3
187.76 130.26 0.65 c p3
188.04 134.89 0.65 c p3
188.32 130.26 0.65 c p3
188.60 132.11 0.65 c p3
188.88 133.96 0.65 c p3
189.16 135.82 0.65 c p3
189.44 134.89 0.65 c p3
189.72 131.18 0.65 c p3
190.00 133.03 0.65 c p3
190.28 132.11 0.65 c p3
190.56 129.33 0.65 c p3
190.84 132.11 0.65 c p3
191.12 132.11 0.65 c p3
191.40 133.96 0.65 c p3
191.68 137.69 0.65 c p3
191.96 130.26 0.65 c p3
192.24 135.82 0.65 c p3
192.52 131.18 0.65 c p3
192.80 133.03 0.65 c p3
193.08 135.82 0.65 c p3
193.36 129.33 0.65 c p3
193.64 134.89 0.65 c p3
193.92 124.74 0.65 c p3
194.20 121.09 0.65 c p3
194.48 133.03 0.65 c p3
194.76 125.66 0.65 c p3
195.04 127.49 0.65 c p3
195.32 130.26 0.65 c p3
195.60 128.41 0.65 c p3
195.88 133.03 0.65 c p3
196.16 130.26 0.65 c p3
196.44 133.03 0.65 c p3
196.72 122.91 0.65 c p3
197.00 130.26 0.65 c p3
197.28 123.82 0.65 c p3
197.56 124.74 0.65 c p3
197.84 127.49 0.65 c p3
198.12 116.55 0.65 c p3
198.40 133.96 0.65 c p3
198.68 121.09 0.65 c p3
198.96 125.66 0.65 c p3
199.24 125.66 0.65 c p3
199.52 128.41 0.65 c p3
199.80 124.74 0.65 c p3
200.08 126.57 0.65 c p3
200.36 128.41 0.65 c p3
200.64 125.66 0.65 c p3
200.92 129.33 0.65 c p3
201.20 128.41 0.65 c p3
201.48 122.00 0.65 c p3
201.76 128.41 0.65 c p3
202.04 122.91 0.65 c p3
202.32 133.03 0.65 c p3
202.60 124.74 0.65 c p3
202.88 123.82 0.65 c p3
203.16 121.09 0.65 c p3
203.44 123.82 0.65 c p3
203.72 128.41 0.65 c p3
204.00 120.18 0.65 c p3
204.28 122.91 0.65 c p3
204.56 121.09 0.65 c p3
204.84 118.36 0.65 c p3
205.12 124.74 0.65 c p3
205.40 123.82 0.65 c p3
205.68 123.82 0.65 c p3
205.96 122.91 0.65 c p3
206.24 124.74 0.65 c p3
206.52 124.74 0.65 c p3
206.80 123.82 0.65 c p3
207.08 130.26 0.65 c p3
207.36 120.18 0.65 c p3
207.64 124.74 0.65 c p3
207.92 122.91 0.65 c p3
208.20 121.09 0.65 c p3
208.48 122.00 0.65 c p3
208.76 120.18 0.65 c p3
209.04 125.66 0.65 c p3
209.32 116.55 0.65 c p3
209.60 117.45 0.65 c p3
209.88 122.91 0.65 c p3
210.16 123.82 0.65 c p3
210.44 118.36 0.65 c p3
210.72 119.27 0.65 c p3
211.00 122.00 0.65 c p3
211.28 124.74 0.65 c p3
211.56 118.36 0.65 c p3
211.84 124.74 0.65 c p3
212.12 121.09 0.65 c p3
212.40 118.36 0.65 c p3
212.68 122.91 0.65 c p3
212.96 120.18 0.65 c p3
213.24 120.18 0.65 c p3
213.52 118.36 0.65 c p3
213.80 114.89 0.65 c p3
214.08 121.09 0.65 c p3
214.36 122.00 0.65 c p3
214.64 117.45 0.65 c p3
214.92 119.27 0.65 c p3
215.20 115.64 0.65 c p3
215.48 111.29 0.65 c p3
215.76 117.45 0.65 c p3
216.04 118.36 0.65 c p3
216.32 122.91 0.65 c p3
216.60 114.89 0.65 c p3
216.88 115.64 0.65 c p3
217.16 119.27 0.65 c p3
217.44 113.99 0.65 c p3
217.72 118.36 0.65 c p3
218.00 114.89 0.65 c p3
218.28 116.55 0.65 c p3
218.56 113.99 0.65 c p3
218.84 117.45 0.65 c p3
219.12 116.55 0.65 c p3
219.40 117.45 0.65 c p3
219.68 115.64 0.65 c p3
219.96 115.64 0.65 c p3
220.24 113.99 0.65 c p3
220.52 113.99 0.65 c p3
220.80 117.45 0.65 c p3
221.08 113.99 0.65 c p3
221.36 115.64 0.65 c p3
221.64 115.64 0.65 c p3
221.92 114.89 0.65 c p3
222.20 113.99 0.65 c p3
222.48 113.09 0.65 c p3
222.76 116.55 0.65 c p3
223.04 114.89 0.65 c p3
223.32 114.89 0.65 c p3
223.60 115.64 0.65 c p3
223.88 108.61 0.65 c p3
224.16 113.99 0.65 c p3
224.44 113.09 0.65 c p3
224.72 117.45 0.65 c p3
225.00 117.45 0.65 c p3
225.28 114.89 0.65 c p3
225.56 113.09 0.65 c p3
225.84 112.19 0.65 c p3
226.12 113.99 0.65 c p3
226.40 113.09 0.65 c p3
226.68 115.64 0.65 c p3
226.96 112.19 0.65 c p3
227.24 116.55 0.65 c p3
227.52 111.29 0.65 c p3
227.80 118.36 0.65 c p3
228.08 111.29 0.65 c p3
228.36 113.99 0.65 c p3
228.64 110.40 0.65 c p3
228.92 112.19 0.65 c p3
229.20 112.19 0.65 c p3
229.48 109.50 0.65 c p3
229.76 113.09 0.65 c p3
230.04 115.64 0.65 c p3
230.32 112.19 0.65 c p3
230.60 109.50 0.65 c p3
230.88 106.82 0.65 c p3
231.16 114.89 0.65 c p3
231.44 113.99 0.65 c p3
231.72 109.50 0.65 c p3
232.00 109.50 0.65 c p3
232.28 114.89 0.65 c p3
232.56 108.61 0.65 c p3
232.84 108.61 0.65 c p3
233.12 110.40 0.65 c p3
233.40 115.64 0.65 c p3
233.68 113.09 0.65 c p3
233.96 110.40 0.65 c p3
234.24 112.19 0.65 c p3
234.52 110.40 0.65 c p3
234.80 113.99 0.65 c p3
235.08 108.61 0.65 c p3
235.36 109.50 0.65 c p3
235.64 105.04 0.65 c p3
235.92 102.38 0.65 c p3
236.20 109.50 0.65 c p3
236.48 110.40 0.65 c p3
236.76 112.19 0.65 c p3
237.04 107.72 0.65 c p3
237.32 108.61 0.65 c p3
237.60 107.72 0.65 c p3
237.88 115.64 0.65 c p3
238.16 109.50 0.65 c p3
238.44 105.93 0.65 c p3
238.72 109.50 0.65 c p3
239.00 105.04 0.65 c p3
239.28 105.04 0.65 c p3
239.56 109.50 0.65 c p3
239.84 108.61 0.65 c p3
240.12 104.16 0.65 c p3
240.40 105.04 0.65 c p3
240.68 106.82 0.65 c p3
240.96 105.93 0.65 c p3
241.24 111.29 0.65 c p3
241.52 105.93 0.65 c p3
241.80 107.72 0.65 c p3
242.08 107.72 0.65 c p3
242.36 109.50 0.65 c p3
242.64 109.50 0.65 c p3
242.92 105.93 0.65 c p3
243.20 107.72 0.65 c p3
243.48 102.38 0.65 c p3
243.76 104.16 0.65 c p3
244.04 100.62 0.65 c p3
244.32 105.04 0.65 c p3
244.60 98.85 0.65 c p3
244.88 109.50 0.65 c p3
245.16 103.27 0.65 c p3
245.44 107.72 0.65 c p3
245.72 108.61 0.65 c p3
246.00 103.27 0.65 c p3
246.28 104.16 0.65 c p3
246.56 105.04 0.65 c p3
246.84 101.50 0.65 c p3
247.12 100.62 0.65 c p3
247.40 101.50 0.65 c p3
247.68 104.16 0.65 c p3
247.96 103.27 0.65 c p3
248.24 99.73 0.65 c p3
248.52 105.04 0.65 c p3
248.80 105.04 0.65 c p3
249.08 104.16 0.65 c p3
249.36 105.93 0.65 c p3
249.64 107.72 0.65 c p3
249.92 104.16 0.65 c p3
250.20 107.72 0.65 c p3
250.48 104.16 0.65 c p3
250.76 105.93 0.65 c p3
251.04 101.50 0.65 c p3
251.32 104.16 0.65 c p3
251.60 105.93 0.65 c p3
251.88 99.73 0.65 c p3
252.16 108.61 0.65 c p3
252.44 101.50 0.65 c p3
252.72 105.93 0.65 c p3
253.00 103.27 0.65 c p3
253.28 103.27 0.65 c p3
253.56 103.27 0.65 c p3
253.84 98.85 0.65 c p3
254.12 102.38 0.65 c p3
254.40 105.04 0.65 c p3
254.68 101.50 0.65 c p3
254.96 100.62 0.65 c p3
255.24 98.85 0.65 c p3
255.52 101.50 0.65 c p3
255.80 97.09 0.65 c p3
256.08 103.27 0.65 c p3
256.36 102.38 0.65 c p3
256.64 107.72 0.65 c p3
256.92 103.27 0.65 c p3
257.20 99.73 0.65 c p3
257.48 102.38 0.65 c p3
257.76 100.62 0.65 c p3
258.04 102.38 0.65 c p3
258.32 102.38 0.65 c p3
258.60 101.50 0.65 c p3
258.88 97.09 0.65 c p3
259.16 101.50 0.65 c p3
259.44 98.85 0.65 c p3
259.72 103.27 0.65 c p3
260.00 97.09 0.65 c p3
260.28 102.38 0.65 c p3
260.56 105.93 0.65 c p3
260.84 100.62 0.65 c p3
261.12 105.04 0.65 c p3
261.40 98.85 0.65 c p3
261.68 101.50 0.65 c p3
261.96 99.73 0.65 c p3
262.24 100.62 0.65 c p3
262.52 99.73 0.65 c p3
262.80 106.82 0.65 c p3
263.08 102.38 0.65 c p3
263.36 102.38 0.65 c p3
263.64 97.09 0.65 c p3
263.92 101.50 0.65 c p3
264.20 102.38 0.65 c p3
264.48 98.85 0.65 c p3
264.76 99.73 0.65 c p3
265.04 97.97 0.65 c p3
265.32 97.09 0.65 c p3
265.60 99.73 0.65 c p3
265.88 97.97 0.65 c p3
266.16 100.62 0.65 c p3
266.44 97.97 0.65 c p3
266.72 98.85 0.65 c p3
267.00 97.09 0.65 c p3
267.28 97.97 0.65 c p3
267.56 97.09 0.65 c p3
267.84 102.38 0.65 c p3
268.12 97.97 0.65 c p3
268.40 101.50 0.65 c p3
268.68 93.59 0.65 c p3
268.96 99.73 0.65 c p3
269.24 100.62 0.65 c p3
269.52 100.62 0.65 c p3
269.80 97.09 0.65 c p3
270.08 97.97 0.65 c p3
270.36 101.50 0.65 c p3
270.64 99.73 0.65 c p3
270.92 97.97 0.65 c p3
271.20 98.85 0.65 c p3
271.48 98.85 0.65 c p3
271.76 98.85 0.65 c p3
272.04 97.97 0.65 c p3
272.32 97.97 0.65 c p3
272.60 100.62 0.65 c p3
272.88 95.34 0.65 c p3
273.16 100.62 0.65 c p3
273.44 98.85 0.65 c p3
273.72 100.62 0.65 c p3
274.00 97.09 0.65 c p3
274.28 98.85 0.65 c p3
274.56 95.34 0.65 c p3
274.84 97.97 0.65 c p3
275.12 99.73 0.65 c p3
275.40 97.97 0.65 c p3
275.68 97.97 0.65 c p3
275.96 103.27 0.65 c p3
276.24 94.46 0.65 c p3
276.52 97.97 0.65 c p3
276.80 97.97 0.65 c p3
277.08 95.34 0.65 c p3
277.36 98.85 0.65 c p3
277.64 94.46 0.65 c p3
277.92 97.97 0.65 c p3
278.20 99.73 0.65 c p3
278.48 100.62 0.65 c p3
278.76 92.72 0.65 c p3
279.04 93.59 0.65 c p3
279.32 93.59 0.65 c p3
279.60 99.73 0.65 c p3
279.88 89.39 0.65 c p3
280.16 97.09 0.65 c p3
280.44 96.22 0.65 c p3
280.72 97.09 0.65 c p3
281.00 97.97 0.65 c p3
281.28 95.34 0.65 c p3
281.56 96.22 0.65 c p3
281.84 97.97 0.65 c p3
282.12 93.59 0.65 c p3
282.40 92.72 0.65 c p3
282.68 98.85 0.65 c p3
282.96 95.34 0.65 c p3
283.24 94.46 0.65 c p3
283.52 91.85 0.65 c p3
283.80 95.34 0.65 c p3
284.08 98.85 0.65 c p3
284.36 96.22 0.65 c p3
284.64 91.85 0.65 c p3
284.92 91.12 0.65 c p3
285.20 91.12 0.65 c p3
285.48 94.46 0.65 c p3
285.76 89.39 0.65 c p3
286.04 93.59 0.65 c p3
286.32 97.97 0.65 c p3
286.60 88.52 0.65 c p3
286.88 93.59 0.65 c p3
287.16 97.09 0.65 c p3
287.44 102.38 0.65 c p3
287.72 91.85 0.65 c p3
288.00 91.12 0.65 c p3
288.28 94.46 0.65 c p3
288.56 97.97 0.65 c p3
288.84 97.97 0.65 c p3
289.12 93.59 0.65 c p3
289.40 93.59 0.65 c p3
289.68 89.39 0.65 c p3
289.96 92.72 0.65 c p3
290.24 98.85 0.65 c p3
290.52 90.25 0.65 c p3
290.80 90.25 0.65 c p3
291.08 92.72 0.65 c p3
291.36 91.85 0.65 c p3
291.64 89.39 0.65 c p3
291.92 93.59 0.65 c p3
292.20 96.22 0.65 c p3
292.48 96.22 0.65 c p3
292.76 91.12 0.65 c p3
293.04 92.72 0.65 c p3
293.32 91.85 0.65 c p3
293.60 90.25 0.65 c p3
293.88 91.85 0.65 c p3
294.16 91.12 0.65 c p3
294.44 91.12 0.65 c p3
294.72 88.52 0.65 c p3
295.00 91.85 0.65 c p3
295.28 91.12 0.65 c p3
295.56 91.85 0.65 c p3
295.84 88.52 0.65 c p3
296.12 91.85 0.65 c p3
296.40 91.85 0.65 c p3
296.68 90.25 0.65 c p3
296.96 93.59 0.65 c p3
297.24 93.59 0.65 c p3
297.52 90.25 0.65 c p3
297.80 91.85 0.65 c p3
298.08 91.85 0.65 c p3
298.36 90.25 0.65 c p3
298.64 91.85 0.65 c p3
298.92 85.06 0.65 c p3
299.20 91.12 0.65 c p3
299.48 93.59 0.65 c p3
299.76 93.59 0.65 c p3
300.04 90.25 0.65 c p3
300.32 90.25 0.65 c p3
300.60 91.85 0.65 c p3
300.88 86.79 0.65 c p3
301.16 90.25 0.65 c p3
301.44 92.72 0.65 c p3
301.72 96.22 0.65 c p3
302.00 89.39 0.65 c p3
302.28 89.39 0.65 c p3
302.56 88.52 0.65 c p3
302.84 91.12 0.65 c p3
303.12 89.39 0.65 c p3
303.40 91.12 0.65 c p3
303.68 88.52 0.65 c p3
303.96 90.25 0.65 c p3
304.24 88.52 0.65 c p3
304.52 89.39 0.65 c p3
304.80 87.65 0.65 c p3
305.08 84.20 0.65 c p3
305.36 85.92 0.65 c p3
305.64 91.12 0.65 c p3
305.92 91.85 0.65 c p3
306.20 90.25 0.65 c p3
306.48 88.52 0.65 c p3
306.76 93.59 0.65 c p3
307.04 93.59 0.65 c p3
307.32 88.52 0.65 c p3
307.60 82.48 0.65 c p3
307.88 91.12 0.65 c p3
308.16 91.12 0.65 c p3
308.44 90.25 0.65 c p3
308.72 91.12 0.65 c p3
309.00 86.79 0.65 c p3
309.28 87.65 0.65 c p3
309.56 88.52 0.65 c p3
309.84 85.92 0.65 c p3
310.12 88.52 0.65 c p3
310.40 90.25 0.65 c p3
310.68 85.92 0.65 c p3
310.96 88.52 0.65 c p3
311.24 85.92 0.65 c p3
311.52 91.85 0.65 c p3
311.80 88.52 0.65 c p3
312.08 88.52 0.65 c p3
312.36 91.12 0.65 c p3
312.64 87.65 0.65 c p3
312.92 86.79 0.65 c p3
313.20 88.52 0.65 c p3
313.48 86.79 0.65 c p3
313.76 89.39 0.65 c p3
314.04 91.12 0.65 c p3
314.32 90.25 0.65 c p3
314.60 90.25 0.65 c p3
314.88 87.65 0.65 c p3
315.16 88.52 0.65 c p3
315.44 86.79 0.65 c p3
315.72 88.52 0.65 c p3
316.00 85.92 0.65 c p3
316.28 83.34 0.65 c p3
316.56 85.06 0.65 c p3
316.84 92.72 0.65 c p3
317.12 89.39 0.65 c p3
317.40 86.79 0.65 c p3
317.68 88.52 0.65 c p3
317.96 85.92 0.65 c p3
318.24 87.65 0.65 c p3
318.52 85.92 0.65 c p3
318.80 85.06 0.65 c p3
319.08 90.25 0.65 c p3
319.36 87.65 0.65 c p3
319.64 89.39 0.65 c p3
319.92 81.62 0.65 c p3
320.20 84.20 0.65 c p3
320.48 86.79 0.65 c p3
320.76 81.62 0.65 c p3
321.04 84.20 0.65 c p3
321.32 87.65 0.65 c p3
321.60 87.65 0.65 c p3
321.88 86.79 0.65 c p3
322.16 86.79 0.65 c p3
322.44 84.20 0.65 c p3
322.72 90.25 0.65 c p3
323.00 92.72 0.65 c p3
323.28 90.25 0.65 c p3
323.56 86.79 0.65 c p3
323.84 85.92 0.65 c p3
324.12 88.52 0.65 c p3
324.40 85.92 0.65 c p3
324.68 85.92 0.65 c p3
324.96 84.20 0.65 c p3
325.24 87.65 0.65 c p3
325.52 86.79 0.65 c p3
325.80 81.62 0.65 c p3
326.08 83.34 0.65 c p3
326.36 82.48 0.65 c p3
326.64 86.79 0.65 c p3
326.92 85.92 0.65 c p3
327.20 84.20 0.65 c p3
327.48 82.48 0.65 c p3
327.76 88.52 0.65 c p3
328.04 89.39 0.65 c p3
328.32 81.62 0.65 c p3
328.60 83.34 0.65 c p3
328.88 82.48 0.65 c p3
216.00 201.60 367.20 247.68 cl
0 0 0 srgb
0.75 setlinewidth
[] 0 setdash
1 setlinecap
1 setlinejoin
10.00 setmiterlimit
221.60 238.86 0.43 c p1
221.77 236.51 0.43 c p1
221.94 228.74 0.43 c p1
222.11 228.52 0.43 c p1
222.28 228.29 0.43 c p1
222.45 226.70 0.43 c p1
222.63 233.23 0.43 c p1
222.80 231.62 0.43 c p1
222.97 227.39 0.43 c p1
223.14 229.21 0.43 c p1
223.31 232.98 0.43 c p1
223.48 225.35 0.43 c p1
223.65 227.83 0.43 c p1
223.82 226.92 0.43 c p1
223.99 223.33 0.43 c p1
224.16 231.21 0.43 c p1
224.34 224.21 0.43 c p1
224.51 224.65 0.43 c p1
224.68 225.76 0.43 c p1
224.85 228.88 0.43 c p1
225.02 225.96 0.43 c p1
225.19 223.72 0.43 c p1
225.36 219.63 0.43 c p1
225.53 226.57 0.43 c p1
225.70 225.67 0.43 c p1
225.87 226.76 0.43 c p1
226.04 224.52 0.43 c p1
226.22 225.60 0.43 c p1
226.39 227.35 0.43 c p1
226.56 221.93 0.43 c p1
226.73 222.35 0.43 c p1
226.90 222.11 0.43 c p1
227.07 221.21 0.43 c p1
227.24 224.24 0.43 c p1
227.41 220.73 0.43 c p1
227.58 226.27 0.43 c p1
227.75 226.67 0.43 c p1
227.92 220.00 0.43 c p1
228.10 225.61 0.43 c p1
228.27 223.40 0.43 c p1
228.44 224.45 0.43 c p1
228.61 221.60 0.43 c p1
228.78 224.59 0.43 c p1
228.95 224.33 0.43 c p1
229.12 221.49 0.43 c p1
229.29 224.47 0.43 c p1
229.46 222.27 0.43 c p1
229.63 222.66 0.43 c p1
229.81 224.33 0.43 c p1
229.98 220.85 0.43 c p1
230.15 228.35 0.43 c p1
230.32 222.26 0.43 c p1
230.49 225.86 0.43 c p1
230.66 222.38 0.43 c p1
230.83 223.39 0.43 c p1
231.00 225.70 0.43 c p1
231.17 222.86 0.43 c p1
231.34 226.44 0.43 c p1
231.51 222.32 0.43 c p1
231.69 221.42 0.43 c p1
231.86 223.06 0.43 c p1
232.03 218.99 0.43 c p1
232.20 227.64 0.43 c p1
232.37 220.98 0.43 c p1
232.54 225.79 0.43 c p1
232.71 222.33 0.43 c p1
232.88 225.87 0.43 c p1
233.05 223.68 0.43 c p1
233.22 219.73 0.43 c p1
233.39 223.76 0.43 c p1
233.57 224.11 0.43 c p1
233.74 221.94 0.43 c p1
233.91 227.35 0.43 c p1
234.08 223.26 0.43 c p1
234.25 222.98 0.43 c p1
234.42 222.80 0.43 c p1
234.59 221.89 0.43 c p1
234.76 224.64 0.43 c p1
234.93 221.95 0.43 c p1
235.10 224.69 0.43 c p1
235.28 223.25 0.43 c p1
235.45 221.09 0.43 c p1
235.62 225.18 0.43 c p1
235.79 222.38 0.43 c p1
235.96 223.96 0.43 c p1
236.13 224.30 0.43 c p1
236.30 222.76 0.43 c p1
236.47 224.95 0.43 c p1
236.64 222.79 0.43 c p1
236.81 224.98 0.43 c p1
236.98 220.34 0.43 c p1
237.16 224.38 0.43 c p1
237.33 224.09 0.43 c p1
237.50 221.31 0.43 c p1
237.67 221.01 0.43 c p1
237.84 221.95 0.43 c p1
238.01 223.50 0.43 c p1
238.18 226.30 0.43 c p1
238.35 222.28 0.43 c p1
238.52 224.44 0.43 c p1
238.69 221.06 0.43 c p1
238.86 223.21 0.43 c p1
239.04 224.75 0.43 c p1
239.21 220.15 0.43 c p1
239.38 226.61 0.43 c p1
239.55 223.83 0.43 c p1
239.72 224.74 0.43 c p1
239.89 222.59 0.43 c p1
240.06 219.24 0.43 c p1
240.23 227.50 0.43 c p1
240.40 223.49 0.43 c p1
240.57 223.79 0.43 c p1
240.75 224.70 0.43 c p1
240.92 222.55 0.43 c p1
241.09 229.60 0.43 c p1
241.26 219.00 0.43 c p1
241.43 228.33 0.43 c p1
241.60 220.69 0.43 c p1
241.77 224.62 0.43 c p1
241.94 227.97 0.43 c p1
242.11 222.16 0.43 c p1
242.28 226.09 0.43 c p1
242.45 218.02 0.43 c p1
242.63 224.83 0.43 c p1
242.80 226.94 0.43 c p1
242.97 220.06 0.43 c p1
243.14 225.07 0.43 c p1
243.31 222.42 0.43 c p1
243.48 220.30 0.43 c p1
243.65 224.69 0.43 c p1
243.82 223.25 0.43 c p1
243.99 225.24 0.43 c p1
244.16 221.40 0.43 c p1
244.34 225.78 0.43 c p1
244.51 224.34 0.43 c p1
244.68 222.21 0.43 c p1
244.85 225.38 0.43 c p1
245.02 223.35 0.43 c p1
245.19 224.21 0.43 c p1
245.36 224.48 0.43 c p1
245.53 222.35 0.43 c p1
245.70 224.41 0.43 c p1
245.87 219.90 0.43 c p1
246.04 221.35 0.43 c p1
246.22 222.20 0.43 c p1
246.39 222.46 0.43 c p1
246.56 227.51 0.43 c p1
246.73 220.60 0.43 c p1
246.90 222.04 0.43 c p1
247.07 222.89 0.43 c p1
247.24 224.33 0.43 c p1
247.41 225.78 0.43 c p1
247.58 221.87 0.43 c p1
247.75 224.49 0.43 c p1
247.92 224.15 0.43 c p1
248.10 223.80 0.43 c p1
248.27 222.87 0.43 c p1
248.44 223.11 0.43 c p1
248.61 225.13 0.43 c p1
248.78 224.79 0.43 c p1
248.95 222.07 0.43 c p1
249.12 225.27 0.43 c p1
249.29 222.56 0.43 c p1
249.46 226.94 0.43 c p1
249.63 225.99 0.43 c p1
249.81 224.45 0.43 c p1
249.98 224.69 0.43 c p1
250.15 222.57 0.43 c p1
250.32 223.99 0.43 c p1
250.49 222.46 0.43 c p1
250.66 223.87 0.43 c p1
250.83 225.86 0.43 c p1
251.00 221.40 0.43 c p1
251.17 225.74 0.43 c p1
251.34 225.38 0.43 c p1
251.51 225.02 0.43 c p1
251.69 228.20 0.43 c p1
251.86 225.47 0.43 c p1
252.03 222.77 0.43 c p1
252.20 223.58 0.43 c p1
252.37 222.06 0.43 c p1
252.54 229.91 0.43 c p1
252.71 223.08 0.43 c p1
252.88 220.98 0.43 c p1
253.05 228.80 0.43 c p1
253.22 223.74 0.43 c p1
253.39 226.30 0.43 c p1
253.57 224.76 0.43 c p1
253.74 222.07 0.43 c p1
253.91 224.61 0.43 c p1
254.08 223.66 0.43 c p1
254.25 225.04 0.43 c p1
254.42 227.01 0.43 c p1
254.59 222.08 0.43 c p1
254.76 226.26 0.43 c p1
254.93 223.57 0.43 c p1
255.10 223.29 0.43 c p1
255.28 222.35 0.43 c p1
255.45 220.83 0.43 c p1
255.62 227.89 0.43 c p1
255.79 224.61 0.43 c p1
255.96 223.18 0.43 c p1
256.13 224.53 0.43 c p1
256.30 219.57 0.43 c p1
256.47 223.79 0.43 c p1
256.64 225.14 0.43 c p1
256.81 224.77 0.43 c p1
256.98 227.77 0.43 c p1
257.16 221.72 0.43 c p1
257.33 224.79 0.43 c p1
257.50 225.56 0.43 c p1
257.67 226.82 0.43 c p1
257.84 224.80 0.43 c p1
258.01 224.42 0.43 c p1
258.18 221.76 0.43 c p1
258.35 225.39 0.43 c p1
258.52 222.14 0.43 c p1
258.69 226.93 0.43 c p1
258.86 225.39 0.43 c p1
259.04 222.15 0.43 c p1
259.21 227.50 0.43 c p1
259.38 224.81 0.43 c p1
259.55 227.30 0.43 c p1
259.72 225.76 0.43 c p1
259.89 224.23 0.43 c p1
260.06 228.44 0.43 c p1
260.23 223.46 0.43 c p1
260.40 224.79 0.43 c p1
260.57 224.97 0.43 c p1
260.75 223.44 0.43 c p1
260.92 225.91 0.43 c p1
261.09 224.95 0.43 c p1
261.26 222.85 0.43 c p1
261.43 225.88 0.43 c p1
261.60 222.08 0.43 c p1
261.77 225.67 0.43 c p1
261.94 223.57 0.43 c p1
262.11 224.31 0.43 c p1
262.28 226.77 0.43 c p1
262.45 221.27 0.43 c p1
262.63 226.55 0.43 c p1
262.80 223.31 0.43 c p1
262.97 222.36 0.43 c p1
263.14 226.50 0.43 c p1
263.31 224.96 0.43 c p1
263.48 222.31 0.43 c p1
263.65 228.73 0.43 c p1
263.82 222.09 0.43 c p1
263.99 225.65 0.43 c p1
264.16 222.99 0.43 c p1
264.34 224.85 0.43 c p1
264.51 225.58 0.43 c p1
264.68 222.37 0.43 c p1
264.85 228.19 0.43 c p1
265.02 224.38 0.43 c p1
265.19 225.68 0.43 c p1
265.36 224.71 0.43 c p1
265.53 222.07 0.43 c p1
265.70 227.30 0.43 c p1
265.87 224.07 0.43 c p1
266.04 226.49 0.43 c p1
266.22 226.65 0.43 c p1
266.39 221.20 0.43 c p1
266.56 224.15 0.43 c p1
266.73 223.75 0.43 c p1
266.90 223.91 0.43 c p1
267.07 224.63 0.43 c p1
267.24 224.22 0.43 c p1
267.41 224.94 0.43 c p1
267.58 222.86 0.43 c p1
267.75 224.69 0.43 c p1
267.92 227.66 0.43 c p1
268.10 223.88 0.43 c p1
268.27 224.03 0.43 c p1
268.44 224.74 0.43 c p1
268.61 223.22 0.43 c p1
268.78 223.92 0.43 c p1
268.95 225.75 0.43 c p1
269.12 225.34 0.43 c p1
269.29 222.79 0.43 c p1
269.46 225.08 0.43 c p1
269.63 225.79 0.43 c p1
269.81 222.13 0.43 c p1
269.98 227.20 0.43 c p1
270.15 222.42 0.43 c p1
270.32 223.12 0.43 c p1
270.49 225.96 0.43 c p1
270.66 223.96 0.43 c p1
270.83 226.24 0.43 c p1
271.00 222.03 0.43 c p1
271.17 223.84 0.43 c p1
271.34 229.48 0.43 c p1
271.51 221.91 0.43 c p1
271.69 227.51 0.43 c p1
271.86 223.29 0.43 c p1
272.03 223.99 0.43 c p1
272.20 225.70 0.43 c p1
272.37 223.71 0.43 c p1
272.54 223.29 0.43 c p1
272.71 223.43 0.43 c p1
272.88 224.68 0.43 c p1
273.05 226.38 0.43 c p1
273.22 223.29 0.43 c p1
273.39 226.19 0.43 c p1
273.57 220.81 0.43 c p1
273.74 224.24 0.43 c p1
273.91 228.17 0.43 c p1
274.08 221.75 0.43 c p1
274.25 222.99 0.43 c p1
274.42 225.33 0.43 c p1
274.59 222.70 0.43 c p1
274.76 226.70 0.43 c p1
274.93 221.31 0.43 c p1
275.10 226.40 0.43 c p1
275.28 226.53 0.43 c p1
275.45 222.25 0.43 c p1
275.62 225.13 0.43 c p1
275.79 222.50 0.43 c p1
275.96 223.73 0.43 c p1
276.13 224.96 0.43 c p1
276.30 226.18 0.43 c p1
276.47 225.76 0.43 c p1
276.64 223.68 0.43 c p1
276.81 224.91 0.43 c p1
276.98 224.48 0.43 c p1
277.16 222.96 0.43 c p1
277.33 224.72 0.43 c p1
277.50 224.85 0.43 c p1
277.67 226.07 0.43 c p1
277.84 228.40 0.43 c p1
278.01 224.11 0.43 c p1
278.18 227.53 0.43 c p1
278.35 224.90 0.43 c p1
278.52 226.12 0.43 c p1
278.69 227.89 0.43 c p1
278.86 224.16 0.43 c p1
279.04 227.58 0.43 c p1
279.21 221.67 0.43 c p1
279.38 219.62 0.43 c p1
279.55 226.83 0.43 c p1
279.72 222.56 0.43 c p1
279.89 223.77 0.43 c p1
280.06 225.52 0.43 c p1
280.23 224.54 0.43 c p1
280.40 227.40 0.43 c p1
280.57 225.87 0.43 c p1
280.75 227.63 0.43 c p1
280.92 221.73 0.43 c p1
281.09 226.20 0.43 c p1
281.26 222.50 0.43 c p1
281.43 223.15 0.43 c p1
281.60 224.90 0.43 c p1
281.77 218.51 0.43 c p1
281.94 228.95 0.43 c p1
282.11 221.42 0.43 c p1
282.28 224.24 0.43 c p1
282.45 224.35 0.43 c p1
282.63 226.10 0.43 c p1
282.80 224.03 0.43 c p1
282.97 225.22 0.43 c p1
283.14 226.42 0.43 c p1
283.31 224.89 0.43 c p1
283.48 227.18 0.43 c p1
283.65 226.74 0.43 c p1
283.82 223.03 0.43 c p1
283.99 226.95 0.43 c p1
284.16 223.78 0.43 c p1
284.34 229.90 0.43 c p1
284.51 225.08 0.43 c p1
284.68 224.64 0.43 c p1
284.85 223.11 0.43 c p1
285.02 224.84 0.43 c p1
285.19 227.67 0.43 c p1
285.36 222.88 0.43 c p1
285.53 224.60 0.43 c p1
285.70 223.62 0.43 c p1
285.87 222.10 0.43 c p1
286.04 225.99 0.43 c p1
286.22 225.54 0.43 c p1
286.39 225.64 0.43 c p1
286.56 225.20 0.43 c p1
286.73 226.38 0.43 c p1
286.90 226.48 0.43 c p1
287.07 226.03 0.43 c p1
287.24 229.95 0.43 c p1
287.41 224.06 0.43 c p1
287.58 226.86 0.43 c p1
287.75 225.87 0.43 c p1
287.92 224.89 0.43 c p1
288.10 225.52 0.43 c p1
288.27 224.54 0.43 c p1
288.44 227.88 0.43 c p1
288.61 222.57 0.43 c p1
288.78 223.20 0.43 c p1
288.95 226.53 0.43 c p1
289.12 227.16 0.43 c p1
289.29 224.01 0.43 c p1
289.46 224.64 0.43 c p1
289.63 226.36 0.43 c p1
289.81 228.07 0.43 c p1
289.98 224.38 0.43 c p1
290.15 228.25 0.43 c p1
290.32 226.18 0.43 c p1
290.49 224.65 0.43 c p1
290.66 227.44 0.43 c p1
290.83 225.90 0.43 c p1
291.00 225.99 0.43 c p1
291.17 225.00 0.43 c p1
291.34 223.03 0.43 c p1
291.51 226.79 0.43 c p1
291.69 227.42 0.43 c p1
291.86 224.81 0.43 c p1
292.03 225.97 0.43 c p1
292.20 223.91 0.43 c p1
292.37 221.41 0.43 c p1
292.54 225.15 0.43 c p1
292.71 225.78 0.43 c p1
292.88 228.56 0.43 c p1
293.05 223.89 0.43 c p1
293.22 224.42 0.43 c p1
293.39 226.65 0.43 c p1
293.57 223.60 0.43 c p1
293.74 226.28 0.43 c p1
293.91 224.30 0.43 c p1
294.08 225.37 0.43 c p1
294.25 223.93 0.43 c p1
294.42 226.07 0.43 c p1
294.59 225.61 0.43 c p1
294.76 226.23 0.43 c p1
294.93 225.24 0.43 c p1
295.10 225.32 0.43 c p1
295.28 224.41 0.43 c p1
295.45 224.49 0.43 c p1
295.62 226.63 0.43 c p1
295.79 224.65 0.43 c p1
295.96 225.71 0.43 c p1
296.13 225.79 0.43 c p1
296.30 225.42 0.43 c p1
296.47 224.96 0.43 c p1
296.64 224.51 0.43 c p1
296.81 226.63 0.43 c p1
296.98 225.73 0.43 c p1
297.16 225.80 0.43 c p1
297.33 226.33 0.43 c p1
297.50 222.23 0.43 c p1
297.67 225.50 0.43 c p1
297.84 225.04 0.43 c p1
298.01 227.70 0.43 c p1
298.18 227.77 0.43 c p1
298.35 226.33 0.43 c p1
298.52 225.33 0.43 c p1
298.69 224.87 0.43 c p1
298.86 226.01 0.43 c p1
299.04 225.55 0.43 c p1
299.21 227.14 0.43 c p1
299.38 225.16 0.43 c p1
299.55 227.82 0.43 c p1
299.72 224.77 0.43 c p1
299.89 229.04 0.43 c p1
300.06 224.91 0.43 c p1
300.23 226.59 0.43 c p1
300.40 224.52 0.43 c p1
300.57 225.66 0.43 c p1
300.75 225.73 0.43 c p1
300.92 224.20 0.43 c p1
301.09 226.40 0.43 c p1
301.26 227.98 0.43 c p1
301.43 226.01 0.43 c p1
301.60 224.48 0.43 c p1
301.77 222.96 0.43 c p1
301.94 227.81 0.43 c p1
302.11 227.34 0.43 c p1
302.28 224.75 0.43 c p1
302.45 224.82 0.43 c p1
302.63 228.08 0.43 c p1
302.80 224.42 0.43 c p1
302.97 224.48 0.43 c p1
303.14 225.61 0.43 c p1
303.31 228.79 0.43 c p1
303.48 227.34 0.43 c p1
303.65 225.81 0.43 c p1
303.82 226.94 0.43 c p1
303.99 225.94 0.43 c p1
304.16 228.13 0.43 c p1
304.34 225.00 0.43 c p1
304.51 225.60 0.43 c p1
304.68 223.02 0.43 c p1
304.85 221.50 0.43 c p1
305.02 225.79 0.43 c p1
305.19 226.38 0.43 c p1
305.36 227.51 0.43 c p1
305.53 224.91 0.43 c p1
305.70 225.51 0.43 c p1
305.87 225.04 0.43 c p1
306.04 229.80 0.43 c p1
306.22 226.22 0.43 c p1
306.39 224.16 0.43 c p1
306.56 226.34 0.43 c p1
306.73 223.76 0.43 c p1
306.90 223.82 0.43 c p1
307.07 226.52 0.43 c p1
307.24 226.05 0.43 c p1
307.41 223.47 0.43 c p1
307.58 224.06 0.43 c p1
307.75 225.17 0.43 c p1
307.92 224.70 0.43 c p1
308.10 227.94 0.43 c p1
308.27 224.82 0.43 c p1
308.44 225.93 0.43 c p1
308.61 225.99 0.43 c p1
308.78 227.11 0.43 c p1
308.95 227.17 0.43 c p1
309.12 225.10 0.43 c p1
309.29 226.22 0.43 c p1
309.46 223.11 0.43 c p1
309.63 224.22 0.43 c p1
309.81 222.18 0.43 c p1
309.98 224.86 0.43 c p1
310.15 221.24 0.43 c p1
310.32 227.62 0.43 c p1
310.49 223.97 0.43 c p1
310.66 226.67 0.43 c p1
310.83 227.25 0.43 c p1
311.00 224.14 0.43 c p1
311.17 224.72 0.43 c p1
311.34 225.30 0.43 c p1
311.51 223.25 0.43 c p1
311.69 222.78 0.43 c p1
311.86 223.36 0.43 c p1
312.03 224.99 0.43 c p1
312.20 224.51 0.43 c p1
312.37 222.47 0.43 c p1
312.54 225.67 0.43 c p1
312.71 225.72 0.43 c p1
312.88 225.25 0.43 c p1
313.05 226.35 0.43 c p1
313.22 227.46 0.43 c p1
313.39 225.40 0.43 c p1
313.57 227.57 0.43 c p1
313.74 225.50 0.43 c p1
313.91 226.61 0.43 c p1
314.08 224.03 0.43 c p1
314.25 225.66 0.43 c p1
314.42 226.76 0.43 c p1
314.59 223.13 0.43 c p1
314.76 228.45 0.43 c p1
314.93 224.28 0.43 c p1
315.10 226.96 0.43 c p1
315.28 225.43 0.43 c p1
315.45 225.48 0.43 c p1
315.62 225.53 0.43 c p1
315.79 222.95 0.43 c p1
315.96 225.10 0.43 c p1
316.13 226.72 0.43 c p1
316.30 224.67 0.43 c p1
316.47 224.19 0.43 c p1
316.64 223.19 0.43 c p1
316.81 224.81 0.43 c p1
316.98 222.25 0.43 c p1
317.16 225.95 0.43 c p1
317.33 225.48 0.43 c p1
317.50 228.69 0.43 c p1
317.67 226.09 0.43 c p1
317.84 224.04 0.43 c p1
318.01 225.66 0.43 c p1
318.18 224.66 0.43 c p1
318.35 225.75 0.43 c p1
318.52 225.80 0.43 c p1
318.69 225.32 0.43 c p1
318.86 222.75 0.43 c p1
319.04 225.41 0.43 c p1
319.21 223.88 0.43 c p1
319.38 226.55 0.43 c p1
319.55 222.93 0.43 c p1
319.72 226.11 0.43 c p1
319.89 228.26 0.43 c p1
320.06 225.15 0.43 c p1
320.23 227.82 0.43 c p1
320.40 224.19 0.43 c p1
320.57 225.81 0.43 c p1
320.75 224.80 0.43 c p1
320.92 225.37 0.43 c p1
321.09 224.89 0.43 c p1
321.26 229.14 0.43 c p1
321.43 226.54 0.43 c p1
321.60 226.59 0.43 c p1
321.77 223.49 0.43 c p1
321.94 226.14 0.43 c p1
322.11 226.71 0.43 c p1
322.28 224.66 0.43 c p1
322.45 225.22 0.43 c p1
322.63 224.22 0.43 c p1
322.80 223.74 0.43 c p1
322.97 225.35 0.43 c p1
323.14 224.34 0.43 c p1
323.31 225.95 0.43 c p1
323.48 224.42 0.43 c p1
323.65 224.98 0.43 c p1
323.82 223.98 0.43 c p1
323.99 224.54 0.43 c p1
324.16 224.06 0.43 c p1
324.34 227.24 0.43 c p1
324.51 224.66 0.43 c p1
324.68 226.79 0.43 c p1
324.85 222.14 0.43 c p1
325.02 225.82 0.43 c p1
325.19 226.38 0.43 c p1
325.36 226.42 0.43 c p1
325.53 224.37 0.43 c p1
325.70 224.93 0.43 c p1
325.87 227.06 0.43 c p1
326.04 226.05 0.43 c p1
326.22 225.05 0.43 c p1
326.39 225.60 0.43 c p1
326.56 225.64 0.43 c p1
326.73 225.68 0.43 c p1
326.90 225.19 0.43 c p1
327.07 225.23 0.43 c p1
327.24 226.84 0.43 c p1
327.41 223.74 0.43 c p1
327.58 226.91 0.43 c p1
327.75 225.90 0.43 c p1
327.92 226.98 0.43 c p1
328.10 224.93 0.43 c p1
328.27 226.01 0.43 c p1
328.44 223.96 0.43 c p1
328.61 225.56 0.43 c p1
328.78 226.64 0.43 c p1
328.95 225.63 0.43 c p1
329.12 225.66 0.43 c p1
329.29 228.84 0.43 c p1
329.46 223.65 0.43 c p1
329.63 225.77 0.43 c p1
329.81 225.80 0.43 c p1
329.98 224.28 0.43 c p1
330.15 226.39 0.43 c p1
330.32 223.83 0.43 c p1
330.49 225.94 0.43 c p1
330.66 227.02 0.43 c p1
330.83 227.58 0.43 c p1
331.00 222.93 0.43 c p1
331.17 223.48 0.43 c p1
331.34 223.51 0.43 c p1
331.51 227.19 0.43 c p1
331.69 221.08 0.43 c p1
331.86 225.69 0.43 c p1
332.03 225.20 0.43 c p1
332.20 225.75 0.43 c p1
332.37 226.31 0.43 c p1
332.54 224.78 0.43 c p1
332.71 225.33 0.43 c p1
332.88 226.40 0.43 c p1
333.05 223.84 0.43 c p1
333.22 223.35 0.43 c p1
333.39 227.02 0.43 c p1
333.57 224.97 0.43 c p1
333.74 224.48 0.43 c p1
333.91 222.96 0.43 c p1
334.08 225.06 0.43 c p1
334.25 227.18 0.43 c p1
334.42 225.65 0.43 c p1
334.59 223.08 0.43 c p1
334.76 222.68 0.43 c p1
334.93 222.71 0.43 c p1
335.10 224.73 0.43 c p1
335.28 221.74 0.43 c p1
335.45 224.27 0.43 c p1
335.62 226.90 0.43 c p1
335.79 221.32 0.43 c p1
335.96 224.36 0.43 c p1
336.13 226.47 0.43 c p1
336.30 229.64 0.43 c p1
336.47 223.42 0.43 c p1
336.64 223.01 0.43 c p1
336.81 225.03 0.43 c p1
336.98 227.14 0.43 c p1
337.16 227.16 0.43 c p1
337.33 224.59 0.43 c p1
337.50 224.62 0.43 c p1
337.67 222.16 0.43 c p1
337.84 224.16 0.43 c p1
338.01 227.83 0.43 c p1
338.18 222.76 0.43 c p1
338.35 222.78 0.43 c p1
338.52 224.28 0.43 c p1
338.69 223.79 0.43 c p1
338.86 222.35 0.43 c p1
339.04 224.88 0.43 c p1
339.21 226.46 0.43 c p1
339.38 226.49 0.43 c p1
339.55 223.49 0.43 c p1
339.72 224.47 0.43 c p1
339.89 223.98 0.43 c p1
340.06 223.06 0.43 c p1
340.23 224.03 0.43 c p1
340.40 223.63 0.43 c p1
340.57 223.66 0.43 c p1
340.75 222.14 0.43 c p1
340.92 224.14 0.43 c p1
341.09 223.74 0.43 c p1
341.26 224.19 0.43 c p1
341.43 222.24 0.43 c p1
341.60 224.25 0.43 c p1
341.77 224.27 0.43 c p1
341.94 223.35 0.43 c p1
342.11 225.36 0.43 c p1
342.28 225.38 0.43 c p1
342.45 223.43 0.43 c p1
342.63 224.40 0.43 c p1
342.80 224.42 0.43 c p1
342.97 223.50 0.43 c p1
343.14 224.48 0.43 c p1
343.31 220.47 0.43 c p1
343.48 224.09 0.43 c p1
343.65 225.58 0.43 c p1
343.82 225.61 0.43 c p1
343.99 223.65 0.43 c p1
344.16 223.68 0.43 c p1
344.34 224.65 0.43 c p1
344.51 221.67 0.43 c p1
344.68 223.75 0.43 c p1
344.85 225.24 0.43 c p1
345.02 227.34 0.43 c p1
345.19 223.31 0.43 c p1
345.36 223.33 0.43 c p1
345.53 222.84 0.43 c p1
345.70 224.41 0.43 c p1
345.87 223.40 0.43 c p1
346.04 224.46 0.43 c p1
346.22 222.93 0.43 c p1
346.39 223.99 0.43 c p1
346.56 222.98 0.43 c p1
346.73 223.52 0.43 c p1
346.90 222.51 0.43 c p1
347.07 220.49 0.43 c p1
347.24 221.53 0.43 c p1
347.41 224.64 0.43 c p1
347.58 225.09 0.43 c p1
347.75 224.17 0.43 c p1
347.92 223.16 0.43 c p1
348.10 226.19 0.43 c p1
348.27 226.22 0.43 c p1
348.44 223.23 0.43 c p1
348.61 219.67 0.43 c p1
348.78 224.82 0.43 c p1
348.95 224.84 0.43 c p1
349.12 224.34 0.43 c p1
349.29 224.88 0.43 c p1
349.46 222.33 0.43 c p1
349.63 222.87 0.43 c p1
349.81 223.40 0.43 c p1
349.98 221.88 0.43 c p1
350.15 223.44 0.43 c p1
350.32 224.49 0.43 c p1
350.49 221.95 0.43 c p1
350.66 223.51 0.43 c p1
350.83 221.99 0.43 c p1
351.00 225.53 0.43 c p1
351.17 223.57 0.43 c p1
351.34 223.59 0.43 c p1
351.51 225.16 0.43 c p1
351.69 223.12 0.43 c p1
351.86 222.62 0.43 c p1
352.03 223.67 0.43 c p1
352.20 222.66 0.43 c p1
352.37 224.23 0.43 c p1
352.54 225.28 0.43 c p1
352.71 224.78 0.43 c p1
352.88 224.80 0.43 c p1
353.05 223.28 0.43 c p1
353.22 223.81 0.43 c p1
353.39 222.80 0.43 c p1
353.57 223.85 0.43 c p1
353.74 222.33 0.43 c p1
353.91 220.82 0.43 c p1
354.08 221.86 0.43 c p1
354.25 226.42 0.43 c p1
354.42 224.46 0.43 c p1
354.59 222.94 0.43 c p1
354.76 223.99 0.43 c p1
354.93 222.46 0.43 c p1
355.10 223.51 0.43 c p1
355.28 222.50 0.43 c p1
355.45 222.01 0.43 c p1
355.62 225.11 0.43 c p1
355.79 223.58 0.43 c p1
355.96 224.63 0.43 c p1
356.13 220.04 0.43 c p1
356.30 221.59 0.43 c p1
356.47 223.14 0.43 c p1
356.64 220.10 0.43 c p1
356.81 221.65 0.43 c p1
356.98 223.71 0.43 c p1
357.16 223.73 0.43 c p1
357.33 223.23 0.43 c p1
357.50 223.25 0.43 c p1
357.67 221.73 0.43 c p1
357.84 225.34 0.43 c p1
358.01 226.82 0.43 c p1
358.18 225.38 0.43 c p1
358.35 223.34 0.43 c p1
358.52 222.84 0.43 c p1
358.69 224.40 0.43 c p1
358.86 222.88 0.43 c p1
359.04 222.90 0.43 c p1
359.21 221.89 0.43 c p1
359.38 223.95 0.43 c p1
359.55 223.46 0.43 c p1
359.72 220.41 0.43 c p1
359.89 221.45 0.43 c p1
360.06 220.95 0.43 c p1
360.23 223.53 0.43 c p1
360.40 223.03 0.43 c p1
360.57 222.02 0.43 c p1
360.75 221.02 0.43 c p1
360.92 224.62 0.43 c p1
361.09 225.15 0.43 c p1
361.26 220.56 0.43 c p1
361.43 221.59 0.43 c p1
361.60 221.10 0.43 c p1
0.00 0.00 432.00 576.00 cl
0 0 0 srgb
0.75 setlinewidth
[] 0 setdash
1 setlinecap
1 setlinejoin
10.00 setmiterlimit
np
220.40 201.60 m
136.76 0 l
o
np
220.40 201.60 m
0 -5.76 l
o
np
254.59 201.60 m
0 -5.76 l
o
np
288.78 201.60 m
0 -5.76 l
o
np
322.97 201.60 m
0 -5.76 l
o
np
357.16 201.60 m
0 -5.76 l
o
/Font1 findfont 6 s
220.40 185.47 (0) .5 0 t
254.59 185.47 (500) .5 0 t
288.78 185.47 (1000) .5 0 t
322.97 185.47 (1500) .5 0 t
357.16 185.47 (2000) .5 0 t
np
216.00 206.81 m
0 35.66 l
o
np
216.00 206.81 m
-5.76 0 l
o
np
216.00 215.72 m
-5.76 0 l
o
np
216.00 224.64 m
-5.76 0 l
o
np
216.00 233.56 m
-5.76 0 l
o
np
216.00 242.47 m
-5.76 0 l
o
209.09 204.65 (-0.02) 1 0 t
209.09 213.57 (-0.01) 1 0 t
209.09 222.49 (0.00) 1 0 t
209.09 231.40 (0.01) 1 0 t
209.09 240.32 (0.02) 1 0 t
np
216.00 201.60 m
151.20 0 l
0 46.08 l
-151.20 0 l
0 -46.08 l
o
0.00 0.00 432.00 576.00 cl
/Font1 findfont 9 s
0 0 0 srgb
291.60 262.88 (Residuals) .5 0 t
59.04 73.44 401.76 516.96 cl
ep
%%Trailer
%%Pages: 1
%%EOF
