%!PS-Adobe-3.0 EPSF-3.0
%%DocumentNeededResources: font Helvetica
%%+ font Helvetica-Bold
%%+ font Helvetica-Oblique
%%+ font Helvetica-BoldOblique
%%+ font Symbol
%%Title: R Graphics Output
%%Creator: R Software
%%Pages: (atend)
%%BoundingBox: 0 0 432 576
%%EndComments
%%BeginProlog
/bp  { gs sRGB gs } def
% begin .ps.prolog
/gs  { gsave } bind def
/gr  { grestore } bind def
/ep  { showpage gr gr } bind def
/m   { moveto } bind def
/l  { rlineto } bind def
/np  { newpath } bind def
/cp  { closepath } bind def
/f   { fill } bind def
/o   { stroke } bind def
/c   { newpath 0 360 arc } bind def
/r   { 4 2 roll moveto 1 copy 3 -1 roll exch 0 exch rlineto 0 rlineto -1 mul 0 exch rlineto closepath } bind def
/p1  { stroke } bind def
/p2  { gsave bg fill grestore newpath } bind def
/p3  { gsave bg fill grestore stroke } bind def
/p6  { gsave bg eofill grestore newpath } bind def
/p7  { gsave bg eofill grestore stroke } bind def
/t   { 5 -2 roll moveto gsave rotate
       1 index stringwidth pop
       mul neg 0 rmoveto show grestore } bind def
/ta  { 4 -2 roll moveto gsave rotate show } bind def
/tb  { 2 -1 roll 0 rmoveto show } bind def
/cl  { grestore gsave newpath 3 index 3 index moveto 1 index
       4 -1 roll lineto  exch 1 index lineto lineto
       closepath clip newpath } bind def
/rgb { setrgbcolor } bind def
/s   { scalefont setfont } bind def
% end   .ps.prolog
/sRGB { [ /CIEBasedABC
          << /DecodeLMN
               [ { dup 0.03928 le
                        {12.92321 div}
                        {0.055 add 1.055 div 2.4 exp }
                     ifelse
                 } bind dup dup
               ]
             /MatrixLMN [0.412457 0.212673 0.019334
                         0.357576 0.715152 0.119192
                         0.180437 0.072175 0.950301]
             /WhitePoint [0.9505 1.0 1.0890]
           >>
         ] setcolorspace } bind def
/srgb { setcolor } bind def
% begin encoding
/WinAnsiEncoding [
 /.notdef /.notdef /.notdef /.notdef /.notdef /.notdef /.notdef /.notdef
 /.notdef /.notdef /.notdef /.notdef /.notdef /.notdef /.notdef /.notdef
 /.notdef /.notdef /.notdef /.notdef /.notdef /.notdef /.notdef /.notdef
 /.notdef /.notdef /.notdef /.notdef /.notdef /.notdef /.notdef /.notdef
 /space /exclam /quotedbl /numbersign /dollar /percent /ampersand /quoteright
 /parenleft /parenright /asterisk /plus /comma /minus /period /slash
 /zero /one /two /three /four /five /six /seven
 /eight /nine /colon /semicolon /less /equal /greater /question
 /at /A /B /C /D /E /F /G
 /H /I /J /K /L /M /N /O
 /P /Q /R /S /T /U /V /W
 /X /Y /Z /bracketleft /backslash /bracketright /asciicircum /underscore
 /grave /a /b /c /d /e /f /g
 /h /i /j /k /l /m /n /o
 /p /q /r /s /t /u /v /w
 /x /y /z /braceleft /bar /braceright /asciitilde /.notdef
 /Euro /.notdef /quotesinglbase /florin /quotedblbase /ellipsis /dagger /daggerdbl
 /circumflex /perthousand /Scaron /guilsinglleft /OE /.notdef /Zcaron /.notdef
 /.notdef /quoteleft /quoteright /quotedblleft /quotedblright /bullet /endash /emdash
 /tilde /trademark /scaron /guilsinglright /oe /.notdef /zcaron /Ydieresis
 /space /exclamdown /cent /sterling /currency /yen /brokenbar /section
 /dieresis /copyright /ordfeminine /guillemotleft /logicalnot /hyphen /registered /macron
 /degree /plusminus /twosuperior /threesuperior /acute /mu /paragraph /periodcentered
 /cedilla /onesuperior /ordmasculine /guillemotright /onequarter /onehalf /threequarters /questiondown
 /Agrave /Aacute /Acircumflex /Atilde /Adieresis /Aring /AE /Ccedilla
 /Egrave /Eacute /Ecircumflex /Edieresis /Igrave /Iacute /Icircumflex /Idieresis
 /Eth /Ntilde /Ograve /Oacute /Ocircumflex /Otilde /Odieresis /multiply
 /Oslash /Ugrave /Uacute /Ucircumflex /Udieresis /Yacute /Thorn /germandbls
 /agrave /aacute /acircumflex /atilde /adieresis /aring /ae /ccedilla
 /egrave /eacute /ecircumflex /edieresis /igrave /iacute /icircumflex /idieresis
 /eth /ntilde /ograve /oacute /ocircumflex /otilde /odieresis /divide
 /oslash /ugrave /uacute /ucircumflex /udieresis /yacute /thorn /ydieresis
]
 def
% end encoding
%%IncludeResource: font Helvetica
/Helvetica findfont
dup length dict begin
  {1 index /FID ne {def} {pop pop} ifelse} forall
  /Encoding WinAnsiEncoding def
  currentdict
  end
/Font1 exch definefont pop
%%IncludeResource: font Helvetica-Bold
/Helvetica-Bold findfont
dup length dict begin
  {1 index /FID ne {def} {pop pop} ifelse} forall
  /Encoding WinAnsiEncoding def
  currentdict
  end
/Font2 exch definefont pop
%%IncludeResource: font Helvetica-Oblique
/Helvetica-Oblique findfont
dup length dict begin
  {1 index /FID ne {def} {pop pop} ifelse} forall
  /Encoding WinAnsiEncoding def
  currentdict
  end
/Font3 exch definefont pop
%%IncludeResource: font Helvetica-BoldOblique
/Helvetica-BoldOblique findfont
dup length dict begin
  {1 index /FID ne {def} {pop pop} ifelse} forall
  /Encoding WinAnsiEncoding def
  currentdict
  end
/Font4 exch definefont pop
%%IncludeResource: font Symbol
/Symbol findfont
dup length dict begin
  {1 index /FID ne {def} {pop pop} ifelse} forall
  currentdict
  end
/Font5 exch definefont pop
%%EndProlog
%%Page: 1 1
bp
/bg { 1 1 1 srgb } def
0.00 0.00 432.00 576.00 r p2
0.00 0.00 432.00 576.00 cl
0.00 0.00 432.00 576.00 cl
0.00 0.00 432.00 576.00 cl
/Font1 findfont 12 s
0 0 0 srgb
48.00 508.72 (PCP-ETH) 0 0 t
48.00 494.89 (Flash light photolysis) 0 0 t
/Font1 findfont 9 s
48.00 457.54 (File: T) 0 ta
-1.080 (emper) tb
-0.090 (ature_dependence_13f_MSLM.dat) tb gr
48.00 334.87 (T) 0 ta
-1.080 (ue Mar 08 17:22:19 2022) tb gr
48.00 430.87 (Fit function:  a + b * e) 0 ta
-0.270 (xp\(-c * t\)) tb gr
48.00 420.50 (t-Inter) 0 ta
0.270 (v) tb
-0.225 (all: 8.000 ... 337.000 ms) tb gr
48.00 410.14 (P) 0 ta
-0.360 (ar) tb
-0.090 (ameters \(Standard de) tb
-0.270 (viation\):) tb gr
48.00 399.77 (  a = 0.00657 \(0.00032\)) 0 0 t
48.00 389.40 (  b = 0.17300 \(0.00127\)) 0 0 t
48.00 379.03 (  c = 1.813e+01 \(2.190e-01\) s^-1) 0 0 t
48.00 368.66 (  tau = 5.515e-02 \(6.662e-04\) s) 0 0 t
216.00 345.60 388.80 518.40 cl
0 0 0 srgb
0.75 setlinewidth
[] 0 setdash
1 setlinecap
1 setlinejoin
10.00 setmiterlimit
np
222.40 508.59 m
0.15 1.48 l
0.14 -0.98 l
0.15 0.49 l
0.14 0.49 l
0.15 0.21 l
0.14 -1.44 l
0.15 0.49 l
0.14 -0.24 l
0.15 1.43 l
0.15 -0.69 l
0.14 0.69 l
0.15 0.99 l
0.14 -0.99 l
0.15 0.25 l
0.14 0.25 l
0.15 -0.95 l
0.14 -1.72 l
0.15 1.93 l
0.15 -0.21 l
0.14 -1.23 l
0.15 1.23 l
0.14 -0.24 l
0.15 -0.99 l
0.14 0.74 l
0.15 0.49 l
0.15 0.95 l
0.14 -1.93 l
0.15 1.93 l
0.14 -1.93 l
0.15 2.42 l
0.14 -0.99 l
0.15 0.25 l
0.14 -0.70 l
0.15 0.95 l
0.15 -1.93 l
0.14 1.68 l
0.15 -0.49 l
0.14 -0.21 l
0.15 -0.49 l
0.14 0.94 l
0.15 -1.43 l
0.14 0.24 l
0.15 0 l
0.15 1.69 l
0.14 0.98 l
0.15 -2.42 l
0.14 0.25 l
0.15 0.24 l
0.14 0.70 l
0.15 -0.94 l
0.14 1.68 l
0.15 -0.99 l
0.15 -0.24 l
0.14 -0.95 l
0.15 1.19 l
0.14 0.99 l
0.15 -0.99 l
0.14 -0.94 l
0.15 1.19 l
0.15 0.25 l
0.14 0 l
0.15 -0.74 l
0.14 0 l
0.15 -0.21 l
0.14 -1.23 l
0.15 1.23 l
0.14 -0.74 l
0.15 1.93 l
0.15 -0.49 l
0.14 -0.25 l
0.15 0 l
0.14 0.74 l
0.15 -1.68 l
0.14 0.70 l
0.15 1.47 l
0.14 -0.24 l
0.15 -1.44 l
0.15 0 l
0.14 0.21 l
0.15 0.24 l
0.14 -0.45 l
0.15 -0.24 l
0.14 0 l
0.15 -0.50 l
0.14 0.25 l
0.15 0.70 l
0.15 0.24 l
0.14 -1.43 l
0.15 0.24 l
0.14 0.95 l
0.15 0.74 l
0.14 0.49 l
0.15 -1.44 l
0.15 0.70 l
0.14 -0.25 l
0.15 -0.24 l
0.14 -1.19 l
0.15 1.19 l
0.14 0.98 l
236.96 453.78 lineto
0.14 -0.26 l
0.15 2.23 l
0.15 0.74 l
0.14 1.93 l
0.15 2.22 l
0.14 1.47 l
0.15 0 l
0.14 1.73 l
0.15 -1.48 l
0.14 2.42 l
0.15 0.25 l
0.15 1.23 l
0.14 0 l
0.15 2.21 l
0.14 1.23 l
0.15 -0.74 l
0.14 -0.73 l
0.15 0.73 l
0.14 1.48 l
0.15 0.94 l
0.15 0.74 l
0.14 2.22 l
0.15 -0.74 l
0.14 -0.25 l
0.15 -0.24 l
0.14 0.24 l
0.15 0 l
0.15 0.74 l
0.14 -0.49 l
0.15 1.23 l
0.14 2.67 l
0.15 -1.68 l
0.14 0 l
0.15 0.98 l
0.14 1.93 l
0.15 1.72 l
0.15 -0.24 l
0.14 0.49 l
0.15 0.49 l
0.14 -0.25 l
0.15 0.99 l
0.14 1.48 l
0.15 -1.24 l
0.14 1.24 l
0.15 1.92 l
0.15 0.25 l
0.14 -0.49 l
0.15 -0.74 l
0.14 -0.25 l
0.15 -2.66 l
0.14 2.91 l
0.15 1.72 l
0.14 -0.98 l
0.15 1.72 l
0.15 -0.25 l
0.14 -1.23 l
0.15 -0.24 l
0.14 0.98 l
0.15 0.25 l
0.14 2.71 l
0.15 -0.99 l
0.15 0.25 l
0.14 1.23 l
0.15 -0.25 l
0.14 0.25 l
0.15 -1.23 l
0.14 1.72 l
0.15 1.68 l
0.14 0 l
0.15 -1.93 l
0.15 2.42 l
0.14 -0.73 l
0.15 1.47 l
0.14 -0.24 l
0.15 -1.73 l
0.14 0.25 l
0.15 1.72 l
0.14 0.99 l
0.15 -0.49 l
0.15 0.73 l
0.14 0.50 l
0.15 -1.73 l
0.14 -0.49 l
0.15 2.95 l
0.14 0.25 l
0.15 -0.25 l
0.14 -0.49 l
0.15 0.99 l
0.15 0.98 l
0.14 -0.49 l
0.15 0.25 l
0.14 -0.25 l
0.15 0.25 l
0.14 0 l
0.15 0.69 l
0.15 0 l
0.14 -0.45 l
0.15 -0.49 l
0.14 -1.72 l
251.52 496.12 lineto
0.14 1.19 l
0.15 -0.24 l
0.14 0.74 l
0.15 0.24 l
0.15 0.74 l
0.14 0 l
0.15 -0.25 l
0.14 0 l
0.15 1.48 l
0.14 1.23 l
0.15 0.25 l
0.14 -1.23 l
0.15 1.97 l
0.15 -2.22 l
0.14 -0.25 l
0.15 0.25 l
0.14 0.99 l
0.15 -1.24 l
0.14 0.99 l
0.15 0.25 l
0.14 0 l
0.15 0.24 l
0.15 -1.97 l
0.14 1.23 l
0.15 1.23 l
0.14 0 l
0.15 3.16 l
0.14 -1.23 l
0.15 0.25 l
0.14 -0.45 l
0.15 -0.99 l
0.15 0.74 l
0.14 1.44 l
0.15 -0.99 l
0.14 -2.42 l
0.15 0.74 l
0.14 1.23 l
0.15 0.25 l
0.15 0 l
0.14 -0.99 l
0.15 1.93 l
0.14 -0.49 l
0.15 0.98 l
0.14 0.99 l
0.15 -0.25 l
0.14 -0.25 l
0.15 -0.24 l
0.15 -0.25 l
0.14 -0.24 l
0.15 1.23 l
0.14 0 l
0.15 -0.74 l
0.14 -0.25 l
0.15 0.49 l
0.14 0 l
0.15 0 l
0.15 -0.73 l
0.14 0.98 l
0.15 0.25 l
0.14 0 l
0.15 -0.74 l
0.14 0 l
0.15 0.24 l
0.14 0.50 l
0.15 -1.23 l
0.15 1.97 l
0.14 0.73 l
0.15 -1.23 l
0.14 1.48 l
0.15 -1.48 l
0.14 0.25 l
0.15 -0.25 l
0.15 -0.74 l
0.14 0.50 l
0.15 0.98 l
0.14 -0.24 l
0.15 -0.50 l
0.14 0.50 l
0.15 0 l
0.14 -0.74 l
0.15 1.97 l
0.15 -0.99 l
0.14 -2.21 l
0.15 1.23 l
0.14 0.98 l
0.15 1.48 l
0.14 -2.22 l
0.15 1.23 l
0.14 -2.46 l
0.15 2.46 l
0.15 -0.49 l
0.14 0.25 l
0.15 1.47 l
0.14 -0.24 l
0.15 -0.49 l
0.14 -1.48 l
0.15 0.74 l
0.14 -1.23 l
0.15 -0.25 l
266.08 506.38 lineto
0.14 1.23 l
0.15 0 l
0.14 -2.22 l
0.15 1.73 l
0.14 -0.74 l
0.15 -0.25 l
0.15 0.99 l
0.14 -1.23 l
0.15 0.24 l
0.14 1.48 l
0.15 -0.74 l
0.14 0.25 l
0.15 -1.23 l
0.14 0.24 l
0.15 -0.74 l
0.15 1.24 l
0.14 -0.25 l
0.15 0.25 l
0.14 -0.74 l
0.15 0.49 l
0.14 -0.49 l
0.15 -0.74 l
0.14 0.74 l
0.15 0.74 l
0.15 0 l
0.14 0.73 l
0.15 -1.72 l
0.14 0.49 l
0.15 -0.49 l
0.14 0.74 l
0.15 -0.49 l
0.14 0 l
0.15 0.24 l
0.15 1.48 l
0.14 0 l
0.15 -1.48 l
0.14 -0.24 l
0.15 0 l
0.14 -0.50 l
0.15 0.50 l
0.15 1.47 l
0.14 -0.98 l
0.15 0.74 l
0.14 0.24 l
0.15 -1.47 l
0.14 -1.48 l
0.15 2.71 l
0.14 -0.99 l
0.15 0.50 l
0.15 0.98 l
0.14 -1.48 l
0.15 -0.49 l
0.14 0.99 l
0.15 -0.50 l
0.14 0.25 l
0.15 -0.49 l
0.14 0 l
0.15 1.72 l
0.15 0 l
0.14 -0.49 l
0.15 -0.74 l
0.14 0 l
0.15 -0.99 l
0.14 1.24 l
0.15 0.98 l
0.14 0.25 l
0.15 -0.99 l
0.15 0 l
0.14 -2.46 l
0.15 1.48 l
0.14 1.72 l
0.15 0.74 l
0.14 -0.74 l
0.15 0.25 l
0.15 0 l
0.14 0 l
0.15 -0.99 l
0.14 -0.74 l
0.15 1.23 l
0.14 0.74 l
0.15 -2.46 l
0.14 1.72 l
0.15 -0.24 l
0.15 1.47 l
0.14 -0.73 l
0.15 -0.25 l
0.14 -0.74 l
0.15 -0.24 l
0.14 1.96 l
0.15 0 l
0.14 -1.23 l
0.15 0.25 l
0.15 -0.98 l
0.14 1.23 l
0.15 -0.25 l
0.14 -0.25 l
0.15 -0.98 l
0.14 1.48 l
0.15 -1.48 l
280.63 507.61 lineto
0.15 0.98 l
0.15 -0.98 l
0.14 -1.72 l
0.15 1.72 l
0.14 -0.74 l
0.15 1.48 l
0.14 -0.25 l
0.15 -0.24 l
0.15 0.49 l
0.14 -0.74 l
0.15 0 l
0.14 -0.25 l
0.15 -1.47 l
0.14 1.23 l
0.15 0.98 l
0.14 -0.49 l
0.15 -2.22 l
0.15 1.97 l
0.14 -1.23 l
0.15 1.73 l
0.14 -2.47 l
0.15 0.99 l
0.14 1.97 l
0.15 -2.22 l
0.14 0.74 l
0.15 -0.98 l
0.15 1.47 l
0.14 -0.73 l
0.15 0 l
0.14 1.23 l
0.15 -1.23 l
0.14 0.49 l
0.15 0.24 l
0.14 -0.98 l
0.15 0.98 l
0.15 0.25 l
0.14 -2.46 l
0.15 0.74 l
0.14 1.72 l
0.15 -0.98 l
0.14 0.24 l
0.15 0.25 l
0.14 -0.25 l
0.15 1.23 l
0.15 -0.74 l
0.14 0.74 l
0.15 -0.98 l
0.14 0 l
0.15 2.21 l
0.14 -0.74 l
0.15 -1.72 l
0.15 0.74 l
0.14 -0.25 l
0.15 -0.73 l
0.14 0.49 l
0.15 0.24 l
0.14 0 l
0.15 -0.49 l
0.14 1.23 l
0.15 1.23 l
0.15 -1.97 l
0.14 0 l
0.15 0.74 l
0.14 -1.23 l
0.15 0.99 l
0.14 0.73 l
0.15 -0.98 l
0.14 -0.74 l
0.15 1.72 l
0.15 0.50 l
0.14 -0.50 l
0.15 -0.98 l
0.14 0.74 l
0.15 1.23 l
0.14 -1.97 l
0.15 0.98 l
0.14 1.24 l
0.15 -0.99 l
0.15 -0.98 l
0.14 2.21 l
0.15 -2.21 l
0.14 1.97 l
0.15 -0.25 l
0.14 -0.25 l
0.15 -1.23 l
0.15 0.49 l
0.14 2.43 l
0.15 -2.43 l
0.14 0.99 l
0.15 0.94 l
0.14 -1.93 l
0.15 0.74 l
0.14 0.50 l
0.15 -2.47 l
0.15 2.71 l
0.14 0 l
0.15 -0.98 l
0.14 0.49 l
0.15 -0.25 l
295.19 510.28 lineto
0.15 -0.70 l
0.14 -1.23 l
0.15 2.17 l
0.15 -0.94 l
0.14 -0.25 l
0.15 -0.49 l
0.14 0.99 l
0.15 -0.25 l
0.14 -0.99 l
0.15 0.99 l
0.14 0.25 l
0.15 0.69 l
0.15 -0.69 l
0.14 -0.50 l
0.15 1.19 l
0.14 -0.94 l
0.15 -0.74 l
0.14 -0.25 l
0.15 -0.98 l
0.15 0.49 l
0.14 0.49 l
0.15 0.74 l
0.14 -0.49 l
0.15 -0.49 l
0.14 0.49 l
0.15 0.25 l
0.14 0 l
0.15 -0.50 l
0.15 0 l
0.14 0 l
0.15 0.50 l
0.14 0 l
0.15 0 l
0.14 0.24 l
0.15 -0.49 l
0.14 -0.25 l
0.15 -0.73 l
0.15 1.72 l
0.14 -2.22 l
0.15 0.74 l
0.14 0.74 l
0.15 -3.20 l
0.14 3.69 l
0.15 -1.97 l
0.14 0.50 l
0.15 -0.50 l
0.15 1.48 l
0.14 -1.72 l
0.15 0.74 l
0.14 0.24 l
0.15 -0.49 l
0.14 0.74 l
0.15 -0.99 l
0.15 0.74 l
0.14 -0.98 l
0.15 0.98 l
0.14 -1.72 l
0.15 2.21 l
0.14 -1.23 l
0.15 -0.98 l
0.14 0.74 l
0.15 -0.25 l
0.15 -0.98 l
0.14 -0.99 l
0.15 2.71 l
0.14 -0.25 l
0.15 0.25 l
0.14 -0.49 l
0.15 1.47 l
0.14 -1.96 l
0.15 -1.97 l
0.15 2.21 l
0.14 0.25 l
0.15 -0.99 l
0.14 0.50 l
0.15 -0.74 l
0.14 0.24 l
0.15 0.50 l
0.14 0.98 l
0.15 -1.48 l
0.15 0.25 l
0.14 -2.46 l
0.15 2.46 l
0.14 0.25 l
0.15 0 l
0.14 -1.48 l
0.15 0.98 l
0.15 0.25 l
0.14 0 l
0.15 0 l
0.14 1.23 l
0.15 -0.98 l
0.14 0 l
0.15 0.49 l
0.14 -0.74 l
0.15 -1.23 l
0.15 2.21 l
0.14 -1.23 l
0.15 1.97 l
309.75 507.36 lineto
0.15 -0.73 l
0.14 1.23 l
0.15 -1.23 l
0.14 0 l
0.15 -0.25 l
0.15 1.72 l
0.14 -1.47 l
0.15 0.98 l
0.14 0.74 l
0.15 0.49 l
0.14 0.99 l
0.15 -0.99 l
0.14 -0.74 l
0.15 0 l
0.15 -0.98 l
0.14 0 l
0.15 1.23 l
0.14 -0.49 l
0.15 -0.25 l
0.14 0.25 l
0.15 -0.50 l
0.15 0.25 l
0.14 0 l
0.15 0.98 l
0.14 -0.98 l
0.15 0.49 l
0.14 0 l
0.15 0.74 l
0.14 -2.21 l
0.15 0.98 l
0.15 1.97 l
0.14 -0.25 l
0.15 -0.49 l
0.14 0.25 l
0.15 -0.50 l
0.14 0.25 l
0.15 -1.48 l
0.14 1.48 l
0.15 0.25 l
0.15 -0.50 l
0.14 0.99 l
0.15 -1.72 l
0.14 0.73 l
0.15 -0.49 l
0.14 0 l
0.15 0 l
0.14 -1.23 l
0.15 2.46 l
0.15 -0.98 l
0.14 0.74 l
0.15 -0.50 l
0.14 0.50 l
0.15 -0.99 l
0.14 0.49 l
0.15 -0.49 l
0.15 -0.49 l
0.14 1.48 l
0.15 -0.50 l
0.14 0.50 l
0.15 -0.50 l
0.14 -1.96 l
0.15 1.72 l
0.14 -1.48 l
0.15 1.97 l
0.15 0.49 l
0.14 -0.98 l
0.15 -1.23 l
0.14 1.72 l
0.15 -1.23 l
0.14 -0.25 l
0.15 -0.73 l
0.14 2.70 l
0.15 -1.97 l
0.15 0.25 l
0.14 1.23 l
0.15 -1.48 l
0.14 -0.49 l
0.15 0.74 l
0.14 -1.23 l
0.15 1.48 l
0.14 0 l
0.15 0.49 l
0.15 -1.23 l
0.14 0.24 l
0.15 0.50 l
0.14 0 l
0.15 -0.25 l
0.14 0 l
0.15 1.23 l
0.14 0.49 l
0.15 -1.47 l
0.15 0.73 l
0.14 -0.24 l
0.15 1.23 l
0.14 -0.49 l
0.15 -1.23 l
0.14 0.24 l
0.15 -0.49 l
0.15 -0.25 l
324.31 508.84 lineto
0.15 -0.25 l
0.14 -0.24 l
0.15 0.24 l
0.14 0.99 l
0.15 0.25 l
0.14 -0.74 l
0.15 -0.74 l
0.15 0.49 l
0.14 -0.25 l
0.15 0.50 l
0.14 1.19 l
0.15 -1.93 l
0.14 0.24 l
0.15 1.48 l
0.14 0 l
0.15 -1.48 l
0.15 0.99 l
0.14 0 l
0.15 -1.48 l
0.14 -0.24 l
0.15 0 l
0.14 1.23 l
0.15 -0.74 l
0.14 1.93 l
0.15 -1.69 l
0.15 -0.24 l
0.14 0.49 l
0.15 0.99 l
0.14 -0.50 l
0.15 0 l
0.14 0 l
0.15 0.95 l
0.15 0 l
0.14 -1.44 l
0.15 -0.49 l
0.14 0.49 l
0.15 -0.98 l
0.14 2.42 l
0.15 -0.45 l
0.14 -0.74 l
0.15 0 l
0.15 -0.99 l
0.14 0.74 l
0.15 -0.25 l
0.14 0.74 l
0.15 -0.74 l
0.14 0.50 l
0.15 0.49 l
0.14 0.25 l
0.15 0.45 l
0.15 -0.70 l
0.14 0.70 l
0.15 0.49 l
0.14 -2.18 l
0.15 0.50 l
0.14 0.74 l
0.15 -0.99 l
0.14 0.74 l
0.15 -0.25 l
0.15 -0.98 l
0.14 0.74 l
0.15 0.49 l
0.14 -0.25 l
0.15 -1.23 l
0.14 0.74 l
0.15 -0.74 l
0.15 0.74 l
0.14 -1.23 l
0.15 0.74 l
0.14 -0.99 l
0.15 0.74 l
0.14 0.74 l
0.15 0.25 l
0.14 0 l
0.15 0.49 l
0.15 0.25 l
0.14 -1.97 l
0.15 0.24 l
0.14 0.99 l
0.15 0.49 l
0.14 -1.97 l
0.15 0.49 l
0.14 0.74 l
0.15 0.74 l
0.15 -0.99 l
0.14 -0.98 l
0.15 0.74 l
0.14 1.23 l
0.15 -1.97 l
0.14 0.74 l
0.15 0.74 l
0.14 -1.48 l
0.15 0.98 l
0.15 0.74 l
0.14 -1.72 l
0.15 0.25 l
0.14 -1.23 l
0.15 0.98 l
0.14 0.74 l
338.87 506.38 lineto
0.15 0.25 l
0.14 0.73 l
0.15 0.99 l
0.14 -0.99 l
0.15 -0.49 l
0.14 0.49 l
0.15 0.25 l
0.14 -0.49 l
0.15 1.72 l
0.15 -0.74 l
0.14 -0.74 l
0.15 -0.24 l
0.14 0 l
0.15 -0.49 l
0.14 1.47 l
0.15 -2.46 l
0.14 1.97 l
0.15 -0.25 l
0.15 -0.24 l
0.14 2.21 l
0.15 -2.46 l
0.14 -0.74 l
0.15 0.99 l
0.14 0 l
0.15 -0.25 l
0.14 0.49 l
0.15 0.25 l
0.15 -0.49 l
0.14 0.49 l
0.15 0 l
0.14 0.25 l
0.15 -0.74 l
0.14 0.49 l
0.15 0.49 l
0.15 -0.49 l
0.14 -0.74 l
0.15 0.49 l
0.14 -0.73 l
0.15 1.72 l
0.14 -0.49 l
0.15 -0.25 l
0.14 0.49 l
0.15 -0.98 l
0.15 -0.25 l
0.14 1.97 l
0.15 -2.21 l
0.14 0.24 l
0.15 0.99 l
0.14 0.49 l
0.15 0.74 l
0.14 -0.25 l
0.15 0 l
0.15 0.25 l
0.14 -0.99 l
0.15 0.49 l
0.14 -0.49 l
0.15 0.99 l
0.14 0.49 l
0.15 -1.48 l
0.14 -0.74 l
0.15 1.23 l
0.15 -0.73 l
0.14 0.98 l
0.15 0.25 l
0.14 0.24 l
0.15 -1.47 l
0.14 1.47 l
0.15 0.50 l
0.15 0 l
0.14 -1.24 l
0.15 0.25 l
0.14 1.23 l
0.15 0 l
0.14 -0.74 l
0.15 0.74 l
0.14 -0.74 l
0.15 -0.74 l
0.15 0.25 l
0.14 -0.25 l
0.15 0.25 l
0.14 0 l
0.15 0.74 l
0.14 -0.74 l
0.15 0.25 l
0.14 2.42 l
0.15 -1.68 l
0.15 0.24 l
0.14 -0.74 l
0.15 0.74 l
0.14 -1.97 l
0.15 1.97 l
0.14 -0.24 l
0.15 -0.74 l
0.14 -0.25 l
0.15 0.99 l
0.15 -0.99 l
0.14 0.49 l
0.15 0.25 l
0.14 0.70 l
353.43 509.83 lineto
0.14 -0.50 l
0.15 0.25 l
0.14 0.49 l
0.15 -0.24 l
0.15 -0.50 l
0.14 0 l
0.15 -1.23 l
0.14 3.41 l
0.15 -1.93 l
0.14 -1.72 l
0.15 0.98 l
0.15 -0.49 l
0.14 -0.74 l
0.15 1.97 l
0.14 -1.72 l
0.15 0.98 l
0.14 -0.25 l
0.15 -0.24 l
0.14 0.74 l
0.15 -0.74 l
0.15 0.49 l
0.14 -0.74 l
0.15 -0.74 l
0.14 2.71 l
0.15 -1.48 l
0.14 0 l
0.15 0.99 l
0.14 0.25 l
0.15 -0.25 l
0.15 -0.25 l
0.14 -1.47 l
0.15 0.73 l
0.14 -0.24 l
0.15 0.49 l
0.14 0.99 l
0.15 0 l
0.14 -1.73 l
0.15 -0.49 l
0.15 1.23 l
0.14 -1.23 l
0.15 1.72 l
0.14 -0.49 l
0.15 0 l
0.14 0.25 l
0.15 0 l
0.15 -1.23 l
0.14 0.24 l
0.15 1.48 l
0.14 -0.99 l
0.15 -0.73 l
0.14 0 l
0.15 0 l
0.14 0 l
0.15 0.24 l
0.15 0.25 l
0.14 0.49 l
0.15 -2.46 l
0.14 2.71 l
0.15 -0.74 l
0.14 0.24 l
0.15 -0.73 l
0.14 0.49 l
0.15 0.49 l
0.15 0.25 l
0.14 -1.48 l
0.15 0.74 l
0.14 0.74 l
0.15 0.49 l
0.14 -0.49 l
0.15 0 l
0.14 0 l
0.15 1.43 l
0.15 -0.94 l
0.14 0.49 l
0.15 -1.72 l
0.14 0.74 l
0.15 0.74 l
0.14 -1.24 l
0.15 0.50 l
0.15 0.49 l
0.14 0.25 l
0.15 -1.24 l
0.14 1.69 l
0.15 -0.70 l
0.14 0 l
0.15 0.70 l
0.14 -2.67 l
0.15 1.97 l
0.15 -0.49 l
0.14 1.43 l
0.15 -0.24 l
0.14 -1.44 l
0.15 1.68 l
0.14 -2.17 l
0.15 0.98 l
0.14 -0.24 l
0.15 -1.23 l
0.15 2.42 l
0.14 -1.44 l
currentpoint o m
367.99 508.84 lineto
0.14 -0.74 l
0.15 1.23 l
0.14 -0.24 l
0.15 -1.73 l
0.14 1.23 l
0.15 1.24 l
0.15 -0.99 l
0.14 0.74 l
0.15 1.19 l
0.14 -1.44 l
0.15 -0.49 l
0.14 0.25 l
0.15 1.43 l
0.15 -2.42 l
0.14 2.18 l
0.15 -0.95 l
0.14 -0.24 l
0.15 -0.50 l
0.14 0.50 l
0.15 0.49 l
0.14 0.94 l
0.15 -1.93 l
0.15 -0.24 l
0.14 1.72 l
0.15 -1.48 l
0.14 0.25 l
0.15 1.23 l
0.14 -0.24 l
0.15 -0.99 l
0.14 0.74 l
0.15 1.19 l
0.15 -0.70 l
0.14 -1.97 l
0.15 2.18 l
0.14 -0.70 l
0.15 -0.25 l
0.14 0.25 l
0.15 -0.49 l
0.14 0.24 l
0.15 -0.74 l
0.15 0.25 l
0.14 0.49 l
0.15 -0.49 l
0.14 0 l
0.15 -0.25 l
0.14 0.25 l
0.15 0.99 l
0.15 -0.50 l
0.14 0.25 l
0.15 0.49 l
0.14 -2.21 l
0.15 0.73 l
0.14 -0.24 l
0.15 -0.25 l
0.14 1.23 l
0.15 -0.49 l
0.15 0.74 l
0.14 -0.74 l
0.15 -1.72 l
0.14 1.97 l
0.15 0 l
0.14 -0.50 l
0.15 1.69 l
0.14 -2.42 l
0.15 0.73 l
0.15 -0.24 l
0.14 0.74 l
0.15 -0.50 l
0.14 -1.23 l
0.15 1.97 l
0.14 -0.98 l
0.15 0 l
0.14 1.23 l
0.15 -2.46 l
0.15 3.40 l
0.14 -3.40 l
0.15 0.74 l
0.14 -0.50 l
0.15 -0.49 l
0.14 0.74 l
0.15 0.49 l
0.15 0 l
0.14 0.25 l
0.15 0 l
0.14 -0.49 l
0.15 0.24 l
0.14 -0.74 l
0.15 0.99 l
0.14 -0.25 l
0.15 -0.49 l
0.15 0.74 l
0.14 0.24 l
0.15 0.25 l
0.14 -1.48 l
0.15 0.50 l
0.14 1.23 l
0.15 -0.25 l
0.14 -0.25 l
0.15 1.69 l
o
/bg { 1 1 1 srgb } def
222.40 508.59 0.43 c p3
222.55 510.07 0.43 c p3
222.69 509.09 0.43 c p3
222.84 509.58 0.43 c p3
222.98 510.07 0.43 c p3
223.13 510.28 0.43 c p3
223.27 508.84 0.43 c p3
223.42 509.33 0.43 c p3
223.56 509.09 0.43 c p3
223.71 510.52 0.43 c p3
223.86 509.83 0.43 c p3
224.00 510.52 0.43 c p3
224.15 511.51 0.43 c p3
224.29 510.52 0.43 c p3
224.44 510.77 0.43 c p3
224.58 511.02 0.43 c p3
224.73 510.07 0.43 c p3
224.87 508.35 0.43 c p3
225.02 510.28 0.43 c p3
225.17 510.07 0.43 c p3
225.31 508.84 0.43 c p3
225.46 510.07 0.43 c p3
225.60 509.83 0.43 c p3
225.75 508.84 0.43 c p3
225.89 509.58 0.43 c p3
226.04 510.07 0.43 c p3
226.19 511.02 0.43 c p3
226.33 509.09 0.43 c p3
226.48 511.02 0.43 c p3
226.62 509.09 0.43 c p3
226.77 511.51 0.43 c p3
226.91 510.52 0.43 c p3
227.06 510.77 0.43 c p3
227.20 510.07 0.43 c p3
227.35 511.02 0.43 c p3
227.50 509.09 0.43 c p3
227.64 510.77 0.43 c p3
227.79 510.28 0.43 c p3
227.93 510.07 0.43 c p3
228.08 509.58 0.43 c p3
228.22 510.52 0.43 c p3
228.37 509.09 0.43 c p3
228.51 509.33 0.43 c p3
228.66 509.33 0.43 c p3
228.81 511.02 0.43 c p3
228.95 512.00 0.43 c p3
229.10 509.58 0.43 c p3
229.24 509.83 0.43 c p3
229.39 510.07 0.43 c p3
229.53 510.77 0.43 c p3
229.68 509.83 0.43 c p3
229.82 511.51 0.43 c p3
229.97 510.52 0.43 c p3
230.12 510.28 0.43 c p3
230.26 509.33 0.43 c p3
230.41 510.52 0.43 c p3
230.55 511.51 0.43 c p3
230.70 510.52 0.43 c p3
230.84 509.58 0.43 c p3
230.99 510.77 0.43 c p3
231.14 511.02 0.43 c p3
231.28 511.02 0.43 c p3
231.43 510.28 0.43 c p3
231.57 510.28 0.43 c p3
231.72 510.07 0.43 c p3
231.86 508.84 0.43 c p3
232.01 510.07 0.43 c p3
232.15 509.33 0.43 c p3
232.30 511.26 0.43 c p3
232.45 510.77 0.43 c p3
232.59 510.52 0.43 c p3
232.74 510.52 0.43 c p3
232.88 511.26 0.43 c p3
233.03 509.58 0.43 c p3
233.17 510.28 0.43 c p3
233.32 511.75 0.43 c p3
233.46 511.51 0.43 c p3
233.61 510.07 0.43 c p3
233.76 510.07 0.43 c p3
233.90 510.28 0.43 c p3
234.05 510.52 0.43 c p3
234.19 510.07 0.43 c p3
234.34 509.83 0.43 c p3
234.48 509.83 0.43 c p3
234.63 509.33 0.43 c p3
234.77 509.58 0.43 c p3
234.92 510.28 0.43 c p3
235.07 510.52 0.43 c p3
235.21 509.09 0.43 c p3
235.36 509.33 0.43 c p3
235.50 510.28 0.43 c p3
235.65 511.02 0.43 c p3
235.79 511.51 0.43 c p3
235.94 510.07 0.43 c p3
236.09 510.77 0.43 c p3
236.23 510.52 0.43 c p3
236.38 510.28 0.43 c p3
236.52 509.09 0.43 c p3
236.67 510.28 0.43 c p3
236.81 511.26 0.43 c p3
236.96 453.78 0.43 c p3
237.10 453.52 0.43 c p3
237.25 455.75 0.43 c p3
237.40 456.49 0.43 c p3
237.54 458.42 0.43 c p3
237.69 460.64 0.43 c p3
237.83 462.11 0.43 c p3
237.98 462.11 0.43 c p3
238.12 463.84 0.43 c p3
238.27 462.36 0.43 c p3
238.41 464.78 0.43 c p3
238.56 465.03 0.43 c p3
238.71 466.26 0.43 c p3
238.85 466.26 0.43 c p3
239.00 468.47 0.43 c p3
239.14 469.70 0.43 c p3
239.29 468.96 0.43 c p3
239.43 468.23 0.43 c p3
239.58 468.96 0.43 c p3
239.72 470.44 0.43 c p3
239.87 471.38 0.43 c p3
240.02 472.12 0.43 c p3
240.16 474.34 0.43 c p3
240.31 473.60 0.43 c p3
240.45 473.35 0.43 c p3
240.60 473.11 0.43 c p3
240.74 473.35 0.43 c p3
240.89 473.35 0.43 c p3
241.04 474.09 0.43 c p3
241.18 473.60 0.43 c p3
241.33 474.83 0.43 c p3
241.47 477.50 0.43 c p3
241.62 475.82 0.43 c p3
241.76 475.82 0.43 c p3
241.91 476.80 0.43 c p3
242.05 478.73 0.43 c p3
242.20 480.45 0.43 c p3
242.35 480.21 0.43 c p3
242.49 480.70 0.43 c p3
242.64 481.19 0.43 c p3
242.78 480.94 0.43 c p3
242.93 481.93 0.43 c p3
243.07 483.41 0.43 c p3
243.22 482.17 0.43 c p3
243.36 483.41 0.43 c p3
243.51 485.33 0.43 c p3
243.66 485.58 0.43 c p3
243.80 485.09 0.43 c p3
243.95 484.35 0.43 c p3
244.09 484.10 0.43 c p3
244.24 481.44 0.43 c p3
244.38 484.35 0.43 c p3
244.53 486.07 0.43 c p3
244.67 485.09 0.43 c p3
244.82 486.81 0.43 c p3
244.97 486.56 0.43 c p3
245.11 485.33 0.43 c p3
245.26 485.09 0.43 c p3
245.40 486.07 0.43 c p3
245.55 486.32 0.43 c p3
245.69 489.03 0.43 c p3
245.84 488.04 0.43 c p3
245.99 488.29 0.43 c p3
246.13 489.52 0.43 c p3
246.28 489.27 0.43 c p3
246.42 489.52 0.43 c p3
246.57 488.29 0.43 c p3
246.71 490.01 0.43 c p3
246.86 491.69 0.43 c p3
247.00 491.69 0.43 c p3
247.15 489.76 0.43 c p3
247.30 492.18 0.43 c p3
247.44 491.45 0.43 c p3
247.59 492.92 0.43 c p3
247.73 492.68 0.43 c p3
247.88 490.95 0.43 c p3
248.02 491.20 0.43 c p3
248.17 492.92 0.43 c p3
248.31 493.91 0.43 c p3
248.46 493.42 0.43 c p3
248.61 494.15 0.43 c p3
248.75 494.65 0.43 c p3
248.90 492.92 0.43 c p3
249.04 492.43 0.43 c p3
249.19 495.38 0.43 c p3
249.33 495.63 0.43 c p3
249.48 495.38 0.43 c p3
249.62 494.89 0.43 c p3
249.77 495.88 0.43 c p3
249.92 496.86 0.43 c p3
250.06 496.37 0.43 c p3
250.21 496.62 0.43 c p3
250.35 496.37 0.43 c p3
250.50 496.62 0.43 c p3
250.64 496.62 0.43 c p3
250.79 497.31 0.43 c p3
250.94 497.31 0.43 c p3
251.08 496.86 0.43 c p3
251.23 496.37 0.43 c p3
251.37 494.65 0.43 c p3
251.52 496.12 0.43 c p3
251.66 497.31 0.43 c p3
251.81 497.07 0.43 c p3
251.95 497.81 0.43 c p3
252.10 498.05 0.43 c p3
252.25 498.79 0.43 c p3
252.39 498.79 0.43 c p3
252.54 498.54 0.43 c p3
252.68 498.54 0.43 c p3
252.83 500.02 0.43 c p3
252.97 501.25 0.43 c p3
253.12 501.50 0.43 c p3
253.26 500.27 0.43 c p3
253.41 502.24 0.43 c p3
253.56 500.02 0.43 c p3
253.70 499.77 0.43 c p3
253.85 500.02 0.43 c p3
253.99 501.01 0.43 c p3
254.14 499.77 0.43 c p3
254.28 500.76 0.43 c p3
254.43 501.01 0.43 c p3
254.57 501.01 0.43 c p3
254.72 501.25 0.43 c p3
254.87 499.28 0.43 c p3
255.01 500.51 0.43 c p3
255.16 501.74 0.43 c p3
255.30 501.74 0.43 c p3
255.45 504.90 0.43 c p3
255.59 503.67 0.43 c p3
255.74 503.92 0.43 c p3
255.88 503.47 0.43 c p3
256.03 502.48 0.43 c p3
256.18 503.22 0.43 c p3
256.32 504.66 0.43 c p3
256.47 503.67 0.43 c p3
256.61 501.25 0.43 c p3
256.76 501.99 0.43 c p3
256.90 503.22 0.43 c p3
257.05 503.47 0.43 c p3
257.20 503.47 0.43 c p3
257.34 502.48 0.43 c p3
257.49 504.41 0.43 c p3
257.63 503.92 0.43 c p3
257.78 504.90 0.43 c p3
257.92 505.89 0.43 c p3
258.07 505.64 0.43 c p3
258.21 505.39 0.43 c p3
258.36 505.15 0.43 c p3
258.51 504.90 0.43 c p3
258.65 504.66 0.43 c p3
258.80 505.89 0.43 c p3
258.94 505.89 0.43 c p3
259.09 505.15 0.43 c p3
259.23 504.90 0.43 c p3
259.38 505.39 0.43 c p3
259.52 505.39 0.43 c p3
259.67 505.39 0.43 c p3
259.82 504.66 0.43 c p3
259.96 505.64 0.43 c p3
260.11 505.89 0.43 c p3
260.25 505.89 0.43 c p3
260.40 505.15 0.43 c p3
260.54 505.15 0.43 c p3
260.69 505.39 0.43 c p3
260.83 505.89 0.43 c p3
260.98 504.66 0.43 c p3
261.13 506.63 0.43 c p3
261.27 507.36 0.43 c p3
261.42 506.13 0.43 c p3
261.56 507.61 0.43 c p3
261.71 506.13 0.43 c p3
261.85 506.38 0.43 c p3
262.00 506.13 0.43 c p3
262.15 505.39 0.43 c p3
262.29 505.89 0.43 c p3
262.44 506.87 0.43 c p3
262.58 506.63 0.43 c p3
262.73 506.13 0.43 c p3
262.87 506.63 0.43 c p3
263.02 506.63 0.43 c p3
263.16 505.89 0.43 c p3
263.31 507.86 0.43 c p3
263.46 506.87 0.43 c p3
263.60 504.66 0.43 c p3
263.75 505.89 0.43 c p3
263.89 506.87 0.43 c p3
264.04 508.35 0.43 c p3
264.18 506.13 0.43 c p3
264.33 507.36 0.43 c p3
264.47 504.90 0.43 c p3
264.62 507.36 0.43 c p3
264.77 506.87 0.43 c p3
264.91 507.12 0.43 c p3
265.06 508.59 0.43 c p3
265.20 508.35 0.43 c p3
265.35 507.86 0.43 c p3
265.49 506.38 0.43 c p3
265.64 507.12 0.43 c p3
265.78 505.89 0.43 c p3
265.93 505.64 0.43 c p3
266.08 506.38 0.43 c p3
266.22 507.61 0.43 c p3
266.37 507.61 0.43 c p3
266.51 505.39 0.43 c p3
266.66 507.12 0.43 c p3
266.80 506.38 0.43 c p3
266.95 506.13 0.43 c p3
267.10 507.12 0.43 c p3
267.24 505.89 0.43 c p3
267.39 506.13 0.43 c p3
267.53 507.61 0.43 c p3
267.68 506.87 0.43 c p3
267.82 507.12 0.43 c p3
267.97 505.89 0.43 c p3
268.11 506.13 0.43 c p3
268.26 505.39 0.43 c p3
268.41 506.63 0.43 c p3
268.55 506.38 0.43 c p3
268.70 506.63 0.43 c p3
268.84 505.89 0.43 c p3
268.99 506.38 0.43 c p3
269.13 505.89 0.43 c p3
269.28 505.15 0.43 c p3
269.42 505.89 0.43 c p3
269.57 506.63 0.43 c p3
269.72 506.63 0.43 c p3
269.86 507.36 0.43 c p3
270.01 505.64 0.43 c p3
270.15 506.13 0.43 c p3
270.30 505.64 0.43 c p3
270.44 506.38 0.43 c p3
270.59 505.89 0.43 c p3
270.73 505.89 0.43 c p3
270.88 506.13 0.43 c p3
271.03 507.61 0.43 c p3
271.17 507.61 0.43 c p3
271.32 506.13 0.43 c p3
271.46 505.89 0.43 c p3
271.61 505.89 0.43 c p3
271.75 505.39 0.43 c p3
271.90 505.89 0.43 c p3
272.05 507.36 0.43 c p3
272.19 506.38 0.43 c p3
272.34 507.12 0.43 c p3
272.48 507.36 0.43 c p3
272.63 505.89 0.43 c p3
272.77 504.41 0.43 c p3
272.92 507.12 0.43 c p3
273.06 506.13 0.43 c p3
273.21 506.63 0.43 c p3
273.36 507.61 0.43 c p3
273.50 506.13 0.43 c p3
273.65 505.64 0.43 c p3
273.79 506.63 0.43 c p3
273.94 506.13 0.43 c p3
274.08 506.38 0.43 c p3
274.23 505.89 0.43 c p3
274.37 505.89 0.43 c p3
274.52 507.61 0.43 c p3
274.67 507.61 0.43 c p3
274.81 507.12 0.43 c p3
274.96 506.38 0.43 c p3
275.10 506.38 0.43 c p3
275.25 505.39 0.43 c p3
275.39 506.63 0.43 c p3
275.54 507.61 0.43 c p3
275.68 507.86 0.43 c p3
275.83 506.87 0.43 c p3
275.98 506.87 0.43 c p3
276.12 504.41 0.43 c p3
276.27 505.89 0.43 c p3
276.41 507.61 0.43 c p3
276.56 508.35 0.43 c p3
276.70 507.61 0.43 c p3
276.85 507.86 0.43 c p3
277.00 507.86 0.43 c p3
277.14 507.86 0.43 c p3
277.29 506.87 0.43 c p3
277.43 506.13 0.43 c p3
277.58 507.36 0.43 c p3
277.72 508.10 0.43 c p3
277.87 505.64 0.43 c p3
278.01 507.36 0.43 c p3
278.16 507.12 0.43 c p3
278.31 508.59 0.43 c p3
278.45 507.86 0.43 c p3
278.60 507.61 0.43 c p3
278.74 506.87 0.43 c p3
278.89 506.63 0.43 c p3
279.03 508.59 0.43 c p3
279.18 508.59 0.43 c p3
279.32 507.36 0.43 c p3
279.47 507.61 0.43 c p3
279.62 506.63 0.43 c p3
279.76 507.86 0.43 c p3
279.91 507.61 0.43 c p3
280.05 507.36 0.43 c p3
280.20 506.38 0.43 c p3
280.34 507.86 0.43 c p3
280.49 506.38 0.43 c p3
280.63 507.61 0.43 c p3
280.78 508.59 0.43 c p3
280.93 507.61 0.43 c p3
281.07 505.89 0.43 c p3
281.22 507.61 0.43 c p3
281.36 506.87 0.43 c p3
281.51 508.35 0.43 c p3
281.65 508.10 0.43 c p3
281.80 507.86 0.43 c p3
281.95 508.35 0.43 c p3
282.09 507.61 0.43 c p3
282.24 507.61 0.43 c p3
282.38 507.36 0.43 c p3
282.53 505.89 0.43 c p3
282.67 507.12 0.43 c p3
282.82 508.10 0.43 c p3
282.96 507.61 0.43 c p3
283.11 505.39 0.43 c p3
283.26 507.36 0.43 c p3
283.40 506.13 0.43 c p3
283.55 507.86 0.43 c p3
283.69 505.39 0.43 c p3
283.84 506.38 0.43 c p3
283.98 508.35 0.43 c p3
284.13 506.13 0.43 c p3
284.27 506.87 0.43 c p3
284.42 505.89 0.43 c p3
284.57 507.36 0.43 c p3
284.71 506.63 0.43 c p3
284.86 506.63 0.43 c p3
285.00 507.86 0.43 c p3
285.15 506.63 0.43 c p3
285.29 507.12 0.43 c p3
285.44 507.36 0.43 c p3
285.58 506.38 0.43 c p3
285.73 507.36 0.43 c p3
285.88 507.61 0.43 c p3
286.02 505.15 0.43 c p3
286.17 505.89 0.43 c p3
286.31 507.61 0.43 c p3
286.46 506.63 0.43 c p3
286.60 506.87 0.43 c p3
286.75 507.12 0.43 c p3
286.89 506.87 0.43 c p3
287.04 508.10 0.43 c p3
287.19 507.36 0.43 c p3
287.33 508.10 0.43 c p3
287.48 507.12 0.43 c p3
287.62 507.12 0.43 c p3
287.77 509.33 0.43 c p3
287.91 508.59 0.43 c p3
288.06 506.87 0.43 c p3
288.21 507.61 0.43 c p3
288.35 507.36 0.43 c p3
288.50 506.63 0.43 c p3
288.64 507.12 0.43 c p3
288.79 507.36 0.43 c p3
288.93 507.36 0.43 c p3
289.08 506.87 0.43 c p3
289.22 508.10 0.43 c p3
289.37 509.33 0.43 c p3
289.52 507.36 0.43 c p3
289.66 507.36 0.43 c p3
289.81 508.10 0.43 c p3
289.95 506.87 0.43 c p3
290.10 507.86 0.43 c p3
290.24 508.59 0.43 c p3
290.39 507.61 0.43 c p3
290.53 506.87 0.43 c p3
290.68 508.59 0.43 c p3
290.83 509.09 0.43 c p3
290.97 508.59 0.43 c p3
291.12 507.61 0.43 c p3
291.26 508.35 0.43 c p3
291.41 509.58 0.43 c p3
291.55 507.61 0.43 c p3
291.70 508.59 0.43 c p3
291.84 509.83 0.43 c p3
291.99 508.84 0.43 c p3
292.14 507.86 0.43 c p3
292.28 510.07 0.43 c p3
292.43 507.86 0.43 c p3
292.57 509.83 0.43 c p3
292.72 509.58 0.43 c p3
292.86 509.33 0.43 c p3
293.01 508.10 0.43 c p3
293.16 508.59 0.43 c p3
293.30 511.02 0.43 c p3
293.45 508.59 0.43 c p3
293.59 509.58 0.43 c p3
293.74 510.52 0.43 c p3
293.88 508.59 0.43 c p3
294.03 509.33 0.43 c p3
294.17 509.83 0.43 c p3
294.32 507.36 0.43 c p3
294.47 510.07 0.43 c p3
294.61 510.07 0.43 c p3
294.76 509.09 0.43 c p3
294.90 509.58 0.43 c p3
295.05 509.33 0.43 c p3
295.19 510.28 0.43 c p3
295.34 509.58 0.43 c p3
295.48 508.35 0.43 c p3
295.63 510.52 0.43 c p3
295.78 509.58 0.43 c p3
295.92 509.33 0.43 c p3
296.07 508.84 0.43 c p3
296.21 509.83 0.43 c p3
296.36 509.58 0.43 c p3
296.50 508.59 0.43 c p3
296.65 509.58 0.43 c p3
296.79 509.83 0.43 c p3
296.94 510.52 0.43 c p3
297.09 509.83 0.43 c p3
297.23 509.33 0.43 c p3
297.38 510.52 0.43 c p3
297.52 509.58 0.43 c p3
297.67 508.84 0.43 c p3
297.81 508.59 0.43 c p3
297.96 507.61 0.43 c p3
298.11 508.10 0.43 c p3
298.25 508.59 0.43 c p3
298.40 509.33 0.43 c p3
298.54 508.84 0.43 c p3
298.69 508.35 0.43 c p3
298.83 508.84 0.43 c p3
298.98 509.09 0.43 c p3
299.12 509.09 0.43 c p3
299.27 508.59 0.43 c p3
299.42 508.59 0.43 c p3
299.56 508.59 0.43 c p3
299.71 509.09 0.43 c p3
299.85 509.09 0.43 c p3
300.00 509.09 0.43 c p3
300.14 509.33 0.43 c p3
300.29 508.84 0.43 c p3
300.43 508.59 0.43 c p3
300.58 507.86 0.43 c p3
300.73 509.58 0.43 c p3
300.87 507.36 0.43 c p3
301.02 508.10 0.43 c p3
301.16 508.84 0.43 c p3
301.31 505.64 0.43 c p3
301.45 509.33 0.43 c p3
301.60 507.36 0.43 c p3
301.74 507.86 0.43 c p3
301.89 507.36 0.43 c p3
302.04 508.84 0.43 c p3
302.18 507.12 0.43 c p3
302.33 507.86 0.43 c p3
302.47 508.10 0.43 c p3
302.62 507.61 0.43 c p3
302.76 508.35 0.43 c p3
302.91 507.36 0.43 c p3
303.06 508.10 0.43 c p3
303.20 507.12 0.43 c p3
303.35 508.10 0.43 c p3
303.49 506.38 0.43 c p3
303.64 508.59 0.43 c p3
303.78 507.36 0.43 c p3
303.93 506.38 0.43 c p3
304.07 507.12 0.43 c p3
304.22 506.87 0.43 c p3
304.37 505.89 0.43 c p3
304.51 504.90 0.43 c p3
304.66 507.61 0.43 c p3
304.80 507.36 0.43 c p3
304.95 507.61 0.43 c p3
305.09 507.12 0.43 c p3
305.24 508.59 0.43 c p3
305.38 506.63 0.43 c p3
305.53 504.66 0.43 c p3
305.68 506.87 0.43 c p3
305.82 507.12 0.43 c p3
305.97 506.13 0.43 c p3
306.11 506.63 0.43 c p3
306.26 505.89 0.43 c p3
306.40 506.13 0.43 c p3
306.55 506.63 0.43 c p3
306.69 507.61 0.43 c p3
306.84 506.13 0.43 c p3
306.99 506.38 0.43 c p3
307.13 503.92 0.43 c p3
307.28 506.38 0.43 c p3
307.42 506.63 0.43 c p3
307.57 506.63 0.43 c p3
307.71 505.15 0.43 c p3
307.86 506.13 0.43 c p3
308.01 506.38 0.43 c p3
308.15 506.38 0.43 c p3
308.30 506.38 0.43 c p3
308.44 507.61 0.43 c p3
308.59 506.63 0.43 c p3
308.73 506.63 0.43 c p3
308.88 507.12 0.43 c p3
309.02 506.38 0.43 c p3
309.17 505.15 0.43 c p3
309.32 507.36 0.43 c p3
309.46 506.13 0.43 c p3
309.61 508.10 0.43 c p3
309.75 507.36 0.43 c p3
309.90 506.63 0.43 c p3
310.04 507.86 0.43 c p3
310.19 506.63 0.43 c p3
310.33 506.63 0.43 c p3
310.48 506.38 0.43 c p3
310.63 508.10 0.43 c p3
310.77 506.63 0.43 c p3
310.92 507.61 0.43 c p3
311.06 508.35 0.43 c p3
311.21 508.84 0.43 c p3
311.35 509.83 0.43 c p3
311.50 508.84 0.43 c p3
311.64 508.10 0.43 c p3
311.79 508.10 0.43 c p3
311.94 507.12 0.43 c p3
312.08 507.12 0.43 c p3
312.23 508.35 0.43 c p3
312.37 507.86 0.43 c p3
312.52 507.61 0.43 c p3
312.66 507.86 0.43 c p3
312.81 507.36 0.43 c p3
312.96 507.61 0.43 c p3
313.10 507.61 0.43 c p3
313.25 508.59 0.43 c p3
313.39 507.61 0.43 c p3
313.54 508.10 0.43 c p3
313.68 508.10 0.43 c p3
313.83 508.84 0.43 c p3
313.97 506.63 0.43 c p3
314.12 507.61 0.43 c p3
314.27 509.58 0.43 c p3
314.41 509.33 0.43 c p3
314.56 508.84 0.43 c p3
314.70 509.09 0.43 c p3
314.85 508.59 0.43 c p3
314.99 508.84 0.43 c p3
315.14 507.36 0.43 c p3
315.28 508.84 0.43 c p3
315.43 509.09 0.43 c p3
315.58 508.59 0.43 c p3
315.72 509.58 0.43 c p3
315.87 507.86 0.43 c p3
316.01 508.59 0.43 c p3
316.16 508.10 0.43 c p3
316.30 508.10 0.43 c p3
316.45 508.10 0.43 c p3
316.59 506.87 0.43 c p3
316.74 509.33 0.43 c p3
316.89 508.35 0.43 c p3
317.03 509.09 0.43 c p3
317.18 508.59 0.43 c p3
317.32 509.09 0.43 c p3
317.47 508.10 0.43 c p3
317.61 508.59 0.43 c p3
317.76 508.10 0.43 c p3
317.91 507.61 0.43 c p3
318.05 509.09 0.43 c p3
318.20 508.59 0.43 c p3
318.34 509.09 0.43 c p3
318.49 508.59 0.43 c p3
318.63 506.63 0.43 c p3
318.78 508.35 0.43 c p3
318.92 506.87 0.43 c p3
319.07 508.84 0.43 c p3
319.22 509.33 0.43 c p3
319.36 508.35 0.43 c p3
319.51 507.12 0.43 c p3
319.65 508.84 0.43 c p3
319.80 507.61 0.43 c p3
319.94 507.36 0.43 c p3
320.09 506.63 0.43 c p3
320.23 509.33 0.43 c p3
320.38 507.36 0.43 c p3
320.53 507.61 0.43 c p3
320.67 508.84 0.43 c p3
320.82 507.36 0.43 c p3
320.96 506.87 0.43 c p3
321.11 507.61 0.43 c p3
321.25 506.38 0.43 c p3
321.40 507.86 0.43 c p3
321.54 507.86 0.43 c p3
321.69 508.35 0.43 c p3
321.84 507.12 0.43 c p3
321.98 507.36 0.43 c p3
322.13 507.86 0.43 c p3
322.27 507.86 0.43 c p3
322.42 507.61 0.43 c p3
322.56 507.61 0.43 c p3
322.71 508.84 0.43 c p3
322.85 509.33 0.43 c p3
323.00 507.86 0.43 c p3
323.15 508.59 0.43 c p3
323.29 508.35 0.43 c p3
323.44 509.58 0.43 c p3
323.58 509.09 0.43 c p3
323.73 507.86 0.43 c p3
323.87 508.10 0.43 c p3
324.02 507.61 0.43 c p3
324.17 507.36 0.43 c p3
324.31 508.84 0.43 c p3
324.46 508.59 0.43 c p3
324.60 508.35 0.43 c p3
324.75 508.59 0.43 c p3
324.89 509.58 0.43 c p3
325.04 509.83 0.43 c p3
325.18 509.09 0.43 c p3
325.33 508.35 0.43 c p3
325.48 508.84 0.43 c p3
325.62 508.59 0.43 c p3
325.77 509.09 0.43 c p3
325.91 510.28 0.43 c p3
326.06 508.35 0.43 c p3
326.20 508.59 0.43 c p3
326.35 510.07 0.43 c p3
326.49 510.07 0.43 c p3
326.64 508.59 0.43 c p3
326.79 509.58 0.43 c p3
326.93 509.58 0.43 c p3
327.08 508.10 0.43 c p3
327.22 507.86 0.43 c p3
327.37 507.86 0.43 c p3
327.51 509.09 0.43 c p3
327.66 508.35 0.43 c p3
327.80 510.28 0.43 c p3
327.95 508.59 0.43 c p3
328.10 508.35 0.43 c p3
328.24 508.84 0.43 c p3
328.39 509.83 0.43 c p3
328.53 509.33 0.43 c p3
328.68 509.33 0.43 c p3
328.82 509.33 0.43 c p3
328.97 510.28 0.43 c p3
329.12 510.28 0.43 c p3
329.26 508.84 0.43 c p3
329.41 508.35 0.43 c p3
329.55 508.84 0.43 c p3
329.70 507.86 0.43 c p3
329.84 510.28 0.43 c p3
329.99 509.83 0.43 c p3
330.13 509.09 0.43 c p3
330.28 509.09 0.43 c p3
330.43 508.10 0.43 c p3
330.57 508.84 0.43 c p3
330.72 508.59 0.43 c p3
330.86 509.33 0.43 c p3
331.01 508.59 0.43 c p3
331.15 509.09 0.43 c p3
331.30 509.58 0.43 c p3
331.44 509.83 0.43 c p3
331.59 510.28 0.43 c p3
331.74 509.58 0.43 c p3
331.88 510.28 0.43 c p3
332.03 510.77 0.43 c p3
332.17 508.59 0.43 c p3
332.32 509.09 0.43 c p3
332.46 509.83 0.43 c p3
332.61 508.84 0.43 c p3
332.75 509.58 0.43 c p3
332.90 509.33 0.43 c p3
333.05 508.35 0.43 c p3
333.19 509.09 0.43 c p3
333.34 509.58 0.43 c p3
333.48 509.33 0.43 c p3
333.63 508.10 0.43 c p3
333.77 508.84 0.43 c p3
333.92 508.10 0.43 c p3
334.07 508.84 0.43 c p3
334.21 507.61 0.43 c p3
334.36 508.35 0.43 c p3
334.50 507.36 0.43 c p3
334.65 508.10 0.43 c p3
334.79 508.84 0.43 c p3
334.94 509.09 0.43 c p3
335.08 509.09 0.43 c p3
335.23 509.58 0.43 c p3
335.38 509.83 0.43 c p3
335.52 507.86 0.43 c p3
335.67 508.10 0.43 c p3
335.81 509.09 0.43 c p3
335.96 509.58 0.43 c p3
336.10 507.61 0.43 c p3
336.25 508.10 0.43 c p3
336.39 508.84 0.43 c p3
336.54 509.58 0.43 c p3
336.69 508.59 0.43 c p3
336.83 507.61 0.43 c p3
336.98 508.35 0.43 c p3
337.12 509.58 0.43 c p3
337.27 507.61 0.43 c p3
337.41 508.35 0.43 c p3
337.56 509.09 0.43 c p3
337.70 507.61 0.43 c p3
337.85 508.59 0.43 c p3
338.00 509.33 0.43 c p3
338.14 507.61 0.43 c p3
338.29 507.86 0.43 c p3
338.43 506.63 0.43 c p3
338.58 507.61 0.43 c p3
338.72 508.35 0.43 c p3
338.87 506.38 0.43 c p3
339.02 506.63 0.43 c p3
339.16 507.36 0.43 c p3
339.31 508.35 0.43 c p3
339.45 507.36 0.43 c p3
339.60 506.87 0.43 c p3
339.74 507.36 0.43 c p3
339.89 507.61 0.43 c p3
340.03 507.12 0.43 c p3
340.18 508.84 0.43 c p3
340.33 508.10 0.43 c p3
340.47 507.36 0.43 c p3
340.62 507.12 0.43 c p3
340.76 507.12 0.43 c p3
340.91 506.63 0.43 c p3
341.05 508.10 0.43 c p3
341.20 505.64 0.43 c p3
341.34 507.61 0.43 c p3
341.49 507.36 0.43 c p3
341.64 507.12 0.43 c p3
341.78 509.33 0.43 c p3
341.93 506.87 0.43 c p3
342.07 506.13 0.43 c p3
342.22 507.12 0.43 c p3
342.36 507.12 0.43 c p3
342.51 506.87 0.43 c p3
342.65 507.36 0.43 c p3
342.80 507.61 0.43 c p3
342.95 507.12 0.43 c p3
343.09 507.61 0.43 c p3
343.24 507.61 0.43 c p3
343.38 507.86 0.43 c p3
343.53 507.12 0.43 c p3
343.67 507.61 0.43 c p3
343.82 508.10 0.43 c p3
343.97 507.61 0.43 c p3
344.11 506.87 0.43 c p3
344.26 507.36 0.43 c p3
344.40 506.63 0.43 c p3
344.55 508.35 0.43 c p3
344.69 507.86 0.43 c p3
344.84 507.61 0.43 c p3
344.98 508.10 0.43 c p3
345.13 507.12 0.43 c p3
345.28 506.87 0.43 c p3
345.42 508.84 0.43 c p3
345.57 506.63 0.43 c p3
345.71 506.87 0.43 c p3
345.86 507.86 0.43 c p3
346.00 508.35 0.43 c p3
346.15 509.09 0.43 c p3
346.29 508.84 0.43 c p3
346.44 508.84 0.43 c p3
346.59 509.09 0.43 c p3
346.73 508.10 0.43 c p3
346.88 508.59 0.43 c p3
347.02 508.10 0.43 c p3
347.17 509.09 0.43 c p3
347.31 509.58 0.43 c p3
347.46 508.10 0.43 c p3
347.60 507.36 0.43 c p3
347.75 508.59 0.43 c p3
347.90 507.86 0.43 c p3
348.04 508.84 0.43 c p3
348.19 509.09 0.43 c p3
348.33 509.33 0.43 c p3
348.48 507.86 0.43 c p3
348.62 509.33 0.43 c p3
348.77 509.83 0.43 c p3
348.92 509.83 0.43 c p3
349.06 508.59 0.43 c p3
349.21 508.84 0.43 c p3
349.35 510.07 0.43 c p3
349.50 510.07 0.43 c p3
349.64 509.33 0.43 c p3
349.79 510.07 0.43 c p3
349.93 509.33 0.43 c p3
350.08 508.59 0.43 c p3
350.23 508.84 0.43 c p3
350.37 508.59 0.43 c p3
350.52 508.84 0.43 c p3
350.66 508.84 0.43 c p3
350.81 509.58 0.43 c p3
350.95 508.84 0.43 c p3
351.10 509.09 0.43 c p3
351.24 511.51 0.43 c p3
351.39 509.83 0.43 c p3
351.54 510.07 0.43 c p3
351.68 509.33 0.43 c p3
351.83 510.07 0.43 c p3
351.97 508.10 0.43 c p3
352.12 510.07 0.43 c p3
352.26 509.83 0.43 c p3
352.41 509.09 0.43 c p3
352.55 508.84 0.43 c p3
352.70 509.83 0.43 c p3
352.85 508.84 0.43 c p3
352.99 509.33 0.43 c p3
353.14 509.58 0.43 c p3
353.28 510.28 0.43 c p3
353.43 509.83 0.43 c p3
353.57 509.33 0.43 c p3
353.72 509.58 0.43 c p3
353.86 510.07 0.43 c p3
354.01 509.83 0.43 c p3
354.16 509.33 0.43 c p3
354.30 509.33 0.43 c p3
354.45 508.10 0.43 c p3
354.59 511.51 0.43 c p3
354.74 509.58 0.43 c p3
354.88 507.86 0.43 c p3
355.03 508.84 0.43 c p3
355.18 508.35 0.43 c p3
355.32 507.61 0.43 c p3
355.47 509.58 0.43 c p3
355.61 507.86 0.43 c p3
355.76 508.84 0.43 c p3
355.90 508.59 0.43 c p3
356.05 508.35 0.43 c p3
356.19 509.09 0.43 c p3
356.34 508.35 0.43 c p3
356.49 508.84 0.43 c p3
356.63 508.10 0.43 c p3
356.78 507.36 0.43 c p3
356.92 510.07 0.43 c p3
357.07 508.59 0.43 c p3
357.21 508.59 0.43 c p3
357.36 509.58 0.43 c p3
357.50 509.83 0.43 c p3
357.65 509.58 0.43 c p3
357.80 509.33 0.43 c p3
357.94 507.86 0.43 c p3
358.09 508.59 0.43 c p3
358.23 508.35 0.43 c p3
358.38 508.84 0.43 c p3
358.52 509.83 0.43 c p3
358.67 509.83 0.43 c p3
358.81 508.10 0.43 c p3
358.96 507.61 0.43 c p3
359.11 508.84 0.43 c p3
359.25 507.61 0.43 c p3
359.40 509.33 0.43 c p3
359.54 508.84 0.43 c p3
359.69 508.84 0.43 c p3
359.83 509.09 0.43 c p3
359.98 509.09 0.43 c p3
360.13 507.86 0.43 c p3
360.27 508.10 0.43 c p3
360.42 509.58 0.43 c p3
360.56 508.59 0.43 c p3
360.71 507.86 0.43 c p3
360.85 507.86 0.43 c p3
361.00 507.86 0.43 c p3
361.14 507.86 0.43 c p3
361.29 508.10 0.43 c p3
361.44 508.35 0.43 c p3
361.58 508.84 0.43 c p3
361.73 506.38 0.43 c p3
361.87 509.09 0.43 c p3
362.02 508.35 0.43 c p3
362.16 508.59 0.43 c p3
362.31 507.86 0.43 c p3
362.45 508.35 0.43 c p3
362.60 508.84 0.43 c p3
362.75 509.09 0.43 c p3
362.89 507.61 0.43 c p3
363.04 508.35 0.43 c p3
363.18 509.09 0.43 c p3
363.33 509.58 0.43 c p3
363.47 509.09 0.43 c p3
363.62 509.09 0.43 c p3
363.76 509.09 0.43 c p3
363.91 510.52 0.43 c p3
364.06 509.58 0.43 c p3
364.20 510.07 0.43 c p3
364.35 508.35 0.43 c p3
364.49 509.09 0.43 c p3
364.64 509.83 0.43 c p3
364.78 508.59 0.43 c p3
364.93 509.09 0.43 c p3
365.08 509.58 0.43 c p3
365.22 509.83 0.43 c p3
365.37 508.59 0.43 c p3
365.51 510.28 0.43 c p3
365.66 509.58 0.43 c p3
365.80 509.58 0.43 c p3
365.95 510.28 0.43 c p3
366.09 507.61 0.43 c p3
366.24 509.58 0.43 c p3
366.39 509.09 0.43 c p3
366.53 510.52 0.43 c p3
366.68 510.28 0.43 c p3
366.82 508.84 0.43 c p3
366.97 510.52 0.43 c p3
367.11 508.35 0.43 c p3
367.26 509.33 0.43 c p3
367.40 509.09 0.43 c p3
367.55 507.86 0.43 c p3
367.70 510.28 0.43 c p3
367.84 508.84 0.43 c p3
367.99 508.84 0.43 c p3
368.13 508.10 0.43 c p3
368.28 509.33 0.43 c p3
368.42 509.09 0.43 c p3
368.57 507.36 0.43 c p3
368.71 508.59 0.43 c p3
368.86 509.83 0.43 c p3
369.01 508.84 0.43 c p3
369.15 509.58 0.43 c p3
369.30 510.77 0.43 c p3
369.44 509.33 0.43 c p3
369.59 508.84 0.43 c p3
369.73 509.09 0.43 c p3
369.88 510.52 0.43 c p3
370.03 508.10 0.43 c p3
370.17 510.28 0.43 c p3
370.32 509.33 0.43 c p3
370.46 509.09 0.43 c p3
370.61 508.59 0.43 c p3
370.75 509.09 0.43 c p3
370.90 509.58 0.43 c p3
371.04 510.52 0.43 c p3
371.19 508.59 0.43 c p3
371.34 508.35 0.43 c p3
371.48 510.07 0.43 c p3
371.63 508.59 0.43 c p3
371.77 508.84 0.43 c p3
371.92 510.07 0.43 c p3
372.06 509.83 0.43 c p3
372.21 508.84 0.43 c p3
372.35 509.58 0.43 c p3
372.50 510.77 0.43 c p3
372.65 510.07 0.43 c p3
372.79 508.10 0.43 c p3
372.94 510.28 0.43 c p3
373.08 509.58 0.43 c p3
373.23 509.33 0.43 c p3
373.37 509.58 0.43 c p3
373.52 509.09 0.43 c p3
373.66 509.33 0.43 c p3
373.81 508.59 0.43 c p3
373.96 508.84 0.43 c p3
374.10 509.33 0.43 c p3
374.25 508.84 0.43 c p3
374.39 508.84 0.43 c p3
374.54 508.59 0.43 c p3
374.68 508.84 0.43 c p3
374.83 509.83 0.43 c p3
374.98 509.33 0.43 c p3
375.12 509.58 0.43 c p3
375.27 510.07 0.43 c p3
375.41 507.86 0.43 c p3
375.56 508.59 0.43 c p3
375.70 508.35 0.43 c p3
375.85 508.10 0.43 c p3
375.99 509.33 0.43 c p3
376.14 508.84 0.43 c p3
376.29 509.58 0.43 c p3
376.43 508.84 0.43 c p3
376.58 507.12 0.43 c p3
376.72 509.09 0.43 c p3
376.87 509.09 0.43 c p3
377.01 508.59 0.43 c p3
377.16 510.28 0.43 c p3
377.30 507.86 0.43 c p3
377.45 508.59 0.43 c p3
377.60 508.35 0.43 c p3
377.74 509.09 0.43 c p3
377.89 508.59 0.43 c p3
378.03 507.36 0.43 c p3
378.18 509.33 0.43 c p3
378.32 508.35 0.43 c p3
378.47 508.35 0.43 c p3
378.61 509.58 0.43 c p3
378.76 507.12 0.43 c p3
378.91 510.52 0.43 c p3
379.05 507.12 0.43 c p3
379.20 507.86 0.43 c p3
379.34 507.36 0.43 c p3
379.49 506.87 0.43 c p3
379.63 507.61 0.43 c p3
379.78 508.10 0.43 c p3
379.93 508.10 0.43 c p3
380.07 508.35 0.43 c p3
380.22 508.35 0.43 c p3
380.36 507.86 0.43 c p3
380.51 508.10 0.43 c p3
380.65 507.36 0.43 c p3
380.80 508.35 0.43 c p3
380.94 508.10 0.43 c p3
381.09 507.61 0.43 c p3
381.24 508.35 0.43 c p3
381.38 508.59 0.43 c p3
381.53 508.84 0.43 c p3
381.67 507.36 0.43 c p3
381.82 507.86 0.43 c p3
381.96 509.09 0.43 c p3
382.11 508.84 0.43 c p3
382.25 508.59 0.43 c p3
382.40 510.28 0.43 c p3
0.00 0.00 432.00 576.00 cl
0 0 0 srgb
0.75 setlinewidth
[] 0 setdash
1 setlinecap
1 setlinejoin
10.00 setmiterlimit
np
236.96 345.60 m
145.59 0 l
o
np
236.96 345.60 m
0 -5.76 l
o
np
266.08 345.60 m
0 -5.76 l
o
np
295.19 345.60 m
0 -5.76 l
o
np
324.31 345.60 m
0 -5.76 l
o
np
353.43 345.60 m
0 -5.76 l
o
np
382.55 345.60 m
0 -5.76 l
o
/Font1 findfont 10 s
236.96 329.47 (0) .5 0 t
266.08 329.47 (200) .5 0 t
295.19 329.47 (400) .5 0 t
324.31 329.47 (600) .5 0 t
353.43 329.47 (800) .5 0 t
382.55 329.47 (1000) .5 0 t
np
216.00 352.00 m
0 134.43 l
o
np
216.00 352.00 m
-5.76 0 l
o
np
216.00 385.61 m
-5.76 0 l
o
np
216.00 419.21 m
-5.76 0 l
o
np
216.00 452.82 m
-5.76 0 l
o
np
216.00 486.43 m
-5.76 0 l
o
209.09 348.41 (0.00) 1 0 t
209.09 382.02 (0.05) 1 0 t
209.09 415.62 (0.10) 1 0 t
209.09 449.23 (0.15) 1 0 t
209.09 482.84 (0.20) 1 0 t
np
216.00 345.60 m
172.80 0 l
0 172.80 l
-172.80 0 l
0 -172.80 l
o
0.00 0.00 432.00 576.00 cl
/Font1 findfont 10 s
0 0 0 srgb
302.40 313.34 (Time / ms \(total\)) .5 0 t
190.66 432.00 (U / V) .5 90 t
216.00 345.60 388.80 518.40 cl
0 0 0 srgb
0.38 setlinewidth
[ 1.13 1.88] 0 setdash
1 setlinecap
1 setlinejoin
10.00 setmiterlimit
np
222.40 345.60 m
0 172.80 l
o
np
234.77 345.60 m
0 172.80 l
o
np
238.12 345.60 m
0 172.80 l
o
np
286.02 345.60 m
0 172.80 l
o
86.40 57.60 388.80 288.00 cl
1 0 0 srgb
1.50 setlinewidth
[] 0 setdash
1 setlinecap
1 setlinejoin
10.00 setmiterlimit
np
97.60 279.47 m
1.41 -17.90 l
1.40 -16.34 l
1.41 -14.92 l
1.41 -13.62 l
1.41 -12.43 l
1.40 -11.35 l
1.41 -10.36 l
1.41 -9.46 l
1.40 -8.63 l
1.41 -7.89 l
1.41 -7.19 l
1.40 -6.57 l
1.41 -6.00 l
1.41 -5.48 l
1.41 -4.99 l
1.40 -4.57 l
1.41 -4.16 l
1.41 -3.81 l
1.40 -3.47 l
1.41 -3.17 l
1.41 -2.89 l
1.40 -2.64 l
1.41 -2.41 l
1.41 -2.21 l
1.41 -2.01 l
1.40 -1.83 l
1.41 -1.68 l
1.41 -1.53 l
1.40 -1.39 l
1.41 -1.28 l
1.41 -1.16 l
1.41 -1.06 l
1.40 -0.97 l
1.41 -0.89 l
1.41 -0.80 l
1.40 -0.74 l
1.41 -0.68 l
1.41 -0.61 l
1.40 -0.56 l
1.41 -0.51 l
1.41 -0.47 l
1.41 -0.43 l
1.40 -0.39 l
1.41 -0.36 l
1.41 -0.32 l
1.40 -0.30 l
1.41 -0.27 l
1.41 -0.24 l
1.40 -0.23 l
1.41 -0.21 l
1.41 -0.18 l
1.41 -0.18 l
1.40 -0.15 l
1.41 -0.15 l
1.41 -0.13 l
1.40 -0.12 l
1.41 -0.10 l
1.41 -0.10 l
1.41 -0.10 l
1.40 -0.08 l
1.41 -0.07 l
1.41 -0.07 l
1.40 -0.07 l
1.41 -0.05 l
1.41 -0.06 l
1.40 -0.04 l
1.41 -0.05 l
1.41 -0.04 l
1.41 -0.03 l
1.40 -0.04 l
1.41 -0.03 l
1.41 -0.03 l
1.40 -0.02 l
1.41 -0.02 l
1.41 -0.02 l
1.40 -0.02 l
1.41 -0.02 l
1.41 -0.02 l
1.41 -0.01 l
1.40 -0.02 l
1.41 -0.01 l
1.41 -0.01 l
1.40 -0.01 l
1.41 -0.01 l
1.41 -0.01 l
1.41 -0.01 l
1.40 0 l
1.41 -0.01 l
1.41 0 l
1.40 -0.01 l
1.41 0 l
1.41 -0.01 l
1.40 0 l
1.41 -0.01 l
1.41 0 l
1.41 0 l
1.40 -0.01 l
1.41 0 l
1.41 0 l
238.30 73.96 lineto
1.41 -0.01 l
1.41 0 l
1.40 0 l
1.41 0 l
1.41 0 l
1.41 0 l
1.40 0 l
1.41 -0.01 l
1.41 0 l
1.40 0 l
1.41 0 l
1.41 0 l
1.40 0 l
1.41 0 l
1.41 0 l
1.41 0 l
1.40 0 l
1.41 0 l
1.41 0 l
1.40 0 l
1.41 0 l
1.41 0 l
1.41 0 l
1.40 0 l
1.41 0 l
1.41 0 l
1.40 0 l
1.41 0 l
1.41 0 l
1.40 0 l
1.41 -0.01 l
1.41 0 l
1.41 0 l
1.40 0 l
1.41 0 l
1.41 0 l
1.40 0 l
1.41 0 l
1.41 0 l
1.40 0 l
1.41 0 l
1.41 0 l
1.41 0 l
1.40 0 l
1.41 0 l
1.41 0 l
1.40 0 l
1.41 0 l
1.41 0 l
1.41 0 l
1.40 0 l
1.41 0 l
1.41 0 l
1.40 0 l
1.41 0 l
1.41 0 l
1.40 0 l
1.41 0 l
1.41 0 l
1.41 0 l
1.40 0 l
1.41 0 l
1.41 0 l
1.40 0 l
1.41 0 l
1.41 0 l
1.40 0 l
1.41 0 l
1.41 0 l
1.41 0 l
1.40 0 l
1.41 0 l
1.41 0 l
1.40 0 l
1.41 0 l
1.41 0 l
1.41 0 l
1.40 0 l
1.41 0 l
1.41 0 l
1.40 0 l
1.41 0 l
1.41 0 l
1.40 0 l
1.41 0 l
1.41 0 l
1.41 0 l
1.40 0 l
1.41 0 l
1.41 0 l
1.40 0 l
1.41 0 l
1.41 0 l
1.40 0 l
1.41 0 l
1.41 0 l
1.41 0 l
1.40 0 l
1.41 0 l
o
0.00 0.00 432.00 576.00 cl
0 0 0 srgb
0.75 setlinewidth
[] 0 setdash
1 setlinecap
1 setlinejoin
10.00 setmiterlimit
np
97.60 57.60 m
280.00 0 l
o
np
97.60 57.60 m
0 -5.76 l
o
np
153.60 57.60 m
0 -5.76 l
o
np
209.60 57.60 m
0 -5.76 l
o
np
265.60 57.60 m
0 -5.76 l
o
np
321.60 57.60 m
0 -5.76 l
o
np
377.60 57.60 m
0 -5.76 l
o
/Font1 findfont 10 s
97.60 41.47 (0) .5 0 t
153.60 41.47 (200) .5 0 t
209.60 41.47 (400) .5 0 t
265.60 41.47 (600) .5 0 t
321.60 41.47 (800) .5 0 t
377.60 41.47 (1000) .5 0 t
np
86.40 66.13 m
0 178.21 l
o
np
86.40 66.13 m
-5.76 0 l
o
np
86.40 125.54 m
-5.76 0 l
o
np
86.40 184.94 m
-5.76 0 l
o
np
86.40 244.34 m
-5.76 0 l
o
79.49 62.54 (0.00) 1 0 t
79.49 121.95 (0.05) 1 0 t
79.49 181.35 (0.10) 1 0 t
79.49 240.75 (0.15) 1 0 t
np
86.40 57.60 m
302.40 0 l
0 230.40 l
-302.40 0 l
0 -230.40 l
o
0.00 0.00 432.00 576.00 cl
/Font1 findfont 10 s
0 0 0 srgb
237.60 13.82 (Time / ms \(after pulse\)) .5 0 t
49.54 172.80 (Absorbance A) .5 90 t
86.40 57.60 388.80 288.00 cl
/bg { 1 1 1 srgb } def
0 0 0 srgb
0.75 setlinewidth
[] 0 setdash
1 setlinecap
1 setlinejoin
10.00 setmiterlimit
100.12 244.94 0.65 c p3
100.40 251.80 0.65 c p3
100.68 240.60 0.65 c p3
100.96 239.48 0.65 c p3
101.24 233.89 0.65 c p3
101.52 233.89 0.65 c p3
101.80 223.98 0.65 c p3
102.08 218.56 0.65 c p3
102.36 221.81 0.65 c p3
102.64 225.07 0.65 c p3
102.92 221.81 0.65 c p3
103.20 215.33 0.65 c p3
103.48 211.24 0.65 c p3
103.76 208.06 0.65 c p3
104.04 198.63 0.65 c p3
104.32 201.75 0.65 c p3
104.60 202.80 0.65 c p3
104.88 203.85 0.65 c p3
105.16 202.80 0.65 c p3
105.44 202.80 0.65 c p3
105.72 199.67 0.65 c p3
106.00 201.75 0.65 c p3
106.28 196.55 0.65 c p3
106.56 185.47 0.65 c p3
106.84 192.43 0.65 c p3
107.12 192.43 0.65 c p3
107.40 188.35 0.65 c p3
107.68 180.44 0.65 c p3
107.96 173.47 0.65 c p3
108.24 174.46 0.65 c p3
108.52 172.48 0.65 c p3
108.80 170.51 0.65 c p3
109.08 171.50 0.65 c p3
109.36 167.57 0.65 c p3
109.64 161.74 0.65 c p3
109.92 166.60 0.65 c p3
110.20 161.74 0.65 c p3
110.48 154.22 0.65 c p3
110.76 153.27 0.65 c p3
111.04 155.18 0.65 c p3
111.32 158.05 0.65 c p3
111.60 159.01 0.65 c p3
111.88 169.53 0.65 c p3
112.16 158.05 0.65 c p3
112.44 151.37 0.65 c p3
112.72 155.18 0.65 c p3
113.00 148.54 0.65 c p3
113.28 149.48 0.65 c p3
113.56 154.22 0.65 c p3
113.84 155.18 0.65 c p3
114.12 151.37 0.65 c p3
114.40 150.43 0.65 c p3
114.68 140.13 0.65 c p3
114.96 143.85 0.65 c p3
115.24 142.92 0.65 c p3
115.52 138.28 0.65 c p3
115.80 139.20 0.65 c p3
116.08 138.28 0.65 c p3
116.36 142.92 0.65 c p3
116.64 136.43 0.65 c p3
116.92 130.18 0.65 c p3
117.20 130.18 0.65 c p3
117.48 137.36 0.65 c p3
117.76 128.37 0.65 c p3
118.04 131.09 0.65 c p3
118.32 125.66 0.65 c p3
118.60 126.56 0.65 c p3
118.88 132.92 0.65 c p3
119.16 132.00 0.65 c p3
119.44 125.66 0.65 c p3
119.72 122.06 0.65 c p3
120.00 123.86 0.65 c p3
120.28 121.17 0.65 c p3
120.56 119.39 0.65 c p3
120.84 125.66 0.65 c p3
121.12 127.46 0.65 c p3
121.40 116.72 0.65 c p3
121.68 115.84 0.65 c p3
121.96 116.72 0.65 c p3
122.24 118.50 0.65 c p3
122.52 114.95 0.65 c p3
122.80 111.43 0.65 c p3
123.08 113.19 0.65 c p3
123.36 112.31 0.65 c p3
123.64 113.19 0.65 c p3
123.92 112.31 0.65 c p3
124.20 112.31 0.65 c p3
124.48 109.83 0.65 c p3
124.76 109.83 0.65 c p3
125.04 111.43 0.65 c p3
125.32 113.19 0.65 c p3
125.60 119.39 0.65 c p3
125.88 114.07 0.65 c p3
126.16 109.83 0.65 c p3
126.44 110.70 0.65 c p3
126.72 108.08 0.65 c p3
127.00 107.21 0.65 c p3
127.28 104.61 0.65 c p3
127.56 104.61 0.65 c p3
127.84 105.48 0.65 c p3
128.12 105.48 0.65 c p3
128.40 100.30 0.65 c p3
128.68 96.03 0.65 c p3
128.96 95.18 0.65 c p3
129.24 99.45 0.65 c p3
129.52 92.64 0.65 c p3
129.80 100.30 0.65 c p3
130.08 101.16 0.65 c p3
130.36 100.30 0.65 c p3
130.64 96.88 0.65 c p3
130.92 101.16 0.65 c p3
131.20 97.74 0.65 c p3
131.48 96.88 0.65 c p3
131.76 96.88 0.65 c p3
132.04 96.03 0.65 c p3
132.32 102.88 0.65 c p3
132.60 98.59 0.65 c p3
132.88 94.33 0.65 c p3
133.16 94.33 0.65 c p3
133.44 83.56 0.65 c p3
133.72 87.73 0.65 c p3
134.00 86.89 0.65 c p3
134.28 88.43 0.65 c p3
134.56 91.79 0.65 c p3
134.84 89.27 0.65 c p3
135.12 84.39 0.65 c p3
135.40 87.73 0.65 c p3
135.68 96.03 0.65 c p3
135.96 93.49 0.65 c p3
136.24 89.27 0.65 c p3
136.52 88.43 0.65 c p3
136.80 88.43 0.65 c p3
137.08 91.79 0.65 c p3
137.36 85.22 0.65 c p3
137.64 86.89 0.65 c p3
137.92 83.56 0.65 c p3
138.20 80.25 0.65 c p3
138.48 81.07 0.65 c p3
138.76 81.90 0.65 c p3
139.04 82.73 0.65 c p3
139.32 83.56 0.65 c p3
139.60 84.39 0.65 c p3
139.88 80.25 0.65 c p3
140.16 80.25 0.65 c p3
140.44 82.73 0.65 c p3
140.72 83.56 0.65 c p3
141.00 81.90 0.65 c p3
141.28 81.90 0.65 c p3
141.56 81.90 0.65 c p3
141.84 84.39 0.65 c p3
142.12 81.07 0.65 c p3
142.40 80.25 0.65 c p3
142.68 80.25 0.65 c p3
142.96 82.73 0.65 c p3
143.24 82.73 0.65 c p3
143.52 81.90 0.65 c p3
143.80 80.25 0.65 c p3
144.08 84.39 0.65 c p3
144.36 77.78 0.65 c p3
144.64 75.32 0.65 c p3
144.92 79.42 0.65 c p3
145.20 74.50 0.65 c p3
145.48 79.42 0.65 c p3
145.76 78.60 0.65 c p3
146.04 79.42 0.65 c p3
146.32 81.90 0.65 c p3
146.60 80.25 0.65 c p3
146.88 76.96 0.65 c p3
147.16 77.78 0.65 c p3
147.44 79.42 0.65 c p3
147.72 77.78 0.65 c p3
148.00 77.78 0.65 c p3
148.28 80.25 0.65 c p3
148.56 73.69 0.65 c p3
148.84 76.96 0.65 c p3
149.12 84.39 0.65 c p3
149.40 80.25 0.65 c p3
149.68 76.96 0.65 c p3
149.96 72.06 0.65 c p3
150.24 79.42 0.65 c p3
150.52 75.32 0.65 c p3
150.80 83.56 0.65 c p3
151.08 75.32 0.65 c p3
151.36 76.96 0.65 c p3
151.64 76.14 0.65 c p3
151.92 71.25 0.65 c p3
152.20 72.06 0.65 c p3
152.48 73.69 0.65 c p3
152.76 78.60 0.65 c p3
153.04 76.14 0.65 c p3
153.32 80.25 0.65 c p3
153.60 81.07 0.65 c p3
153.88 78.60 0.65 c p3
154.16 74.50 0.65 c p3
154.44 74.50 0.65 c p3
154.72 81.90 0.65 c p3
155.00 76.14 0.65 c p3
155.28 78.60 0.65 c p3
155.56 79.42 0.65 c p3
155.84 76.14 0.65 c p3
156.12 80.25 0.65 c p3
156.40 79.42 0.65 c p3
156.68 74.50 0.65 c p3
156.96 76.96 0.65 c p3
157.24 76.14 0.65 c p3
157.52 80.25 0.65 c p3
157.80 79.42 0.65 c p3
158.08 81.90 0.65 c p3
158.36 77.78 0.65 c p3
158.64 78.60 0.65 c p3
158.92 77.78 0.65 c p3
159.20 80.25 0.65 c p3
159.48 78.60 0.65 c p3
159.76 80.25 0.65 c p3
160.04 82.73 0.65 c p3
160.32 80.25 0.65 c p3
160.60 77.78 0.65 c p3
160.88 77.78 0.65 c p3
161.16 75.32 0.65 c p3
161.44 81.07 0.65 c p3
161.72 79.42 0.65 c p3
162.00 81.07 0.65 c p3
162.28 78.60 0.65 c p3
162.56 80.25 0.65 c p3
162.84 80.25 0.65 c p3
163.12 79.42 0.65 c p3
163.40 74.50 0.65 c p3
163.68 74.50 0.65 c p3
163.96 79.42 0.65 c p3
164.24 80.25 0.65 c p3
164.52 80.25 0.65 c p3
164.80 81.90 0.65 c p3
165.08 80.25 0.65 c p3
165.36 75.32 0.65 c p3
165.64 78.60 0.65 c p3
165.92 76.14 0.65 c p3
166.20 75.32 0.65 c p3
166.48 80.25 0.65 c p3
166.76 85.22 0.65 c p3
167.04 76.14 0.65 c p3
167.32 79.42 0.65 c p3
167.60 77.78 0.65 c p3
167.88 74.50 0.65 c p3
168.16 79.42 0.65 c p3
168.44 81.07 0.65 c p3
168.72 77.78 0.65 c p3
169.00 79.42 0.65 c p3
169.28 78.60 0.65 c p3
169.56 80.25 0.65 c p3
169.84 80.25 0.65 c p3
170.12 74.50 0.65 c p3
170.40 74.50 0.65 c p3
170.68 76.14 0.65 c p3
170.96 78.60 0.65 c p3
171.24 78.60 0.65 c p3
171.52 81.90 0.65 c p3
171.80 77.78 0.65 c p3
172.08 74.50 0.65 c p3
172.36 73.69 0.65 c p3
172.64 76.96 0.65 c p3
172.92 76.96 0.65 c p3
173.20 85.22 0.65 c p3
173.48 80.25 0.65 c p3
173.76 74.50 0.65 c p3
174.04 72.06 0.65 c p3
174.32 74.50 0.65 c p3
174.60 73.69 0.65 c p3
174.88 73.69 0.65 c p3
175.16 73.69 0.65 c p3
175.44 76.96 0.65 c p3
175.72 79.42 0.65 c p3
176.00 75.32 0.65 c p3
176.28 72.87 0.65 c p3
176.56 81.07 0.65 c p3
176.84 75.32 0.65 c p3
177.12 76.14 0.65 c p3
177.40 71.25 0.65 c p3
177.68 73.69 0.65 c p3
177.96 74.50 0.65 c p3
178.24 76.96 0.65 c p3
178.52 77.78 0.65 c p3
178.80 71.25 0.65 c p3
179.08 71.25 0.65 c p3
179.36 75.32 0.65 c p3
179.64 74.50 0.65 c p3
179.92 77.78 0.65 c p3
180.20 73.69 0.65 c p3
180.48 74.50 0.65 c p3
180.76 75.32 0.65 c p3
181.04 78.60 0.65 c p3
181.32 73.69 0.65 c p3
181.60 78.60 0.65 c p3
181.88 74.50 0.65 c p3
182.16 71.25 0.65 c p3
182.44 74.50 0.65 c p3
182.72 80.25 0.65 c p3
183.00 74.50 0.65 c p3
183.28 76.96 0.65 c p3
183.56 72.06 0.65 c p3
183.84 72.87 0.65 c p3
184.12 73.69 0.65 c p3
184.40 72.06 0.65 c p3
184.68 74.50 0.65 c p3
184.96 74.50 0.65 c p3
185.24 75.32 0.65 c p3
185.52 80.25 0.65 c p3
185.80 76.14 0.65 c p3
186.08 72.87 0.65 c p3
186.36 74.50 0.65 c p3
186.64 81.90 0.65 c p3
186.92 75.32 0.65 c p3
187.20 79.42 0.65 c p3
187.48 73.69 0.65 c p3
187.76 81.90 0.65 c p3
188.04 78.60 0.65 c p3
188.32 72.06 0.65 c p3
188.60 79.42 0.65 c p3
188.88 76.96 0.65 c p3
189.16 80.25 0.65 c p3
189.44 75.32 0.65 c p3
189.72 77.78 0.65 c p3
190.00 77.78 0.65 c p3
190.28 73.69 0.65 c p3
190.56 77.78 0.65 c p3
190.84 76.14 0.65 c p3
191.12 75.32 0.65 c p3
191.40 78.60 0.65 c p3
191.68 75.32 0.65 c p3
191.96 74.50 0.65 c p3
192.24 82.73 0.65 c p3
216.00 201.60 367.20 247.68 cl
0 0 0 srgb
0.75 setlinewidth
[] 0 setdash
1 setlinecap
1 setlinejoin
10.00 setmiterlimit
221.60 221.02 0.43 c p1
222.03 231.12 0.43 c p1
222.45 222.92 0.43 c p1
222.88 224.84 0.43 c p1
223.30 222.20 0.43 c p1
223.73 225.15 0.43 c p1
224.15 218.03 0.43 c p1
224.58 215.39 0.43 c p1
225.00 221.46 0.43 c p1
225.43 227.51 0.43 c p1
225.86 226.90 0.43 c p1
226.28 223.00 0.43 c p1
226.71 221.46 0.43 c p1
227.13 220.79 0.43 c p1
227.56 213.77 0.43 c p1
227.98 219.38 0.43 c p1
228.41 222.86 0.43 c p1
228.83 226.29 0.43 c p1
229.26 227.56 0.43 c p1
229.69 229.85 0.43 c p1
230.11 228.93 0.43 c p1
230.54 233.25 0.43 c p1
230.96 230.16 0.43 c p1
231.39 221.09 0.43 c p1
231.81 230.21 0.43 c p1
232.24 232.26 0.43 c p1
232.66 230.15 0.43 c p1
233.09 224.13 0.43 c p1
233.51 219.03 0.43 c p1
233.94 221.94 0.43 c p1
234.37 221.82 0.43 c p1
234.79 221.66 0.43 c p1
235.22 224.47 0.43 c p1
235.64 222.27 0.43 c p1
236.07 218.12 0.43 c p1
236.49 224.74 0.43 c p1
236.92 221.51 0.43 c p1
237.34 215.57 0.43 c p1
237.77 216.23 0.43 c p1
238.20 219.75 0.43 c p1
238.62 224.21 0.43 c p1
239.05 226.72 0.43 c p1
239.47 238.86 0.43 c p1
239.90 228.74 0.43 c p1
240.32 223.44 0.43 c p1
240.75 228.72 0.43 c p1
241.17 223.41 0.43 c p1
241.60 225.74 0.43 c p1
242.03 231.88 0.43 c p1
242.45 234.18 0.43 c p1
242.88 231.64 0.43 c p1
243.30 231.96 0.43 c p1
243.73 222.81 0.43 c p1
244.15 227.80 0.43 c p1
244.58 228.07 0.43 c p1
245.00 224.58 0.43 c p1
245.43 226.68 0.43 c p1
245.86 226.89 0.43 c p1
246.28 232.71 0.43 c p1
246.71 227.27 0.43 c p1
247.13 222.04 0.43 c p1
247.56 223.10 0.43 c p1
247.98 231.40 0.43 c p1
248.41 223.35 0.43 c p1
248.83 227.12 0.43 c p1
249.26 222.61 0.43 c p1
249.69 224.50 0.43 c p1
250.11 231.89 0.43 c p1
250.54 231.91 0.43 c p1
250.96 226.41 0.43 c p1
251.39 223.69 0.43 c p1
251.81 226.39 0.43 c p1
252.24 224.55 0.43 c p1
252.66 223.61 0.43 c p1
253.09 230.79 0.43 c p1
253.51 233.45 0.43 c p1
253.94 223.40 0.43 c p1
254.37 223.31 0.43 c p1
254.79 224.99 0.43 c p1
255.22 227.55 0.43 c p1
255.64 224.73 0.43 c p1
256.07 221.91 0.43 c p1
256.49 224.42 0.43 c p1
256.92 224.25 0.43 c p1
257.34 225.84 0.43 c p1
257.77 225.64 0.43 c p1
258.20 226.32 0.43 c p1
258.62 224.48 0.43 c p1
259.05 225.14 0.43 c p1
259.47 227.40 0.43 c p1
259.90 229.81 0.43 c p1
260.32 236.69 0.43 c p1
260.75 231.93 0.43 c p1
261.17 228.24 0.43 c p1
261.60 229.71 0.43 c p1
262.03 227.64 0.43 c p1
262.45 227.32 0.43 c p1
262.88 225.25 0.43 c p1
263.30 225.80 0.43 c p1
263.73 227.21 0.43 c p1
264.15 227.73 0.43 c p1
264.58 223.02 0.43 c p1
265.00 219.21 0.43 c p1
265.43 218.85 0.43 c p1
265.86 223.65 0.43 c p1
266.28 217.25 0.43 c p1
266.71 225.47 0.43 c p1
267.13 226.80 0.43 c p1
267.56 226.39 0.43 c p1
267.98 223.38 0.43 c p1
268.41 228.15 0.43 c p1
268.83 225.11 0.43 c p1
269.26 224.68 0.43 c p1
269.69 225.09 0.43 c p1
270.11 224.64 0.43 c p1
270.54 231.97 0.43 c p1
270.96 228.02 0.43 c p1
271.39 224.10 0.43 c p1
271.81 224.49 0.43 c p1
272.24 213.97 0.43 c p1
272.66 218.55 0.43 c p1
273.09 218.07 0.43 c p1
273.51 219.97 0.43 c p1
273.94 223.72 0.43 c p1
274.37 221.51 0.43 c p1
274.79 216.91 0.43 c p1
275.22 220.62 0.43 c p1
275.64 229.33 0.43 c p1
276.07 227.07 0.43 c p1
276.49 223.12 0.43 c p1
276.92 222.58 0.43 c p1
277.34 222.88 0.43 c p1
277.77 226.58 0.43 c p1
278.20 220.22 0.43 c p1
278.62 222.20 0.43 c p1
279.05 219.11 0.43 c p1
279.47 216.03 0.43 c p1
279.90 217.14 0.43 c p1
280.32 218.24 0.43 c p1
280.75 219.34 0.43 c p1
281.17 220.43 0.43 c p1
281.60 221.52 0.43 c p1
282.03 217.58 0.43 c p1
282.45 217.82 0.43 c p1
282.88 220.57 0.43 c p1
283.30 221.64 0.43 c p1
283.73 220.19 0.43 c p1
284.15 220.42 0.43 c p1
284.58 220.64 0.43 c p1
285.00 223.37 0.43 c p1
285.43 220.23 0.43 c p1
285.86 219.60 0.43 c p1
286.28 219.81 0.43 c p1
286.71 222.52 0.43 c p1
287.13 222.72 0.43 c p1
287.56 222.07 0.43 c p1
287.98 220.59 0.43 c p1
288.41 224.97 0.43 c p1
288.83 218.47 0.43 c p1
289.26 216.16 0.43 c p1
289.69 220.49 0.43 c p1
290.11 215.69 0.43 c p1
290.54 220.83 0.43 c p1
290.96 220.17 0.43 c p1
291.39 221.17 0.43 c p1
291.81 223.84 0.43 c p1
292.24 222.32 0.43 c p1
292.66 219.15 0.43 c p1
293.09 220.13 0.43 c p1
293.51 221.95 0.43 c p1
293.94 220.43 0.43 c p1
294.37 220.58 0.43 c p1
294.79 223.22 0.43 c p1
295.22 216.73 0.43 c p1
295.64 220.17 0.43 c p1
296.07 227.82 0.43 c p1
296.49 223.76 0.43 c p1
296.92 220.57 0.43 c p1
297.34 215.75 0.43 c p1
297.77 223.32 0.43 c p1
298.20 219.29 0.43 c p1
298.62 227.74 0.43 c p1
299.05 219.53 0.43 c p1
299.47 221.30 0.43 c p1
299.90 220.59 0.43 c p1
300.32 215.76 0.43 c p1
300.75 216.69 0.43 c p1
301.17 218.44 0.43 c p1
301.60 223.52 0.43 c p1
302.03 221.13 0.43 c p1
302.45 225.39 0.43 c p1
302.88 226.33 0.43 c p1
303.30 223.93 0.43 c p1
303.73 219.88 0.43 c p1
304.15 219.98 0.43 c p1
304.58 227.55 0.43 c p1
305.00 221.82 0.43 c p1
305.43 224.40 0.43 c p1
305.86 225.32 0.43 c p1
306.28 222.09 0.43 c p1
306.71 226.33 0.43 c p1
307.13 225.58 0.43 c p1
307.56 220.69 0.43 c p1
307.98 223.25 0.43 c p1
308.41 222.50 0.43 c p1
308.83 226.73 0.43 c p1
309.26 225.98 0.43 c p1
309.69 228.56 0.43 c p1
310.11 224.46 0.43 c p1
310.54 225.37 0.43 c p1
310.96 224.61 0.43 c p1
311.39 227.18 0.43 c p1
311.81 225.58 0.43 c p1
312.24 227.31 0.43 c p1
312.66 229.89 0.43 c p1
313.09 227.44 0.43 c p1
313.51 225.01 0.43 c p1
313.94 225.07 0.43 c p1
314.37 222.65 0.43 c p1
314.79 228.53 0.43 c p1
315.22 226.92 0.43 c p1
315.64 228.65 0.43 c p1
316.07 226.21 0.43 c p1
316.49 227.93 0.43 c p1
316.92 227.98 0.43 c p1
317.34 227.21 0.43 c p1
317.77 222.29 0.43 c p1
318.20 222.34 0.43 c p1
318.62 227.36 0.43 c p1
319.05 228.25 0.43 c p1
319.47 228.30 0.43 c p1
319.90 230.02 0.43 c p1
320.32 228.39 0.43 c p1
320.75 223.46 0.43 c p1
321.17 226.82 0.43 c p1
321.60 224.38 0.43 c p1
322.03 223.60 0.43 c p1
322.45 228.62 0.43 c p1
322.88 233.69 0.43 c p1
323.30 224.55 0.43 c p1
323.73 227.92 0.43 c p1
324.15 226.29 0.43 c p1
324.58 223.02 0.43 c p1
325.00 228.04 0.43 c p1
325.43 229.74 0.43 c p1
325.86 226.45 0.43 c p1
326.28 228.15 0.43 c p1
326.71 227.36 0.43 c p1
327.13 229.06 0.43 c p1
327.56 229.09 0.43 c p1
327.98 223.32 0.43 c p1
328.41 223.35 0.43 c p1
328.83 225.04 0.43 c p1
329.26 227.56 0.43 c p1
329.69 227.59 0.43 c p1
330.11 230.96 0.43 c p1
330.54 226.82 0.43 c p1
330.96 223.55 0.43 c p1
331.39 222.75 0.43 c p1
331.81 226.09 0.43 c p1
332.24 226.11 0.43 c p1
332.66 234.50 0.43 c p1
333.09 229.50 0.43 c p1
333.51 223.72 0.43 c p1
333.94 221.27 0.43 c p1
334.37 223.77 0.43 c p1
334.79 222.97 0.43 c p1
335.22 223.00 0.43 c p1
335.64 223.02 0.43 c p1
336.07 226.35 0.43 c p1
336.49 228.87 0.43 c p1
336.92 224.75 0.43 c p1
337.34 222.30 0.43 c p1
337.77 230.61 0.43 c p1
338.20 224.81 0.43 c p1
338.62 225.66 0.43 c p1
339.05 220.74 0.43 c p1
339.47 223.23 0.43 c p1
339.90 224.08 0.43 c p1
340.32 226.58 0.43 c p1
340.75 227.42 0.43 c p1
341.17 220.85 0.43 c p1
341.60 220.86 0.43 c p1
342.03 225.00 0.43 c p1
342.45 224.19 0.43 c p1
342.88 227.52 0.43 c p1
343.30 223.40 0.43 c p1
343.73 224.25 0.43 c p1
344.15 225.09 0.43 c p1
344.58 228.42 0.43 c p1
345.00 223.47 0.43 c p1
345.43 228.46 0.43 c p1
345.86 224.33 0.43 c p1
346.28 221.06 0.43 c p1
346.71 224.36 0.43 c p1
347.13 230.18 0.43 c p1
347.56 224.39 0.43 c p1
347.98 226.89 0.43 c p1
348.41 221.95 0.43 c p1
348.83 222.79 0.43 c p1
349.26 223.62 0.43 c p1
349.69 221.99 0.43 c p1
350.11 224.48 0.43 c p1
350.54 224.49 0.43 c p1
350.96 225.33 0.43 c p1
351.39 230.32 0.43 c p1
351.81 226.18 0.43 c p1
352.24 222.89 0.43 c p1
352.66 224.55 0.43 c p1
353.09 232.05 0.43 c p1
353.51 225.40 0.43 c p1
353.94 229.56 0.43 c p1
354.37 223.77 0.43 c p1
354.79 232.09 0.43 c p1
355.22 228.76 0.43 c p1
355.64 222.16 0.43 c p1
356.07 229.62 0.43 c p1
356.49 227.13 0.43 c p1
356.92 230.47 0.43 c p1
357.34 225.50 0.43 c p1
357.77 227.99 0.43 c p1
358.20 228.00 0.43 c p1
358.62 223.88 0.43 c p1
359.05 228.02 0.43 c p1
359.47 226.37 0.43 c p1
359.90 225.56 0.43 c p1
360.32 228.88 0.43 c p1
360.75 225.57 0.43 c p1
361.17 224.76 0.43 c p1
361.60 233.08 0.43 c p1
0.00 0.00 432.00 576.00 cl
0 0 0 srgb
0.75 setlinewidth
[] 0 setdash
1 setlinecap
1 setlinejoin
10.00 setmiterlimit
np
217.77 201.60 m
148.94 0 l
o
np
217.77 201.60 m
0 -5.76 l
o
np
239.05 201.60 m
0 -5.76 l
o
np
260.32 201.60 m
0 -5.76 l
o
np
281.60 201.60 m
0 -5.76 l
o
np
302.88 201.60 m
0 -5.76 l
o
np
324.15 201.60 m
0 -5.76 l
o
np
345.43 201.60 m
0 -5.76 l
o
np
366.71 201.60 m
0 -5.76 l
o
/Font1 findfont 6 s
217.77 185.47 (0) .5 0 t
239.05 185.47 (50) .5 0 t
260.32 185.47 (100) .5 0 t
281.60 185.47 (150) .5 0 t
302.88 185.47 (200) .5 0 t
324.15 185.47 (250) .5 0 t
345.43 185.47 (300) .5 0 t
366.71 185.47 (350) .5 0 t
np
216.00 206.62 m
0 36.04 l
o
np
216.00 206.62 m
-5.76 0 l
o
np
216.00 212.63 m
-5.76 0 l
o
np
216.00 218.63 m
-5.76 0 l
o
np
216.00 224.64 m
-5.76 0 l
o
np
216.00 230.65 m
-5.76 0 l
o
np
216.00 236.65 m
-5.76 0 l
o
np
216.00 242.66 m
-5.76 0 l
o
209.09 204.47 (-0.015) 1 0 t
209.09 210.48 (-0.010) 1 0 t
209.09 216.48 (-0.005) 1 0 t
209.09 222.49 (0.000) 1 0 t
209.09 228.49 (0.005) 1 0 t
209.09 234.50 (0.010) 1 0 t
209.09 240.50 (0.015) 1 0 t
np
216.00 201.60 m
151.20 0 l
0 46.08 l
-151.20 0 l
0 -46.08 l
o
0.00 0.00 432.00 576.00 cl
/Font1 findfont 9 s
0 0 0 srgb
291.60 262.88 (Residuals) .5 0 t
59.04 73.44 401.76 516.96 cl
ep
%%Trailer
%%Pages: 1
%%EOF
