%!PS-Adobe-3.0 EPSF-3.0
%%DocumentNeededResources: font Helvetica
%%+ font Helvetica-Bold
%%+ font Helvetica-Oblique
%%+ font Helvetica-BoldOblique
%%+ font Symbol
%%Title: R Graphics Output
%%Creator: R Software
%%Pages: (atend)
%%BoundingBox: 0 0 432 576
%%EndComments
%%BeginProlog
/bp  { gs sRGB gs } def
% begin .ps.prolog
/gs  { gsave } bind def
/gr  { grestore } bind def
/ep  { showpage gr gr } bind def
/m   { moveto } bind def
/l  { rlineto } bind def
/np  { newpath } bind def
/cp  { closepath } bind def
/f   { fill } bind def
/o   { stroke } bind def
/c   { newpath 0 360 arc } bind def
/r   { 4 2 roll moveto 1 copy 3 -1 roll exch 0 exch rlineto 0 rlineto -1 mul 0 exch rlineto closepath } bind def
/p1  { stroke } bind def
/p2  { gsave bg fill grestore newpath } bind def
/p3  { gsave bg fill grestore stroke } bind def
/p6  { gsave bg eofill grestore newpath } bind def
/p7  { gsave bg eofill grestore stroke } bind def
/t   { 5 -2 roll moveto gsave rotate
       1 index stringwidth pop
       mul neg 0 rmoveto show grestore } bind def
/ta  { 4 -2 roll moveto gsave rotate show } bind def
/tb  { 2 -1 roll 0 rmoveto show } bind def
/cl  { grestore gsave newpath 3 index 3 index moveto 1 index
       4 -1 roll lineto  exch 1 index lineto lineto
       closepath clip newpath } bind def
/rgb { setrgbcolor } bind def
/s   { scalefont setfont } bind def
% end   .ps.prolog
/sRGB { [ /CIEBasedABC
          << /DecodeLMN
               [ { dup 0.03928 le
                        {12.92321 div}
                        {0.055 add 1.055 div 2.4 exp }
                     ifelse
                 } bind dup dup
               ]
             /MatrixLMN [0.412457 0.212673 0.019334
                         0.357576 0.715152 0.119192
                         0.180437 0.072175 0.950301]
             /WhitePoint [0.9505 1.0 1.0890]
           >>
         ] setcolorspace } bind def
/srgb { setcolor } bind def
% begin encoding
/WinAnsiEncoding [
 /.notdef /.notdef /.notdef /.notdef /.notdef /.notdef /.notdef /.notdef
 /.notdef /.notdef /.notdef /.notdef /.notdef /.notdef /.notdef /.notdef
 /.notdef /.notdef /.notdef /.notdef /.notdef /.notdef /.notdef /.notdef
 /.notdef /.notdef /.notdef /.notdef /.notdef /.notdef /.notdef /.notdef
 /space /exclam /quotedbl /numbersign /dollar /percent /ampersand /quoteright
 /parenleft /parenright /asterisk /plus /comma /minus /period /slash
 /zero /one /two /three /four /five /six /seven
 /eight /nine /colon /semicolon /less /equal /greater /question
 /at /A /B /C /D /E /F /G
 /H /I /J /K /L /M /N /O
 /P /Q /R /S /T /U /V /W
 /X /Y /Z /bracketleft /backslash /bracketright /asciicircum /underscore
 /grave /a /b /c /d /e /f /g
 /h /i /j /k /l /m /n /o
 /p /q /r /s /t /u /v /w
 /x /y /z /braceleft /bar /braceright /asciitilde /.notdef
 /Euro /.notdef /quotesinglbase /florin /quotedblbase /ellipsis /dagger /daggerdbl
 /circumflex /perthousand /Scaron /guilsinglleft /OE /.notdef /Zcaron /.notdef
 /.notdef /quoteleft /quoteright /quotedblleft /quotedblright /bullet /endash /emdash
 /tilde /trademark /scaron /guilsinglright /oe /.notdef /zcaron /Ydieresis
 /space /exclamdown /cent /sterling /currency /yen /brokenbar /section
 /dieresis /copyright /ordfeminine /guillemotleft /logicalnot /hyphen /registered /macron
 /degree /plusminus /twosuperior /threesuperior /acute /mu /paragraph /periodcentered
 /cedilla /onesuperior /ordmasculine /guillemotright /onequarter /onehalf /threequarters /questiondown
 /Agrave /Aacute /Acircumflex /Atilde /Adieresis /Aring /AE /Ccedilla
 /Egrave /Eacute /Ecircumflex /Edieresis /Igrave /Iacute /Icircumflex /Idieresis
 /Eth /Ntilde /Ograve /Oacute /Ocircumflex /Otilde /Odieresis /multiply
 /Oslash /Ugrave /Uacute /Ucircumflex /Udieresis /Yacute /Thorn /germandbls
 /agrave /aacute /acircumflex /atilde /adieresis /aring /ae /ccedilla
 /egrave /eacute /ecircumflex /edieresis /igrave /iacute /icircumflex /idieresis
 /eth /ntilde /ograve /oacute /ocircumflex /otilde /odieresis /divide
 /oslash /ugrave /uacute /ucircumflex /udieresis /yacute /thorn /ydieresis
]
 def
% end encoding
%%IncludeResource: font Helvetica
/Helvetica findfont
dup length dict begin
  {1 index /FID ne {def} {pop pop} ifelse} forall
  /Encoding WinAnsiEncoding def
  currentdict
  end
/Font1 exch definefont pop
%%IncludeResource: font Helvetica-Bold
/Helvetica-Bold findfont
dup length dict begin
  {1 index /FID ne {def} {pop pop} ifelse} forall
  /Encoding WinAnsiEncoding def
  currentdict
  end
/Font2 exch definefont pop
%%IncludeResource: font Helvetica-Oblique
/Helvetica-Oblique findfont
dup length dict begin
  {1 index /FID ne {def} {pop pop} ifelse} forall
  /Encoding WinAnsiEncoding def
  currentdict
  end
/Font3 exch definefont pop
%%IncludeResource: font Helvetica-BoldOblique
/Helvetica-BoldOblique findfont
dup length dict begin
  {1 index /FID ne {def} {pop pop} ifelse} forall
  /Encoding WinAnsiEncoding def
  currentdict
  end
/Font4 exch definefont pop
%%IncludeResource: font Symbol
/Symbol findfont
dup length dict begin
  {1 index /FID ne {def} {pop pop} ifelse} forall
  currentdict
  end
/Font5 exch definefont pop
%%EndProlog
%%Page: 1 1
bp
/bg { 1 1 1 srgb } def
0.00 0.00 432.00 576.00 r p2
0.00 0.00 432.00 576.00 cl
0.00 0.00 432.00 576.00 cl
0.00 0.00 432.00 576.00 cl
/Font1 findfont 12 s
0 0 0 srgb
48.00 508.72 (PCP-ETH) 0 0 t
48.00 494.89 (Flash light photolysis) 0 0 t
/Font1 findfont 9 s
48.00 457.54 (File: T) 0 ta
-1.080 (emper) tb
-0.090 (ature_dependence_12f_MSLM.dat) tb gr
48.00 334.87 (T) 0 ta
-1.080 (ue Mar 08 17:21:40 2022) tb gr
48.00 430.87 (Fit function:  a + b * e) 0 ta
-0.270 (xp\(-c * t\)) tb gr
48.00 420.50 (t-Inter) 0 ta
0.270 (v) tb
-0.225 (all: 11.000 ... 360.000 ms) tb gr
48.00 410.14 (P) 0 ta
-0.360 (ar) tb
-0.090 (ameters \(Standard de) tb
-0.270 (viation\):) tb gr
48.00 399.77 (  a = 0.00765 \(0.00032\)) 0 0 t
48.00 389.40 (  b = 0.14998 \(0.00112\)) 0 0 t
48.00 379.03 (  c = 1.493e+01 \(1.948e-01\) s^-1) 0 0 t
48.00 368.66 (  tau = 6.697e-02 \(8.737e-04\) s) 0 0 t
216.00 345.60 388.80 518.40 cl
0 0 0 srgb
0.75 setlinewidth
[] 0 setdash
1 setlinecap
1 setlinejoin
10.00 setmiterlimit
np
222.40 465.65 m
0.15 1.29 l
0.14 -0.96 l
0.15 -0.65 l
0.14 0.32 l
0.15 0.16 l
0.14 0.81 l
0.15 -1.13 l
0.14 0.16 l
0.15 0.65 l
0.15 0.32 l
0.14 -0.16 l
0.15 0 l
0.14 -0.65 l
0.15 -0.32 l
0.14 0.81 l
0.15 -0.16 l
0.14 0 l
0.15 0.32 l
0.15 -0.32 l
0.14 -0.33 l
0.15 0 l
0.14 0.17 l
0.15 0.32 l
0.14 -0.16 l
0.15 0 l
0.15 0 l
0.14 -0.49 l
0.15 0 l
0.14 0.97 l
0.15 -0.97 l
0.14 -0.32 l
0.15 0.65 l
0.14 -0.33 l
0.15 0.49 l
0.15 -0.33 l
0.14 0.17 l
0.15 0.32 l
0.14 0 l
0.15 0 l
0.14 -0.49 l
0.15 0.81 l
0.14 -0.48 l
0.15 0.96 l
0.15 0.32 l
0.14 -0.64 l
0.15 -0.16 l
0.14 -0.64 l
0.15 0.32 l
0.14 0 l
0.15 -0.16 l
0.14 -1.13 l
0.15 0.64 l
0.15 -0.16 l
0.14 1.29 l
0.15 0.48 l
0.14 0.16 l
0.15 -0.96 l
0.14 0.64 l
0.15 0 l
0.15 -0.16 l
0.14 -0.48 l
0.15 -1.13 l
0.14 0.81 l
0.15 -0.49 l
0.14 -0.64 l
0.15 0.48 l
0.14 0.16 l
0.15 0.65 l
0.15 -0.32 l
0.14 0.16 l
0.15 -0.33 l
0.14 0.17 l
0.15 0 l
0.14 0.16 l
0.15 0.32 l
0.14 -0.16 l
0.15 -0.65 l
0.15 0.16 l
0.14 0.33 l
0.15 -0.33 l
0.14 -0.32 l
0.15 1.13 l
0.14 -0.48 l
0.15 -0.33 l
0.14 -0.32 l
0.15 0.65 l
0.15 0.48 l
0.14 -0.97 l
0.15 -0.64 l
0.14 0.16 l
0.15 0.64 l
0.14 0.17 l
0.15 0.96 l
0.15 -0.64 l
0.14 -0.16 l
0.15 0.64 l
0.14 -1.29 l
0.15 0.97 l
0.14 -0.97 l
236.96 512.00 lineto
0.14 -85.20 l
0.15 1.78 l
0.15 0.81 l
0.14 1.26 l
0.15 1.12 l
0.14 0 l
0.15 2.07 l
0.14 0.96 l
0.15 -0.96 l
0.14 0.32 l
0.15 0.32 l
0.15 2.89 l
0.14 0.65 l
0.15 -0.65 l
0.14 1.43 l
0.15 0.80 l
0.14 -2.06 l
0.15 1.42 l
0.14 -0.49 l
0.15 2.09 l
0.15 -2.09 l
0.14 2.09 l
0.15 -0.48 l
0.14 0.97 l
0.15 -0.97 l
0.14 1.29 l
0.15 -0.97 l
0.15 0 l
0.14 2.07 l
0.15 -0.78 l
0.14 1.10 l
0.15 0.16 l
0.14 -0.48 l
0.15 -0.62 l
0.14 2.55 l
0.15 -1.13 l
0.15 0.32 l
0.14 1.45 l
0.15 0.32 l
0.14 0.16 l
0.15 0.49 l
0.14 -1.29 l
0.15 0.48 l
0.14 0.16 l
0.15 1.29 l
0.15 0.45 l
0.14 -0.45 l
0.15 0.29 l
0.14 0.81 l
0.15 -0.65 l
0.14 -0.16 l
0.15 1.13 l
0.14 0.96 l
0.15 -0.96 l
0.15 0.96 l
0.14 0.49 l
0.15 -1.93 l
0.14 0.64 l
0.15 0.32 l
0.14 -0.48 l
0.15 -0.32 l
0.15 1.45 l
0.14 -0.17 l
0.15 0.65 l
0.14 1.28 l
0.15 0 l
0.14 0.14 l
0.15 0.48 l
0.14 -0.62 l
0.15 0.14 l
0.15 1.77 l
0.14 -0.32 l
0.15 0.32 l
0.14 0 l
0.15 -1.29 l
0.14 0.48 l
0.15 -0.32 l
0.14 0.32 l
0.15 1.13 l
0.15 -0.80 l
0.14 1.12 l
0.15 0 l
0.14 0.64 l
0.15 -0.16 l
0.14 0.16 l
0.15 0.33 l
0.14 -0.65 l
0.15 0 l
0.15 1.45 l
0.14 0 l
0.15 -1.77 l
0.14 1.29 l
0.15 -0.32 l
0.14 -1.13 l
0.15 1.61 l
0.15 -0.81 l
0.14 0.49 l
0.15 0.77 l
0.14 -0.77 l
251.52 455.28 lineto
0.14 0.94 l
0.15 0 l
0.14 -0.32 l
0.15 0.64 l
0.15 0.80 l
0.14 0.33 l
0.15 -0.81 l
0.14 0.48 l
0.15 0 l
0.14 -1.44 l
0.15 -0.16 l
0.14 0.48 l
0.15 0 l
0.15 0.96 l
0.14 -0.48 l
0.15 -0.64 l
0.14 1.45 l
0.15 0.16 l
0.14 -0.49 l
0.15 0.81 l
0.14 1.12 l
0.15 -1.12 l
0.15 0 l
0.14 0 l
0.15 0.80 l
0.14 0.16 l
0.15 -0.96 l
0.14 -0.32 l
0.15 0.16 l
0.14 0.16 l
0.15 0.16 l
0.15 0.48 l
0.14 0.64 l
0.15 1.10 l
0.14 0 l
0.15 0 l
0.14 -1.10 l
0.15 0.62 l
0.15 0.32 l
0.14 0.16 l
0.15 -0.16 l
0.14 -0.16 l
0.15 -0.32 l
0.14 -0.13 l
0.15 0.93 l
0.14 -1.42 l
0.15 0.16 l
0.15 0.62 l
0.14 -0.62 l
0.15 0.94 l
0.14 0.65 l
0.15 -0.17 l
0.14 -0.32 l
0.15 0.49 l
0.14 0 l
0.15 0.48 l
0.15 -0.48 l
0.14 0.32 l
0.15 0.32 l
0.14 0 l
0.15 0.32 l
0.14 0.16 l
0.15 -2.09 l
0.14 0.64 l
0.15 0 l
0.15 0.65 l
0.14 -0.49 l
0.15 0 l
0.14 0.97 l
0.15 0.80 l
0.14 -1.44 l
0.15 0.80 l
0.15 -0.16 l
0.14 0.48 l
0.15 0.81 l
0.14 -0.81 l
0.15 0.81 l
0.14 -1.45 l
0.15 0.64 l
0.14 0 l
0.15 -1.12 l
0.15 -0.33 l
0.14 1.45 l
0.15 -1.77 l
0.14 2.09 l
0.15 0.49 l
0.14 -0.49 l
0.15 0.33 l
0.14 -0.33 l
0.15 0 l
0.15 0 l
0.14 0.49 l
0.15 -0.49 l
0.14 -0.48 l
0.15 0.48 l
0.14 -1.28 l
0.15 0.96 l
0.14 -1.28 l
0.15 1.60 l
266.08 462.46 lineto
0.14 0 l
0.15 0.81 l
0.14 0.32 l
0.15 -0.80 l
0.14 0.96 l
0.15 -0.48 l
0.15 -0.48 l
0.14 0.80 l
0.15 0 l
0.14 -0.80 l
0.15 0.16 l
0.14 0.80 l
0.15 -1.13 l
0.14 0.49 l
0.15 0.32 l
0.15 -0.97 l
0.14 0.16 l
0.15 0.97 l
0.14 0 l
0.15 -0.64 l
0.14 -0.16 l
0.15 1.26 l
0.14 -0.30 l
0.15 -0.64 l
0.15 1.58 l
0.14 -1.10 l
0.15 -0.48 l
0.14 0 l
0.15 -0.49 l
0.14 0.49 l
0.15 -0.81 l
0.14 0.81 l
0.15 -0.32 l
0.15 0.64 l
0.14 1.26 l
0.15 -1.42 l
0.14 -0.48 l
0.15 0.96 l
0.14 0 l
0.15 0.46 l
0.15 0.16 l
0.14 -0.32 l
0.15 -0.62 l
0.14 -0.32 l
0.15 0.80 l
0.14 -0.96 l
0.15 0.32 l
0.14 -0.65 l
0.15 0.17 l
0.15 0.16 l
0.14 -0.33 l
0.15 0.65 l
0.14 0 l
0.15 -0.16 l
0.14 0 l
0.15 1.42 l
0.14 -0.62 l
0.15 0.78 l
0.15 -1.10 l
0.14 0.78 l
0.15 0.16 l
0.14 -0.94 l
0.15 0 l
0.14 -1.13 l
0.15 0.97 l
0.14 0.32 l
0.15 -2.09 l
0.15 0.16 l
0.14 0.16 l
0.15 1.61 l
0.14 -0.64 l
0.15 0 l
0.14 0.48 l
0.15 0.94 l
0.15 -0.46 l
0.14 -0.16 l
0.15 0.78 l
0.14 0.16 l
0.15 -1.74 l
0.14 0.64 l
0.15 -0.16 l
0.14 -0.81 l
0.15 0.97 l
0.15 -0.32 l
0.14 -0.48 l
0.15 0 l
0.14 -0.81 l
0.15 1.13 l
0.14 0 l
0.15 0 l
0.14 1.42 l
0.15 -0.32 l
0.15 0.32 l
0.14 -0.78 l
0.15 0.16 l
0.14 0.78 l
0.15 -0.16 l
0.14 -0.62 l
0.15 1.10 l
280.63 464.53 lineto
0.15 -2.07 l
0.15 0.33 l
0.14 0.32 l
0.15 -0.32 l
0.14 0.64 l
0.15 -0.32 l
0.14 0.80 l
0.15 -1.12 l
0.15 0.96 l
0.14 0 l
0.15 -0.96 l
0.14 1.74 l
0.15 -0.16 l
0.14 -0.46 l
0.15 0.14 l
0.14 -1.26 l
0.15 1.12 l
0.15 0 l
0.14 -0.96 l
0.15 0.48 l
0.14 0.32 l
0.15 -1.61 l
0.14 0.65 l
0.15 1.12 l
0.14 -0.32 l
0.15 -0.16 l
0.15 0.16 l
0.14 0.32 l
0.15 -0.32 l
0.14 -0.48 l
0.15 0.16 l
0.14 -0.32 l
0.15 1.10 l
0.14 -0.94 l
0.15 0.80 l
0.15 -1.29 l
0.14 -0.64 l
0.15 0.81 l
0.14 0.64 l
0.15 -0.64 l
0.14 0.64 l
0.15 -0.48 l
0.14 0.96 l
0.15 -0.16 l
0.15 -0.32 l
0.14 -0.16 l
0.15 0.32 l
0.14 -0.80 l
0.15 0.48 l
0.14 0.16 l
0.15 0.16 l
0.15 0.62 l
0.14 -1.91 l
0.15 0.97 l
0.14 0 l
0.15 -0.32 l
0.14 0.32 l
0.15 -0.16 l
0.14 0.80 l
0.15 -0.80 l
0.15 -0.16 l
0.14 0.16 l
0.15 0.80 l
0.14 0 l
0.15 -1.12 l
0.14 1.12 l
0.15 0.46 l
0.14 -2.23 l
0.15 0.81 l
0.15 -0.49 l
0.14 0.49 l
0.15 0.16 l
0.14 -0.65 l
0.15 -0.32 l
0.14 0.65 l
0.15 0.64 l
0.14 -0.81 l
0.15 0.65 l
0.15 1.10 l
0.14 0 l
0.15 -0.32 l
0.14 -0.46 l
0.15 -0.32 l
0.14 0.32 l
0.15 0 l
0.15 0.32 l
0.14 1.10 l
0.15 -1.42 l
0.14 0 l
0.15 -0.32 l
0.14 -0.16 l
0.15 0.48 l
0.14 -0.32 l
0.15 0.32 l
0.15 -0.16 l
0.14 0.48 l
0.15 -0.16 l
0.14 0.16 l
0.15 0.30 l
295.19 463.59 lineto
0.15 0.46 l
0.14 0.16 l
0.15 -0.46 l
0.15 0.46 l
0.14 -0.16 l
0.15 -0.30 l
0.14 -1.45 l
0.15 -1.61 l
0.14 0.97 l
0.15 0 l
0.14 1.13 l
0.15 -0.33 l
0.15 1.13 l
0.14 -1.29 l
0.15 -0.48 l
0.14 -0.32 l
0.15 2.71 l
0.14 -1.26 l
0.15 0.80 l
0.15 0.62 l
0.14 -0.16 l
0.15 0.16 l
0.14 -0.62 l
0.15 -0.32 l
0.14 0.32 l
0.15 0.46 l
0.14 -0.30 l
0.15 -0.96 l
0.15 1.10 l
0.14 1.28 l
0.15 -1.28 l
0.14 0.32 l
0.15 0.48 l
0.14 0.16 l
0.15 -0.16 l
0.14 2.25 l
0.15 -1.12 l
0.15 0.64 l
0.14 0.48 l
0.15 -1.93 l
0.14 -0.16 l
0.15 0.80 l
0.14 -0.96 l
0.15 -0.64 l
0.14 -0.16 l
0.15 0.16 l
0.15 0.32 l
0.14 -1.91 l
0.15 1.13 l
0.14 -0.32 l
0.15 1.74 l
0.14 -0.96 l
0.15 0.16 l
0.15 0.16 l
0.14 -0.94 l
0.15 0.16 l
0.14 0.16 l
0.15 -0.16 l
0.14 -0.80 l
0.15 0.32 l
0.14 0.16 l
0.15 0.16 l
0.15 -1.45 l
0.14 1.13 l
0.15 -0.97 l
0.14 -0.64 l
0.15 0.96 l
0.14 1.13 l
0.15 -1.29 l
0.14 1.59 l
0.15 0 l
0.15 0 l
0.14 0 l
0.15 0.32 l
0.14 0.16 l
0.15 -0.62 l
0.14 0.14 l
0.15 -0.30 l
0.14 1.42 l
0.15 -1.42 l
0.15 -0.96 l
0.14 -0.65 l
0.15 0.16 l
0.14 0.16 l
0.15 1.29 l
0.14 0.16 l
0.15 0 l
0.15 0 l
0.14 -0.32 l
0.15 0.94 l
0.14 -0.16 l
0.15 -0.16 l
0.14 0.96 l
0.15 -0.16 l
0.14 0.64 l
0.15 -0.48 l
0.15 -0.48 l
0.14 -0.78 l
0.15 -0.32 l
309.75 464.21 lineto
0.15 0.64 l
0.14 -0.94 l
0.15 0.94 l
0.14 0.16 l
0.15 0.80 l
0.15 -0.96 l
0.14 -0.16 l
0.15 1.12 l
0.14 -1.76 l
0.15 1.76 l
0.14 0.17 l
0.15 -0.17 l
0.14 -1.12 l
0.15 -0.32 l
0.15 0.32 l
0.14 0 l
0.15 -0.78 l
0.14 -0.96 l
0.15 1.74 l
0.14 -0.48 l
0.15 -1.10 l
0.15 0.32 l
0.14 -0.48 l
0.15 0.32 l
0.14 0 l
0.15 0 l
0.14 0.64 l
0.15 0.30 l
0.14 0 l
0.15 0.32 l
0.15 -0.48 l
0.14 0 l
0.15 -0.30 l
0.14 0.16 l
0.15 -0.80 l
0.14 0 l
0.15 -0.32 l
0.14 0.80 l
0.15 0 l
0.15 0.16 l
0.14 0 l
0.15 0.16 l
0.14 -0.96 l
0.15 0.96 l
0.14 0.30 l
0.15 0.64 l
0.14 -0.48 l
0.15 0 l
0.15 0.80 l
0.14 -0.16 l
0.15 -0.16 l
0.14 -0.48 l
0.15 0.80 l
0.14 -0.48 l
0.15 -0.48 l
0.15 -0.46 l
0.14 0.46 l
0.15 -0.16 l
0.14 1.12 l
0.15 0 l
0.14 -0.48 l
0.15 -0.32 l
0.14 0.64 l
0.15 -0.32 l
0.15 0.80 l
0.14 0 l
0.15 -0.96 l
0.14 0.16 l
0.15 0.64 l
0.14 -1.42 l
0.15 0.14 l
0.14 -0.46 l
0.15 1.10 l
0.15 -1.90 l
0.14 1.58 l
0.15 -0.32 l
0.14 0.16 l
0.15 -0.30 l
0.14 0.78 l
0.15 -0.64 l
0.14 0.80 l
0.15 0 l
0.15 -0.80 l
0.14 0.64 l
0.15 -1.10 l
0.14 0.78 l
0.15 0.48 l
0.14 0 l
0.15 -1.42 l
0.14 0.48 l
0.15 0.30 l
0.15 -0.78 l
0.14 0.78 l
0.15 0 l
0.14 0 l
0.15 -0.46 l
0.14 0.62 l
0.15 -0.32 l
0.15 0.48 l
324.31 464.69 lineto
0.15 -0.32 l
0.14 1.12 l
0.15 0 l
0.14 0 l
0.15 -0.64 l
0.14 0 l
0.15 -0.48 l
0.15 0.48 l
0.14 -0.32 l
0.15 -1.42 l
0.14 0.64 l
0.15 -0.48 l
0.14 0.48 l
0.15 -0.64 l
0.14 0.64 l
0.15 0.94 l
0.15 0.80 l
0.14 -0.96 l
0.15 0 l
0.14 0.80 l
0.15 -0.48 l
0.14 0.16 l
0.15 -2.06 l
0.14 1.42 l
0.15 -0.62 l
0.15 0.62 l
0.14 0.16 l
0.15 -2.07 l
0.14 0.81 l
0.15 0.78 l
0.14 -0.78 l
0.15 0.32 l
0.15 -1.29 l
0.14 1.29 l
0.15 0.78 l
0.14 0.16 l
0.15 -0.62 l
0.14 0.30 l
0.15 0.96 l
0.14 -0.80 l
0.15 0.32 l
0.15 -1.10 l
0.14 0.78 l
0.15 -0.78 l
0.14 0.78 l
0.15 0.48 l
0.14 -1.26 l
0.15 0.62 l
0.14 0.32 l
0.15 -2.07 l
0.15 1.13 l
0.14 0.94 l
0.15 0.16 l
0.14 0.16 l
0.15 0.96 l
0.14 -0.80 l
0.15 1.29 l
0.14 -1.29 l
0.15 -0.48 l
0.15 0.80 l
0.14 0 l
0.15 0 l
0.14 -0.64 l
0.15 -0.32 l
0.14 -0.46 l
0.15 0.30 l
0.15 -1.10 l
0.14 0.48 l
0.15 0.94 l
0.14 -1.74 l
0.15 1.12 l
0.14 -0.64 l
0.15 0.94 l
0.14 -0.30 l
0.15 1.58 l
0.15 -0.64 l
0.14 0.32 l
0.15 -0.80 l
0.14 -0.16 l
0.15 -0.16 l
0.14 2.09 l
0.15 -1.45 l
0.14 -0.48 l
0.15 0.16 l
0.15 -0.32 l
0.14 -1.10 l
0.15 0.32 l
0.14 0.94 l
0.15 0 l
0.14 -0.62 l
0.15 1.42 l
0.14 -0.16 l
0.15 0 l
0.15 -0.16 l
0.14 1.12 l
0.15 -1.28 l
0.14 1.28 l
0.15 -0.64 l
0.14 -0.16 l
338.87 464.37 lineto
0.15 -0.32 l
0.14 0.32 l
0.15 0.64 l
0.14 -1.26 l
0.15 1.42 l
0.14 -0.16 l
0.15 -1.42 l
0.14 0.46 l
0.15 0.32 l
0.15 -0.62 l
0.14 1.58 l
0.15 -1.12 l
0.14 0.64 l
0.15 0.64 l
0.14 -0.48 l
0.15 0.48 l
0.14 -0.16 l
0.15 0 l
0.15 0.48 l
0.14 -0.80 l
0.15 -0.32 l
0.14 0 l
0.15 0 l
0.14 -0.64 l
0.15 -0.14 l
0.14 0.62 l
0.15 0.16 l
0.15 -0.64 l
0.14 0.32 l
0.15 1.28 l
0.14 -0.48 l
0.15 0.16 l
0.14 -0.16 l
0.15 -0.32 l
0.15 0.48 l
0.14 -0.16 l
0.15 -0.48 l
0.14 0.48 l
0.15 -0.64 l
0.14 0 l
0.15 -0.32 l
0.14 -1.10 l
0.15 0.94 l
0.15 -0.62 l
0.14 0.48 l
0.15 -0.32 l
0.14 1.58 l
0.15 -0.80 l
0.14 -0.32 l
0.15 0.64 l
0.14 -0.94 l
0.15 1.10 l
0.15 0.16 l
0.14 0.97 l
0.15 -0.33 l
0.14 -0.64 l
0.15 -0.32 l
0.14 0.48 l
0.15 0 l
0.14 -0.96 l
0.15 0.32 l
0.15 0 l
0.14 -0.62 l
0.15 1.26 l
0.14 -0.80 l
0.15 0.64 l
0.14 -0.32 l
0.15 0.96 l
0.15 0 l
0.14 -0.96 l
0.15 1.93 l
0.14 -1.29 l
0.15 0.16 l
0.14 0.32 l
0.15 -0.64 l
0.14 -0.48 l
0.15 0.48 l
0.15 -0.80 l
0.14 -0.16 l
0.15 0 l
0.14 -0.46 l
0.15 0.30 l
0.14 -0.30 l
0.15 0.16 l
0.14 0.46 l
0.15 0.48 l
0.15 0.64 l
0.14 -1.12 l
0.15 0.64 l
0.14 0 l
0.15 -0.32 l
0.14 -0.32 l
0.15 -0.16 l
0.14 0.80 l
0.15 -0.48 l
0.15 0 l
0.14 0.32 l
0.15 0 l
0.14 -1.42 l
353.43 464.05 lineto
0.14 -0.62 l
0.15 0.16 l
0.14 0.78 l
0.15 0 l
0.15 0.48 l
0.14 -0.80 l
0.15 0.64 l
0.14 -0.16 l
0.15 0.16 l
0.14 0.48 l
0.15 -0.48 l
0.15 0.64 l
0.14 -0.64 l
0.15 1.29 l
0.14 -1.13 l
0.15 -0.32 l
0.14 0.64 l
0.15 0.16 l
0.14 0.32 l
0.15 -0.96 l
0.15 0.64 l
0.14 -0.32 l
0.15 0 l
0.14 0.16 l
0.15 -0.16 l
0.14 -0.48 l
0.15 1.93 l
0.14 -1.61 l
0.15 0.48 l
0.15 -0.32 l
0.14 0.64 l
0.15 0 l
0.14 0.16 l
0.15 -1.90 l
0.14 0.78 l
0.15 -0.16 l
0.14 0.48 l
0.15 -1.42 l
0.15 0.94 l
0.14 0.48 l
0.15 -0.32 l
0.14 -0.32 l
0.15 0.16 l
0.14 0.32 l
0.15 0 l
0.15 0.64 l
0.14 -0.80 l
0.15 0.16 l
0.14 -0.16 l
0.15 0.96 l
0.14 -1.60 l
0.15 0.80 l
0.14 -0.94 l
0.15 0.14 l
0.15 0.16 l
0.14 -0.16 l
0.15 -0.14 l
0.14 0.94 l
0.15 -0.16 l
0.14 0 l
0.15 0.16 l
0.14 -0.32 l
0.15 0.80 l
0.15 -0.32 l
0.14 0.32 l
0.15 -0.80 l
0.14 0.48 l
0.15 -0.16 l
0.14 0.48 l
0.15 -1.12 l
0.14 -0.30 l
0.15 0.30 l
0.15 0.80 l
0.14 -0.80 l
0.15 0 l
0.14 0.48 l
0.15 -0.48 l
0.14 0.96 l
0.15 -0.96 l
0.15 1.93 l
0.14 -1.13 l
0.15 -0.32 l
0.14 0.64 l
0.15 0 l
0.14 0.81 l
0.15 0.32 l
0.14 -0.97 l
0.15 -1.44 l
0.15 1.60 l
0.14 -0.80 l
0.15 0.64 l
0.14 -0.16 l
0.15 -1.28 l
0.14 0.80 l
0.15 -0.32 l
0.14 0.48 l
0.15 0 l
0.15 -0.48 l
0.14 0.96 l
currentpoint o m
367.99 465.49 lineto
0.14 -0.64 l
0.15 0.80 l
0.14 -0.64 l
0.15 0.80 l
0.14 0.17 l
0.15 0 l
0.15 -0.97 l
0.14 -0.32 l
0.15 -0.16 l
0.14 -0.48 l
0.15 0 l
0.14 0.48 l
0.15 -0.62 l
0.15 0.46 l
0.14 0.64 l
0.15 0.16 l
0.14 0 l
0.15 0.81 l
0.14 -1.45 l
0.15 0.96 l
0.14 -0.16 l
0.15 1.29 l
0.15 -1.45 l
0.14 0 l
0.15 0.32 l
0.14 0.16 l
0.15 -1.12 l
0.14 -0.48 l
0.15 0.80 l
0.14 -0.32 l
0.15 0 l
0.15 0 l
0.14 1.28 l
0.15 -0.96 l
0.14 0.32 l
0.15 0.16 l
0.14 0.32 l
0.15 -0.64 l
0.14 0.80 l
0.15 -0.80 l
0.15 -0.64 l
0.14 1.12 l
0.15 0 l
0.14 -0.48 l
0.15 0.64 l
0.14 -0.80 l
0.15 0 l
0.15 0.64 l
0.14 -1.44 l
0.15 -0.30 l
0.14 0.16 l
0.15 0.78 l
0.14 0 l
0.15 -0.32 l
0.14 0.16 l
0.15 0.64 l
0.15 -0.16 l
0.14 0.80 l
0.15 -0.96 l
0.14 0.96 l
0.15 0.17 l
0.14 -1.45 l
0.15 1.28 l
0.14 -0.48 l
0.15 0.16 l
0.15 -0.96 l
0.14 0 l
0.15 0.48 l
0.14 -0.16 l
0.15 -0.32 l
0.14 -0.16 l
0.15 0.48 l
0.14 0 l
0.15 0.48 l
0.15 0.16 l
0.14 0.32 l
0.15 -1.12 l
0.14 1.45 l
0.15 -0.81 l
0.14 -0.48 l
0.15 0.48 l
0.15 0.81 l
0.14 -0.81 l
0.15 0.16 l
0.14 -0.96 l
0.15 0.32 l
0.14 0.16 l
0.15 -0.80 l
0.14 0.16 l
0.15 0.32 l
0.15 -1.58 l
0.14 1.58 l
0.15 -0.32 l
0.14 1.12 l
0.15 -1.44 l
0.14 0.16 l
0.15 1.12 l
0.14 0.65 l
0.15 -0.49 l
o
/bg { 1 1 1 srgb } def
222.40 465.65 0.43 c p3
222.55 466.94 0.43 c p3
222.69 465.98 0.43 c p3
222.84 465.33 0.43 c p3
222.98 465.65 0.43 c p3
223.13 465.81 0.43 c p3
223.27 466.62 0.43 c p3
223.42 465.49 0.43 c p3
223.56 465.65 0.43 c p3
223.71 466.30 0.43 c p3
223.86 466.62 0.43 c p3
224.00 466.46 0.43 c p3
224.15 466.46 0.43 c p3
224.29 465.81 0.43 c p3
224.44 465.49 0.43 c p3
224.58 466.30 0.43 c p3
224.73 466.14 0.43 c p3
224.87 466.14 0.43 c p3
225.02 466.46 0.43 c p3
225.17 466.14 0.43 c p3
225.31 465.81 0.43 c p3
225.46 465.81 0.43 c p3
225.60 465.98 0.43 c p3
225.75 466.30 0.43 c p3
225.89 466.14 0.43 c p3
226.04 466.14 0.43 c p3
226.19 466.14 0.43 c p3
226.33 465.65 0.43 c p3
226.48 465.65 0.43 c p3
226.62 466.62 0.43 c p3
226.77 465.65 0.43 c p3
226.91 465.33 0.43 c p3
227.06 465.98 0.43 c p3
227.20 465.65 0.43 c p3
227.35 466.14 0.43 c p3
227.50 465.81 0.43 c p3
227.64 465.98 0.43 c p3
227.79 466.30 0.43 c p3
227.93 466.30 0.43 c p3
228.08 466.30 0.43 c p3
228.22 465.81 0.43 c p3
228.37 466.62 0.43 c p3
228.51 466.14 0.43 c p3
228.66 467.10 0.43 c p3
228.81 467.42 0.43 c p3
228.95 466.78 0.43 c p3
229.10 466.62 0.43 c p3
229.24 465.98 0.43 c p3
229.39 466.30 0.43 c p3
229.53 466.30 0.43 c p3
229.68 466.14 0.43 c p3
229.82 465.01 0.43 c p3
229.97 465.65 0.43 c p3
230.12 465.49 0.43 c p3
230.26 466.78 0.43 c p3
230.41 467.26 0.43 c p3
230.55 467.42 0.43 c p3
230.70 466.46 0.43 c p3
230.84 467.10 0.43 c p3
230.99 467.10 0.43 c p3
231.14 466.94 0.43 c p3
231.28 466.46 0.43 c p3
231.43 465.33 0.43 c p3
231.57 466.14 0.43 c p3
231.72 465.65 0.43 c p3
231.86 465.01 0.43 c p3
232.01 465.49 0.43 c p3
232.15 465.65 0.43 c p3
232.30 466.30 0.43 c p3
232.45 465.98 0.43 c p3
232.59 466.14 0.43 c p3
232.74 465.81 0.43 c p3
232.88 465.98 0.43 c p3
233.03 465.98 0.43 c p3
233.17 466.14 0.43 c p3
233.32 466.46 0.43 c p3
233.46 466.30 0.43 c p3
233.61 465.65 0.43 c p3
233.76 465.81 0.43 c p3
233.90 466.14 0.43 c p3
234.05 465.81 0.43 c p3
234.19 465.49 0.43 c p3
234.34 466.62 0.43 c p3
234.48 466.14 0.43 c p3
234.63 465.81 0.43 c p3
234.77 465.49 0.43 c p3
234.92 466.14 0.43 c p3
235.07 466.62 0.43 c p3
235.21 465.65 0.43 c p3
235.36 465.01 0.43 c p3
235.50 465.17 0.43 c p3
235.65 465.81 0.43 c p3
235.79 465.98 0.43 c p3
235.94 466.94 0.43 c p3
236.09 466.30 0.43 c p3
236.23 466.14 0.43 c p3
236.38 466.78 0.43 c p3
236.52 465.49 0.43 c p3
236.67 466.46 0.43 c p3
236.81 465.49 0.43 c p3
236.96 512.00 0.43 c p3
237.10 426.80 0.43 c p3
237.25 428.58 0.43 c p3
237.40 429.39 0.43 c p3
237.54 430.65 0.43 c p3
237.69 431.77 0.43 c p3
237.83 431.77 0.43 c p3
237.98 433.84 0.43 c p3
238.12 434.80 0.43 c p3
238.27 433.84 0.43 c p3
238.41 434.16 0.43 c p3
238.56 434.48 0.43 c p3
238.71 437.37 0.43 c p3
238.85 438.02 0.43 c p3
239.00 437.37 0.43 c p3
239.14 438.80 0.43 c p3
239.29 439.60 0.43 c p3
239.43 437.54 0.43 c p3
239.58 438.96 0.43 c p3
239.72 438.47 0.43 c p3
239.87 440.56 0.43 c p3
240.02 438.47 0.43 c p3
240.16 440.56 0.43 c p3
240.31 440.08 0.43 c p3
240.45 441.05 0.43 c p3
240.60 440.08 0.43 c p3
240.74 441.37 0.43 c p3
240.89 440.40 0.43 c p3
241.04 440.40 0.43 c p3
241.18 442.47 0.43 c p3
241.33 441.69 0.43 c p3
241.47 442.79 0.43 c p3
241.62 442.95 0.43 c p3
241.76 442.47 0.43 c p3
241.91 441.85 0.43 c p3
242.05 444.40 0.43 c p3
242.20 443.27 0.43 c p3
242.35 443.59 0.43 c p3
242.49 445.04 0.43 c p3
242.64 445.36 0.43 c p3
242.78 445.52 0.43 c p3
242.93 446.01 0.43 c p3
243.07 444.72 0.43 c p3
243.22 445.20 0.43 c p3
243.36 445.36 0.43 c p3
243.51 446.65 0.43 c p3
243.66 447.10 0.43 c p3
243.80 446.65 0.43 c p3
243.95 446.94 0.43 c p3
244.09 447.75 0.43 c p3
244.24 447.10 0.43 c p3
244.38 446.94 0.43 c p3
244.53 448.07 0.43 c p3
244.67 449.03 0.43 c p3
244.82 448.07 0.43 c p3
244.97 449.03 0.43 c p3
245.11 449.52 0.43 c p3
245.26 447.59 0.43 c p3
245.40 448.23 0.43 c p3
245.55 448.55 0.43 c p3
245.69 448.07 0.43 c p3
245.84 447.75 0.43 c p3
245.99 449.20 0.43 c p3
246.13 449.03 0.43 c p3
246.28 449.68 0.43 c p3
246.42 450.96 0.43 c p3
246.57 450.96 0.43 c p3
246.71 451.10 0.43 c p3
246.86 451.58 0.43 c p3
247.00 450.96 0.43 c p3
247.15 451.10 0.43 c p3
247.30 452.87 0.43 c p3
247.44 452.55 0.43 c p3
247.59 452.87 0.43 c p3
247.73 452.87 0.43 c p3
247.88 451.58 0.43 c p3
248.02 452.06 0.43 c p3
248.17 451.74 0.43 c p3
248.31 452.06 0.43 c p3
248.46 453.19 0.43 c p3
248.61 452.39 0.43 c p3
248.75 453.51 0.43 c p3
248.90 453.51 0.43 c p3
249.04 454.15 0.43 c p3
249.19 453.99 0.43 c p3
249.33 454.15 0.43 c p3
249.48 454.48 0.43 c p3
249.62 453.83 0.43 c p3
249.77 453.83 0.43 c p3
249.92 455.28 0.43 c p3
250.06 455.28 0.43 c p3
250.21 453.51 0.43 c p3
250.35 454.80 0.43 c p3
250.50 454.48 0.43 c p3
250.64 453.35 0.43 c p3
250.79 454.96 0.43 c p3
250.94 454.15 0.43 c p3
251.08 454.64 0.43 c p3
251.23 455.41 0.43 c p3
251.37 454.64 0.43 c p3
251.52 455.28 0.43 c p3
251.66 456.22 0.43 c p3
251.81 456.22 0.43 c p3
251.95 455.90 0.43 c p3
252.10 456.54 0.43 c p3
252.25 457.34 0.43 c p3
252.39 457.67 0.43 c p3
252.54 456.86 0.43 c p3
252.68 457.34 0.43 c p3
252.83 457.34 0.43 c p3
252.97 455.90 0.43 c p3
253.12 455.74 0.43 c p3
253.26 456.22 0.43 c p3
253.41 456.22 0.43 c p3
253.56 457.18 0.43 c p3
253.70 456.70 0.43 c p3
253.85 456.06 0.43 c p3
253.99 457.51 0.43 c p3
254.14 457.67 0.43 c p3
254.28 457.18 0.43 c p3
254.43 457.99 0.43 c p3
254.57 459.11 0.43 c p3
254.72 457.99 0.43 c p3
254.87 457.99 0.43 c p3
255.01 457.99 0.43 c p3
255.16 458.79 0.43 c p3
255.30 458.95 0.43 c p3
255.45 457.99 0.43 c p3
255.59 457.67 0.43 c p3
255.74 457.83 0.43 c p3
255.88 457.99 0.43 c p3
256.03 458.15 0.43 c p3
256.18 458.63 0.43 c p3
256.32 459.27 0.43 c p3
256.47 460.37 0.43 c p3
256.61 460.37 0.43 c p3
256.76 460.37 0.43 c p3
256.90 459.27 0.43 c p3
257.05 459.89 0.43 c p3
257.20 460.21 0.43 c p3
257.34 460.37 0.43 c p3
257.49 460.21 0.43 c p3
257.63 460.05 0.43 c p3
257.78 459.73 0.43 c p3
257.92 459.60 0.43 c p3
258.07 460.53 0.43 c p3
258.21 459.11 0.43 c p3
258.36 459.27 0.43 c p3
258.51 459.89 0.43 c p3
258.65 459.27 0.43 c p3
258.80 460.21 0.43 c p3
258.94 460.86 0.43 c p3
259.09 460.69 0.43 c p3
259.23 460.37 0.43 c p3
259.38 460.86 0.43 c p3
259.52 460.86 0.43 c p3
259.67 461.34 0.43 c p3
259.82 460.86 0.43 c p3
259.96 461.18 0.43 c p3
260.11 461.50 0.43 c p3
260.25 461.50 0.43 c p3
260.40 461.82 0.43 c p3
260.54 461.98 0.43 c p3
260.69 459.89 0.43 c p3
260.83 460.53 0.43 c p3
260.98 460.53 0.43 c p3
261.13 461.18 0.43 c p3
261.27 460.69 0.43 c p3
261.42 460.69 0.43 c p3
261.56 461.66 0.43 c p3
261.71 462.46 0.43 c p3
261.85 461.02 0.43 c p3
262.00 461.82 0.43 c p3
262.15 461.66 0.43 c p3
262.29 462.14 0.43 c p3
262.44 462.95 0.43 c p3
262.58 462.14 0.43 c p3
262.73 462.95 0.43 c p3
262.87 461.50 0.43 c p3
263.02 462.14 0.43 c p3
263.16 462.14 0.43 c p3
263.31 461.02 0.43 c p3
263.46 460.69 0.43 c p3
263.60 462.14 0.43 c p3
263.75 460.37 0.43 c p3
263.89 462.46 0.43 c p3
264.04 462.95 0.43 c p3
264.18 462.46 0.43 c p3
264.33 462.79 0.43 c p3
264.47 462.46 0.43 c p3
264.62 462.46 0.43 c p3
264.77 462.46 0.43 c p3
264.91 462.95 0.43 c p3
265.06 462.46 0.43 c p3
265.20 461.98 0.43 c p3
265.35 462.46 0.43 c p3
265.49 461.18 0.43 c p3
265.64 462.14 0.43 c p3
265.78 460.86 0.43 c p3
265.93 462.46 0.43 c p3
266.08 462.46 0.43 c p3
266.22 462.46 0.43 c p3
266.37 463.27 0.43 c p3
266.51 463.59 0.43 c p3
266.66 462.79 0.43 c p3
266.80 463.75 0.43 c p3
266.95 463.27 0.43 c p3
267.10 462.79 0.43 c p3
267.24 463.59 0.43 c p3
267.39 463.59 0.43 c p3
267.53 462.79 0.43 c p3
267.68 462.95 0.43 c p3
267.82 463.75 0.43 c p3
267.97 462.62 0.43 c p3
268.11 463.11 0.43 c p3
268.26 463.43 0.43 c p3
268.41 462.46 0.43 c p3
268.55 462.62 0.43 c p3
268.70 463.59 0.43 c p3
268.84 463.59 0.43 c p3
268.99 462.95 0.43 c p3
269.13 462.79 0.43 c p3
269.28 464.05 0.43 c p3
269.42 463.75 0.43 c p3
269.57 463.11 0.43 c p3
269.72 464.69 0.43 c p3
269.86 463.59 0.43 c p3
270.01 463.11 0.43 c p3
270.15 463.11 0.43 c p3
270.30 462.62 0.43 c p3
270.44 463.11 0.43 c p3
270.59 462.30 0.43 c p3
270.73 463.11 0.43 c p3
270.88 462.79 0.43 c p3
271.03 463.43 0.43 c p3
271.17 464.69 0.43 c p3
271.32 463.27 0.43 c p3
271.46 462.79 0.43 c p3
271.61 463.75 0.43 c p3
271.75 463.75 0.43 c p3
271.90 464.21 0.43 c p3
272.05 464.37 0.43 c p3
272.19 464.05 0.43 c p3
272.34 463.43 0.43 c p3
272.48 463.11 0.43 c p3
272.63 463.91 0.43 c p3
272.77 462.95 0.43 c p3
272.92 463.27 0.43 c p3
273.06 462.62 0.43 c p3
273.21 462.79 0.43 c p3
273.36 462.95 0.43 c p3
273.50 462.62 0.43 c p3
273.65 463.27 0.43 c p3
273.79 463.27 0.43 c p3
273.94 463.11 0.43 c p3
274.08 463.11 0.43 c p3
274.23 464.53 0.43 c p3
274.37 463.91 0.43 c p3
274.52 464.69 0.43 c p3
274.67 463.59 0.43 c p3
274.81 464.37 0.43 c p3
274.96 464.53 0.43 c p3
275.10 463.59 0.43 c p3
275.25 463.59 0.43 c p3
275.39 462.46 0.43 c p3
275.54 463.43 0.43 c p3
275.68 463.75 0.43 c p3
275.83 461.66 0.43 c p3
275.98 461.82 0.43 c p3
276.12 461.98 0.43 c p3
276.27 463.59 0.43 c p3
276.41 462.95 0.43 c p3
276.56 462.95 0.43 c p3
276.70 463.43 0.43 c p3
276.85 464.37 0.43 c p3
277.00 463.91 0.43 c p3
277.14 463.75 0.43 c p3
277.29 464.53 0.43 c p3
277.43 464.69 0.43 c p3
277.58 462.95 0.43 c p3
277.72 463.59 0.43 c p3
277.87 463.43 0.43 c p3
278.01 462.62 0.43 c p3
278.16 463.59 0.43 c p3
278.31 463.27 0.43 c p3
278.45 462.79 0.43 c p3
278.60 462.79 0.43 c p3
278.74 461.98 0.43 c p3
278.89 463.11 0.43 c p3
279.03 463.11 0.43 c p3
279.18 463.11 0.43 c p3
279.32 464.53 0.43 c p3
279.47 464.21 0.43 c p3
279.62 464.53 0.43 c p3
279.76 463.75 0.43 c p3
279.91 463.91 0.43 c p3
280.05 464.69 0.43 c p3
280.20 464.53 0.43 c p3
280.34 463.91 0.43 c p3
280.49 465.01 0.43 c p3
280.63 464.53 0.43 c p3
280.78 462.46 0.43 c p3
280.93 462.79 0.43 c p3
281.07 463.11 0.43 c p3
281.22 462.79 0.43 c p3
281.36 463.43 0.43 c p3
281.51 463.11 0.43 c p3
281.65 463.91 0.43 c p3
281.80 462.79 0.43 c p3
281.95 463.75 0.43 c p3
282.09 463.75 0.43 c p3
282.24 462.79 0.43 c p3
282.38 464.53 0.43 c p3
282.53 464.37 0.43 c p3
282.67 463.91 0.43 c p3
282.82 464.05 0.43 c p3
282.96 462.79 0.43 c p3
283.11 463.91 0.43 c p3
283.26 463.91 0.43 c p3
283.40 462.95 0.43 c p3
283.55 463.43 0.43 c p3
283.69 463.75 0.43 c p3
283.84 462.14 0.43 c p3
283.98 462.79 0.43 c p3
284.13 463.91 0.43 c p3
284.27 463.59 0.43 c p3
284.42 463.43 0.43 c p3
284.57 463.59 0.43 c p3
284.71 463.91 0.43 c p3
284.86 463.59 0.43 c p3
285.00 463.11 0.43 c p3
285.15 463.27 0.43 c p3
285.29 462.95 0.43 c p3
285.44 464.05 0.43 c p3
285.58 463.11 0.43 c p3
285.73 463.91 0.43 c p3
285.88 462.62 0.43 c p3
286.02 461.98 0.43 c p3
286.17 462.79 0.43 c p3
286.31 463.43 0.43 c p3
286.46 462.79 0.43 c p3
286.60 463.43 0.43 c p3
286.75 462.95 0.43 c p3
286.89 463.91 0.43 c p3
287.04 463.75 0.43 c p3
287.19 463.43 0.43 c p3
287.33 463.27 0.43 c p3
287.48 463.59 0.43 c p3
287.62 462.79 0.43 c p3
287.77 463.27 0.43 c p3
287.91 463.43 0.43 c p3
288.06 463.59 0.43 c p3
288.21 464.21 0.43 c p3
288.35 462.30 0.43 c p3
288.50 463.27 0.43 c p3
288.64 463.27 0.43 c p3
288.79 462.95 0.43 c p3
288.93 463.27 0.43 c p3
289.08 463.11 0.43 c p3
289.22 463.91 0.43 c p3
289.37 463.11 0.43 c p3
289.52 462.95 0.43 c p3
289.66 463.11 0.43 c p3
289.81 463.91 0.43 c p3
289.95 463.91 0.43 c p3
290.10 462.79 0.43 c p3
290.24 463.91 0.43 c p3
290.39 464.37 0.43 c p3
290.53 462.14 0.43 c p3
290.68 462.95 0.43 c p3
290.83 462.46 0.43 c p3
290.97 462.95 0.43 c p3
291.12 463.11 0.43 c p3
291.26 462.46 0.43 c p3
291.41 462.14 0.43 c p3
291.55 462.79 0.43 c p3
291.70 463.43 0.43 c p3
291.84 462.62 0.43 c p3
291.99 463.27 0.43 c p3
292.14 464.37 0.43 c p3
292.28 464.37 0.43 c p3
292.43 464.05 0.43 c p3
292.57 463.59 0.43 c p3
292.72 463.27 0.43 c p3
292.86 463.59 0.43 c p3
293.01 463.59 0.43 c p3
293.16 463.91 0.43 c p3
293.30 465.01 0.43 c p3
293.45 463.59 0.43 c p3
293.59 463.59 0.43 c p3
293.74 463.27 0.43 c p3
293.88 463.11 0.43 c p3
294.03 463.59 0.43 c p3
294.17 463.27 0.43 c p3
294.32 463.59 0.43 c p3
294.47 463.43 0.43 c p3
294.61 463.91 0.43 c p3
294.76 463.75 0.43 c p3
294.90 463.91 0.43 c p3
295.05 464.21 0.43 c p3
295.19 463.59 0.43 c p3
295.34 464.05 0.43 c p3
295.48 464.21 0.43 c p3
295.63 463.75 0.43 c p3
295.78 464.21 0.43 c p3
295.92 464.05 0.43 c p3
296.07 463.75 0.43 c p3
296.21 462.30 0.43 c p3
296.36 460.69 0.43 c p3
296.50 461.66 0.43 c p3
296.65 461.66 0.43 c p3
296.79 462.79 0.43 c p3
296.94 462.46 0.43 c p3
297.09 463.59 0.43 c p3
297.23 462.30 0.43 c p3
297.38 461.82 0.43 c p3
297.52 461.50 0.43 c p3
297.67 464.21 0.43 c p3
297.81 462.95 0.43 c p3
297.96 463.75 0.43 c p3
298.11 464.37 0.43 c p3
298.25 464.21 0.43 c p3
298.40 464.37 0.43 c p3
298.54 463.75 0.43 c p3
298.69 463.43 0.43 c p3
298.83 463.75 0.43 c p3
298.98 464.21 0.43 c p3
299.12 463.91 0.43 c p3
299.27 462.95 0.43 c p3
299.42 464.05 0.43 c p3
299.56 465.33 0.43 c p3
299.71 464.05 0.43 c p3
299.85 464.37 0.43 c p3
300.00 464.85 0.43 c p3
300.14 465.01 0.43 c p3
300.29 464.85 0.43 c p3
300.43 467.10 0.43 c p3
300.58 465.98 0.43 c p3
300.73 466.62 0.43 c p3
300.87 467.10 0.43 c p3
301.02 465.17 0.43 c p3
301.16 465.01 0.43 c p3
301.31 465.81 0.43 c p3
301.45 464.85 0.43 c p3
301.60 464.21 0.43 c p3
301.74 464.05 0.43 c p3
301.89 464.21 0.43 c p3
302.04 464.53 0.43 c p3
302.18 462.62 0.43 c p3
302.33 463.75 0.43 c p3
302.47 463.43 0.43 c p3
302.62 465.17 0.43 c p3
302.76 464.21 0.43 c p3
302.91 464.37 0.43 c p3
303.06 464.53 0.43 c p3
303.20 463.59 0.43 c p3
303.35 463.75 0.43 c p3
303.49 463.91 0.43 c p3
303.64 463.75 0.43 c p3
303.78 462.95 0.43 c p3
303.93 463.27 0.43 c p3
304.07 463.43 0.43 c p3
304.22 463.59 0.43 c p3
304.37 462.14 0.43 c p3
304.51 463.27 0.43 c p3
304.66 462.30 0.43 c p3
304.80 461.66 0.43 c p3
304.95 462.62 0.43 c p3
305.09 463.75 0.43 c p3
305.24 462.46 0.43 c p3
305.38 464.05 0.43 c p3
305.53 464.05 0.43 c p3
305.68 464.05 0.43 c p3
305.82 464.05 0.43 c p3
305.97 464.37 0.43 c p3
306.11 464.53 0.43 c p3
306.26 463.91 0.43 c p3
306.40 464.05 0.43 c p3
306.55 463.75 0.43 c p3
306.69 465.17 0.43 c p3
306.84 463.75 0.43 c p3
306.99 462.79 0.43 c p3
307.13 462.14 0.43 c p3
307.28 462.30 0.43 c p3
307.42 462.46 0.43 c p3
307.57 463.75 0.43 c p3
307.71 463.91 0.43 c p3
307.86 463.91 0.43 c p3
308.01 463.91 0.43 c p3
308.15 463.59 0.43 c p3
308.30 464.53 0.43 c p3
308.44 464.37 0.43 c p3
308.59 464.21 0.43 c p3
308.73 465.17 0.43 c p3
308.88 465.01 0.43 c p3
309.02 465.65 0.43 c p3
309.17 465.17 0.43 c p3
309.32 464.69 0.43 c p3
309.46 463.91 0.43 c p3
309.61 463.59 0.43 c p3
309.75 464.21 0.43 c p3
309.90 464.85 0.43 c p3
310.04 463.91 0.43 c p3
310.19 464.85 0.43 c p3
310.33 465.01 0.43 c p3
310.48 465.81 0.43 c p3
310.63 464.85 0.43 c p3
310.77 464.69 0.43 c p3
310.92 465.81 0.43 c p3
311.06 464.05 0.43 c p3
311.21 465.81 0.43 c p3
311.35 465.98 0.43 c p3
311.50 465.81 0.43 c p3
311.64 464.69 0.43 c p3
311.79 464.37 0.43 c p3
311.94 464.69 0.43 c p3
312.08 464.69 0.43 c p3
312.23 463.91 0.43 c p3
312.37 462.95 0.43 c p3
312.52 464.69 0.43 c p3
312.66 464.21 0.43 c p3
312.81 463.11 0.43 c p3
312.96 463.43 0.43 c p3
313.10 462.95 0.43 c p3
313.25 463.27 0.43 c p3
313.39 463.27 0.43 c p3
313.54 463.27 0.43 c p3
313.68 463.91 0.43 c p3
313.83 464.21 0.43 c p3
313.97 464.21 0.43 c p3
314.12 464.53 0.43 c p3
314.27 464.05 0.43 c p3
314.41 464.05 0.43 c p3
314.56 463.75 0.43 c p3
314.70 463.91 0.43 c p3
314.85 463.11 0.43 c p3
314.99 463.11 0.43 c p3
315.14 462.79 0.43 c p3
315.28 463.59 0.43 c p3
315.43 463.59 0.43 c p3
315.58 463.75 0.43 c p3
315.72 463.75 0.43 c p3
315.87 463.91 0.43 c p3
316.01 462.95 0.43 c p3
316.16 463.91 0.43 c p3
316.30 464.21 0.43 c p3
316.45 464.85 0.43 c p3
316.59 464.37 0.43 c p3
316.74 464.37 0.43 c p3
316.89 465.17 0.43 c p3
317.03 465.01 0.43 c p3
317.18 464.85 0.43 c p3
317.32 464.37 0.43 c p3
317.47 465.17 0.43 c p3
317.61 464.69 0.43 c p3
317.76 464.21 0.43 c p3
317.91 463.75 0.43 c p3
318.05 464.21 0.43 c p3
318.20 464.05 0.43 c p3
318.34 465.17 0.43 c p3
318.49 465.17 0.43 c p3
318.63 464.69 0.43 c p3
318.78 464.37 0.43 c p3
318.92 465.01 0.43 c p3
319.07 464.69 0.43 c p3
319.22 465.49 0.43 c p3
319.36 465.49 0.43 c p3
319.51 464.53 0.43 c p3
319.65 464.69 0.43 c p3
319.80 465.33 0.43 c p3
319.94 463.91 0.43 c p3
320.09 464.05 0.43 c p3
320.23 463.59 0.43 c p3
320.38 464.69 0.43 c p3
320.53 462.79 0.43 c p3
320.67 464.37 0.43 c p3
320.82 464.05 0.43 c p3
320.96 464.21 0.43 c p3
321.11 463.91 0.43 c p3
321.25 464.69 0.43 c p3
321.40 464.05 0.43 c p3
321.54 464.85 0.43 c p3
321.69 464.85 0.43 c p3
321.84 464.05 0.43 c p3
321.98 464.69 0.43 c p3
322.13 463.59 0.43 c p3
322.27 464.37 0.43 c p3
322.42 464.85 0.43 c p3
322.56 464.85 0.43 c p3
322.71 463.43 0.43 c p3
322.85 463.91 0.43 c p3
323.00 464.21 0.43 c p3
323.15 463.43 0.43 c p3
323.29 464.21 0.43 c p3
323.44 464.21 0.43 c p3
323.58 464.21 0.43 c p3
323.73 463.75 0.43 c p3
323.87 464.37 0.43 c p3
324.02 464.05 0.43 c p3
324.17 464.53 0.43 c p3
324.31 464.69 0.43 c p3
324.46 464.37 0.43 c p3
324.60 465.49 0.43 c p3
324.75 465.49 0.43 c p3
324.89 465.49 0.43 c p3
325.04 464.85 0.43 c p3
325.18 464.85 0.43 c p3
325.33 464.37 0.43 c p3
325.48 464.85 0.43 c p3
325.62 464.53 0.43 c p3
325.77 463.11 0.43 c p3
325.91 463.75 0.43 c p3
326.06 463.27 0.43 c p3
326.20 463.75 0.43 c p3
326.35 463.11 0.43 c p3
326.49 463.75 0.43 c p3
326.64 464.69 0.43 c p3
326.79 465.49 0.43 c p3
326.93 464.53 0.43 c p3
327.08 464.53 0.43 c p3
327.22 465.33 0.43 c p3
327.37 464.85 0.43 c p3
327.51 465.01 0.43 c p3
327.66 462.95 0.43 c p3
327.80 464.37 0.43 c p3
327.95 463.75 0.43 c p3
328.10 464.37 0.43 c p3
328.24 464.53 0.43 c p3
328.39 462.46 0.43 c p3
328.53 463.27 0.43 c p3
328.68 464.05 0.43 c p3
328.82 463.27 0.43 c p3
328.97 463.59 0.43 c p3
329.12 462.30 0.43 c p3
329.26 463.59 0.43 c p3
329.41 464.37 0.43 c p3
329.55 464.53 0.43 c p3
329.70 463.91 0.43 c p3
329.84 464.21 0.43 c p3
329.99 465.17 0.43 c p3
330.13 464.37 0.43 c p3
330.28 464.69 0.43 c p3
330.43 463.59 0.43 c p3
330.57 464.37 0.43 c p3
330.72 463.59 0.43 c p3
330.86 464.37 0.43 c p3
331.01 464.85 0.43 c p3
331.15 463.59 0.43 c p3
331.30 464.21 0.43 c p3
331.44 464.53 0.43 c p3
331.59 462.46 0.43 c p3
331.74 463.59 0.43 c p3
331.88 464.53 0.43 c p3
332.03 464.69 0.43 c p3
332.17 464.85 0.43 c p3
332.32 465.81 0.43 c p3
332.46 465.01 0.43 c p3
332.61 466.30 0.43 c p3
332.75 465.01 0.43 c p3
332.90 464.53 0.43 c p3
333.05 465.33 0.43 c p3
333.19 465.33 0.43 c p3
333.34 465.33 0.43 c p3
333.48 464.69 0.43 c p3
333.63 464.37 0.43 c p3
333.77 463.91 0.43 c p3
333.92 464.21 0.43 c p3
334.07 463.11 0.43 c p3
334.21 463.59 0.43 c p3
334.36 464.53 0.43 c p3
334.50 462.79 0.43 c p3
334.65 463.91 0.43 c p3
334.79 463.27 0.43 c p3
334.94 464.21 0.43 c p3
335.08 463.91 0.43 c p3
335.23 465.49 0.43 c p3
335.38 464.85 0.43 c p3
335.52 465.17 0.43 c p3
335.67 464.37 0.43 c p3
335.81 464.21 0.43 c p3
335.96 464.05 0.43 c p3
336.10 466.14 0.43 c p3
336.25 464.69 0.43 c p3
336.39 464.21 0.43 c p3
336.54 464.37 0.43 c p3
336.69 464.05 0.43 c p3
336.83 462.95 0.43 c p3
336.98 463.27 0.43 c p3
337.12 464.21 0.43 c p3
337.27 464.21 0.43 c p3
337.41 463.59 0.43 c p3
337.56 465.01 0.43 c p3
337.70 464.85 0.43 c p3
337.85 464.85 0.43 c p3
338.00 464.69 0.43 c p3
338.14 465.81 0.43 c p3
338.29 464.53 0.43 c p3
338.43 465.81 0.43 c p3
338.58 465.17 0.43 c p3
338.72 465.01 0.43 c p3
338.87 464.37 0.43 c p3
339.02 464.05 0.43 c p3
339.16 464.37 0.43 c p3
339.31 465.01 0.43 c p3
339.45 463.75 0.43 c p3
339.60 465.17 0.43 c p3
339.74 465.01 0.43 c p3
339.89 463.59 0.43 c p3
340.03 464.05 0.43 c p3
340.18 464.37 0.43 c p3
340.33 463.75 0.43 c p3
340.47 465.33 0.43 c p3
340.62 464.21 0.43 c p3
340.76 464.85 0.43 c p3
340.91 465.49 0.43 c p3
341.05 465.01 0.43 c p3
341.20 465.49 0.43 c p3
341.34 465.33 0.43 c p3
341.49 465.33 0.43 c p3
341.64 465.81 0.43 c p3
341.78 465.01 0.43 c p3
341.93 464.69 0.43 c p3
342.07 464.69 0.43 c p3
342.22 464.69 0.43 c p3
342.36 464.05 0.43 c p3
342.51 463.91 0.43 c p3
342.65 464.53 0.43 c p3
342.80 464.69 0.43 c p3
342.95 464.05 0.43 c p3
343.09 464.37 0.43 c p3
343.24 465.65 0.43 c p3
343.38 465.17 0.43 c p3
343.53 465.33 0.43 c p3
343.67 465.17 0.43 c p3
343.82 464.85 0.43 c p3
343.97 465.33 0.43 c p3
344.11 465.17 0.43 c p3
344.26 464.69 0.43 c p3
344.40 465.17 0.43 c p3
344.55 464.53 0.43 c p3
344.69 464.53 0.43 c p3
344.84 464.21 0.43 c p3
344.98 463.11 0.43 c p3
345.13 464.05 0.43 c p3
345.28 463.43 0.43 c p3
345.42 463.91 0.43 c p3
345.57 463.59 0.43 c p3
345.71 465.17 0.43 c p3
345.86 464.37 0.43 c p3
346.00 464.05 0.43 c p3
346.15 464.69 0.43 c p3
346.29 463.75 0.43 c p3
346.44 464.85 0.43 c p3
346.59 465.01 0.43 c p3
346.73 465.98 0.43 c p3
346.88 465.65 0.43 c p3
347.02 465.01 0.43 c p3
347.17 464.69 0.43 c p3
347.31 465.17 0.43 c p3
347.46 465.17 0.43 c p3
347.60 464.21 0.43 c p3
347.75 464.53 0.43 c p3
347.90 464.53 0.43 c p3
348.04 463.91 0.43 c p3
348.19 465.17 0.43 c p3
348.33 464.37 0.43 c p3
348.48 465.01 0.43 c p3
348.62 464.69 0.43 c p3
348.77 465.65 0.43 c p3
348.92 465.65 0.43 c p3
349.06 464.69 0.43 c p3
349.21 466.62 0.43 c p3
349.35 465.33 0.43 c p3
349.50 465.49 0.43 c p3
349.64 465.81 0.43 c p3
349.79 465.17 0.43 c p3
349.93 464.69 0.43 c p3
350.08 465.17 0.43 c p3
350.23 464.37 0.43 c p3
350.37 464.21 0.43 c p3
350.52 464.21 0.43 c p3
350.66 463.75 0.43 c p3
350.81 464.05 0.43 c p3
350.95 463.75 0.43 c p3
351.10 463.91 0.43 c p3
351.24 464.37 0.43 c p3
351.39 464.85 0.43 c p3
351.54 465.49 0.43 c p3
351.68 464.37 0.43 c p3
351.83 465.01 0.43 c p3
351.97 465.01 0.43 c p3
352.12 464.69 0.43 c p3
352.26 464.37 0.43 c p3
352.41 464.21 0.43 c p3
352.55 465.01 0.43 c p3
352.70 464.53 0.43 c p3
352.85 464.53 0.43 c p3
352.99 464.85 0.43 c p3
353.14 464.85 0.43 c p3
353.28 463.43 0.43 c p3
353.43 464.05 0.43 c p3
353.57 463.43 0.43 c p3
353.72 463.59 0.43 c p3
353.86 464.37 0.43 c p3
354.01 464.37 0.43 c p3
354.16 464.85 0.43 c p3
354.30 464.05 0.43 c p3
354.45 464.69 0.43 c p3
354.59 464.53 0.43 c p3
354.74 464.69 0.43 c p3
354.88 465.17 0.43 c p3
355.03 464.69 0.43 c p3
355.18 465.33 0.43 c p3
355.32 464.69 0.43 c p3
355.47 465.98 0.43 c p3
355.61 464.85 0.43 c p3
355.76 464.53 0.43 c p3
355.90 465.17 0.43 c p3
356.05 465.33 0.43 c p3
356.19 465.65 0.43 c p3
356.34 464.69 0.43 c p3
356.49 465.33 0.43 c p3
356.63 465.01 0.43 c p3
356.78 465.01 0.43 c p3
356.92 465.17 0.43 c p3
357.07 465.01 0.43 c p3
357.21 464.53 0.43 c p3
357.36 466.46 0.43 c p3
357.50 464.85 0.43 c p3
357.65 465.33 0.43 c p3
357.80 465.01 0.43 c p3
357.94 465.65 0.43 c p3
358.09 465.65 0.43 c p3
358.23 465.81 0.43 c p3
358.38 463.91 0.43 c p3
358.52 464.69 0.43 c p3
358.67 464.53 0.43 c p3
358.81 465.01 0.43 c p3
358.96 463.59 0.43 c p3
359.11 464.53 0.43 c p3
359.25 465.01 0.43 c p3
359.40 464.69 0.43 c p3
359.54 464.37 0.43 c p3
359.69 464.53 0.43 c p3
359.83 464.85 0.43 c p3
359.98 464.85 0.43 c p3
360.13 465.49 0.43 c p3
360.27 464.69 0.43 c p3
360.42 464.85 0.43 c p3
360.56 464.69 0.43 c p3
360.71 465.65 0.43 c p3
360.85 464.05 0.43 c p3
361.00 464.85 0.43 c p3
361.14 463.91 0.43 c p3
361.29 464.05 0.43 c p3
361.44 464.21 0.43 c p3
361.58 464.05 0.43 c p3
361.73 463.91 0.43 c p3
361.87 464.85 0.43 c p3
362.02 464.69 0.43 c p3
362.16 464.69 0.43 c p3
362.31 464.85 0.43 c p3
362.45 464.53 0.43 c p3
362.60 465.33 0.43 c p3
362.75 465.01 0.43 c p3
362.89 465.33 0.43 c p3
363.04 464.53 0.43 c p3
363.18 465.01 0.43 c p3
363.33 464.85 0.43 c p3
363.47 465.33 0.43 c p3
363.62 464.21 0.43 c p3
363.76 463.91 0.43 c p3
363.91 464.21 0.43 c p3
364.06 465.01 0.43 c p3
364.20 464.21 0.43 c p3
364.35 464.21 0.43 c p3
364.49 464.69 0.43 c p3
364.64 464.21 0.43 c p3
364.78 465.17 0.43 c p3
364.93 464.21 0.43 c p3
365.08 466.14 0.43 c p3
365.22 465.01 0.43 c p3
365.37 464.69 0.43 c p3
365.51 465.33 0.43 c p3
365.66 465.33 0.43 c p3
365.80 466.14 0.43 c p3
365.95 466.46 0.43 c p3
366.09 465.49 0.43 c p3
366.24 464.05 0.43 c p3
366.39 465.65 0.43 c p3
366.53 464.85 0.43 c p3
366.68 465.49 0.43 c p3
366.82 465.33 0.43 c p3
366.97 464.05 0.43 c p3
367.11 464.85 0.43 c p3
367.26 464.53 0.43 c p3
367.40 465.01 0.43 c p3
367.55 465.01 0.43 c p3
367.70 464.53 0.43 c p3
367.84 465.49 0.43 c p3
367.99 465.49 0.43 c p3
368.13 464.85 0.43 c p3
368.28 465.65 0.43 c p3
368.42 465.01 0.43 c p3
368.57 465.81 0.43 c p3
368.71 465.98 0.43 c p3
368.86 465.98 0.43 c p3
369.01 465.01 0.43 c p3
369.15 464.69 0.43 c p3
369.30 464.53 0.43 c p3
369.44 464.05 0.43 c p3
369.59 464.05 0.43 c p3
369.73 464.53 0.43 c p3
369.88 463.91 0.43 c p3
370.03 464.37 0.43 c p3
370.17 465.01 0.43 c p3
370.32 465.17 0.43 c p3
370.46 465.17 0.43 c p3
370.61 465.98 0.43 c p3
370.75 464.53 0.43 c p3
370.90 465.49 0.43 c p3
371.04 465.33 0.43 c p3
371.19 466.62 0.43 c p3
371.34 465.17 0.43 c p3
371.48 465.17 0.43 c p3
371.63 465.49 0.43 c p3
371.77 465.65 0.43 c p3
371.92 464.53 0.43 c p3
372.06 464.05 0.43 c p3
372.21 464.85 0.43 c p3
372.35 464.53 0.43 c p3
372.50 464.53 0.43 c p3
372.65 464.53 0.43 c p3
372.79 465.81 0.43 c p3
372.94 464.85 0.43 c p3
373.08 465.17 0.43 c p3
373.23 465.33 0.43 c p3
373.37 465.65 0.43 c p3
373.52 465.01 0.43 c p3
373.66 465.81 0.43 c p3
373.81 465.01 0.43 c p3
373.96 464.37 0.43 c p3
374.10 465.49 0.43 c p3
374.25 465.49 0.43 c p3
374.39 465.01 0.43 c p3
374.54 465.65 0.43 c p3
374.68 464.85 0.43 c p3
374.83 464.85 0.43 c p3
374.98 465.49 0.43 c p3
375.12 464.05 0.43 c p3
375.27 463.75 0.43 c p3
375.41 463.91 0.43 c p3
375.56 464.69 0.43 c p3
375.70 464.69 0.43 c p3
375.85 464.37 0.43 c p3
375.99 464.53 0.43 c p3
376.14 465.17 0.43 c p3
376.29 465.01 0.43 c p3
376.43 465.81 0.43 c p3
376.58 464.85 0.43 c p3
376.72 465.81 0.43 c p3
376.87 465.98 0.43 c p3
377.01 464.53 0.43 c p3
377.16 465.81 0.43 c p3
377.30 465.33 0.43 c p3
377.45 465.49 0.43 c p3
377.60 464.53 0.43 c p3
377.74 464.53 0.43 c p3
377.89 465.01 0.43 c p3
378.03 464.85 0.43 c p3
378.18 464.53 0.43 c p3
378.32 464.37 0.43 c p3
378.47 464.85 0.43 c p3
378.61 464.85 0.43 c p3
378.76 465.33 0.43 c p3
378.91 465.49 0.43 c p3
379.05 465.81 0.43 c p3
379.20 464.69 0.43 c p3
379.34 466.14 0.43 c p3
379.49 465.33 0.43 c p3
379.63 464.85 0.43 c p3
379.78 465.33 0.43 c p3
379.93 466.14 0.43 c p3
380.07 465.33 0.43 c p3
380.22 465.49 0.43 c p3
380.36 464.53 0.43 c p3
380.51 464.85 0.43 c p3
380.65 465.01 0.43 c p3
380.80 464.21 0.43 c p3
380.94 464.37 0.43 c p3
381.09 464.69 0.43 c p3
381.24 463.11 0.43 c p3
381.38 464.69 0.43 c p3
381.53 464.37 0.43 c p3
381.67 465.49 0.43 c p3
381.82 464.05 0.43 c p3
381.96 464.21 0.43 c p3
382.11 465.33 0.43 c p3
382.25 465.98 0.43 c p3
382.40 465.49 0.43 c p3
0.00 0.00 432.00 576.00 cl
0 0 0 srgb
0.75 setlinewidth
[] 0 setdash
1 setlinecap
1 setlinejoin
10.00 setmiterlimit
np
236.96 345.60 m
145.59 0 l
o
np
236.96 345.60 m
0 -5.76 l
o
np
266.08 345.60 m
0 -5.76 l
o
np
295.19 345.60 m
0 -5.76 l
o
np
324.31 345.60 m
0 -5.76 l
o
np
353.43 345.60 m
0 -5.76 l
o
np
382.55 345.60 m
0 -5.76 l
o
/Font1 findfont 10 s
236.96 329.47 (0) .5 0 t
266.08 329.47 (200) .5 0 t
295.19 329.47 (400) .5 0 t
324.31 329.47 (600) .5 0 t
353.43 329.47 (800) .5 0 t
382.55 329.47 (1000) .5 0 t
np
216.00 352.00 m
0 131.75 l
o
np
216.00 352.00 m
-5.76 0 l
o
np
216.00 395.92 m
-5.76 0 l
o
np
216.00 439.83 m
-5.76 0 l
o
np
216.00 483.75 m
-5.76 0 l
o
209.09 348.41 (0.0) 1 0 t
209.09 392.33 (0.1) 1 0 t
209.09 436.24 (0.2) 1 0 t
209.09 480.16 (0.3) 1 0 t
np
216.00 345.60 m
172.80 0 l
0 172.80 l
-172.80 0 l
0 -172.80 l
o
0.00 0.00 432.00 576.00 cl
/Font1 findfont 10 s
0 0 0 srgb
302.40 313.34 (Time / ms \(total\)) .5 0 t
190.66 432.00 (U / V) .5 90 t
216.00 345.60 388.80 518.40 cl
0 0 0 srgb
0.38 setlinewidth
[ 1.13 1.88] 0 setdash
1 setlinecap
1 setlinejoin
10.00 setmiterlimit
np
222.98 345.60 m
0 172.80 l
o
np
235.07 345.60 m
0 172.80 l
o
np
238.56 345.60 m
0 172.80 l
o
np
289.37 345.60 m
0 172.80 l
o
86.40 57.60 388.80 288.00 cl
1 0 0 srgb
1.50 setlinewidth
[] 0 setdash
1 setlinecap
1 setlinejoin
10.00 setmiterlimit
np
97.60 279.47 m
1.41 -14.68 l
1.40 -13.61 l
1.41 -12.63 l
1.41 -11.72 l
1.41 -10.87 l
1.40 -10.08 l
1.41 -9.35 l
1.41 -8.68 l
1.40 -8.05 l
1.41 -7.47 l
1.41 -6.93 l
1.40 -6.43 l
1.41 -5.96 l
1.41 -5.53 l
1.41 -5.14 l
1.40 -4.76 l
1.41 -4.42 l
1.41 -4.09 l
1.40 -3.80 l
1.41 -3.53 l
1.41 -3.27 l
1.40 -3.04 l
1.41 -2.81 l
1.41 -2.62 l
1.41 -2.42 l
1.40 -2.25 l
1.41 -2.08 l
1.41 -1.94 l
1.40 -1.79 l
1.41 -1.67 l
1.41 -1.54 l
1.41 -1.44 l
1.40 -1.33 l
1.41 -1.23 l
1.41 -1.14 l
1.40 -1.06 l
1.41 -0.99 l
1.41 -0.91 l
1.40 -0.85 l
1.41 -0.79 l
1.41 -0.73 l
1.41 -0.67 l
1.40 -0.63 l
1.41 -0.58 l
1.41 -0.54 l
1.40 -0.50 l
1.41 -0.47 l
1.41 -0.43 l
1.40 -0.40 l
1.41 -0.37 l
1.41 -0.35 l
1.41 -0.32 l
1.40 -0.29 l
1.41 -0.28 l
1.41 -0.25 l
1.40 -0.24 l
1.41 -0.22 l
1.41 -0.20 l
1.41 -0.19 l
1.40 -0.18 l
1.41 -0.16 l
1.41 -0.15 l
1.40 -0.14 l
1.41 -0.13 l
1.41 -0.12 l
1.40 -0.11 l
1.41 -0.11 l
1.41 -0.09 l
1.41 -0.09 l
1.40 -0.08 l
1.41 -0.08 l
1.41 -0.07 l
1.40 -0.07 l
1.41 -0.06 l
1.41 -0.06 l
1.40 -0.05 l
1.41 -0.05 l
1.41 -0.04 l
1.41 -0.05 l
1.40 -0.04 l
1.41 -0.03 l
1.41 -0.04 l
1.40 -0.03 l
1.41 -0.03 l
1.41 -0.02 l
1.41 -0.03 l
1.40 -0.02 l
1.41 -0.02 l
1.41 -0.02 l
1.40 -0.02 l
1.41 -0.02 l
1.41 -0.01 l
1.40 -0.02 l
1.41 -0.01 l
1.41 -0.01 l
1.41 -0.02 l
1.40 -0.01 l
1.41 -0.01 l
1.41 -0.01 l
238.30 76.59 lineto
1.41 0 l
1.41 -0.01 l
1.40 -0.01 l
1.41 0 l
1.41 -0.01 l
1.41 -0.01 l
1.40 0 l
1.41 -0.01 l
1.41 0 l
1.40 0 l
1.41 -0.01 l
1.41 0 l
1.40 0 l
1.41 -0.01 l
1.41 0 l
1.41 0 l
1.40 -0.01 l
1.41 0 l
1.41 0 l
1.40 0 l
1.41 0 l
1.41 -0.01 l
1.41 0 l
1.40 0 l
1.41 0 l
1.41 0 l
1.40 0 l
1.41 0 l
1.41 0 l
1.40 -0.01 l
1.41 0 l
1.41 0 l
1.41 0 l
1.40 0 l
1.41 0 l
1.41 0 l
1.40 0 l
1.41 0 l
1.41 0 l
1.40 0 l
1.41 0 l
1.41 0 l
1.41 0 l
1.40 0 l
1.41 0 l
1.41 0 l
1.40 0 l
1.41 0 l
1.41 0 l
1.41 0 l
1.40 0 l
1.41 0 l
1.41 0 l
1.40 -0.01 l
1.41 0 l
1.41 0 l
1.40 0 l
1.41 0 l
1.41 0 l
1.41 0 l
1.40 0 l
1.41 0 l
1.41 0 l
1.40 0 l
1.41 0 l
1.41 0 l
1.40 0 l
1.41 0 l
1.41 0 l
1.41 0 l
1.40 0 l
1.41 0 l
1.41 0 l
1.40 0 l
1.41 0 l
1.41 0 l
1.41 0 l
1.40 0 l
1.41 0 l
1.41 0 l
1.40 0 l
1.41 0 l
1.41 0 l
1.40 0 l
1.41 0 l
1.41 0 l
1.41 0 l
1.40 0 l
1.41 0 l
1.41 0 l
1.40 0 l
1.41 0 l
1.41 0 l
1.40 0 l
1.41 0 l
1.41 0 l
1.41 0 l
1.40 0 l
1.41 0 l
o
0.00 0.00 432.00 576.00 cl
0 0 0 srgb
0.75 setlinewidth
[] 0 setdash
1 setlinecap
1 setlinejoin
10.00 setmiterlimit
np
97.60 57.60 m
280.00 0 l
o
np
97.60 57.60 m
0 -5.76 l
o
np
153.60 57.60 m
0 -5.76 l
o
np
209.60 57.60 m
0 -5.76 l
o
np
265.60 57.60 m
0 -5.76 l
o
np
321.60 57.60 m
0 -5.76 l
o
np
377.60 57.60 m
0 -5.76 l
o
/Font1 findfont 10 s
97.60 41.47 (0) .5 0 t
153.60 41.47 (200) .5 0 t
209.60 41.47 (400) .5 0 t
265.60 41.47 (600) .5 0 t
321.60 41.47 (800) .5 0 t
377.60 41.47 (1000) .5 0 t
np
86.40 66.13 m
0 203.01 l
o
np
86.40 66.13 m
-5.76 0 l
o
np
86.40 133.80 m
-5.76 0 l
o
np
86.40 201.47 m
-5.76 0 l
o
np
86.40 269.14 m
-5.76 0 l
o
79.49 62.54 (0.00) 1 0 t
79.49 130.21 (0.05) 1 0 t
79.49 197.88 (0.10) 1 0 t
79.49 265.55 (0.15) 1 0 t
np
86.40 57.60 m
302.40 0 l
0 230.40 l
-302.40 0 l
0 -230.40 l
o
0.00 0.00 432.00 576.00 cl
/Font1 findfont 10 s
0 0 0 srgb
237.60 13.82 (Time / ms \(after pulse\)) .5 0 t
49.54 172.80 (Absorbance A) .5 90 t
86.40 57.60 388.80 288.00 cl
/bg { 1 1 1 srgb } def
0 0 0 srgb
0.75 setlinewidth
[] 0 setdash
1 setlinecap
1 setlinejoin
10.00 setmiterlimit
100.96 256.99 0.65 c p3
101.24 236.71 0.65 c p3
101.52 232.30 0.65 c p3
101.80 236.71 0.65 c p3
102.08 227.01 0.65 c p3
102.36 221.59 0.65 c p3
102.64 235.61 0.65 c p3
102.92 225.92 0.65 c p3
103.20 229.19 0.65 c p3
103.48 215.15 0.65 c p3
103.76 229.19 0.65 c p3
104.04 215.15 0.65 c p3
104.32 218.36 0.65 c p3
104.60 211.96 0.65 c p3
104.88 218.36 0.65 c p3
105.16 209.84 0.65 c p3
105.44 216.22 0.65 c p3
105.72 216.22 0.65 c p3
106.00 202.65 0.65 c p3
106.28 207.73 0.65 c p3
106.56 200.57 0.65 c p3
106.84 199.53 0.65 c p3
107.12 202.65 0.65 c p3
107.40 206.67 0.65 c p3
107.68 190.25 0.65 c p3
107.96 197.45 0.65 c p3
108.24 195.39 0.65 c p3
108.52 186.17 0.65 c p3
108.80 184.14 0.65 c p3
109.08 183.13 0.65 c p3
109.36 180.10 0.65 c p3
109.64 188.20 0.65 c p3
109.92 185.15 0.65 c p3
110.20 184.14 0.65 c p3
110.48 176.09 0.65 c p3
110.76 173.27 0.65 c p3
111.04 176.09 0.65 c p3
111.32 174.27 0.65 c p3
111.60 169.31 0.65 c p3
111.88 173.27 0.65 c p3
112.16 174.27 0.65 c p3
112.44 167.34 0.65 c p3
112.72 161.46 0.65 c p3
113.00 167.34 0.65 c p3
113.28 161.46 0.65 c p3
113.56 158.55 0.65 c p3
113.84 170.30 0.65 c p3
114.12 166.36 0.65 c p3
114.40 164.40 0.65 c p3
114.68 167.34 0.65 c p3
114.96 169.31 0.65 c p3
115.24 160.49 0.65 c p3
115.52 161.46 0.65 c p3
115.80 157.58 0.65 c p3
116.08 149.89 0.65 c p3
116.36 149.89 0.65 c p3
116.64 149.09 0.65 c p3
116.92 146.24 0.65 c p3
117.20 149.89 0.65 c p3
117.48 149.09 0.65 c p3
117.76 138.69 0.65 c p3
118.04 140.57 0.65 c p3
118.32 138.69 0.65 c p3
118.60 138.69 0.65 c p3
118.88 146.24 0.65 c p3
119.16 143.40 0.65 c p3
119.44 145.29 0.65 c p3
119.72 143.40 0.65 c p3
120.00 136.82 0.65 c p3
120.28 141.51 0.65 c p3
120.56 134.96 0.65 c p3
120.84 134.96 0.65 c p3
121.12 131.24 0.65 c p3
121.40 132.17 0.65 c p3
121.68 131.24 0.65 c p3
121.96 129.39 0.65 c p3
122.24 133.10 0.65 c p3
122.52 133.10 0.65 c p3
122.80 124.80 0.65 c p3
123.08 124.80 0.65 c p3
123.36 134.96 0.65 c p3
123.64 127.55 0.65 c p3
123.92 129.39 0.65 c p3
124.20 135.89 0.65 c p3
124.48 126.63 0.65 c p3
124.76 131.24 0.65 c p3
125.04 128.47 0.65 c p3
125.32 124.04 0.65 c p3
125.60 128.47 0.65 c p3
125.88 124.80 0.65 c p3
126.16 119.49 0.65 c p3
126.44 119.49 0.65 c p3
126.72 121.30 0.65 c p3
127.00 117.68 0.65 c p3
127.28 113.17 0.65 c p3
127.56 111.38 0.65 c p3
127.84 115.87 0.65 c p3
128.12 113.17 0.65 c p3
128.40 113.17 0.65 c p3
128.68 121.30 0.65 c p3
128.96 122.21 0.65 c p3
129.24 119.49 0.65 c p3
129.52 119.49 0.65 c p3
129.80 114.07 0.65 c p3
130.08 116.77 0.65 c p3
130.36 120.39 0.65 c p3
130.64 112.27 0.65 c p3
130.92 111.38 0.65 c p3
131.20 114.07 0.65 c p3
131.48 109.59 0.65 c p3
131.76 103.38 0.65 c p3
132.04 109.59 0.65 c p3
132.32 109.59 0.65 c p3
132.60 109.59 0.65 c p3
132.88 105.15 0.65 c p3
133.16 104.26 0.65 c p3
133.44 109.59 0.65 c p3
133.72 111.38 0.65 c p3
134.00 110.48 0.65 c p3
134.28 109.59 0.65 c p3
134.56 108.70 0.65 c p3
134.84 106.04 0.65 c p3
135.12 102.50 0.65 c p3
135.40 96.51 0.65 c p3
135.68 96.51 0.65 c p3
135.96 96.51 0.65 c p3
136.24 102.50 0.65 c p3
136.52 99.13 0.65 c p3
136.80 97.38 0.65 c p3
137.08 96.51 0.65 c p3
137.36 97.38 0.65 c p3
137.64 98.26 0.65 c p3
137.92 100.01 0.65 c p3
138.20 100.74 0.65 c p3
138.48 95.64 0.65 c p3
138.76 103.38 0.65 c p3
139.04 102.50 0.65 c p3
139.32 99.13 0.65 c p3
139.60 102.50 0.65 c p3
139.88 97.38 0.65 c p3
140.16 93.90 0.65 c p3
140.44 94.77 0.65 c p3
140.72 96.51 0.65 c p3
141.00 93.90 0.65 c p3
141.28 93.90 0.65 c p3
141.56 91.30 0.65 c p3
141.84 93.90 0.65 c p3
142.12 92.16 0.65 c p3
142.40 90.43 0.65 c p3
142.68 90.43 0.65 c p3
142.96 88.71 0.65 c p3
143.24 87.85 0.65 c p3
143.52 99.13 0.65 c p3
143.80 95.64 0.65 c p3
144.08 95.64 0.65 c p3
144.36 92.16 0.65 c p3
144.64 94.77 0.65 c p3
144.92 94.77 0.65 c p3
145.20 89.57 0.65 c p3
145.48 85.28 0.65 c p3
145.76 93.03 0.65 c p3
146.04 88.71 0.65 c p3
146.32 89.57 0.65 c p3
146.60 86.99 0.65 c p3
146.88 82.72 0.65 c p3
147.16 86.99 0.65 c p3
147.44 82.72 0.65 c p3
147.72 90.43 0.65 c p3
148.00 86.99 0.65 c p3
148.28 86.99 0.65 c p3
148.56 93.03 0.65 c p3
148.84 94.77 0.65 c p3
149.12 86.99 0.65 c p3
149.40 96.51 0.65 c p3
149.68 85.28 0.65 c p3
149.96 82.72 0.65 c p3
150.24 85.28 0.65 c p3
150.52 83.57 0.65 c p3
150.80 85.28 0.65 c p3
151.08 85.28 0.65 c p3
151.36 85.28 0.65 c p3
151.64 82.72 0.65 c p3
151.92 85.28 0.65 c p3
152.20 87.85 0.65 c p3
152.48 85.28 0.65 c p3
152.76 92.16 0.65 c p3
153.04 86.99 0.65 c p3
153.32 93.90 0.65 c p3
153.60 85.28 0.65 c p3
153.88 85.28 0.65 c p3
154.16 85.28 0.65 c p3
154.44 81.01 0.65 c p3
154.72 79.32 0.65 c p3
155.00 83.57 0.65 c p3
155.28 78.47 0.65 c p3
155.56 81.01 0.65 c p3
155.84 83.57 0.65 c p3
156.12 79.32 0.65 c p3
156.40 79.32 0.65 c p3
156.68 83.57 0.65 c p3
156.96 82.72 0.65 c p3
157.24 78.47 0.65 c p3
157.52 84.42 0.65 c p3
157.80 81.86 0.65 c p3
158.08 80.16 0.65 c p3
158.36 85.28 0.65 c p3
158.64 84.42 0.65 c p3
158.92 79.32 0.65 c p3
159.20 79.32 0.65 c p3
159.48 82.72 0.65 c p3
159.76 83.57 0.65 c p3
160.04 76.92 0.65 c p3
160.32 78.47 0.65 c p3
160.60 81.86 0.65 c p3
160.88 73.56 0.65 c p3
161.16 79.32 0.65 c p3
161.44 81.86 0.65 c p3
161.72 81.86 0.65 c p3
162.00 84.42 0.65 c p3
162.28 81.86 0.65 c p3
162.56 86.13 0.65 c p3
162.84 81.86 0.65 c p3
163.12 83.57 0.65 c p3
163.40 80.16 0.65 c p3
163.68 73.56 0.65 c p3
163.96 81.01 0.65 c p3
164.24 83.57 0.65 c p3
164.52 78.47 0.65 c p3
164.80 78.47 0.65 c p3
165.08 76.08 0.65 c p3
165.36 75.24 0.65 c p3
165.64 76.92 0.65 c p3
165.92 80.16 0.65 c p3
166.20 81.86 0.65 c p3
166.48 77.62 0.65 c p3
166.76 82.72 0.65 c p3
167.04 81.01 0.65 c p3
167.32 84.42 0.65 c p3
167.60 83.57 0.65 c p3
167.88 82.72 0.65 c p3
168.16 84.42 0.65 c p3
168.44 81.01 0.65 c p3
168.72 81.01 0.65 c p3
169.00 81.86 0.65 c p3
169.28 81.86 0.65 c p3
169.56 74.40 0.65 c p3
169.84 77.62 0.65 c p3
170.12 73.56 0.65 c p3
170.40 79.32 0.65 c p3
170.68 75.24 0.65 c p3
170.96 74.40 0.65 c p3
171.24 79.32 0.65 c p3
171.52 79.32 0.65 c p3
171.80 85.28 0.65 c p3
172.08 80.16 0.65 c p3
172.36 78.47 0.65 c p3
172.64 89.57 0.65 c p3
172.92 88.71 0.65 c p3
173.20 87.85 0.65 c p3
173.48 79.32 0.65 c p3
173.76 82.72 0.65 c p3
174.04 82.72 0.65 c p3
174.32 80.16 0.65 c p3
174.60 75.24 0.65 c p3
174.88 77.62 0.65 c p3
175.16 78.47 0.65 c p3
175.44 74.40 0.65 c p3
175.72 73.56 0.65 c p3
176.00 82.72 0.65 c p3
176.28 79.32 0.65 c p3
176.56 80.16 0.65 c p3
176.84 84.42 0.65 c p3
177.12 79.32 0.65 c p3
177.40 81.01 0.65 c p3
177.68 83.57 0.65 c p3
177.96 83.57 0.65 c p3
178.24 87.85 0.65 c p3
178.52 81.86 0.65 c p3
178.80 81.86 0.65 c p3
179.08 81.86 0.65 c p3
179.36 74.40 0.65 c p3
179.64 76.08 0.65 c p3
179.92 74.40 0.65 c p3
180.20 78.47 0.65 c p3
180.48 77.62 0.65 c p3
180.76 73.56 0.65 c p3
181.04 74.40 0.65 c p3
181.32 77.62 0.65 c p3
181.60 71.88 0.65 c p3
181.88 74.40 0.65 c p3
182.16 85.28 0.65 c p3
182.44 83.57 0.65 c p3
182.72 81.86 0.65 c p3
183.00 83.57 0.65 c p3
183.28 80.16 0.65 c p3
183.56 81.86 0.65 c p3
183.84 77.62 0.65 c p3
184.12 83.57 0.65 c p3
184.40 78.47 0.65 c p3
184.68 78.47 0.65 c p3
184.96 83.57 0.65 c p3
185.24 74.40 0.65 c p3
185.52 75.24 0.65 c p3
185.80 77.62 0.65 c p3
186.08 76.92 0.65 c p3
186.36 83.57 0.65 c p3
186.64 77.62 0.65 c p3
186.92 77.62 0.65 c p3
187.20 82.72 0.65 c p3
187.48 80.16 0.65 c p3
187.76 78.47 0.65 c p3
188.04 86.99 0.65 c p3
188.32 83.57 0.65 c p3
188.60 77.62 0.65 c p3
188.88 79.32 0.65 c p3
189.16 80.16 0.65 c p3
189.44 79.32 0.65 c p3
189.72 77.62 0.65 c p3
190.00 79.32 0.65 c p3
190.28 81.86 0.65 c p3
190.56 81.01 0.65 c p3
190.84 82.72 0.65 c p3
191.12 76.92 0.65 c p3
191.40 81.86 0.65 c p3
191.68 77.62 0.65 c p3
191.96 84.42 0.65 c p3
192.24 87.85 0.65 c p3
192.52 83.57 0.65 c p3
192.80 80.16 0.65 c p3
193.08 83.57 0.65 c p3
193.36 80.16 0.65 c p3
193.64 82.72 0.65 c p3
193.92 77.62 0.65 c p3
194.20 78.47 0.65 c p3
194.48 80.16 0.65 c p3
194.76 81.01 0.65 c p3
195.04 79.32 0.65 c p3
195.32 83.57 0.65 c p3
195.60 81.01 0.65 c p3
195.88 80.16 0.65 c p3
196.16 79.32 0.65 c p3
196.44 76.08 0.65 c p3
196.72 86.13 0.65 c p3
197.00 81.01 0.65 c p3
197.28 81.01 0.65 c p3
197.56 82.72 0.65 c p3
197.84 81.01 0.65 c p3
198.12 81.86 0.65 c p3
198.40 77.62 0.65 c p3
198.68 81.86 0.65 c p3
216.00 201.60 367.20 247.68 cl
0 0 0 srgb
0.75 setlinewidth
[] 0 setdash
1 setlinecap
1 setlinejoin
10.00 setmiterlimit
221.60 237.05 0.43 c p1
222.00 216.68 0.43 c p1
222.40 214.47 0.43 c p1
222.80 222.32 0.43 c p1
223.20 213.96 0.43 c p1
223.61 210.46 0.43 c p1
224.01 229.20 0.43 c p1
224.41 220.74 0.43 c p1
224.81 227.09 0.43 c p1
225.21 213.55 0.43 c p1
225.61 232.17 0.43 c p1
226.01 218.55 0.43 c p1
226.41 224.68 0.43 c p1
226.81 219.75 0.43 c p1
227.22 229.46 0.43 c p1
227.62 222.03 0.43 c p1
228.02 231.65 0.43 c p1
228.42 233.92 0.43 c p1
228.82 220.61 0.43 c p1
229.22 228.63 0.43 c p1
229.62 222.59 0.43 c p1
230.02 223.54 0.43 c p1
230.43 229.23 0.43 c p1
230.83 235.91 0.43 c p1
231.23 219.12 0.43 c p1
231.63 229.40 0.43 c p1
232.03 229.02 0.43 c p1
232.43 220.41 0.43 c p1
232.83 220.01 0.43 c p1
233.23 220.75 0.43 c p1
233.63 219.15 0.43 c p1
234.04 230.28 0.43 c p1
234.44 228.59 0.43 c p1
234.84 229.22 0.43 c p1
235.24 221.76 0.43 c p1
235.64 220.26 0.43 c p1
236.04 225.20 0.43 c p1
236.44 224.79 0.43 c p1
236.84 220.77 0.43 c p1
237.24 226.95 0.43 c p1
237.65 229.70 0.43 c p1
238.05 223.34 0.43 c p1
238.45 218.17 0.43 c p1
238.85 226.44 0.43 c p1
239.25 221.23 0.43 c p1
239.65 219.38 0.43 c p1
240.05 234.32 0.43 c p1
240.45 231.25 0.43 c p1
240.86 230.43 0.43 c p1
241.26 235.21 0.43 c p1
241.66 238.86 0.43 c p1
242.06 230.12 0.43 c p1
242.46 232.58 0.43 c p1
242.86 229.45 0.43 c p1
243.26 221.94 0.43 c p1
243.66 223.23 0.43 c p1
244.06 223.59 0.43 c p1
244.47 221.56 0.43 c p1
244.87 226.98 0.43 c p1
245.27 227.28 0.43 c p1
245.67 216.55 0.43 c p1
246.07 219.88 0.43 c p1
246.47 218.89 0.43 c p1
246.87 220.03 0.43 c p1
247.27 229.80 0.43 c p1
247.67 227.66 0.43 c p1
248.08 230.92 0.43 c p1
248.48 229.83 0.43 c p1
248.88 223.35 0.43 c p1
249.28 229.77 0.43 c p1
249.68 223.28 0.43 c p1
250.08 224.30 0.43 c p1
250.48 221.04 0.43 c p1
250.88 223.08 0.43 c p1
251.28 222.99 0.43 c p1
251.69 221.83 0.43 c p1
252.09 227.01 0.43 c p1
252.49 227.94 0.43 c p1
252.89 219.34 0.43 c p1
253.29 220.24 0.43 c p1
253.69 232.77 0.43 c p1
254.09 225.15 0.43 c p1
254.49 228.13 0.43 c p1
254.90 236.42 0.43 c p1
255.30 226.64 0.43 c p1
255.70 232.75 0.43 c p1
256.10 230.38 0.43 c p1
256.50 226.10 0.43 c p1
256.90 231.97 0.43 c p1
257.30 228.53 0.43 c p1
257.70 223.20 0.43 c p1
258.10 223.96 0.43 c p1
258.51 226.78 0.43 c p1
258.91 223.35 0.43 c p1
259.31 218.91 0.43 c p1
259.71 217.56 0.43 c p1
260.11 223.40 0.43 c p1
260.51 221.00 0.43 c p1
260.91 221.68 0.43 c p1
261.31 231.67 0.43 c p1
261.71 233.37 0.43 c p1
262.12 230.89 0.43 c p1
262.52 231.53 0.43 c p1
262.92 225.95 0.43 c p1
263.32 229.66 0.43 c p1
263.72 234.43 0.43 c p1
264.12 225.72 0.43 c p1
264.52 225.28 0.43 c p1
264.92 228.95 0.43 c p1
265.32 224.40 0.43 c p1
265.73 217.84 0.43 c p1
266.13 225.52 0.43 c p1
266.53 226.07 0.43 c p1
266.93 226.61 0.43 c p1
267.33 222.05 0.43 c p1
267.73 221.56 0.43 c p1
268.13 228.19 0.43 c p1
268.53 230.74 0.43 c p1
268.94 230.22 0.43 c p1
269.34 229.69 0.43 c p1
269.74 229.16 0.43 c p1
270.14 226.58 0.43 c p1
270.54 223.00 0.43 c p1
270.94 216.60 0.43 c p1
271.34 217.06 0.43 c p1
271.74 217.51 0.43 c p1
272.14 224.83 0.43 c p1
272.55 221.41 0.43 c p1
272.95 219.83 0.43 c p1
273.35 219.26 0.43 c p1
273.75 220.68 0.43 c p1
274.15 222.10 0.43 c p1
274.55 224.51 0.43 c p1
274.95 225.75 0.43 c p1
275.35 220.30 0.43 c p1
275.75 229.57 0.43 c p1
276.16 228.94 0.43 c p1
276.56 225.46 0.43 c p1
276.96 229.69 0.43 c p1
277.36 224.19 0.43 c p1
277.76 220.56 0.43 c p1
278.16 221.91 0.43 c p1
278.56 224.26 0.43 c p1
278.96 221.61 0.43 c p1
279.37 221.95 0.43 c p1
279.77 219.31 0.43 c p1
280.17 222.62 0.43 c p1
280.57 220.96 0.43 c p1
280.97 219.30 0.43 c p1
281.37 219.61 0.43 c p1
281.77 217.95 0.43 c p1
282.17 217.27 0.43 c p1
282.57 230.50 0.43 c p1
282.98 226.79 0.43 c p1
283.38 227.09 0.43 c p1
283.78 223.39 0.43 c p1
284.18 226.67 0.43 c p1
284.58 226.95 0.43 c p1
284.98 221.27 0.43 c p1
285.38 216.61 0.43 c p1
285.78 225.77 0.43 c p1
286.18 221.08 0.43 c p1
286.59 222.33 0.43 c p1
286.99 219.63 0.43 c p1
287.39 214.98 0.43 c p1
287.79 220.13 0.43 c p1
288.19 215.48 0.43 c p1
288.59 224.57 0.43 c p1
288.99 220.86 0.43 c p1
289.39 221.09 0.43 c p1
289.79 228.24 0.43 c p1
290.20 230.47 0.43 c p1
290.60 221.78 0.43 c p1
291.00 232.91 0.43 c p1
291.40 220.25 0.43 c p1
291.80 217.53 0.43 c p1
292.20 220.67 0.43 c p1
292.60 218.92 0.43 c p1
293.00 221.09 0.43 c p1
293.41 221.29 0.43 c p1
293.81 221.49 0.43 c p1
294.21 218.75 0.43 c p1
294.61 221.88 0.43 c p1
295.01 225.02 0.43 c p1
295.41 222.26 0.43 c p1
295.81 230.34 0.43 c p1
296.21 224.59 0.43 c p1
296.61 232.69 0.43 c p1
297.02 222.98 0.43 c p1
297.42 223.15 0.43 c p1
297.82 223.32 0.43 c p1
298.22 218.61 0.43 c p1
298.62 216.83 0.43 c p1
299.02 221.86 0.43 c p1
299.42 216.18 0.43 c p1
299.82 219.26 0.43 c p1
300.22 222.34 0.43 c p1
300.63 217.62 0.43 c p1
301.03 217.78 0.43 c p1
301.43 222.80 0.43 c p1
301.83 221.97 0.43 c p1
302.23 217.25 0.43 c p1
302.63 224.21 0.43 c p1
303.03 221.42 0.43 c p1
303.43 219.61 0.43 c p1
303.83 225.61 0.43 c p1
304.24 224.77 0.43 c p1
304.64 219.05 0.43 c p1
305.04 219.18 0.43 c p1
305.44 223.20 0.43 c p1
305.84 224.31 0.43 c p1
306.24 216.81 0.43 c p1
306.64 218.71 0.43 c p1
307.04 222.73 0.43 c p1
307.45 213.32 0.43 c p1
307.85 220.04 0.43 c p1
308.25 223.08 0.43 c p1
308.65 223.19 0.43 c p1
309.05 226.24 0.43 c p1
309.45 223.42 0.43 c p1
309.85 228.42 0.43 c p1
310.25 223.64 0.43 c p1
310.65 225.69 0.43 c p1
311.06 221.90 0.43 c p1
311.46 214.42 0.43 c p1
311.86 223.08 0.43 c p1
312.26 226.10 0.43 c p1
312.66 220.36 0.43 c p1
313.06 220.46 0.43 c p1
313.46 217.81 0.43 c p1
313.86 216.94 0.43 c p1
314.26 218.96 0.43 c p1
314.67 222.77 0.43 c p1
315.07 224.81 0.43 c p1
315.47 220.04 0.43 c p1
315.87 225.96 0.43 c p1
316.27 224.10 0.43 c p1
316.67 228.09 0.43 c p1
317.07 227.20 0.43 c p1
317.47 226.30 0.43 c p1
317.88 228.34 0.43 c p1
318.28 224.51 0.43 c p1
318.68 224.59 0.43 c p1
319.08 225.64 0.43 c p1
319.48 225.72 0.43 c p1
319.88 217.24 0.43 c p1
320.28 221.01 0.43 c p1
320.68 216.42 0.43 c p1
321.08 223.10 0.43 c p1
321.49 218.49 0.43 c p1
321.89 217.60 0.43 c p1
322.29 223.31 0.43 c p1
322.69 223.37 0.43 c p1
323.09 230.27 0.43 c p1
323.49 224.48 0.43 c p1
323.89 222.60 0.43 c p1
324.29 235.39 0.43 c p1
324.69 234.47 0.43 c p1
325.10 233.54 0.43 c p1
325.50 223.82 0.43 c p1
325.90 227.78 0.43 c p1
326.30 227.84 0.43 c p1
326.70 224.97 0.43 c p1
327.10 219.38 0.43 c p1
327.50 222.17 0.43 c p1
327.90 223.20 0.43 c p1
328.30 218.58 0.43 c p1
328.71 217.67 0.43 c p1
329.11 228.23 0.43 c p1
329.51 224.39 0.43 c p1
329.91 225.41 0.43 c p1
330.31 230.34 0.43 c p1
330.71 224.54 0.43 c p1
331.11 226.53 0.43 c p1
331.51 229.51 0.43 c p1
331.92 229.56 0.43 c p1
332.32 234.52 0.43 c p1
332.72 227.70 0.43 c p1
333.12 227.75 0.43 c p1
333.52 227.79 0.43 c p1
333.92 219.28 0.43 c p1
334.32 221.25 0.43 c p1
334.72 219.36 0.43 c p1
335.12 224.08 0.43 c p1
335.53 223.15 0.43 c p1
335.93 218.53 0.43 c p1
336.33 219.53 0.43 c p1
336.73 223.27 0.43 c p1
337.13 216.73 0.43 c p1
337.53 219.65 0.43 c p1
337.93 232.16 0.43 c p1
338.33 230.24 0.43 c p1
338.73 228.32 0.43 c p1
339.14 230.31 0.43 c p1
339.54 226.45 0.43 c p1
339.94 228.43 0.43 c p1
340.34 223.61 0.43 c p1
340.74 230.46 0.43 c p1
341.14 224.65 0.43 c p1
341.54 224.68 0.43 c p1
341.94 230.56 0.43 c p1
342.34 220.08 0.43 c p1
342.75 221.07 0.43 c p1
343.15 223.84 0.43 c p1
343.55 223.06 0.43 c p1
343.95 230.72 0.43 c p1
344.35 223.93 0.43 c p1
344.75 223.96 0.43 c p1
345.15 229.83 0.43 c p1
345.55 226.93 0.43 c p1
345.96 225.02 0.43 c p1
346.36 234.82 0.43 c p1
346.76 230.92 0.43 c p1
347.16 224.13 0.43 c p1
347.56 226.10 0.43 c p1
347.96 227.10 0.43 c p1
348.36 226.15 0.43 c p1
348.76 224.24 0.43 c p1
349.16 226.20 0.43 c p1
349.57 229.15 0.43 c p1
349.97 228.20 0.43 c p1
350.37 230.17 0.43 c p1
350.77 223.55 0.43 c p1
351.17 229.25 0.43 c p1
351.57 224.41 0.43 c p1
351.97 232.22 0.43 c p1
352.37 236.18 0.43 c p1
352.77 231.29 0.43 c p1
353.18 227.41 0.43 c p1
353.58 231.33 0.43 c p1
353.98 227.45 0.43 c p1
354.38 230.40 0.43 c p1
354.78 224.58 0.43 c p1
355.18 225.57 0.43 c p1
355.58 227.53 0.43 c p1
355.98 228.53 0.43 c p1
356.39 226.60 0.43 c p1
356.79 231.49 0.43 c p1
357.19 228.58 0.43 c p1
357.59 227.63 0.43 c p1
357.99 226.68 0.43 c p1
358.39 222.98 0.43 c p1
358.79 234.53 0.43 c p1
359.19 228.67 0.43 c p1
359.59 228.69 0.43 c p1
360.00 230.66 0.43 c p1
360.40 228.72 0.43 c p1
360.80 229.72 0.43 c p1
361.20 224.87 0.43 c p1
361.60 229.75 0.43 c p1
0.00 0.00 432.00 576.00 cl
0 0 0 srgb
0.75 setlinewidth
[] 0 setdash
1 setlinecap
1 setlinejoin
10.00 setmiterlimit
np
216.79 201.60 m
140.40 0 l
o
np
216.79 201.60 m
0 -5.76 l
o
np
236.84 201.60 m
0 -5.76 l
o
np
256.90 201.60 m
0 -5.76 l
o
np
276.96 201.60 m
0 -5.76 l
o
np
297.02 201.60 m
0 -5.76 l
o
np
317.07 201.60 m
0 -5.76 l
o
np
337.13 201.60 m
0 -5.76 l
o
np
357.19 201.60 m
0 -5.76 l
o
/Font1 findfont 6 s
216.79 185.47 (0) .5 0 t
236.84 185.47 (50) .5 0 t
256.90 185.47 (100) .5 0 t
276.96 185.47 (150) .5 0 t
297.02 185.47 (200) .5 0 t
317.07 185.47 (250) .5 0 t
337.13 185.47 (300) .5 0 t
357.19 185.47 (350) .5 0 t
np
216.00 209.12 m
0 31.04 l
o
np
216.00 209.12 m
-5.76 0 l
o
np
216.00 216.88 m
-5.76 0 l
o
np
216.00 224.64 m
-5.76 0 l
o
np
216.00 232.40 m
-5.76 0 l
o
np
216.00 240.16 m
-5.76 0 l
o
209.09 206.97 (-0.010) 1 0 t
209.09 214.73 (-0.005) 1 0 t
209.09 222.49 (0.000) 1 0 t
209.09 230.24 (0.005) 1 0 t
209.09 238.00 (0.010) 1 0 t
np
216.00 201.60 m
151.20 0 l
0 46.08 l
-151.20 0 l
0 -46.08 l
o
0.00 0.00 432.00 576.00 cl
/Font1 findfont 9 s
0 0 0 srgb
291.60 262.88 (Residuals) .5 0 t
59.04 73.44 401.76 516.96 cl
ep
%%Trailer
%%Pages: 1
%%EOF
