%!PS-Adobe-3.0 EPSF-3.0
%%DocumentNeededResources: font Helvetica
%%+ font Helvetica-Bold
%%+ font Helvetica-Oblique
%%+ font Helvetica-BoldOblique
%%+ font Symbol
%%Title: R Graphics Output
%%Creator: R Software
%%Pages: (atend)
%%BoundingBox: 0 0 432 576
%%EndComments
%%BeginProlog
/bp  { gs sRGB gs } def
% begin .ps.prolog
/gs  { gsave } bind def
/gr  { grestore } bind def
/ep  { showpage gr gr } bind def
/m   { moveto } bind def
/l  { rlineto } bind def
/np  { newpath } bind def
/cp  { closepath } bind def
/f   { fill } bind def
/o   { stroke } bind def
/c   { newpath 0 360 arc } bind def
/r   { 4 2 roll moveto 1 copy 3 -1 roll exch 0 exch rlineto 0 rlineto -1 mul 0 exch rlineto closepath } bind def
/p1  { stroke } bind def
/p2  { gsave bg fill grestore newpath } bind def
/p3  { gsave bg fill grestore stroke } bind def
/p6  { gsave bg eofill grestore newpath } bind def
/p7  { gsave bg eofill grestore stroke } bind def
/t   { 5 -2 roll moveto gsave rotate
       1 index stringwidth pop
       mul neg 0 rmoveto show grestore } bind def
/ta  { 4 -2 roll moveto gsave rotate show } bind def
/tb  { 2 -1 roll 0 rmoveto show } bind def
/cl  { grestore gsave newpath 3 index 3 index moveto 1 index
       4 -1 roll lineto  exch 1 index lineto lineto
       closepath clip newpath } bind def
/rgb { setrgbcolor } bind def
/s   { scalefont setfont } bind def
% end   .ps.prolog
/sRGB { [ /CIEBasedABC
          << /DecodeLMN
               [ { dup 0.03928 le
                        {12.92321 div}
                        {0.055 add 1.055 div 2.4 exp }
                     ifelse
                 } bind dup dup
               ]
             /MatrixLMN [0.412457 0.212673 0.019334
                         0.357576 0.715152 0.119192
                         0.180437 0.072175 0.950301]
             /WhitePoint [0.9505 1.0 1.0890]
           >>
         ] setcolorspace } bind def
/srgb { setcolor } bind def
% begin encoding
/WinAnsiEncoding [
 /.notdef /.notdef /.notdef /.notdef /.notdef /.notdef /.notdef /.notdef
 /.notdef /.notdef /.notdef /.notdef /.notdef /.notdef /.notdef /.notdef
 /.notdef /.notdef /.notdef /.notdef /.notdef /.notdef /.notdef /.notdef
 /.notdef /.notdef /.notdef /.notdef /.notdef /.notdef /.notdef /.notdef
 /space /exclam /quotedbl /numbersign /dollar /percent /ampersand /quoteright
 /parenleft /parenright /asterisk /plus /comma /minus /period /slash
 /zero /one /two /three /four /five /six /seven
 /eight /nine /colon /semicolon /less /equal /greater /question
 /at /A /B /C /D /E /F /G
 /H /I /J /K /L /M /N /O
 /P /Q /R /S /T /U /V /W
 /X /Y /Z /bracketleft /backslash /bracketright /asciicircum /underscore
 /grave /a /b /c /d /e /f /g
 /h /i /j /k /l /m /n /o
 /p /q /r /s /t /u /v /w
 /x /y /z /braceleft /bar /braceright /asciitilde /.notdef
 /Euro /.notdef /quotesinglbase /florin /quotedblbase /ellipsis /dagger /daggerdbl
 /circumflex /perthousand /Scaron /guilsinglleft /OE /.notdef /Zcaron /.notdef
 /.notdef /quoteleft /quoteright /quotedblleft /quotedblright /bullet /endash /emdash
 /tilde /trademark /scaron /guilsinglright /oe /.notdef /zcaron /Ydieresis
 /space /exclamdown /cent /sterling /currency /yen /brokenbar /section
 /dieresis /copyright /ordfeminine /guillemotleft /logicalnot /hyphen /registered /macron
 /degree /plusminus /twosuperior /threesuperior /acute /mu /paragraph /periodcentered
 /cedilla /onesuperior /ordmasculine /guillemotright /onequarter /onehalf /threequarters /questiondown
 /Agrave /Aacute /Acircumflex /Atilde /Adieresis /Aring /AE /Ccedilla
 /Egrave /Eacute /Ecircumflex /Edieresis /Igrave /Iacute /Icircumflex /Idieresis
 /Eth /Ntilde /Ograve /Oacute /Ocircumflex /Otilde /Odieresis /multiply
 /Oslash /Ugrave /Uacute /Ucircumflex /Udieresis /Yacute /Thorn /germandbls
 /agrave /aacute /acircumflex /atilde /adieresis /aring /ae /ccedilla
 /egrave /eacute /ecircumflex /edieresis /igrave /iacute /icircumflex /idieresis
 /eth /ntilde /ograve /oacute /ocircumflex /otilde /odieresis /divide
 /oslash /ugrave /uacute /ucircumflex /udieresis /yacute /thorn /ydieresis
]
 def
% end encoding
%%IncludeResource: font Helvetica
/Helvetica findfont
dup length dict begin
  {1 index /FID ne {def} {pop pop} ifelse} forall
  /Encoding WinAnsiEncoding def
  currentdict
  end
/Font1 exch definefont pop
%%IncludeResource: font Helvetica-Bold
/Helvetica-Bold findfont
dup length dict begin
  {1 index /FID ne {def} {pop pop} ifelse} forall
  /Encoding WinAnsiEncoding def
  currentdict
  end
/Font2 exch definefont pop
%%IncludeResource: font Helvetica-Oblique
/Helvetica-Oblique findfont
dup length dict begin
  {1 index /FID ne {def} {pop pop} ifelse} forall
  /Encoding WinAnsiEncoding def
  currentdict
  end
/Font3 exch definefont pop
%%IncludeResource: font Helvetica-BoldOblique
/Helvetica-BoldOblique findfont
dup length dict begin
  {1 index /FID ne {def} {pop pop} ifelse} forall
  /Encoding WinAnsiEncoding def
  currentdict
  end
/Font4 exch definefont pop
%%IncludeResource: font Symbol
/Symbol findfont
dup length dict begin
  {1 index /FID ne {def} {pop pop} ifelse} forall
  currentdict
  end
/Font5 exch definefont pop
%%EndProlog
%%Page: 1 1
bp
/bg { 1 1 1 srgb } def
0.00 0.00 432.00 576.00 r p2
0.00 0.00 432.00 576.00 cl
0.00 0.00 432.00 576.00 cl
0.00 0.00 432.00 576.00 cl
/Font1 findfont 12 s
0 0 0 srgb
48.00 508.72 (PCP-ETH) 0 0 t
48.00 494.89 (Flash light photolysis) 0 0 t
/Font1 findfont 9 s
48.00 457.54 (File: T) 0 ta
-1.080 (emper) tb
-0.090 (ature_dependence_6_MSLM.dat) tb gr
48.00 334.87 (T) 0 ta
-1.080 (ue Mar 08 17:17:35 2022) tb gr
48.00 430.87 (Fit function:  a + b * e) 0 ta
-0.270 (xp\(-c * t\)) tb gr
48.00 420.50 (t-Inter) 0 ta
0.270 (v) tb
-0.225 (all: 13.500 ... 847.500 ms) tb gr
48.00 410.14 (P) 0 ta
-0.360 (ar) tb
-0.090 (ameters \(Standard de) tb
-0.270 (viation\):) tb gr
48.00 399.77 (  a = 0.00832 \(0.00022\)) 0 0 t
48.00 389.40 (  b = 0.13525 \(0.00056\)) 0 0 t
48.00 379.03 (  c = 5.750e+00 \(4.889e-02\) s^-1) 0 0 t
48.00 368.66 (  tau = 1.739e-01 \(1.479e-03\) s) 0 0 t
216.00 345.60 388.80 518.40 cl
0 0 0 srgb
0.75 setlinewidth
[] 0 setdash
1 setlinecap
1 setlinejoin
10.00 setmiterlimit
np
222.40 510.12 m
0.15 0.85 l
0.14 -0.85 l
0.15 0.64 l
0.14 -1.06 l
0.15 -0.64 l
0.14 1.49 l
0.15 -1.28 l
0.14 0.64 l
0.15 -1.06 l
0.15 0.85 l
0.14 2.30 l
0.15 -1.66 l
0.14 0.21 l
0.15 -0.64 l
0.14 1.28 l
0.15 -0.85 l
0.14 -0.64 l
0.15 0.64 l
0.15 -0.85 l
0.14 1.27 l
0.15 -1.27 l
0.14 0.85 l
0.15 -1.28 l
0.14 1.06 l
0.15 0.43 l
0.15 -0.85 l
0.14 0 l
0.15 0 l
0.14 1.06 l
0.15 -0.64 l
0.14 0.22 l
0.15 -0.85 l
0.14 0.63 l
0.15 0.43 l
0.15 -2.34 l
0.14 1.49 l
0.15 0.85 l
0.14 -0.21 l
0.15 -0.64 l
0.14 0.85 l
0.15 -0.85 l
0.14 -0.21 l
0.15 0.63 l
0.15 -0.85 l
0.14 0.22 l
0.15 0.42 l
0.14 -0.42 l
0.15 -0.85 l
0.14 1.70 l
0.15 -1.07 l
0.14 0.43 l
0.15 0.64 l
0.15 0.63 l
0.14 -0.63 l
0.15 -0.22 l
0.14 -0.63 l
0.15 1.48 l
0.14 -1.70 l
0.15 1.70 l
0.15 -0.85 l
0.14 0.64 l
0.15 0.60 l
0.14 -1.87 l
0.15 1.27 l
0.14 -2.33 l
0.15 2.12 l
0.14 0.81 l
0.15 -1.02 l
0.15 0.42 l
0.14 -1.06 l
0.15 0.42 l
0.14 1.24 l
0.15 -1.24 l
0.14 0.22 l
0.15 -0.85 l
0.14 0.85 l
0.15 -0.43 l
0.15 0.64 l
0.14 -0.85 l
0.15 0.85 l
0.14 0 l
0.15 -0.21 l
0.14 0.42 l
0.15 0.43 l
0.14 -1.49 l
0.15 -1.27 l
0.15 3.15 l
0.14 -1.88 l
0.15 0.64 l
0.14 1.02 l
0.15 -1.02 l
0.14 -0.43 l
0.15 0.64 l
0.15 -0.85 l
0.14 -1.91 l
0.15 1.91 l
0.14 0.21 l
0.15 0.85 l
0.14 -0.64 l
236.96 474.44 lineto
0.14 -11.63 l
0.15 1.72 l
0.15 -1.27 l
0.14 1.91 l
0.15 2.09 l
0.14 -1.07 l
0.15 0.85 l
0.14 2.34 l
0.15 -1.49 l
0.14 0.43 l
0.15 -0.43 l
0.15 1.49 l
0.14 2.30 l
0.15 -2.30 l
0.14 0.21 l
0.15 -0.85 l
0.14 2.34 l
0.15 1.24 l
0.14 1.70 l
0.15 -2.13 l
0.15 -1.02 l
0.14 1.45 l
0.15 0.21 l
0.14 1.06 l
0.15 -1.70 l
0.14 1.70 l
0.15 -1.06 l
0.15 1.06 l
0.14 -0.21 l
0.15 0.64 l
0.14 1.06 l
0.15 -1.27 l
0.14 0.63 l
0.15 1.70 l
0.14 1.24 l
0.15 -2.09 l
0.15 2.30 l
0.14 -2.51 l
0.15 1.70 l
0.14 1.24 l
0.15 -0.43 l
0.14 0.22 l
0.15 -1.24 l
0.14 -0.22 l
0.15 0.82 l
0.15 2.97 l
0.14 -2.33 l
0.15 0.63 l
0.14 0.43 l
0.15 -1.28 l
0.14 1.91 l
0.15 0 l
0.14 -0.63 l
0.15 0.21 l
0.15 0 l
0.14 0.85 l
0.15 -0.64 l
0.14 0.43 l
0.15 -0.22 l
0.14 1.28 l
0.15 -0.85 l
0.15 1.27 l
0.14 -0.63 l
0.15 1.91 l
0.14 -0.21 l
0.15 -0.85 l
0.14 1.87 l
0.15 -2.72 l
0.14 1.91 l
0.15 0.21 l
0.15 0.60 l
0.14 1.28 l
0.15 -0.22 l
0.14 -0.21 l
0.15 0.64 l
0.14 -0.21 l
0.15 -1.07 l
0.14 1.70 l
0.15 -1.06 l
0.15 1.91 l
0.14 -1.27 l
0.15 0.64 l
0.14 0 l
0.15 0.63 l
0.14 -0.63 l
0.15 -0.43 l
0.14 1.49 l
0.15 -0.64 l
0.15 1.28 l
0.14 -1.28 l
0.15 0.21 l
0.14 0.22 l
0.15 0.85 l
0.14 0.84 l
0.15 0.22 l
0.15 0 l
0.14 -0.22 l
0.15 1.24 l
0.14 -1.02 l
251.52 489.20 lineto
0.14 0 l
0.15 0.64 l
0.14 -0.21 l
0.15 -0.64 l
0.15 -0.42 l
0.14 -0.61 l
0.15 1.67 l
0.14 -1.24 l
0.15 0.60 l
0.14 0.21 l
0.15 0.64 l
0.14 0.21 l
0.15 0 l
0.15 0.85 l
0.14 -1.48 l
0.15 1.27 l
0.14 0.85 l
0.15 0 l
0.14 -0.85 l
0.15 -0.21 l
0.14 0.85 l
0.15 0 l
0.15 1.27 l
0.14 -1.49 l
0.15 1.70 l
0.14 -1.06 l
0.15 0.21 l
0.14 -0.21 l
0.15 0.64 l
0.14 1.06 l
0.15 -1.27 l
0.15 1.27 l
0.14 -0.21 l
0.15 0.85 l
0.14 -3.19 l
0.15 3.19 l
0.14 -1.28 l
0.15 0.85 l
0.15 0.43 l
0.14 -2.13 l
0.15 2.94 l
0.14 -1.45 l
0.15 1.03 l
0.14 -1.88 l
0.15 2.73 l
0.14 -1.45 l
0.15 0 l
0.15 -0.43 l
0.14 0.21 l
0.15 1.24 l
0.14 -1.66 l
0.15 1.88 l
0.14 -0.64 l
0.15 1.27 l
0.14 -0.63 l
0.15 1.48 l
0.15 -2.12 l
0.14 0 l
0.15 1.06 l
0.14 -0.64 l
0.15 1.91 l
0.14 -1.69 l
0.15 1.48 l
0.14 -1.27 l
0.15 1.27 l
0.15 -0.21 l
0.14 -0.64 l
0.15 0.85 l
0.14 -1.70 l
0.15 0.64 l
0.14 0.43 l
0.15 1.48 l
0.15 -0.64 l
0.14 -1.48 l
0.15 1.48 l
0.14 -1.69 l
0.15 1.69 l
0.14 0.64 l
0.15 0.43 l
0.14 -1.70 l
0.15 1.91 l
0.15 -0.85 l
0.14 -0.21 l
0.15 0.63 l
0.14 -2.12 l
0.15 2.12 l
0.14 -0.21 l
0.15 0.85 l
0.14 -2.55 l
0.15 2.98 l
0.15 -1.49 l
0.14 2.12 l
0.15 -0.42 l
0.14 -1.91 l
0.15 1.27 l
0.14 -2.33 l
0.15 3.39 l
0.14 -1.27 l
0.15 0.42 l
266.08 498.09 lineto
0.14 1.70 l
0.15 -1.28 l
0.14 -1.70 l
0.15 3.15 l
0.14 -1.23 l
0.15 0.21 l
0.15 -0.64 l
0.14 1.28 l
0.15 -0.85 l
0.14 0.85 l
0.15 -0.22 l
0.14 -0.63 l
0.15 1.45 l
0.14 -1.24 l
0.15 1.02 l
0.15 -0.81 l
0.14 0.81 l
0.15 -1.02 l
0.14 -0.21 l
0.15 1.06 l
0.14 1.24 l
0.15 -0.64 l
0.14 -0.43 l
0.15 0.85 l
0.15 0 l
0.14 -0.21 l
0.15 0 l
0.14 -0.81 l
0.15 1.24 l
0.14 0.21 l
0.15 0.21 l
0.14 -1.06 l
0.15 0.85 l
0.15 -0.85 l
0.14 0.21 l
0.15 2.13 l
0.14 -1.49 l
0.15 -1.28 l
0.14 0.64 l
0.15 1.91 l
0.15 -1.48 l
0.14 0.63 l
0.15 -0.63 l
0.14 -0.43 l
0.15 1.70 l
0.14 -0.85 l
0.15 1.49 l
0.14 -1.06 l
0.15 0.85 l
0.15 -2.13 l
0.14 2.34 l
0.15 -1.28 l
0.14 0.85 l
0.15 0.22 l
0.14 -1.28 l
0.15 1.70 l
0.14 -1.06 l
0.15 0.42 l
0.15 -0.85 l
0.14 0.85 l
0.15 -0.85 l
0.14 1.70 l
0.15 -2.12 l
0.14 1.91 l
0.15 -2.34 l
0.14 2.34 l
0.15 0.43 l
0.15 -1.92 l
0.14 1.92 l
0.15 -0.22 l
0.14 0.22 l
0.15 -1.07 l
0.14 0.64 l
0.15 -0.42 l
0.15 -0.22 l
0.14 0 l
0.15 -0.85 l
0.14 1.70 l
0.15 -2.55 l
0.14 3.61 l
0.15 -1.69 l
0.14 1.06 l
0.15 1.06 l
0.15 -2.12 l
0.14 0.21 l
0.15 0.42 l
0.14 0.22 l
0.15 -1.28 l
0.14 1.06 l
0.15 0.43 l
0.14 -0.21 l
0.15 0.42 l
0.15 0 l
0.14 -0.21 l
0.15 -1.28 l
0.14 0.43 l
0.15 -0.43 l
0.14 0.85 l
0.15 -0.21 l
280.63 504.42 lineto
0.15 -0.21 l
0.15 -1.48 l
0.14 1.27 l
0.15 -1.06 l
0.14 0.42 l
0.15 -1.06 l
0.14 1.70 l
0.15 -1.06 l
0.15 -0.43 l
0.14 0.85 l
0.15 0.22 l
0.14 -0.64 l
0.15 -0.21 l
0.14 1.69 l
0.15 -1.69 l
0.14 2.12 l
0.15 -1.91 l
0.15 1.91 l
0.14 -1.49 l
0.15 1.49 l
0.14 -1.49 l
0.15 -0.21 l
0.14 2.12 l
0.15 -1.27 l
0.14 0.85 l
0.15 -2.12 l
0.15 2.12 l
0.14 -0.21 l
0.15 -0.43 l
0.14 -0.42 l
0.15 0.21 l
0.14 0.85 l
0.15 -2.34 l
0.14 3.15 l
0.15 -2.51 l
0.15 2.51 l
0.14 -2.08 l
0.15 0.63 l
0.14 0.43 l
0.15 -0.64 l
0.14 -0.21 l
0.15 -0.21 l
0.14 1.48 l
0.15 -0.64 l
0.15 1.46 l
0.14 -1.24 l
0.15 0.63 l
0.14 0.22 l
0.15 -1.49 l
0.14 1.06 l
0.15 -0.64 l
0.15 1.88 l
0.14 -2.09 l
0.15 1.88 l
0.14 -1.24 l
0.15 1.03 l
0.14 -0.82 l
0.15 -0.64 l
0.14 0.43 l
0.15 -0.43 l
0.15 1.67 l
0.14 -2.30 l
0.15 1.70 l
0.14 -0.64 l
0.15 1.24 l
0.14 -1.24 l
0.15 0.64 l
0.14 1.24 l
0.15 -2.09 l
0.15 1.24 l
0.14 0.42 l
0.15 -1.03 l
0.14 -0.42 l
0.15 -0.43 l
0.14 0.22 l
0.15 1.24 l
0.14 -0.82 l
0.15 0 l
0.15 1.88 l
0.14 -2.94 l
0.15 4.00 l
0.14 -4.00 l
0.15 2.30 l
0.14 -2.09 l
0.15 1.45 l
0.15 -0.17 l
0.14 -1.91 l
0.15 1.48 l
0.14 -1.27 l
0.15 2.30 l
0.14 -1.03 l
0.15 1.24 l
0.14 -1.24 l
0.15 -0.21 l
0.15 -0.21 l
0.14 0 l
0.15 1.66 l
0.14 -1.66 l
0.15 1.45 l
295.19 505.49 lineto
0.15 1.24 l
0.14 -1.24 l
0.15 0.17 l
0.15 1.07 l
0.14 -1.67 l
0.15 0.21 l
0.14 -1.06 l
0.15 2.52 l
0.14 -1.46 l
0.15 1.67 l
0.14 -2.73 l
0.15 1.67 l
0.15 1.27 l
0.14 -2.09 l
0.15 1.45 l
0.14 -1.66 l
0.15 1.45 l
0.14 -1.66 l
0.15 1.45 l
0.15 -0.21 l
0.14 -0.39 l
0.15 1.24 l
0.14 -1.88 l
0.15 2.30 l
0.14 -1.66 l
0.15 1.66 l
0.14 -1.88 l
0.15 0.22 l
0.15 0.39 l
0.14 0.21 l
0.15 0 l
0.14 -0.21 l
0.15 -0.39 l
0.14 -0.22 l
0.15 1.03 l
0.14 -0.64 l
0.15 0.64 l
0.15 -0.81 l
0.14 0.39 l
0.15 0.63 l
0.14 -1.02 l
0.15 -0.43 l
0.14 1.03 l
0.15 1.70 l
0.14 -2.13 l
0.15 0.85 l
0.15 -0.42 l
0.14 1.49 l
0.15 -0.22 l
0.14 -1.27 l
0.15 1.06 l
0.14 -2.09 l
0.15 1.88 l
0.15 -0.64 l
0.14 0.85 l
0.15 -1.66 l
0.14 0.81 l
0.15 1.28 l
0.14 -1.92 l
0.15 0.43 l
0.14 1.06 l
0.15 0 l
0.15 -1.66 l
0.14 0.17 l
0.15 -0.17 l
0.14 1.02 l
0.15 -0.85 l
0.14 0.22 l
0.15 0.42 l
0.14 -1.45 l
0.15 1.45 l
0.15 -1.88 l
0.14 2.73 l
0.15 -1.88 l
0.14 2.52 l
0.15 -2.73 l
0.14 1.67 l
0.15 0 l
0.14 -0.85 l
0.15 1.06 l
0.15 -1.45 l
0.14 0 l
0.15 0.39 l
0.14 1.27 l
0.15 0 l
0.14 -0.64 l
0.15 0.43 l
0.15 -1.45 l
0.14 1.45 l
0.15 -1.67 l
0.14 2.31 l
0.15 -1.70 l
0.14 0.21 l
0.15 0.42 l
0.14 -0.63 l
0.15 0.42 l
0.15 -0.42 l
0.14 1.48 l
0.15 -2.09 l
309.75 506.51 lineto
0.15 -0.21 l
0.14 0.64 l
0.15 -1.06 l
0.14 1.27 l
0.15 -1.06 l
0.15 0.21 l
0.14 0.85 l
0.15 -2.09 l
0.14 2.73 l
0.15 -1.28 l
0.14 0.64 l
0.15 -1.06 l
0.14 0.85 l
0.15 0.64 l
0.15 -2.09 l
0.14 2.72 l
0.15 -2.72 l
0.14 2.30 l
0.15 -3.15 l
0.14 2.72 l
0.15 -1.06 l
0.15 -0.21 l
0.14 1.27 l
0.15 -1.27 l
0.14 0.85 l
0.15 -1.88 l
0.14 2.30 l
0.15 -1.27 l
0.14 0.42 l
0.15 -1.24 l
0.15 1.03 l
0.14 1.06 l
0.15 -0.21 l
0.14 -0.42 l
0.15 -0.43 l
0.14 0.85 l
0.15 -1.06 l
0.14 0.85 l
0.15 -0.64 l
0.15 -0.21 l
0.14 -0.60 l
0.15 1.24 l
0.14 0.21 l
0.15 -0.64 l
0.14 0.64 l
0.15 -0.64 l
0.14 1.70 l
0.15 -2.51 l
0.15 2.51 l
0.14 -1.49 l
0.15 1.92 l
0.14 -1.70 l
0.15 -0.85 l
0.14 1.06 l
0.15 -1.28 l
0.15 1.28 l
0.14 -1.28 l
0.15 2.13 l
0.14 -0.85 l
0.15 0.85 l
0.14 -1.49 l
0.15 0.43 l
0.14 0.85 l
0.15 -0.85 l
0.15 0.85 l
0.14 -1.92 l
0.15 1.92 l
0.14 -1.28 l
0.15 0.21 l
0.14 1.49 l
0.15 -1.27 l
0.14 -0.22 l
0.15 -0.42 l
0.15 -0.21 l
0.14 -0.22 l
0.15 1.70 l
0.14 -1.70 l
0.15 2.13 l
0.14 -1.49 l
0.15 -0.21 l
0.14 -0.21 l
0.15 0.21 l
0.15 1.27 l
0.14 -1.48 l
0.15 1.27 l
0.14 -1.49 l
0.15 1.70 l
0.14 -1.48 l
0.15 0.63 l
0.14 0.22 l
0.15 -0.85 l
0.15 0.63 l
0.14 -0.21 l
0.15 1.70 l
0.14 -2.12 l
0.15 1.91 l
0.14 -1.70 l
0.15 0.42 l
0.15 0.64 l
324.31 506.51 lineto
0.15 0.22 l
0.14 -2.52 l
0.15 2.52 l
0.14 -1.07 l
0.15 2.13 l
0.14 -0.85 l
0.15 -0.21 l
0.15 1.06 l
0.14 -2.52 l
0.15 2.52 l
0.14 -2.73 l
0.15 2.09 l
0.14 -0.42 l
0.15 0.63 l
0.14 -0.85 l
0.15 -0.63 l
0.15 0.21 l
0.14 0.21 l
0.15 -0.21 l
0.14 -0.21 l
0.15 1.27 l
0.14 -0.85 l
0.15 0.64 l
0.14 -0.85 l
0.15 0.85 l
0.15 -1.45 l
0.14 0.81 l
0.15 -0.81 l
0.14 1.87 l
0.15 0 l
0.14 -1.27 l
0.15 0.85 l
0.15 -0.43 l
0.14 2.13 l
0.15 -2.76 l
0.14 1.27 l
0.15 -0.64 l
0.14 0.43 l
0.15 0.42 l
0.14 -2.09 l
0.15 2.73 l
0.15 -2.12 l
0.14 1.70 l
0.15 -1.07 l
0.14 0.85 l
0.15 -0.21 l
0.14 0.21 l
0.15 -0.85 l
0.14 0.85 l
0.15 -0.85 l
0.15 -0.21 l
0.14 0.64 l
0.15 -0.64 l
0.14 -0.21 l
0.15 0 l
0.14 0.42 l
0.15 -0.63 l
0.14 1.27 l
0.15 -0.42 l
0.15 -0.22 l
0.14 0 l
0.15 0.43 l
0.14 -0.43 l
0.15 0.85 l
0.14 -1.06 l
0.15 -0.21 l
0.15 0 l
0.14 0.42 l
0.15 1.07 l
0.14 -0.85 l
0.15 -0.22 l
0.14 -0.21 l
0.15 1.06 l
0.14 -0.21 l
0.15 -0.21 l
0.15 0.64 l
0.14 -1.49 l
0.15 0 l
0.14 0 l
0.15 0.64 l
0.14 0.42 l
0.15 -0.42 l
0.14 -0.43 l
0.15 1.49 l
0.15 -1.70 l
0.14 0.85 l
0.15 0.85 l
0.14 -2.52 l
0.15 1.88 l
0.14 -1.88 l
0.15 1.88 l
0.14 -0.21 l
0.15 -1.06 l
0.15 1.91 l
0.14 -1.70 l
0.15 0.85 l
0.14 0.64 l
0.15 0.85 l
0.14 -1.92 l
338.87 507.36 lineto
0.15 -0.63 l
0.14 0 l
0.15 0.63 l
0.14 -0.42 l
0.15 -0.85 l
0.14 0.42 l
0.15 0 l
0.14 -0.21 l
0.15 -0.64 l
0.15 1.07 l
0.14 -0.64 l
0.15 1.91 l
0.14 -1.70 l
0.15 0.43 l
0.14 2.12 l
0.15 -1.49 l
0.14 -0.63 l
0.15 -1.67 l
0.15 1.88 l
0.14 -0.85 l
0.15 0.21 l
0.14 -0.42 l
0.15 0 l
0.14 1.70 l
0.15 -0.43 l
0.14 -0.42 l
0.15 0.42 l
0.15 0.85 l
0.14 -1.49 l
0.15 0.22 l
0.14 -0.43 l
0.15 0.64 l
0.14 -0.64 l
0.15 0.85 l
0.15 0.21 l
0.14 -0.63 l
0.15 -0.64 l
0.14 0.64 l
0.15 0.42 l
0.14 -0.85 l
0.15 1.70 l
0.14 -1.27 l
0.15 0.42 l
0.15 -0.64 l
0.14 0.43 l
0.15 0.21 l
0.14 -2.30 l
0.15 1.03 l
0.14 1.27 l
0.15 -0.21 l
0.14 0.21 l
0.15 0.64 l
0.15 -1.91 l
0.14 0.63 l
0.15 0 l
0.14 0.64 l
0.15 0.43 l
0.14 1.48 l
0.15 -1.91 l
0.14 0.43 l
0.15 -1.28 l
0.15 0.21 l
0.14 0.43 l
0.15 0.21 l
0.14 -1.27 l
0.15 0.63 l
0.14 0.22 l
0.15 1.27 l
0.15 -1.70 l
0.14 1.06 l
0.15 -0.42 l
0.14 -0.43 l
0.15 0 l
0.14 0.64 l
0.15 -2.51 l
0.14 2.30 l
0.15 0.42 l
0.15 0.22 l
0.14 -1.07 l
0.15 -1.45 l
0.14 1.67 l
0.15 0 l
0.14 -0.22 l
0.15 -0.42 l
0.14 -0.43 l
0.15 1.07 l
0.15 0.63 l
0.14 -1.87 l
0.15 0.81 l
0.14 -0.21 l
0.15 -0.21 l
0.14 0.63 l
0.15 0 l
0.14 0.64 l
0.15 -0.21 l
0.15 -0.21 l
0.14 -0.43 l
0.15 0.21 l
0.14 0.64 l
353.43 507.36 lineto
0.14 -0.21 l
0.15 -1.27 l
0.14 0 l
0.15 0.21 l
0.15 1.91 l
0.14 -0.42 l
0.15 -2.52 l
0.14 0.60 l
0.15 1.28 l
0.14 0 l
0.15 0.21 l
0.15 -1.88 l
0.14 0.82 l
0.15 0 l
0.14 1.06 l
0.15 -0.21 l
0.14 0 l
0.15 -1.28 l
0.14 2.13 l
0.15 -0.64 l
0.15 0.43 l
0.14 -0.85 l
0.15 0.63 l
0.14 0 l
0.15 -1.27 l
0.14 0.21 l
0.15 0 l
0.14 0 l
0.15 0.21 l
0.15 -0.42 l
0.14 0.21 l
0.15 -0.42 l
0.14 0.63 l
0.15 0 l
0.14 -0.21 l
0.15 -0.21 l
0.14 -0.21 l
0.15 -0.22 l
0.15 1.49 l
0.14 -0.85 l
0.15 -0.64 l
0.14 1.07 l
0.15 -0.43 l
0.14 0.85 l
0.15 0.21 l
0.15 -2.72 l
0.14 1.87 l
0.15 -0.21 l
0.14 0.43 l
0.15 -1.07 l
0.14 1.07 l
0.15 -0.85 l
0.14 0.85 l
0.15 -0.43 l
0.15 0.64 l
0.14 -1.28 l
0.15 0.43 l
0.14 1.27 l
0.15 -1.27 l
0.14 1.91 l
0.15 -2.94 l
0.14 1.24 l
0.15 0.21 l
0.15 -0.42 l
0.14 0.64 l
0.15 -1.46 l
0.14 0.82 l
0.15 0 l
0.14 0.21 l
0.15 0.43 l
0.14 -0.43 l
0.15 0 l
0.15 0.21 l
0.14 0.22 l
0.15 0.21 l
0.14 -1.06 l
0.15 1.06 l
0.14 -0.64 l
0.15 1.06 l
0.15 -0.42 l
0.14 -0.64 l
0.15 -0.21 l
0.14 -0.43 l
0.15 0.43 l
0.14 0.85 l
0.15 -0.21 l
0.14 0.21 l
0.15 -0.43 l
0.15 0 l
0.14 0 l
0.15 -0.85 l
0.14 0.22 l
0.15 0.42 l
0.14 0.64 l
0.15 -1.06 l
0.14 0.63 l
0.15 -0.42 l
0.15 1.49 l
0.14 -1.28 l
currentpoint o m
367.99 505.88 lineto
0.14 0.85 l
0.15 -0.85 l
0.14 1.27 l
0.15 -0.85 l
0.14 0.43 l
0.15 -1.07 l
0.15 0.85 l
0.14 -1.24 l
0.15 1.24 l
0.14 -0.42 l
0.15 0.21 l
0.14 1.06 l
0.15 -0.85 l
0.15 0.22 l
0.14 -0.22 l
0.15 -1.24 l
0.14 1.03 l
0.15 -1.03 l
0.14 0.82 l
0.15 -0.21 l
0.14 -0.82 l
0.15 1.88 l
0.15 -0.21 l
0.14 1.06 l
0.15 0 l
0.14 -1.49 l
0.15 0 l
0.14 0.64 l
0.15 -1.45 l
0.14 1.45 l
0.15 -0.85 l
0.15 0 l
0.14 0.21 l
0.15 1.06 l
0.14 -1.27 l
0.15 -0.21 l
0.14 -1.24 l
0.15 2.72 l
0.14 -0.42 l
0.15 -0.64 l
0.15 1.28 l
0.14 -1.28 l
0.15 -1.03 l
0.14 2.52 l
0.15 -1.28 l
0.14 -0.21 l
0.15 -1.03 l
0.15 1.24 l
0.14 -0.21 l
0.15 -1.03 l
0.14 2.31 l
0.15 0 l
0.14 -0.43 l
0.15 -1.27 l
0.14 0.63 l
0.15 0.64 l
0.15 -0.85 l
0.14 1.70 l
0.15 -1.91 l
0.14 0.85 l
0.15 -1.28 l
0.14 1.70 l
0.15 -1.70 l
0.14 0.64 l
0.15 0.43 l
0.15 0.85 l
0.14 -1.28 l
0.15 -0.64 l
0.14 0.64 l
0.15 0.64 l
0.14 -0.85 l
0.15 -0.60 l
0.14 1.45 l
0.15 -1.06 l
0.15 -0.39 l
0.14 1.02 l
0.15 -0.63 l
0.14 -0.61 l
0.15 1.24 l
0.14 1.70 l
0.15 -1.91 l
0.15 0 l
0.14 1.06 l
0.15 -2.30 l
0.14 0.43 l
0.15 0.81 l
0.14 0 l
0.15 -0.21 l
0.14 0 l
0.15 0 l
0.15 0 l
0.14 -0.43 l
0.15 1.28 l
0.14 -1.06 l
0.15 0.42 l
0.14 0.21 l
0.15 -1.02 l
0.14 1.45 l
0.15 -0.43 l
o
/bg { 1 1 1 srgb } def
222.40 510.12 0.43 c p3
222.55 510.97 0.43 c p3
222.69 510.12 0.43 c p3
222.84 510.76 0.43 c p3
222.98 509.70 0.43 c p3
223.13 509.06 0.43 c p3
223.27 510.55 0.43 c p3
223.42 509.27 0.43 c p3
223.56 509.91 0.43 c p3
223.71 508.85 0.43 c p3
223.86 509.70 0.43 c p3
224.00 512.00 0.43 c p3
224.15 510.34 0.43 c p3
224.29 510.55 0.43 c p3
224.44 509.91 0.43 c p3
224.58 511.19 0.43 c p3
224.73 510.34 0.43 c p3
224.87 509.70 0.43 c p3
225.02 510.34 0.43 c p3
225.17 509.49 0.43 c p3
225.31 510.76 0.43 c p3
225.46 509.49 0.43 c p3
225.60 510.34 0.43 c p3
225.75 509.06 0.43 c p3
225.89 510.12 0.43 c p3
226.04 510.55 0.43 c p3
226.19 509.70 0.43 c p3
226.33 509.70 0.43 c p3
226.48 509.70 0.43 c p3
226.62 510.76 0.43 c p3
226.77 510.12 0.43 c p3
226.91 510.34 0.43 c p3
227.06 509.49 0.43 c p3
227.20 510.12 0.43 c p3
227.35 510.55 0.43 c p3
227.50 508.21 0.43 c p3
227.64 509.70 0.43 c p3
227.79 510.55 0.43 c p3
227.93 510.34 0.43 c p3
228.08 509.70 0.43 c p3
228.22 510.55 0.43 c p3
228.37 509.70 0.43 c p3
228.51 509.49 0.43 c p3
228.66 510.12 0.43 c p3
228.81 509.27 0.43 c p3
228.95 509.49 0.43 c p3
229.10 509.91 0.43 c p3
229.24 509.49 0.43 c p3
229.39 508.64 0.43 c p3
229.53 510.34 0.43 c p3
229.68 509.27 0.43 c p3
229.82 509.70 0.43 c p3
229.97 510.34 0.43 c p3
230.12 510.97 0.43 c p3
230.26 510.34 0.43 c p3
230.41 510.12 0.43 c p3
230.55 509.49 0.43 c p3
230.70 510.97 0.43 c p3
230.84 509.27 0.43 c p3
230.99 510.97 0.43 c p3
231.14 510.12 0.43 c p3
231.28 510.76 0.43 c p3
231.43 511.36 0.43 c p3
231.57 509.49 0.43 c p3
231.72 510.76 0.43 c p3
231.86 508.43 0.43 c p3
232.01 510.55 0.43 c p3
232.15 511.36 0.43 c p3
232.30 510.34 0.43 c p3
232.45 510.76 0.43 c p3
232.59 509.70 0.43 c p3
232.74 510.12 0.43 c p3
232.88 511.36 0.43 c p3
233.03 510.12 0.43 c p3
233.17 510.34 0.43 c p3
233.32 509.49 0.43 c p3
233.46 510.34 0.43 c p3
233.61 509.91 0.43 c p3
233.76 510.55 0.43 c p3
233.90 509.70 0.43 c p3
234.05 510.55 0.43 c p3
234.19 510.55 0.43 c p3
234.34 510.34 0.43 c p3
234.48 510.76 0.43 c p3
234.63 511.19 0.43 c p3
234.77 509.70 0.43 c p3
234.92 508.43 0.43 c p3
235.07 511.58 0.43 c p3
235.21 509.70 0.43 c p3
235.36 510.34 0.43 c p3
235.50 511.36 0.43 c p3
235.65 510.34 0.43 c p3
235.79 509.91 0.43 c p3
235.94 510.55 0.43 c p3
236.09 509.70 0.43 c p3
236.23 507.79 0.43 c p3
236.38 509.70 0.43 c p3
236.52 509.91 0.43 c p3
236.67 510.76 0.43 c p3
236.81 510.12 0.43 c p3
236.96 474.44 0.43 c p3
237.10 462.81 0.43 c p3
237.25 464.53 0.43 c p3
237.40 463.26 0.43 c p3
237.54 465.17 0.43 c p3
237.69 467.26 0.43 c p3
237.83 466.19 0.43 c p3
237.98 467.04 0.43 c p3
238.12 469.38 0.43 c p3
238.27 467.89 0.43 c p3
238.41 468.32 0.43 c p3
238.56 467.89 0.43 c p3
238.71 469.38 0.43 c p3
238.85 471.68 0.43 c p3
239.00 469.38 0.43 c p3
239.14 469.59 0.43 c p3
239.29 468.74 0.43 c p3
239.43 471.08 0.43 c p3
239.58 472.32 0.43 c p3
239.72 474.02 0.43 c p3
239.87 471.89 0.43 c p3
240.02 470.87 0.43 c p3
240.16 472.32 0.43 c p3
240.31 472.53 0.43 c p3
240.45 473.59 0.43 c p3
240.60 471.89 0.43 c p3
240.74 473.59 0.43 c p3
240.89 472.53 0.43 c p3
241.04 473.59 0.43 c p3
241.18 473.38 0.43 c p3
241.33 474.02 0.43 c p3
241.47 475.08 0.43 c p3
241.62 473.81 0.43 c p3
241.76 474.44 0.43 c p3
241.91 476.14 0.43 c p3
242.05 477.38 0.43 c p3
242.20 475.29 0.43 c p3
242.35 477.59 0.43 c p3
242.49 475.08 0.43 c p3
242.64 476.78 0.43 c p3
242.78 478.02 0.43 c p3
242.93 477.59 0.43 c p3
243.07 477.81 0.43 c p3
243.22 476.57 0.43 c p3
243.36 476.35 0.43 c p3
243.51 477.17 0.43 c p3
243.66 480.14 0.43 c p3
243.80 477.81 0.43 c p3
243.95 478.44 0.43 c p3
244.09 478.87 0.43 c p3
244.24 477.59 0.43 c p3
244.38 479.50 0.43 c p3
244.53 479.50 0.43 c p3
244.67 478.87 0.43 c p3
244.82 479.08 0.43 c p3
244.97 479.08 0.43 c p3
245.11 479.93 0.43 c p3
245.26 479.29 0.43 c p3
245.40 479.72 0.43 c p3
245.55 479.50 0.43 c p3
245.69 480.78 0.43 c p3
245.84 479.93 0.43 c p3
245.99 481.20 0.43 c p3
246.13 480.57 0.43 c p3
246.28 482.48 0.43 c p3
246.42 482.27 0.43 c p3
246.57 481.42 0.43 c p3
246.71 483.29 0.43 c p3
246.86 480.57 0.43 c p3
247.00 482.48 0.43 c p3
247.15 482.69 0.43 c p3
247.30 483.29 0.43 c p3
247.44 484.57 0.43 c p3
247.59 484.35 0.43 c p3
247.73 484.14 0.43 c p3
247.88 484.78 0.43 c p3
248.02 484.57 0.43 c p3
248.17 483.50 0.43 c p3
248.31 485.20 0.43 c p3
248.46 484.14 0.43 c p3
248.61 486.05 0.43 c p3
248.75 484.78 0.43 c p3
248.90 485.42 0.43 c p3
249.04 485.42 0.43 c p3
249.19 486.05 0.43 c p3
249.33 485.42 0.43 c p3
249.48 484.99 0.43 c p3
249.62 486.48 0.43 c p3
249.77 485.84 0.43 c p3
249.92 487.12 0.43 c p3
250.06 485.84 0.43 c p3
250.21 486.05 0.43 c p3
250.35 486.27 0.43 c p3
250.50 487.12 0.43 c p3
250.64 487.96 0.43 c p3
250.79 488.18 0.43 c p3
250.94 488.18 0.43 c p3
251.08 487.96 0.43 c p3
251.23 489.20 0.43 c p3
251.37 488.18 0.43 c p3
251.52 489.20 0.43 c p3
251.66 489.20 0.43 c p3
251.81 489.84 0.43 c p3
251.95 489.63 0.43 c p3
252.10 488.99 0.43 c p3
252.25 488.57 0.43 c p3
252.39 487.96 0.43 c p3
252.54 489.63 0.43 c p3
252.68 488.39 0.43 c p3
252.83 488.99 0.43 c p3
252.97 489.20 0.43 c p3
253.12 489.84 0.43 c p3
253.26 490.05 0.43 c p3
253.41 490.05 0.43 c p3
253.56 490.90 0.43 c p3
253.70 489.42 0.43 c p3
253.85 490.69 0.43 c p3
253.99 491.54 0.43 c p3
254.14 491.54 0.43 c p3
254.28 490.69 0.43 c p3
254.43 490.48 0.43 c p3
254.57 491.33 0.43 c p3
254.72 491.33 0.43 c p3
254.87 492.60 0.43 c p3
255.01 491.11 0.43 c p3
255.16 492.81 0.43 c p3
255.30 491.75 0.43 c p3
255.45 491.96 0.43 c p3
255.59 491.75 0.43 c p3
255.74 492.39 0.43 c p3
255.88 493.45 0.43 c p3
256.03 492.18 0.43 c p3
256.18 493.45 0.43 c p3
256.32 493.24 0.43 c p3
256.47 494.09 0.43 c p3
256.61 490.90 0.43 c p3
256.76 494.09 0.43 c p3
256.90 492.81 0.43 c p3
257.05 493.66 0.43 c p3
257.20 494.09 0.43 c p3
257.34 491.96 0.43 c p3
257.49 494.90 0.43 c p3
257.63 493.45 0.43 c p3
257.78 494.48 0.43 c p3
257.92 492.60 0.43 c p3
258.07 495.33 0.43 c p3
258.21 493.88 0.43 c p3
258.36 493.88 0.43 c p3
258.51 493.45 0.43 c p3
258.65 493.66 0.43 c p3
258.80 494.90 0.43 c p3
258.94 493.24 0.43 c p3
259.09 495.12 0.43 c p3
259.23 494.48 0.43 c p3
259.38 495.75 0.43 c p3
259.52 495.12 0.43 c p3
259.67 496.60 0.43 c p3
259.82 494.48 0.43 c p3
259.96 494.48 0.43 c p3
260.11 495.54 0.43 c p3
260.25 494.90 0.43 c p3
260.40 496.81 0.43 c p3
260.54 495.12 0.43 c p3
260.69 496.60 0.43 c p3
260.83 495.33 0.43 c p3
260.98 496.60 0.43 c p3
261.13 496.39 0.43 c p3
261.27 495.75 0.43 c p3
261.42 496.60 0.43 c p3
261.56 494.90 0.43 c p3
261.71 495.54 0.43 c p3
261.85 495.97 0.43 c p3
262.00 497.45 0.43 c p3
262.15 496.81 0.43 c p3
262.29 495.33 0.43 c p3
262.44 496.81 0.43 c p3
262.58 495.12 0.43 c p3
262.73 496.81 0.43 c p3
262.87 497.45 0.43 c p3
263.02 497.88 0.43 c p3
263.16 496.18 0.43 c p3
263.31 498.09 0.43 c p3
263.46 497.24 0.43 c p3
263.60 497.03 0.43 c p3
263.75 497.66 0.43 c p3
263.89 495.54 0.43 c p3
264.04 497.66 0.43 c p3
264.18 497.45 0.43 c p3
264.33 498.30 0.43 c p3
264.47 495.75 0.43 c p3
264.62 498.73 0.43 c p3
264.77 497.24 0.43 c p3
264.91 499.36 0.43 c p3
265.06 498.94 0.43 c p3
265.20 497.03 0.43 c p3
265.35 498.30 0.43 c p3
265.49 495.97 0.43 c p3
265.64 499.36 0.43 c p3
265.78 498.09 0.43 c p3
265.93 498.51 0.43 c p3
266.08 498.09 0.43 c p3
266.22 499.79 0.43 c p3
266.37 498.51 0.43 c p3
266.51 496.81 0.43 c p3
266.66 499.96 0.43 c p3
266.80 498.73 0.43 c p3
266.95 498.94 0.43 c p3
267.10 498.30 0.43 c p3
267.24 499.58 0.43 c p3
267.39 498.73 0.43 c p3
267.53 499.58 0.43 c p3
267.68 499.36 0.43 c p3
267.82 498.73 0.43 c p3
267.97 500.18 0.43 c p3
268.11 498.94 0.43 c p3
268.26 499.96 0.43 c p3
268.41 499.15 0.43 c p3
268.55 499.96 0.43 c p3
268.70 498.94 0.43 c p3
268.84 498.73 0.43 c p3
268.99 499.79 0.43 c p3
269.13 501.03 0.43 c p3
269.28 500.39 0.43 c p3
269.42 499.96 0.43 c p3
269.57 500.81 0.43 c p3
269.72 500.81 0.43 c p3
269.86 500.60 0.43 c p3
270.01 500.60 0.43 c p3
270.15 499.79 0.43 c p3
270.30 501.03 0.43 c p3
270.44 501.24 0.43 c p3
270.59 501.45 0.43 c p3
270.73 500.39 0.43 c p3
270.88 501.24 0.43 c p3
271.03 500.39 0.43 c p3
271.17 500.60 0.43 c p3
271.32 502.73 0.43 c p3
271.46 501.24 0.43 c p3
271.61 499.96 0.43 c p3
271.75 500.60 0.43 c p3
271.90 502.51 0.43 c p3
272.05 501.03 0.43 c p3
272.19 501.66 0.43 c p3
272.34 501.03 0.43 c p3
272.48 500.60 0.43 c p3
272.63 502.30 0.43 c p3
272.77 501.45 0.43 c p3
272.92 502.94 0.43 c p3
273.06 501.88 0.43 c p3
273.21 502.73 0.43 c p3
273.36 500.60 0.43 c p3
273.50 502.94 0.43 c p3
273.65 501.66 0.43 c p3
273.79 502.51 0.43 c p3
273.94 502.73 0.43 c p3
274.08 501.45 0.43 c p3
274.23 503.15 0.43 c p3
274.37 502.09 0.43 c p3
274.52 502.51 0.43 c p3
274.67 501.66 0.43 c p3
274.81 502.51 0.43 c p3
274.96 501.66 0.43 c p3
275.10 503.36 0.43 c p3
275.25 501.24 0.43 c p3
275.39 503.15 0.43 c p3
275.54 500.81 0.43 c p3
275.68 503.15 0.43 c p3
275.83 503.58 0.43 c p3
275.98 501.66 0.43 c p3
276.12 503.58 0.43 c p3
276.27 503.36 0.43 c p3
276.41 503.58 0.43 c p3
276.56 502.51 0.43 c p3
276.70 503.15 0.43 c p3
276.85 502.73 0.43 c p3
277.00 502.51 0.43 c p3
277.14 502.51 0.43 c p3
277.29 501.66 0.43 c p3
277.43 503.36 0.43 c p3
277.58 500.81 0.43 c p3
277.72 504.42 0.43 c p3
277.87 502.73 0.43 c p3
278.01 503.79 0.43 c p3
278.16 504.85 0.43 c p3
278.31 502.73 0.43 c p3
278.45 502.94 0.43 c p3
278.60 503.36 0.43 c p3
278.74 503.58 0.43 c p3
278.89 502.30 0.43 c p3
279.03 503.36 0.43 c p3
279.18 503.79 0.43 c p3
279.32 503.58 0.43 c p3
279.47 504.00 0.43 c p3
279.62 504.00 0.43 c p3
279.76 503.79 0.43 c p3
279.91 502.51 0.43 c p3
280.05 502.94 0.43 c p3
280.20 502.51 0.43 c p3
280.34 503.36 0.43 c p3
280.49 503.15 0.43 c p3
280.63 504.42 0.43 c p3
280.78 504.21 0.43 c p3
280.93 502.73 0.43 c p3
281.07 504.00 0.43 c p3
281.22 502.94 0.43 c p3
281.36 503.36 0.43 c p3
281.51 502.30 0.43 c p3
281.65 504.00 0.43 c p3
281.80 502.94 0.43 c p3
281.95 502.51 0.43 c p3
282.09 503.36 0.43 c p3
282.24 503.58 0.43 c p3
282.38 502.94 0.43 c p3
282.53 502.73 0.43 c p3
282.67 504.42 0.43 c p3
282.82 502.73 0.43 c p3
282.96 504.85 0.43 c p3
283.11 502.94 0.43 c p3
283.26 504.85 0.43 c p3
283.40 503.36 0.43 c p3
283.55 504.85 0.43 c p3
283.69 503.36 0.43 c p3
283.84 503.15 0.43 c p3
283.98 505.27 0.43 c p3
284.13 504.00 0.43 c p3
284.27 504.85 0.43 c p3
284.42 502.73 0.43 c p3
284.57 504.85 0.43 c p3
284.71 504.64 0.43 c p3
284.86 504.21 0.43 c p3
285.00 503.79 0.43 c p3
285.15 504.00 0.43 c p3
285.29 504.85 0.43 c p3
285.44 502.51 0.43 c p3
285.58 505.66 0.43 c p3
285.73 503.15 0.43 c p3
285.88 505.66 0.43 c p3
286.02 503.58 0.43 c p3
286.17 504.21 0.43 c p3
286.31 504.64 0.43 c p3
286.46 504.00 0.43 c p3
286.60 503.79 0.43 c p3
286.75 503.58 0.43 c p3
286.89 505.06 0.43 c p3
287.04 504.42 0.43 c p3
287.19 505.88 0.43 c p3
287.33 504.64 0.43 c p3
287.48 505.27 0.43 c p3
287.62 505.49 0.43 c p3
287.77 504.00 0.43 c p3
287.91 505.06 0.43 c p3
288.06 504.42 0.43 c p3
288.21 506.30 0.43 c p3
288.35 504.21 0.43 c p3
288.50 506.09 0.43 c p3
288.64 504.85 0.43 c p3
288.79 505.88 0.43 c p3
288.93 505.06 0.43 c p3
289.08 504.42 0.43 c p3
289.22 504.85 0.43 c p3
289.37 504.42 0.43 c p3
289.52 506.09 0.43 c p3
289.66 503.79 0.43 c p3
289.81 505.49 0.43 c p3
289.95 504.85 0.43 c p3
290.10 506.09 0.43 c p3
290.24 504.85 0.43 c p3
290.39 505.49 0.43 c p3
290.53 506.73 0.43 c p3
290.68 504.64 0.43 c p3
290.83 505.88 0.43 c p3
290.97 506.30 0.43 c p3
291.12 505.27 0.43 c p3
291.26 504.85 0.43 c p3
291.41 504.42 0.43 c p3
291.55 504.64 0.43 c p3
291.70 505.88 0.43 c p3
291.84 505.06 0.43 c p3
291.99 505.06 0.43 c p3
292.14 506.94 0.43 c p3
292.28 504.00 0.43 c p3
292.43 508.00 0.43 c p3
292.57 504.00 0.43 c p3
292.72 506.30 0.43 c p3
292.86 504.21 0.43 c p3
293.01 505.66 0.43 c p3
293.16 505.49 0.43 c p3
293.30 503.58 0.43 c p3
293.45 505.06 0.43 c p3
293.59 503.79 0.43 c p3
293.74 506.09 0.43 c p3
293.88 505.06 0.43 c p3
294.03 506.30 0.43 c p3
294.17 505.06 0.43 c p3
294.32 504.85 0.43 c p3
294.47 504.64 0.43 c p3
294.61 504.64 0.43 c p3
294.76 506.30 0.43 c p3
294.90 504.64 0.43 c p3
295.05 506.09 0.43 c p3
295.19 505.49 0.43 c p3
295.34 506.73 0.43 c p3
295.48 505.49 0.43 c p3
295.63 505.66 0.43 c p3
295.78 506.73 0.43 c p3
295.92 505.06 0.43 c p3
296.07 505.27 0.43 c p3
296.21 504.21 0.43 c p3
296.36 506.73 0.43 c p3
296.50 505.27 0.43 c p3
296.65 506.94 0.43 c p3
296.79 504.21 0.43 c p3
296.94 505.88 0.43 c p3
297.09 507.15 0.43 c p3
297.23 505.06 0.43 c p3
297.38 506.51 0.43 c p3
297.52 504.85 0.43 c p3
297.67 506.30 0.43 c p3
297.81 504.64 0.43 c p3
297.96 506.09 0.43 c p3
298.11 505.88 0.43 c p3
298.25 505.49 0.43 c p3
298.40 506.73 0.43 c p3
298.54 504.85 0.43 c p3
298.69 507.15 0.43 c p3
298.83 505.49 0.43 c p3
298.98 507.15 0.43 c p3
299.12 505.27 0.43 c p3
299.27 505.49 0.43 c p3
299.42 505.88 0.43 c p3
299.56 506.09 0.43 c p3
299.71 506.09 0.43 c p3
299.85 505.88 0.43 c p3
300.00 505.49 0.43 c p3
300.14 505.27 0.43 c p3
300.29 506.30 0.43 c p3
300.43 505.66 0.43 c p3
300.58 506.30 0.43 c p3
300.73 505.49 0.43 c p3
300.87 505.88 0.43 c p3
301.02 506.51 0.43 c p3
301.16 505.49 0.43 c p3
301.31 505.06 0.43 c p3
301.45 506.09 0.43 c p3
301.60 507.79 0.43 c p3
301.74 505.66 0.43 c p3
301.89 506.51 0.43 c p3
302.04 506.09 0.43 c p3
302.18 507.58 0.43 c p3
302.33 507.36 0.43 c p3
302.47 506.09 0.43 c p3
302.62 507.15 0.43 c p3
302.76 505.06 0.43 c p3
302.91 506.94 0.43 c p3
303.06 506.30 0.43 c p3
303.20 507.15 0.43 c p3
303.35 505.49 0.43 c p3
303.49 506.30 0.43 c p3
303.64 507.58 0.43 c p3
303.78 505.66 0.43 c p3
303.93 506.09 0.43 c p3
304.07 507.15 0.43 c p3
304.22 507.15 0.43 c p3
304.37 505.49 0.43 c p3
304.51 505.66 0.43 c p3
304.66 505.49 0.43 c p3
304.80 506.51 0.43 c p3
304.95 505.66 0.43 c p3
305.09 505.88 0.43 c p3
305.24 506.30 0.43 c p3
305.38 504.85 0.43 c p3
305.53 506.30 0.43 c p3
305.68 504.42 0.43 c p3
305.82 507.15 0.43 c p3
305.97 505.27 0.43 c p3
306.11 507.79 0.43 c p3
306.26 505.06 0.43 c p3
306.40 506.73 0.43 c p3
306.55 506.73 0.43 c p3
306.69 505.88 0.43 c p3
306.84 506.94 0.43 c p3
306.99 505.49 0.43 c p3
307.13 505.49 0.43 c p3
307.28 505.88 0.43 c p3
307.42 507.15 0.43 c p3
307.57 507.15 0.43 c p3
307.71 506.51 0.43 c p3
307.86 506.94 0.43 c p3
308.01 505.49 0.43 c p3
308.15 506.94 0.43 c p3
308.30 505.27 0.43 c p3
308.44 507.58 0.43 c p3
308.59 505.88 0.43 c p3
308.73 506.09 0.43 c p3
308.88 506.51 0.43 c p3
309.02 505.88 0.43 c p3
309.17 506.30 0.43 c p3
309.32 505.88 0.43 c p3
309.46 507.36 0.43 c p3
309.61 505.27 0.43 c p3
309.75 506.51 0.43 c p3
309.90 506.30 0.43 c p3
310.04 506.94 0.43 c p3
310.19 505.88 0.43 c p3
310.33 507.15 0.43 c p3
310.48 506.09 0.43 c p3
310.63 506.30 0.43 c p3
310.77 507.15 0.43 c p3
310.92 505.06 0.43 c p3
311.06 507.79 0.43 c p3
311.21 506.51 0.43 c p3
311.35 507.15 0.43 c p3
311.50 506.09 0.43 c p3
311.64 506.94 0.43 c p3
311.79 507.58 0.43 c p3
311.94 505.49 0.43 c p3
312.08 508.21 0.43 c p3
312.23 505.49 0.43 c p3
312.37 507.79 0.43 c p3
312.52 504.64 0.43 c p3
312.66 507.36 0.43 c p3
312.81 506.30 0.43 c p3
312.96 506.09 0.43 c p3
313.10 507.36 0.43 c p3
313.25 506.09 0.43 c p3
313.39 506.94 0.43 c p3
313.54 505.06 0.43 c p3
313.68 507.36 0.43 c p3
313.83 506.09 0.43 c p3
313.97 506.51 0.43 c p3
314.12 505.27 0.43 c p3
314.27 506.30 0.43 c p3
314.41 507.36 0.43 c p3
314.56 507.15 0.43 c p3
314.70 506.73 0.43 c p3
314.85 506.30 0.43 c p3
314.99 507.15 0.43 c p3
315.14 506.09 0.43 c p3
315.28 506.94 0.43 c p3
315.43 506.30 0.43 c p3
315.58 506.09 0.43 c p3
315.72 505.49 0.43 c p3
315.87 506.73 0.43 c p3
316.01 506.94 0.43 c p3
316.16 506.30 0.43 c p3
316.30 506.94 0.43 c p3
316.45 506.30 0.43 c p3
316.59 508.00 0.43 c p3
316.74 505.49 0.43 c p3
316.89 508.00 0.43 c p3
317.03 506.51 0.43 c p3
317.18 508.43 0.43 c p3
317.32 506.73 0.43 c p3
317.47 505.88 0.43 c p3
317.61 506.94 0.43 c p3
317.76 505.66 0.43 c p3
317.91 506.94 0.43 c p3
318.05 505.66 0.43 c p3
318.20 507.79 0.43 c p3
318.34 506.94 0.43 c p3
318.49 507.79 0.43 c p3
318.63 506.30 0.43 c p3
318.78 506.73 0.43 c p3
318.92 507.58 0.43 c p3
319.07 506.73 0.43 c p3
319.22 507.58 0.43 c p3
319.36 505.66 0.43 c p3
319.51 507.58 0.43 c p3
319.65 506.30 0.43 c p3
319.80 506.51 0.43 c p3
319.94 508.00 0.43 c p3
320.09 506.73 0.43 c p3
320.23 506.51 0.43 c p3
320.38 506.09 0.43 c p3
320.53 505.88 0.43 c p3
320.67 505.66 0.43 c p3
320.82 507.36 0.43 c p3
320.96 505.66 0.43 c p3
321.11 507.79 0.43 c p3
321.25 506.30 0.43 c p3
321.40 506.09 0.43 c p3
321.54 505.88 0.43 c p3
321.69 506.09 0.43 c p3
321.84 507.36 0.43 c p3
321.98 505.88 0.43 c p3
322.13 507.15 0.43 c p3
322.27 505.66 0.43 c p3
322.42 507.36 0.43 c p3
322.56 505.88 0.43 c p3
322.71 506.51 0.43 c p3
322.85 506.73 0.43 c p3
323.00 505.88 0.43 c p3
323.15 506.51 0.43 c p3
323.29 506.30 0.43 c p3
323.44 508.00 0.43 c p3
323.58 505.88 0.43 c p3
323.73 507.79 0.43 c p3
323.87 506.09 0.43 c p3
324.02 506.51 0.43 c p3
324.17 507.15 0.43 c p3
324.31 506.51 0.43 c p3
324.46 506.73 0.43 c p3
324.60 504.21 0.43 c p3
324.75 506.73 0.43 c p3
324.89 505.66 0.43 c p3
325.04 507.79 0.43 c p3
325.18 506.94 0.43 c p3
325.33 506.73 0.43 c p3
325.48 507.79 0.43 c p3
325.62 505.27 0.43 c p3
325.77 507.79 0.43 c p3
325.91 505.06 0.43 c p3
326.06 507.15 0.43 c p3
326.20 506.73 0.43 c p3
326.35 507.36 0.43 c p3
326.49 506.51 0.43 c p3
326.64 505.88 0.43 c p3
326.79 506.09 0.43 c p3
326.93 506.30 0.43 c p3
327.08 506.09 0.43 c p3
327.22 505.88 0.43 c p3
327.37 507.15 0.43 c p3
327.51 506.30 0.43 c p3
327.66 506.94 0.43 c p3
327.80 506.09 0.43 c p3
327.95 506.94 0.43 c p3
328.10 505.49 0.43 c p3
328.24 506.30 0.43 c p3
328.39 505.49 0.43 c p3
328.53 507.36 0.43 c p3
328.68 507.36 0.43 c p3
328.82 506.09 0.43 c p3
328.97 506.94 0.43 c p3
329.12 506.51 0.43 c p3
329.26 508.64 0.43 c p3
329.41 505.88 0.43 c p3
329.55 507.15 0.43 c p3
329.70 506.51 0.43 c p3
329.84 506.94 0.43 c p3
329.99 507.36 0.43 c p3
330.13 505.27 0.43 c p3
330.28 508.00 0.43 c p3
330.43 505.88 0.43 c p3
330.57 507.58 0.43 c p3
330.72 506.51 0.43 c p3
330.86 507.36 0.43 c p3
331.01 507.15 0.43 c p3
331.15 507.36 0.43 c p3
331.30 506.51 0.43 c p3
331.44 507.36 0.43 c p3
331.59 506.51 0.43 c p3
331.74 506.30 0.43 c p3
331.88 506.94 0.43 c p3
332.03 506.30 0.43 c p3
332.17 506.09 0.43 c p3
332.32 506.09 0.43 c p3
332.46 506.51 0.43 c p3
332.61 505.88 0.43 c p3
332.75 507.15 0.43 c p3
332.90 506.73 0.43 c p3
333.05 506.51 0.43 c p3
333.19 506.51 0.43 c p3
333.34 506.94 0.43 c p3
333.48 506.51 0.43 c p3
333.63 507.36 0.43 c p3
333.77 506.30 0.43 c p3
333.92 506.09 0.43 c p3
334.07 506.09 0.43 c p3
334.21 506.51 0.43 c p3
334.36 507.58 0.43 c p3
334.50 506.73 0.43 c p3
334.65 506.51 0.43 c p3
334.79 506.30 0.43 c p3
334.94 507.36 0.43 c p3
335.08 507.15 0.43 c p3
335.23 506.94 0.43 c p3
335.38 507.58 0.43 c p3
335.52 506.09 0.43 c p3
335.67 506.09 0.43 c p3
335.81 506.09 0.43 c p3
335.96 506.73 0.43 c p3
336.10 507.15 0.43 c p3
336.25 506.73 0.43 c p3
336.39 506.30 0.43 c p3
336.54 507.79 0.43 c p3
336.69 506.09 0.43 c p3
336.83 506.94 0.43 c p3
336.98 507.79 0.43 c p3
337.12 505.27 0.43 c p3
337.27 507.15 0.43 c p3
337.41 505.27 0.43 c p3
337.56 507.15 0.43 c p3
337.70 506.94 0.43 c p3
337.85 505.88 0.43 c p3
338.00 507.79 0.43 c p3
338.14 506.09 0.43 c p3
338.29 506.94 0.43 c p3
338.43 507.58 0.43 c p3
338.58 508.43 0.43 c p3
338.72 506.51 0.43 c p3
338.87 507.36 0.43 c p3
339.02 506.73 0.43 c p3
339.16 506.73 0.43 c p3
339.31 507.36 0.43 c p3
339.45 506.94 0.43 c p3
339.60 506.09 0.43 c p3
339.74 506.51 0.43 c p3
339.89 506.51 0.43 c p3
340.03 506.30 0.43 c p3
340.18 505.66 0.43 c p3
340.33 506.73 0.43 c p3
340.47 506.09 0.43 c p3
340.62 508.00 0.43 c p3
340.76 506.30 0.43 c p3
340.91 506.73 0.43 c p3
341.05 508.85 0.43 c p3
341.20 507.36 0.43 c p3
341.34 506.73 0.43 c p3
341.49 505.06 0.43 c p3
341.64 506.94 0.43 c p3
341.78 506.09 0.43 c p3
341.93 506.30 0.43 c p3
342.07 505.88 0.43 c p3
342.22 505.88 0.43 c p3
342.36 507.58 0.43 c p3
342.51 507.15 0.43 c p3
342.65 506.73 0.43 c p3
342.80 507.15 0.43 c p3
342.95 508.00 0.43 c p3
343.09 506.51 0.43 c p3
343.24 506.73 0.43 c p3
343.38 506.30 0.43 c p3
343.53 506.94 0.43 c p3
343.67 506.30 0.43 c p3
343.82 507.15 0.43 c p3
343.97 507.36 0.43 c p3
344.11 506.73 0.43 c p3
344.26 506.09 0.43 c p3
344.40 506.73 0.43 c p3
344.55 507.15 0.43 c p3
344.69 506.30 0.43 c p3
344.84 508.00 0.43 c p3
344.98 506.73 0.43 c p3
345.13 507.15 0.43 c p3
345.28 506.51 0.43 c p3
345.42 506.94 0.43 c p3
345.57 507.15 0.43 c p3
345.71 504.85 0.43 c p3
345.86 505.88 0.43 c p3
346.00 507.15 0.43 c p3
346.15 506.94 0.43 c p3
346.29 507.15 0.43 c p3
346.44 507.79 0.43 c p3
346.59 505.88 0.43 c p3
346.73 506.51 0.43 c p3
346.88 506.51 0.43 c p3
347.02 507.15 0.43 c p3
347.17 507.58 0.43 c p3
347.31 509.06 0.43 c p3
347.46 507.15 0.43 c p3
347.60 507.58 0.43 c p3
347.75 506.30 0.43 c p3
347.90 506.51 0.43 c p3
348.04 506.94 0.43 c p3
348.19 507.15 0.43 c p3
348.33 505.88 0.43 c p3
348.48 506.51 0.43 c p3
348.62 506.73 0.43 c p3
348.77 508.00 0.43 c p3
348.92 506.30 0.43 c p3
349.06 507.36 0.43 c p3
349.21 506.94 0.43 c p3
349.35 506.51 0.43 c p3
349.50 506.51 0.43 c p3
349.64 507.15 0.43 c p3
349.79 504.64 0.43 c p3
349.93 506.94 0.43 c p3
350.08 507.36 0.43 c p3
350.23 507.58 0.43 c p3
350.37 506.51 0.43 c p3
350.52 505.06 0.43 c p3
350.66 506.73 0.43 c p3
350.81 506.73 0.43 c p3
350.95 506.51 0.43 c p3
351.10 506.09 0.43 c p3
351.24 505.66 0.43 c p3
351.39 506.73 0.43 c p3
351.54 507.36 0.43 c p3
351.68 505.49 0.43 c p3
351.83 506.30 0.43 c p3
351.97 506.09 0.43 c p3
352.12 505.88 0.43 c p3
352.26 506.51 0.43 c p3
352.41 506.51 0.43 c p3
352.55 507.15 0.43 c p3
352.70 506.94 0.43 c p3
352.85 506.73 0.43 c p3
352.99 506.30 0.43 c p3
353.14 506.51 0.43 c p3
353.28 507.15 0.43 c p3
353.43 507.36 0.43 c p3
353.57 507.15 0.43 c p3
353.72 505.88 0.43 c p3
353.86 505.88 0.43 c p3
354.01 506.09 0.43 c p3
354.16 508.00 0.43 c p3
354.30 507.58 0.43 c p3
354.45 505.06 0.43 c p3
354.59 505.66 0.43 c p3
354.74 506.94 0.43 c p3
354.88 506.94 0.43 c p3
355.03 507.15 0.43 c p3
355.18 505.27 0.43 c p3
355.32 506.09 0.43 c p3
355.47 506.09 0.43 c p3
355.61 507.15 0.43 c p3
355.76 506.94 0.43 c p3
355.90 506.94 0.43 c p3
356.05 505.66 0.43 c p3
356.19 507.79 0.43 c p3
356.34 507.15 0.43 c p3
356.49 507.58 0.43 c p3
356.63 506.73 0.43 c p3
356.78 507.36 0.43 c p3
356.92 507.36 0.43 c p3
357.07 506.09 0.43 c p3
357.21 506.30 0.43 c p3
357.36 506.30 0.43 c p3
357.50 506.30 0.43 c p3
357.65 506.51 0.43 c p3
357.80 506.09 0.43 c p3
357.94 506.30 0.43 c p3
358.09 505.88 0.43 c p3
358.23 506.51 0.43 c p3
358.38 506.51 0.43 c p3
358.52 506.30 0.43 c p3
358.67 506.09 0.43 c p3
358.81 505.88 0.43 c p3
358.96 505.66 0.43 c p3
359.11 507.15 0.43 c p3
359.25 506.30 0.43 c p3
359.40 505.66 0.43 c p3
359.54 506.73 0.43 c p3
359.69 506.30 0.43 c p3
359.83 507.15 0.43 c p3
359.98 507.36 0.43 c p3
360.13 504.64 0.43 c p3
360.27 506.51 0.43 c p3
360.42 506.30 0.43 c p3
360.56 506.73 0.43 c p3
360.71 505.66 0.43 c p3
360.85 506.73 0.43 c p3
361.00 505.88 0.43 c p3
361.14 506.73 0.43 c p3
361.29 506.30 0.43 c p3
361.44 506.94 0.43 c p3
361.58 505.66 0.43 c p3
361.73 506.09 0.43 c p3
361.87 507.36 0.43 c p3
362.02 506.09 0.43 c p3
362.16 508.00 0.43 c p3
362.31 505.06 0.43 c p3
362.45 506.30 0.43 c p3
362.60 506.51 0.43 c p3
362.75 506.09 0.43 c p3
362.89 506.73 0.43 c p3
363.04 505.27 0.43 c p3
363.18 506.09 0.43 c p3
363.33 506.09 0.43 c p3
363.47 506.30 0.43 c p3
363.62 506.73 0.43 c p3
363.76 506.30 0.43 c p3
363.91 506.30 0.43 c p3
364.06 506.51 0.43 c p3
364.20 506.73 0.43 c p3
364.35 506.94 0.43 c p3
364.49 505.88 0.43 c p3
364.64 506.94 0.43 c p3
364.78 506.30 0.43 c p3
364.93 507.36 0.43 c p3
365.08 506.94 0.43 c p3
365.22 506.30 0.43 c p3
365.37 506.09 0.43 c p3
365.51 505.66 0.43 c p3
365.66 506.09 0.43 c p3
365.80 506.94 0.43 c p3
365.95 506.73 0.43 c p3
366.09 506.94 0.43 c p3
366.24 506.51 0.43 c p3
366.39 506.51 0.43 c p3
366.53 506.51 0.43 c p3
366.68 505.66 0.43 c p3
366.82 505.88 0.43 c p3
366.97 506.30 0.43 c p3
367.11 506.94 0.43 c p3
367.26 505.88 0.43 c p3
367.40 506.51 0.43 c p3
367.55 506.09 0.43 c p3
367.70 507.58 0.43 c p3
367.84 506.30 0.43 c p3
367.99 505.88 0.43 c p3
368.13 506.73 0.43 c p3
368.28 505.88 0.43 c p3
368.42 507.15 0.43 c p3
368.57 506.30 0.43 c p3
368.71 506.73 0.43 c p3
368.86 505.66 0.43 c p3
369.01 506.51 0.43 c p3
369.15 505.27 0.43 c p3
369.30 506.51 0.43 c p3
369.44 506.09 0.43 c p3
369.59 506.30 0.43 c p3
369.73 507.36 0.43 c p3
369.88 506.51 0.43 c p3
370.03 506.73 0.43 c p3
370.17 506.51 0.43 c p3
370.32 505.27 0.43 c p3
370.46 506.30 0.43 c p3
370.61 505.27 0.43 c p3
370.75 506.09 0.43 c p3
370.90 505.88 0.43 c p3
371.04 505.06 0.43 c p3
371.19 506.94 0.43 c p3
371.34 506.73 0.43 c p3
371.48 507.79 0.43 c p3
371.63 507.79 0.43 c p3
371.77 506.30 0.43 c p3
371.92 506.30 0.43 c p3
372.06 506.94 0.43 c p3
372.21 505.49 0.43 c p3
372.35 506.94 0.43 c p3
372.50 506.09 0.43 c p3
372.65 506.09 0.43 c p3
372.79 506.30 0.43 c p3
372.94 507.36 0.43 c p3
373.08 506.09 0.43 c p3
373.23 505.88 0.43 c p3
373.37 504.64 0.43 c p3
373.52 507.36 0.43 c p3
373.66 506.94 0.43 c p3
373.81 506.30 0.43 c p3
373.96 507.58 0.43 c p3
374.10 506.30 0.43 c p3
374.25 505.27 0.43 c p3
374.39 507.79 0.43 c p3
374.54 506.51 0.43 c p3
374.68 506.30 0.43 c p3
374.83 505.27 0.43 c p3
374.98 506.51 0.43 c p3
375.12 506.30 0.43 c p3
375.27 505.27 0.43 c p3
375.41 507.58 0.43 c p3
375.56 507.58 0.43 c p3
375.70 507.15 0.43 c p3
375.85 505.88 0.43 c p3
375.99 506.51 0.43 c p3
376.14 507.15 0.43 c p3
376.29 506.30 0.43 c p3
376.43 508.00 0.43 c p3
376.58 506.09 0.43 c p3
376.72 506.94 0.43 c p3
376.87 505.66 0.43 c p3
377.01 507.36 0.43 c p3
377.16 505.66 0.43 c p3
377.30 506.30 0.43 c p3
377.45 506.73 0.43 c p3
377.60 507.58 0.43 c p3
377.74 506.30 0.43 c p3
377.89 505.66 0.43 c p3
378.03 506.30 0.43 c p3
378.18 506.94 0.43 c p3
378.32 506.09 0.43 c p3
378.47 505.49 0.43 c p3
378.61 506.94 0.43 c p3
378.76 505.88 0.43 c p3
378.91 505.49 0.43 c p3
379.05 506.51 0.43 c p3
379.20 505.88 0.43 c p3
379.34 505.27 0.43 c p3
379.49 506.51 0.43 c p3
379.63 508.21 0.43 c p3
379.78 506.30 0.43 c p3
379.93 506.30 0.43 c p3
380.07 507.36 0.43 c p3
380.22 505.06 0.43 c p3
380.36 505.49 0.43 c p3
380.51 506.30 0.43 c p3
380.65 506.30 0.43 c p3
380.80 506.09 0.43 c p3
380.94 506.09 0.43 c p3
381.09 506.09 0.43 c p3
381.24 506.09 0.43 c p3
381.38 505.66 0.43 c p3
381.53 506.94 0.43 c p3
381.67 505.88 0.43 c p3
381.82 506.30 0.43 c p3
381.96 506.51 0.43 c p3
382.11 505.49 0.43 c p3
382.25 506.94 0.43 c p3
382.40 506.51 0.43 c p3
0.00 0.00 432.00 576.00 cl
0 0 0 srgb
0.75 setlinewidth
[] 0 setdash
1 setlinecap
1 setlinejoin
10.00 setmiterlimit
np
236.96 345.60 m
145.59 0 l
o
np
236.96 345.60 m
0 -5.76 l
o
np
285.49 345.60 m
0 -5.76 l
o
np
334.02 345.60 m
0 -5.76 l
o
np
382.55 345.60 m
0 -5.76 l
o
/Font1 findfont 10 s
236.96 329.47 (0) .5 0 t
285.49 329.47 (500) .5 0 t
334.02 329.47 (1000) .5 0 t
382.55 329.47 (1500) .5 0 t
np
216.00 352.00 m
0 144.99 l
o
np
216.00 352.00 m
-5.76 0 l
o
np
216.00 381.00 m
-5.76 0 l
o
np
216.00 409.99 m
-5.76 0 l
o
np
216.00 438.99 m
-5.76 0 l
o
np
216.00 467.99 m
-5.76 0 l
o
np
216.00 496.99 m
-5.76 0 l
o
209.09 348.41 (0.00) 1 0 t
209.09 377.41 (0.05) 1 0 t
209.09 406.40 (0.10) 1 0 t
209.09 435.40 (0.15) 1 0 t
209.09 464.40 (0.20) 1 0 t
209.09 493.40 (0.25) 1 0 t
np
216.00 345.60 m
172.80 0 l
0 172.80 l
-172.80 0 l
0 -172.80 l
o
0.00 0.00 432.00 576.00 cl
/Font1 findfont 10 s
0 0 0 srgb
302.40 313.34 (Time / ms \(total\)) .5 0 t
190.66 432.00 (U / V) .5 90 t
216.00 345.60 388.80 518.40 cl
0 0 0 srgb
0.38 setlinewidth
[ 1.13 1.88] 0 setdash
1 setlinecap
1 setlinejoin
10.00 setmiterlimit
np
222.98 345.60 m
0 172.80 l
o
np
235.07 345.60 m
0 172.80 l
o
np
238.27 345.60 m
0 172.80 l
o
np
319.22 345.60 m
0 172.80 l
o
86.40 57.60 388.80 288.00 cl
1 0 0 srgb
1.50 setlinewidth
[] 0 setdash
1 setlinecap
1 setlinejoin
10.00 setmiterlimit
np
97.60 279.47 m
1.41 -8.53 l
1.40 -8.16 l
1.41 -7.82 l
1.41 -7.48 l
1.41 -7.17 l
1.40 -6.86 l
1.41 -6.58 l
1.41 -6.29 l
1.40 -6.03 l
1.41 -5.77 l
1.41 -5.52 l
1.40 -5.30 l
1.41 -5.06 l
1.41 -4.86 l
1.41 -4.64 l
1.40 -4.45 l
1.41 -4.26 l
1.41 -4.08 l
1.40 -3.91 l
1.41 -3.74 l
1.41 -3.58 l
1.40 -3.43 l
1.41 -3.29 l
1.41 -3.14 l
1.41 -3.02 l
1.40 -2.88 l
1.41 -2.76 l
1.41 -2.65 l
1.40 -2.53 l
1.41 -2.43 l
1.41 -2.32 l
1.41 -2.22 l
1.40 -2.13 l
1.41 -2.04 l
1.41 -1.96 l
1.40 -1.87 l
1.41 -1.79 l
1.41 -1.71 l
1.40 -1.64 l
1.41 -1.58 l
1.41 -1.50 l
1.41 -1.44 l
1.40 -1.38 l
1.41 -1.33 l
1.41 -1.26 l
1.40 -1.21 l
1.41 -1.17 l
1.41 -1.11 l
1.40 -1.06 l
1.41 -1.02 l
1.41 -0.98 l
1.41 -0.93 l
1.40 -0.90 l
1.41 -0.85 l
1.41 -0.82 l
1.40 -0.79 l
1.41 -0.75 l
1.41 -0.72 l
1.41 -0.69 l
1.40 -0.66 l
1.41 -0.64 l
1.41 -0.60 l
1.40 -0.58 l
1.41 -0.56 l
1.41 -0.53 l
1.40 -0.51 l
1.41 -0.49 l
1.41 -0.47 l
1.41 -0.44 l
1.40 -0.43 l
1.41 -0.41 l
1.41 -0.39 l
1.40 -0.38 l
1.41 -0.36 l
1.41 -0.35 l
1.40 -0.33 l
1.41 -0.31 l
1.41 -0.31 l
1.41 -0.29 l
1.40 -0.27 l
1.41 -0.27 l
1.41 -0.25 l
1.40 -0.25 l
1.41 -0.23 l
1.41 -0.22 l
1.41 -0.22 l
1.40 -0.20 l
1.41 -0.20 l
1.41 -0.19 l
1.40 -0.18 l
1.41 -0.17 l
1.41 -0.17 l
1.40 -0.15 l
1.41 -0.16 l
1.41 -0.14 l
1.41 -0.14 l
1.40 -0.13 l
1.41 -0.13 l
1.41 -0.12 l
238.30 81.13 lineto
1.41 -0.11 l
1.41 -0.11 l
1.40 -0.10 l
1.41 -0.10 l
1.41 -0.09 l
1.41 -0.09 l
1.40 -0.09 l
1.41 -0.08 l
1.41 -0.08 l
1.40 -0.07 l
1.41 -0.08 l
1.41 -0.07 l
1.40 -0.06 l
1.41 -0.07 l
1.41 -0.06 l
1.41 -0.06 l
1.40 -0.05 l
1.41 -0.06 l
1.41 -0.05 l
1.40 -0.05 l
1.41 -0.04 l
1.41 -0.05 l
1.41 -0.04 l
1.40 -0.04 l
1.41 -0.04 l
1.41 -0.04 l
1.40 -0.04 l
1.41 -0.03 l
1.41 -0.03 l
1.40 -0.04 l
1.41 -0.03 l
1.41 -0.02 l
1.41 -0.03 l
1.40 -0.03 l
1.41 -0.03 l
1.41 -0.02 l
1.40 -0.02 l
1.41 -0.03 l
1.41 -0.02 l
1.40 -0.02 l
1.41 -0.02 l
1.41 -0.02 l
1.41 -0.01 l
1.40 -0.02 l
1.41 -0.02 l
1.41 -0.01 l
1.40 -0.02 l
1.41 -0.01 l
1.41 -0.02 l
1.41 -0.01 l
1.40 -0.01 l
1.41 -0.02 l
1.41 -0.01 l
1.40 -0.01 l
1.41 -0.01 l
1.41 -0.01 l
1.40 -0.01 l
1.41 -0.01 l
1.41 -0.01 l
1.41 -0.01 l
1.40 -0.01 l
1.41 0 l
1.41 -0.01 l
1.40 -0.01 l
1.41 -0.01 l
1.41 0 l
1.40 -0.01 l
1.41 0 l
1.41 -0.01 l
1.41 -0.01 l
1.40 0 l
1.41 -0.01 l
1.41 0 l
1.40 -0.01 l
1.41 0 l
1.41 -0.01 l
1.41 0 l
1.40 0 l
1.41 -0.01 l
1.41 0 l
1.40 0 l
1.41 -0.01 l
1.41 0 l
1.40 0 l
1.41 -0.01 l
1.41 0 l
1.41 0 l
1.40 -0.01 l
1.41 0 l
1.41 0 l
1.40 0 l
1.41 0 l
1.41 -0.01 l
1.40 0 l
1.41 0 l
1.41 0 l
1.41 0 l
1.40 -0.01 l
1.41 0 l
o
0.00 0.00 432.00 576.00 cl
0 0 0 srgb
0.75 setlinewidth
[] 0 setdash
1 setlinecap
1 setlinejoin
10.00 setmiterlimit
np
97.60 57.60 m
280.00 0 l
o
np
97.60 57.60 m
0 -5.76 l
o
np
190.93 57.60 m
0 -5.76 l
o
np
284.27 57.60 m
0 -5.76 l
o
np
377.60 57.60 m
0 -5.76 l
o
/Font1 findfont 10 s
97.60 41.47 (0) .5 0 t
190.93 41.47 (500) .5 0 t
284.27 41.47 (1000) .5 0 t
377.60 41.47 (1500) .5 0 t
np
86.40 66.13 m
0 208.04 l
o
np
86.40 66.13 m
-5.76 0 l
o
np
86.40 95.85 m
-5.76 0 l
o
np
86.40 125.57 m
-5.76 0 l
o
np
86.40 155.29 m
-5.76 0 l
o
np
86.40 185.01 m
-5.76 0 l
o
np
86.40 214.73 m
-5.76 0 l
o
np
86.40 244.45 m
-5.76 0 l
o
np
86.40 274.17 m
-5.76 0 l
o
79.49 62.54 (0.00) 1 0 t
79.49 92.26 (0.02) 1 0 t
79.49 121.98 (0.04) 1 0 t
79.49 151.70 (0.06) 1 0 t
79.49 181.42 (0.08) 1 0 t
79.49 211.14 (0.10) 1 0 t
79.49 240.86 (0.12) 1 0 t
79.49 270.58 (0.14) 1 0 t
np
86.40 57.60 m
302.40 0 l
0 230.40 l
-302.40 0 l
0 -230.40 l
o
0.00 0.00 432.00 576.00 cl
/Font1 findfont 10 s
0 0 0 srgb
237.60 13.82 (Time / ms \(after pulse\)) .5 0 t
49.54 172.80 (Absorbance A) .5 90 t
86.40 57.60 388.80 288.00 cl
/bg { 1 1 1 srgb } def
0 0 0 srgb
0.75 setlinewidth
[] 0 setdash
1 setlinecap
1 setlinejoin
10.00 setmiterlimit
100.40 266.49 0.65 c p3
100.68 264.13 0.65 c p3
100.96 266.49 0.65 c p3
101.24 258.26 0.65 c p3
101.52 245.74 0.65 c p3
101.80 258.26 0.65 c p3
102.08 257.10 0.65 c p3
102.36 261.78 0.65 c p3
102.64 248.99 0.65 c p3
102.92 242.31 0.65 c p3
103.20 233.26 0.65 c p3
103.48 244.59 0.65 c p3
103.76 250.14 0.65 c p3
104.04 242.31 0.65 c p3
104.32 241.17 0.65 c p3
104.60 235.51 0.65 c p3
104.88 244.59 0.65 c p3
105.16 235.51 0.65 c p3
105.44 241.17 0.65 c p3
105.72 235.51 0.65 c p3
106.00 236.64 0.65 c p3
106.28 233.26 0.65 c p3
106.56 227.67 0.65 c p3
106.84 234.39 0.65 c p3
107.12 231.02 0.65 c p3
107.40 222.12 0.65 c p3
107.68 215.72 0.65 c p3
107.96 226.56 0.65 c p3
108.24 214.62 0.65 c p3
108.52 227.67 0.65 c p3
108.80 218.82 0.65 c p3
109.08 212.44 0.65 c p3
109.36 214.62 0.65 c p3
109.64 213.53 0.65 c p3
109.92 219.92 0.65 c p3
110.20 221.02 0.65 c p3
110.48 216.81 0.65 c p3
110.76 201.66 0.65 c p3
111.04 213.53 0.65 c p3
111.32 210.27 0.65 c p3
111.60 208.11 0.65 c p3
111.88 214.62 0.65 c p3
112.16 204.88 0.65 c p3
112.44 204.88 0.65 c p3
112.72 208.11 0.65 c p3
113.00 207.03 0.65 c p3
113.28 207.03 0.65 c p3
113.56 202.73 0.65 c p3
113.84 205.95 0.65 c p3
114.12 203.80 0.65 c p3
114.40 204.88 0.65 c p3
114.68 198.46 0.65 c p3
114.96 202.73 0.65 c p3
115.24 196.33 0.65 c p3
115.52 199.52 0.65 c p3
115.80 190.00 0.65 c p3
116.08 191.05 0.65 c p3
116.36 195.27 0.65 c p3
116.64 185.99 0.65 c p3
116.92 199.52 0.65 c p3
117.20 190.00 0.65 c p3
117.48 188.95 0.65 c p3
117.76 185.99 0.65 c p3
118.04 179.75 0.65 c p3
118.32 180.79 0.65 c p3
118.60 181.82 0.65 c p3
118.88 178.72 0.65 c p3
119.16 179.75 0.65 c p3
119.44 184.94 0.65 c p3
119.72 176.66 0.65 c p3
120.00 181.82 0.65 c p3
120.28 172.55 0.65 c p3
120.56 178.72 0.65 c p3
120.84 175.63 0.65 c p3
121.12 175.63 0.65 c p3
121.40 172.55 0.65 c p3
121.68 175.63 0.65 c p3
121.96 177.69 0.65 c p3
122.24 170.51 0.65 c p3
122.52 173.58 0.65 c p3
122.80 167.46 0.65 c p3
123.08 173.58 0.65 c p3
123.36 172.55 0.65 c p3
123.64 171.53 0.65 c p3
123.92 167.46 0.65 c p3
124.20 163.42 0.65 c p3
124.48 162.41 0.65 c p3
124.76 162.41 0.65 c p3
125.04 163.42 0.65 c p3
125.32 157.56 0.65 c p3
125.60 162.41 0.65 c p3
125.88 157.56 0.65 c p3
126.16 157.56 0.65 c p3
126.44 154.57 0.65 c p3
126.72 155.57 0.65 c p3
127.00 158.56 0.65 c p3
127.28 160.57 0.65 c p3
127.56 163.42 0.65 c p3
127.84 155.57 0.65 c p3
128.12 161.40 0.65 c p3
128.40 158.56 0.65 c p3
128.68 157.56 0.65 c p3
128.96 154.57 0.65 c p3
129.24 153.58 0.65 c p3
129.52 153.58 0.65 c p3
129.80 149.62 0.65 c p3
130.08 156.56 0.65 c p3
130.36 150.61 0.65 c p3
130.64 146.67 0.65 c p3
130.92 146.67 0.65 c p3
131.20 150.61 0.65 c p3
131.48 151.60 0.65 c p3
131.76 147.65 0.65 c p3
132.04 147.65 0.65 c p3
132.32 141.77 0.65 c p3
132.60 148.64 0.65 c p3
132.88 140.80 0.65 c p3
133.16 145.69 0.65 c p3
133.44 144.71 0.65 c p3
133.72 145.69 0.65 c p3
134.00 142.75 0.65 c p3
134.28 137.89 0.65 c p3
134.56 143.73 0.65 c p3
134.84 137.89 0.65 c p3
135.12 138.86 0.65 c p3
135.40 134.98 0.65 c p3
135.68 149.62 0.65 c p3
135.96 134.98 0.65 c p3
136.24 140.80 0.65 c p3
136.52 136.92 0.65 c p3
136.80 134.98 0.65 c p3
137.08 144.71 0.65 c p3
137.36 131.30 0.65 c p3
137.64 137.89 0.65 c p3
137.92 133.22 0.65 c p3
138.20 141.77 0.65 c p3
138.48 129.38 0.65 c p3
138.76 135.95 0.65 c p3
139.04 135.95 0.65 c p3
139.32 137.89 0.65 c p3
139.60 136.92 0.65 c p3
139.88 131.30 0.65 c p3
140.16 138.86 0.65 c p3
140.44 130.34 0.65 c p3
140.72 133.22 0.65 c p3
141.00 127.47 0.65 c p3
141.28 130.34 0.65 c p3
141.56 123.67 0.65 c p3
141.84 133.22 0.65 c p3
142.12 133.22 0.65 c p3
142.40 128.43 0.65 c p3
142.68 131.30 0.65 c p3
142.96 122.72 0.65 c p3
143.24 130.34 0.65 c p3
143.52 123.67 0.65 c p3
143.80 129.38 0.65 c p3
144.08 123.67 0.65 c p3
144.36 124.62 0.65 c p3
144.64 127.47 0.65 c p3
144.92 123.67 0.65 c p3
145.20 131.30 0.65 c p3
145.48 128.43 0.65 c p3
145.76 126.52 0.65 c p3
146.04 119.89 0.65 c p3
146.32 122.72 0.65 c p3
146.60 129.38 0.65 c p3
146.88 122.72 0.65 c p3
147.16 130.34 0.65 c p3
147.44 122.72 0.65 c p3
147.72 119.89 0.65 c p3
148.00 118.01 0.65 c p3
148.28 125.57 0.65 c p3
148.56 117.07 0.65 c p3
148.84 120.83 0.65 c p3
149.12 121.78 0.65 c p3
149.40 118.95 0.65 c p3
149.68 128.43 0.65 c p3
149.96 118.95 0.65 c p3
150.24 119.89 0.65 c p3
150.52 116.13 0.65 c p3
150.80 127.47 0.65 c p3
151.08 114.26 0.65 c p3
151.36 120.83 0.65 c p3
151.64 111.47 0.65 c p3
151.92 113.33 0.65 c p3
152.20 121.78 0.65 c p3
152.48 116.13 0.65 c p3
152.76 126.52 0.65 c p3
153.04 111.47 0.65 c p3
153.32 117.07 0.65 c p3
153.60 115.20 0.65 c p3
153.88 117.07 0.65 c p3
154.16 109.61 0.65 c p3
154.44 115.20 0.65 c p3
154.72 122.72 0.65 c p3
155.00 108.83 0.65 c p3
155.28 114.26 0.65 c p3
155.56 113.33 0.65 c p3
155.84 116.13 0.65 c p3
156.12 110.54 0.65 c p3
156.40 114.26 0.65 c p3
156.68 110.54 0.65 c p3
156.96 111.47 0.65 c p3
157.24 114.26 0.65 c p3
157.52 107.91 0.65 c p3
157.80 113.33 0.65 c p3
158.08 108.83 0.65 c p3
158.36 112.40 0.65 c p3
158.64 108.83 0.65 c p3
158.92 113.33 0.65 c p3
159.20 114.26 0.65 c p3
159.48 109.61 0.65 c p3
159.76 104.22 0.65 c p3
160.04 106.99 0.65 c p3
160.32 108.83 0.65 c p3
160.60 105.14 0.65 c p3
160.88 105.14 0.65 c p3
161.16 106.06 0.65 c p3
161.44 106.06 0.65 c p3
161.72 109.61 0.65 c p3
162.00 104.22 0.65 c p3
162.28 103.30 0.65 c p3
162.56 102.38 0.65 c p3
162.84 106.99 0.65 c p3
163.12 103.30 0.65 c p3
163.40 106.99 0.65 c p3
163.68 106.06 0.65 c p3
163.96 96.90 0.65 c p3
164.24 103.30 0.65 c p3
164.52 108.83 0.65 c p3
164.80 106.06 0.65 c p3
165.08 97.81 0.65 c p3
165.36 104.22 0.65 c p3
165.64 101.47 0.65 c p3
165.92 104.22 0.65 c p3
166.20 106.06 0.65 c p3
166.48 98.73 0.65 c p3
166.76 102.38 0.65 c p3
167.04 95.99 0.65 c p3
167.32 100.55 0.65 c p3
167.60 96.90 0.65 c p3
167.88 106.06 0.65 c p3
168.16 95.99 0.65 c p3
168.44 101.47 0.65 c p3
168.72 97.81 0.65 c p3
169.00 96.90 0.65 c p3
169.28 102.38 0.65 c p3
169.56 95.09 0.65 c p3
169.84 99.64 0.65 c p3
170.12 97.81 0.65 c p3
170.40 101.47 0.65 c p3
170.68 97.81 0.65 c p3
170.96 101.47 0.65 c p3
171.24 94.18 0.65 c p3
171.52 103.30 0.65 c p3
171.80 95.09 0.65 c p3
172.08 105.14 0.65 c p3
172.36 95.09 0.65 c p3
172.64 93.28 0.65 c p3
172.92 101.47 0.65 c p3
173.20 93.28 0.65 c p3
173.48 94.18 0.65 c p3
173.76 93.28 0.65 c p3
174.04 97.81 0.65 c p3
174.32 95.09 0.65 c p3
174.60 96.90 0.65 c p3
174.88 97.81 0.65 c p3
175.16 97.81 0.65 c p3
175.44 101.47 0.65 c p3
175.72 94.18 0.65 c p3
176.00 105.14 0.65 c p3
176.28 89.67 0.65 c p3
176.56 96.90 0.65 c p3
176.84 92.37 0.65 c p3
177.12 87.87 0.65 c p3
177.40 96.90 0.65 c p3
177.68 95.99 0.65 c p3
177.96 94.18 0.65 c p3
178.24 93.28 0.65 c p3
178.52 98.73 0.65 c p3
178.80 94.18 0.65 c p3
179.08 92.37 0.65 c p3
179.36 93.28 0.65 c p3
179.64 91.47 0.65 c p3
179.92 91.47 0.65 c p3
180.20 92.37 0.65 c p3
180.48 97.81 0.65 c p3
180.76 95.99 0.65 c p3
181.04 97.81 0.65 c p3
181.32 94.18 0.65 c p3
181.60 95.09 0.65 c p3
181.88 89.67 0.65 c p3
182.16 90.57 0.65 c p3
182.44 96.90 0.65 c p3
182.72 91.47 0.65 c p3
183.00 95.99 0.65 c p3
183.28 94.18 0.65 c p3
183.56 98.73 0.65 c p3
183.84 91.47 0.65 c p3
184.12 95.99 0.65 c p3
184.40 97.81 0.65 c p3
184.68 94.18 0.65 c p3
184.96 93.28 0.65 c p3
185.24 95.99 0.65 c p3
185.52 96.90 0.65 c p3
185.80 89.67 0.65 c p3
186.08 96.90 0.65 c p3
186.36 87.87 0.65 c p3
186.64 95.99 0.65 c p3
186.92 87.87 0.65 c p3
187.20 94.18 0.65 c p3
187.48 87.87 0.65 c p3
187.76 94.18 0.65 c p3
188.04 95.09 0.65 c p3
188.32 86.08 0.65 c p3
188.60 91.47 0.65 c p3
188.88 87.87 0.65 c p3
189.16 96.90 0.65 c p3
189.44 87.87 0.65 c p3
189.72 88.77 0.65 c p3
190.00 90.57 0.65 c p3
190.28 92.37 0.65 c p3
190.56 91.47 0.65 c p3
190.84 87.87 0.65 c p3
191.12 97.81 0.65 c p3
191.40 84.44 0.65 c p3
191.68 95.09 0.65 c p3
191.96 84.44 0.65 c p3
192.24 93.28 0.65 c p3
192.52 90.57 0.65 c p3
192.80 88.77 0.65 c p3
193.08 91.47 0.65 c p3
193.36 92.37 0.65 c p3
193.64 93.28 0.65 c p3
193.92 86.98 0.65 c p3
194.20 89.67 0.65 c p3
194.48 83.55 0.65 c p3
194.76 88.77 0.65 c p3
195.04 86.08 0.65 c p3
195.32 85.19 0.65 c p3
195.60 91.47 0.65 c p3
195.88 86.98 0.65 c p3
196.16 89.67 0.65 c p3
196.44 81.78 0.65 c p3
196.72 90.57 0.65 c p3
197.00 82.66 0.65 c p3
197.28 87.87 0.65 c p3
197.56 83.55 0.65 c p3
197.84 86.98 0.65 c p3
198.12 89.67 0.65 c p3
198.40 87.87 0.65 c p3
198.68 89.67 0.65 c p3
198.96 82.66 0.65 c p3
199.24 92.37 0.65 c p3
199.52 85.19 0.65 c p3
199.80 87.87 0.65 c p3
200.08 82.66 0.65 c p3
200.36 87.87 0.65 c p3
200.64 85.19 0.65 c p3
200.92 80.00 0.65 c p3
201.20 88.77 0.65 c p3
201.48 83.55 0.65 c p3
201.76 81.78 0.65 c p3
202.04 86.08 0.65 c p3
202.32 87.87 0.65 c p3
202.60 89.67 0.65 c p3
202.88 88.77 0.65 c p3
203.16 83.55 0.65 c p3
203.44 86.98 0.65 c p3
203.72 86.98 0.65 c p3
204.00 79.12 0.65 c p3
204.28 91.47 0.65 c p3
204.56 74.71 0.65 c p3
204.84 91.47 0.65 c p3
205.12 81.78 0.65 c p3
205.40 90.57 0.65 c p3
205.68 84.44 0.65 c p3
205.96 85.19 0.65 c p3
206.24 93.28 0.65 c p3
206.52 86.98 0.65 c p3
206.80 92.37 0.65 c p3
207.08 82.66 0.65 c p3
207.36 86.98 0.65 c p3
207.64 81.78 0.65 c p3
207.92 86.98 0.65 c p3
208.20 87.87 0.65 c p3
208.48 88.77 0.65 c p3
208.76 88.77 0.65 c p3
209.04 81.78 0.65 c p3
209.32 88.77 0.65 c p3
209.60 82.66 0.65 c p3
209.88 85.19 0.65 c p3
210.16 80.00 0.65 c p3
210.44 85.19 0.65 c p3
210.72 84.44 0.65 c p3
211.00 80.00 0.65 c p3
211.28 86.98 0.65 c p3
211.56 86.08 0.65 c p3
211.84 90.57 0.65 c p3
212.12 80.00 0.65 c p3
212.40 86.08 0.65 c p3
212.68 79.12 0.65 c p3
212.96 90.57 0.65 c p3
213.24 83.55 0.65 c p3
213.52 78.23 0.65 c p3
213.80 86.98 0.65 c p3
214.08 80.89 0.65 c p3
214.36 87.87 0.65 c p3
214.64 81.78 0.65 c p3
214.92 88.77 0.65 c p3
215.20 82.66 0.65 c p3
215.48 83.55 0.65 c p3
215.76 85.19 0.65 c p3
216.04 80.00 0.65 c p3
216.32 87.87 0.65 c p3
216.60 78.23 0.65 c p3
216.88 85.19 0.65 c p3
217.16 78.23 0.65 c p3
217.44 86.08 0.65 c p3
217.72 85.19 0.65 c p3
218.00 83.55 0.65 c p3
218.28 82.66 0.65 c p3
218.56 82.66 0.65 c p3
218.84 83.55 0.65 c p3
219.12 85.19 0.65 c p3
219.40 86.08 0.65 c p3
219.68 81.78 0.65 c p3
219.96 84.44 0.65 c p3
220.24 81.78 0.65 c p3
220.52 85.19 0.65 c p3
220.80 83.55 0.65 c p3
221.08 80.89 0.65 c p3
221.36 85.19 0.65 c p3
221.64 86.98 0.65 c p3
221.92 82.66 0.65 c p3
222.20 75.59 0.65 c p3
222.48 84.44 0.65 c p3
222.76 80.89 0.65 c p3
223.04 82.66 0.65 c p3
223.32 76.47 0.65 c p3
223.60 77.35 0.65 c p3
223.88 82.66 0.65 c p3
224.16 78.23 0.65 c p3
224.44 86.98 0.65 c p3
224.72 79.12 0.65 c p3
225.00 81.78 0.65 c p3
225.28 78.23 0.65 c p3
225.56 85.19 0.65 c p3
225.84 81.78 0.65 c p3
226.12 76.47 0.65 c p3
226.40 84.44 0.65 c p3
226.68 82.66 0.65 c p3
226.96 78.23 0.65 c p3
227.24 78.23 0.65 c p3
227.52 85.19 0.65 c p3
227.80 84.44 0.65 c p3
228.08 85.19 0.65 c p3
228.36 80.89 0.65 c p3
228.64 84.44 0.65 c p3
228.92 83.55 0.65 c p3
229.20 81.78 0.65 c p3
229.48 87.87 0.65 c p3
229.76 81.78 0.65 c p3
230.04 89.67 0.65 c p3
230.32 78.23 0.65 c p3
230.60 86.08 0.65 c p3
230.88 75.59 0.65 c p3
231.16 86.98 0.65 c p3
231.44 80.00 0.65 c p3
231.72 80.00 0.65 c p3
232.00 83.55 0.65 c p3
232.28 79.12 0.65 c p3
232.56 85.19 0.65 c p3
232.84 85.19 0.65 c p3
233.12 83.55 0.65 c p3
233.40 78.23 0.65 c p3
233.68 78.23 0.65 c p3
233.96 80.89 0.65 c p3
234.24 79.12 0.65 c p3
234.52 85.19 0.65 c p3
234.80 79.12 0.65 c p3
235.08 86.08 0.65 c p3
235.36 76.47 0.65 c p3
235.64 83.55 0.65 c p3
235.92 82.66 0.65 c p3
236.20 80.89 0.65 c p3
236.48 83.55 0.65 c p3
236.76 81.78 0.65 c p3
237.04 83.55 0.65 c p3
237.32 77.35 0.65 c p3
237.60 86.08 0.65 c p3
237.88 80.89 0.65 c p3
238.16 81.78 0.65 c p3
238.44 79.12 0.65 c p3
238.72 83.55 0.65 c p3
239.00 78.23 0.65 c p3
239.28 82.66 0.65 c p3
239.56 81.78 0.65 c p3
239.84 78.23 0.65 c p3
240.12 86.98 0.65 c p3
240.40 75.59 0.65 c p3
240.68 80.89 0.65 c p3
240.96 78.23 0.65 c p3
241.24 82.66 0.65 c p3
241.52 79.12 0.65 c p3
241.80 76.47 0.65 c p3
242.08 85.19 0.65 c p3
242.36 73.83 0.65 c p3
242.64 85.19 0.65 c p3
242.92 75.59 0.65 c p3
243.20 88.77 0.65 c p3
243.48 77.35 0.65 c p3
243.76 81.78 0.65 c p3
244.04 82.66 0.65 c p3
244.32 77.35 0.65 c p3
244.60 82.66 0.65 c p3
244.88 79.12 0.65 c p3
245.16 86.98 0.65 c p3
245.44 77.35 0.65 c p3
245.72 82.66 0.65 c p3
246.00 80.89 0.65 c p3
246.28 86.08 0.65 c p3
246.56 81.78 0.65 c p3
246.84 77.35 0.65 c p3
247.12 78.23 0.65 c p3
247.40 80.00 0.65 c p3
247.68 81.78 0.65 c p3
247.96 78.23 0.65 c p3
248.24 82.66 0.65 c p3
248.52 79.12 0.65 c p3
248.80 81.78 0.65 c p3
249.08 82.66 0.65 c p3
249.36 85.19 0.65 c p3
249.64 80.00 0.65 c p3
249.92 79.12 0.65 c p3
250.20 81.78 0.65 c p3
250.48 79.12 0.65 c p3
250.76 81.78 0.65 c p3
251.04 74.71 0.65 c p3
251.32 85.19 0.65 c p3
251.60 74.71 0.65 c p3
251.88 80.89 0.65 c p3
252.16 72.95 0.65 c p3
252.44 80.00 0.65 c p3
252.72 83.55 0.65 c p3
253.00 79.12 0.65 c p3
253.28 84.44 0.65 c p3
253.56 79.12 0.65 c p3
253.84 84.44 0.65 c p3
254.12 75.59 0.65 c p3
254.40 79.12 0.65 c p3
254.68 75.59 0.65 c p3
254.96 81.78 0.65 c p3
255.24 80.00 0.65 c p3
255.52 76.47 0.65 c p3
255.80 80.00 0.65 c p3
256.08 76.47 0.65 c p3
216.00 201.60 367.20 247.68 cl
0 0 0 srgb
0.75 setlinewidth
[] 0 setdash
1 setlinecap
1 setlinejoin
10.00 setmiterlimit
221.60 228.24 0.43 c p1
221.85 227.46 0.43 c p1
222.10 231.36 0.43 c p1
222.36 224.75 0.43 c p1
222.61 213.88 0.43 c p1
222.86 227.80 0.43 c p1
223.11 228.14 0.43 c p1
223.36 234.26 0.43 c p1
223.61 223.08 0.43 c p1
223.87 217.93 0.43 c p1
224.12 210.42 0.43 c p1
224.37 223.08 0.43 c p1
224.62 230.00 0.43 c p1
224.87 223.66 0.43 c p1
225.13 223.93 0.43 c p1
225.38 219.72 0.43 c p1
225.63 230.09 0.43 c p1
225.88 222.46 0.43 c p1
226.13 229.42 0.43 c p1
226.38 225.15 0.43 c p1
226.64 227.60 0.43 c p1
226.89 225.57 0.43 c p1
227.14 221.35 0.43 c p1
227.39 229.29 0.43 c p1
227.64 227.25 0.43 c p1
227.89 219.71 0.43 c p1
228.15 214.63 0.43 c p1
228.40 226.62 0.43 c p1
228.65 216.05 0.43 c p1
228.90 230.19 0.43 c p1
229.15 222.66 0.43 c p1
229.41 217.55 0.43 c p1
229.66 220.91 0.43 c p1
229.91 221.02 0.43 c p1
230.16 228.52 0.43 c p1
230.41 230.78 0.43 c p1
230.66 227.77 0.43 c p1
230.92 213.92 0.43 c p1
231.17 226.81 0.43 c p1
231.42 224.72 0.43 c p1
231.67 223.69 0.43 c p1
231.92 231.25 0.43 c p1
232.18 222.70 0.43 c p1
232.43 223.79 0.43 c p1
232.68 228.08 0.43 c p1
232.93 228.08 0.43 c p1
233.18 229.14 0.43 c p1
233.43 225.94 0.43 c p1
233.69 230.18 0.43 c p1
233.94 229.08 0.43 c p1
234.19 231.18 0.43 c p1
234.44 225.84 0.43 c p1
234.69 231.08 0.43 c p1
234.95 225.75 0.43 c p1
235.20 229.90 0.43 c p1
235.45 221.45 0.43 c p1
235.70 223.47 0.43 c p1
235.95 228.62 0.43 c p1
236.20 220.38 0.43 c p1
236.46 234.73 0.43 c p1
236.71 226.25 0.43 c p1
236.96 226.14 0.43 c p1
237.21 224.13 0.43 c p1
237.46 218.88 0.43 c p1
237.72 220.81 0.43 c p1
237.97 222.74 0.43 c p1
238.22 220.56 0.43 c p1
238.47 222.47 0.43 c p1
238.72 228.49 0.43 c p1
238.97 221.16 0.43 c p1
239.23 227.14 0.43 c p1
239.48 218.82 0.43 c p1
239.73 225.77 0.43 c p1
239.98 223.56 0.43 c p1
240.23 224.39 0.43 c p1
240.48 222.18 0.43 c p1
240.74 226.04 0.43 c p1
240.99 228.89 0.43 c p1
241.24 222.59 0.43 c p1
241.49 226.43 0.43 c p1
241.74 221.17 0.43 c p1
242.00 228.01 0.43 c p1
242.25 227.78 0.43 c p1
242.50 227.54 0.43 c p1
242.75 224.27 0.43 c p1
243.00 221.03 0.43 c p1
243.25 220.79 0.43 c p1
243.51 221.53 0.43 c p1
243.76 223.27 0.43 c p1
244.01 218.21 0.43 c p1
244.26 223.73 0.43 c p1
244.51 219.66 0.43 c p1
244.77 220.37 0.43 c p1
245.02 218.12 0.43 c p1
245.27 219.81 0.43 c p1
245.52 223.47 0.43 c p1
245.77 226.14 0.43 c p1
246.02 229.65 0.43 c p1
246.28 222.56 0.43 c p1
246.53 229.01 0.43 c p1
246.78 226.86 0.43 c p1
247.03 226.54 0.43 c p1
247.28 224.23 0.43 c p1
247.54 223.90 0.43 c p1
247.79 224.54 0.43 c p1
248.04 221.26 0.43 c p1
248.29 228.77 0.43 c p1
248.54 223.50 0.43 c p1
248.79 220.22 0.43 c p1
249.05 220.84 0.43 c p1
249.30 225.36 0.43 c p1
249.55 226.94 0.43 c p1
249.80 223.63 0.43 c p1
250.05 224.23 0.43 c p1
250.31 219.01 0.43 c p1
250.56 226.39 0.43 c p1
250.81 219.21 0.43 c p1
251.06 224.62 0.43 c p1
251.31 224.22 0.43 c p1
251.56 225.76 0.43 c p1
251.82 223.42 0.43 c p1
252.07 219.16 0.43 c p1
252.32 225.49 0.43 c p1
252.57 220.26 0.43 c p1
252.82 221.76 0.43 c p1
253.07 218.46 0.43 c p1
253.33 233.49 0.43 c p1
253.58 219.53 0.43 c p1
253.83 225.81 0.43 c p1
254.08 222.49 0.43 c p1
254.33 221.09 0.43 c p1
254.59 231.22 0.43 c p1
254.84 218.45 0.43 c p1
255.09 225.48 0.43 c p1
255.34 221.36 0.43 c p1
255.59 230.32 0.43 c p1
255.84 218.54 0.43 c p1
256.10 225.53 0.43 c p1
256.35 226.01 0.43 c p1
256.60 228.40 0.43 c p1
256.85 227.92 0.43 c p1
257.10 222.82 0.43 c p1
257.36 230.77 0.43 c p1
257.61 222.80 0.43 c p1
257.86 226.10 0.43 c p1
258.11 220.87 0.43 c p1
258.36 224.15 0.43 c p1
258.61 218.00 0.43 c p1
258.87 227.89 0.43 c p1
259.12 228.33 0.43 c p1
259.37 224.02 0.43 c p1
259.62 227.29 0.43 c p1
259.87 219.23 0.43 c p1
260.13 227.19 0.43 c p1
260.38 221.01 0.43 c p1
260.63 227.08 0.43 c p1
260.88 221.83 0.43 c p1
261.13 223.18 0.43 c p1
261.38 226.41 0.43 c p1
261.64 223.05 0.43 c p1
261.89 231.00 0.43 c p1
262.14 228.55 0.43 c p1
262.39 227.05 0.43 c p1
262.64 220.88 0.43 c p1
262.89 224.07 0.43 c p1
263.15 231.04 0.43 c p1
263.40 224.82 0.43 c p1
263.65 232.74 0.43 c p1
263.90 225.57 0.43 c p1
264.15 223.13 0.43 c p1
264.41 221.63 0.43 c p1
264.66 229.48 0.43 c p1
264.91 221.42 0.43 c p1
265.16 225.51 0.43 c p1
265.41 226.79 0.43 c p1
265.66 224.34 0.43 c p1
265.92 234.07 0.43 c p1
266.17 225.03 0.43 c p1
266.42 226.31 0.43 c p1
266.67 222.92 0.43 c p1
266.92 234.49 0.43 c p1
267.18 221.74 0.43 c p1
267.43 228.57 0.43 c p1
267.68 219.62 0.43 c p1
267.93 221.79 0.43 c p1
268.18 230.48 0.43 c p1
268.43 225.21 0.43 c p1
268.69 235.81 0.43 c p1
268.94 221.21 0.43 c p1
269.19 227.07 0.43 c p1
269.44 225.52 0.43 c p1
269.69 227.68 0.43 c p1
269.95 220.60 0.43 c p1
270.20 226.43 0.43 c p1
270.45 234.18 0.43 c p1
270.70 220.72 0.43 c p1
270.95 226.39 0.43 c p1
271.20 225.75 0.43 c p1
271.46 228.81 0.43 c p1
271.71 223.56 0.43 c p1
271.96 227.53 0.43 c p1
272.21 224.12 0.43 c p1
272.46 225.32 0.43 c p1
272.72 228.36 0.43 c p1
272.97 222.34 0.43 c p1
273.22 227.98 0.43 c p1
273.47 223.79 0.43 c p1
273.72 227.59 0.43 c p1
273.97 224.32 0.43 c p1
274.23 229.03 0.43 c p1
274.48 230.22 0.43 c p1
274.73 225.86 0.43 c p1
274.98 220.78 0.43 c p1
275.23 223.77 0.43 c p1
275.48 225.85 0.43 c p1
275.74 222.44 0.43 c p1
275.99 222.69 0.43 c p1
276.24 223.85 0.43 c p1
276.49 224.09 0.43 c p1
276.74 227.83 0.43 c p1
277.00 222.74 0.43 c p1
277.25 222.06 0.43 c p1
277.50 221.39 0.43 c p1
277.75 226.18 0.43 c p1
278.00 222.76 0.43 c p1
278.25 226.63 0.43 c p1
278.51 225.94 0.43 c p1
278.76 217.10 0.43 c p1
279.01 223.65 0.43 c p1
279.26 229.35 0.43 c p1
279.51 226.83 0.43 c p1
279.77 218.87 0.43 c p1
280.02 225.43 0.43 c p1
280.27 222.91 0.43 c p1
280.52 225.85 0.43 c p1
280.77 227.89 0.43 c p1
281.02 220.83 0.43 c p1
281.28 224.65 0.43 c p1
281.53 218.53 0.43 c p1
281.78 223.24 0.43 c p1
282.03 219.83 0.43 c p1
282.28 229.10 0.43 c p1
282.54 219.33 0.43 c p1
282.79 224.94 0.43 c p1
283.04 221.51 0.43 c p1
283.29 220.80 0.43 c p1
283.54 226.42 0.43 c p1
283.79 219.38 0.43 c p1
284.05 224.07 0.43 c p1
284.30 222.45 0.43 c p1
284.55 226.25 0.43 c p1
284.80 222.82 0.43 c p1
285.05 226.61 0.43 c p1
285.31 219.58 0.43 c p1
285.56 228.79 0.43 c p1
285.81 220.83 0.43 c p1
286.06 230.95 0.43 c p1
286.31 221.17 0.43 c p1
286.56 219.55 0.43 c p1
286.82 227.83 0.43 c p1
287.07 219.89 0.43 c p1
287.32 220.95 0.43 c p1
287.57 220.22 0.43 c p1
287.82 224.88 0.43 c p1
288.07 222.34 0.43 c p1
288.33 224.30 0.43 c p1
288.58 225.36 0.43 c p1
288.83 225.52 0.43 c p1
289.08 229.29 0.43 c p1
289.33 222.23 0.43 c p1
289.59 233.24 0.43 c p1
289.84 218.07 0.43 c p1
290.09 225.39 0.43 c p1
290.34 221.05 0.43 c p1
290.59 216.74 0.43 c p1
290.84 225.83 0.43 c p1
291.10 225.08 0.43 c p1
291.35 223.43 0.43 c p1
291.60 222.68 0.43 c p1
291.85 228.21 0.43 c p1
292.10 223.86 0.43 c p1
292.36 222.21 0.43 c p1
292.61 223.24 0.43 c p1
292.86 221.59 0.43 c p1
293.11 221.73 0.43 c p1
293.36 222.75 0.43 c p1
293.61 228.28 0.43 c p1
293.87 226.61 0.43 c p1
294.12 228.54 0.43 c p1
294.37 225.08 0.43 c p1
294.62 226.10 0.43 c p1
294.87 220.87 0.43 c p1
295.13 221.88 0.43 c p1
295.38 228.28 0.43 c p1
295.63 223.03 0.43 c p1
295.88 227.63 0.43 c p1
296.13 225.96 0.43 c p1
296.38 230.58 0.43 c p1
296.64 223.52 0.43 c p1
296.89 228.12 0.43 c p1
297.14 230.04 0.43 c p1
297.39 226.56 0.43 c p1
297.64 225.78 0.43 c p1
297.89 228.59 0.43 c p1
298.15 229.60 0.43 c p1
298.40 222.55 0.43 c p1
298.65 229.83 0.43 c p1
298.90 221.00 0.43 c p1
299.15 229.15 0.43 c p1
299.41 221.22 0.43 c p1
299.66 227.58 0.43 c p1
299.91 221.44 0.43 c p1
300.16 227.79 0.43 c p1
300.41 228.79 0.43 c p1
300.66 219.98 0.43 c p1
300.92 225.42 0.43 c p1
301.17 221.97 0.43 c p1
301.42 231.01 0.43 c p1
301.67 222.17 0.43 c p1
301.92 223.16 0.43 c p1
302.18 225.04 0.43 c p1
302.43 226.92 0.43 c p1
302.68 226.13 0.43 c p1
302.93 222.67 0.43 c p1
303.18 232.61 0.43 c p1
303.43 219.46 0.43 c p1
303.69 230.10 0.43 c p1
303.94 219.65 0.43 c p1
304.19 228.49 0.43 c p1
304.44 225.90 0.43 c p1
304.69 224.21 0.43 c p1
304.95 226.98 0.43 c p1
305.20 227.96 0.43 c p1
305.45 228.94 0.43 c p1
305.70 222.80 0.43 c p1
305.95 225.55 0.43 c p1
306.20 219.58 0.43 c p1
306.46 224.83 0.43 c p1
306.71 222.26 0.43 c p1
306.96 221.46 0.43 c p1
307.21 227.76 0.43 c p1
307.46 223.40 0.43 c p1
307.72 226.15 0.43 c p1
307.97 218.41 0.43 c p1
308.22 227.20 0.43 c p1
308.47 219.45 0.43 c p1
308.72 224.69 0.43 c p1
308.97 220.49 0.43 c p1
309.23 223.96 0.43 c p1
309.48 226.71 0.43 c p1
309.73 225.00 0.43 c p1
309.98 226.86 0.43 c p1
310.23 220.00 0.43 c p1
310.48 229.69 0.43 c p1
310.74 222.65 0.43 c p1
310.99 225.38 0.43 c p1
311.24 220.30 0.43 c p1
311.49 225.53 0.43 c p1
311.74 222.94 0.43 c p1
312.00 217.88 0.43 c p1
312.25 226.63 0.43 c p1
312.50 221.54 0.43 c p1
312.75 219.84 0.43 c p1
313.00 224.18 0.43 c p1
313.25 226.02 0.43 c p1
313.51 227.87 0.43 c p1
313.76 227.04 0.43 c p1
314.01 221.94 0.43 c p1
314.26 225.40 0.43 c p1
314.51 225.47 0.43 c p1
314.77 217.75 0.43 c p1
315.02 230.04 0.43 c p1
315.27 213.51 0.43 c p1
315.52 230.17 0.43 c p1
315.77 220.64 0.43 c p1
316.02 229.40 0.43 c p1
316.28 223.40 0.43 c p1
316.53 224.20 0.43 c p1
316.78 232.27 0.43 c p1
317.03 226.09 0.43 c p1
317.28 231.49 0.43 c p1
317.54 221.94 0.43 c p1
317.79 226.27 0.43 c p1
318.04 221.18 0.43 c p1
318.29 226.38 0.43 c p1
318.54 227.33 0.43 c p1
318.79 228.27 0.43 c p1
319.05 228.33 0.43 c p1
319.30 221.46 0.43 c p1
319.55 228.44 0.43 c p1
319.80 222.45 0.43 c p1
320.05 225.00 0.43 c p1
320.31 219.92 0.43 c p1
320.56 225.11 0.43 c p1
320.81 224.43 0.43 c p1
321.06 220.08 0.43 c p1
321.31 227.04 0.43 c p1
321.56 226.20 0.43 c p1
321.82 230.70 0.43 c p1
322.07 220.28 0.43 c p1
322.32 226.36 0.43 c p1
322.57 219.51 0.43 c p1
322.82 230.90 0.43 c p1
323.07 224.00 0.43 c p1
323.33 218.78 0.43 c p1
323.58 227.49 0.43 c p1
323.83 221.50 0.43 c p1
324.08 228.47 0.43 c p1
324.33 222.48 0.43 c p1
324.59 229.45 0.43 c p1
324.84 223.45 0.43 c p1
325.09 224.38 0.43 c p1
325.34 226.04 0.43 c p1
325.59 220.95 0.43 c p1
325.84 228.79 0.43 c p1
326.10 219.29 0.43 c p1
326.35 226.22 0.43 c p1
326.60 219.37 0.43 c p1
326.85 227.19 0.43 c p1
327.10 226.35 0.43 c p1
327.36 224.77 0.43 c p1
327.61 223.93 0.43 c p1
327.86 223.97 0.43 c p1
328.11 224.89 0.43 c p1
328.36 226.55 0.43 c p1
328.61 227.48 0.43 c p1
328.87 223.26 0.43 c p1
329.12 225.94 0.43 c p1
329.37 223.34 0.43 c p1
329.62 226.75 0.43 c p1
329.87 225.17 0.43 c p1
330.13 222.57 0.43 c p1
330.38 226.87 0.43 c p1
330.63 228.68 0.43 c p1
330.88 224.44 0.43 c p1
331.13 217.47 0.43 c p1
331.38 226.28 0.43 c p1
331.64 222.79 0.43 c p1
331.89 224.59 0.43 c p1
332.14 218.49 0.43 c p1
332.39 219.40 0.43 c p1
332.64 224.70 0.43 c p1
332.89 220.34 0.43 c p1
333.15 229.04 0.43 c p1
333.40 221.29 0.43 c p1
333.65 223.96 0.43 c p1
333.90 220.48 0.43 c p1
334.15 227.40 0.43 c p1
334.41 224.06 0.43 c p1
334.66 218.83 0.43 c p1
334.91 226.76 0.43 c p1
335.16 225.03 0.43 c p1
335.41 220.68 0.43 c p1
335.66 220.71 0.43 c p1
335.92 227.63 0.43 c p1
336.17 226.92 0.43 c p1
336.42 227.69 0.43 c p1
336.67 223.46 0.43 c p1
336.92 227.02 0.43 c p1
337.18 226.16 0.43 c p1
337.43 224.43 0.43 c p1
337.68 230.50 0.43 c p1
337.93 224.49 0.43 c p1
338.18 232.34 0.43 c p1
338.43 221.04 0.43 c p1
338.69 228.84 0.43 c p1
338.94 218.48 0.43 c p1
339.19 229.79 0.43 c p1
339.44 222.91 0.43 c p1
339.69 222.93 0.43 c p1
339.95 226.48 0.43 c p1
340.20 222.11 0.43 c p1
340.45 228.15 0.43 c p1
340.70 228.18 0.43 c p1
340.95 226.59 0.43 c p1
341.20 221.34 0.43 c p1
341.46 221.37 0.43 c p1
341.71 224.02 0.43 c p1
341.96 222.30 0.43 c p1
342.21 228.33 0.43 c p1
342.46 222.35 0.43 c p1
342.72 229.27 0.43 c p1
342.97 219.77 0.43 c p1
343.22 226.81 0.43 c p1
343.47 225.96 0.43 c p1
343.72 224.22 0.43 c p1
343.97 226.89 0.43 c p1
344.23 225.15 0.43 c p1
344.48 226.93 0.43 c p1
344.73 220.81 0.43 c p1
344.98 229.49 0.43 c p1
345.23 224.36 0.43 c p1
345.48 225.27 0.43 c p1
345.74 222.65 0.43 c p1
345.99 227.07 0.43 c p1
346.24 221.82 0.43 c p1
346.49 226.23 0.43 c p1
346.74 225.38 0.43 c p1
347.00 221.89 0.43 c p1
347.25 230.57 0.43 c p1
347.50 219.31 0.43 c p1
347.75 224.58 0.43 c p1
348.00 221.97 0.43 c p1
348.25 226.38 0.43 c p1
348.51 222.89 0.43 c p1
348.76 220.29 0.43 c p1
349.01 228.94 0.43 c p1
349.26 217.72 0.43 c p1
349.51 228.98 0.43 c p1
349.77 219.50 0.43 c p1
350.02 232.57 0.43 c p1
350.27 221.28 0.43 c p1
350.52 225.68 0.43 c p1
350.77 226.58 0.43 c p1
351.02 221.34 0.43 c p1
351.28 226.62 0.43 c p1
351.53 223.12 0.43 c p1
351.78 230.92 0.43 c p1
352.03 221.41 0.43 c p1
352.28 226.69 0.43 c p1
352.54 224.95 0.43 c p1
352.79 230.11 0.43 c p1
353.04 225.86 0.43 c p1
353.29 221.50 0.43 c p1
353.54 222.39 0.43 c p1
353.79 224.16 0.43 c p1
354.05 225.93 0.43 c p1
354.30 222.44 0.43 c p1
354.55 226.84 0.43 c p1
354.80 223.35 0.43 c p1
355.05 226.00 0.43 c p1
355.31 226.89 0.43 c p1
355.56 229.41 0.43 c p1
355.81 224.29 0.43 c p1
356.06 223.43 0.43 c p1
356.31 226.08 0.43 c p1
356.56 223.46 0.43 c p1
356.82 226.11 0.43 c p1
357.07 219.13 0.43 c p1
357.32 229.52 0.43 c p1
357.57 219.16 0.43 c p1
357.82 225.29 0.43 c p1
358.07 217.45 0.43 c p1
358.33 224.44 0.43 c p1
358.58 227.97 0.43 c p1
358.83 223.59 0.43 c p1
359.08 228.88 0.43 c p1
359.33 223.62 0.43 c p1
359.59 228.91 0.43 c p1
359.84 220.16 0.43 c p1
360.09 223.66 0.43 c p1
360.34 220.18 0.43 c p1
360.59 226.32 0.43 c p1
360.84 224.58 0.43 c p1
361.10 221.09 0.43 c p1
361.35 224.61 0.43 c p1
361.60 221.12 0.43 c p1
0.00 0.00 432.00 576.00 cl
0 0 0 srgb
0.75 setlinewidth
[] 0 setdash
1 setlinecap
1 setlinejoin
10.00 setmiterlimit
np
219.08 201.60 m
134.29 0 l
o
np
219.08 201.60 m
0 -5.76 l
o
np
252.66 201.60 m
0 -5.76 l
o
np
286.23 201.60 m
0 -5.76 l
o
np
319.80 201.60 m
0 -5.76 l
o
np
353.37 201.60 m
0 -5.76 l
o
/Font1 findfont 6 s
219.08 185.47 (0) .5 0 t
252.66 185.47 (200) .5 0 t
286.23 185.47 (400) .5 0 t
319.80 185.47 (600) .5 0 t
353.37 185.47 (800) .5 0 t
np
216.00 202.57 m
0 44.14 l
o
np
216.00 202.57 m
-5.76 0 l
o
np
216.00 209.93 m
-5.76 0 l
o
np
216.00 217.28 m
-5.76 0 l
o
np
216.00 224.64 m
-5.76 0 l
o
np
216.00 232.00 m
-5.76 0 l
o
np
216.00 239.35 m
-5.76 0 l
o
np
216.00 246.71 m
-5.76 0 l
o
209.09 200.42 (-0.015) 1 0 t
209.09 207.77 (-0.010) 1 0 t
209.09 215.13 (-0.005) 1 0 t
209.09 222.49 (0.000) 1 0 t
209.09 229.84 (0.005) 1 0 t
209.09 237.20 (0.010) 1 0 t
209.09 244.55 (0.015) 1 0 t
np
216.00 201.60 m
151.20 0 l
0 46.08 l
-151.20 0 l
0 -46.08 l
o
0.00 0.00 432.00 576.00 cl
/Font1 findfont 9 s
0 0 0 srgb
291.60 262.88 (Residuals) .5 0 t
59.04 73.44 401.76 516.96 cl
ep
%%Trailer
%%Pages: 1
%%EOF
