%!PS-Adobe-3.0 EPSF-3.0
%%DocumentNeededResources: font Helvetica
%%+ font Helvetica-Bold
%%+ font Helvetica-Oblique
%%+ font Helvetica-BoldOblique
%%+ font Symbol
%%Title: R Graphics Output
%%Creator: R Software
%%Pages: (atend)
%%BoundingBox: 0 0 432 576
%%EndComments
%%BeginProlog
/bp  { gs sRGB gs } def
% begin .ps.prolog
/gs  { gsave } bind def
/gr  { grestore } bind def
/ep  { showpage gr gr } bind def
/m   { moveto } bind def
/l  { rlineto } bind def
/np  { newpath } bind def
/cp  { closepath } bind def
/f   { fill } bind def
/o   { stroke } bind def
/c   { newpath 0 360 arc } bind def
/r   { 4 2 roll moveto 1 copy 3 -1 roll exch 0 exch rlineto 0 rlineto -1 mul 0 exch rlineto closepath } bind def
/p1  { stroke } bind def
/p2  { gsave bg fill grestore newpath } bind def
/p3  { gsave bg fill grestore stroke } bind def
/p6  { gsave bg eofill grestore newpath } bind def
/p7  { gsave bg eofill grestore stroke } bind def
/t   { 5 -2 roll moveto gsave rotate
       1 index stringwidth pop
       mul neg 0 rmoveto show grestore } bind def
/ta  { 4 -2 roll moveto gsave rotate show } bind def
/tb  { 2 -1 roll 0 rmoveto show } bind def
/cl  { grestore gsave newpath 3 index 3 index moveto 1 index
       4 -1 roll lineto  exch 1 index lineto lineto
       closepath clip newpath } bind def
/rgb { setrgbcolor } bind def
/s   { scalefont setfont } bind def
% end   .ps.prolog
/sRGB { [ /CIEBasedABC
          << /DecodeLMN
               [ { dup 0.03928 le
                        {12.92321 div}
                        {0.055 add 1.055 div 2.4 exp }
                     ifelse
                 } bind dup dup
               ]
             /MatrixLMN [0.412457 0.212673 0.019334
                         0.357576 0.715152 0.119192
                         0.180437 0.072175 0.950301]
             /WhitePoint [0.9505 1.0 1.0890]
           >>
         ] setcolorspace } bind def
/srgb { setcolor } bind def
% begin encoding
/WinAnsiEncoding [
 /.notdef /.notdef /.notdef /.notdef /.notdef /.notdef /.notdef /.notdef
 /.notdef /.notdef /.notdef /.notdef /.notdef /.notdef /.notdef /.notdef
 /.notdef /.notdef /.notdef /.notdef /.notdef /.notdef /.notdef /.notdef
 /.notdef /.notdef /.notdef /.notdef /.notdef /.notdef /.notdef /.notdef
 /space /exclam /quotedbl /numbersign /dollar /percent /ampersand /quoteright
 /parenleft /parenright /asterisk /plus /comma /minus /period /slash
 /zero /one /two /three /four /five /six /seven
 /eight /nine /colon /semicolon /less /equal /greater /question
 /at /A /B /C /D /E /F /G
 /H /I /J /K /L /M /N /O
 /P /Q /R /S /T /U /V /W
 /X /Y /Z /bracketleft /backslash /bracketright /asciicircum /underscore
 /grave /a /b /c /d /e /f /g
 /h /i /j /k /l /m /n /o
 /p /q /r /s /t /u /v /w
 /x /y /z /braceleft /bar /braceright /asciitilde /.notdef
 /Euro /.notdef /quotesinglbase /florin /quotedblbase /ellipsis /dagger /daggerdbl
 /circumflex /perthousand /Scaron /guilsinglleft /OE /.notdef /Zcaron /.notdef
 /.notdef /quoteleft /quoteright /quotedblleft /quotedblright /bullet /endash /emdash
 /tilde /trademark /scaron /guilsinglright /oe /.notdef /zcaron /Ydieresis
 /space /exclamdown /cent /sterling /currency /yen /brokenbar /section
 /dieresis /copyright /ordfeminine /guillemotleft /logicalnot /hyphen /registered /macron
 /degree /plusminus /twosuperior /threesuperior /acute /mu /paragraph /periodcentered
 /cedilla /onesuperior /ordmasculine /guillemotright /onequarter /onehalf /threequarters /questiondown
 /Agrave /Aacute /Acircumflex /Atilde /Adieresis /Aring /AE /Ccedilla
 /Egrave /Eacute /Ecircumflex /Edieresis /Igrave /Iacute /Icircumflex /Idieresis
 /Eth /Ntilde /Ograve /Oacute /Ocircumflex /Otilde /Odieresis /multiply
 /Oslash /Ugrave /Uacute /Ucircumflex /Udieresis /Yacute /Thorn /germandbls
 /agrave /aacute /acircumflex /atilde /adieresis /aring /ae /ccedilla
 /egrave /eacute /ecircumflex /edieresis /igrave /iacute /icircumflex /idieresis
 /eth /ntilde /ograve /oacute /ocircumflex /otilde /odieresis /divide
 /oslash /ugrave /uacute /ucircumflex /udieresis /yacute /thorn /ydieresis
]
 def
% end encoding
%%IncludeResource: font Helvetica
/Helvetica findfont
dup length dict begin
  {1 index /FID ne {def} {pop pop} ifelse} forall
  /Encoding WinAnsiEncoding def
  currentdict
  end
/Font1 exch definefont pop
%%IncludeResource: font Helvetica-Bold
/Helvetica-Bold findfont
dup length dict begin
  {1 index /FID ne {def} {pop pop} ifelse} forall
  /Encoding WinAnsiEncoding def
  currentdict
  end
/Font2 exch definefont pop
%%IncludeResource: font Helvetica-Oblique
/Helvetica-Oblique findfont
dup length dict begin
  {1 index /FID ne {def} {pop pop} ifelse} forall
  /Encoding WinAnsiEncoding def
  currentdict
  end
/Font3 exch definefont pop
%%IncludeResource: font Helvetica-BoldOblique
/Helvetica-BoldOblique findfont
dup length dict begin
  {1 index /FID ne {def} {pop pop} ifelse} forall
  /Encoding WinAnsiEncoding def
  currentdict
  end
/Font4 exch definefont pop
%%IncludeResource: font Symbol
/Symbol findfont
dup length dict begin
  {1 index /FID ne {def} {pop pop} ifelse} forall
  currentdict
  end
/Font5 exch definefont pop
%%EndProlog
%%Page: 1 1
bp
/bg { 1 1 1 srgb } def
0.00 0.00 432.00 576.00 r p2
0.00 0.00 432.00 576.00 cl
0.00 0.00 432.00 576.00 cl
0.00 0.00 432.00 576.00 cl
/Font1 findfont 12 s
0 0 0 srgb
48.00 508.72 (PCP-ETH) 0 0 t
48.00 494.89 (Flash light photolysis) 0 0 t
/Font1 findfont 9 s
48.00 457.54 (File: T) 0 ta
-1.080 (emper) tb
-0.090 (ature_dependence_8_MSLM.dat) tb gr
48.00 334.87 (T) 0 ta
-1.080 (ue Mar 08 17:18:53 2022) tb gr
48.00 430.87 (Fit function:  a + b * e) 0 ta
-0.270 (xp\(-c * t\)) tb gr
48.00 420.50 (t-Inter) 0 ta
0.270 (v) tb
-0.225 (all: 18.000 ... 769.500 ms) tb gr
48.00 410.14 (P) 0 ta
-0.360 (ar) tb
-0.090 (ameters \(Standard de) tb
-0.270 (viation\):) tb gr
48.00 399.77 (  a = 0.00442 \(0.00018\)) 0 0 t
48.00 389.40 (  b = 0.13272 \(0.00061\)) 0 0 t
48.00 379.03 (  c = 7.272e+00 \(5.865e-02\) s^-1) 0 0 t
48.00 368.66 (  tau = 1.375e-01 \(1.109e-03\) s) 0 0 t
216.00 345.60 388.80 518.40 cl
0 0 0 srgb
0.75 setlinewidth
[] 0 setdash
1 setlinecap
1 setlinejoin
10.00 setmiterlimit
np
222.40 510.11 m
0.15 0 l
0.14 0.34 l
0.15 -0.52 l
0.14 0.35 l
0.15 -0.17 l
0.14 -1.04 l
0.15 0.18 l
0.14 1.37 l
0.15 -2.03 l
0.15 0.17 l
0.14 1.17 l
0.15 -1.03 l
0.14 2.07 l
0.15 -1.38 l
0.14 1.21 l
0.15 -1.21 l
0.14 0.34 l
0.15 0.87 l
0.15 0.68 l
0.14 -2.06 l
0.15 1.03 l
0.14 -0.34 l
0.15 -0.35 l
0.14 0.52 l
0.15 -0.69 l
0.15 2.07 l
0.14 -3.07 l
0.15 0.83 l
0.14 0.86 l
0.15 0.34 l
0.14 -1.03 l
0.15 0.34 l
0.14 -0.17 l
0.15 0.35 l
0.15 -0.69 l
0.14 0.86 l
0.15 0.52 l
0.14 -0.87 l
0.15 1.04 l
0.14 -0.86 l
0.15 0 l
0.14 0.34 l
0.15 0.69 l
0.15 -0.17 l
0.14 -1.21 l
0.15 0.69 l
0.14 -1.20 l
0.15 1.03 l
0.14 -0.69 l
0.15 -0.34 l
0.14 1.37 l
0.15 -0.34 l
0.15 0 l
0.14 -0.35 l
0.15 0.69 l
0.14 -1.20 l
0.15 0.86 l
0.14 0.17 l
0.15 -0.69 l
0.15 -0.34 l
0.14 0.51 l
0.15 -1.34 l
0.14 1.34 l
0.15 -0.86 l
0.14 2.07 l
0.15 0.17 l
0.14 -0.34 l
0.15 -1.21 l
0.15 0.86 l
0.14 -0.51 l
0.15 0.17 l
0.14 0 l
0.15 -0.52 l
0.14 0 l
0.15 -0.34 l
0.14 1.20 l
0.15 -1.20 l
0.15 1.20 l
0.14 -0.51 l
0.15 1.20 l
0.14 -0.51 l
0.15 0.34 l
0.14 -1.21 l
0.15 2.07 l
0.14 -2.07 l
0.15 0.18 l
0.15 1.03 l
0.14 -1.38 l
0.15 0 l
0.14 0.86 l
0.15 -1.55 l
0.14 1.04 l
0.15 0.51 l
0.15 -1.03 l
0.14 0.69 l
0.15 0.34 l
0.14 -0.34 l
0.15 0.17 l
0.14 -0.52 l
236.96 476.42 lineto
0.14 -15.42 l
0.15 0.87 l
0.15 2.90 l
0.14 -0.52 l
0.15 4.28 l
0.14 0.86 l
0.15 -0.17 l
0.14 0.69 l
0.15 -0.69 l
0.14 1.37 l
0.15 -2.06 l
0.15 1.55 l
0.14 3.41 l
0.15 -1.55 l
0.14 -0.14 l
0.15 1.00 l
0.14 0.69 l
0.15 1.90 l
0.14 -0.35 l
0.15 0.69 l
0.15 1.18 l
0.14 -0.49 l
0.15 0.14 l
0.14 -1.35 l
0.15 1.52 l
0.14 0.69 l
0.15 -0.34 l
0.15 -0.83 l
0.14 0.17 l
0.15 1.69 l
0.14 -0.69 l
0.15 1.90 l
0.14 -2.24 l
0.15 2.58 l
0.14 1.21 l
0.15 -1.38 l
0.15 1.20 l
0.14 1.18 l
0.15 -2.72 l
0.14 0.34 l
0.15 2.04 l
0.14 0.34 l
0.15 -0.34 l
0.14 -1.01 l
0.15 2.90 l
0.15 -0.69 l
0.14 -0.51 l
0.15 1.72 l
0.14 -1.55 l
0.15 0.17 l
0.14 1.72 l
0.15 0.17 l
0.14 0.35 l
0.15 -1.04 l
0.15 0.69 l
0.14 0.69 l
0.15 -0.51 l
0.14 0.34 l
0.15 0.34 l
0.14 0.49 l
0.15 -1.17 l
0.15 1.17 l
0.14 1.04 l
0.15 0.51 l
0.14 -0.17 l
0.15 -1.38 l
0.14 2.41 l
0.15 -1.55 l
0.14 1.55 l
0.15 0.86 l
0.15 -1.20 l
0.14 1.03 l
0.15 0.52 l
0.14 -0.86 l
0.15 -0.18 l
0.14 0.52 l
0.15 1.52 l
0.14 -2.04 l
0.15 0.35 l
0.15 0.86 l
0.14 0.34 l
0.15 -1.03 l
0.14 1.69 l
0.15 0.87 l
0.14 -1.53 l
0.15 0.18 l
0.14 2.21 l
0.15 -1.73 l
0.15 -0.17 l
0.14 2.07 l
0.15 0 l
0.14 -1.72 l
0.15 1.03 l
0.14 2.41 l
0.15 -1.55 l
0.15 -1.89 l
0.14 1.72 l
0.15 1.89 l
0.14 -1.89 l
251.52 493.18 lineto
0.14 2.03 l
0.15 -2.21 l
0.14 0.69 l
0.15 1.21 l
0.15 -0.86 l
0.14 -0.17 l
0.15 -1.04 l
0.14 2.56 l
0.15 -0.66 l
0.14 -0.18 l
0.15 0.66 l
0.14 1.04 l
0.15 -1.35 l
0.15 1.69 l
0.14 -0.52 l
0.15 -0.17 l
0.14 -0.17 l
0.15 0.69 l
0.14 0.69 l
0.15 -1.72 l
0.14 0.86 l
0.15 0.34 l
0.15 -1.38 l
0.14 0.86 l
0.15 1.55 l
0.14 -0.51 l
0.15 0 l
0.14 0.17 l
0.15 0.34 l
0.14 0.52 l
0.15 -1.20 l
0.15 1.03 l
0.14 0 l
0.15 -0.86 l
0.14 0.86 l
0.15 1.69 l
0.14 -1.86 l
0.15 -0.18 l
0.15 0.87 l
0.14 -1.21 l
0.15 0.86 l
0.14 0.69 l
0.15 -0.34 l
0.14 0.68 l
0.15 -0.34 l
0.14 0.17 l
0.15 0.52 l
0.15 -0.69 l
0.14 1.18 l
0.15 0.17 l
0.14 -0.17 l
0.15 0 l
0.14 0.34 l
0.15 0.52 l
0.14 -1.35 l
0.15 -0.17 l
0.15 0.83 l
0.14 1.03 l
0.15 -1.38 l
0.14 0.18 l
0.15 0.17 l
0.14 0.34 l
0.15 -0.69 l
0.14 1.38 l
0.15 -0.52 l
0.15 0 l
0.14 0 l
0.15 1.38 l
0.14 -1.20 l
0.15 0.17 l
0.14 0.69 l
0.15 0 l
0.15 -1.04 l
0.14 0.69 l
0.15 0.18 l
0.14 1.20 l
0.15 -0.52 l
0.14 -0.34 l
0.15 1.72 l
0.14 -1.38 l
0.15 -0.86 l
0.15 1.38 l
0.14 -0.17 l
0.15 1.03 l
0.14 -0.69 l
0.15 -0.86 l
0.14 0.35 l
0.15 -0.18 l
0.14 0.52 l
0.15 0.52 l
0.15 -1.55 l
0.14 0.17 l
0.15 2.07 l
0.14 -1.38 l
0.15 0 l
0.14 1.03 l
0.15 1.18 l
0.14 -1.35 l
0.15 -0.69 l
266.08 502.93 lineto
0.14 1.21 l
0.15 -0.69 l
0.14 -0.35 l
0.15 0.35 l
0.14 -0.17 l
0.15 -0.18 l
0.15 1.53 l
0.14 -1.01 l
0.15 -0.34 l
0.14 0.51 l
0.15 -0.51 l
0.14 0.17 l
0.15 -0.17 l
0.14 0.34 l
0.15 -0.17 l
0.15 0 l
0.14 0 l
0.15 1.18 l
0.14 -0.18 l
0.15 -0.17 l
0.14 0.86 l
0.15 -1.52 l
0.14 1.18 l
0.15 0.34 l
0.15 0.17 l
0.14 -1.69 l
0.15 0.17 l
0.14 1.70 l
0.15 -0.69 l
0.14 -0.35 l
0.15 0.69 l
0.14 0.52 l
0.15 -0.69 l
0.15 -0.69 l
0.14 0.35 l
0.15 0.51 l
0.14 -1.17 l
0.15 0.66 l
0.14 1.89 l
0.15 -1.55 l
0.15 -0.34 l
0.14 1.20 l
0.15 -0.52 l
0.14 0.69 l
0.15 -0.69 l
0.14 1.38 l
0.15 -0.69 l
0.14 -1.55 l
0.15 1.38 l
0.15 -0.17 l
0.14 -0.35 l
0.15 -1.17 l
0.14 2.55 l
0.15 -0.51 l
0.14 -0.87 l
0.15 -0.34 l
0.14 0.17 l
0.15 0.86 l
0.15 0.18 l
0.14 0.86 l
0.15 -0.18 l
0.14 -1.89 l
0.15 1.38 l
0.14 -0.86 l
0.15 0.51 l
0.14 0 l
0.15 0.18 l
0.15 0 l
0.14 -0.87 l
0.15 0.87 l
0.14 0.34 l
0.15 -1.03 l
0.14 0.86 l
0.15 0.51 l
0.15 0 l
0.14 -1.72 l
0.15 0.17 l
0.14 1.21 l
0.15 -0.86 l
0.14 -0.17 l
0.15 0.86 l
0.14 -0.17 l
0.15 -1.04 l
0.15 1.21 l
0.14 0.86 l
0.15 -0.86 l
0.14 -0.35 l
0.15 0.52 l
0.14 0.17 l
0.15 0 l
0.14 0.17 l
0.15 0.35 l
0.15 -0.69 l
0.14 -0.69 l
0.15 1.03 l
0.14 0 l
0.15 0.52 l
0.14 -0.69 l
0.15 1.21 l
280.63 507.90 lineto
0.15 -0.52 l
0.15 0 l
0.14 0.34 l
0.15 -0.68 l
0.14 -0.35 l
0.15 -0.17 l
0.14 0.34 l
0.15 -0.51 l
0.15 0.34 l
0.14 1.38 l
0.15 -1.55 l
0.14 -0.52 l
0.15 1.90 l
0.14 -0.18 l
0.15 -1.03 l
0.14 1.21 l
0.15 0 l
0.15 -0.35 l
0.14 -1.03 l
0.15 1.38 l
0.14 -1.04 l
0.15 0 l
0.14 -0.34 l
0.15 1.20 l
0.14 -0.68 l
0.15 -0.69 l
0.15 0.17 l
0.14 2.90 l
0.15 -2.38 l
0.14 0.68 l
0.15 -0.51 l
0.14 0.34 l
0.15 -1.03 l
0.14 1.55 l
0.15 -0.17 l
0.15 -0.52 l
0.14 0.69 l
0.15 0 l
0.14 -1.72 l
0.15 1.03 l
0.14 0.17 l
0.15 0.86 l
0.14 -0.69 l
0.15 -0.68 l
0.15 1.37 l
0.14 -0.34 l
0.15 -0.86 l
0.14 -0.52 l
0.15 1.21 l
0.14 -0.35 l
0.15 -1.03 l
0.15 1.89 l
0.14 0 l
0.15 -1.03 l
0.14 -0.17 l
0.15 0.34 l
0.14 0.17 l
0.15 -0.17 l
0.14 -0.34 l
0.15 0.17 l
0.15 0.52 l
0.14 -0.69 l
0.15 0.86 l
0.14 -0.17 l
0.15 -0.86 l
0.14 1.03 l
0.15 1.18 l
0.14 -2.39 l
0.15 0.52 l
0.15 -0.17 l
0.14 0.34 l
0.15 1.04 l
0.14 -1.90 l
0.15 1.21 l
0.14 -0.69 l
0.15 0 l
0.14 -0.17 l
0.15 1.03 l
0.15 0 l
0.14 -1.72 l
0.15 1.20 l
0.14 1.04 l
0.15 -1.73 l
0.14 0.52 l
0.15 1.38 l
0.15 -0.86 l
0.14 -0.35 l
0.15 0.52 l
0.14 -1.38 l
0.15 -0.51 l
0.14 0.86 l
0.15 0.51 l
0.14 1.35 l
0.15 -0.49 l
0.15 0.18 l
0.14 1.00 l
0.15 -2.73 l
0.14 1.04 l
0.15 0 l
295.19 508.59 lineto
0.15 -2.24 l
0.14 1.03 l
0.15 1.21 l
0.15 -1.21 l
0.14 0.34 l
0.15 0.87 l
0.14 -0.69 l
0.15 0.17 l
0.14 0.17 l
0.15 0.66 l
0.14 -1.35 l
0.15 -0.34 l
0.15 0 l
0.14 1.03 l
0.15 -1.03 l
0.14 0.51 l
0.15 1.87 l
0.14 -1.52 l
0.15 0.17 l
0.15 0.17 l
0.14 0.49 l
0.15 -0.83 l
0.14 -1.21 l
0.15 1.90 l
0.14 -2.07 l
0.15 0.52 l
0.14 0.51 l
0.15 1.53 l
0.15 -0.49 l
0.14 -1.55 l
0.15 2.04 l
0.14 -0.35 l
0.15 -2.04 l
0.14 0.52 l
0.15 1.21 l
0.14 -0.18 l
0.15 -1.55 l
0.15 1.90 l
0.14 -0.52 l
0.15 -0.86 l
0.14 0.34 l
0.15 0.52 l
0.14 0.35 l
0.15 -0.52 l
0.14 -0.17 l
0.15 1.17 l
0.15 -0.83 l
0.14 0.52 l
0.15 -0.52 l
0.14 -0.69 l
0.15 0 l
0.14 0.52 l
0.15 1.35 l
0.15 -0.17 l
0.14 -2.56 l
0.15 1.72 l
0.14 -1.20 l
0.15 1.20 l
0.14 0.49 l
0.15 0.35 l
0.14 -1.01 l
0.15 -0.52 l
0.15 0.87 l
0.14 -0.35 l
0.15 1.18 l
0.14 -1.70 l
0.15 0.87 l
0.14 -0.69 l
0.15 -0.52 l
0.14 0.17 l
0.15 1.87 l
0.15 -1.35 l
0.14 -0.17 l
0.15 -0.69 l
0.14 1.03 l
0.15 -0.52 l
0.14 0.69 l
0.15 0.18 l
0.14 0.31 l
0.15 -1.69 l
0.15 0.34 l
0.14 0.52 l
0.15 0.17 l
0.14 -0.69 l
0.15 0.52 l
0.14 0.17 l
0.15 0 l
0.15 0.66 l
0.14 -1.18 l
0.15 0.18 l
0.14 -0.52 l
0.15 0.86 l
0.14 1.01 l
0.15 -2.04 l
0.14 0 l
0.15 2.90 l
0.15 -1.04 l
0.14 -1.86 l
0.15 1.20 l
309.75 508.76 lineto
0.15 -0.35 l
0.14 0.49 l
0.15 -0.49 l
0.14 -0.34 l
0.15 0.52 l
0.15 -0.52 l
0.14 0.52 l
0.15 -0.35 l
0.14 -1.72 l
0.15 0.69 l
0.14 2.04 l
0.15 -0.84 l
0.14 -0.69 l
0.15 0.18 l
0.15 0.69 l
0.14 -1.21 l
0.15 1.03 l
0.14 0.18 l
0.15 -1.38 l
0.14 0.86 l
0.15 0.17 l
0.15 0.66 l
0.14 -0.83 l
0.15 -0.17 l
0.14 1.00 l
0.15 -0.83 l
0.14 -0.52 l
0.15 1.52 l
0.14 -0.83 l
0.15 0.52 l
0.15 -0.17 l
0.14 -0.18 l
0.15 -0.86 l
0.14 -0.34 l
0.15 1.38 l
0.14 -0.87 l
0.15 0.18 l
0.14 0.51 l
0.15 -0.17 l
0.15 1.18 l
0.14 -0.52 l
0.15 -0.31 l
0.14 0.31 l
0.15 -1.52 l
0.14 0.52 l
0.15 0.69 l
0.14 -1.21 l
0.15 -0.17 l
0.15 1.38 l
0.14 0.17 l
0.15 -0.69 l
0.14 0.83 l
0.15 0.35 l
0.14 -0.84 l
0.15 -0.34 l
0.15 0.17 l
0.14 0.17 l
0.15 -1.20 l
0.14 1.03 l
0.15 -0.17 l
0.14 -1.21 l
0.15 1.21 l
0.14 -0.35 l
0.15 0.18 l
0.15 0.86 l
0.14 0.14 l
0.15 0.17 l
0.14 -0.31 l
0.15 -2.41 l
0.14 2.72 l
0.15 0.18 l
0.14 -1.87 l
0.15 -0.34 l
0.15 1.86 l
0.14 -0.31 l
0.15 -1.21 l
0.14 1.03 l
0.15 0.35 l
0.14 -1.21 l
0.15 1.35 l
0.14 0.86 l
0.15 -1.52 l
0.15 0.66 l
0.14 -0.66 l
0.15 1.35 l
0.14 -1.52 l
0.15 0.69 l
0.14 0.31 l
0.15 0.18 l
0.14 -0.84 l
0.15 0 l
0.15 0.66 l
0.14 -0.31 l
0.15 -1.04 l
0.14 1.04 l
0.15 0 l
0.14 -1.38 l
0.15 0.17 l
0.15 1.52 l
324.31 508.24 lineto
0.15 -1.03 l
0.14 0.86 l
0.15 -0.35 l
0.14 0.87 l
0.15 -0.18 l
0.14 0.49 l
0.15 -0.66 l
0.15 1.18 l
0.14 -1.18 l
0.15 0.17 l
0.14 -0.51 l
0.15 0 l
0.14 0.69 l
0.15 0.48 l
0.14 -1.86 l
0.15 1.55 l
0.15 -0.17 l
0.14 -0.35 l
0.15 -1.03 l
0.14 1.20 l
0.15 0 l
0.14 -0.51 l
0.15 0.51 l
0.14 0 l
0.15 -0.86 l
0.15 0 l
0.14 1.87 l
0.15 0.51 l
0.14 -2.03 l
0.15 0.17 l
0.14 1.35 l
0.15 0 l
0.15 -1.18 l
0.14 0.35 l
0.15 0 l
0.14 -0.69 l
0.15 -0.18 l
0.14 0.18 l
0.15 1.35 l
0.14 -0.35 l
0.15 -1.86 l
0.15 0.68 l
0.14 0.69 l
0.15 -1.37 l
0.14 2.55 l
0.15 -1.18 l
0.14 0.84 l
0.15 -1.18 l
0.14 1.86 l
0.15 -1.86 l
0.15 0 l
0.14 1.00 l
0.15 -0.31 l
0.14 -0.86 l
0.15 -0.69 l
0.14 1.03 l
0.15 0.83 l
0.14 -0.31 l
0.15 -0.86 l
0.15 0.34 l
0.14 -0.69 l
0.15 0 l
0.14 1.04 l
0.15 0.83 l
0.14 -1.52 l
0.15 0.69 l
0.15 -1.38 l
0.14 2.04 l
0.15 -1.01 l
0.14 0.35 l
0.15 0.31 l
0.14 0 l
0.15 -0.14 l
0.14 -0.52 l
0.15 0.17 l
0.15 -0.34 l
0.14 0.34 l
0.15 -0.69 l
0.14 0.52 l
0.15 0 l
0.14 -0.69 l
0.15 -0.17 l
0.14 0.52 l
0.15 1.69 l
0.15 -1.69 l
0.14 0.51 l
0.15 0.49 l
0.14 -0.14 l
0.15 0 l
0.14 -0.69 l
0.15 -0.35 l
0.14 0.69 l
0.15 -0.17 l
0.15 -1.20 l
0.14 1.03 l
0.15 -0.17 l
0.14 0.51 l
0.15 -1.03 l
0.14 0.52 l
338.87 507.55 lineto
0.15 0.86 l
0.14 -0.51 l
0.15 1.17 l
0.14 -1.00 l
0.15 0.34 l
0.14 -0.17 l
0.15 0.52 l
0.14 -1.72 l
0.15 1.72 l
0.15 -0.52 l
0.14 0.17 l
0.15 0.35 l
0.14 -1.04 l
0.15 0.87 l
0.14 -0.69 l
0.15 0.86 l
0.14 -0.52 l
0.15 -0.86 l
0.15 0.52 l
0.14 0.51 l
0.15 -0.34 l
0.14 1.00 l
0.15 -0.31 l
0.14 -0.17 l
0.15 -0.69 l
0.14 1.00 l
0.15 -0.31 l
0.15 -0.69 l
0.14 0.34 l
0.15 -0.69 l
0.14 0.86 l
0.15 0.18 l
0.14 -1.55 l
0.15 1.86 l
0.15 -0.66 l
0.14 -0.86 l
0.15 0.52 l
0.14 0 l
0.15 -0.35 l
0.14 1.04 l
0.15 -0.87 l
0.14 0.35 l
0.15 -0.52 l
0.15 1.04 l
0.14 -1.04 l
0.15 1.04 l
0.14 -1.73 l
0.15 1.55 l
0.14 -0.69 l
0.15 0.87 l
0.14 -0.35 l
0.15 0.35 l
0.15 0.48 l
0.14 -1.00 l
0.15 0.83 l
0.14 -1.00 l
0.15 0 l
0.14 1.52 l
0.15 0.17 l
0.14 -1.69 l
0.15 -1.21 l
0.15 0 l
0.14 1.90 l
0.15 -0.35 l
0.14 0.52 l
0.15 -0.17 l
0.14 -0.87 l
0.15 -0.17 l
0.15 1.21 l
0.14 -0.35 l
0.15 -0.34 l
0.14 0 l
0.15 0.69 l
0.14 -0.17 l
0.15 -0.69 l
0.14 0.51 l
0.15 -0.51 l
0.15 1.17 l
0.14 0.35 l
0.15 -0.66 l
0.14 -0.86 l
0.15 -0.52 l
0.14 1.21 l
0.15 -0.69 l
0.14 -0.69 l
0.15 0.69 l
0.15 0.34 l
0.14 -0.69 l
0.15 0.86 l
0.14 -1.37 l
0.15 0.51 l
0.14 1.87 l
0.15 -1.35 l
0.14 -0.35 l
0.15 0.52 l
0.15 0.35 l
0.14 -0.18 l
0.15 -0.17 l
0.14 0.52 l
353.43 507.72 lineto
0.14 0 l
0.15 -0.68 l
0.14 1.72 l
0.15 -0.86 l
0.15 0.86 l
0.14 -0.86 l
0.15 1.69 l
0.14 -1.18 l
0.15 -0.34 l
0.14 -0.35 l
0.15 0.52 l
0.15 0.17 l
0.14 -1.03 l
0.15 0.34 l
0.14 0.18 l
0.15 -0.86 l
0.14 1.55 l
0.15 0.83 l
0.14 -0.17 l
0.15 -0.49 l
0.15 -0.35 l
0.14 0.35 l
0.15 -0.52 l
0.14 -0.17 l
0.15 -0.52 l
0.14 1.35 l
0.15 -0.83 l
0.14 0.34 l
0.15 -1.03 l
0.15 1.38 l
0.14 -0.35 l
0.15 -1.72 l
0.14 1.90 l
0.15 -0.52 l
0.14 0.17 l
0.15 0.83 l
0.14 -0.66 l
0.15 -0.51 l
0.15 0.86 l
0.14 -0.52 l
0.15 0.83 l
0.14 -0.17 l
0.15 -0.14 l
0.14 0.66 l
0.15 -1.87 l
0.15 0.52 l
0.14 0.17 l
0.15 0.35 l
0.14 0.48 l
0.15 -1.17 l
0.14 0.34 l
0.15 -0.86 l
0.14 2.04 l
0.15 -1.87 l
0.15 0.69 l
0.14 -0.34 l
0.15 0.86 l
0.14 -0.52 l
0.15 -0.86 l
0.14 1.03 l
0.15 -1.55 l
0.14 1.73 l
0.15 0.83 l
0.15 -1.70 l
0.14 0.69 l
0.15 -0.69 l
0.14 -0.51 l
0.15 -0.35 l
0.14 1.04 l
0.15 0.69 l
0.14 -0.52 l
0.15 0.83 l
0.15 -0.14 l
0.14 -0.52 l
0.15 0 l
0.14 -0.69 l
0.15 0.52 l
0.14 0.52 l
0.15 -1.21 l
0.15 1.69 l
0.14 -1.69 l
0.15 1.03 l
0.14 0.66 l
0.15 -0.66 l
0.14 0 l
0.15 0 l
0.14 0.35 l
0.15 0.14 l
0.15 -0.31 l
0.14 -0.87 l
0.15 0.52 l
0.14 -0.34 l
0.15 -0.35 l
0.14 0.52 l
0.15 0 l
0.14 1.18 l
0.15 -0.35 l
0.15 -0.14 l
0.14 -1.04 l
currentpoint o m
367.99 507.55 lineto
0.14 0.86 l
0.15 -0.69 l
0.14 -0.17 l
0.15 1.70 l
0.14 -1.18 l
0.15 0 l
0.15 -0.17 l
0.14 0.17 l
0.15 0 l
0.14 0.69 l
0.15 0.14 l
0.14 -0.66 l
0.15 0 l
0.15 -0.69 l
0.14 1.04 l
0.15 -1.38 l
0.14 0.86 l
0.15 0.52 l
0.14 -0.18 l
0.15 -0.69 l
0.14 -0.17 l
0.15 0.86 l
0.15 -1.37 l
0.14 1.20 l
0.15 0.17 l
0.14 0.49 l
0.15 -1.00 l
0.14 0.34 l
0.15 1.18 l
0.14 0 l
0.15 -1.35 l
0.15 -1.21 l
0.14 0.52 l
0.15 0.17 l
0.14 0.35 l
0.15 0.69 l
0.14 0.48 l
0.15 -0.31 l
0.14 -1.04 l
0.15 0.18 l
0.15 1.17 l
0.14 -1.00 l
0.15 0 l
0.14 0.69 l
0.15 -0.52 l
0.14 -0.69 l
0.15 0.86 l
0.15 0.18 l
0.14 -0.87 l
0.15 0.18 l
0.14 0.17 l
0.15 0 l
0.14 0.52 l
0.15 -0.69 l
0.14 0.69 l
0.15 -0.87 l
0.15 -1.03 l
0.14 2.21 l
0.15 -1.18 l
0.14 0 l
0.15 0 l
0.14 1.53 l
0.15 -1.18 l
0.14 -0.35 l
0.15 0.35 l
0.15 0.34 l
0.14 -1.03 l
0.15 0.52 l
0.14 1.17 l
0.15 -1.00 l
0.14 1.18 l
0.15 -1.35 l
0.14 -0.35 l
0.15 0.69 l
0.15 0.17 l
0.14 -0.69 l
0.15 -0.51 l
0.14 0.86 l
0.15 0.17 l
0.14 0.17 l
0.15 -0.17 l
0.15 0.17 l
0.14 -1.03 l
0.15 0 l
0.14 0.69 l
0.15 0.34 l
0.14 -0.17 l
0.15 -0.86 l
0.14 1.21 l
0.15 -0.35 l
0.15 -1.03 l
0.14 1.55 l
0.15 -0.86 l
0.14 1.00 l
0.15 -1.00 l
0.14 0.51 l
0.15 -0.34 l
0.14 -0.17 l
0.15 -0.69 l
o
/bg { 1 1 1 srgb } def
222.40 510.11 0.43 c p3
222.55 510.11 0.43 c p3
222.69 510.45 0.43 c p3
222.84 509.93 0.43 c p3
222.98 510.28 0.43 c p3
223.13 510.11 0.43 c p3
223.27 509.07 0.43 c p3
223.42 509.25 0.43 c p3
223.56 510.62 0.43 c p3
223.71 508.59 0.43 c p3
223.86 508.76 0.43 c p3
224.00 509.93 0.43 c p3
224.15 508.90 0.43 c p3
224.29 510.97 0.43 c p3
224.44 509.59 0.43 c p3
224.58 510.80 0.43 c p3
224.73 509.59 0.43 c p3
224.87 509.93 0.43 c p3
225.02 510.80 0.43 c p3
225.17 511.48 0.43 c p3
225.31 509.42 0.43 c p3
225.46 510.45 0.43 c p3
225.60 510.11 0.43 c p3
225.75 509.76 0.43 c p3
225.89 510.28 0.43 c p3
226.04 509.59 0.43 c p3
226.19 511.66 0.43 c p3
226.33 508.59 0.43 c p3
226.48 509.42 0.43 c p3
226.62 510.28 0.43 c p3
226.77 510.62 0.43 c p3
226.91 509.59 0.43 c p3
227.06 509.93 0.43 c p3
227.20 509.76 0.43 c p3
227.35 510.11 0.43 c p3
227.50 509.42 0.43 c p3
227.64 510.28 0.43 c p3
227.79 510.80 0.43 c p3
227.93 509.93 0.43 c p3
228.08 510.97 0.43 c p3
228.22 510.11 0.43 c p3
228.37 510.11 0.43 c p3
228.51 510.45 0.43 c p3
228.66 511.14 0.43 c p3
228.81 510.97 0.43 c p3
228.95 509.76 0.43 c p3
229.10 510.45 0.43 c p3
229.24 509.25 0.43 c p3
229.39 510.28 0.43 c p3
229.53 509.59 0.43 c p3
229.68 509.25 0.43 c p3
229.82 510.62 0.43 c p3
229.97 510.28 0.43 c p3
230.12 510.28 0.43 c p3
230.26 509.93 0.43 c p3
230.41 510.62 0.43 c p3
230.55 509.42 0.43 c p3
230.70 510.28 0.43 c p3
230.84 510.45 0.43 c p3
230.99 509.76 0.43 c p3
231.14 509.42 0.43 c p3
231.28 509.93 0.43 c p3
231.43 508.59 0.43 c p3
231.57 509.93 0.43 c p3
231.72 509.07 0.43 c p3
231.86 511.14 0.43 c p3
232.01 511.31 0.43 c p3
232.15 510.97 0.43 c p3
232.30 509.76 0.43 c p3
232.45 510.62 0.43 c p3
232.59 510.11 0.43 c p3
232.74 510.28 0.43 c p3
232.88 510.28 0.43 c p3
233.03 509.76 0.43 c p3
233.17 509.76 0.43 c p3
233.32 509.42 0.43 c p3
233.46 510.62 0.43 c p3
233.61 509.42 0.43 c p3
233.76 510.62 0.43 c p3
233.90 510.11 0.43 c p3
234.05 511.31 0.43 c p3
234.19 510.80 0.43 c p3
234.34 511.14 0.43 c p3
234.48 509.93 0.43 c p3
234.63 512.00 0.43 c p3
234.77 509.93 0.43 c p3
234.92 510.11 0.43 c p3
235.07 511.14 0.43 c p3
235.21 509.76 0.43 c p3
235.36 509.76 0.43 c p3
235.50 510.62 0.43 c p3
235.65 509.07 0.43 c p3
235.79 510.11 0.43 c p3
235.94 510.62 0.43 c p3
236.09 509.59 0.43 c p3
236.23 510.28 0.43 c p3
236.38 510.62 0.43 c p3
236.52 510.28 0.43 c p3
236.67 510.45 0.43 c p3
236.81 509.93 0.43 c p3
236.96 476.42 0.43 c p3
237.10 461.00 0.43 c p3
237.25 461.87 0.43 c p3
237.40 464.77 0.43 c p3
237.54 464.25 0.43 c p3
237.69 468.53 0.43 c p3
237.83 469.39 0.43 c p3
237.98 469.22 0.43 c p3
238.12 469.91 0.43 c p3
238.27 469.22 0.43 c p3
238.41 470.59 0.43 c p3
238.56 468.53 0.43 c p3
238.71 470.08 0.43 c p3
238.85 473.49 0.43 c p3
239.00 471.94 0.43 c p3
239.14 471.80 0.43 c p3
239.29 472.80 0.43 c p3
239.43 473.49 0.43 c p3
239.58 475.39 0.43 c p3
239.72 475.04 0.43 c p3
239.87 475.73 0.43 c p3
240.02 476.91 0.43 c p3
240.16 476.42 0.43 c p3
240.31 476.56 0.43 c p3
240.45 475.21 0.43 c p3
240.60 476.73 0.43 c p3
240.74 477.42 0.43 c p3
240.89 477.08 0.43 c p3
241.04 476.25 0.43 c p3
241.18 476.42 0.43 c p3
241.33 478.11 0.43 c p3
241.47 477.42 0.43 c p3
241.62 479.32 0.43 c p3
241.76 477.08 0.43 c p3
241.91 479.66 0.43 c p3
242.05 480.87 0.43 c p3
242.20 479.49 0.43 c p3
242.35 480.69 0.43 c p3
242.49 481.87 0.43 c p3
242.64 479.15 0.43 c p3
242.78 479.49 0.43 c p3
242.93 481.53 0.43 c p3
243.07 481.87 0.43 c p3
243.22 481.53 0.43 c p3
243.36 480.52 0.43 c p3
243.51 483.42 0.43 c p3
243.66 482.73 0.43 c p3
243.80 482.22 0.43 c p3
243.95 483.94 0.43 c p3
244.09 482.39 0.43 c p3
244.24 482.56 0.43 c p3
244.38 484.28 0.43 c p3
244.53 484.45 0.43 c p3
244.67 484.80 0.43 c p3
244.82 483.76 0.43 c p3
244.97 484.45 0.43 c p3
245.11 485.14 0.43 c p3
245.26 484.63 0.43 c p3
245.40 484.97 0.43 c p3
245.55 485.31 0.43 c p3
245.69 485.80 0.43 c p3
245.84 484.63 0.43 c p3
245.99 485.80 0.43 c p3
246.13 486.84 0.43 c p3
246.28 487.35 0.43 c p3
246.42 487.18 0.43 c p3
246.57 485.80 0.43 c p3
246.71 488.21 0.43 c p3
246.86 486.66 0.43 c p3
247.00 488.21 0.43 c p3
247.15 489.07 0.43 c p3
247.30 487.87 0.43 c p3
247.44 488.90 0.43 c p3
247.59 489.42 0.43 c p3
247.73 488.56 0.43 c p3
247.88 488.38 0.43 c p3
248.02 488.90 0.43 c p3
248.17 490.42 0.43 c p3
248.31 488.38 0.43 c p3
248.46 488.73 0.43 c p3
248.61 489.59 0.43 c p3
248.75 489.93 0.43 c p3
248.90 488.90 0.43 c p3
249.04 490.59 0.43 c p3
249.19 491.46 0.43 c p3
249.33 489.93 0.43 c p3
249.48 490.11 0.43 c p3
249.62 492.32 0.43 c p3
249.77 490.59 0.43 c p3
249.92 490.42 0.43 c p3
250.06 492.49 0.43 c p3
250.21 492.49 0.43 c p3
250.35 490.77 0.43 c p3
250.50 491.80 0.43 c p3
250.64 494.21 0.43 c p3
250.79 492.66 0.43 c p3
250.94 490.77 0.43 c p3
251.08 492.49 0.43 c p3
251.23 494.38 0.43 c p3
251.37 492.49 0.43 c p3
251.52 493.18 0.43 c p3
251.66 495.21 0.43 c p3
251.81 493.00 0.43 c p3
251.95 493.69 0.43 c p3
252.10 494.90 0.43 c p3
252.25 494.04 0.43 c p3
252.39 493.87 0.43 c p3
252.54 492.83 0.43 c p3
252.68 495.39 0.43 c p3
252.83 494.73 0.43 c p3
252.97 494.55 0.43 c p3
253.12 495.21 0.43 c p3
253.26 496.25 0.43 c p3
253.41 494.90 0.43 c p3
253.56 496.59 0.43 c p3
253.70 496.07 0.43 c p3
253.85 495.90 0.43 c p3
253.99 495.73 0.43 c p3
254.14 496.42 0.43 c p3
254.28 497.11 0.43 c p3
254.43 495.39 0.43 c p3
254.57 496.25 0.43 c p3
254.72 496.59 0.43 c p3
254.87 495.21 0.43 c p3
255.01 496.07 0.43 c p3
255.16 497.62 0.43 c p3
255.30 497.11 0.43 c p3
255.45 497.11 0.43 c p3
255.59 497.28 0.43 c p3
255.74 497.62 0.43 c p3
255.88 498.14 0.43 c p3
256.03 496.94 0.43 c p3
256.18 497.97 0.43 c p3
256.32 497.97 0.43 c p3
256.47 497.11 0.43 c p3
256.61 497.97 0.43 c p3
256.76 499.66 0.43 c p3
256.90 497.80 0.43 c p3
257.05 497.62 0.43 c p3
257.20 498.49 0.43 c p3
257.34 497.28 0.43 c p3
257.49 498.14 0.43 c p3
257.63 498.83 0.43 c p3
257.78 498.49 0.43 c p3
257.92 499.17 0.43 c p3
258.07 498.83 0.43 c p3
258.21 499.00 0.43 c p3
258.36 499.52 0.43 c p3
258.51 498.83 0.43 c p3
258.65 500.01 0.43 c p3
258.80 500.18 0.43 c p3
258.94 500.01 0.43 c p3
259.09 500.01 0.43 c p3
259.23 500.35 0.43 c p3
259.38 500.87 0.43 c p3
259.52 499.52 0.43 c p3
259.67 499.35 0.43 c p3
259.82 500.18 0.43 c p3
259.96 501.21 0.43 c p3
260.11 499.83 0.43 c p3
260.25 500.01 0.43 c p3
260.40 500.18 0.43 c p3
260.54 500.52 0.43 c p3
260.69 499.83 0.43 c p3
260.83 501.21 0.43 c p3
260.98 500.69 0.43 c p3
261.13 500.69 0.43 c p3
261.27 500.69 0.43 c p3
261.42 502.07 0.43 c p3
261.56 500.87 0.43 c p3
261.71 501.04 0.43 c p3
261.85 501.73 0.43 c p3
262.00 501.73 0.43 c p3
262.15 500.69 0.43 c p3
262.29 501.38 0.43 c p3
262.44 501.56 0.43 c p3
262.58 502.76 0.43 c p3
262.73 502.24 0.43 c p3
262.87 501.90 0.43 c p3
263.02 503.62 0.43 c p3
263.16 502.24 0.43 c p3
263.31 501.38 0.43 c p3
263.46 502.76 0.43 c p3
263.60 502.59 0.43 c p3
263.75 503.62 0.43 c p3
263.89 502.93 0.43 c p3
264.04 502.07 0.43 c p3
264.18 502.42 0.43 c p3
264.33 502.24 0.43 c p3
264.47 502.76 0.43 c p3
264.62 503.28 0.43 c p3
264.77 501.73 0.43 c p3
264.91 501.90 0.43 c p3
265.06 503.97 0.43 c p3
265.20 502.59 0.43 c p3
265.35 502.59 0.43 c p3
265.49 503.62 0.43 c p3
265.64 504.80 0.43 c p3
265.78 503.45 0.43 c p3
265.93 502.76 0.43 c p3
266.08 502.93 0.43 c p3
266.22 504.14 0.43 c p3
266.37 503.45 0.43 c p3
266.51 503.10 0.43 c p3
266.66 503.45 0.43 c p3
266.80 503.28 0.43 c p3
266.95 503.10 0.43 c p3
267.10 504.63 0.43 c p3
267.24 503.62 0.43 c p3
267.39 503.28 0.43 c p3
267.53 503.79 0.43 c p3
267.68 503.28 0.43 c p3
267.82 503.45 0.43 c p3
267.97 503.28 0.43 c p3
268.11 503.62 0.43 c p3
268.26 503.45 0.43 c p3
268.41 503.45 0.43 c p3
268.55 503.45 0.43 c p3
268.70 504.63 0.43 c p3
268.84 504.45 0.43 c p3
268.99 504.28 0.43 c p3
269.13 505.14 0.43 c p3
269.28 503.62 0.43 c p3
269.42 504.80 0.43 c p3
269.57 505.14 0.43 c p3
269.72 505.31 0.43 c p3
269.86 503.62 0.43 c p3
270.01 503.79 0.43 c p3
270.15 505.49 0.43 c p3
270.30 504.80 0.43 c p3
270.44 504.45 0.43 c p3
270.59 505.14 0.43 c p3
270.73 505.66 0.43 c p3
270.88 504.97 0.43 c p3
271.03 504.28 0.43 c p3
271.17 504.63 0.43 c p3
271.32 505.14 0.43 c p3
271.46 503.97 0.43 c p3
271.61 504.63 0.43 c p3
271.75 506.52 0.43 c p3
271.90 504.97 0.43 c p3
272.05 504.63 0.43 c p3
272.19 505.83 0.43 c p3
272.34 505.31 0.43 c p3
272.48 506.00 0.43 c p3
272.63 505.31 0.43 c p3
272.77 506.69 0.43 c p3
272.92 506.00 0.43 c p3
273.06 504.45 0.43 c p3
273.21 505.83 0.43 c p3
273.36 505.66 0.43 c p3
273.50 505.31 0.43 c p3
273.65 504.14 0.43 c p3
273.79 506.69 0.43 c p3
273.94 506.18 0.43 c p3
274.08 505.31 0.43 c p3
274.23 504.97 0.43 c p3
274.37 505.14 0.43 c p3
274.52 506.00 0.43 c p3
274.67 506.18 0.43 c p3
274.81 507.04 0.43 c p3
274.96 506.86 0.43 c p3
275.10 504.97 0.43 c p3
275.25 506.35 0.43 c p3
275.39 505.49 0.43 c p3
275.54 506.00 0.43 c p3
275.68 506.00 0.43 c p3
275.83 506.18 0.43 c p3
275.98 506.18 0.43 c p3
276.12 505.31 0.43 c p3
276.27 506.18 0.43 c p3
276.41 506.52 0.43 c p3
276.56 505.49 0.43 c p3
276.70 506.35 0.43 c p3
276.85 506.86 0.43 c p3
277.00 506.86 0.43 c p3
277.14 505.14 0.43 c p3
277.29 505.31 0.43 c p3
277.43 506.52 0.43 c p3
277.58 505.66 0.43 c p3
277.72 505.49 0.43 c p3
277.87 506.35 0.43 c p3
278.01 506.18 0.43 c p3
278.16 505.14 0.43 c p3
278.31 506.35 0.43 c p3
278.45 507.21 0.43 c p3
278.60 506.35 0.43 c p3
278.74 506.00 0.43 c p3
278.89 506.52 0.43 c p3
279.03 506.69 0.43 c p3
279.18 506.69 0.43 c p3
279.32 506.86 0.43 c p3
279.47 507.21 0.43 c p3
279.62 506.52 0.43 c p3
279.76 505.83 0.43 c p3
279.91 506.86 0.43 c p3
280.05 506.86 0.43 c p3
280.20 507.38 0.43 c p3
280.34 506.69 0.43 c p3
280.49 507.90 0.43 c p3
280.63 507.90 0.43 c p3
280.78 507.38 0.43 c p3
280.93 507.38 0.43 c p3
281.07 507.72 0.43 c p3
281.22 507.04 0.43 c p3
281.36 506.69 0.43 c p3
281.51 506.52 0.43 c p3
281.65 506.86 0.43 c p3
281.80 506.35 0.43 c p3
281.95 506.69 0.43 c p3
282.09 508.07 0.43 c p3
282.24 506.52 0.43 c p3
282.38 506.00 0.43 c p3
282.53 507.90 0.43 c p3
282.67 507.72 0.43 c p3
282.82 506.69 0.43 c p3
282.96 507.90 0.43 c p3
283.11 507.90 0.43 c p3
283.26 507.55 0.43 c p3
283.40 506.52 0.43 c p3
283.55 507.90 0.43 c p3
283.69 506.86 0.43 c p3
283.84 506.86 0.43 c p3
283.98 506.52 0.43 c p3
284.13 507.72 0.43 c p3
284.27 507.04 0.43 c p3
284.42 506.35 0.43 c p3
284.57 506.52 0.43 c p3
284.71 509.42 0.43 c p3
284.86 507.04 0.43 c p3
285.00 507.72 0.43 c p3
285.15 507.21 0.43 c p3
285.29 507.55 0.43 c p3
285.44 506.52 0.43 c p3
285.58 508.07 0.43 c p3
285.73 507.90 0.43 c p3
285.88 507.38 0.43 c p3
286.02 508.07 0.43 c p3
286.17 508.07 0.43 c p3
286.31 506.35 0.43 c p3
286.46 507.38 0.43 c p3
286.60 507.55 0.43 c p3
286.75 508.41 0.43 c p3
286.89 507.72 0.43 c p3
287.04 507.04 0.43 c p3
287.19 508.41 0.43 c p3
287.33 508.07 0.43 c p3
287.48 507.21 0.43 c p3
287.62 506.69 0.43 c p3
287.77 507.90 0.43 c p3
287.91 507.55 0.43 c p3
288.06 506.52 0.43 c p3
288.21 508.41 0.43 c p3
288.35 508.41 0.43 c p3
288.50 507.38 0.43 c p3
288.64 507.21 0.43 c p3
288.79 507.55 0.43 c p3
288.93 507.72 0.43 c p3
289.08 507.55 0.43 c p3
289.22 507.21 0.43 c p3
289.37 507.38 0.43 c p3
289.52 507.90 0.43 c p3
289.66 507.21 0.43 c p3
289.81 508.07 0.43 c p3
289.95 507.90 0.43 c p3
290.10 507.04 0.43 c p3
290.24 508.07 0.43 c p3
290.39 509.25 0.43 c p3
290.53 506.86 0.43 c p3
290.68 507.38 0.43 c p3
290.83 507.21 0.43 c p3
290.97 507.55 0.43 c p3
291.12 508.59 0.43 c p3
291.26 506.69 0.43 c p3
291.41 507.90 0.43 c p3
291.55 507.21 0.43 c p3
291.70 507.21 0.43 c p3
291.84 507.04 0.43 c p3
291.99 508.07 0.43 c p3
292.14 508.07 0.43 c p3
292.28 506.35 0.43 c p3
292.43 507.55 0.43 c p3
292.57 508.59 0.43 c p3
292.72 506.86 0.43 c p3
292.86 507.38 0.43 c p3
293.01 508.76 0.43 c p3
293.16 507.90 0.43 c p3
293.30 507.55 0.43 c p3
293.45 508.07 0.43 c p3
293.59 506.69 0.43 c p3
293.74 506.18 0.43 c p3
293.88 507.04 0.43 c p3
294.03 507.55 0.43 c p3
294.17 508.90 0.43 c p3
294.32 508.41 0.43 c p3
294.47 508.59 0.43 c p3
294.61 509.59 0.43 c p3
294.76 506.86 0.43 c p3
294.90 507.90 0.43 c p3
295.05 507.90 0.43 c p3
295.19 508.59 0.43 c p3
295.34 506.35 0.43 c p3
295.48 507.38 0.43 c p3
295.63 508.59 0.43 c p3
295.78 507.38 0.43 c p3
295.92 507.72 0.43 c p3
296.07 508.59 0.43 c p3
296.21 507.90 0.43 c p3
296.36 508.07 0.43 c p3
296.50 508.24 0.43 c p3
296.65 508.90 0.43 c p3
296.79 507.55 0.43 c p3
296.94 507.21 0.43 c p3
297.09 507.21 0.43 c p3
297.23 508.24 0.43 c p3
297.38 507.21 0.43 c p3
297.52 507.72 0.43 c p3
297.67 509.59 0.43 c p3
297.81 508.07 0.43 c p3
297.96 508.24 0.43 c p3
298.11 508.41 0.43 c p3
298.25 508.90 0.43 c p3
298.40 508.07 0.43 c p3
298.54 506.86 0.43 c p3
298.69 508.76 0.43 c p3
298.83 506.69 0.43 c p3
298.98 507.21 0.43 c p3
299.12 507.72 0.43 c p3
299.27 509.25 0.43 c p3
299.42 508.76 0.43 c p3
299.56 507.21 0.43 c p3
299.71 509.25 0.43 c p3
299.85 508.90 0.43 c p3
300.00 506.86 0.43 c p3
300.14 507.38 0.43 c p3
300.29 508.59 0.43 c p3
300.43 508.41 0.43 c p3
300.58 506.86 0.43 c p3
300.73 508.76 0.43 c p3
300.87 508.24 0.43 c p3
301.02 507.38 0.43 c p3
301.16 507.72 0.43 c p3
301.31 508.24 0.43 c p3
301.45 508.59 0.43 c p3
301.60 508.07 0.43 c p3
301.74 507.90 0.43 c p3
301.89 509.07 0.43 c p3
302.04 508.24 0.43 c p3
302.18 508.76 0.43 c p3
302.33 508.24 0.43 c p3
302.47 507.55 0.43 c p3
302.62 507.55 0.43 c p3
302.76 508.07 0.43 c p3
302.91 509.42 0.43 c p3
303.06 509.25 0.43 c p3
303.20 506.69 0.43 c p3
303.35 508.41 0.43 c p3
303.49 507.21 0.43 c p3
303.64 508.41 0.43 c p3
303.78 508.90 0.43 c p3
303.93 509.25 0.43 c p3
304.07 508.24 0.43 c p3
304.22 507.72 0.43 c p3
304.37 508.59 0.43 c p3
304.51 508.24 0.43 c p3
304.66 509.42 0.43 c p3
304.80 507.72 0.43 c p3
304.95 508.59 0.43 c p3
305.09 507.90 0.43 c p3
305.24 507.38 0.43 c p3
305.38 507.55 0.43 c p3
305.53 509.42 0.43 c p3
305.68 508.07 0.43 c p3
305.82 507.90 0.43 c p3
305.97 507.21 0.43 c p3
306.11 508.24 0.43 c p3
306.26 507.72 0.43 c p3
306.40 508.41 0.43 c p3
306.55 508.59 0.43 c p3
306.69 508.90 0.43 c p3
306.84 507.21 0.43 c p3
306.99 507.55 0.43 c p3
307.13 508.07 0.43 c p3
307.28 508.24 0.43 c p3
307.42 507.55 0.43 c p3
307.57 508.07 0.43 c p3
307.71 508.24 0.43 c p3
307.86 508.24 0.43 c p3
308.01 508.90 0.43 c p3
308.15 507.72 0.43 c p3
308.30 507.90 0.43 c p3
308.44 507.38 0.43 c p3
308.59 508.24 0.43 c p3
308.73 509.25 0.43 c p3
308.88 507.21 0.43 c p3
309.02 507.21 0.43 c p3
309.17 510.11 0.43 c p3
309.32 509.07 0.43 c p3
309.46 507.21 0.43 c p3
309.61 508.41 0.43 c p3
309.75 508.76 0.43 c p3
309.90 508.41 0.43 c p3
310.04 508.90 0.43 c p3
310.19 508.41 0.43 c p3
310.33 508.07 0.43 c p3
310.48 508.59 0.43 c p3
310.63 508.07 0.43 c p3
310.77 508.59 0.43 c p3
310.92 508.24 0.43 c p3
311.06 506.52 0.43 c p3
311.21 507.21 0.43 c p3
311.35 509.25 0.43 c p3
311.50 508.41 0.43 c p3
311.64 507.72 0.43 c p3
311.79 507.90 0.43 c p3
311.94 508.59 0.43 c p3
312.08 507.38 0.43 c p3
312.23 508.41 0.43 c p3
312.37 508.59 0.43 c p3
312.52 507.21 0.43 c p3
312.66 508.07 0.43 c p3
312.81 508.24 0.43 c p3
312.96 508.90 0.43 c p3
313.10 508.07 0.43 c p3
313.25 507.90 0.43 c p3
313.39 508.90 0.43 c p3
313.54 508.07 0.43 c p3
313.68 507.55 0.43 c p3
313.83 509.07 0.43 c p3
313.97 508.24 0.43 c p3
314.12 508.76 0.43 c p3
314.27 508.59 0.43 c p3
314.41 508.41 0.43 c p3
314.56 507.55 0.43 c p3
314.70 507.21 0.43 c p3
314.85 508.59 0.43 c p3
314.99 507.72 0.43 c p3
315.14 507.90 0.43 c p3
315.28 508.41 0.43 c p3
315.43 508.24 0.43 c p3
315.58 509.42 0.43 c p3
315.72 508.90 0.43 c p3
315.87 508.59 0.43 c p3
316.01 508.90 0.43 c p3
316.16 507.38 0.43 c p3
316.30 507.90 0.43 c p3
316.45 508.59 0.43 c p3
316.59 507.38 0.43 c p3
316.74 507.21 0.43 c p3
316.89 508.59 0.43 c p3
317.03 508.76 0.43 c p3
317.18 508.07 0.43 c p3
317.32 508.90 0.43 c p3
317.47 509.25 0.43 c p3
317.61 508.41 0.43 c p3
317.76 508.07 0.43 c p3
317.91 508.24 0.43 c p3
318.05 508.41 0.43 c p3
318.20 507.21 0.43 c p3
318.34 508.24 0.43 c p3
318.49 508.07 0.43 c p3
318.63 506.86 0.43 c p3
318.78 508.07 0.43 c p3
318.92 507.72 0.43 c p3
319.07 507.90 0.43 c p3
319.22 508.76 0.43 c p3
319.36 508.90 0.43 c p3
319.51 509.07 0.43 c p3
319.65 508.76 0.43 c p3
319.80 506.35 0.43 c p3
319.94 509.07 0.43 c p3
320.09 509.25 0.43 c p3
320.23 507.38 0.43 c p3
320.38 507.04 0.43 c p3
320.53 508.90 0.43 c p3
320.67 508.59 0.43 c p3
320.82 507.38 0.43 c p3
320.96 508.41 0.43 c p3
321.11 508.76 0.43 c p3
321.25 507.55 0.43 c p3
321.40 508.90 0.43 c p3
321.54 509.76 0.43 c p3
321.69 508.24 0.43 c p3
321.84 508.90 0.43 c p3
321.98 508.24 0.43 c p3
322.13 509.59 0.43 c p3
322.27 508.07 0.43 c p3
322.42 508.76 0.43 c p3
322.56 509.07 0.43 c p3
322.71 509.25 0.43 c p3
322.85 508.41 0.43 c p3
323.00 508.41 0.43 c p3
323.15 509.07 0.43 c p3
323.29 508.76 0.43 c p3
323.44 507.72 0.43 c p3
323.58 508.76 0.43 c p3
323.73 508.76 0.43 c p3
323.87 507.38 0.43 c p3
324.02 507.55 0.43 c p3
324.17 509.07 0.43 c p3
324.31 508.24 0.43 c p3
324.46 507.21 0.43 c p3
324.60 508.07 0.43 c p3
324.75 507.72 0.43 c p3
324.89 508.59 0.43 c p3
325.04 508.41 0.43 c p3
325.18 508.90 0.43 c p3
325.33 508.24 0.43 c p3
325.48 509.42 0.43 c p3
325.62 508.24 0.43 c p3
325.77 508.41 0.43 c p3
325.91 507.90 0.43 c p3
326.06 507.90 0.43 c p3
326.20 508.59 0.43 c p3
326.35 509.07 0.43 c p3
326.49 507.21 0.43 c p3
326.64 508.76 0.43 c p3
326.79 508.59 0.43 c p3
326.93 508.24 0.43 c p3
327.08 507.21 0.43 c p3
327.22 508.41 0.43 c p3
327.37 508.41 0.43 c p3
327.51 507.90 0.43 c p3
327.66 508.41 0.43 c p3
327.80 508.41 0.43 c p3
327.95 507.55 0.43 c p3
328.10 507.55 0.43 c p3
328.24 509.42 0.43 c p3
328.39 509.93 0.43 c p3
328.53 507.90 0.43 c p3
328.68 508.07 0.43 c p3
328.82 509.42 0.43 c p3
328.97 509.42 0.43 c p3
329.12 508.24 0.43 c p3
329.26 508.59 0.43 c p3
329.41 508.59 0.43 c p3
329.55 507.90 0.43 c p3
329.70 507.72 0.43 c p3
329.84 507.90 0.43 c p3
329.99 509.25 0.43 c p3
330.13 508.90 0.43 c p3
330.28 507.04 0.43 c p3
330.43 507.72 0.43 c p3
330.57 508.41 0.43 c p3
330.72 507.04 0.43 c p3
330.86 509.59 0.43 c p3
331.01 508.41 0.43 c p3
331.15 509.25 0.43 c p3
331.30 508.07 0.43 c p3
331.44 509.93 0.43 c p3
331.59 508.07 0.43 c p3
331.74 508.07 0.43 c p3
331.88 509.07 0.43 c p3
332.03 508.76 0.43 c p3
332.17 507.90 0.43 c p3
332.32 507.21 0.43 c p3
332.46 508.24 0.43 c p3
332.61 509.07 0.43 c p3
332.75 508.76 0.43 c p3
332.90 507.90 0.43 c p3
333.05 508.24 0.43 c p3
333.19 507.55 0.43 c p3
333.34 507.55 0.43 c p3
333.48 508.59 0.43 c p3
333.63 509.42 0.43 c p3
333.77 507.90 0.43 c p3
333.92 508.59 0.43 c p3
334.07 507.21 0.43 c p3
334.21 509.25 0.43 c p3
334.36 508.24 0.43 c p3
334.50 508.59 0.43 c p3
334.65 508.90 0.43 c p3
334.79 508.90 0.43 c p3
334.94 508.76 0.43 c p3
335.08 508.24 0.43 c p3
335.23 508.41 0.43 c p3
335.38 508.07 0.43 c p3
335.52 508.41 0.43 c p3
335.67 507.72 0.43 c p3
335.81 508.24 0.43 c p3
335.96 508.24 0.43 c p3
336.10 507.55 0.43 c p3
336.25 507.38 0.43 c p3
336.39 507.90 0.43 c p3
336.54 509.59 0.43 c p3
336.69 507.90 0.43 c p3
336.83 508.41 0.43 c p3
336.98 508.90 0.43 c p3
337.12 508.76 0.43 c p3
337.27 508.76 0.43 c p3
337.41 508.07 0.43 c p3
337.56 507.72 0.43 c p3
337.70 508.41 0.43 c p3
337.85 508.24 0.43 c p3
338.00 507.04 0.43 c p3
338.14 508.07 0.43 c p3
338.29 507.90 0.43 c p3
338.43 508.41 0.43 c p3
338.58 507.38 0.43 c p3
338.72 507.90 0.43 c p3
338.87 507.55 0.43 c p3
339.02 508.41 0.43 c p3
339.16 507.90 0.43 c p3
339.31 509.07 0.43 c p3
339.45 508.07 0.43 c p3
339.60 508.41 0.43 c p3
339.74 508.24 0.43 c p3
339.89 508.76 0.43 c p3
340.03 507.04 0.43 c p3
340.18 508.76 0.43 c p3
340.33 508.24 0.43 c p3
340.47 508.41 0.43 c p3
340.62 508.76 0.43 c p3
340.76 507.72 0.43 c p3
340.91 508.59 0.43 c p3
341.05 507.90 0.43 c p3
341.20 508.76 0.43 c p3
341.34 508.24 0.43 c p3
341.49 507.38 0.43 c p3
341.64 507.90 0.43 c p3
341.78 508.41 0.43 c p3
341.93 508.07 0.43 c p3
342.07 509.07 0.43 c p3
342.22 508.76 0.43 c p3
342.36 508.59 0.43 c p3
342.51 507.90 0.43 c p3
342.65 508.90 0.43 c p3
342.80 508.59 0.43 c p3
342.95 507.90 0.43 c p3
343.09 508.24 0.43 c p3
343.24 507.55 0.43 c p3
343.38 508.41 0.43 c p3
343.53 508.59 0.43 c p3
343.67 507.04 0.43 c p3
343.82 508.90 0.43 c p3
343.97 508.24 0.43 c p3
344.11 507.38 0.43 c p3
344.26 507.90 0.43 c p3
344.40 507.90 0.43 c p3
344.55 507.55 0.43 c p3
344.69 508.59 0.43 c p3
344.84 507.72 0.43 c p3
344.98 508.07 0.43 c p3
345.13 507.55 0.43 c p3
345.28 508.59 0.43 c p3
345.42 507.55 0.43 c p3
345.57 508.59 0.43 c p3
345.71 506.86 0.43 c p3
345.86 508.41 0.43 c p3
346.00 507.72 0.43 c p3
346.15 508.59 0.43 c p3
346.29 508.24 0.43 c p3
346.44 508.59 0.43 c p3
346.59 509.07 0.43 c p3
346.73 508.07 0.43 c p3
346.88 508.90 0.43 c p3
347.02 507.90 0.43 c p3
347.17 507.90 0.43 c p3
347.31 509.42 0.43 c p3
347.46 509.59 0.43 c p3
347.60 507.90 0.43 c p3
347.75 506.69 0.43 c p3
347.90 506.69 0.43 c p3
348.04 508.59 0.43 c p3
348.19 508.24 0.43 c p3
348.33 508.76 0.43 c p3
348.48 508.59 0.43 c p3
348.62 507.72 0.43 c p3
348.77 507.55 0.43 c p3
348.92 508.76 0.43 c p3
349.06 508.41 0.43 c p3
349.21 508.07 0.43 c p3
349.35 508.07 0.43 c p3
349.50 508.76 0.43 c p3
349.64 508.59 0.43 c p3
349.79 507.90 0.43 c p3
349.93 508.41 0.43 c p3
350.08 507.90 0.43 c p3
350.23 509.07 0.43 c p3
350.37 509.42 0.43 c p3
350.52 508.76 0.43 c p3
350.66 507.90 0.43 c p3
350.81 507.38 0.43 c p3
350.95 508.59 0.43 c p3
351.10 507.90 0.43 c p3
351.24 507.21 0.43 c p3
351.39 507.90 0.43 c p3
351.54 508.24 0.43 c p3
351.68 507.55 0.43 c p3
351.83 508.41 0.43 c p3
351.97 507.04 0.43 c p3
352.12 507.55 0.43 c p3
352.26 509.42 0.43 c p3
352.41 508.07 0.43 c p3
352.55 507.72 0.43 c p3
352.70 508.24 0.43 c p3
352.85 508.59 0.43 c p3
352.99 508.41 0.43 c p3
353.14 508.24 0.43 c p3
353.28 508.76 0.43 c p3
353.43 507.72 0.43 c p3
353.57 507.72 0.43 c p3
353.72 507.04 0.43 c p3
353.86 508.76 0.43 c p3
354.01 507.90 0.43 c p3
354.16 508.76 0.43 c p3
354.30 507.90 0.43 c p3
354.45 509.59 0.43 c p3
354.59 508.41 0.43 c p3
354.74 508.07 0.43 c p3
354.88 507.72 0.43 c p3
355.03 508.24 0.43 c p3
355.18 508.41 0.43 c p3
355.32 507.38 0.43 c p3
355.47 507.72 0.43 c p3
355.61 507.90 0.43 c p3
355.76 507.04 0.43 c p3
355.90 508.59 0.43 c p3
356.05 509.42 0.43 c p3
356.19 509.25 0.43 c p3
356.34 508.76 0.43 c p3
356.49 508.41 0.43 c p3
356.63 508.76 0.43 c p3
356.78 508.24 0.43 c p3
356.92 508.07 0.43 c p3
357.07 507.55 0.43 c p3
357.21 508.90 0.43 c p3
357.36 508.07 0.43 c p3
357.50 508.41 0.43 c p3
357.65 507.38 0.43 c p3
357.80 508.76 0.43 c p3
357.94 508.41 0.43 c p3
358.09 506.69 0.43 c p3
358.23 508.59 0.43 c p3
358.38 508.07 0.43 c p3
358.52 508.24 0.43 c p3
358.67 509.07 0.43 c p3
358.81 508.41 0.43 c p3
358.96 507.90 0.43 c p3
359.11 508.76 0.43 c p3
359.25 508.24 0.43 c p3
359.40 509.07 0.43 c p3
359.54 508.90 0.43 c p3
359.69 508.76 0.43 c p3
359.83 509.42 0.43 c p3
359.98 507.55 0.43 c p3
360.13 508.07 0.43 c p3
360.27 508.24 0.43 c p3
360.42 508.59 0.43 c p3
360.56 509.07 0.43 c p3
360.71 507.90 0.43 c p3
360.85 508.24 0.43 c p3
361.00 507.38 0.43 c p3
361.14 509.42 0.43 c p3
361.29 507.55 0.43 c p3
361.44 508.24 0.43 c p3
361.58 507.90 0.43 c p3
361.73 508.76 0.43 c p3
361.87 508.24 0.43 c p3
362.02 507.38 0.43 c p3
362.16 508.41 0.43 c p3
362.31 506.86 0.43 c p3
362.45 508.59 0.43 c p3
362.60 509.42 0.43 c p3
362.75 507.72 0.43 c p3
362.89 508.41 0.43 c p3
363.04 507.72 0.43 c p3
363.18 507.21 0.43 c p3
363.33 506.86 0.43 c p3
363.47 507.90 0.43 c p3
363.62 508.59 0.43 c p3
363.76 508.07 0.43 c p3
363.91 508.90 0.43 c p3
364.06 508.76 0.43 c p3
364.20 508.24 0.43 c p3
364.35 508.24 0.43 c p3
364.49 507.55 0.43 c p3
364.64 508.07 0.43 c p3
364.78 508.59 0.43 c p3
364.93 507.38 0.43 c p3
365.08 509.07 0.43 c p3
365.22 507.38 0.43 c p3
365.37 508.41 0.43 c p3
365.51 509.07 0.43 c p3
365.66 508.41 0.43 c p3
365.80 508.41 0.43 c p3
365.95 508.41 0.43 c p3
366.09 508.76 0.43 c p3
366.24 508.90 0.43 c p3
366.39 508.59 0.43 c p3
366.53 507.72 0.43 c p3
366.68 508.24 0.43 c p3
366.82 507.90 0.43 c p3
366.97 507.55 0.43 c p3
367.11 508.07 0.43 c p3
367.26 508.07 0.43 c p3
367.40 509.25 0.43 c p3
367.55 508.90 0.43 c p3
367.70 508.76 0.43 c p3
367.84 507.72 0.43 c p3
367.99 507.55 0.43 c p3
368.13 508.41 0.43 c p3
368.28 507.72 0.43 c p3
368.42 507.55 0.43 c p3
368.57 509.25 0.43 c p3
368.71 508.07 0.43 c p3
368.86 508.07 0.43 c p3
369.01 507.90 0.43 c p3
369.15 508.07 0.43 c p3
369.30 508.07 0.43 c p3
369.44 508.76 0.43 c p3
369.59 508.90 0.43 c p3
369.73 508.24 0.43 c p3
369.88 508.24 0.43 c p3
370.03 507.55 0.43 c p3
370.17 508.59 0.43 c p3
370.32 507.21 0.43 c p3
370.46 508.07 0.43 c p3
370.61 508.59 0.43 c p3
370.75 508.41 0.43 c p3
370.90 507.72 0.43 c p3
371.04 507.55 0.43 c p3
371.19 508.41 0.43 c p3
371.34 507.04 0.43 c p3
371.48 508.24 0.43 c p3
371.63 508.41 0.43 c p3
371.77 508.90 0.43 c p3
371.92 507.90 0.43 c p3
372.06 508.24 0.43 c p3
372.21 509.42 0.43 c p3
372.35 509.42 0.43 c p3
372.50 508.07 0.43 c p3
372.65 506.86 0.43 c p3
372.79 507.38 0.43 c p3
372.94 507.55 0.43 c p3
373.08 507.90 0.43 c p3
373.23 508.59 0.43 c p3
373.37 509.07 0.43 c p3
373.52 508.76 0.43 c p3
373.66 507.72 0.43 c p3
373.81 507.90 0.43 c p3
373.96 509.07 0.43 c p3
374.10 508.07 0.43 c p3
374.25 508.07 0.43 c p3
374.39 508.76 0.43 c p3
374.54 508.24 0.43 c p3
374.68 507.55 0.43 c p3
374.83 508.41 0.43 c p3
374.98 508.59 0.43 c p3
375.12 507.72 0.43 c p3
375.27 507.90 0.43 c p3
375.41 508.07 0.43 c p3
375.56 508.07 0.43 c p3
375.70 508.59 0.43 c p3
375.85 507.90 0.43 c p3
375.99 508.59 0.43 c p3
376.14 507.72 0.43 c p3
376.29 506.69 0.43 c p3
376.43 508.90 0.43 c p3
376.58 507.72 0.43 c p3
376.72 507.72 0.43 c p3
376.87 507.72 0.43 c p3
377.01 509.25 0.43 c p3
377.16 508.07 0.43 c p3
377.30 507.72 0.43 c p3
377.45 508.07 0.43 c p3
377.60 508.41 0.43 c p3
377.74 507.38 0.43 c p3
377.89 507.90 0.43 c p3
378.03 509.07 0.43 c p3
378.18 508.07 0.43 c p3
378.32 509.25 0.43 c p3
378.47 507.90 0.43 c p3
378.61 507.55 0.43 c p3
378.76 508.24 0.43 c p3
378.91 508.41 0.43 c p3
379.05 507.72 0.43 c p3
379.20 507.21 0.43 c p3
379.34 508.07 0.43 c p3
379.49 508.24 0.43 c p3
379.63 508.41 0.43 c p3
379.78 508.24 0.43 c p3
379.93 508.41 0.43 c p3
380.07 507.38 0.43 c p3
380.22 507.38 0.43 c p3
380.36 508.07 0.43 c p3
380.51 508.41 0.43 c p3
380.65 508.24 0.43 c p3
380.80 507.38 0.43 c p3
380.94 508.59 0.43 c p3
381.09 508.24 0.43 c p3
381.24 507.21 0.43 c p3
381.38 508.76 0.43 c p3
381.53 507.90 0.43 c p3
381.67 508.90 0.43 c p3
381.82 507.90 0.43 c p3
381.96 508.41 0.43 c p3
382.11 508.07 0.43 c p3
382.25 507.90 0.43 c p3
382.40 507.21 0.43 c p3
0.00 0.00 432.00 576.00 cl
0 0 0 srgb
0.75 setlinewidth
[] 0 setdash
1 setlinecap
1 setlinejoin
10.00 setmiterlimit
np
236.96 345.60 m
145.59 0 l
o
np
236.96 345.60 m
0 -5.76 l
o
np
285.49 345.60 m
0 -5.76 l
o
np
334.02 345.60 m
0 -5.76 l
o
np
382.55 345.60 m
0 -5.76 l
o
/Font1 findfont 10 s
236.96 329.47 (0) .5 0 t
285.49 329.47 (500) .5 0 t
334.02 329.47 (1000) .5 0 t
382.55 329.47 (1500) .5 0 t
np
216.00 352.00 m
0 164.54 l
o
np
216.00 352.00 m
-5.76 0 l
o
np
216.00 375.51 m
-5.76 0 l
o
np
216.00 399.01 m
-5.76 0 l
o
np
216.00 422.52 m
-5.76 0 l
o
np
216.00 446.02 m
-5.76 0 l
o
np
216.00 469.53 m
-5.76 0 l
o
np
216.00 493.03 m
-5.76 0 l
o
np
216.00 516.54 m
-5.76 0 l
o
209.09 348.41 (0.00) 1 0 t
209.09 371.92 (0.05) 1 0 t
209.09 395.42 (0.10) 1 0 t
209.09 418.93 (0.15) 1 0 t
209.09 442.43 (0.20) 1 0 t
209.09 465.94 (0.25) 1 0 t
209.09 489.44 (0.30) 1 0 t
209.09 512.95 (0.35) 1 0 t
np
216.00 345.60 m
172.80 0 l
0 172.80 l
-172.80 0 l
0 -172.80 l
o
0.00 0.00 432.00 576.00 cl
/Font1 findfont 10 s
0 0 0 srgb
302.40 313.34 (Time / ms \(total\)) .5 0 t
190.66 432.00 (U / V) .5 90 t
216.00 345.60 388.80 518.40 cl
0 0 0 srgb
0.38 setlinewidth
[ 1.13 1.88] 0 setdash
1 setlinecap
1 setlinejoin
10.00 setmiterlimit
np
223.42 345.60 m
0 172.80 l
o
np
235.50 345.60 m
0 172.80 l
o
np
238.71 345.60 m
0 172.80 l
o
np
311.64 345.60 m
0 172.80 l
o
86.40 57.60 388.80 288.00 cl
1 0 0 srgb
1.50 setlinewidth
[] 0 setdash
1 setlinecap
1 setlinejoin
10.00 setmiterlimit
np
97.60 279.47 m
1.41 -11.02 l
1.40 -10.42 l
1.41 -9.87 l
1.41 -9.34 l
1.41 -8.84 l
1.40 -8.38 l
1.41 -7.92 l
1.41 -7.51 l
1.40 -7.10 l
1.41 -6.72 l
1.41 -6.37 l
1.40 -6.02 l
1.41 -5.71 l
1.41 -5.40 l
1.41 -5.11 l
1.40 -4.84 l
1.41 -4.58 l
1.41 -4.34 l
1.40 -4.10 l
1.41 -3.89 l
1.41 -3.68 l
1.40 -3.48 l
1.41 -3.30 l
1.41 -3.12 l
1.41 -2.95 l
1.40 -2.80 l
1.41 -2.65 l
1.41 -2.50 l
1.40 -2.38 l
1.41 -2.24 l
1.41 -2.13 l
1.41 -2.01 l
1.40 -1.91 l
1.41 -1.80 l
1.41 -1.71 l
1.40 -1.62 l
1.41 -1.53 l
1.41 -1.45 l
1.40 -1.37 l
1.41 -1.30 l
1.41 -1.23 l
1.41 -1.16 l
1.40 -1.10 l
1.41 -1.05 l
1.41 -0.98 l
1.40 -0.94 l
1.41 -0.88 l
1.41 -0.84 l
1.40 -0.79 l
1.41 -0.75 l
1.41 -0.71 l
1.41 -0.68 l
1.40 -0.63 l
1.41 -0.61 l
1.41 -0.57 l
1.40 -0.54 l
1.41 -0.51 l
1.41 -0.48 l
1.41 -0.46 l
1.40 -0.43 l
1.41 -0.41 l
1.41 -0.39 l
1.40 -0.37 l
1.41 -0.35 l
1.41 -0.33 l
1.40 -0.31 l
1.41 -0.30 l
1.41 -0.28 l
1.41 -0.26 l
1.40 -0.25 l
1.41 -0.24 l
1.41 -0.23 l
1.40 -0.21 l
1.41 -0.20 l
1.41 -0.19 l
1.40 -0.18 l
1.41 -0.17 l
1.41 -0.16 l
1.41 -0.16 l
1.40 -0.14 l
1.41 -0.14 l
1.41 -0.13 l
1.40 -0.12 l
1.41 -0.12 l
1.41 -0.11 l
1.41 -0.10 l
1.40 -0.10 l
1.41 -0.09 l
1.41 -0.09 l
1.40 -0.09 l
1.41 -0.08 l
1.41 -0.07 l
1.40 -0.07 l
1.41 -0.07 l
1.41 -0.06 l
1.41 -0.06 l
1.40 -0.06 l
1.41 -0.05 l
1.41 -0.06 l
238.30 73.88 lineto
1.41 -0.05 l
1.41 -0.04 l
1.40 -0.04 l
1.41 -0.04 l
1.41 -0.04 l
1.41 -0.04 l
1.40 -0.03 l
1.41 -0.03 l
1.41 -0.03 l
1.40 -0.03 l
1.41 -0.02 l
1.41 -0.03 l
1.40 -0.02 l
1.41 -0.02 l
1.41 -0.03 l
1.41 -0.02 l
1.40 -0.02 l
1.41 -0.01 l
1.41 -0.02 l
1.40 -0.02 l
1.41 -0.01 l
1.41 -0.02 l
1.41 -0.01 l
1.40 -0.01 l
1.41 -0.02 l
1.41 -0.01 l
1.40 -0.01 l
1.41 -0.01 l
1.41 -0.01 l
1.40 -0.01 l
1.41 -0.01 l
1.41 0 l
1.41 -0.01 l
1.40 -0.01 l
1.41 -0.01 l
1.41 0 l
1.40 -0.01 l
1.41 -0.01 l
1.41 0 l
1.40 -0.01 l
1.41 0 l
1.41 -0.01 l
1.41 0 l
1.40 -0.01 l
1.41 0 l
1.41 0 l
1.40 -0.01 l
1.41 0 l
1.41 -0.01 l
1.41 0 l
1.40 0 l
1.41 0 l
1.41 -0.01 l
1.40 0 l
1.41 0 l
1.41 0 l
1.40 -0.01 l
1.41 0 l
1.41 0 l
1.41 0 l
1.40 0 l
1.41 0 l
1.41 -0.01 l
1.40 0 l
1.41 0 l
1.41 0 l
1.40 0 l
1.41 0 l
1.41 0 l
1.41 -0.01 l
1.40 0 l
1.41 0 l
1.41 0 l
1.40 0 l
1.41 0 l
1.41 0 l
1.41 0 l
1.40 0 l
1.41 0 l
1.41 0 l
1.40 0 l
1.41 0 l
1.41 0 l
1.40 -0.01 l
1.41 0 l
1.41 0 l
1.41 0 l
1.40 0 l
1.41 0 l
1.41 0 l
1.40 0 l
1.41 0 l
1.41 0 l
1.40 0 l
1.41 0 l
1.41 0 l
1.41 0 l
1.40 0 l
1.41 0 l
o
0.00 0.00 432.00 576.00 cl
0 0 0 srgb
0.75 setlinewidth
[] 0 setdash
1 setlinecap
1 setlinejoin
10.00 setmiterlimit
np
97.60 57.60 m
280.00 0 l
o
np
97.60 57.60 m
0 -5.76 l
o
np
190.93 57.60 m
0 -5.76 l
o
np
284.27 57.60 m
0 -5.76 l
o
np
377.60 57.60 m
0 -5.76 l
o
/Font1 findfont 10 s
97.60 41.47 (0) .5 0 t
190.93 41.47 (500) .5 0 t
284.27 41.47 (1000) .5 0 t
377.60 41.47 (1500) .5 0 t
np
86.40 66.13 m
0 217.78 l
o
np
86.40 66.13 m
-5.76 0 l
o
np
86.40 97.24 m
-5.76 0 l
o
np
86.40 128.36 m
-5.76 0 l
o
np
86.40 159.47 m
-5.76 0 l
o
np
86.40 190.58 m
-5.76 0 l
o
np
86.40 221.69 m
-5.76 0 l
o
np
86.40 252.80 m
-5.76 0 l
o
np
86.40 283.91 m
-5.76 0 l
o
79.49 62.54 (0.00) 1 0 t
79.49 93.65 (0.02) 1 0 t
79.49 124.77 (0.04) 1 0 t
79.49 155.88 (0.06) 1 0 t
79.49 186.99 (0.08) 1 0 t
79.49 218.10 (0.10) 1 0 t
79.49 249.21 (0.12) 1 0 t
79.49 280.32 (0.14) 1 0 t
np
86.40 57.60 m
302.40 0 l
0 230.40 l
-302.40 0 l
0 -230.40 l
o
0.00 0.00 432.00 576.00 cl
/Font1 findfont 10 s
0 0 0 srgb
237.60 13.82 (Time / ms \(after pulse\)) .5 0 t
49.54 172.80 (Absorbance A) .5 90 t
86.40 57.60 388.80 288.00 cl
/bg { 1 1 1 srgb } def
0 0 0 srgb
0.75 setlinewidth
[] 0 setdash
1 setlinecap
1 setlinejoin
10.00 setmiterlimit
101.24 263.45 0.65 c p3
101.52 244.18 0.65 c p3
101.80 252.86 0.65 c p3
102.08 253.66 0.65 c p3
102.36 248.03 0.65 c p3
102.64 244.18 0.65 c p3
102.92 233.74 0.65 c p3
103.20 235.62 0.65 c p3
103.48 231.85 0.65 c p3
103.76 225.46 0.65 c p3
104.04 228.10 0.65 c p3
104.32 227.32 0.65 c p3
104.60 234.68 0.65 c p3
104.88 226.39 0.65 c p3
105.16 222.67 0.65 c p3
105.44 224.53 0.65 c p3
105.72 229.04 0.65 c p3
106.00 228.10 0.65 c p3
106.28 218.97 0.65 c p3
106.56 222.67 0.65 c p3
106.84 212.55 0.65 c p3
107.12 224.53 0.65 c p3
107.40 210.72 0.65 c p3
107.68 204.38 0.65 c p3
107.96 211.64 0.65 c p3
108.24 205.28 0.65 c p3
108.52 199.13 0.65 c p3
108.80 213.46 0.65 c p3
109.08 211.64 0.65 c p3
109.36 200.92 0.65 c p3
109.64 199.13 0.65 c p3
109.92 200.92 0.65 c p3
110.20 206.18 0.65 c p3
110.48 191.12 0.65 c p3
110.76 194.67 0.65 c p3
111.04 197.34 0.65 c p3
111.32 188.47 0.65 c p3
111.60 196.45 0.65 c p3
111.88 195.56 0.65 c p3
112.16 186.71 0.65 c p3
112.44 185.83 0.65 c p3
112.72 184.07 0.65 c p3
113.00 189.35 0.65 c p3
113.28 185.83 0.65 c p3
113.56 182.32 0.65 c p3
113.84 184.95 0.65 c p3
114.12 183.20 0.65 c p3
114.40 181.45 0.65 c p3
114.68 178.98 0.65 c p3
114.96 184.95 0.65 c p3
115.24 178.98 0.65 c p3
115.52 173.79 0.65 c p3
115.80 171.20 0.65 c p3
116.08 172.07 0.65 c p3
116.36 178.98 0.65 c p3
116.64 166.92 0.65 c p3
116.92 174.65 0.65 c p3
117.20 166.92 0.65 c p3
117.48 162.67 0.65 c p3
117.76 168.63 0.65 c p3
118.04 163.51 0.65 c p3
118.32 160.97 0.65 c p3
118.60 165.22 0.65 c p3
118.88 166.07 0.65 c p3
119.16 163.51 0.65 c p3
119.44 156.05 0.65 c p3
119.72 166.07 0.65 c p3
120.00 164.37 0.65 c p3
120.28 160.12 0.65 c p3
120.56 158.44 0.65 c p3
120.84 163.51 0.65 c p3
121.12 155.21 0.65 c p3
121.40 151.03 0.65 c p3
121.68 158.44 0.65 c p3
121.96 157.59 0.65 c p3
122.24 146.87 0.65 c p3
122.52 155.21 0.65 c p3
122.80 156.05 0.65 c p3
123.08 146.04 0.65 c p3
123.36 146.04 0.65 c p3
123.64 154.37 0.65 c p3
123.92 149.36 0.65 c p3
124.20 137.82 0.65 c p3
124.48 145.22 0.65 c p3
124.76 154.37 0.65 c p3
125.04 146.04 0.65 c p3
125.32 137.00 0.65 c p3
125.60 146.04 0.65 c p3
125.88 142.74 0.65 c p3
126.16 133.06 0.65 c p3
126.44 143.56 0.65 c p3
126.72 140.27 0.65 c p3
127.00 134.55 0.65 c p3
127.28 138.63 0.65 c p3
127.56 139.45 0.65 c p3
127.84 144.39 0.65 c p3
128.12 132.25 0.65 c p3
128.40 135.37 0.65 c p3
128.68 136.18 0.65 c p3
128.96 133.06 0.65 c p3
129.24 128.21 0.65 c p3
129.52 134.55 0.65 c p3
129.80 126.59 0.65 c p3
130.08 129.01 0.65 c p3
130.36 129.82 0.65 c p3
130.64 130.63 0.65 c p3
130.92 127.40 0.65 c p3
131.20 124.19 0.65 c p3
131.48 132.25 0.65 c p3
131.76 128.21 0.65 c p3
132.04 126.59 0.65 c p3
132.32 133.06 0.65 c p3
132.60 129.01 0.65 c p3
132.88 121.78 0.65 c p3
133.16 124.19 0.65 c p3
133.44 124.19 0.65 c p3
133.72 123.39 0.65 c p3
134.00 121.78 0.65 c p3
134.28 119.39 0.65 c p3
134.56 124.99 0.65 c p3
134.84 120.19 0.65 c p3
135.12 120.19 0.65 c p3
135.40 124.19 0.65 c p3
135.68 120.19 0.65 c p3
135.96 112.40 0.65 c p3
136.24 120.99 0.65 c p3
136.52 121.78 0.65 c p3
136.80 117.80 0.65 c p3
137.08 123.39 0.65 c p3
137.36 119.39 0.65 c p3
137.64 116.22 0.65 c p3
137.92 117.80 0.65 c p3
138.20 114.63 0.65 c p3
138.48 116.22 0.65 c p3
138.76 115.42 0.65 c p3
139.04 113.06 0.65 c p3
139.32 116.22 0.65 c p3
139.60 110.83 0.65 c p3
139.88 110.04 0.65 c p3
140.16 110.83 0.65 c p3
140.44 110.83 0.65 c p3
140.72 109.26 0.65 c p3
141.00 106.91 0.65 c p3
141.28 113.06 0.65 c p3
141.56 113.84 0.65 c p3
141.84 110.04 0.65 c p3
142.12 105.35 0.65 c p3
142.40 111.61 0.65 c p3
142.68 110.83 0.65 c p3
142.96 110.04 0.65 c p3
143.24 108.47 0.65 c p3
143.52 111.61 0.65 c p3
143.80 105.35 0.65 c p3
144.08 107.69 0.65 c p3
144.36 107.69 0.65 c p3
144.64 107.69 0.65 c p3
144.92 101.46 0.65 c p3
145.20 106.91 0.65 c p3
145.48 106.13 0.65 c p3
145.76 103.01 0.65 c p3
146.04 103.01 0.65 c p3
146.32 107.69 0.65 c p3
146.60 104.57 0.65 c p3
146.88 103.79 0.65 c p3
147.16 98.37 0.65 c p3
147.44 100.69 0.65 c p3
147.72 102.24 0.65 c p3
148.00 94.52 0.65 c p3
148.28 100.69 0.65 c p3
148.56 104.57 0.65 c p3
148.84 98.37 0.65 c p3
149.12 99.14 0.65 c p3
149.40 94.52 0.65 c p3
149.68 97.60 0.65 c p3
149.96 101.46 0.65 c p3
150.24 99.91 0.65 c p3
150.52 100.69 0.65 c p3
150.80 98.37 0.65 c p3
151.08 96.06 0.65 c p3
151.36 103.01 0.65 c p3
151.64 102.24 0.65 c p3
151.92 92.99 0.65 c p3
152.20 99.14 0.65 c p3
152.48 99.14 0.65 c p3
152.76 94.52 0.65 c p3
153.04 89.30 0.65 c p3
153.32 95.29 0.65 c p3
153.60 98.37 0.65 c p3
153.88 97.60 0.65 c p3
154.16 92.22 0.65 c p3
154.44 95.29 0.65 c p3
154.72 96.83 0.65 c p3
155.00 95.29 0.65 c p3
155.28 96.06 0.65 c p3
155.56 96.83 0.65 c p3
155.84 90.06 0.65 c p3
156.12 94.52 0.65 c p3
156.40 96.06 0.65 c p3
156.68 93.75 0.65 c p3
156.96 96.06 0.65 c p3
157.24 95.29 0.65 c p3
157.52 96.06 0.65 c p3
157.80 94.52 0.65 c p3
158.08 95.29 0.65 c p3
158.36 95.29 0.65 c p3
158.64 95.29 0.65 c p3
158.92 90.06 0.65 c p3
159.20 90.82 0.65 c p3
159.48 91.59 0.65 c p3
159.76 87.78 0.65 c p3
160.04 94.52 0.65 c p3
160.32 89.30 0.65 c p3
160.60 87.78 0.65 c p3
160.88 87.02 0.65 c p3
161.16 94.52 0.65 c p3
161.44 93.75 0.65 c p3
161.72 86.26 0.65 c p3
162.00 89.30 0.65 c p3
162.28 90.82 0.65 c p3
162.56 87.78 0.65 c p3
162.84 85.50 0.65 c p3
163.12 88.54 0.65 c p3
163.40 91.59 0.65 c p3
163.68 90.06 0.65 c p3
163.96 87.78 0.65 c p3
164.24 92.99 0.65 c p3
164.52 90.06 0.65 c p3
164.80 81.73 0.65 c p3
165.08 88.54 0.65 c p3
165.36 90.06 0.65 c p3
165.64 84.75 0.65 c p3
165.92 87.02 0.65 c p3
166.20 83.99 0.65 c p3
166.48 87.02 0.65 c p3
166.76 80.98 0.65 c p3
167.04 83.99 0.65 c p3
167.32 90.82 0.65 c p3
167.60 84.75 0.65 c p3
167.88 85.50 0.65 c p3
168.16 87.02 0.65 c p3
168.44 92.22 0.65 c p3
168.72 80.98 0.65 c p3
169.00 83.24 0.65 c p3
169.28 87.02 0.65 c p3
169.56 88.54 0.65 c p3
169.84 87.78 0.65 c p3
170.12 83.99 0.65 c p3
170.40 83.24 0.65 c p3
170.68 79.48 0.65 c p3
170.96 80.23 0.65 c p3
171.24 88.54 0.65 c p3
171.52 82.48 0.65 c p3
171.80 86.26 0.65 c p3
172.08 83.99 0.65 c p3
172.36 83.99 0.65 c p3
172.64 83.24 0.65 c p3
172.92 83.24 0.65 c p3
173.20 87.02 0.65 c p3
173.48 83.24 0.65 c p3
173.76 81.73 0.65 c p3
174.04 86.26 0.65 c p3
174.32 82.48 0.65 c p3
174.60 80.23 0.65 c p3
174.88 80.23 0.65 c p3
175.16 87.78 0.65 c p3
175.44 87.02 0.65 c p3
175.72 81.73 0.65 c p3
176.00 85.50 0.65 c p3
176.28 86.26 0.65 c p3
176.56 82.48 0.65 c p3
176.84 83.24 0.65 c p3
177.12 87.78 0.65 c p3
177.40 82.48 0.65 c p3
177.68 78.73 0.65 c p3
177.96 82.48 0.65 c p3
178.24 83.99 0.65 c p3
178.52 81.73 0.65 c p3
178.80 80.98 0.65 c p3
179.08 80.98 0.65 c p3
179.36 80.23 0.65 c p3
179.64 78.73 0.65 c p3
179.92 81.73 0.65 c p3
180.20 84.75 0.65 c p3
180.48 80.23 0.65 c p3
180.76 80.23 0.65 c p3
181.04 77.98 0.65 c p3
181.32 80.98 0.65 c p3
181.60 75.73 0.65 c p3
181.88 75.73 0.65 c p3
182.16 77.98 0.65 c p3
182.44 77.98 0.65 c p3
182.72 76.48 0.65 c p3
183.00 79.48 0.65 c p3
183.28 80.98 0.65 c p3
183.56 81.73 0.65 c p3
183.84 80.23 0.65 c p3
184.12 82.48 0.65 c p3
184.40 80.98 0.65 c p3
184.68 74.99 0.65 c p3
184.96 81.73 0.65 c p3
185.24 83.99 0.65 c p3
185.52 75.73 0.65 c p3
185.80 76.48 0.65 c p3
186.08 80.98 0.65 c p3
186.36 75.73 0.65 c p3
186.64 75.73 0.65 c p3
186.92 77.23 0.65 c p3
187.20 81.73 0.65 c p3
187.48 75.73 0.65 c p3
187.76 80.23 0.65 c p3
188.04 80.23 0.65 c p3
188.32 81.73 0.65 c p3
188.60 76.48 0.65 c p3
188.88 79.48 0.65 c p3
189.16 82.48 0.65 c p3
189.44 81.73 0.65 c p3
189.72 69.18 0.65 c p3
190.00 79.48 0.65 c p3
190.28 76.48 0.65 c p3
190.56 78.73 0.65 c p3
190.84 77.23 0.65 c p3
191.12 81.73 0.65 c p3
191.40 74.99 0.65 c p3
191.68 75.73 0.65 c p3
191.96 77.98 0.65 c p3
192.24 74.99 0.65 c p3
192.52 74.99 0.65 c p3
192.80 82.48 0.65 c p3
193.08 77.98 0.65 c p3
193.36 77.23 0.65 c p3
193.64 73.50 0.65 c p3
193.92 76.48 0.65 c p3
194.20 79.48 0.65 c p3
194.48 73.50 0.65 c p3
194.76 74.99 0.65 c p3
195.04 78.73 0.65 c p3
195.32 80.98 0.65 c p3
195.60 75.73 0.65 c p3
195.88 77.23 0.65 c p3
196.16 81.73 0.65 c p3
196.44 73.50 0.65 c p3
196.72 73.50 0.65 c p3
197.00 77.98 0.65 c p3
197.28 78.73 0.65 c p3
197.56 77.23 0.65 c p3
197.84 76.48 0.65 c p3
198.12 77.23 0.65 c p3
198.40 78.73 0.65 c p3
198.68 77.98 0.65 c p3
198.96 75.73 0.65 c p3
199.24 78.73 0.65 c p3
199.52 74.99 0.65 c p3
199.80 75.73 0.65 c p3
200.08 79.48 0.65 c p3
200.36 74.99 0.65 c p3
200.64 69.91 0.65 c p3
200.92 80.23 0.65 c p3
201.20 77.98 0.65 c p3
201.48 78.73 0.65 c p3
201.76 77.23 0.65 c p3
202.04 72.76 0.65 c p3
202.32 80.98 0.65 c p3
202.60 75.73 0.65 c p3
202.88 78.73 0.65 c p3
203.16 78.73 0.65 c p3
203.44 79.48 0.65 c p3
203.72 74.99 0.65 c p3
204.00 74.99 0.65 c p3
204.28 82.48 0.65 c p3
204.56 77.23 0.65 c p3
204.84 72.76 0.65 c p3
205.12 80.23 0.65 c p3
205.40 77.98 0.65 c p3
205.68 72.01 0.65 c p3
205.96 75.73 0.65 c p3
206.24 77.23 0.65 c p3
206.52 74.99 0.65 c p3
206.80 80.98 0.65 c p3
207.08 83.24 0.65 c p3
207.36 79.48 0.65 c p3
207.64 77.23 0.65 c p3
207.92 71.40 0.65 c p3
208.20 73.50 0.65 c p3
208.48 72.76 0.65 c p3
208.76 68.44 0.65 c p3
209.04 80.23 0.65 c p3
209.32 75.73 0.65 c p3
209.60 75.73 0.65 c p3
209.88 72.76 0.65 c p3
210.16 82.48 0.65 c p3
210.44 77.98 0.65 c p3
210.72 72.76 0.65 c p3
211.00 77.98 0.65 c p3
211.28 76.48 0.65 c p3
211.56 72.76 0.65 c p3
211.84 75.73 0.65 c p3
212.12 74.99 0.65 c p3
212.40 74.24 0.65 c p3
212.68 71.40 0.65 c p3
212.96 77.23 0.65 c p3
213.24 78.73 0.65 c p3
213.52 78.73 0.65 c p3
213.80 74.24 0.65 c p3
214.08 78.73 0.65 c p3
214.36 76.48 0.65 c p3
214.64 68.44 0.65 c p3
214.92 74.99 0.65 c p3
215.20 74.24 0.65 c p3
215.48 73.50 0.65 c p3
215.76 71.40 0.65 c p3
216.04 74.99 0.65 c p3
216.32 80.23 0.65 c p3
216.60 72.01 0.65 c p3
216.88 80.98 0.65 c p3
217.16 78.73 0.65 c p3
217.44 76.48 0.65 c p3
217.72 69.91 0.65 c p3
218.00 72.01 0.65 c p3
218.28 78.73 0.65 c p3
218.56 69.91 0.65 c p3
218.84 71.40 0.65 c p3
219.12 80.23 0.65 c p3
219.40 77.98 0.65 c p3
219.68 72.76 0.65 c p3
219.96 73.50 0.65 c p3
220.24 80.23 0.65 c p3
220.52 72.01 0.65 c p3
220.80 74.24 0.65 c p3
221.08 77.98 0.65 c p3
221.36 76.48 0.65 c p3
221.64 74.24 0.65 c p3
221.92 72.76 0.65 c p3
222.20 74.99 0.65 c p3
222.48 75.73 0.65 c p3
222.76 70.65 0.65 c p3
223.04 74.24 0.65 c p3
223.32 72.01 0.65 c p3
223.60 74.24 0.65 c p3
223.88 77.23 0.65 c p3
224.16 77.23 0.65 c p3
224.44 74.99 0.65 c p3
224.72 69.18 0.65 c p3
225.00 69.91 0.65 c p3
225.28 80.98 0.65 c p3
225.56 73.50 0.65 c p3
225.84 78.73 0.65 c p3
226.12 73.50 0.65 c p3
226.40 71.40 0.65 c p3
226.68 69.91 0.65 c p3
226.96 74.24 0.65 c p3
227.24 76.48 0.65 c p3
227.52 72.76 0.65 c p3
227.80 74.24 0.65 c p3
228.08 69.18 0.65 c p3
228.36 76.48 0.65 c p3
228.64 72.76 0.65 c p3
228.92 75.73 0.65 c p3
229.20 77.98 0.65 c p3
229.48 77.23 0.65 c p3
229.76 69.18 0.65 c p3
230.04 74.99 0.65 c p3
230.32 75.73 0.65 c p3
230.60 78.73 0.65 c p3
230.88 74.24 0.65 c p3
231.16 76.48 0.65 c p3
231.44 73.50 0.65 c p3
231.72 72.76 0.65 c p3
232.00 71.40 0.65 c p3
232.28 78.73 0.65 c p3
232.56 77.23 0.65 c p3
232.84 74.99 0.65 c p3
233.12 74.24 0.65 c p3
233.40 77.23 0.65 c p3
233.68 74.99 0.65 c p3
233.96 74.24 0.65 c p3
234.24 74.24 0.65 c p3
234.52 71.40 0.65 c p3
234.80 76.48 0.65 c p3
235.08 75.73 0.65 c p3
235.36 77.98 0.65 c p3
235.64 74.24 0.65 c p3
235.92 69.91 0.65 c p3
236.20 78.73 0.65 c p3
236.48 78.73 0.65 c p3
236.76 66.23 0.65 c p3
237.04 70.65 0.65 c p3
237.32 78.73 0.65 c p3
237.60 73.50 0.65 c p3
237.88 72.01 0.65 c p3
238.16 73.50 0.65 c p3
238.44 71.40 0.65 c p3
238.72 73.50 0.65 c p3
239.00 74.99 0.65 c p3
239.28 72.76 0.65 c p3
239.56 74.99 0.65 c p3
239.84 72.76 0.65 c p3
240.12 74.24 0.65 c p3
240.40 81.73 0.65 c p3
240.68 78.73 0.65 c p3
240.96 69.91 0.65 c p3
241.24 73.50 0.65 c p3
241.52 76.48 0.65 c p3
216.00 201.60 367.20 247.68 cl
0 0 0 srgb
0.75 setlinewidth
[] 0 setdash
1 setlinecap
1 setlinejoin
10.00 setmiterlimit
221.60 238.86 0.43 c p1
221.88 217.02 0.43 c p1
222.16 230.38 0.43 c p1
222.44 233.80 0.43 c p1
222.72 229.06 0.43 c p1
223.00 226.56 0.43 c p1
223.28 215.70 0.43 c p1
223.56 220.38 0.43 c p1
223.84 217.89 0.43 c p1
224.11 212.08 0.43 c p1
224.39 217.63 0.43 c p1
224.67 218.85 0.43 c p1
224.95 230.30 0.43 c p1
225.23 222.00 0.43 c p1
225.51 219.43 0.43 c p1
225.79 223.88 0.43 c p1
226.07 231.65 0.43 c p1
226.35 232.53 0.43 c p1
226.63 223.05 0.43 c p1
226.91 229.73 0.43 c p1
227.19 218.95 0.43 c p1
227.47 236.04 0.43 c p1
227.75 220.57 0.43 c p1
228.03 214.49 0.43 c p1
228.31 225.56 0.43 c p1
228.59 219.43 0.43 c p1
228.87 213.54 0.43 c p1
229.14 233.46 0.43 c p1
229.42 232.99 0.43 c p1
229.70 221.28 0.43 c p1
229.98 220.80 0.43 c p1
230.26 224.84 0.43 c p1
230.54 233.22 0.43 c p1
230.82 215.94 0.43 c p1
231.10 222.13 0.43 c p1
231.38 227.20 0.43 c p1
231.66 217.68 0.43 c p1
231.94 229.40 0.43 c p1
232.22 229.91 0.43 c p1
232.50 220.37 0.43 c p1
232.78 220.86 0.43 c p1
233.06 220.23 0.43 c p1
233.34 228.46 0.43 c p1
233.62 225.56 0.43 c p1
233.90 222.68 0.43 c p1
234.17 227.51 0.43 c p1
234.45 226.80 0.43 c p1
234.73 226.08 0.43 c p1
235.01 224.44 0.43 c p1
235.29 233.42 0.43 c p1
235.57 227.32 0.43 c p1
235.85 222.19 0.43 c p1
236.13 220.34 0.43 c p1
236.41 222.82 0.43 c p1
236.69 232.92 0.43 c p1
236.97 219.06 0.43 c p1
237.25 230.16 0.43 c p1
237.53 221.74 0.43 c p1
237.81 217.69 0.43 c p1
238.09 226.52 0.43 c p1
238.37 221.35 0.43 c p1
238.65 219.41 0.43 c p1
238.93 226.03 0.43 c p1
239.20 228.35 0.43 c p1
239.48 226.36 0.43 c p1
239.76 218.17 0.43 c p1
240.04 232.01 0.43 c p1
240.32 231.06 0.43 c p1
240.60 226.89 0.43 c p1
240.88 225.93 0.43 c p1
241.16 233.49 0.43 c p1
241.44 224.15 0.43 c p1
241.72 220.01 0.43 c p1
242.00 230.47 0.43 c p1
242.28 230.51 0.43 c p1
242.56 218.08 0.43 c p1
242.84 229.68 0.43 c p1
243.12 231.81 0.43 c p1
243.40 220.25 0.43 c p1
243.68 221.30 0.43 c p1
243.96 232.84 0.43 c p1
244.23 227.54 0.43 c p1
244.51 213.99 0.43 c p1
244.79 224.33 0.43 c p1
245.07 236.87 0.43 c p1
245.35 227.34 0.43 c p1
245.63 216.90 0.43 c p1
245.91 229.27 0.43 c p1
246.19 226.05 0.43 c p1
246.47 214.78 0.43 c p1
246.75 228.96 0.43 c p1
247.03 225.73 0.43 c p1
247.31 219.42 0.43 c p1
247.59 225.47 0.43 c p1
247.87 227.39 0.43 c p1
248.15 234.50 0.43 c p1
248.43 220.05 0.43 c p1
248.71 224.84 0.43 c p1
248.99 226.72 0.43 c p1
249.26 223.63 0.43 c p1
249.54 218.34 0.43 c p1
249.82 227.17 0.43 c p1
250.10 217.94 0.43 c p1
250.38 221.80 0.43 c p1
250.66 223.61 0.43 c p1
250.94 225.42 0.43 c p1
251.22 222.13 0.43 c p1
251.50 218.85 0.43 c p1
251.78 229.78 0.43 c p1
252.06 225.44 0.43 c p1
252.34 224.15 0.43 c p1
252.62 233.05 0.43 c p1
252.90 228.67 0.43 c p1
253.18 220.28 0.43 c p1
253.46 224.02 0.43 c p1
253.74 224.73 0.43 c p1
254.02 224.42 0.43 c p1
254.29 223.09 0.43 c p1
254.57 220.75 0.43 c p1
254.85 228.49 0.43 c p1
255.13 223.11 0.43 c p1
255.41 223.77 0.43 c p1
255.69 229.47 0.43 c p1
255.97 225.07 0.43 c p1
256.25 215.89 0.43 c p1
256.53 227.35 0.43 c p1
256.81 228.99 0.43 c p1
257.09 224.58 0.43 c p1
257.37 232.24 0.43 c p1
257.65 227.81 0.43 c p1
257.93 224.40 0.43 c p1
258.21 227.00 0.43 c p1
258.49 223.59 0.43 c p1
258.77 226.17 0.43 c p1
259.05 225.74 0.43 c p1
259.32 223.32 0.43 c p1
259.60 227.87 0.43 c p1
259.88 221.63 0.43 c p1
260.16 221.19 0.43 c p1
260.44 222.72 0.43 c p1
260.72 223.26 0.43 c p1
261.00 221.81 0.43 c p1
261.28 219.38 0.43 c p1
261.56 227.65 0.43 c p1
261.84 229.16 0.43 c p1
262.12 224.87 0.43 c p1
262.40 219.46 0.43 c p1
262.68 227.86 0.43 c p1
262.96 227.36 0.43 c p1
263.24 226.86 0.43 c p1
263.52 225.36 0.43 c p1
263.80 229.80 0.43 c p1
264.08 222.37 0.43 c p1
264.35 225.79 0.43 c p1
264.63 226.25 0.43 c p1
264.91 226.71 0.43 c p1
265.19 219.30 0.43 c p1
265.47 226.62 0.43 c p1
265.75 226.08 0.43 c p1
266.03 222.59 0.43 c p1
266.31 223.02 0.43 c p1
266.59 229.35 0.43 c p1
266.87 225.83 0.43 c p1
267.15 225.27 0.43 c p1
267.43 218.85 0.43 c p1
267.71 222.18 0.43 c p1
267.99 224.54 0.43 c p1
268.27 215.21 0.43 c p1
268.55 223.38 0.43 c p1
268.83 228.67 0.43 c p1
269.10 221.24 0.43 c p1
269.38 222.60 0.43 c p1
269.66 217.15 0.43 c p1
269.94 221.41 0.43 c p1
270.22 226.65 0.43 c p1
270.50 225.07 0.43 c p1
270.78 226.41 0.43 c p1
271.06 223.84 0.43 c p1
271.34 221.28 0.43 c p1
271.62 230.41 0.43 c p1
271.90 229.78 0.43 c p1
272.18 218.45 0.43 c p1
272.46 226.56 0.43 c p1
272.74 226.89 0.43 c p1
273.02 221.40 0.43 c p1
273.30 215.14 0.43 c p1
273.58 223.02 0.43 c p1
273.86 227.23 0.43 c p1
274.13 226.57 0.43 c p1
274.41 220.11 0.43 c p1
274.69 224.29 0.43 c p1
274.97 226.54 0.43 c p1
275.25 224.91 0.43 c p1
275.53 226.18 0.43 c p1
275.81 227.44 0.43 c p1
276.09 219.21 0.43 c p1
276.37 225.12 0.43 c p1
276.65 227.35 0.43 c p1
276.93 224.73 0.43 c p1
277.21 227.92 0.43 c p1
277.49 227.23 0.43 c p1
277.77 228.48 0.43 c p1
278.05 226.81 0.43 c p1
278.33 228.05 0.43 c p1
278.61 228.32 0.43 c p1
278.89 228.59 0.43 c p1
279.16 222.25 0.43 c p1
279.44 223.47 0.43 c p1
279.72 224.69 0.43 c p1
280.00 220.14 0.43 c p1
280.28 228.90 0.43 c p1
280.56 222.56 0.43 c p1
280.84 220.88 0.43 c p1
281.12 220.17 0.43 c p1
281.40 229.87 0.43 c p1
281.68 229.14 0.43 c p1
281.96 219.93 0.43 c p1
282.24 223.99 0.43 c p1
282.52 226.14 0.43 c p1
282.80 222.53 0.43 c p1
283.08 219.89 0.43 c p1
283.36 223.94 0.43 c p1
283.64 228.00 0.43 c p1
283.92 226.29 0.43 c p1
284.19 223.63 0.43 c p1
284.47 230.42 0.43 c p1
284.75 226.93 0.43 c p1
285.03 216.63 0.43 c p1
285.31 225.43 0.43 c p1
285.59 227.55 0.43 c p1
285.87 221.05 0.43 c p1
286.15 224.12 0.43 c p1
286.43 220.49 0.43 c p1
286.71 224.51 0.43 c p1
286.99 217.08 0.43 c p1
287.27 221.07 0.43 c p1
287.55 229.88 0.43 c p1
287.83 222.40 0.43 c p1
288.11 223.54 0.43 c p1
288.39 225.64 0.43 c p1
288.67 232.38 0.43 c p1
288.95 218.37 0.43 c p1
289.22 221.40 0.43 c p1
289.50 226.35 0.43 c p1
289.78 228.44 0.43 c p1
290.06 227.65 0.43 c p1
290.34 223.04 0.43 c p1
290.62 222.26 0.43 c p1
290.90 217.68 0.43 c p1
291.18 218.79 0.43 c p1
291.46 229.44 0.43 c p1
291.74 221.96 0.43 c p1
292.02 226.88 0.43 c p1
292.30 224.18 0.43 c p1
292.58 224.33 0.43 c p1
292.86 223.53 0.43 c p1
293.14 223.69 0.43 c p1
293.42 228.61 0.43 c p1
293.70 223.98 0.43 c p1
293.98 222.23 0.43 c p1
294.25 228.09 0.43 c p1
294.53 223.47 0.43 c p1
294.81 220.76 0.43 c p1
295.09 220.91 0.43 c p1
295.37 230.57 0.43 c p1
295.65 229.75 0.43 c p1
295.93 223.22 0.43 c p1
296.21 228.11 0.43 c p1
296.49 229.20 0.43 c p1
296.77 224.57 0.43 c p1
297.05 225.65 0.43 c p1
297.33 231.50 0.43 c p1
297.61 224.95 0.43 c p1
297.89 220.34 0.43 c p1
298.17 225.20 0.43 c p1
298.45 227.23 0.43 c p1
298.73 224.50 0.43 c p1
299.01 223.67 0.43 c p1
299.28 223.79 0.43 c p1
299.56 222.96 0.43 c p1
299.84 221.19 0.43 c p1
300.12 225.09 0.43 c p1
300.40 229.01 0.43 c p1
300.68 223.42 0.43 c p1
300.96 223.53 0.43 c p1
301.24 220.81 0.43 c p1
301.52 224.70 0.43 c p1
301.80 218.20 0.43 c p1
302.08 218.30 0.43 c p1
302.36 221.24 0.43 c p1
302.64 221.34 0.43 c p1
302.92 219.56 0.43 c p1
303.20 223.44 0.43 c p1
303.48 225.43 0.43 c p1
303.76 226.48 0.43 c p1
304.04 224.69 0.43 c p1
304.31 227.63 0.43 c p1
304.59 225.83 0.43 c p1
304.87 218.37 0.43 c p1
305.15 226.97 0.43 c p1
305.43 229.92 0.43 c p1
305.71 219.59 0.43 c p1
305.99 220.63 0.43 c p1
306.27 226.39 0.43 c p1
306.55 219.87 0.43 c p1
306.83 219.96 0.43 c p1
307.11 221.93 0.43 c p1
307.39 227.69 0.43 c p1
307.67 220.22 0.43 c p1
307.95 225.97 0.43 c p1
308.23 226.05 0.43 c p1
308.51 228.03 0.43 c p1
308.79 221.49 0.43 c p1
309.07 225.35 0.43 c p1
309.34 229.23 0.43 c p1
309.62 228.36 0.43 c p1
309.90 212.60 0.43 c p1
310.18 225.67 0.43 c p1
310.46 221.97 0.43 c p1
310.74 224.88 0.43 c p1
311.02 223.06 0.43 c p1
311.30 228.82 0.43 c p1
311.58 220.39 0.43 c p1
311.86 221.40 0.43 c p1
312.14 224.30 0.43 c p1
312.42 220.61 0.43 c p1
312.70 220.68 0.43 c p1
312.98 230.20 0.43 c p1
313.26 224.58 0.43 c p1
313.54 223.71 0.43 c p1
313.82 219.07 0.43 c p1
314.10 222.90 0.43 c p1
314.37 226.74 0.43 c p1
314.65 219.27 0.43 c p1
314.93 221.22 0.43 c p1
315.21 225.99 0.43 c p1
315.49 228.90 0.43 c p1
315.77 222.35 0.43 c p1
316.05 224.29 0.43 c p1
316.33 230.03 0.43 c p1
316.61 219.71 0.43 c p1
316.89 219.77 0.43 c p1
317.17 225.48 0.43 c p1
317.45 226.48 0.43 c p1
317.73 224.65 0.43 c p1
318.01 223.77 0.43 c p1
318.29 224.76 0.43 c p1
318.57 226.71 0.43 c p1
318.85 225.82 0.43 c p1
319.12 223.05 0.43 c p1
319.40 226.88 0.43 c p1
319.68 222.22 0.43 c p1
319.96 223.21 0.43 c p1
320.24 227.98 0.43 c p1
320.52 222.37 0.43 c p1
320.80 216.02 0.43 c p1
321.08 229.08 0.43 c p1
321.36 226.30 0.43 c p1
321.64 227.29 0.43 c p1
321.92 225.45 0.43 c p1
322.20 219.86 0.43 c p1
322.48 230.28 0.43 c p1
322.76 223.71 0.43 c p1
323.04 227.53 0.43 c p1
323.32 227.58 0.43 c p1
323.60 228.57 0.43 c p1
323.88 222.96 0.43 c p1
324.15 223.00 0.43 c p1
324.43 232.50 0.43 c p1
324.71 225.92 0.43 c p1
324.99 220.32 0.43 c p1
325.27 229.78 0.43 c p1
325.55 226.99 0.43 c p1
325.83 219.51 0.43 c p1
326.11 224.25 0.43 c p1
326.39 226.17 0.43 c p1
326.67 223.39 0.43 c p1
326.95 230.98 0.43 c p1
327.23 233.87 0.43 c p1
327.51 229.17 0.43 c p1
327.79 226.37 0.43 c p1
328.07 219.06 0.43 c p1
328.35 221.75 0.43 c p1
328.63 220.85 0.43 c p1
328.91 215.44 0.43 c p1
329.18 230.34 0.43 c p1
329.46 224.72 0.43 c p1
329.74 224.75 0.43 c p1
330.02 221.03 0.43 c p1
330.30 233.34 0.43 c p1
330.58 227.69 0.43 c p1
330.86 221.14 0.43 c p1
331.14 227.76 0.43 c p1
331.42 225.90 0.43 c p1
331.70 221.24 0.43 c p1
331.98 225.03 0.43 c p1
332.26 224.12 0.43 c p1
332.54 223.21 0.43 c p1
332.82 219.66 0.43 c p1
333.10 227.04 0.43 c p1
333.38 228.96 0.43 c p1
333.66 229.00 0.43 c p1
333.94 223.37 0.43 c p1
334.21 229.06 0.43 c p1
334.49 226.25 0.43 c p1
334.77 216.14 0.43 c p1
335.05 224.43 0.43 c p1
335.33 223.52 0.43 c p1
335.61 222.61 0.43 c p1
335.89 219.99 0.43 c p1
336.17 224.55 0.43 c p1
336.45 231.18 0.43 c p1
336.73 220.85 0.43 c p1
337.01 232.18 0.43 c p1
337.29 229.37 0.43 c p1
337.57 226.57 0.43 c p1
337.85 218.31 0.43 c p1
338.13 220.99 0.43 c p1
338.41 229.48 0.43 c p1
338.69 218.39 0.43 c p1
338.97 220.28 0.43 c p1
339.24 231.44 0.43 c p1
339.52 228.63 0.43 c p1
339.80 222.07 0.43 c p1
340.08 223.03 0.43 c p1
340.36 231.54 0.43 c p1
340.64 221.21 0.43 c p1
340.92 224.04 0.43 c p1
341.20 228.78 0.43 c p1
341.48 226.91 0.43 c p1
341.76 224.11 0.43 c p1
342.04 222.26 0.43 c p1
342.32 225.10 0.43 c p1
342.60 226.06 0.43 c p1
342.88 219.67 0.43 c p1
343.16 224.22 0.43 c p1
343.44 221.43 0.43 c p1
343.72 224.26 0.43 c p1
344.00 228.05 0.43 c p1
344.27 228.07 0.43 c p1
344.55 225.27 0.43 c p1
344.83 217.96 0.43 c p1
345.11 218.91 0.43 c p1
345.39 232.88 0.43 c p1
345.67 223.47 0.43 c p1
345.95 230.08 0.43 c p1
346.23 223.51 0.43 c p1
346.51 220.87 0.43 c p1
346.79 219.02 0.43 c p1
347.07 224.50 0.43 c p1
347.35 227.34 0.43 c p1
347.63 222.66 0.43 c p1
347.91 224.56 0.43 c p1
348.19 218.18 0.43 c p1
348.47 227.41 0.43 c p1
348.75 222.73 0.43 c p1
349.03 226.51 0.43 c p1
349.30 229.35 0.43 c p1
349.58 228.42 0.43 c p1
349.86 218.28 0.43 c p1
350.14 225.63 0.43 c p1
350.42 226.59 0.43 c p1
350.70 230.38 0.43 c p1
350.98 224.74 0.43 c p1
351.26 227.58 0.43 c p1
351.54 223.83 0.43 c p1
351.82 222.91 0.43 c p1
352.10 221.21 0.43 c p1
352.38 230.47 0.43 c p1
352.66 228.60 0.43 c p1
352.94 225.79 0.43 c p1
353.22 224.86 0.43 c p1
353.50 228.64 0.43 c p1
353.78 225.83 0.43 c p1
354.06 224.90 0.43 c p1
354.33 224.92 0.43 c p1
354.61 221.34 0.43 c p1
354.89 227.77 0.43 c p1
355.17 226.84 0.43 c p1
355.45 229.68 0.43 c p1
355.73 224.98 0.43 c p1
356.01 219.54 0.43 c p1
356.29 230.67 0.43 c p1
356.57 230.68 0.43 c p1
356.85 214.92 0.43 c p1
357.13 220.52 0.43 c p1
357.41 230.72 0.43 c p1
357.69 224.14 0.43 c p1
357.97 222.27 0.43 c p1
358.25 224.16 0.43 c p1
358.53 221.52 0.43 c p1
358.81 224.18 0.43 c p1
359.09 226.07 0.43 c p1
359.36 223.27 0.43 c p1
359.64 226.10 0.43 c p1
359.92 223.29 0.43 c p1
360.20 225.18 0.43 c p1
360.48 234.63 0.43 c p1
360.76 230.85 0.43 c p1
361.04 219.75 0.43 c p1
361.32 224.28 0.43 c p1
361.60 228.05 0.43 c p1
0.00 0.00 432.00 576.00 cl
0 0 0 srgb
0.75 setlinewidth
[] 0 setdash
1 setlinecap
1 setlinejoin
10.00 setmiterlimit
np
217.97 201.60 m
149.03 0 l
o
np
217.97 201.60 m
0 -5.76 l
o
np
255.23 201.60 m
0 -5.76 l
o
np
292.48 201.60 m
0 -5.76 l
o
np
329.74 201.60 m
0 -5.76 l
o
np
367.00 201.60 m
0 -5.76 l
o
/Font1 findfont 6 s
217.97 185.47 (0) .5 0 t
255.23 185.47 (200) .5 0 t
292.48 185.47 (400) .5 0 t
329.74 185.47 (600) .5 0 t
367.00 185.47 (800) .5 0 t
np
216.00 205.02 m
0 39.24 l
o
np
216.00 205.02 m
-5.76 0 l
o
np
216.00 214.83 m
-5.76 0 l
o
np
216.00 224.64 m
-5.76 0 l
o
np
216.00 234.45 m
-5.76 0 l
o
np
216.00 244.26 m
-5.76 0 l
o
209.09 202.86 (-0.010) 1 0 t
209.09 212.67 (-0.005) 1 0 t
209.09 222.49 (0.000) 1 0 t
209.09 232.30 (0.005) 1 0 t
209.09 242.11 (0.010) 1 0 t
np
216.00 201.60 m
151.20 0 l
0 46.08 l
-151.20 0 l
0 -46.08 l
o
0.00 0.00 432.00 576.00 cl
/Font1 findfont 9 s
0 0 0 srgb
291.60 262.88 (Residuals) .5 0 t
59.04 73.44 401.76 516.96 cl
ep
%%Trailer
%%Pages: 1
%%EOF
