%!PS-Adobe-3.0 EPSF-3.0
%%DocumentNeededResources: font Helvetica
%%+ font Helvetica-Bold
%%+ font Helvetica-Oblique
%%+ font Helvetica-BoldOblique
%%+ font Symbol
%%Title: R Graphics Output
%%Creator: R Software
%%Pages: (atend)
%%BoundingBox: 0 0 432 576
%%EndComments
%%BeginProlog
/bp  { gs sRGB gs } def
% begin .ps.prolog
/gs  { gsave } bind def
/gr  { grestore } bind def
/ep  { showpage gr gr } bind def
/m   { moveto } bind def
/l  { rlineto } bind def
/np  { newpath } bind def
/cp  { closepath } bind def
/f   { fill } bind def
/o   { stroke } bind def
/c   { newpath 0 360 arc } bind def
/r   { 4 2 roll moveto 1 copy 3 -1 roll exch 0 exch rlineto 0 rlineto -1 mul 0 exch rlineto closepath } bind def
/p1  { stroke } bind def
/p2  { gsave bg fill grestore newpath } bind def
/p3  { gsave bg fill grestore stroke } bind def
/p6  { gsave bg eofill grestore newpath } bind def
/p7  { gsave bg eofill grestore stroke } bind def
/t   { 5 -2 roll moveto gsave rotate
       1 index stringwidth pop
       mul neg 0 rmoveto show grestore } bind def
/ta  { 4 -2 roll moveto gsave rotate show } bind def
/tb  { 2 -1 roll 0 rmoveto show } bind def
/cl  { grestore gsave newpath 3 index 3 index moveto 1 index
       4 -1 roll lineto  exch 1 index lineto lineto
       closepath clip newpath } bind def
/rgb { setrgbcolor } bind def
/s   { scalefont setfont } bind def
% end   .ps.prolog
/sRGB { [ /CIEBasedABC
          << /DecodeLMN
               [ { dup 0.03928 le
                        {12.92321 div}
                        {0.055 add 1.055 div 2.4 exp }
                     ifelse
                 } bind dup dup
               ]
             /MatrixLMN [0.412457 0.212673 0.019334
                         0.357576 0.715152 0.119192
                         0.180437 0.072175 0.950301]
             /WhitePoint [0.9505 1.0 1.0890]
           >>
         ] setcolorspace } bind def
/srgb { setcolor } bind def
% begin encoding
/WinAnsiEncoding [
 /.notdef /.notdef /.notdef /.notdef /.notdef /.notdef /.notdef /.notdef
 /.notdef /.notdef /.notdef /.notdef /.notdef /.notdef /.notdef /.notdef
 /.notdef /.notdef /.notdef /.notdef /.notdef /.notdef /.notdef /.notdef
 /.notdef /.notdef /.notdef /.notdef /.notdef /.notdef /.notdef /.notdef
 /space /exclam /quotedbl /numbersign /dollar /percent /ampersand /quoteright
 /parenleft /parenright /asterisk /plus /comma /minus /period /slash
 /zero /one /two /three /four /five /six /seven
 /eight /nine /colon /semicolon /less /equal /greater /question
 /at /A /B /C /D /E /F /G
 /H /I /J /K /L /M /N /O
 /P /Q /R /S /T /U /V /W
 /X /Y /Z /bracketleft /backslash /bracketright /asciicircum /underscore
 /grave /a /b /c /d /e /f /g
 /h /i /j /k /l /m /n /o
 /p /q /r /s /t /u /v /w
 /x /y /z /braceleft /bar /braceright /asciitilde /.notdef
 /Euro /.notdef /quotesinglbase /florin /quotedblbase /ellipsis /dagger /daggerdbl
 /circumflex /perthousand /Scaron /guilsinglleft /OE /.notdef /Zcaron /.notdef
 /.notdef /quoteleft /quoteright /quotedblleft /quotedblright /bullet /endash /emdash
 /tilde /trademark /scaron /guilsinglright /oe /.notdef /zcaron /Ydieresis
 /space /exclamdown /cent /sterling /currency /yen /brokenbar /section
 /dieresis /copyright /ordfeminine /guillemotleft /logicalnot /hyphen /registered /macron
 /degree /plusminus /twosuperior /threesuperior /acute /mu /paragraph /periodcentered
 /cedilla /onesuperior /ordmasculine /guillemotright /onequarter /onehalf /threequarters /questiondown
 /Agrave /Aacute /Acircumflex /Atilde /Adieresis /Aring /AE /Ccedilla
 /Egrave /Eacute /Ecircumflex /Edieresis /Igrave /Iacute /Icircumflex /Idieresis
 /Eth /Ntilde /Ograve /Oacute /Ocircumflex /Otilde /Odieresis /multiply
 /Oslash /Ugrave /Uacute /Ucircumflex /Udieresis /Yacute /Thorn /germandbls
 /agrave /aacute /acircumflex /atilde /adieresis /aring /ae /ccedilla
 /egrave /eacute /ecircumflex /edieresis /igrave /iacute /icircumflex /idieresis
 /eth /ntilde /ograve /oacute /ocircumflex /otilde /odieresis /divide
 /oslash /ugrave /uacute /ucircumflex /udieresis /yacute /thorn /ydieresis
]
 def
% end encoding
%%IncludeResource: font Helvetica
/Helvetica findfont
dup length dict begin
  {1 index /FID ne {def} {pop pop} ifelse} forall
  /Encoding WinAnsiEncoding def
  currentdict
  end
/Font1 exch definefont pop
%%IncludeResource: font Helvetica-Bold
/Helvetica-Bold findfont
dup length dict begin
  {1 index /FID ne {def} {pop pop} ifelse} forall
  /Encoding WinAnsiEncoding def
  currentdict
  end
/Font2 exch definefont pop
%%IncludeResource: font Helvetica-Oblique
/Helvetica-Oblique findfont
dup length dict begin
  {1 index /FID ne {def} {pop pop} ifelse} forall
  /Encoding WinAnsiEncoding def
  currentdict
  end
/Font3 exch definefont pop
%%IncludeResource: font Helvetica-BoldOblique
/Helvetica-BoldOblique findfont
dup length dict begin
  {1 index /FID ne {def} {pop pop} ifelse} forall
  /Encoding WinAnsiEncoding def
  currentdict
  end
/Font4 exch definefont pop
%%IncludeResource: font Symbol
/Symbol findfont
dup length dict begin
  {1 index /FID ne {def} {pop pop} ifelse} forall
  currentdict
  end
/Font5 exch definefont pop
%%EndProlog
%%Page: 1 1
bp
/bg { 1 1 1 srgb } def
0.00 0.00 432.00 576.00 r p2
0.00 0.00 432.00 576.00 cl
0.00 0.00 432.00 576.00 cl
0.00 0.00 432.00 576.00 cl
/Font1 findfont 12 s
0 0 0 srgb
48.00 508.72 (PCP-ETH) 0 0 t
48.00 494.89 (Flash light photolysis) 0 0 t
/Font1 findfont 9 s
48.00 457.54 (File: T) 0 ta
-1.080 (emper) tb
-0.090 (ature_dependence_5_MSLM.dat) tb gr
48.00 334.87 (T) 0 ta
-1.080 (ue Mar 08 17:14:50 2022) tb gr
48.00 430.87 (Fit function:  a + b * e) 0 ta
-0.270 (xp\(-c * t\)) tb gr
48.00 420.50 (t-Inter) 0 ta
0.270 (v) tb
-0.225 (all: 22.500 ... 1717.500 ms) tb gr
48.00 410.14 (P) 0 ta
-0.360 (ar) tb
-0.090 (ameters \(Standard de) tb
-0.270 (viation\):) tb gr
48.00 399.77 (  a = -0.00142 \(0.00016\)) 0 0 t
48.00 389.40 (  b = 0.13295 \(0.00056\)) 0 0 t
48.00 379.03 (  c = 3.493e+00 \(2.612e-02\) s^-1) 0 0 t
48.00 368.66 (  tau = 2.863e-01 \(2.141e-03\) s) 0 0 t
216.00 345.60 388.80 518.40 cl
0 0 0 srgb
0.75 setlinewidth
[] 0 setdash
1 setlinecap
1 setlinejoin
10.00 setmiterlimit
np
222.40 510.58 m
0.15 -0.67 l
0.14 -0.47 l
0.15 0.24 l
0.14 -0.24 l
0.15 1.14 l
0.14 0 l
0.15 -1.14 l
0.14 0 l
0.15 1.85 l
0.15 -0.47 l
0.14 -1.38 l
0.15 1.61 l
0.14 0 l
0.15 0 l
0.14 -1.37 l
0.15 0 l
0.14 0.47 l
0.15 0.67 l
0.15 -0.91 l
0.14 0.44 l
0.15 -0.20 l
0.14 0.67 l
0.15 -1.38 l
0.14 0.24 l
0.15 0 l
0.15 -0.48 l
0.14 0 l
0.15 0.48 l
0.14 -0.71 l
0.15 0.47 l
0.14 -0.24 l
0.15 -0.71 l
0.14 0.71 l
0.15 -1.18 l
0.15 1.18 l
0.14 0 l
0.15 0.24 l
0.14 1.38 l
0.15 -0.91 l
0.14 0.24 l
0.15 -0.71 l
0.14 -1.18 l
0.15 0.94 l
0.15 -0.47 l
0.14 0.95 l
0.15 0.90 l
0.14 -1.85 l
0.15 0.71 l
0.14 0.24 l
0.15 0.67 l
0.14 -0.67 l
0.15 0.23 l
0.15 -0.71 l
0.14 0.24 l
0.15 -0.24 l
0.14 -0.23 l
0.15 -0.24 l
0.14 0 l
0.15 0.24 l
0.15 0 l
0.14 1.61 l
0.15 -0.67 l
0.14 0.44 l
0.15 -0.91 l
0.14 0 l
0.15 -0.47 l
0.14 -0.71 l
0.15 0.71 l
0.15 0.23 l
0.14 1.85 l
0.15 -1.61 l
0.14 -0.47 l
0.15 -0.48 l
0.14 -0.47 l
0.15 0.71 l
0.14 0.71 l
0.15 -0.24 l
0.15 0 l
0.14 0.48 l
0.15 -1.19 l
0.14 0 l
0.15 1.19 l
0.14 -0.95 l
0.15 0.47 l
0.14 -0.47 l
0.15 0 l
0.15 0.24 l
0.14 -0.95 l
0.15 1.42 l
0.14 -0.71 l
0.15 1.62 l
0.14 -0.20 l
0.15 -0.71 l
0.15 -0.47 l
0.14 0.23 l
0.15 0.24 l
0.14 -1.66 l
0.15 1.19 l
0.14 0.47 l
236.96 463.14 lineto
0.14 2.35 l
0.15 -1.40 l
0.15 3.74 l
0.14 -1.85 l
0.15 0.91 l
0.14 2.60 l
0.15 -0.95 l
0.14 2.13 l
0.15 -0.24 l
0.14 0 l
0.15 0.71 l
0.15 0.95 l
0.14 -1.66 l
0.15 2.33 l
0.14 -0.67 l
0.15 0.67 l
0.14 -0.24 l
0.15 3.31 l
0.14 -1.89 l
0.15 0 l
0.15 -0.47 l
0.14 3.07 l
0.15 -2.84 l
0.14 3.08 l
0.15 -0.71 l
0.14 0.71 l
0.15 0.23 l
0.15 0.48 l
0.14 -2.13 l
0.15 1.18 l
0.14 2.80 l
0.15 -2.56 l
0.14 2.09 l
0.15 0 l
0.14 0.47 l
0.15 -1.62 l
0.15 0.91 l
0.14 -0.67 l
0.15 1.61 l
0.14 0.24 l
0.15 0.24 l
0.14 0 l
0.15 1.42 l
0.14 -2.13 l
0.15 1.89 l
0.15 -0.47 l
0.14 2.12 l
0.15 -1.89 l
0.14 1.18 l
0.15 0.71 l
0.14 -0.94 l
0.15 0.94 l
0.14 -0.23 l
0.15 1.18 l
0.15 -1.18 l
0.14 0.47 l
0.15 -0.47 l
0.14 1.65 l
0.15 -0.47 l
0.14 0.24 l
0.15 -0.48 l
0.15 1.38 l
0.14 -1.14 l
0.15 1.85 l
0.14 -0.24 l
0.15 0 l
0.14 -0.47 l
0.15 0.95 l
0.14 0.23 l
0.15 0.24 l
0.15 0.24 l
0.14 0.94 l
0.15 -0.71 l
0.14 -0.23 l
0.15 0.47 l
0.14 0.95 l
0.15 0.47 l
0.14 -1.42 l
0.15 1.65 l
0.15 -1.18 l
0.14 1.89 l
0.15 -0.47 l
0.14 1.66 l
0.15 -2.13 l
0.14 0.71 l
0.15 -1.89 l
0.14 3.07 l
0.15 -1.42 l
0.15 1.89 l
0.14 -1.65 l
0.15 1.65 l
0.14 -2.60 l
0.15 2.84 l
0.14 -0.95 l
0.15 1.86 l
0.15 -1.86 l
0.14 0.24 l
0.15 -0.47 l
0.14 1.38 l
251.52 490.88 lineto
0.14 -0.47 l
0.15 0.47 l
0.14 0.44 l
0.15 0.71 l
0.15 -0.24 l
0.14 0.94 l
0.15 -0.47 l
0.14 0.95 l
0.15 -0.48 l
0.14 1.19 l
0.15 -2.37 l
0.14 3.08 l
0.15 -1.66 l
0.15 1.18 l
0.14 -2.12 l
0.15 2.12 l
0.14 -0.94 l
0.15 1.42 l
0.14 -2.13 l
0.15 2.36 l
0.14 -0.94 l
0.15 -0.24 l
0.15 0.95 l
0.14 -0.95 l
0.15 0.47 l
0.14 0.24 l
0.15 1.18 l
0.14 -1.18 l
0.15 1.89 l
0.14 0 l
0.15 0.24 l
0.15 -2.37 l
0.14 3.08 l
0.15 -2.60 l
0.14 1.89 l
0.15 -0.48 l
0.14 1.42 l
0.15 -1.42 l
0.15 1.62 l
0.14 -1.38 l
0.15 0.24 l
0.14 0 l
0.15 0.47 l
0.14 0 l
0.15 -0.24 l
0.14 0.91 l
0.15 0.24 l
0.15 0.94 l
0.14 -3.03 l
0.15 2.79 l
0.14 -1.14 l
0.15 1.62 l
0.14 -1.85 l
0.15 1.14 l
0.14 0 l
0.15 0.94 l
0.15 -1.85 l
0.14 1.14 l
0.15 -0.47 l
0.14 1.66 l
0.15 0.47 l
0.14 -0.95 l
0.15 -0.71 l
0.14 0.95 l
0.15 -0.47 l
0.15 0.94 l
0.14 -2.12 l
0.15 1.18 l
0.14 -0.71 l
0.15 0 l
0.14 0.47 l
0.15 0.47 l
0.15 1.19 l
0.14 -2.37 l
0.15 1.89 l
0.14 0 l
0.15 2.13 l
0.14 -3.55 l
0.15 1.66 l
0.14 -1.42 l
0.15 0.71 l
0.15 0 l
0.14 1.18 l
0.15 -0.47 l
0.14 0.71 l
0.15 -1.66 l
0.14 0.48 l
0.15 0.47 l
0.14 1.42 l
0.15 0.71 l
0.15 0.71 l
0.14 -1.42 l
0.15 0.47 l
0.14 -0.24 l
0.15 -1.18 l
0.14 0.71 l
0.15 0.47 l
0.14 -0.71 l
0.15 -2.36 l
266.08 501.91 lineto
0.14 -1.18 l
0.15 2.37 l
0.14 -2.13 l
0.15 0.23 l
0.14 1.42 l
0.15 0.24 l
0.15 -1.18 l
0.14 0.47 l
0.15 -0.47 l
0.14 1.89 l
0.15 -1.42 l
0.14 0.71 l
0.15 0.47 l
0.14 -1.18 l
0.15 1.42 l
0.15 -0.24 l
0.14 0 l
0.15 -1.42 l
0.14 0.71 l
0.15 -0.47 l
0.14 -0.24 l
0.15 -1.18 l
0.14 1.89 l
0.15 -2.12 l
0.15 3.31 l
0.14 -1.90 l
0.15 2.33 l
0.14 -0.43 l
0.15 0 l
0.14 -0.95 l
0.15 0.71 l
0.14 2.32 l
0.15 -0.71 l
0.15 -2.79 l
0.14 2.32 l
0.15 -0.71 l
0.14 0.47 l
0.15 0.48 l
0.14 -0.48 l
0.15 -0.66 l
0.15 1.85 l
0.14 -0.95 l
0.15 0.24 l
0.14 0 l
0.15 -1.62 l
0.14 1.38 l
0.15 -0.90 l
0.14 0.90 l
0.15 0.24 l
0.15 0.71 l
0.14 -1.85 l
0.15 0.66 l
0.14 -0.66 l
0.15 2.56 l
0.14 -2.56 l
0.15 0.19 l
0.14 0 l
0.15 1.42 l
0.15 -0.95 l
0.14 0.95 l
0.15 -1.18 l
0.14 0.94 l
0.15 -0.47 l
0.14 1.42 l
0.15 -0.95 l
0.14 1.19 l
0.15 -0.48 l
0.15 -0.47 l
0.14 0 l
0.15 -0.24 l
0.14 -1.37 l
0.15 2.56 l
0.14 -2.56 l
0.15 3.50 l
0.15 -2.13 l
0.14 0.24 l
0.15 0.95 l
0.14 0.47 l
0.15 -0.71 l
0.14 0.24 l
0.15 -0.48 l
0.14 1.89 l
0.15 -2.83 l
0.15 1.42 l
0.14 -1.42 l
0.15 1.42 l
0.14 -1.19 l
0.15 2.37 l
0.14 -2.37 l
0.15 0 l
0.14 1.19 l
0.15 -0.24 l
0.15 0.47 l
0.14 -0.94 l
0.15 0.71 l
0.14 -1.19 l
0.15 1.66 l
0.14 -2.37 l
0.15 3.55 l
280.63 505.89 lineto
0.15 2.13 l
0.15 -3.31 l
0.14 3.31 l
0.15 -1.42 l
0.14 0 l
0.15 -0.71 l
0.14 0.24 l
0.15 0 l
0.15 0.95 l
0.14 1.18 l
0.15 -1.42 l
0.14 0.71 l
0.15 -1.89 l
0.14 1.42 l
0.15 0.47 l
0.14 0.23 l
0.15 -0.70 l
0.15 -0.24 l
0.14 0.71 l
0.15 0 l
0.14 -0.71 l
0.15 0.24 l
0.14 -0.48 l
0.15 -0.47 l
0.14 0.47 l
0.15 -1.42 l
0.15 2.84 l
0.14 -1.89 l
0.15 1.65 l
0.14 -0.47 l
0.15 -0.47 l
0.14 0.47 l
0.15 0.47 l
0.14 0.24 l
0.15 -0.24 l
0.15 1.90 l
0.14 -2.37 l
0.15 0.71 l
0.14 -1.89 l
0.15 1.42 l
0.14 -1.42 l
0.15 2.13 l
0.14 -0.24 l
0.15 -0.47 l
0.15 1.65 l
0.14 -0.94 l
0.15 0.23 l
0.14 -2.12 l
0.15 1.65 l
0.14 -1.18 l
0.15 1.65 l
0.15 -0.71 l
0.14 0.71 l
0.15 -1.18 l
0.14 0.71 l
0.15 -0.47 l
0.14 0.94 l
0.15 -0.47 l
0.14 0.24 l
0.15 1.18 l
0.15 -1.89 l
0.14 0 l
0.15 0.23 l
0.14 0.95 l
0.15 -3.07 l
0.14 2.60 l
0.15 0.47 l
0.14 0.71 l
0.15 -1.89 l
0.15 2.13 l
0.14 -2.13 l
0.15 0.94 l
0.14 -2.60 l
0.15 3.79 l
0.14 -3.08 l
0.15 2.37 l
0.14 -2.37 l
0.15 1.89 l
0.15 0.71 l
0.14 -2.36 l
0.15 2.60 l
0.14 0 l
0.15 0 l
0.14 -2.36 l
0.15 2.36 l
0.15 -1.18 l
0.14 0.47 l
0.15 -1.65 l
0.14 1.65 l
0.15 0 l
0.14 0.47 l
0.15 -0.47 l
0.14 0.95 l
0.15 -0.71 l
0.15 -2.13 l
0.14 3.07 l
0.15 -1.89 l
0.14 1.18 l
0.15 0 l
295.19 509.44 lineto
0.15 -0.71 l
0.14 -0.47 l
0.15 0 l
0.15 1.18 l
0.14 -1.42 l
0.15 0.95 l
0.14 -1.42 l
0.15 1.65 l
0.14 -1.42 l
0.15 1.19 l
0.14 -1.19 l
0.15 0.48 l
0.15 0.23 l
0.14 0.24 l
0.15 -0.95 l
0.14 1.42 l
0.15 -0.71 l
0.14 0.71 l
0.15 -0.23 l
0.15 -0.71 l
0.14 0.71 l
0.15 0.47 l
0.14 -0.71 l
0.15 1.18 l
0.14 -0.23 l
0.15 0.23 l
0.14 -0.23 l
0.15 0 l
0.15 -0.71 l
0.14 -1.66 l
0.15 2.37 l
0.14 -0.24 l
0.15 -0.24 l
0.14 -0.71 l
0.15 0.71 l
0.14 -0.47 l
0.15 0.24 l
0.15 1.38 l
0.14 -0.44 l
0.15 -0.94 l
0.14 0.71 l
0.15 -0.95 l
0.14 -0.47 l
0.15 0.94 l
0.14 0.24 l
0.15 -1.18 l
0.15 -0.95 l
0.14 2.13 l
0.15 -0.24 l
0.14 -0.47 l
0.15 0.24 l
0.14 0 l
0.15 0.94 l
0.15 -0.47 l
0.14 0 l
0.15 0 l
0.14 -0.95 l
0.15 -0.94 l
0.14 1.65 l
0.15 0.24 l
0.14 -0.71 l
0.15 1.18 l
0.15 0.91 l
0.14 0.71 l
0.15 -1.85 l
0.14 -0.48 l
0.15 0.71 l
0.14 -1.65 l
0.15 1.42 l
0.14 -0.95 l
0.15 0.95 l
0.15 0 l
0.14 0 l
0.15 -0.24 l
0.14 -0.71 l
0.15 0.47 l
0.14 0 l
0.15 0 l
0.14 -0.23 l
0.15 0.94 l
0.15 1.14 l
0.14 -0.90 l
0.15 -0.47 l
0.14 0 l
0.15 -0.71 l
0.14 1.38 l
0.15 -0.91 l
0.15 -1.42 l
0.14 0.71 l
0.15 1.85 l
0.14 -0.23 l
0.15 -0.20 l
0.14 0 l
0.15 -1.18 l
0.14 0 l
0.15 0.94 l
0.15 -0.47 l
0.14 -0.95 l
0.15 0.95 l
309.75 508.97 lineto
0.15 -0.24 l
0.14 0 l
0.15 2.80 l
0.14 -2.56 l
0.15 0.94 l
0.15 -0.71 l
0.14 0 l
0.15 0 l
0.14 0.71 l
0.15 -1.18 l
0.14 0.47 l
0.15 1.38 l
0.14 -1.38 l
0.15 -0.23 l
0.15 0.23 l
0.14 -1.89 l
0.15 1.89 l
0.14 -0.47 l
0.15 1.42 l
0.14 0.20 l
0.15 -0.20 l
0.15 -0.24 l
0.14 -0.23 l
0.15 0.47 l
0.14 -0.24 l
0.15 0.24 l
0.14 -1.66 l
0.15 0.48 l
0.14 0.47 l
0.15 -0.24 l
0.15 0.71 l
0.14 -1.18 l
0.15 0 l
0.14 1.62 l
0.15 0.23 l
0.14 -0.90 l
0.15 0 l
0.14 -0.71 l
0.15 0 l
0.15 0.47 l
0.14 0.71 l
0.15 -1.89 l
0.14 1.89 l
0.15 -0.71 l
0.14 0.71 l
0.15 -0.71 l
0.14 -0.47 l
0.15 0.94 l
0.15 0.44 l
0.14 -0.67 l
0.15 -0.48 l
0.14 -1.42 l
0.15 2.37 l
0.14 -0.95 l
0.15 0 l
0.15 0.48 l
0.14 -0.48 l
0.15 -0.47 l
0.14 3.03 l
0.15 -1.61 l
0.14 -0.47 l
0.15 0.67 l
0.14 0.47 l
0.15 -2.80 l
0.15 1.89 l
0.14 0.67 l
0.15 -1.85 l
0.14 1.42 l
0.15 0.20 l
0.14 -0.44 l
0.15 0.67 l
0.14 0.24 l
0.15 -0.47 l
0.15 -0.91 l
0.14 -0.71 l
0.15 1.62 l
0.14 0.23 l
0.15 -1.14 l
0.14 -0.24 l
0.15 -0.47 l
0.14 0.47 l
0.15 0.24 l
0.15 0 l
0.14 0 l
0.15 -0.24 l
0.14 1.38 l
0.15 -0.23 l
0.14 -0.20 l
0.15 0.43 l
0.14 -0.43 l
0.15 0 l
0.15 -0.71 l
0.14 -0.24 l
0.15 0.24 l
0.14 0.71 l
0.15 -0.71 l
0.14 1.85 l
0.15 -1.85 l
0.15 1.14 l
324.31 509.20 lineto
0.15 0.71 l
0.14 -0.23 l
0.15 -0.48 l
0.14 0.71 l
0.15 -0.23 l
0.14 -0.48 l
0.15 -0.47 l
0.15 1.42 l
0.14 -0.24 l
0.15 -0.47 l
0.14 2.32 l
0.15 -1.85 l
0.14 0.44 l
0.15 1.18 l
0.14 -0.95 l
0.15 0.24 l
0.15 0.23 l
0.14 -1.61 l
0.15 -0.71 l
0.14 0.95 l
0.15 0.47 l
0.14 0.67 l
0.15 -2.09 l
0.14 0.71 l
0.15 -0.24 l
0.15 0.24 l
0.14 0 l
0.15 -0.71 l
0.14 -0.24 l
0.15 1.66 l
0.14 0.43 l
0.15 0.47 l
0.15 -1.37 l
0.14 0.47 l
0.15 0 l
0.14 0 l
0.15 0 l
0.14 -0.47 l
0.15 0.67 l
0.14 1.18 l
0.15 -2.09 l
0.15 1.14 l
0.14 -1.61 l
0.15 0.71 l
0.14 0 l
0.15 0.23 l
0.14 0.24 l
0.15 -0.47 l
0.14 0.67 l
0.15 0 l
0.15 -1.15 l
0.14 0.48 l
0.15 -0.48 l
0.14 0.95 l
0.15 0.67 l
0.14 -1.14 l
0.15 0.67 l
0.14 0.47 l
0.15 -0.24 l
0.15 -1.61 l
0.14 0.47 l
0.15 0.91 l
0.14 -0.20 l
0.15 0.20 l
0.14 -0.91 l
0.15 -0.95 l
0.15 0.24 l
0.14 0.95 l
0.15 0 l
0.14 1.85 l
0.15 -1.62 l
0.14 0 l
0.15 -1.42 l
0.14 2.09 l
0.15 -1.14 l
0.15 -0.95 l
0.14 0.95 l
0.15 0.71 l
0.14 0.43 l
0.15 0.47 l
0.14 -1.37 l
0.15 0 l
0.14 0 l
0.15 0.23 l
0.15 0.67 l
0.14 -1.14 l
0.15 0.47 l
0.14 0 l
0.15 0.24 l
0.14 -1.18 l
0.15 0.23 l
0.14 1.15 l
0.15 0.94 l
0.15 -1.61 l
0.14 -0.24 l
0.15 0.47 l
0.14 0 l
0.15 0.67 l
0.14 -0.90 l
338.87 510.58 lineto
0.15 0.95 l
0.14 -1.62 l
0.15 -0.47 l
0.14 -0.47 l
0.15 -0.95 l
0.14 2.33 l
0.15 0.23 l
0.14 -1.14 l
0.15 0.71 l
0.15 -0.24 l
0.14 0.44 l
0.15 -0.67 l
0.14 1.85 l
0.15 -1.85 l
0.14 -1.19 l
0.15 0.71 l
0.14 -0.47 l
0.15 0.95 l
0.15 -0.95 l
0.14 1.42 l
0.15 0.20 l
0.14 -0.91 l
0.15 0 l
0.14 1.85 l
0.15 -1.38 l
0.14 0 l
0.15 0.24 l
0.15 -0.47 l
0.14 -0.95 l
0.15 0.95 l
0.14 0.67 l
0.15 -0.67 l
0.14 0 l
0.15 0 l
0.15 -0.48 l
0.14 0.48 l
0.15 1.14 l
0.14 -1.38 l
0.15 1.85 l
0.14 -1.61 l
0.15 -0.48 l
0.14 0.95 l
0.15 -0.95 l
0.15 0.48 l
0.14 -0.71 l
0.15 0.71 l
0.14 -0.48 l
0.15 1.15 l
0.14 -0.91 l
0.15 1.14 l
0.14 -0.23 l
0.15 0 l
0.15 -0.67 l
0.14 -0.48 l
0.15 0.95 l
0.14 0.90 l
0.15 -1.37 l
0.14 0 l
0.15 -2.13 l
0.14 2.60 l
0.15 -0.71 l
0.15 0 l
0.14 0.24 l
0.15 -0.95 l
0.14 0.95 l
0.15 0.47 l
0.14 0 l
0.15 -0.71 l
0.15 0 l
0.14 0.71 l
0.15 -2.37 l
0.14 1.90 l
0.15 0.23 l
0.14 1.38 l
0.15 -2.09 l
0.14 0.48 l
0.15 0.23 l
0.15 0.24 l
0.14 -2.13 l
0.15 1.66 l
0.14 0.67 l
0.15 -0.91 l
0.14 0.47 l
0.15 0.44 l
0.14 -1.38 l
0.15 0.71 l
0.15 -0.95 l
0.14 0.71 l
0.15 0 l
0.14 1.14 l
0.15 -1.38 l
0.14 2.80 l
0.15 -1.42 l
0.14 -0.90 l
0.15 -0.95 l
0.15 0.47 l
0.14 1.38 l
0.15 -1.14 l
0.14 0.24 l
353.43 510.35 lineto
0.14 -1.62 l
0.15 0.71 l
0.14 -0.47 l
0.15 -0.24 l
0.15 0.95 l
0.14 -1.90 l
0.15 3.04 l
0.14 -0.91 l
0.15 0.67 l
0.14 -1.38 l
0.15 0.95 l
0.15 -1.42 l
0.14 1.18 l
0.15 -1.89 l
0.14 1.66 l
0.15 0.90 l
0.14 -1.38 l
0.15 0.24 l
0.14 1.14 l
0.15 -0.67 l
0.15 -0.23 l
0.14 0.23 l
0.15 -1.18 l
0.14 -1.18 l
0.15 1.89 l
0.14 0.24 l
0.15 -1.19 l
0.14 0.71 l
0.15 -0.47 l
0.15 0 l
0.14 0.47 l
0.15 -0.71 l
0.14 1.42 l
0.15 -1.18 l
0.14 3.27 l
0.15 -2.56 l
0.14 0.24 l
0.15 -1.66 l
0.15 1.18 l
0.14 0.48 l
0.15 -1.66 l
0.14 1.89 l
0.15 -1.65 l
0.14 1.89 l
0.15 -1.66 l
0.15 -0.23 l
0.14 1.65 l
0.15 -0.23 l
0.14 -0.71 l
0.15 -0.24 l
0.14 0 l
0.15 -0.24 l
0.14 -0.94 l
0.15 1.89 l
0.15 0.24 l
0.14 -0.71 l
0.15 0.94 l
0.14 0.24 l
0.15 -1.18 l
0.14 0 l
0.15 -0.71 l
0.14 1.42 l
0.15 -0.71 l
0.15 0.47 l
0.14 -0.95 l
0.15 -0.71 l
0.14 1.66 l
0.15 -0.47 l
0.14 0.23 l
0.15 -0.71 l
0.14 0.95 l
0.15 0.24 l
0.15 -0.95 l
0.14 0.95 l
0.15 -0.71 l
0.14 0.47 l
0.15 0.47 l
0.14 -0.23 l
0.15 -1.19 l
0.15 0 l
0.14 0.48 l
0.15 -0.24 l
0.14 -1.89 l
0.15 2.60 l
0.14 -0.47 l
0.15 0.71 l
0.14 -0.24 l
0.15 0.47 l
0.15 0.67 l
0.14 0 l
0.15 -2.32 l
0.14 0.47 l
0.15 -0.95 l
0.14 1.42 l
0.15 0 l
0.14 -1.18 l
0.15 1.89 l
0.15 -0.71 l
0.14 -0.47 l
currentpoint o m
367.99 508.49 lineto
0.14 0.24 l
0.15 0 l
0.14 0.95 l
0.15 -0.48 l
0.14 -0.23 l
0.15 0.94 l
0.15 -2.13 l
0.14 1.19 l
0.15 -1.89 l
0.14 0.94 l
0.15 1.42 l
0.14 -1.18 l
0.15 1.18 l
0.15 0 l
0.14 -0.71 l
0.15 -0.95 l
0.14 1.66 l
0.15 0.24 l
0.14 -0.24 l
0.15 -2.60 l
0.14 1.89 l
0.15 -0.24 l
0.15 -0.23 l
0.14 0 l
0.15 -0.48 l
0.14 1.19 l
0.15 0 l
0.14 -0.48 l
0.15 0 l
0.14 0.48 l
0.15 0.47 l
0.15 -1.89 l
0.14 -0.24 l
0.15 1.42 l
0.14 -1.42 l
0.15 1.18 l
0.14 -1.65 l
0.15 1.18 l
0.14 0.47 l
0.15 -0.94 l
0.15 0.71 l
0.14 0.23 l
0.15 0.48 l
0.14 -0.71 l
0.15 0.47 l
0.14 -0.71 l
0.15 1.18 l
0.15 -1.89 l
0.14 -0.47 l
0.15 0.24 l
0.14 1.65 l
0.15 0 l
0.14 -0.71 l
0.15 1.18 l
0.14 -0.94 l
0.15 -0.48 l
0.15 0 l
0.14 0.71 l
0.15 0 l
0.14 -0.71 l
0.15 -0.23 l
0.14 0.47 l
0.15 -0.47 l
0.14 1.18 l
0.15 -0.71 l
0.15 0.95 l
0.14 0.71 l
0.15 -0.48 l
0.14 -0.71 l
0.15 -0.71 l
0.14 -0.47 l
0.15 1.18 l
0.14 0.24 l
0.15 0.24 l
0.15 -0.24 l
0.14 -1.65 l
0.15 1.41 l
0.14 -0.47 l
0.15 -0.71 l
0.14 0.95 l
0.15 -0.24 l
0.15 0.24 l
0.14 0 l
0.15 0.47 l
0.14 0.71 l
0.15 -0.24 l
0.14 -0.71 l
0.15 -0.71 l
0.14 0.24 l
0.15 0.71 l
0.15 -1.65 l
0.14 0.94 l
0.15 -0.94 l
0.14 -0.24 l
0.15 1.18 l
0.14 -0.71 l
0.15 0.47 l
0.14 0.24 l
0.15 -0.47 l
o
/bg { 1 1 1 srgb } def
222.40 510.58 0.43 c p3
222.55 509.91 0.43 c p3
222.69 509.44 0.43 c p3
222.84 509.68 0.43 c p3
222.98 509.44 0.43 c p3
223.13 510.58 0.43 c p3
223.27 510.58 0.43 c p3
223.42 509.44 0.43 c p3
223.56 509.44 0.43 c p3
223.71 511.29 0.43 c p3
223.86 510.82 0.43 c p3
224.00 509.44 0.43 c p3
224.15 511.05 0.43 c p3
224.29 511.05 0.43 c p3
224.44 511.05 0.43 c p3
224.58 509.68 0.43 c p3
224.73 509.68 0.43 c p3
224.87 510.15 0.43 c p3
225.02 510.82 0.43 c p3
225.17 509.91 0.43 c p3
225.31 510.35 0.43 c p3
225.46 510.15 0.43 c p3
225.60 510.82 0.43 c p3
225.75 509.44 0.43 c p3
225.89 509.68 0.43 c p3
226.04 509.68 0.43 c p3
226.19 509.20 0.43 c p3
226.33 509.20 0.43 c p3
226.48 509.68 0.43 c p3
226.62 508.97 0.43 c p3
226.77 509.44 0.43 c p3
226.91 509.20 0.43 c p3
227.06 508.49 0.43 c p3
227.20 509.20 0.43 c p3
227.35 508.02 0.43 c p3
227.50 509.20 0.43 c p3
227.64 509.20 0.43 c p3
227.79 509.44 0.43 c p3
227.93 510.82 0.43 c p3
228.08 509.91 0.43 c p3
228.22 510.15 0.43 c p3
228.37 509.44 0.43 c p3
228.51 508.26 0.43 c p3
228.66 509.20 0.43 c p3
228.81 508.73 0.43 c p3
228.95 509.68 0.43 c p3
229.10 510.58 0.43 c p3
229.24 508.73 0.43 c p3
229.39 509.44 0.43 c p3
229.53 509.68 0.43 c p3
229.68 510.35 0.43 c p3
229.82 509.68 0.43 c p3
229.97 509.91 0.43 c p3
230.12 509.20 0.43 c p3
230.26 509.44 0.43 c p3
230.41 509.20 0.43 c p3
230.55 508.97 0.43 c p3
230.70 508.73 0.43 c p3
230.84 508.73 0.43 c p3
230.99 508.97 0.43 c p3
231.14 508.97 0.43 c p3
231.28 510.58 0.43 c p3
231.43 509.91 0.43 c p3
231.57 510.35 0.43 c p3
231.72 509.44 0.43 c p3
231.86 509.44 0.43 c p3
232.01 508.97 0.43 c p3
232.15 508.26 0.43 c p3
232.30 508.97 0.43 c p3
232.45 509.20 0.43 c p3
232.59 511.05 0.43 c p3
232.74 509.44 0.43 c p3
232.88 508.97 0.43 c p3
233.03 508.49 0.43 c p3
233.17 508.02 0.43 c p3
233.32 508.73 0.43 c p3
233.46 509.44 0.43 c p3
233.61 509.20 0.43 c p3
233.76 509.20 0.43 c p3
233.90 509.68 0.43 c p3
234.05 508.49 0.43 c p3
234.19 508.49 0.43 c p3
234.34 509.68 0.43 c p3
234.48 508.73 0.43 c p3
234.63 509.20 0.43 c p3
234.77 508.73 0.43 c p3
234.92 508.73 0.43 c p3
235.07 508.97 0.43 c p3
235.21 508.02 0.43 c p3
235.36 509.44 0.43 c p3
235.50 508.73 0.43 c p3
235.65 510.35 0.43 c p3
235.79 510.15 0.43 c p3
235.94 509.44 0.43 c p3
236.09 508.97 0.43 c p3
236.23 509.20 0.43 c p3
236.38 509.44 0.43 c p3
236.52 507.78 0.43 c p3
236.67 508.97 0.43 c p3
236.81 509.44 0.43 c p3
236.96 463.14 0.43 c p3
237.10 465.49 0.43 c p3
237.25 464.09 0.43 c p3
237.40 467.83 0.43 c p3
237.54 465.98 0.43 c p3
237.69 466.89 0.43 c p3
237.83 469.49 0.43 c p3
237.98 468.54 0.43 c p3
238.12 470.67 0.43 c p3
238.27 470.43 0.43 c p3
238.41 470.43 0.43 c p3
238.56 471.14 0.43 c p3
238.71 472.09 0.43 c p3
238.85 470.43 0.43 c p3
239.00 472.76 0.43 c p3
239.14 472.09 0.43 c p3
239.29 472.76 0.43 c p3
239.43 472.52 0.43 c p3
239.58 475.83 0.43 c p3
239.72 473.94 0.43 c p3
239.87 473.94 0.43 c p3
240.02 473.47 0.43 c p3
240.16 476.54 0.43 c p3
240.31 473.70 0.43 c p3
240.45 476.78 0.43 c p3
240.60 476.07 0.43 c p3
240.74 476.78 0.43 c p3
240.89 477.01 0.43 c p3
241.04 477.49 0.43 c p3
241.18 475.36 0.43 c p3
241.33 476.54 0.43 c p3
241.47 479.34 0.43 c p3
241.62 476.78 0.43 c p3
241.76 478.87 0.43 c p3
241.91 478.87 0.43 c p3
242.05 479.34 0.43 c p3
242.20 477.72 0.43 c p3
242.35 478.63 0.43 c p3
242.49 477.96 0.43 c p3
242.64 479.57 0.43 c p3
242.78 479.81 0.43 c p3
242.93 480.05 0.43 c p3
243.07 480.05 0.43 c p3
243.22 481.47 0.43 c p3
243.36 479.34 0.43 c p3
243.51 481.23 0.43 c p3
243.66 480.76 0.43 c p3
243.80 482.88 0.43 c p3
243.95 480.99 0.43 c p3
244.09 482.17 0.43 c p3
244.24 482.88 0.43 c p3
244.38 481.94 0.43 c p3
244.53 482.88 0.43 c p3
244.67 482.65 0.43 c p3
244.82 483.83 0.43 c p3
244.97 482.65 0.43 c p3
245.11 483.12 0.43 c p3
245.26 482.65 0.43 c p3
245.40 484.30 0.43 c p3
245.55 483.83 0.43 c p3
245.69 484.07 0.43 c p3
245.84 483.59 0.43 c p3
245.99 484.97 0.43 c p3
246.13 483.83 0.43 c p3
246.28 485.68 0.43 c p3
246.42 485.44 0.43 c p3
246.57 485.44 0.43 c p3
246.71 484.97 0.43 c p3
246.86 485.92 0.43 c p3
247.00 486.15 0.43 c p3
247.15 486.39 0.43 c p3
247.30 486.63 0.43 c p3
247.44 487.57 0.43 c p3
247.59 486.86 0.43 c p3
247.73 486.63 0.43 c p3
247.88 487.10 0.43 c p3
248.02 488.05 0.43 c p3
248.17 488.52 0.43 c p3
248.31 487.10 0.43 c p3
248.46 488.75 0.43 c p3
248.61 487.57 0.43 c p3
248.75 489.46 0.43 c p3
248.90 488.99 0.43 c p3
249.04 490.65 0.43 c p3
249.19 488.52 0.43 c p3
249.33 489.23 0.43 c p3
249.48 487.34 0.43 c p3
249.62 490.41 0.43 c p3
249.77 488.99 0.43 c p3
249.92 490.88 0.43 c p3
250.06 489.23 0.43 c p3
250.21 490.88 0.43 c p3
250.35 488.28 0.43 c p3
250.50 491.12 0.43 c p3
250.64 490.17 0.43 c p3
250.79 492.03 0.43 c p3
250.94 490.17 0.43 c p3
251.08 490.41 0.43 c p3
251.23 489.94 0.43 c p3
251.37 491.32 0.43 c p3
251.52 490.88 0.43 c p3
251.66 490.41 0.43 c p3
251.81 490.88 0.43 c p3
251.95 491.32 0.43 c p3
252.10 492.03 0.43 c p3
252.25 491.79 0.43 c p3
252.39 492.73 0.43 c p3
252.54 492.26 0.43 c p3
252.68 493.21 0.43 c p3
252.83 492.73 0.43 c p3
252.97 493.92 0.43 c p3
253.12 491.55 0.43 c p3
253.26 494.63 0.43 c p3
253.41 492.97 0.43 c p3
253.56 494.15 0.43 c p3
253.70 492.03 0.43 c p3
253.85 494.15 0.43 c p3
253.99 493.21 0.43 c p3
254.14 494.63 0.43 c p3
254.28 492.50 0.43 c p3
254.43 494.86 0.43 c p3
254.57 493.92 0.43 c p3
254.72 493.68 0.43 c p3
254.87 494.63 0.43 c p3
255.01 493.68 0.43 c p3
255.16 494.15 0.43 c p3
255.30 494.39 0.43 c p3
255.45 495.57 0.43 c p3
255.59 494.39 0.43 c p3
255.74 496.28 0.43 c p3
255.88 496.28 0.43 c p3
256.03 496.52 0.43 c p3
256.18 494.15 0.43 c p3
256.32 497.23 0.43 c p3
256.47 494.63 0.43 c p3
256.61 496.52 0.43 c p3
256.76 496.04 0.43 c p3
256.90 497.46 0.43 c p3
257.05 496.04 0.43 c p3
257.20 497.66 0.43 c p3
257.34 496.28 0.43 c p3
257.49 496.52 0.43 c p3
257.63 496.52 0.43 c p3
257.78 496.99 0.43 c p3
257.92 496.99 0.43 c p3
258.07 496.75 0.43 c p3
258.21 497.66 0.43 c p3
258.36 497.90 0.43 c p3
258.51 498.84 0.43 c p3
258.65 495.81 0.43 c p3
258.80 498.60 0.43 c p3
258.94 497.46 0.43 c p3
259.09 499.08 0.43 c p3
259.23 497.23 0.43 c p3
259.38 498.37 0.43 c p3
259.52 498.37 0.43 c p3
259.67 499.31 0.43 c p3
259.82 497.46 0.43 c p3
259.96 498.60 0.43 c p3
260.11 498.13 0.43 c p3
260.25 499.79 0.43 c p3
260.40 500.26 0.43 c p3
260.54 499.31 0.43 c p3
260.69 498.60 0.43 c p3
260.83 499.55 0.43 c p3
260.98 499.08 0.43 c p3
261.13 500.02 0.43 c p3
261.27 497.90 0.43 c p3
261.42 499.08 0.43 c p3
261.56 498.37 0.43 c p3
261.71 498.37 0.43 c p3
261.85 498.84 0.43 c p3
262.00 499.31 0.43 c p3
262.15 500.50 0.43 c p3
262.29 498.13 0.43 c p3
262.44 500.02 0.43 c p3
262.58 500.02 0.43 c p3
262.73 502.15 0.43 c p3
262.87 498.60 0.43 c p3
263.02 500.26 0.43 c p3
263.16 498.84 0.43 c p3
263.31 499.55 0.43 c p3
263.46 499.55 0.43 c p3
263.60 500.73 0.43 c p3
263.75 500.26 0.43 c p3
263.89 500.97 0.43 c p3
264.04 499.31 0.43 c p3
264.18 499.79 0.43 c p3
264.33 500.26 0.43 c p3
264.47 501.68 0.43 c p3
264.62 502.39 0.43 c p3
264.77 503.10 0.43 c p3
264.91 501.68 0.43 c p3
265.06 502.15 0.43 c p3
265.20 501.91 0.43 c p3
265.35 500.73 0.43 c p3
265.49 501.44 0.43 c p3
265.64 501.91 0.43 c p3
265.78 501.20 0.43 c p3
265.93 498.84 0.43 c p3
266.08 501.91 0.43 c p3
266.22 500.73 0.43 c p3
266.37 503.10 0.43 c p3
266.51 500.97 0.43 c p3
266.66 501.20 0.43 c p3
266.80 502.62 0.43 c p3
266.95 502.86 0.43 c p3
267.10 501.68 0.43 c p3
267.24 502.15 0.43 c p3
267.39 501.68 0.43 c p3
267.53 503.57 0.43 c p3
267.68 502.15 0.43 c p3
267.82 502.86 0.43 c p3
267.97 503.33 0.43 c p3
268.11 502.15 0.43 c p3
268.26 503.57 0.43 c p3
268.41 503.33 0.43 c p3
268.55 503.33 0.43 c p3
268.70 501.91 0.43 c p3
268.84 502.62 0.43 c p3
268.99 502.15 0.43 c p3
269.13 501.91 0.43 c p3
269.28 500.73 0.43 c p3
269.42 502.62 0.43 c p3
269.57 500.50 0.43 c p3
269.72 503.81 0.43 c p3
269.86 501.91 0.43 c p3
270.01 504.24 0.43 c p3
270.15 503.81 0.43 c p3
270.30 503.81 0.43 c p3
270.44 502.86 0.43 c p3
270.59 503.57 0.43 c p3
270.73 505.89 0.43 c p3
270.88 505.18 0.43 c p3
271.03 502.39 0.43 c p3
271.17 504.71 0.43 c p3
271.32 504.00 0.43 c p3
271.46 504.47 0.43 c p3
271.61 504.95 0.43 c p3
271.75 504.47 0.43 c p3
271.90 503.81 0.43 c p3
272.05 505.66 0.43 c p3
272.19 504.71 0.43 c p3
272.34 504.95 0.43 c p3
272.48 504.95 0.43 c p3
272.63 503.33 0.43 c p3
272.77 504.71 0.43 c p3
272.92 503.81 0.43 c p3
273.06 504.71 0.43 c p3
273.21 504.95 0.43 c p3
273.36 505.66 0.43 c p3
273.50 503.81 0.43 c p3
273.65 504.47 0.43 c p3
273.79 503.81 0.43 c p3
273.94 506.37 0.43 c p3
274.08 503.81 0.43 c p3
274.23 504.00 0.43 c p3
274.37 504.00 0.43 c p3
274.52 505.42 0.43 c p3
274.67 504.47 0.43 c p3
274.81 505.42 0.43 c p3
274.96 504.24 0.43 c p3
275.10 505.18 0.43 c p3
275.25 504.71 0.43 c p3
275.39 506.13 0.43 c p3
275.54 505.18 0.43 c p3
275.68 506.37 0.43 c p3
275.83 505.89 0.43 c p3
275.98 505.42 0.43 c p3
276.12 505.42 0.43 c p3
276.27 505.18 0.43 c p3
276.41 503.81 0.43 c p3
276.56 506.37 0.43 c p3
276.70 503.81 0.43 c p3
276.85 507.31 0.43 c p3
277.00 505.18 0.43 c p3
277.14 505.42 0.43 c p3
277.29 506.37 0.43 c p3
277.43 506.84 0.43 c p3
277.58 506.13 0.43 c p3
277.72 506.37 0.43 c p3
277.87 505.89 0.43 c p3
278.01 507.78 0.43 c p3
278.16 504.95 0.43 c p3
278.31 506.37 0.43 c p3
278.45 504.95 0.43 c p3
278.60 506.37 0.43 c p3
278.74 505.18 0.43 c p3
278.89 507.55 0.43 c p3
279.03 505.18 0.43 c p3
279.18 505.18 0.43 c p3
279.32 506.37 0.43 c p3
279.47 506.13 0.43 c p3
279.62 506.60 0.43 c p3
279.76 505.66 0.43 c p3
279.91 506.37 0.43 c p3
280.05 505.18 0.43 c p3
280.20 506.84 0.43 c p3
280.34 504.47 0.43 c p3
280.49 508.02 0.43 c p3
280.63 505.89 0.43 c p3
280.78 508.02 0.43 c p3
280.93 504.71 0.43 c p3
281.07 508.02 0.43 c p3
281.22 506.60 0.43 c p3
281.36 506.60 0.43 c p3
281.51 505.89 0.43 c p3
281.65 506.13 0.43 c p3
281.80 506.13 0.43 c p3
281.95 507.08 0.43 c p3
282.09 508.26 0.43 c p3
282.24 506.84 0.43 c p3
282.38 507.55 0.43 c p3
282.53 505.66 0.43 c p3
282.67 507.08 0.43 c p3
282.82 507.55 0.43 c p3
282.96 507.78 0.43 c p3
283.11 507.08 0.43 c p3
283.26 506.84 0.43 c p3
283.40 507.55 0.43 c p3
283.55 507.55 0.43 c p3
283.69 506.84 0.43 c p3
283.84 507.08 0.43 c p3
283.98 506.60 0.43 c p3
284.13 506.13 0.43 c p3
284.27 506.60 0.43 c p3
284.42 505.18 0.43 c p3
284.57 508.02 0.43 c p3
284.71 506.13 0.43 c p3
284.86 507.78 0.43 c p3
285.00 507.31 0.43 c p3
285.15 506.84 0.43 c p3
285.29 507.31 0.43 c p3
285.44 507.78 0.43 c p3
285.58 508.02 0.43 c p3
285.73 507.78 0.43 c p3
285.88 509.68 0.43 c p3
286.02 507.31 0.43 c p3
286.17 508.02 0.43 c p3
286.31 506.13 0.43 c p3
286.46 507.55 0.43 c p3
286.60 506.13 0.43 c p3
286.75 508.26 0.43 c p3
286.89 508.02 0.43 c p3
287.04 507.55 0.43 c p3
287.19 509.20 0.43 c p3
287.33 508.26 0.43 c p3
287.48 508.49 0.43 c p3
287.62 506.37 0.43 c p3
287.77 508.02 0.43 c p3
287.91 506.84 0.43 c p3
288.06 508.49 0.43 c p3
288.21 507.78 0.43 c p3
288.35 508.49 0.43 c p3
288.50 507.31 0.43 c p3
288.64 508.02 0.43 c p3
288.79 507.55 0.43 c p3
288.93 508.49 0.43 c p3
289.08 508.02 0.43 c p3
289.22 508.26 0.43 c p3
289.37 509.44 0.43 c p3
289.52 507.55 0.43 c p3
289.66 507.55 0.43 c p3
289.81 507.78 0.43 c p3
289.95 508.73 0.43 c p3
290.10 505.66 0.43 c p3
290.24 508.26 0.43 c p3
290.39 508.73 0.43 c p3
290.53 509.44 0.43 c p3
290.68 507.55 0.43 c p3
290.83 509.68 0.43 c p3
290.97 507.55 0.43 c p3
291.12 508.49 0.43 c p3
291.26 505.89 0.43 c p3
291.41 509.68 0.43 c p3
291.55 506.60 0.43 c p3
291.70 508.97 0.43 c p3
291.84 506.60 0.43 c p3
291.99 508.49 0.43 c p3
292.14 509.20 0.43 c p3
292.28 506.84 0.43 c p3
292.43 509.44 0.43 c p3
292.57 509.44 0.43 c p3
292.72 509.44 0.43 c p3
292.86 507.08 0.43 c p3
293.01 509.44 0.43 c p3
293.16 508.26 0.43 c p3
293.30 508.73 0.43 c p3
293.45 507.08 0.43 c p3
293.59 508.73 0.43 c p3
293.74 508.73 0.43 c p3
293.88 509.20 0.43 c p3
294.03 508.73 0.43 c p3
294.17 509.68 0.43 c p3
294.32 508.97 0.43 c p3
294.47 506.84 0.43 c p3
294.61 509.91 0.43 c p3
294.76 508.02 0.43 c p3
294.90 509.20 0.43 c p3
295.05 509.20 0.43 c p3
295.19 509.44 0.43 c p3
295.34 508.73 0.43 c p3
295.48 508.26 0.43 c p3
295.63 508.26 0.43 c p3
295.78 509.44 0.43 c p3
295.92 508.02 0.43 c p3
296.07 508.97 0.43 c p3
296.21 507.55 0.43 c p3
296.36 509.20 0.43 c p3
296.50 507.78 0.43 c p3
296.65 508.97 0.43 c p3
296.79 507.78 0.43 c p3
296.94 508.26 0.43 c p3
297.09 508.49 0.43 c p3
297.23 508.73 0.43 c p3
297.38 507.78 0.43 c p3
297.52 509.20 0.43 c p3
297.67 508.49 0.43 c p3
297.81 509.20 0.43 c p3
297.96 508.97 0.43 c p3
298.11 508.26 0.43 c p3
298.25 508.97 0.43 c p3
298.40 509.44 0.43 c p3
298.54 508.73 0.43 c p3
298.69 509.91 0.43 c p3
298.83 509.68 0.43 c p3
298.98 509.91 0.43 c p3
299.12 509.68 0.43 c p3
299.27 509.68 0.43 c p3
299.42 508.97 0.43 c p3
299.56 507.31 0.43 c p3
299.71 509.68 0.43 c p3
299.85 509.44 0.43 c p3
300.00 509.20 0.43 c p3
300.14 508.49 0.43 c p3
300.29 509.20 0.43 c p3
300.43 508.73 0.43 c p3
300.58 508.97 0.43 c p3
300.73 510.35 0.43 c p3
300.87 509.91 0.43 c p3
301.02 508.97 0.43 c p3
301.16 509.68 0.43 c p3
301.31 508.73 0.43 c p3
301.45 508.26 0.43 c p3
301.60 509.20 0.43 c p3
301.74 509.44 0.43 c p3
301.89 508.26 0.43 c p3
302.04 507.31 0.43 c p3
302.18 509.44 0.43 c p3
302.33 509.20 0.43 c p3
302.47 508.73 0.43 c p3
302.62 508.97 0.43 c p3
302.76 508.97 0.43 c p3
302.91 509.91 0.43 c p3
303.06 509.44 0.43 c p3
303.20 509.44 0.43 c p3
303.35 509.44 0.43 c p3
303.49 508.49 0.43 c p3
303.64 507.55 0.43 c p3
303.78 509.20 0.43 c p3
303.93 509.44 0.43 c p3
304.07 508.73 0.43 c p3
304.22 509.91 0.43 c p3
304.37 510.82 0.43 c p3
304.51 511.53 0.43 c p3
304.66 509.68 0.43 c p3
304.80 509.20 0.43 c p3
304.95 509.91 0.43 c p3
305.09 508.26 0.43 c p3
305.24 509.68 0.43 c p3
305.38 508.73 0.43 c p3
305.53 509.68 0.43 c p3
305.68 509.68 0.43 c p3
305.82 509.68 0.43 c p3
305.97 509.44 0.43 c p3
306.11 508.73 0.43 c p3
306.26 509.20 0.43 c p3
306.40 509.20 0.43 c p3
306.55 509.20 0.43 c p3
306.69 508.97 0.43 c p3
306.84 509.91 0.43 c p3
306.99 511.05 0.43 c p3
307.13 510.15 0.43 c p3
307.28 509.68 0.43 c p3
307.42 509.68 0.43 c p3
307.57 508.97 0.43 c p3
307.71 510.35 0.43 c p3
307.86 509.44 0.43 c p3
308.01 508.02 0.43 c p3
308.15 508.73 0.43 c p3
308.30 510.58 0.43 c p3
308.44 510.35 0.43 c p3
308.59 510.15 0.43 c p3
308.73 510.15 0.43 c p3
308.88 508.97 0.43 c p3
309.02 508.97 0.43 c p3
309.17 509.91 0.43 c p3
309.32 509.44 0.43 c p3
309.46 508.49 0.43 c p3
309.61 509.44 0.43 c p3
309.75 508.97 0.43 c p3
309.90 508.73 0.43 c p3
310.04 508.73 0.43 c p3
310.19 511.53 0.43 c p3
310.33 508.97 0.43 c p3
310.48 509.91 0.43 c p3
310.63 509.20 0.43 c p3
310.77 509.20 0.43 c p3
310.92 509.20 0.43 c p3
311.06 509.91 0.43 c p3
311.21 508.73 0.43 c p3
311.35 509.20 0.43 c p3
311.50 510.58 0.43 c p3
311.64 509.20 0.43 c p3
311.79 508.97 0.43 c p3
311.94 509.20 0.43 c p3
312.08 507.31 0.43 c p3
312.23 509.20 0.43 c p3
312.37 508.73 0.43 c p3
312.52 510.15 0.43 c p3
312.66 510.35 0.43 c p3
312.81 510.15 0.43 c p3
312.96 509.91 0.43 c p3
313.10 509.68 0.43 c p3
313.25 510.15 0.43 c p3
313.39 509.91 0.43 c p3
313.54 510.15 0.43 c p3
313.68 508.49 0.43 c p3
313.83 508.97 0.43 c p3
313.97 509.44 0.43 c p3
314.12 509.20 0.43 c p3
314.27 509.91 0.43 c p3
314.41 508.73 0.43 c p3
314.56 508.73 0.43 c p3
314.70 510.35 0.43 c p3
314.85 510.58 0.43 c p3
314.99 509.68 0.43 c p3
315.14 509.68 0.43 c p3
315.28 508.97 0.43 c p3
315.43 508.97 0.43 c p3
315.58 509.44 0.43 c p3
315.72 510.15 0.43 c p3
315.87 508.26 0.43 c p3
316.01 510.15 0.43 c p3
316.16 509.44 0.43 c p3
316.30 510.15 0.43 c p3
316.45 509.44 0.43 c p3
316.59 508.97 0.43 c p3
316.74 509.91 0.43 c p3
316.89 510.35 0.43 c p3
317.03 509.68 0.43 c p3
317.18 509.20 0.43 c p3
317.32 507.78 0.43 c p3
317.47 510.15 0.43 c p3
317.61 509.20 0.43 c p3
317.76 509.20 0.43 c p3
317.91 509.68 0.43 c p3
318.05 509.20 0.43 c p3
318.20 508.73 0.43 c p3
318.34 511.76 0.43 c p3
318.49 510.15 0.43 c p3
318.63 509.68 0.43 c p3
318.78 510.35 0.43 c p3
318.92 510.82 0.43 c p3
319.07 508.02 0.43 c p3
319.22 509.91 0.43 c p3
319.36 510.58 0.43 c p3
319.51 508.73 0.43 c p3
319.65 510.15 0.43 c p3
319.80 510.35 0.43 c p3
319.94 509.91 0.43 c p3
320.09 510.58 0.43 c p3
320.23 510.82 0.43 c p3
320.38 510.35 0.43 c p3
320.53 509.44 0.43 c p3
320.67 508.73 0.43 c p3
320.82 510.35 0.43 c p3
320.96 510.58 0.43 c p3
321.11 509.44 0.43 c p3
321.25 509.20 0.43 c p3
321.40 508.73 0.43 c p3
321.54 509.20 0.43 c p3
321.69 509.44 0.43 c p3
321.84 509.44 0.43 c p3
321.98 509.44 0.43 c p3
322.13 509.20 0.43 c p3
322.27 510.58 0.43 c p3
322.42 510.35 0.43 c p3
322.56 510.15 0.43 c p3
322.71 510.58 0.43 c p3
322.85 510.15 0.43 c p3
323.00 510.15 0.43 c p3
323.15 509.44 0.43 c p3
323.29 509.20 0.43 c p3
323.44 509.44 0.43 c p3
323.58 510.15 0.43 c p3
323.73 509.44 0.43 c p3
323.87 511.29 0.43 c p3
324.02 509.44 0.43 c p3
324.17 510.58 0.43 c p3
324.31 509.20 0.43 c p3
324.46 509.91 0.43 c p3
324.60 509.68 0.43 c p3
324.75 509.20 0.43 c p3
324.89 509.91 0.43 c p3
325.04 509.68 0.43 c p3
325.18 509.20 0.43 c p3
325.33 508.73 0.43 c p3
325.48 510.15 0.43 c p3
325.62 509.91 0.43 c p3
325.77 509.44 0.43 c p3
325.91 511.76 0.43 c p3
326.06 509.91 0.43 c p3
326.20 510.35 0.43 c p3
326.35 511.53 0.43 c p3
326.49 510.58 0.43 c p3
326.64 510.82 0.43 c p3
326.79 511.05 0.43 c p3
326.93 509.44 0.43 c p3
327.08 508.73 0.43 c p3
327.22 509.68 0.43 c p3
327.37 510.15 0.43 c p3
327.51 510.82 0.43 c p3
327.66 508.73 0.43 c p3
327.80 509.44 0.43 c p3
327.95 509.20 0.43 c p3
328.10 509.44 0.43 c p3
328.24 509.44 0.43 c p3
328.39 508.73 0.43 c p3
328.53 508.49 0.43 c p3
328.68 510.15 0.43 c p3
328.82 510.58 0.43 c p3
328.97 511.05 0.43 c p3
329.12 509.68 0.43 c p3
329.26 510.15 0.43 c p3
329.41 510.15 0.43 c p3
329.55 510.15 0.43 c p3
329.70 510.15 0.43 c p3
329.84 509.68 0.43 c p3
329.99 510.35 0.43 c p3
330.13 511.53 0.43 c p3
330.28 509.44 0.43 c p3
330.43 510.58 0.43 c p3
330.57 508.97 0.43 c p3
330.72 509.68 0.43 c p3
330.86 509.68 0.43 c p3
331.01 509.91 0.43 c p3
331.15 510.15 0.43 c p3
331.30 509.68 0.43 c p3
331.44 510.35 0.43 c p3
331.59 510.35 0.43 c p3
331.74 509.20 0.43 c p3
331.88 509.68 0.43 c p3
332.03 509.20 0.43 c p3
332.17 510.15 0.43 c p3
332.32 510.82 0.43 c p3
332.46 509.68 0.43 c p3
332.61 510.35 0.43 c p3
332.75 510.82 0.43 c p3
332.90 510.58 0.43 c p3
333.05 508.97 0.43 c p3
333.19 509.44 0.43 c p3
333.34 510.35 0.43 c p3
333.48 510.15 0.43 c p3
333.63 510.35 0.43 c p3
333.77 509.44 0.43 c p3
333.92 508.49 0.43 c p3
334.07 508.73 0.43 c p3
334.21 509.68 0.43 c p3
334.36 509.68 0.43 c p3
334.50 511.53 0.43 c p3
334.65 509.91 0.43 c p3
334.79 509.91 0.43 c p3
334.94 508.49 0.43 c p3
335.08 510.58 0.43 c p3
335.23 509.44 0.43 c p3
335.38 508.49 0.43 c p3
335.52 509.44 0.43 c p3
335.67 510.15 0.43 c p3
335.81 510.58 0.43 c p3
335.96 511.05 0.43 c p3
336.10 509.68 0.43 c p3
336.25 509.68 0.43 c p3
336.39 509.68 0.43 c p3
336.54 509.91 0.43 c p3
336.69 510.58 0.43 c p3
336.83 509.44 0.43 c p3
336.98 509.91 0.43 c p3
337.12 509.91 0.43 c p3
337.27 510.15 0.43 c p3
337.41 508.97 0.43 c p3
337.56 509.20 0.43 c p3
337.70 510.35 0.43 c p3
337.85 511.29 0.43 c p3
338.00 509.68 0.43 c p3
338.14 509.44 0.43 c p3
338.29 509.91 0.43 c p3
338.43 509.91 0.43 c p3
338.58 510.58 0.43 c p3
338.72 509.68 0.43 c p3
338.87 510.58 0.43 c p3
339.02 511.53 0.43 c p3
339.16 509.91 0.43 c p3
339.31 509.44 0.43 c p3
339.45 508.97 0.43 c p3
339.60 508.02 0.43 c p3
339.74 510.35 0.43 c p3
339.89 510.58 0.43 c p3
340.03 509.44 0.43 c p3
340.18 510.15 0.43 c p3
340.33 509.91 0.43 c p3
340.47 510.35 0.43 c p3
340.62 509.68 0.43 c p3
340.76 511.53 0.43 c p3
340.91 509.68 0.43 c p3
341.05 508.49 0.43 c p3
341.20 509.20 0.43 c p3
341.34 508.73 0.43 c p3
341.49 509.68 0.43 c p3
341.64 508.73 0.43 c p3
341.78 510.15 0.43 c p3
341.93 510.35 0.43 c p3
342.07 509.44 0.43 c p3
342.22 509.44 0.43 c p3
342.36 511.29 0.43 c p3
342.51 509.91 0.43 c p3
342.65 509.91 0.43 c p3
342.80 510.15 0.43 c p3
342.95 509.68 0.43 c p3
343.09 508.73 0.43 c p3
343.24 509.68 0.43 c p3
343.38 510.35 0.43 c p3
343.53 509.68 0.43 c p3
343.67 509.68 0.43 c p3
343.82 509.68 0.43 c p3
343.97 509.20 0.43 c p3
344.11 509.68 0.43 c p3
344.26 510.82 0.43 c p3
344.40 509.44 0.43 c p3
344.55 511.29 0.43 c p3
344.69 509.68 0.43 c p3
344.84 509.20 0.43 c p3
344.98 510.15 0.43 c p3
345.13 509.20 0.43 c p3
345.28 509.68 0.43 c p3
345.42 508.97 0.43 c p3
345.57 509.68 0.43 c p3
345.71 509.20 0.43 c p3
345.86 510.35 0.43 c p3
346.00 509.44 0.43 c p3
346.15 510.58 0.43 c p3
346.29 510.35 0.43 c p3
346.44 510.35 0.43 c p3
346.59 509.68 0.43 c p3
346.73 509.20 0.43 c p3
346.88 510.15 0.43 c p3
347.02 511.05 0.43 c p3
347.17 509.68 0.43 c p3
347.31 509.68 0.43 c p3
347.46 507.55 0.43 c p3
347.60 510.15 0.43 c p3
347.75 509.44 0.43 c p3
347.90 509.44 0.43 c p3
348.04 509.68 0.43 c p3
348.19 508.73 0.43 c p3
348.33 509.68 0.43 c p3
348.48 510.15 0.43 c p3
348.62 510.15 0.43 c p3
348.77 509.44 0.43 c p3
348.92 509.44 0.43 c p3
349.06 510.15 0.43 c p3
349.21 507.78 0.43 c p3
349.35 509.68 0.43 c p3
349.50 509.91 0.43 c p3
349.64 511.29 0.43 c p3
349.79 509.20 0.43 c p3
349.93 509.68 0.43 c p3
350.08 509.91 0.43 c p3
350.23 510.15 0.43 c p3
350.37 508.02 0.43 c p3
350.52 509.68 0.43 c p3
350.66 510.35 0.43 c p3
350.81 509.44 0.43 c p3
350.95 509.91 0.43 c p3
351.10 510.35 0.43 c p3
351.24 508.97 0.43 c p3
351.39 509.68 0.43 c p3
351.54 508.73 0.43 c p3
351.68 509.44 0.43 c p3
351.83 509.44 0.43 c p3
351.97 510.58 0.43 c p3
352.12 509.20 0.43 c p3
352.26 512.00 0.43 c p3
352.41 510.58 0.43 c p3
352.55 509.68 0.43 c p3
352.70 508.73 0.43 c p3
352.85 509.20 0.43 c p3
352.99 510.58 0.43 c p3
353.14 509.44 0.43 c p3
353.28 509.68 0.43 c p3
353.43 510.35 0.43 c p3
353.57 508.73 0.43 c p3
353.72 509.44 0.43 c p3
353.86 508.97 0.43 c p3
354.01 508.73 0.43 c p3
354.16 509.68 0.43 c p3
354.30 507.78 0.43 c p3
354.45 510.82 0.43 c p3
354.59 509.91 0.43 c p3
354.74 510.58 0.43 c p3
354.88 509.20 0.43 c p3
355.03 510.15 0.43 c p3
355.18 508.73 0.43 c p3
355.32 509.91 0.43 c p3
355.47 508.02 0.43 c p3
355.61 509.68 0.43 c p3
355.76 510.58 0.43 c p3
355.90 509.20 0.43 c p3
356.05 509.44 0.43 c p3
356.19 510.58 0.43 c p3
356.34 509.91 0.43 c p3
356.49 509.68 0.43 c p3
356.63 509.91 0.43 c p3
356.78 508.73 0.43 c p3
356.92 507.55 0.43 c p3
357.07 509.44 0.43 c p3
357.21 509.68 0.43 c p3
357.36 508.49 0.43 c p3
357.50 509.20 0.43 c p3
357.65 508.73 0.43 c p3
357.80 508.73 0.43 c p3
357.94 509.20 0.43 c p3
358.09 508.49 0.43 c p3
358.23 509.91 0.43 c p3
358.38 508.73 0.43 c p3
358.52 512.00 0.43 c p3
358.67 509.44 0.43 c p3
358.81 509.68 0.43 c p3
358.96 508.02 0.43 c p3
359.11 509.20 0.43 c p3
359.25 509.68 0.43 c p3
359.40 508.02 0.43 c p3
359.54 509.91 0.43 c p3
359.69 508.26 0.43 c p3
359.83 510.15 0.43 c p3
359.98 508.49 0.43 c p3
360.13 508.26 0.43 c p3
360.27 509.91 0.43 c p3
360.42 509.68 0.43 c p3
360.56 508.97 0.43 c p3
360.71 508.73 0.43 c p3
360.85 508.73 0.43 c p3
361.00 508.49 0.43 c p3
361.14 507.55 0.43 c p3
361.29 509.44 0.43 c p3
361.44 509.68 0.43 c p3
361.58 508.97 0.43 c p3
361.73 509.91 0.43 c p3
361.87 510.15 0.43 c p3
362.02 508.97 0.43 c p3
362.16 508.97 0.43 c p3
362.31 508.26 0.43 c p3
362.45 509.68 0.43 c p3
362.60 508.97 0.43 c p3
362.75 509.44 0.43 c p3
362.89 508.49 0.43 c p3
363.04 507.78 0.43 c p3
363.18 509.44 0.43 c p3
363.33 508.97 0.43 c p3
363.47 509.20 0.43 c p3
363.62 508.49 0.43 c p3
363.76 509.44 0.43 c p3
363.91 509.68 0.43 c p3
364.06 508.73 0.43 c p3
364.20 509.68 0.43 c p3
364.35 508.97 0.43 c p3
364.49 509.44 0.43 c p3
364.64 509.91 0.43 c p3
364.78 509.68 0.43 c p3
364.93 508.49 0.43 c p3
365.08 508.49 0.43 c p3
365.22 508.97 0.43 c p3
365.37 508.73 0.43 c p3
365.51 506.84 0.43 c p3
365.66 509.44 0.43 c p3
365.80 508.97 0.43 c p3
365.95 509.68 0.43 c p3
366.09 509.44 0.43 c p3
366.24 509.91 0.43 c p3
366.39 510.58 0.43 c p3
366.53 510.58 0.43 c p3
366.68 508.26 0.43 c p3
366.82 508.73 0.43 c p3
366.97 507.78 0.43 c p3
367.11 509.20 0.43 c p3
367.26 509.20 0.43 c p3
367.40 508.02 0.43 c p3
367.55 509.91 0.43 c p3
367.70 509.20 0.43 c p3
367.84 508.73 0.43 c p3
367.99 508.49 0.43 c p3
368.13 508.73 0.43 c p3
368.28 508.73 0.43 c p3
368.42 509.68 0.43 c p3
368.57 509.20 0.43 c p3
368.71 508.97 0.43 c p3
368.86 509.91 0.43 c p3
369.01 507.78 0.43 c p3
369.15 508.97 0.43 c p3
369.30 507.08 0.43 c p3
369.44 508.02 0.43 c p3
369.59 509.44 0.43 c p3
369.73 508.26 0.43 c p3
369.88 509.44 0.43 c p3
370.03 509.44 0.43 c p3
370.17 508.73 0.43 c p3
370.32 507.78 0.43 c p3
370.46 509.44 0.43 c p3
370.61 509.68 0.43 c p3
370.75 509.44 0.43 c p3
370.90 506.84 0.43 c p3
371.04 508.73 0.43 c p3
371.19 508.49 0.43 c p3
371.34 508.26 0.43 c p3
371.48 508.26 0.43 c p3
371.63 507.78 0.43 c p3
371.77 508.97 0.43 c p3
371.92 508.97 0.43 c p3
372.06 508.49 0.43 c p3
372.21 508.49 0.43 c p3
372.35 508.97 0.43 c p3
372.50 509.44 0.43 c p3
372.65 507.55 0.43 c p3
372.79 507.31 0.43 c p3
372.94 508.73 0.43 c p3
373.08 507.31 0.43 c p3
373.23 508.49 0.43 c p3
373.37 506.84 0.43 c p3
373.52 508.02 0.43 c p3
373.66 508.49 0.43 c p3
373.81 507.55 0.43 c p3
373.96 508.26 0.43 c p3
374.10 508.49 0.43 c p3
374.25 508.97 0.43 c p3
374.39 508.26 0.43 c p3
374.54 508.73 0.43 c p3
374.68 508.02 0.43 c p3
374.83 509.20 0.43 c p3
374.98 507.31 0.43 c p3
375.12 506.84 0.43 c p3
375.27 507.08 0.43 c p3
375.41 508.73 0.43 c p3
375.56 508.73 0.43 c p3
375.70 508.02 0.43 c p3
375.85 509.20 0.43 c p3
375.99 508.26 0.43 c p3
376.14 507.78 0.43 c p3
376.29 507.78 0.43 c p3
376.43 508.49 0.43 c p3
376.58 508.49 0.43 c p3
376.72 507.78 0.43 c p3
376.87 507.55 0.43 c p3
377.01 508.02 0.43 c p3
377.16 507.55 0.43 c p3
377.30 508.73 0.43 c p3
377.45 508.02 0.43 c p3
377.60 508.97 0.43 c p3
377.74 509.68 0.43 c p3
377.89 509.20 0.43 c p3
378.03 508.49 0.43 c p3
378.18 507.78 0.43 c p3
378.32 507.31 0.43 c p3
378.47 508.49 0.43 c p3
378.61 508.73 0.43 c p3
378.76 508.97 0.43 c p3
378.91 508.73 0.43 c p3
379.05 507.08 0.43 c p3
379.20 508.49 0.43 c p3
379.34 508.02 0.43 c p3
379.49 507.31 0.43 c p3
379.63 508.26 0.43 c p3
379.78 508.02 0.43 c p3
379.93 508.26 0.43 c p3
380.07 508.26 0.43 c p3
380.22 508.73 0.43 c p3
380.36 509.44 0.43 c p3
380.51 509.20 0.43 c p3
380.65 508.49 0.43 c p3
380.80 507.78 0.43 c p3
380.94 508.02 0.43 c p3
381.09 508.73 0.43 c p3
381.24 507.08 0.43 c p3
381.38 508.02 0.43 c p3
381.53 507.08 0.43 c p3
381.67 506.84 0.43 c p3
381.82 508.02 0.43 c p3
381.96 507.31 0.43 c p3
382.11 507.78 0.43 c p3
382.25 508.02 0.43 c p3
382.40 507.55 0.43 c p3
0.00 0.00 432.00 576.00 cl
0 0 0 srgb
0.75 setlinewidth
[] 0 setdash
1 setlinecap
1 setlinejoin
10.00 setmiterlimit
np
236.96 345.60 m
145.59 0 l
o
np
236.96 345.60 m
0 -5.76 l
o
np
266.08 345.60 m
0 -5.76 l
o
np
295.19 345.60 m
0 -5.76 l
o
np
324.31 345.60 m
0 -5.76 l
o
np
353.43 345.60 m
0 -5.76 l
o
np
382.55 345.60 m
0 -5.76 l
o
/Font1 findfont 10 s
236.96 329.47 (0) .5 0 t
266.08 329.47 (500) .5 0 t
295.19 329.47 (1000) .5 0 t
353.43 329.47 (2000) .5 0 t
np
216.00 352.00 m
0 161.37 l
o
np
216.00 352.00 m
-5.76 0 l
o
np
216.00 384.27 m
-5.76 0 l
o
np
216.00 416.55 m
-5.76 0 l
o
np
216.00 448.82 m
-5.76 0 l
o
np
216.00 481.10 m
-5.76 0 l
o
np
216.00 513.37 m
-5.76 0 l
o
209.09 348.41 (0.00) 1 0 t
209.09 380.68 (0.05) 1 0 t
209.09 412.96 (0.10) 1 0 t
209.09 445.23 (0.15) 1 0 t
209.09 477.51 (0.20) 1 0 t
209.09 509.78 (0.25) 1 0 t
np
216.00 345.60 m
172.80 0 l
0 172.80 l
-172.80 0 l
0 -172.80 l
o
0.00 0.00 432.00 576.00 cl
/Font1 findfont 10 s
0 0 0 srgb
302.40 313.34 (Time / ms \(total\)) .5 0 t
190.66 432.00 (U / V) .5 90 t
216.00 345.60 388.80 518.40 cl
0 0 0 srgb
0.38 setlinewidth
[ 1.13 1.88] 0 setdash
1 setlinecap
1 setlinejoin
10.00 setmiterlimit
np
222.98 345.60 m
0 172.80 l
o
np
234.77 345.60 m
0 172.80 l
o
np
238.27 345.60 m
0 172.80 l
o
np
336.98 345.60 m
0 172.80 l
o
86.40 57.60 388.80 288.00 cl
1 0 0 srgb
1.50 setlinewidth
[] 0 setdash
1 setlinecap
1 setlinejoin
10.00 setmiterlimit
np
97.60 279.47 m
1.41 -9.16 l
1.40 -8.77 l
1.41 -8.39 l
1.41 -8.03 l
1.41 -7.69 l
1.40 -7.35 l
1.41 -7.04 l
1.41 -6.74 l
1.40 -6.45 l
1.41 -6.17 l
1.41 -5.91 l
1.40 -5.65 l
1.41 -5.41 l
1.41 -5.18 l
1.41 -4.95 l
1.40 -4.75 l
1.41 -4.54 l
1.41 -4.34 l
1.40 -4.16 l
1.41 -3.98 l
1.41 -3.81 l
1.40 -3.64 l
1.41 -3.49 l
1.41 -3.34 l
1.41 -3.19 l
1.40 -3.06 l
1.41 -2.93 l
1.41 -2.80 l
1.40 -2.68 l
1.41 -2.57 l
1.41 -2.45 l
1.41 -2.35 l
1.40 -2.25 l
1.41 -2.16 l
1.41 -2.06 l
1.40 -1.97 l
1.41 -1.89 l
1.41 -1.80 l
1.40 -1.73 l
1.41 -1.66 l
1.41 -1.58 l
1.41 -1.51 l
1.40 -1.46 l
1.41 -1.38 l
1.41 -1.33 l
1.40 -1.27 l
1.41 -1.22 l
1.41 -1.17 l
1.40 -1.11 l
1.41 -1.07 l
1.41 -1.02 l
1.41 -0.98 l
1.40 -0.93 l
1.41 -0.90 l
1.41 -0.85 l
1.40 -0.82 l
1.41 -0.79 l
1.41 -0.75 l
1.41 -0.72 l
1.40 -0.68 l
1.41 -0.66 l
1.41 -0.63 l
1.40 -0.61 l
1.41 -0.57 l
1.41 -0.56 l
1.40 -0.52 l
1.41 -0.51 l
1.41 -0.49 l
1.41 -0.46 l
1.40 -0.44 l
1.41 -0.43 l
1.41 -0.40 l
1.40 -0.39 l
1.41 -0.37 l
1.41 -0.36 l
1.40 -0.34 l
1.41 -0.33 l
1.41 -0.31 l
1.41 -0.30 l
1.40 -0.28 l
1.41 -0.28 l
1.41 -0.26 l
1.40 -0.25 l
1.41 -0.24 l
1.41 -0.23 l
1.41 -0.22 l
1.40 -0.21 l
1.41 -0.20 l
1.41 -0.20 l
1.40 -0.18 l
1.41 -0.18 l
1.41 -0.16 l
1.40 -0.17 l
1.41 -0.15 l
1.41 -0.15 l
1.41 -0.14 l
1.40 -0.14 l
1.41 -0.13 l
1.41 -0.12 l
238.30 68.75 lineto
1.41 -0.11 l
1.41 -0.11 l
1.40 -0.11 l
1.41 -0.10 l
1.41 -0.09 l
1.41 -0.09 l
1.40 -0.09 l
1.41 -0.08 l
1.41 -0.08 l
1.40 -0.08 l
1.41 -0.07 l
1.41 -0.08 l
1.40 -0.06 l
1.41 -0.07 l
1.41 -0.06 l
1.41 -0.06 l
1.40 -0.05 l
1.41 -0.06 l
1.41 -0.05 l
1.40 -0.05 l
1.41 -0.05 l
1.41 -0.04 l
1.41 -0.04 l
1.40 -0.05 l
1.41 -0.04 l
1.41 -0.03 l
1.40 -0.04 l
1.41 -0.04 l
1.41 -0.03 l
1.40 -0.03 l
1.41 -0.03 l
1.41 -0.03 l
1.41 -0.03 l
1.40 -0.02 l
1.41 -0.03 l
1.41 -0.02 l
1.40 -0.03 l
1.41 -0.02 l
1.41 -0.02 l
1.40 -0.02 l
1.41 -0.02 l
1.41 -0.02 l
1.41 -0.02 l
1.40 -0.02 l
1.41 -0.01 l
1.41 -0.02 l
1.40 -0.01 l
1.41 -0.02 l
1.41 -0.01 l
1.41 -0.02 l
1.40 -0.01 l
1.41 -0.01 l
1.41 -0.01 l
1.40 -0.01 l
1.41 -0.01 l
1.41 -0.01 l
1.40 -0.01 l
1.41 -0.01 l
1.41 -0.01 l
1.41 -0.01 l
1.40 -0.01 l
1.41 -0.01 l
1.41 0 l
1.40 -0.01 l
1.41 -0.01 l
1.41 0 l
1.40 -0.01 l
1.41 -0.01 l
1.41 0 l
1.41 -0.01 l
1.40 0 l
1.41 -0.01 l
1.41 0 l
1.40 -0.01 l
1.41 0 l
1.41 -0.01 l
1.41 0 l
1.40 0 l
1.41 -0.01 l
1.41 0 l
1.40 -0.01 l
1.41 0 l
1.41 0 l
1.40 0 l
1.41 -0.01 l
1.41 0 l
1.41 0 l
1.40 -0.01 l
1.41 0 l
1.41 0 l
1.40 0 l
1.41 0 l
1.41 -0.01 l
1.40 0 l
1.41 0 l
1.41 0 l
1.41 0 l
1.40 -0.01 l
1.41 0 l
o
0.00 0.00 432.00 576.00 cl
0 0 0 srgb
0.75 setlinewidth
[] 0 setdash
1 setlinecap
1 setlinejoin
10.00 setmiterlimit
np
97.60 57.60 m
280.00 0 l
o
np
97.60 57.60 m
0 -5.76 l
o
np
153.60 57.60 m
0 -5.76 l
o
np
209.60 57.60 m
0 -5.76 l
o
np
265.60 57.60 m
0 -5.76 l
o
np
321.60 57.60 m
0 -5.76 l
o
np
377.60 57.60 m
0 -5.76 l
o
/Font1 findfont 10 s
97.60 41.47 (0) .5 0 t
153.60 41.47 (500) .5 0 t
209.60 41.47 (1000) .5 0 t
265.60 41.47 (1500) .5 0 t
321.60 41.47 (2000) .5 0 t
377.60 41.47 (2500) .5 0 t
np
86.40 68.38 m
0 192.59 l
o
np
86.40 68.38 m
-5.76 0 l
o
np
86.40 100.48 m
-5.76 0 l
o
np
86.40 132.58 m
-5.76 0 l
o
np
86.40 164.68 m
-5.76 0 l
o
np
86.40 196.77 m
-5.76 0 l
o
np
86.40 228.87 m
-5.76 0 l
o
np
86.40 260.97 m
-5.76 0 l
o
79.49 64.79 (0.00) 1 0 t
79.49 96.89 (0.02) 1 0 t
79.49 128.99 (0.04) 1 0 t
79.49 161.09 (0.06) 1 0 t
79.49 193.18 (0.08) 1 0 t
79.49 225.28 (0.10) 1 0 t
79.49 257.38 (0.12) 1 0 t
np
86.40 57.60 m
302.40 0 l
0 230.40 l
-302.40 0 l
0 -230.40 l
o
0.00 0.00 432.00 576.00 cl
/Font1 findfont 10 s
0 0 0 srgb
237.60 13.82 (Time / ms \(after pulse\)) .5 0 t
49.54 172.80 (Absorbance A) .5 90 t
86.40 57.60 388.80 288.00 cl
/bg { 1 1 1 srgb } def
0 0 0 srgb
0.75 setlinewidth
[] 0 setdash
1 setlinecap
1 setlinejoin
10.00 setmiterlimit
100.40 267.19 0.65 c p3
100.68 267.19 0.65 c p3
100.96 263.03 0.65 c p3
101.24 257.52 0.65 c p3
101.52 267.19 0.65 c p3
101.80 253.65 0.65 c p3
102.08 257.52 0.65 c p3
102.36 253.65 0.65 c p3
102.64 255.01 0.65 c p3
102.92 236.13 0.65 c p3
103.20 246.86 0.65 c p3
103.48 246.86 0.65 c p3
103.76 249.56 0.65 c p3
104.04 232.15 0.65 c p3
104.32 248.21 0.65 c p3
104.60 230.83 0.65 c p3
104.88 234.80 0.65 c p3
105.16 230.83 0.65 c p3
105.44 229.51 0.65 c p3
105.72 226.88 0.65 c p3
106.00 238.80 0.65 c p3
106.28 232.15 0.65 c p3
106.56 216.67 0.65 c p3
106.84 230.83 0.65 c p3
107.12 219.26 0.65 c p3
107.40 219.26 0.65 c p3
107.68 216.67 0.65 c p3
107.96 225.57 0.65 c p3
108.24 220.56 0.65 c p3
108.52 224.26 0.65 c p3
108.80 215.37 0.65 c p3
109.08 214.08 0.65 c p3
109.36 212.80 0.65 c p3
109.64 212.80 0.65 c p3
109.92 205.12 0.65 c p3
110.20 216.67 0.65 c p3
110.48 206.39 0.65 c p3
110.76 208.95 0.65 c p3
111.04 197.52 0.65 c p3
111.32 207.67 0.65 c p3
111.60 201.31 0.65 c p3
111.88 197.52 0.65 c p3
112.16 202.58 0.65 c p3
112.44 197.52 0.65 c p3
112.72 198.78 0.65 c p3
113.00 192.51 0.65 c p3
113.28 198.78 0.65 c p3
113.56 196.27 0.65 c p3
113.84 198.78 0.65 c p3
114.12 190.01 0.65 c p3
114.40 192.51 0.65 c p3
114.68 191.26 0.65 c p3
114.96 193.76 0.65 c p3
115.24 186.49 0.65 c p3
115.52 192.51 0.65 c p3
115.80 182.78 0.65 c p3
116.08 184.02 0.65 c p3
116.36 184.02 0.65 c p3
116.64 186.49 0.65 c p3
116.92 181.55 0.65 c p3
117.20 180.32 0.65 c p3
117.48 179.10 0.65 c p3
117.76 177.87 0.65 c p3
118.04 172.99 0.65 c p3
118.32 176.65 0.65 c p3
118.60 177.87 0.65 c p3
118.88 175.43 0.65 c p3
119.16 170.56 0.65 c p3
119.44 168.15 0.65 c p3
119.72 175.43 0.65 c p3
120.00 166.94 0.65 c p3
120.28 172.99 0.65 c p3
120.56 163.34 0.65 c p3
120.84 165.74 0.65 c p3
121.12 157.37 0.65 c p3
121.40 168.15 0.65 c p3
121.68 164.54 0.65 c p3
121.96 174.21 0.65 c p3
122.24 158.56 0.65 c p3
122.52 165.74 0.65 c p3
122.80 156.18 0.65 c p3
123.08 164.54 0.65 c p3
123.36 156.18 0.65 c p3
123.64 169.36 0.65 c p3
123.92 155.00 0.65 c p3
124.20 159.75 0.65 c p3
124.48 150.47 0.65 c p3
124.76 159.75 0.65 c p3
125.04 158.56 0.65 c p3
125.32 160.94 0.65 c p3
125.60 154.01 0.65 c p3
125.88 156.18 0.65 c p3
126.16 158.56 0.65 c p3
126.44 156.18 0.65 c p3
126.72 154.01 0.65 c p3
127.00 150.47 0.65 c p3
127.28 151.65 0.65 c p3
127.56 146.95 0.65 c p3
127.84 149.29 0.65 c p3
128.12 144.61 0.65 c p3
128.40 146.95 0.65 c p3
128.68 141.12 0.65 c p3
128.96 152.83 0.65 c p3
129.24 137.65 0.65 c p3
129.52 145.78 0.65 c p3
129.80 139.96 0.65 c p3
130.08 150.47 0.65 c p3
130.36 139.96 0.65 c p3
130.64 144.61 0.65 c p3
130.92 137.65 0.65 c p3
131.20 148.12 0.65 c p3
131.48 136.49 0.65 c p3
131.76 141.12 0.65 c p3
132.04 142.28 0.65 c p3
132.32 137.65 0.65 c p3
132.60 142.28 0.65 c p3
132.88 139.96 0.65 c p3
133.16 138.80 0.65 c p3
133.44 133.04 0.65 c p3
133.72 138.80 0.65 c p3
134.00 129.60 0.65 c p3
134.28 129.60 0.65 c p3
134.56 128.46 0.65 c p3
134.84 139.96 0.65 c p3
135.12 125.05 0.65 c p3
135.40 137.65 0.65 c p3
135.68 128.46 0.65 c p3
135.96 130.75 0.65 c p3
136.24 123.92 0.65 c p3
136.52 130.75 0.65 c p3
136.80 122.97 0.65 c p3
137.08 129.60 0.65 c p3
137.36 128.46 0.65 c p3
137.64 128.46 0.65 c p3
137.92 126.19 0.65 c p3
138.20 126.19 0.65 c p3
138.48 127.32 0.65 c p3
138.76 122.97 0.65 c p3
139.04 121.85 0.65 c p3
139.32 117.34 0.65 c p3
139.60 131.89 0.65 c p3
139.88 118.46 0.65 c p3
140.16 123.92 0.65 c p3
140.44 116.22 0.65 c p3
140.72 125.05 0.65 c p3
141.00 119.59 0.65 c p3
141.28 119.59 0.65 c p3
141.56 115.10 0.65 c p3
141.84 123.92 0.65 c p3
142.12 118.46 0.65 c p3
142.40 120.72 0.65 c p3
142.68 112.87 0.65 c p3
142.96 110.64 0.65 c p3
143.24 115.10 0.65 c p3
143.52 118.46 0.65 c p3
143.80 113.98 0.65 c p3
144.08 116.22 0.65 c p3
144.36 111.75 0.65 c p3
144.64 121.85 0.65 c p3
144.92 116.22 0.65 c p3
145.20 119.59 0.65 c p3
145.48 119.59 0.65 c p3
145.76 117.34 0.65 c p3
146.04 115.10 0.65 c p3
146.32 109.53 0.65 c p3
146.60 120.72 0.65 c p3
146.88 111.75 0.65 c p3
147.16 111.75 0.65 c p3
147.44 101.81 0.65 c p3
147.72 118.46 0.65 c p3
148.00 110.64 0.65 c p3
148.28 117.34 0.65 c p3
148.56 113.98 0.65 c p3
148.84 113.98 0.65 c p3
149.12 108.42 0.65 c p3
149.40 110.64 0.65 c p3
149.68 107.32 0.65 c p3
149.96 115.10 0.65 c p3
150.24 112.87 0.65 c p3
150.52 110.64 0.65 c p3
150.80 104.00 0.65 c p3
151.08 100.71 0.65 c p3
151.36 97.43 0.65 c p3
151.64 104.00 0.65 c p3
151.92 101.81 0.65 c p3
152.20 102.90 0.65 c p3
152.48 108.42 0.65 c p3
152.76 105.11 0.65 c p3
153.04 102.90 0.65 c p3
153.32 106.21 0.65 c p3
153.60 117.34 0.65 c p3
153.88 102.90 0.65 c p3
154.16 108.42 0.65 c p3
154.44 97.43 0.65 c p3
154.72 107.32 0.65 c p3
155.00 106.21 0.65 c p3
155.28 99.61 0.65 c p3
155.56 98.52 0.65 c p3
155.84 104.00 0.65 c p3
156.12 101.81 0.65 c p3
156.40 104.00 0.65 c p3
156.68 95.26 0.65 c p3
156.96 101.81 0.65 c p3
157.24 98.52 0.65 c p3
157.52 96.34 0.65 c p3
157.80 101.81 0.65 c p3
158.08 95.26 0.65 c p3
158.36 96.34 0.65 c p3
158.64 96.34 0.65 c p3
158.92 102.90 0.65 c p3
159.20 99.61 0.65 c p3
159.48 101.81 0.65 c p3
159.76 102.90 0.65 c p3
160.04 108.42 0.65 c p3
160.32 99.61 0.65 c p3
160.60 109.53 0.65 c p3
160.88 94.17 0.65 c p3
161.16 102.90 0.65 c p3
161.44 92.18 0.65 c p3
161.72 94.17 0.65 c p3
162.00 94.17 0.65 c p3
162.28 98.52 0.65 c p3
162.56 95.26 0.65 c p3
162.84 84.64 0.65 c p3
163.12 87.86 0.65 c p3
163.40 100.71 0.65 c p3
163.68 90.02 0.65 c p3
163.96 93.26 0.65 c p3
164.24 91.10 0.65 c p3
164.52 88.94 0.65 c p3
164.80 91.10 0.65 c p3
165.08 94.17 0.65 c p3
165.36 85.72 0.65 c p3
165.64 90.02 0.65 c p3
165.92 88.94 0.65 c p3
166.20 88.94 0.65 c p3
166.48 96.34 0.65 c p3
166.76 90.02 0.65 c p3
167.04 94.17 0.65 c p3
167.32 90.02 0.65 c p3
167.60 88.94 0.65 c p3
167.88 85.72 0.65 c p3
168.16 94.17 0.65 c p3
168.44 91.10 0.65 c p3
168.72 94.17 0.65 c p3
169.00 82.51 0.65 c p3
169.28 94.17 0.65 c p3
169.56 93.26 0.65 c p3
169.84 93.26 0.65 c p3
170.12 86.79 0.65 c p3
170.40 91.10 0.65 c p3
170.68 86.79 0.65 c p3
170.96 92.18 0.65 c p3
171.24 87.86 0.65 c p3
171.52 90.02 0.65 c p3
171.80 83.57 0.65 c p3
172.08 87.86 0.65 c p3
172.36 82.51 0.65 c p3
172.64 84.64 0.65 c p3
172.92 86.79 0.65 c p3
173.20 86.79 0.65 c p3
173.48 87.86 0.65 c p3
173.76 94.17 0.65 c p3
174.04 82.51 0.65 c p3
174.32 94.17 0.65 c p3
174.60 78.25 0.65 c p3
174.88 87.86 0.65 c p3
175.16 86.79 0.65 c p3
175.44 82.51 0.65 c p3
175.72 80.38 0.65 c p3
176.00 83.57 0.65 c p3
176.28 82.51 0.65 c p3
176.56 84.64 0.65 c p3
176.84 76.13 0.65 c p3
177.12 88.94 0.65 c p3
177.40 82.51 0.65 c p3
177.68 88.94 0.65 c p3
177.96 82.51 0.65 c p3
178.24 87.86 0.65 c p3
178.52 77.19 0.65 c p3
178.80 87.86 0.65 c p3
179.08 87.86 0.65 c p3
179.36 82.51 0.65 c p3
179.64 83.57 0.65 c p3
179.92 81.44 0.65 c p3
180.20 85.72 0.65 c p3
180.48 82.51 0.65 c p3
180.76 87.86 0.65 c p3
181.04 80.38 0.65 c p3
181.32 91.10 0.65 c p3
181.60 75.07 0.65 c p3
181.88 84.64 0.65 c p3
182.16 75.07 0.65 c p3
182.44 90.02 0.65 c p3
182.72 75.07 0.65 c p3
183.00 81.44 0.65 c p3
183.28 81.44 0.65 c p3
183.56 84.64 0.65 c p3
183.84 83.57 0.65 c p3
184.12 83.57 0.65 c p3
184.40 79.31 0.65 c p3
184.68 74.02 0.65 c p3
184.96 80.38 0.65 c p3
185.24 77.19 0.65 c p3
185.52 85.72 0.65 c p3
185.80 79.31 0.65 c p3
186.08 77.19 0.65 c p3
186.36 76.13 0.65 c p3
186.64 79.31 0.65 c p3
186.92 80.38 0.65 c p3
187.20 77.19 0.65 c p3
187.48 77.19 0.65 c p3
187.76 80.38 0.65 c p3
188.04 79.31 0.65 c p3
188.32 81.44 0.65 c p3
188.60 83.57 0.65 c p3
188.88 81.44 0.65 c p3
189.16 87.86 0.65 c p3
189.44 75.07 0.65 c p3
189.72 83.57 0.65 c p3
190.00 76.13 0.65 c p3
190.28 78.25 0.65 c p3
190.56 80.38 0.65 c p3
190.84 78.25 0.65 c p3
191.12 76.13 0.65 c p3
191.40 75.07 0.65 c p3
191.68 76.13 0.65 c p3
191.96 67.72 0.65 c p3
192.24 78.25 0.65 c p3
192.52 75.07 0.65 c p3
192.80 83.57 0.65 c p3
193.08 77.19 0.65 c p3
193.36 83.57 0.65 c p3
193.64 74.02 0.65 c p3
193.92 75.07 0.65 c p3
194.20 77.19 0.65 c p3
194.48 69.81 0.65 c p3
194.76 74.02 0.65 c p3
195.04 72.97 0.65 c p3
195.32 82.51 0.65 c p3
195.60 75.07 0.65 c p3
195.88 80.38 0.65 c p3
196.16 72.97 0.65 c p3
196.44 76.13 0.65 c p3
196.72 72.97 0.65 c p3
197.00 78.25 0.65 c p3
197.28 75.07 0.65 c p3
197.56 77.19 0.65 c p3
197.84 72.97 0.65 c p3
198.12 75.07 0.65 c p3
198.40 74.02 0.65 c p3
198.68 68.77 0.65 c p3
198.96 77.19 0.65 c p3
199.24 77.19 0.65 c p3
199.52 76.13 0.65 c p3
199.80 71.91 0.65 c p3
200.08 85.72 0.65 c p3
200.36 74.02 0.65 c p3
200.64 71.91 0.65 c p3
200.92 68.77 0.65 c p3
201.20 77.19 0.65 c p3
201.48 67.72 0.65 c p3
201.76 77.19 0.65 c p3
202.04 72.97 0.65 c p3
202.32 84.64 0.65 c p3
202.60 67.72 0.65 c p3
202.88 81.44 0.65 c p3
203.16 70.87 0.65 c p3
203.44 81.44 0.65 c p3
203.72 72.97 0.65 c p3
204.00 69.81 0.65 c p3
204.28 80.38 0.65 c p3
204.56 68.77 0.65 c p3
204.84 68.77 0.65 c p3
205.12 68.77 0.65 c p3
205.40 79.31 0.65 c p3
205.68 68.77 0.65 c p3
205.96 74.02 0.65 c p3
206.24 71.91 0.65 c p3
206.52 79.31 0.65 c p3
206.80 71.91 0.65 c p3
207.08 71.91 0.65 c p3
207.36 69.81 0.65 c p3
207.64 71.91 0.65 c p3
207.92 67.72 0.65 c p3
208.20 70.87 0.65 c p3
208.48 80.38 0.65 c p3
208.76 66.68 0.65 c p3
209.04 75.07 0.65 c p3
209.32 69.81 0.65 c p3
209.60 69.81 0.65 c p3
209.88 68.77 0.65 c p3
210.16 71.91 0.65 c p3
210.44 74.02 0.65 c p3
210.72 74.02 0.65 c p3
211.00 68.77 0.65 c p3
211.28 75.07 0.65 c p3
211.56 70.87 0.65 c p3
211.84 77.19 0.65 c p3
212.12 69.81 0.65 c p3
212.40 76.13 0.65 c p3
212.68 70.87 0.65 c p3
212.96 76.13 0.65 c p3
213.24 74.02 0.65 c p3
213.52 72.97 0.65 c p3
213.80 71.91 0.65 c p3
214.08 76.13 0.65 c p3
214.36 69.81 0.65 c p3
214.64 72.97 0.65 c p3
214.92 69.81 0.65 c p3
215.20 70.87 0.65 c p3
215.48 74.02 0.65 c p3
215.76 70.87 0.65 c p3
216.04 68.77 0.65 c p3
216.32 71.91 0.65 c p3
216.60 66.68 0.65 c p3
216.88 67.72 0.65 c p3
217.16 66.68 0.65 c p3
217.44 67.72 0.65 c p3
217.72 67.72 0.65 c p3
218.00 70.87 0.65 c p3
218.28 78.25 0.65 c p3
218.56 67.72 0.65 c p3
218.84 68.77 0.65 c p3
219.12 69.81 0.65 c p3
219.40 72.97 0.65 c p3
219.68 69.81 0.65 c p3
219.96 71.91 0.65 c p3
220.24 70.87 0.65 c p3
220.52 64.77 0.65 c p3
220.80 66.68 0.65 c p3
221.08 70.87 0.65 c p3
221.36 67.72 0.65 c p3
221.64 71.91 0.65 c p3
221.92 74.02 0.65 c p3
222.20 69.81 0.65 c p3
222.48 68.77 0.65 c p3
222.76 74.02 0.65 c p3
223.04 78.25 0.65 c p3
223.32 68.77 0.65 c p3
223.60 69.81 0.65 c p3
223.88 71.91 0.65 c p3
224.16 70.87 0.65 c p3
224.44 70.87 0.65 c p3
224.72 66.68 0.65 c p3
225.00 68.77 0.65 c p3
225.28 68.77 0.65 c p3
225.56 68.77 0.65 c p3
225.84 72.97 0.65 c p3
226.12 77.19 0.65 c p3
226.40 69.81 0.65 c p3
226.68 68.77 0.65 c p3
226.96 71.91 0.65 c p3
227.24 66.68 0.65 c p3
227.52 62.69 0.65 c p3
227.80 59.58 0.65 c p3
228.08 67.72 0.65 c p3
228.36 69.81 0.65 c p3
228.64 66.68 0.65 c p3
228.92 74.02 0.65 c p3
229.20 67.72 0.65 c p3
229.48 71.91 0.65 c p3
229.76 67.72 0.65 c p3
230.04 67.72 0.65 c p3
230.32 67.72 0.65 c p3
230.60 68.77 0.65 c p3
230.88 71.91 0.65 c p3
231.16 69.81 0.65 c p3
231.44 69.81 0.65 c p3
231.72 69.81 0.65 c p3
232.00 70.87 0.65 c p3
232.28 66.68 0.65 c p3
232.56 61.65 0.65 c p3
232.84 65.63 0.65 c p3
233.12 67.72 0.65 c p3
233.40 67.72 0.65 c p3
233.68 70.87 0.65 c p3
233.96 64.77 0.65 c p3
234.24 68.77 0.65 c p3
234.52 75.07 0.65 c p3
234.80 71.91 0.65 c p3
235.08 63.73 0.65 c p3
235.36 64.77 0.65 c p3
235.64 65.63 0.65 c p3
235.92 65.63 0.65 c p3
236.20 70.87 0.65 c p3
236.48 70.87 0.65 c p3
236.76 66.68 0.65 c p3
237.04 68.77 0.65 c p3
237.32 72.97 0.65 c p3
237.60 68.77 0.65 c p3
237.88 70.87 0.65 c p3
238.16 71.91 0.65 c p3
238.44 71.91 0.65 c p3
238.72 59.58 0.65 c p3
239.00 70.87 0.65 c p3
239.28 66.68 0.65 c p3
239.56 69.81 0.65 c p3
239.84 69.81 0.65 c p3
240.12 69.81 0.65 c p3
240.40 66.68 0.65 c p3
240.68 71.91 0.65 c p3
240.96 69.81 0.65 c p3
241.24 63.73 0.65 c p3
241.52 69.81 0.65 c p3
241.80 70.87 0.65 c p3
242.08 69.81 0.65 c p3
242.36 78.25 0.65 c p3
242.64 69.81 0.65 c p3
242.92 71.91 0.65 c p3
243.20 65.63 0.65 c p3
243.48 64.77 0.65 c p3
243.76 65.63 0.65 c p3
244.04 66.68 0.65 c p3
244.32 67.72 0.65 c p3
244.60 65.63 0.65 c p3
244.88 66.68 0.65 c p3
245.16 65.63 0.65 c p3
245.44 72.97 0.65 c p3
245.72 70.87 0.65 c p3
246.00 68.77 0.65 c p3
246.28 69.81 0.65 c p3
246.56 66.68 0.65 c p3
246.84 71.91 0.65 c p3
247.12 71.91 0.65 c p3
247.40 64.77 0.65 c p3
247.68 63.73 0.65 c p3
247.96 67.72 0.65 c p3
248.24 67.72 0.65 c p3
248.52 70.87 0.65 c p3
248.80 70.87 0.65 c p3
249.08 68.77 0.65 c p3
249.36 65.63 0.65 c p3
249.64 74.02 0.65 c p3
249.92 65.63 0.65 c p3
250.20 68.77 0.65 c p3
250.48 65.63 0.65 c p3
250.76 68.77 0.65 c p3
251.04 70.87 0.65 c p3
251.32 66.68 0.65 c p3
251.60 64.77 0.65 c p3
251.88 67.72 0.65 c p3
252.16 69.81 0.65 c p3
252.44 76.13 0.65 c p3
252.72 65.63 0.65 c p3
253.00 69.81 0.65 c p3
253.28 69.81 0.65 c p3
253.56 67.72 0.65 c p3
253.84 69.81 0.65 c p3
254.12 71.91 0.65 c p3
254.40 58.55 0.65 c p3
254.68 65.63 0.65 c p3
254.96 67.72 0.65 c p3
255.24 64.77 0.65 c p3
255.52 62.69 0.65 c p3
255.80 75.07 0.65 c p3
256.08 66.68 0.65 c p3
256.36 63.73 0.65 c p3
256.64 71.91 0.65 c p3
256.92 65.63 0.65 c p3
257.20 64.77 0.65 c p3
257.48 66.68 0.65 c p3
257.76 63.73 0.65 c p3
258.04 62.69 0.65 c p3
258.32 64.77 0.65 c p3
258.60 68.77 0.65 c p3
258.88 71.91 0.65 c p3
259.16 64.77 0.65 c p3
259.44 63.73 0.65 c p3
259.72 68.77 0.65 c p3
260.00 69.81 0.65 c p3
260.28 71.91 0.65 c p3
260.56 69.81 0.65 c p3
260.84 68.77 0.65 c p3
261.12 68.77 0.65 c p3
261.40 68.77 0.65 c p3
261.68 69.81 0.65 c p3
261.96 63.73 0.65 c p3
262.24 64.77 0.65 c p3
262.52 65.63 0.65 c p3
262.80 63.73 0.65 c p3
263.08 65.63 0.65 c p3
263.36 65.63 0.65 c p3
263.64 68.77 0.65 c p3
263.92 69.81 0.65 c p3
264.20 68.77 0.65 c p3
264.48 65.63 0.65 c p3
264.76 68.77 0.65 c p3
265.04 60.62 0.65 c p3
265.32 68.77 0.65 c p3
265.60 63.73 0.65 c p3
265.88 69.81 0.65 c p3
266.16 66.68 0.65 c p3
266.44 67.72 0.65 c p3
266.72 69.81 0.65 c p3
267.00 66.68 0.65 c p3
267.28 67.72 0.65 c p3
267.56 69.81 0.65 c p3
267.84 71.91 0.65 c p3
268.12 65.63 0.65 c p3
268.40 66.68 0.65 c p3
268.68 68.77 0.65 c p3
268.96 58.55 0.65 c p3
269.24 66.68 0.65 c p3
269.52 64.77 0.65 c p3
269.80 59.58 0.65 c p3
270.08 63.73 0.65 c p3
270.36 62.69 0.65 c p3
270.64 61.65 0.65 c p3
270.92 68.77 0.65 c p3
271.20 71.91 0.65 c p3
271.48 67.72 0.65 c p3
271.76 65.63 0.65 c p3
272.04 62.69 0.65 c p3
272.32 71.91 0.65 c p3
272.60 68.77 0.65 c p3
272.88 69.81 0.65 c p3
273.16 68.77 0.65 c p3
273.44 68.77 0.65 c p3
273.72 71.91 0.65 c p3
274.00 72.97 0.65 c p3
274.28 65.63 0.65 c p3
274.56 63.73 0.65 c p3
274.84 61.65 0.65 c p3
275.12 67.72 0.65 c p3
275.40 65.63 0.65 c p3
275.68 65.63 0.65 c p3
275.96 65.63 0.65 c p3
276.24 65.63 0.65 c p3
276.52 67.72 0.65 c p3
276.80 64.77 0.65 c p3
277.08 59.58 0.65 c p3
277.36 68.77 0.65 c p3
277.64 63.73 0.65 c p3
277.92 70.87 0.65 c p3
278.20 67.72 0.65 c p3
278.48 67.72 0.65 c p3
278.76 66.68 0.65 c p3
279.04 65.63 0.65 c p3
279.32 67.72 0.65 c p3
279.60 64.77 0.65 c p3
279.88 64.77 0.65 c p3
280.16 69.81 0.65 c p3
280.44 67.72 0.65 c p3
280.72 69.81 0.65 c p3
281.00 65.63 0.65 c p3
281.28 62.69 0.65 c p3
281.56 67.72 0.65 c p3
281.84 64.77 0.65 c p3
282.12 62.69 0.65 c p3
282.40 63.73 0.65 c p3
282.68 70.87 0.65 c p3
282.96 68.77 0.65 c p3
283.24 64.77 0.65 c p3
283.52 65.63 0.65 c p3
283.80 64.77 0.65 c p3
284.08 68.77 0.65 c p3
284.36 72.97 0.65 c p3
284.64 71.91 0.65 c p3
284.92 67.72 0.65 c p3
285.20 67.72 0.65 c p3
285.48 59.58 0.65 c p3
285.76 66.68 0.65 c p3
286.04 66.68 0.65 c p3
286.32 72.97 0.65 c p3
286.60 63.73 0.65 c p3
286.88 68.77 0.65 c p3
287.16 72.97 0.65 c p3
287.44 68.77 0.65 c p3
287.72 65.63 0.65 c p3
288.00 63.73 0.65 c p3
288.28 61.65 0.65 c p3
288.56 67.72 0.65 c p3
288.84 67.72 0.65 c p3
289.12 67.72 0.65 c p3
289.40 66.68 0.65 c p3
289.68 63.73 0.65 c p3
289.96 68.77 0.65 c p3
290.24 66.68 0.65 c p3
216.00 201.60 367.20 247.68 cl
0 0 0 srgb
0.75 setlinewidth
[] 0 setdash
1 setlinecap
1 setlinejoin
10.00 setmiterlimit
221.60 230.28 0.43 c p1
221.81 232.01 0.43 c p1
222.01 229.50 0.43 c p1
222.22 225.60 0.43 c p1
222.43 237.09 0.43 c p1
222.63 225.02 0.43 c p1
222.84 230.60 0.43 c p1
223.05 228.30 0.43 c p1
223.25 231.31 0.43 c p1
223.46 213.78 0.43 c p1
223.66 226.24 0.43 c p1
223.87 227.82 0.43 c p1
224.08 232.13 0.43 c p1
224.28 216.03 0.43 c p1
224.49 233.85 0.43 c p1
224.70 217.76 0.43 c p1
224.90 223.29 0.43 c p1
225.11 220.76 0.43 c p1
225.32 220.91 0.43 c p1
225.52 219.72 0.43 c p1
225.73 233.26 0.43 c p1
225.94 227.97 0.43 c p1
226.14 213.71 0.43 c p1
226.35 229.48 0.43 c p1
226.56 219.17 0.43 c p1
226.76 220.57 0.43 c p1
226.97 219.32 0.43 c p1
227.18 229.72 0.43 c p1
227.38 226.00 0.43 c p1
227.59 231.10 0.43 c p1
227.79 223.43 0.43 c p1
228.00 223.45 0.43 c p1
228.21 223.46 0.43 c p1
228.41 224.77 0.43 c p1
228.62 218.27 0.43 c p1
228.83 231.26 0.43 c p1
229.03 222.12 0.43 c p1
229.24 225.96 0.43 c p1
229.45 215.63 0.43 c p1
229.65 227.15 0.43 c p1
229.86 221.93 0.43 c p1
230.07 219.31 0.43 c p1
230.27 225.64 0.43 c p1
230.48 221.71 0.43 c p1
230.69 224.17 0.43 c p1
230.89 218.98 0.43 c p1
231.10 226.50 0.43 c p1
231.31 225.11 0.43 c p1
231.51 228.80 0.43 c p1
231.72 221.04 0.43 c p1
231.92 224.69 0.43 c p1
232.13 224.54 0.43 c p1
232.34 228.18 0.43 c p1
232.54 221.91 0.43 c p1
232.75 229.09 0.43 c p1
232.96 220.31 0.43 c p1
233.16 222.63 0.43 c p1
233.37 223.68 0.43 c p1
233.58 227.24 0.43 c p1
233.78 223.27 0.43 c p1
233.99 223.05 0.43 c p1
234.20 222.83 0.43 c p1
234.40 222.60 0.43 c p1
234.61 218.66 0.43 c p1
234.82 223.36 0.43 c p1
235.02 225.58 0.43 c p1
235.23 224.08 0.43 c p1
235.43 220.12 0.43 c p1
235.64 218.63 0.43 c p1
235.85 226.96 0.43 c p1
236.05 219.31 0.43 c p1
236.26 226.37 0.43 c p1
236.47 217.51 0.43 c p1
236.67 220.86 0.43 c p1
236.88 213.29 0.43 c p1
237.09 225.12 0.43 c p1
237.29 222.36 0.43 c p1
237.50 233.05 0.43 c p1
237.71 218.06 0.43 c p1
237.91 226.21 0.43 c p1
238.12 217.39 0.43 c p1
238.33 226.72 0.43 c p1
238.53 219.10 0.43 c p1
238.74 233.29 0.43 c p1
238.95 219.57 0.43 c p1
239.15 225.22 0.43 c p1
239.36 216.63 0.43 c p1
239.56 226.85 0.43 c p1
239.77 226.45 0.43 c p1
239.98 229.66 0.43 c p1
240.18 223.43 0.43 c p1
240.39 226.42 0.43 c p1
240.60 229.60 0.43 c p1
240.80 227.97 0.43 c p1
241.01 226.53 0.43 c p1
241.22 223.70 0.43 c p1
241.42 225.65 0.43 c p1
241.63 221.63 0.43 c p1
241.84 224.74 0.43 c p1
242.04 220.73 0.43 c p1
242.25 223.83 0.43 c p1
242.46 218.64 0.43 c p1
242.66 231.22 0.43 c p1
242.87 216.54 0.43 c p1
243.07 225.48 0.43 c p1
243.28 220.28 0.43 c p1
243.49 231.62 0.43 c p1
243.69 221.65 0.43 c p1
243.90 227.04 0.43 c p1
244.11 220.65 0.43 c p1
244.31 231.93 0.43 c p1
244.52 220.81 0.43 c p1
244.73 226.15 0.43 c p1
244.93 227.98 0.43 c p1
245.14 223.92 0.43 c p1
245.35 229.26 0.43 c p1
245.55 227.53 0.43 c p1
245.76 226.98 0.43 c p1
245.97 221.77 0.43 c p1
246.17 228.22 0.43 c p1
246.38 219.51 0.43 c p1
246.59 220.11 0.43 c p1
246.79 219.55 0.43 c p1
247.00 231.80 0.43 c p1
247.20 217.28 0.43 c p1
247.41 230.63 0.43 c p1
247.62 221.90 0.43 c p1
247.82 224.79 0.43 c p1
248.03 218.43 0.43 c p1
248.24 225.92 0.43 c p1
248.44 218.60 0.43 c p1
248.65 225.87 0.43 c p1
248.86 225.27 0.43 c p1
249.06 225.81 0.43 c p1
249.27 224.04 0.43 c p1
249.48 224.58 0.43 c p1
249.68 226.26 0.43 c p1
249.89 222.38 0.43 c p1
250.10 221.75 0.43 c p1
250.30 217.70 0.43 c p1
250.51 232.96 0.43 c p1
250.72 219.86 0.43 c p1
250.92 225.89 0.43 c p1
251.13 218.59 0.43 c p1
251.33 228.04 0.43 c p1
251.54 222.99 0.43 c p1
251.75 223.47 0.43 c p1
251.95 219.41 0.43 c p1
252.16 228.82 0.43 c p1
252.37 223.76 0.43 c p1
252.57 226.52 0.43 c p1
252.78 219.03 0.43 c p1
252.99 217.23 0.43 c p1
253.19 222.21 0.43 c p1
253.40 226.07 0.43 c p1
253.61 221.98 0.43 c p1
253.81 224.69 0.43 c p1
254.02 220.60 0.43 c p1
254.23 231.27 0.43 c p1
254.43 226.00 0.43 c p1
254.64 229.84 0.43 c p1
254.84 230.27 0.43 c p1
255.05 228.42 0.43 c p1
255.26 226.57 0.43 c p1
255.46 221.33 0.43 c p1
255.67 233.08 0.43 c p1
255.88 224.41 0.43 c p1
256.08 224.81 0.43 c p1
256.29 215.13 0.43 c p1
256.50 232.41 0.43 c p1
256.70 224.88 0.43 c p1
256.91 232.06 0.43 c p1
257.12 229.04 0.43 c p1
257.32 229.42 0.43 c p1
257.53 224.17 0.43 c p1
257.74 226.79 0.43 c p1
257.94 223.80 0.43 c p1
258.15 232.06 0.43 c p1
258.36 230.16 0.43 c p1
258.56 228.27 0.43 c p1
258.77 221.90 0.43 c p1
258.97 218.92 0.43 c p1
259.18 215.95 0.43 c p1
259.39 222.97 0.43 c p1
259.59 221.09 0.43 c p1
259.80 222.55 0.43 c p1
260.01 228.48 0.43 c p1
260.21 225.46 0.43 c p1
260.42 223.57 0.43 c p1
260.63 227.25 0.43 c p1
260.83 238.86 0.43 c p1
261.04 224.56 0.43 c p1
261.25 230.47 0.43 c p1
261.45 219.66 0.43 c p1
261.66 229.99 0.43 c p1
261.87 229.19 0.43 c p1
262.07 222.82 0.43 c p1
262.28 222.02 0.43 c p1
262.48 227.89 0.43 c p1
262.69 225.97 0.43 c p1
262.90 228.50 0.43 c p1
263.10 219.93 0.43 c p1
263.31 226.87 0.43 c p1
263.52 223.83 0.43 c p1
263.72 221.92 0.43 c p1
263.93 227.75 0.43 c p1
264.14 221.39 0.43 c p1
264.34 222.78 0.43 c p1
264.55 223.06 0.43 c p1
264.76 230.00 0.43 c p1
264.96 226.94 0.43 c p1
265.17 229.44 0.43 c p1
265.38 230.82 0.43 c p1
265.58 236.68 0.43 c p1
265.79 228.03 0.43 c p1
266.00 238.34 0.43 c p1
266.20 223.03 0.43 c p1
266.41 232.15 0.43 c p1
266.61 221.54 0.43 c p1
266.82 223.81 0.43 c p1
267.03 224.06 0.43 c p1
267.23 228.73 0.43 c p1
267.44 225.67 0.43 c p1
267.65 215.16 0.43 c p1
267.85 218.67 0.43 c p1
268.06 231.94 0.43 c p1
268.27 221.34 0.43 c p1
268.47 224.87 0.43 c p1
268.68 222.92 0.43 c p1
268.89 220.96 0.43 c p1
269.09 223.38 0.43 c p1
269.30 226.72 0.43 c p1
269.51 218.39 0.43 c p1
269.71 222.98 0.43 c p1
269.92 222.11 0.43 c p1
270.13 222.33 0.43 c p1
270.33 230.05 0.43 c p1
270.54 223.87 0.43 c p1
270.74 228.29 0.43 c p1
270.95 224.30 0.43 c p1
271.16 223.42 0.43 c p1
271.36 220.36 0.43 c p1
271.57 229.14 0.43 c p1
271.78 226.24 0.43 c p1
271.98 229.55 0.43 c p1
272.19 217.94 0.43 c p1
272.40 229.96 0.43 c p1
272.60 229.25 0.43 c p1
272.81 229.44 0.43 c p1
273.02 223.08 0.43 c p1
273.22 227.65 0.43 c p1
273.43 223.47 0.43 c p1
273.64 229.13 0.43 c p1
273.84 224.94 0.43 c p1
274.05 227.32 0.43 c p1
274.25 220.97 0.43 c p1
274.46 225.51 0.43 c p1
274.67 220.26 0.43 c p1
274.87 222.61 0.43 c p1
275.08 224.97 0.43 c p1
275.29 225.15 0.43 c p1
275.49 226.41 0.43 c p1
275.70 232.98 0.43 c p1
275.91 221.33 0.43 c p1
276.11 233.32 0.43 c p1
276.32 217.36 0.43 c p1
276.53 227.28 0.43 c p1
276.73 226.36 0.43 c p1
276.94 222.18 0.43 c p1
277.15 220.19 0.43 c p1
277.35 223.60 0.43 c p1
277.56 222.68 0.43 c p1
277.77 225.01 0.43 c p1
277.97 216.54 0.43 c p1
278.18 229.68 0.43 c p1
278.38 223.32 0.43 c p1
278.59 229.99 0.43 c p1
278.80 223.63 0.43 c p1
279.00 229.21 0.43 c p1
279.21 218.54 0.43 c p1
279.42 229.51 0.43 c p1
279.62 229.66 0.43 c p1
279.83 224.38 0.43 c p1
280.04 225.61 0.43 c p1
280.24 223.59 0.43 c p1
280.45 228.07 0.43 c p1
280.66 224.96 0.43 c p1
280.86 230.53 0.43 c p1
281.07 223.08 0.43 c p1
281.28 234.09 0.43 c p1
281.48 217.99 0.43 c p1
281.69 227.82 0.43 c p1
281.89 218.26 0.43 c p1
282.10 233.54 0.43 c p1
282.31 218.53 0.43 c p1
282.51 225.11 0.43 c p1
282.72 225.24 0.43 c p1
282.93 228.62 0.43 c p1
283.13 227.67 0.43 c p1
283.34 227.79 0.43 c p1
283.55 223.60 0.43 c p1
283.75 218.36 0.43 c p1
283.96 224.93 0.43 c p1
284.17 221.82 0.43 c p1
284.37 230.59 0.43 c p1
284.58 224.22 0.43 c p1
284.79 222.19 0.43 c p1
284.99 221.23 0.43 c p1
285.20 224.57 0.43 c p1
285.41 225.77 0.43 c p1
285.61 222.66 0.43 c p1
285.82 222.77 0.43 c p1
286.02 226.11 0.43 c p1
286.23 225.15 0.43 c p1
286.44 227.42 0.43 c p1
286.64 229.69 0.43 c p1
286.85 227.64 0.43 c p1
287.06 234.26 0.43 c p1
287.26 221.40 0.43 c p1
287.47 230.13 0.43 c p1
287.68 222.69 0.43 c p1
287.88 224.94 0.43 c p1
288.09 227.20 0.43 c p1
288.30 225.15 0.43 c p1
288.50 223.11 0.43 c p1
288.71 222.13 0.43 c p1
288.92 223.31 0.43 c p1
289.12 214.88 0.43 c p1
289.33 225.65 0.43 c p1
289.54 222.53 0.43 c p1
289.74 231.25 0.43 c p1
289.95 224.87 0.43 c p1
290.15 231.44 0.43 c p1
290.36 221.85 0.43 c p1
290.57 223.01 0.43 c p1
290.77 225.25 0.43 c p1
290.98 217.87 0.43 c p1
291.19 222.22 0.43 c p1
291.39 221.24 0.43 c p1
291.60 231.00 0.43 c p1
291.81 223.56 0.43 c p1
292.01 229.02 0.43 c p1
292.22 221.60 0.43 c p1
292.43 224.90 0.43 c p1
292.63 221.77 0.43 c p1
292.84 227.21 0.43 c p1
293.05 224.08 0.43 c p1
293.25 226.31 0.43 c p1
293.46 222.11 0.43 c p1
293.66 224.33 0.43 c p1
293.87 223.34 0.43 c p1
294.08 218.10 0.43 c p1
294.28 226.72 0.43 c p1
294.49 226.80 0.43 c p1
294.70 225.80 0.43 c p1
294.90 221.61 0.43 c p1
295.11 235.67 0.43 c p1
295.32 223.89 0.43 c p1
295.52 221.84 0.43 c p1
295.73 218.72 0.43 c p1
295.94 227.34 0.43 c p1
296.14 217.81 0.43 c p1
296.35 227.48 0.43 c p1
296.56 223.27 0.43 c p1
296.76 235.18 0.43 c p1
296.97 218.10 0.43 c p1
297.18 232.08 0.43 c p1
297.38 221.43 0.43 c p1
297.59 232.22 0.43 c p1
297.79 223.70 0.43 c p1
298.00 220.57 0.43 c p1
298.21 231.35 0.43 c p1
298.41 219.65 0.43 c p1
298.62 219.71 0.43 c p1
298.83 219.78 0.43 c p1
299.03 230.53 0.43 c p1
299.24 219.91 0.43 c p1
299.45 225.30 0.43 c p1
299.65 223.23 0.43 c p1
299.86 230.79 0.43 c p1
300.07 223.36 0.43 c p1
300.27 223.42 0.43 c p1
300.48 221.35 0.43 c p1
300.69 223.54 0.43 c p1
300.89 219.35 0.43 c p1
301.10 222.60 0.43 c p1
301.31 232.30 0.43 c p1
301.51 218.48 0.43 c p1
301.72 227.04 0.43 c p1
301.92 221.77 0.43 c p1
302.13 221.83 0.43 c p1
302.34 220.82 0.43 c p1
302.54 224.07 0.43 c p1
302.75 226.26 0.43 c p1
302.96 226.32 0.43 c p1
303.16 221.05 0.43 c p1
303.37 227.50 0.43 c p1
303.58 223.28 0.43 c p1
303.78 229.75 0.43 c p1
303.99 222.33 0.43 c p1
304.20 228.78 0.43 c p1
304.40 223.50 0.43 c p1
304.61 228.89 0.43 c p1
304.82 226.80 0.43 c p1
305.02 225.78 0.43 c p1
305.23 224.76 0.43 c p1
305.43 229.09 0.43 c p1
305.64 222.74 0.43 c p1
305.85 225.98 0.43 c p1
306.05 222.83 0.43 c p1
306.26 223.95 0.43 c p1
306.47 227.19 0.43 c p1
306.67 224.04 0.43 c p1
306.88 221.96 0.43 c p1
307.09 225.20 0.43 c p1
307.29 219.94 0.43 c p1
307.50 221.04 0.43 c p1
307.71 220.03 0.43 c p1
307.91 221.13 0.43 c p1
308.12 221.18 0.43 c p1
308.33 224.41 0.43 c p1
308.53 231.94 0.43 c p1
308.74 221.31 0.43 c p1
308.95 222.41 0.43 c p1
309.15 223.52 0.43 c p1
309.36 226.76 0.43 c p1
309.56 223.60 0.43 c p1
309.77 225.77 0.43 c p1
309.98 224.75 0.43 c p1
310.18 218.61 0.43 c p1
310.39 220.59 0.43 c p1
310.60 224.87 0.43 c p1
310.80 221.73 0.43 c p1
311.01 226.02 0.43 c p1
311.22 228.19 0.43 c p1
311.42 223.97 0.43 c p1
311.63 222.94 0.43 c p1
311.84 228.30 0.43 c p1
312.04 232.63 0.43 c p1
312.25 223.06 0.43 c p1
312.46 224.15 0.43 c p1
312.66 226.32 0.43 c p1
312.87 225.29 0.43 c p1
313.07 225.33 0.43 c p1
313.28 221.12 0.43 c p1
313.49 223.28 0.43 c p1
313.69 223.31 0.43 c p1
313.90 223.35 0.43 c p1
314.11 227.64 0.43 c p1
314.31 231.95 0.43 c p1
314.52 224.51 0.43 c p1
314.73 223.48 0.43 c p1
314.93 226.71 0.43 c p1
315.14 221.43 0.43 c p1
315.35 217.42 0.43 c p1
315.55 214.31 0.43 c p1
315.76 222.59 0.43 c p1
315.97 224.74 0.43 c p1
316.17 221.60 0.43 c p1
316.38 229.07 0.43 c p1
316.59 222.72 0.43 c p1
316.79 227.00 0.43 c p1
317.00 222.78 0.43 c p1
317.20 222.81 0.43 c p1
317.41 222.84 0.43 c p1
317.62 223.93 0.43 c p1
317.82 227.15 0.43 c p1
318.03 225.05 0.43 c p1
318.24 225.08 0.43 c p1
318.44 225.11 0.43 c p1
318.65 226.20 0.43 c p1
318.86 221.99 0.43 c p1
319.06 216.92 0.43 c p1
319.27 220.98 0.43 c p1
319.48 223.13 0.43 c p1
319.68 223.15 0.43 c p1
319.89 226.37 0.43 c p1
320.10 220.21 0.43 c p1
320.30 224.29 0.43 c p1
320.51 230.71 0.43 c p1
320.72 227.54 0.43 c p1
320.92 219.27 0.43 c p1
321.13 220.34 0.43 c p1
321.33 221.25 0.43 c p1
321.54 221.27 0.43 c p1
321.75 226.60 0.43 c p1
321.95 226.63 0.43 c p1
322.16 222.41 0.43 c p1
322.37 224.55 0.43 c p1
322.57 228.83 0.43 c p1
322.78 224.60 0.43 c p1
322.99 226.75 0.43 c p1
323.19 227.84 0.43 c p1
323.40 227.86 0.43 c p1
323.61 215.38 0.43 c p1
323.81 226.84 0.43 c p1
324.02 222.62 0.43 c p1
324.23 225.82 0.43 c p1
324.43 225.84 0.43 c p1
324.64 225.87 0.43 c p1
324.84 222.71 0.43 c p1
325.05 228.04 0.43 c p1
325.26 225.93 0.43 c p1
325.46 219.78 0.43 c p1
325.67 225.97 0.43 c p1
325.88 227.06 0.43 c p1
326.08 226.02 0.43 c p1
326.29 234.59 0.43 c p1
326.50 226.06 0.43 c p1
326.70 228.21 0.43 c p1
326.91 221.86 0.43 c p1
327.12 221.00 0.43 c p1
327.32 221.90 0.43 c p1
327.53 222.98 0.43 c p1
327.74 224.06 0.43 c p1
327.94 221.96 0.43 c p1
328.15 223.04 0.43 c p1
328.36 222.00 0.43 c p1
328.56 229.45 0.43 c p1
328.77 227.34 0.43 c p1
328.97 225.23 0.43 c p1
329.18 226.31 0.43 c p1
329.39 223.15 0.43 c p1
329.59 228.48 0.43 c p1
329.80 228.49 0.43 c p1
330.01 221.27 0.43 c p1
330.21 220.23 0.43 c p1
330.42 224.30 0.43 c p1
330.63 224.31 0.43 c p1
330.83 227.52 0.43 c p1
331.04 227.53 0.43 c p1
331.25 225.42 0.43 c p1
331.45 222.27 0.43 c p1
331.66 230.78 0.43 c p1
331.87 222.30 0.43 c p1
332.07 225.49 0.43 c p1
332.28 222.33 0.43 c p1
332.48 225.52 0.43 c p1
332.69 227.66 0.43 c p1
332.90 223.44 0.43 c p1
333.10 221.51 0.43 c p1
333.31 224.53 0.43 c p1
333.52 226.66 0.43 c p1
333.72 233.08 0.43 c p1
333.93 222.45 0.43 c p1
334.14 226.71 0.43 c p1
334.34 226.72 0.43 c p1
334.55 224.62 0.43 c p1
334.76 226.75 0.43 c p1
334.96 228.89 0.43 c p1
335.17 215.36 0.43 c p1
335.38 222.56 0.43 c p1
335.58 224.69 0.43 c p1
335.79 221.71 0.43 c p1
336.00 219.61 0.43 c p1
336.20 232.18 0.43 c p1
336.41 223.68 0.43 c p1
336.61 220.71 0.43 c p1
336.82 229.02 0.43 c p1
337.03 222.66 0.43 c p1
337.23 221.80 0.43 c p1
337.44 223.75 0.43 c p1
337.65 220.77 0.43 c p1
337.85 219.73 0.43 c p1
338.06 221.85 0.43 c p1
338.27 225.92 0.43 c p1
338.47 229.12 0.43 c p1
338.68 221.89 0.43 c p1
338.89 220.85 0.43 c p1
339.09 225.97 0.43 c p1
339.30 227.04 0.43 c p1
339.51 229.18 0.43 c p1
339.71 227.06 0.43 c p1
339.92 226.01 0.43 c p1
340.13 226.03 0.43 c p1
340.33 226.04 0.43 c p1
340.54 227.11 0.43 c p1
340.74 220.95 0.43 c p1
340.95 222.02 0.43 c p1
341.16 222.91 0.43 c p1
341.36 220.98 0.43 c p1
341.57 222.93 0.43 c p1
341.78 222.94 0.43 c p1
341.98 226.13 0.43 c p1
342.19 227.20 0.43 c p1
342.40 226.15 0.43 c p1
342.60 222.98 0.43 c p1
342.81 226.17 0.43 c p1
343.02 217.92 0.43 c p1
343.22 226.19 0.43 c p1
343.43 221.09 0.43 c p1
343.64 227.27 0.43 c p1
343.84 224.10 0.43 c p1
344.05 225.17 0.43 c p1
344.25 227.30 0.43 c p1
344.46 224.13 0.43 c p1
344.67 225.20 0.43 c p1
344.87 227.33 0.43 c p1
345.08 229.47 0.43 c p1
345.29 223.11 0.43 c p1
345.49 224.18 0.43 c p1
345.70 226.30 0.43 c p1
345.91 215.96 0.43 c p1
346.11 224.20 0.43 c p1
346.32 222.27 0.43 c p1
346.53 217.03 0.43 c p1
346.73 221.24 0.43 c p1
346.94 220.20 0.43 c p1
347.15 219.15 0.43 c p1
347.35 226.37 0.43 c p1
347.56 229.57 0.43 c p1
347.77 225.33 0.43 c p1
347.97 223.22 0.43 c p1
348.18 220.25 0.43 c p1
348.38 229.60 0.43 c p1
348.59 226.42 0.43 c p1
348.80 227.49 0.43 c p1
349.00 226.44 0.43 c p1
349.21 226.45 0.43 c p1
349.42 229.64 0.43 c p1
349.62 230.72 0.43 c p1
349.83 223.29 0.43 c p1
350.04 221.37 0.43 c p1
350.24 219.27 0.43 c p1
350.45 225.43 0.43 c p1
350.66 223.32 0.43 c p1
350.86 223.33 0.43 c p1
351.07 223.34 0.43 c p1
351.28 223.35 0.43 c p1
351.48 225.47 0.43 c p1
351.69 222.48 0.43 c p1
351.89 217.23 0.43 c p1
352.10 226.55 0.43 c p1
352.31 221.45 0.43 c p1
352.51 228.69 0.43 c p1
352.72 225.51 0.43 c p1
352.93 225.52 0.43 c p1
353.13 224.47 0.43 c p1
353.34 223.41 0.43 c p1
353.55 225.54 0.43 c p1
353.75 222.55 0.43 c p1
353.96 222.55 0.43 c p1
354.17 227.68 0.43 c p1
354.37 225.56 0.43 c p1
354.58 227.69 0.43 c p1
354.79 223.46 0.43 c p1
354.99 220.48 0.43 c p1
355.20 225.59 0.43 c p1
355.41 222.60 0.43 c p1
355.61 220.50 0.43 c p1
355.82 221.56 0.43 c p1
356.02 228.80 0.43 c p1
356.23 226.68 0.43 c p1
356.44 222.63 0.43 c p1
356.64 223.51 0.43 c p1
356.85 222.64 0.43 c p1
357.06 226.70 0.43 c p1
357.26 230.96 0.43 c p1
357.47 229.90 0.43 c p1
357.68 225.66 0.43 c p1
357.88 225.66 0.43 c p1
358.09 217.42 0.43 c p1
358.30 224.62 0.43 c p1
358.50 224.62 0.43 c p1
358.71 231.00 0.43 c p1
358.92 221.64 0.43 c p1
359.12 226.75 0.43 c p1
359.33 231.01 0.43 c p1
359.54 226.76 0.43 c p1
359.74 223.59 0.43 c p1
359.95 221.67 0.43 c p1
360.15 219.57 0.43 c p1
360.36 225.72 0.43 c p1
360.57 225.73 0.43 c p1
360.77 225.73 0.43 c p1
360.98 224.68 0.43 c p1
361.19 221.70 0.43 c p1
361.39 226.81 0.43 c p1
361.60 224.70 0.43 c p1
0.00 0.00 432.00 576.00 cl
0 0 0 srgb
0.75 setlinewidth
[] 0 setdash
1 setlinecap
1 setlinejoin
10.00 setmiterlimit
np
219.54 201.60 m
123.89 0 l
o
np
219.54 201.60 m
0 -5.76 l
o
np
260.83 201.60 m
0 -5.76 l
o
np
302.13 201.60 m
0 -5.76 l
o
np
343.43 201.60 m
0 -5.76 l
o
/Font1 findfont 6 s
219.54 185.47 (0) .5 0 t
260.83 185.47 (500) .5 0 t
302.13 185.47 (1000) .5 0 t
343.43 185.47 (1500) .5 0 t
np
216.00 208.37 m
0 32.54 l
o
np
216.00 208.37 m
-5.76 0 l
o
np
216.00 216.51 m
-5.76 0 l
o
np
216.00 224.64 m
-5.76 0 l
o
np
216.00 232.77 m
-5.76 0 l
o
np
216.00 240.91 m
-5.76 0 l
o
209.09 206.22 (-0.010) 1 0 t
209.09 214.35 (-0.005) 1 0 t
209.09 222.49 (0.000) 1 0 t
209.09 230.62 (0.005) 1 0 t
209.09 238.75 (0.010) 1 0 t
np
216.00 201.60 m
151.20 0 l
0 46.08 l
-151.20 0 l
0 -46.08 l
o
0.00 0.00 432.00 576.00 cl
/Font1 findfont 9 s
0 0 0 srgb
291.60 262.88 (Residuals) .5 0 t
59.04 73.44 401.76 516.96 cl
ep
%%Trailer
%%Pages: 1
%%EOF
