%!PS-Adobe-3.0 EPSF-3.0
%%DocumentNeededResources: font Helvetica
%%+ font Helvetica-Bold
%%+ font Helvetica-Oblique
%%+ font Helvetica-BoldOblique
%%+ font Symbol
%%Title: R Graphics Output
%%Creator: R Software
%%Pages: (atend)
%%BoundingBox: 0 0 432 576
%%EndComments
%%BeginProlog
/bp  { gs sRGB gs } def
% begin .ps.prolog
/gs  { gsave } bind def
/gr  { grestore } bind def
/ep  { showpage gr gr } bind def
/m   { moveto } bind def
/l  { rlineto } bind def
/np  { newpath } bind def
/cp  { closepath } bind def
/f   { fill } bind def
/o   { stroke } bind def
/c   { newpath 0 360 arc } bind def
/r   { 4 2 roll moveto 1 copy 3 -1 roll exch 0 exch rlineto 0 rlineto -1 mul 0 exch rlineto closepath } bind def
/p1  { stroke } bind def
/p2  { gsave bg fill grestore newpath } bind def
/p3  { gsave bg fill grestore stroke } bind def
/p6  { gsave bg eofill grestore newpath } bind def
/p7  { gsave bg eofill grestore stroke } bind def
/t   { 5 -2 roll moveto gsave rotate
       1 index stringwidth pop
       mul neg 0 rmoveto show grestore } bind def
/ta  { 4 -2 roll moveto gsave rotate show } bind def
/tb  { 2 -1 roll 0 rmoveto show } bind def
/cl  { grestore gsave newpath 3 index 3 index moveto 1 index
       4 -1 roll lineto  exch 1 index lineto lineto
       closepath clip newpath } bind def
/rgb { setrgbcolor } bind def
/s   { scalefont setfont } bind def
% end   .ps.prolog
/sRGB { [ /CIEBasedABC
          << /DecodeLMN
               [ { dup 0.03928 le
                        {12.92321 div}
                        {0.055 add 1.055 div 2.4 exp }
                     ifelse
                 } bind dup dup
               ]
             /MatrixLMN [0.412457 0.212673 0.019334
                         0.357576 0.715152 0.119192
                         0.180437 0.072175 0.950301]
             /WhitePoint [0.9505 1.0 1.0890]
           >>
         ] setcolorspace } bind def
/srgb { setcolor } bind def
% begin encoding
/WinAnsiEncoding [
 /.notdef /.notdef /.notdef /.notdef /.notdef /.notdef /.notdef /.notdef
 /.notdef /.notdef /.notdef /.notdef /.notdef /.notdef /.notdef /.notdef
 /.notdef /.notdef /.notdef /.notdef /.notdef /.notdef /.notdef /.notdef
 /.notdef /.notdef /.notdef /.notdef /.notdef /.notdef /.notdef /.notdef
 /space /exclam /quotedbl /numbersign /dollar /percent /ampersand /quoteright
 /parenleft /parenright /asterisk /plus /comma /minus /period /slash
 /zero /one /two /three /four /five /six /seven
 /eight /nine /colon /semicolon /less /equal /greater /question
 /at /A /B /C /D /E /F /G
 /H /I /J /K /L /M /N /O
 /P /Q /R /S /T /U /V /W
 /X /Y /Z /bracketleft /backslash /bracketright /asciicircum /underscore
 /grave /a /b /c /d /e /f /g
 /h /i /j /k /l /m /n /o
 /p /q /r /s /t /u /v /w
 /x /y /z /braceleft /bar /braceright /asciitilde /.notdef
 /Euro /.notdef /quotesinglbase /florin /quotedblbase /ellipsis /dagger /daggerdbl
 /circumflex /perthousand /Scaron /guilsinglleft /OE /.notdef /Zcaron /.notdef
 /.notdef /quoteleft /quoteright /quotedblleft /quotedblright /bullet /endash /emdash
 /tilde /trademark /scaron /guilsinglright /oe /.notdef /zcaron /Ydieresis
 /space /exclamdown /cent /sterling /currency /yen /brokenbar /section
 /dieresis /copyright /ordfeminine /guillemotleft /logicalnot /hyphen /registered /macron
 /degree /plusminus /twosuperior /threesuperior /acute /mu /paragraph /periodcentered
 /cedilla /onesuperior /ordmasculine /guillemotright /onequarter /onehalf /threequarters /questiondown
 /Agrave /Aacute /Acircumflex /Atilde /Adieresis /Aring /AE /Ccedilla
 /Egrave /Eacute /Ecircumflex /Edieresis /Igrave /Iacute /Icircumflex /Idieresis
 /Eth /Ntilde /Ograve /Oacute /Ocircumflex /Otilde /Odieresis /multiply
 /Oslash /Ugrave /Uacute /Ucircumflex /Udieresis /Yacute /Thorn /germandbls
 /agrave /aacute /acircumflex /atilde /adieresis /aring /ae /ccedilla
 /egrave /eacute /ecircumflex /edieresis /igrave /iacute /icircumflex /idieresis
 /eth /ntilde /ograve /oacute /ocircumflex /otilde /odieresis /divide
 /oslash /ugrave /uacute /ucircumflex /udieresis /yacute /thorn /ydieresis
]
 def
% end encoding
%%IncludeResource: font Helvetica
/Helvetica findfont
dup length dict begin
  {1 index /FID ne {def} {pop pop} ifelse} forall
  /Encoding WinAnsiEncoding def
  currentdict
  end
/Font1 exch definefont pop
%%IncludeResource: font Helvetica-Bold
/Helvetica-Bold findfont
dup length dict begin
  {1 index /FID ne {def} {pop pop} ifelse} forall
  /Encoding WinAnsiEncoding def
  currentdict
  end
/Font2 exch definefont pop
%%IncludeResource: font Helvetica-Oblique
/Helvetica-Oblique findfont
dup length dict begin
  {1 index /FID ne {def} {pop pop} ifelse} forall
  /Encoding WinAnsiEncoding def
  currentdict
  end
/Font3 exch definefont pop
%%IncludeResource: font Helvetica-BoldOblique
/Helvetica-BoldOblique findfont
dup length dict begin
  {1 index /FID ne {def} {pop pop} ifelse} forall
  /Encoding WinAnsiEncoding def
  currentdict
  end
/Font4 exch definefont pop
%%IncludeResource: font Symbol
/Symbol findfont
dup length dict begin
  {1 index /FID ne {def} {pop pop} ifelse} forall
  currentdict
  end
/Font5 exch definefont pop
%%EndProlog
%%Page: 1 1
bp
/bg { 1 1 1 srgb } def
0.00 0.00 432.00 576.00 r p2
0.00 0.00 432.00 576.00 cl
0.00 0.00 432.00 576.00 cl
0.00 0.00 432.00 576.00 cl
/Font1 findfont 12 s
0 0 0 srgb
48.00 508.72 (PCP-ETH) 0 0 t
48.00 494.89 (Flash light photolysis) 0 0 t
/Font1 findfont 9 s
48.00 457.54 (File: T) 0 ta
-1.080 (emper) tb
-0.090 (ature_dependence_4_MSLM.dat) tb gr
48.00 334.87 (T) 0 ta
-1.080 (ue Mar 08 17:14:21 2022) tb gr
48.00 430.87 (Fit function:  a + b * e) 0 ta
-0.270 (xp\(-c * t\)) tb gr
48.00 420.50 (t-Inter) 0 ta
0.270 (v) tb
-0.225 (all: 22.500 ... 1732.500 ms) tb gr
48.00 410.14 (P) 0 ta
-0.360 (ar) tb
-0.090 (ameters \(Standard de) tb
-0.270 (viation\):) tb gr
48.00 399.77 (  a = 0.00136 \(0.00016\)) 0 0 t
48.00 389.40 (  b = 0.13123 \(0.00043\)) 0 0 t
48.00 379.03 (  c = 2.957e+00 \(1.931e-02\) s^-1) 0 0 t
48.00 368.66 (  tau = 3.382e-01 \(2.209e-03\) s) 0 0 t
216.00 345.60 388.80 518.40 cl
0 0 0 srgb
0.75 setlinewidth
[] 0 setdash
1 setlinecap
1 setlinejoin
10.00 setmiterlimit
np
222.40 510.06 m
0.15 0.39 l
0.14 -1.19 l
0.15 1.95 l
0.14 -0.96 l
0.15 0.20 l
0.14 0.40 l
0.15 -1.19 l
0.14 0.40 l
0.15 -0.20 l
0.15 0.39 l
0.14 0.40 l
0.15 0.20 l
0.14 -0.60 l
0.15 -0.39 l
0.14 0.39 l
0.15 0.20 l
0.14 -0.20 l
0.15 -0.79 l
0.15 0.60 l
0.14 1.35 l
0.15 -2.34 l
0.14 0.99 l
0.15 0 l
0.14 -0.20 l
0.15 0.20 l
0.15 0.79 l
0.14 -1.19 l
0.15 -0.40 l
0.14 0.99 l
0.15 -1.18 l
0.14 0.79 l
0.15 1.35 l
0.14 -0.96 l
0.15 -0.39 l
0.15 -0.20 l
0.14 0.99 l
0.15 -1.39 l
0.14 0 l
0.15 1.59 l
0.14 -0.40 l
0.15 -0.59 l
0.14 0.59 l
0.15 -0.99 l
0.15 1.39 l
0.14 -0.79 l
0.15 -0.99 l
0.14 0.39 l
0.15 -0.20 l
0.14 0 l
0.15 0 l
0.14 1.95 l
0.15 -0.76 l
0.15 -0.59 l
0.14 0.59 l
0.15 0 l
0.14 -0.39 l
0.15 0.95 l
0.14 -0.76 l
0.15 0 l
0.15 0 l
0.14 -1.38 l
0.15 0.99 l
0.14 0.39 l
0.15 -1.78 l
0.14 0.99 l
0.15 0.99 l
0.14 -0.99 l
0.15 1.19 l
0.15 -0.20 l
0.14 -0.79 l
0.15 -0.79 l
0.14 0.79 l
0.15 1.19 l
0.14 -1.19 l
0.15 0.99 l
0.14 -0.79 l
0.15 -0.60 l
0.15 1.95 l
0.14 -1.95 l
0.15 1.39 l
0.14 -0.99 l
0.15 0.79 l
0.14 -0.39 l
0.15 0.95 l
0.14 -1.35 l
0.15 -0.59 l
0.15 0.59 l
0.14 1.55 l
0.15 -0.36 l
0.14 0 l
0.15 -0.20 l
0.14 -0.99 l
0.15 0 l
0.15 1.19 l
0.14 -0.99 l
0.15 0.20 l
0.14 1.54 l
0.15 -2.14 l
0.14 0.20 l
236.96 462.69 lineto
0.14 -1.01 l
0.15 3.15 l
0.15 0.20 l
0.14 0.39 l
0.15 -0.59 l
0.14 4.52 l
0.15 -1.16 l
0.14 0.20 l
0.15 1.75 l
0.14 -0.20 l
0.15 0.99 l
0.15 0 l
0.14 0.39 l
0.15 1.59 l
0.14 0.19 l
0.15 -2.76 l
0.14 1.78 l
0.15 1.74 l
0.14 -1.15 l
0.15 -0.20 l
0.15 2.34 l
0.14 0 l
0.15 -1.15 l
0.14 0.56 l
0.15 0.99 l
0.14 -1.19 l
0.15 1.19 l
0.15 -0.40 l
0.14 0.20 l
0.15 1.98 l
0.14 -1.59 l
0.15 0.40 l
0.14 1.19 l
0.15 0 l
0.14 -0.99 l
0.15 0.99 l
0.15 0.79 l
0.14 0.20 l
0.15 0.19 l
0.14 0.60 l
0.15 -0.40 l
0.14 0.20 l
0.15 -0.20 l
0.14 1.75 l
0.15 0 l
0.15 -0.79 l
0.14 -0.37 l
0.15 0.96 l
0.14 1.78 l
0.15 -1.58 l
0.14 -0.79 l
0.15 2.57 l
0.14 -1.58 l
0.15 1.38 l
0.15 -2.57 l
0.14 2.17 l
0.15 0.99 l
0.14 -1.58 l
0.15 -0.20 l
0.14 1.98 l
0.15 -0.20 l
0.15 0 l
0.14 0.20 l
0.15 1.19 l
0.14 -0.99 l
0.15 -0.40 l
0.14 1.59 l
0.15 -0.20 l
0.14 0 l
0.15 -0.40 l
0.15 0.20 l
0.14 1.75 l
0.15 -0.20 l
0.14 -0.96 l
0.15 0.96 l
0.14 0 l
0.15 -1.35 l
0.14 1.15 l
0.15 0.99 l
0.15 1.19 l
0.14 -2.57 l
0.15 0.99 l
0.14 1.58 l
0.15 -0.99 l
0.14 0.79 l
0.15 -0.99 l
0.14 1.98 l
0.15 -0.79 l
0.15 -0.20 l
0.14 -1.58 l
0.15 2.96 l
0.14 -0.39 l
0.15 -0.40 l
0.14 -1.38 l
0.15 2.37 l
0.15 0 l
0.14 -0.39 l
0.15 -0.99 l
0.14 1.58 l
251.52 489.42 lineto
0.14 -0.59 l
0.15 0.59 l
0.14 0.20 l
0.15 0.36 l
0.15 -0.56 l
0.14 0 l
0.15 -0.59 l
0.14 0.20 l
0.15 1.15 l
0.14 0.39 l
0.15 0.80 l
0.14 -1.75 l
0.15 0.76 l
0.15 0 l
0.14 0.99 l
0.15 -0.99 l
0.14 1.18 l
0.15 -0.19 l
0.14 -0.60 l
0.15 -0.39 l
0.14 0.39 l
0.15 2.18 l
0.15 0.20 l
0.14 -1.78 l
0.15 1.18 l
0.14 0.79 l
0.15 -1.38 l
0.14 -0.99 l
0.15 0.99 l
0.14 1.19 l
0.15 0.39 l
0.15 -1.38 l
0.14 1.18 l
0.15 -0.59 l
0.14 0.59 l
0.15 -0.19 l
0.14 0.79 l
0.15 0.39 l
0.15 -0.99 l
0.14 0 l
0.15 0.79 l
0.14 -0.98 l
0.15 0.19 l
0.14 0.60 l
0.15 0.99 l
0.14 0 l
0.15 -2.58 l
0.15 2.18 l
0.14 0.76 l
0.15 -0.20 l
0.14 -1.15 l
0.15 2.34 l
0.14 -0.99 l
0.15 1.18 l
0.14 -2.14 l
0.15 2.54 l
0.15 -1.19 l
0.14 -0.19 l
0.15 0.19 l
0.14 0.99 l
0.15 -0.79 l
0.14 0 l
0.15 -0.79 l
0.14 0.99 l
0.15 0.99 l
0.15 -1.39 l
0.14 0.20 l
0.15 1.98 l
0.14 -0.99 l
0.15 -0.59 l
0.14 0.79 l
0.15 0.39 l
0.15 -0.19 l
0.14 -2.18 l
0.15 1.78 l
0.14 2.18 l
0.15 -1.19 l
0.14 -0.79 l
0.15 0.59 l
0.14 1.19 l
0.15 -2.38 l
0.15 0.80 l
0.14 0.19 l
0.15 0 l
0.14 0.60 l
0.15 -0.40 l
0.14 1.19 l
0.15 0.20 l
0.14 -0.99 l
0.15 0.39 l
0.15 0.20 l
0.14 -1.19 l
0.15 0.99 l
0.14 0.79 l
0.15 1.35 l
0.14 -1.94 l
0.15 -0.99 l
0.14 0.59 l
0.15 1.98 l
266.08 498.25 lineto
0.14 0.20 l
0.15 0.60 l
0.14 0.19 l
0.15 0.60 l
0.14 0 l
0.15 0 l
0.15 0 l
0.14 -1.39 l
0.15 1.78 l
0.14 -0.20 l
0.15 0 l
0.14 -0.19 l
0.15 0.95 l
0.14 -0.20 l
0.15 -1.35 l
0.15 0.60 l
0.14 1.35 l
0.15 -0.60 l
0.14 -0.75 l
0.15 0.95 l
0.14 0.20 l
0.15 0 l
0.14 0 l
0.15 -0.40 l
0.15 1.98 l
0.14 -2.54 l
0.15 1.36 l
0.14 -0.40 l
0.15 0.20 l
0.14 0.20 l
0.15 -0.60 l
0.14 0.40 l
0.15 -0.96 l
0.15 1.16 l
0.14 0 l
0.15 0.39 l
0.14 0 l
0.15 0.79 l
0.14 0.20 l
0.15 -2.54 l
0.15 1.16 l
0.14 0.79 l
0.15 -1.39 l
0.14 0.40 l
0.15 0.79 l
0.14 0.59 l
0.15 0.20 l
0.14 -1.38 l
0.15 0.98 l
0.15 -0.79 l
0.14 1.19 l
0.15 -1.19 l
0.14 1.98 l
0.15 -0.59 l
0.14 -0.20 l
0.15 -0.59 l
0.14 0 l
0.15 0.39 l
0.15 -0.59 l
0.14 0 l
0.15 0.59 l
0.14 0.60 l
0.15 0.59 l
0.14 -0.99 l
0.15 1.58 l
0.14 -0.99 l
0.15 -1.78 l
0.15 0.20 l
0.14 1.78 l
0.15 -0.39 l
0.14 -1.78 l
0.15 1.18 l
0.14 0.99 l
0.15 -0.99 l
0.15 -0.59 l
0.14 2.97 l
0.15 -1.39 l
0.14 -2.17 l
0.15 0.79 l
0.14 0.99 l
0.15 2.37 l
0.14 -2.77 l
0.15 0.40 l
0.15 0.39 l
0.14 0.40 l
0.15 -0.40 l
0.14 0.20 l
0.15 0.79 l
0.14 -0.79 l
0.15 -1.39 l
0.14 2.18 l
0.15 0.20 l
0.15 -1.58 l
0.14 0.59 l
0.15 -0.40 l
0.14 1.78 l
0.15 -1.97 l
0.14 0.59 l
0.15 0.79 l
280.63 504.75 lineto
0.15 -1.78 l
0.15 1.18 l
0.14 1.75 l
0.15 -1.94 l
0.14 0.59 l
0.15 0.99 l
0.14 -0.40 l
0.15 -1.18 l
0.15 1.58 l
0.14 -0.99 l
0.15 0.59 l
0.14 -0.39 l
0.15 -0.60 l
0.14 0.99 l
0.15 0.40 l
0.14 -0.59 l
0.15 -0.20 l
0.15 0.59 l
0.14 0.20 l
0.15 -0.20 l
0.14 -0.99 l
0.15 0.99 l
0.14 0.76 l
0.15 -1.75 l
0.14 1.19 l
0.15 0.36 l
0.15 -0.36 l
0.14 -1.58 l
0.15 0.99 l
0.14 -0.20 l
0.15 0.79 l
0.14 -1.19 l
0.15 0.60 l
0.14 0.95 l
0.15 -0.76 l
0.15 -0.79 l
0.14 1.19 l
0.15 -0.20 l
0.14 -0.59 l
0.15 -0.20 l
0.14 1.15 l
0.15 0.20 l
0.14 -0.36 l
0.15 -0.20 l
0.15 0.96 l
0.14 -1.95 l
0.15 0.20 l
0.14 3.33 l
0.15 -2.18 l
0.14 -0.56 l
0.15 0.76 l
0.15 1.58 l
0.14 -2.34 l
0.15 0.40 l
0.14 1.15 l
0.15 -0.39 l
0.14 -0.20 l
0.15 0 l
0.14 -0.96 l
0.15 1.16 l
0.15 0.39 l
0.14 -0.99 l
0.15 1.39 l
0.14 0 l
0.15 -0.59 l
0.14 -0.60 l
0.15 0.60 l
0.14 1.38 l
0.15 -1.98 l
0.15 0 l
0.14 1.58 l
0.15 -1.58 l
0.14 0.20 l
0.15 1.19 l
0.14 -0.79 l
0.15 0.39 l
0.14 -0.99 l
0.15 1.39 l
0.15 0.59 l
0.14 -1.19 l
0.15 -1.35 l
0.14 2.14 l
0.15 -0.19 l
0.14 -1.95 l
0.15 0.36 l
0.15 1.19 l
0.14 0.40 l
0.15 -0.20 l
0.14 -0.40 l
0.15 0.20 l
0.14 -0.59 l
0.15 -0.20 l
0.14 1.98 l
0.15 -1.19 l
0.15 0 l
0.14 -0.39 l
0.15 1.78 l
0.14 -1.39 l
0.15 0.59 l
295.19 507.68 lineto
0.15 -0.99 l
0.14 0.79 l
0.15 -0.79 l
0.15 0.40 l
0.14 0 l
0.15 0.20 l
0.14 0 l
0.15 -0.99 l
0.14 0.79 l
0.15 -0.59 l
0.14 0.59 l
0.15 0.59 l
0.15 0 l
0.14 -0.59 l
0.15 0.39 l
0.14 -0.19 l
0.15 -0.40 l
0.14 0.20 l
0.15 -0.59 l
0.15 0.98 l
0.14 -0.39 l
0.15 0.79 l
0.14 -0.20 l
0.15 -0.79 l
0.14 0.99 l
0.15 -0.99 l
0.14 0.40 l
0.15 -0.99 l
0.15 1.58 l
0.14 -1.19 l
0.15 0 l
0.14 1.19 l
0.15 -0.79 l
0.14 0.59 l
0.15 0.20 l
0.14 -1.19 l
0.15 0.99 l
0.15 0.40 l
0.14 -0.60 l
0.15 -0.19 l
0.14 0.39 l
0.15 0.40 l
0.14 -0.40 l
0.15 0.20 l
0.14 1.38 l
0.15 -1.58 l
0.15 -0.20 l
0.14 0.40 l
0.15 -0.20 l
0.14 0 l
0.15 -0.59 l
0.14 2.17 l
0.15 -0.98 l
0.15 0.19 l
0.14 -0.19 l
0.15 -0.60 l
0.14 -0.59 l
0.15 0.99 l
0.14 -0.60 l
0.15 0.20 l
0.14 0.60 l
0.15 0.19 l
0.15 -0.79 l
0.14 0.79 l
0.15 -0.59 l
0.14 -0.20 l
0.15 -0.20 l
0.14 0.99 l
0.15 0.60 l
0.14 -0.99 l
0.15 0.99 l
0.15 -1.78 l
0.14 0 l
0.15 0.79 l
0.14 -0.20 l
0.15 0.99 l
0.14 0 l
0.15 0.20 l
0.14 -1.39 l
0.15 0.79 l
0.15 -1.78 l
0.14 1.39 l
0.15 0 l
0.14 1.18 l
0.15 -0.79 l
0.14 -0.99 l
0.15 0.80 l
0.15 -1.78 l
0.14 1.78 l
0.15 0.19 l
0.14 -0.39 l
0.15 -0.20 l
0.14 -0.40 l
0.15 1.39 l
0.14 -0.20 l
0.15 -0.99 l
0.15 0.99 l
0.14 0.99 l
0.15 -1.58 l
309.75 507.88 lineto
0.15 0.40 l
0.14 -0.40 l
0.15 0 l
0.14 -0.20 l
0.15 1.39 l
0.15 -0.20 l
0.14 -1.58 l
0.15 0.99 l
0.14 -0.60 l
0.15 -0.59 l
0.14 1.38 l
0.15 -0.59 l
0.14 0.79 l
0.15 0.59 l
0.15 -0.39 l
0.14 0 l
0.15 -0.99 l
0.14 0.59 l
0.15 -0.19 l
0.14 -0.60 l
0.15 2.18 l
0.15 -0.20 l
0.14 -2.37 l
0.15 1.38 l
0.14 -0.79 l
0.15 0.40 l
0.14 0 l
0.15 0.19 l
0.14 0.79 l
0.15 -0.59 l
0.15 0.20 l
0.14 -0.20 l
0.15 -0.20 l
0.14 1.19 l
0.15 -1.38 l
0.14 0 l
0.15 0.59 l
0.14 -0.40 l
0.15 0.60 l
0.15 -0.79 l
0.14 0.59 l
0.15 -0.99 l
0.14 -0.20 l
0.15 1.19 l
0.14 -0.59 l
0.15 1.18 l
0.14 -0.99 l
0.15 0 l
0.15 0.99 l
0.14 -0.39 l
0.15 -0.99 l
0.14 1.58 l
0.15 0.40 l
0.14 -0.99 l
0.15 1.18 l
0.15 -1.58 l
0.14 0.40 l
0.15 0.79 l
0.14 -2.18 l
0.15 1.39 l
0.14 -0.60 l
0.15 -1.18 l
0.14 0.39 l
0.15 1.78 l
0.15 -0.20 l
0.14 -0.98 l
0.15 1.97 l
0.14 -1.18 l
0.15 -0.40 l
0.14 0.20 l
0.15 -0.40 l
0.14 0.40 l
0.15 0.99 l
0.15 0.59 l
0.14 -1.58 l
0.15 0.20 l
0.14 0.79 l
0.15 -0.60 l
0.14 -0.19 l
0.15 -1.19 l
0.14 0.20 l
0.15 -0.60 l
0.15 1.78 l
0.14 0.60 l
0.15 -0.99 l
0.14 0 l
0.15 0.59 l
0.14 -2.37 l
0.15 1.38 l
0.14 0.40 l
0.15 0.39 l
0.15 -0.39 l
0.14 1.19 l
0.15 -0.40 l
0.14 -0.99 l
0.15 -0.20 l
0.14 0.20 l
0.15 1.19 l
0.15 0 l
324.31 508.67 lineto
0.15 0 l
0.14 -0.20 l
0.15 0.60 l
0.14 0.19 l
0.15 0.80 l
0.14 -1.19 l
0.15 0.39 l
0.15 0.60 l
0.14 -1.19 l
0.15 -0.20 l
0.14 -0.19 l
0.15 0.98 l
0.14 0.40 l
0.15 -1.19 l
0.14 1.59 l
0.15 -0.20 l
0.15 0 l
0.14 -1.19 l
0.15 0.40 l
0.14 0.59 l
0.15 0.59 l
0.14 -0.99 l
0.15 0 l
0.14 0.20 l
0.15 -0.20 l
0.15 0.20 l
0.14 0.20 l
0.15 -0.59 l
0.14 0 l
0.15 -0.20 l
0.14 0.79 l
0.15 -0.20 l
0.15 -1.98 l
0.14 1.98 l
0.15 -0.39 l
0.14 -1.19 l
0.15 1.19 l
0.14 0.59 l
0.15 -0.79 l
0.14 -0.20 l
0.15 0.59 l
0.15 -0.39 l
0.14 0.99 l
0.15 -1.19 l
0.14 0 l
0.15 1.19 l
0.14 0.20 l
0.15 -0.20 l
0.14 0.99 l
0.15 -1.19 l
0.15 -0.59 l
0.14 1.18 l
0.15 -0.59 l
0.14 0 l
0.15 0.99 l
0.14 -0.99 l
0.15 0.20 l
0.14 -0.20 l
0.15 0 l
0.15 0.20 l
0.14 -0.60 l
0.15 -0.79 l
0.14 0.60 l
0.15 0.79 l
0.14 -0.20 l
0.15 -0.99 l
0.15 0.59 l
0.14 -0.79 l
0.15 0.60 l
0.14 1.38 l
0.15 -0.39 l
0.14 0 l
0.15 -0.80 l
0.14 0.80 l
0.15 -0.80 l
0.15 1.19 l
0.14 -1.78 l
0.15 0.40 l
0.14 0.99 l
0.15 -0.20 l
0.14 -1.19 l
0.15 0 l
0.14 0.59 l
0.15 0.60 l
0.15 -0.20 l
0.14 0.20 l
0.15 0 l
0.14 -0.60 l
0.15 1.39 l
0.14 -1.19 l
0.15 -0.39 l
0.14 0.59 l
0.15 0.20 l
0.15 0.59 l
0.14 -0.39 l
0.15 -0.40 l
0.14 0 l
0.15 -0.99 l
0.14 0.99 l
338.87 510.65 lineto
0.15 -1.78 l
0.14 1.19 l
0.15 -0.99 l
0.14 0 l
0.15 0.99 l
0.14 -0.60 l
0.15 -0.99 l
0.14 1.19 l
0.15 -0.40 l
0.15 0.60 l
0.14 -0.20 l
0.15 -0.99 l
0.14 0.59 l
0.15 0 l
0.14 -0.59 l
0.15 0.79 l
0.14 0.79 l
0.15 0.20 l
0.15 -1.19 l
0.14 0.60 l
0.15 1.35 l
0.14 -2.14 l
0.15 0.19 l
0.14 0.40 l
0.15 0.40 l
0.14 -0.99 l
0.15 0.99 l
0.15 -0.40 l
0.14 -1.38 l
0.15 0.79 l
0.14 0.59 l
0.15 0.20 l
0.14 -0.20 l
0.15 0.79 l
0.15 -0.79 l
0.14 1.35 l
0.15 -1.55 l
0.14 -0.39 l
0.15 0.39 l
0.14 0.60 l
0.15 -0.40 l
0.14 0.40 l
0.15 0 l
0.15 0.19 l
0.14 -0.19 l
0.15 0.19 l
0.14 -0.39 l
0.15 0.99 l
0.14 -0.99 l
0.15 0.59 l
0.14 0.20 l
0.15 -1.98 l
0.15 1.19 l
0.14 -0.79 l
0.15 0.59 l
0.14 0.79 l
0.15 -0.59 l
0.14 -0.40 l
0.15 -0.20 l
0.14 0.20 l
0.15 -0.59 l
0.15 -0.20 l
0.14 0.59 l
0.15 0.80 l
0.14 0.39 l
0.15 -0.39 l
0.14 0 l
0.15 -0.20 l
0.15 0.39 l
0.14 -1.38 l
0.15 -0.20 l
0.14 0.99 l
0.15 -0.59 l
0.14 2.34 l
0.15 -0.96 l
0.14 -0.59 l
0.15 -0.20 l
0.15 -0.20 l
0.14 -0.59 l
0.15 0.79 l
0.14 0.79 l
0.15 -0.39 l
0.14 -0.80 l
0.15 -0.19 l
0.14 1.18 l
0.15 -1.58 l
0.15 0.79 l
0.14 0.99 l
0.15 0.20 l
0.14 0 l
0.15 -0.79 l
0.14 0.59 l
0.15 -0.39 l
0.14 -0.80 l
0.15 0.20 l
0.15 0.20 l
0.14 1.75 l
0.15 -0.96 l
0.14 -0.39 l
353.43 509.66 lineto
0.14 -0.59 l
0.15 1.18 l
0.14 1.16 l
0.15 -1.55 l
0.15 -0.60 l
0.14 -0.39 l
0.15 0.20 l
0.14 -0.60 l
0.15 0.99 l
0.14 -0.99 l
0.15 1.78 l
0.15 0 l
0.14 0 l
0.15 -0.39 l
0.14 -1.39 l
0.15 1.39 l
0.14 -0.20 l
0.15 -0.40 l
0.14 0.80 l
0.15 -0.99 l
0.15 1.18 l
0.14 -0.59 l
0.15 -0.20 l
0.14 0.60 l
0.15 0 l
0.14 -0.40 l
0.15 0.20 l
0.14 0 l
0.15 0.99 l
0.15 0 l
0.14 -1.98 l
0.15 0 l
0.14 1.19 l
0.15 -0.20 l
0.14 0.59 l
0.15 -0.20 l
0.14 -0.39 l
0.15 0.20 l
0.15 -0.20 l
0.14 -0.20 l
0.15 -0.99 l
0.14 0.99 l
0.15 -0.20 l
0.14 0.79 l
0.15 -0.19 l
0.15 -0.80 l
0.14 0.20 l
0.15 0.79 l
0.14 0.60 l
0.15 -1.78 l
0.14 0 l
0.15 0.59 l
0.14 1.19 l
0.15 -0.20 l
0.15 -0.40 l
0.14 -0.59 l
0.15 0.20 l
0.14 -0.60 l
0.15 1.95 l
0.14 -0.20 l
0.15 0.40 l
0.14 -2.15 l
0.15 0.60 l
0.15 0.39 l
0.14 -1.18 l
0.15 1.18 l
0.14 -0.99 l
0.15 2.74 l
0.14 -2.54 l
0.15 1.39 l
0.14 -0.79 l
0.15 -0.60 l
0.15 0.79 l
0.14 -0.99 l
0.15 1.19 l
0.14 -0.79 l
0.15 0.79 l
0.14 0 l
0.15 -1.38 l
0.15 -0.20 l
0.14 0.59 l
0.15 0.99 l
0.14 -1.19 l
0.15 0.80 l
0.14 1.15 l
0.15 -1.35 l
0.14 -0.79 l
0.15 0 l
0.15 1.18 l
0.14 -0.39 l
0.15 -0.79 l
0.14 1.58 l
0.15 -0.40 l
0.14 -0.79 l
0.15 0.40 l
0.14 0.99 l
0.15 -0.40 l
0.15 -1.38 l
0.14 0.59 l
currentpoint o m
367.99 510.25 lineto
0.14 0.20 l
0.15 -0.79 l
0.14 -0.20 l
0.15 -0.39 l
0.14 0.19 l
0.15 1.39 l
0.15 -0.40 l
0.14 -0.39 l
0.15 0.79 l
0.14 -0.40 l
0.15 0 l
0.14 0.40 l
0.15 -0.59 l
0.15 0.79 l
0.14 -1.59 l
0.15 1.39 l
0.14 -0.79 l
0.15 0.39 l
0.14 -0.99 l
0.15 0.20 l
0.14 1.55 l
0.15 -1.75 l
0.15 -0.19 l
0.14 0.99 l
0.15 -0.60 l
0.14 0.60 l
0.15 -0.80 l
0.14 0 l
0.15 1.39 l
0.14 -0.20 l
0.15 0 l
0.15 0.40 l
0.14 -1.78 l
0.15 1.94 l
0.14 -0.56 l
0.15 0.20 l
0.14 0.95 l
0.15 -1.94 l
0.14 1.75 l
0.15 -1.35 l
0.15 0.19 l
0.14 0 l
0.15 0.40 l
0.14 -1.19 l
0.15 0 l
0.14 0.79 l
0.15 0.76 l
0.15 -1.55 l
0.14 0.99 l
0.15 0.40 l
0.14 0 l
0.15 -0.20 l
0.14 -0.59 l
0.15 -0.40 l
0.14 0 l
0.15 0.79 l
0.15 0 l
0.14 0 l
0.15 -0.79 l
0.14 0.40 l
0.15 0 l
0.14 0.59 l
0.15 -0.59 l
0.14 0 l
0.15 0.39 l
0.15 -0.59 l
0.14 1.15 l
0.15 -0.95 l
0.14 0.79 l
0.15 -0.60 l
0.14 -0.59 l
0.15 -0.99 l
0.14 0.40 l
0.15 1.58 l
0.15 -0.40 l
0.14 0 l
0.15 0.96 l
0.14 -0.36 l
0.15 -1.59 l
0.14 0.80 l
0.15 0.59 l
0.15 -0.20 l
0.14 0 l
0.15 -0.20 l
0.14 -0.19 l
0.15 -0.20 l
0.14 0.39 l
0.15 1.16 l
0.14 -0.76 l
0.15 1.35 l
0.15 -1.94 l
0.14 0.19 l
0.15 0.76 l
0.14 0.20 l
0.15 -0.56 l
0.14 -0.20 l
0.15 -0.99 l
0.14 1.19 l
0.15 -0.40 l
o
/bg { 1 1 1 srgb } def
222.40 510.06 0.43 c p3
222.55 510.45 0.43 c p3
222.69 509.26 0.43 c p3
222.84 511.21 0.43 c p3
222.98 510.25 0.43 c p3
223.13 510.45 0.43 c p3
223.27 510.85 0.43 c p3
223.42 509.66 0.43 c p3
223.56 510.06 0.43 c p3
223.71 509.86 0.43 c p3
223.86 510.25 0.43 c p3
224.00 510.65 0.43 c p3
224.15 510.85 0.43 c p3
224.29 510.25 0.43 c p3
224.44 509.86 0.43 c p3
224.58 510.25 0.43 c p3
224.73 510.45 0.43 c p3
224.87 510.25 0.43 c p3
225.02 509.46 0.43 c p3
225.17 510.06 0.43 c p3
225.31 511.41 0.43 c p3
225.46 509.07 0.43 c p3
225.60 510.06 0.43 c p3
225.75 510.06 0.43 c p3
225.89 509.86 0.43 c p3
226.04 510.06 0.43 c p3
226.19 510.85 0.43 c p3
226.33 509.66 0.43 c p3
226.48 509.26 0.43 c p3
226.62 510.25 0.43 c p3
226.77 509.07 0.43 c p3
226.91 509.86 0.43 c p3
227.06 511.21 0.43 c p3
227.20 510.25 0.43 c p3
227.35 509.86 0.43 c p3
227.50 509.66 0.43 c p3
227.64 510.65 0.43 c p3
227.79 509.26 0.43 c p3
227.93 509.26 0.43 c p3
228.08 510.85 0.43 c p3
228.22 510.45 0.43 c p3
228.37 509.86 0.43 c p3
228.51 510.45 0.43 c p3
228.66 509.46 0.43 c p3
228.81 510.85 0.43 c p3
228.95 510.06 0.43 c p3
229.10 509.07 0.43 c p3
229.24 509.46 0.43 c p3
229.39 509.26 0.43 c p3
229.53 509.26 0.43 c p3
229.68 509.26 0.43 c p3
229.82 511.21 0.43 c p3
229.97 510.45 0.43 c p3
230.12 509.86 0.43 c p3
230.26 510.45 0.43 c p3
230.41 510.45 0.43 c p3
230.55 510.06 0.43 c p3
230.70 511.01 0.43 c p3
230.84 510.25 0.43 c p3
230.99 510.25 0.43 c p3
231.14 510.25 0.43 c p3
231.28 508.87 0.43 c p3
231.43 509.86 0.43 c p3
231.57 510.25 0.43 c p3
231.72 508.47 0.43 c p3
231.86 509.46 0.43 c p3
232.01 510.45 0.43 c p3
232.15 509.46 0.43 c p3
232.30 510.65 0.43 c p3
232.45 510.45 0.43 c p3
232.59 509.66 0.43 c p3
232.74 508.87 0.43 c p3
232.88 509.66 0.43 c p3
233.03 510.85 0.43 c p3
233.17 509.66 0.43 c p3
233.32 510.65 0.43 c p3
233.46 509.86 0.43 c p3
233.61 509.26 0.43 c p3
233.76 511.21 0.43 c p3
233.90 509.26 0.43 c p3
234.05 510.65 0.43 c p3
234.19 509.66 0.43 c p3
234.34 510.45 0.43 c p3
234.48 510.06 0.43 c p3
234.63 511.01 0.43 c p3
234.77 509.66 0.43 c p3
234.92 509.07 0.43 c p3
235.07 509.66 0.43 c p3
235.21 511.21 0.43 c p3
235.36 510.85 0.43 c p3
235.50 510.85 0.43 c p3
235.65 510.65 0.43 c p3
235.79 509.66 0.43 c p3
235.94 509.66 0.43 c p3
236.09 510.85 0.43 c p3
236.23 509.86 0.43 c p3
236.38 510.06 0.43 c p3
236.52 511.60 0.43 c p3
236.67 509.46 0.43 c p3
236.81 509.66 0.43 c p3
236.96 462.69 0.43 c p3
237.10 461.68 0.43 c p3
237.25 464.83 0.43 c p3
237.40 465.03 0.43 c p3
237.54 465.42 0.43 c p3
237.69 464.83 0.43 c p3
237.83 469.35 0.43 c p3
237.98 468.19 0.43 c p3
238.12 468.39 0.43 c p3
238.27 470.14 0.43 c p3
238.41 469.94 0.43 c p3
238.56 470.93 0.43 c p3
238.71 470.93 0.43 c p3
238.85 471.32 0.43 c p3
239.00 472.91 0.43 c p3
239.14 473.10 0.43 c p3
239.29 470.34 0.43 c p3
239.43 472.12 0.43 c p3
239.58 473.86 0.43 c p3
239.72 472.71 0.43 c p3
239.87 472.51 0.43 c p3
240.02 474.85 0.43 c p3
240.16 474.85 0.43 c p3
240.31 473.70 0.43 c p3
240.45 474.26 0.43 c p3
240.60 475.25 0.43 c p3
240.74 474.06 0.43 c p3
240.89 475.25 0.43 c p3
241.04 474.85 0.43 c p3
241.18 475.05 0.43 c p3
241.33 477.03 0.43 c p3
241.47 475.44 0.43 c p3
241.62 475.84 0.43 c p3
241.76 477.03 0.43 c p3
241.91 477.03 0.43 c p3
242.05 476.04 0.43 c p3
242.20 477.03 0.43 c p3
242.35 477.82 0.43 c p3
242.49 478.02 0.43 c p3
242.64 478.21 0.43 c p3
242.78 478.81 0.43 c p3
242.93 478.41 0.43 c p3
243.07 478.61 0.43 c p3
243.22 478.41 0.43 c p3
243.36 480.16 0.43 c p3
243.51 480.16 0.43 c p3
243.66 479.37 0.43 c p3
243.80 479.00 0.43 c p3
243.95 479.96 0.43 c p3
244.09 481.74 0.43 c p3
244.24 480.16 0.43 c p3
244.38 479.37 0.43 c p3
244.53 481.94 0.43 c p3
244.67 480.36 0.43 c p3
244.82 481.74 0.43 c p3
244.97 479.17 0.43 c p3
245.11 481.34 0.43 c p3
245.26 482.33 0.43 c p3
245.40 480.75 0.43 c p3
245.55 480.55 0.43 c p3
245.69 482.53 0.43 c p3
245.84 482.33 0.43 c p3
245.99 482.33 0.43 c p3
246.13 482.53 0.43 c p3
246.28 483.72 0.43 c p3
246.42 482.73 0.43 c p3
246.57 482.33 0.43 c p3
246.71 483.92 0.43 c p3
246.86 483.72 0.43 c p3
247.00 483.72 0.43 c p3
247.15 483.32 0.43 c p3
247.30 483.52 0.43 c p3
247.44 485.27 0.43 c p3
247.59 485.07 0.43 c p3
247.73 484.11 0.43 c p3
247.88 485.07 0.43 c p3
248.02 485.07 0.43 c p3
248.17 483.72 0.43 c p3
248.31 484.87 0.43 c p3
248.46 485.86 0.43 c p3
248.61 487.05 0.43 c p3
248.75 484.48 0.43 c p3
248.90 485.47 0.43 c p3
249.04 487.05 0.43 c p3
249.19 486.06 0.43 c p3
249.33 486.85 0.43 c p3
249.48 485.86 0.43 c p3
249.62 487.84 0.43 c p3
249.77 487.05 0.43 c p3
249.92 486.85 0.43 c p3
250.06 485.27 0.43 c p3
250.21 488.23 0.43 c p3
250.35 487.84 0.43 c p3
250.50 487.44 0.43 c p3
250.64 486.06 0.43 c p3
250.79 488.43 0.43 c p3
250.94 488.43 0.43 c p3
251.08 488.04 0.43 c p3
251.23 487.05 0.43 c p3
251.37 488.63 0.43 c p3
251.52 489.42 0.43 c p3
251.66 488.83 0.43 c p3
251.81 489.42 0.43 c p3
251.95 489.62 0.43 c p3
252.10 489.98 0.43 c p3
252.25 489.42 0.43 c p3
252.39 489.42 0.43 c p3
252.54 488.83 0.43 c p3
252.68 489.03 0.43 c p3
252.83 490.18 0.43 c p3
252.97 490.57 0.43 c p3
253.12 491.37 0.43 c p3
253.26 489.62 0.43 c p3
253.41 490.38 0.43 c p3
253.56 490.38 0.43 c p3
253.70 491.37 0.43 c p3
253.85 490.38 0.43 c p3
253.99 491.56 0.43 c p3
254.14 491.37 0.43 c p3
254.28 490.77 0.43 c p3
254.43 490.38 0.43 c p3
254.57 490.77 0.43 c p3
254.72 492.95 0.43 c p3
254.87 493.15 0.43 c p3
255.01 491.37 0.43 c p3
255.16 492.55 0.43 c p3
255.30 493.34 0.43 c p3
255.45 491.96 0.43 c p3
255.59 490.97 0.43 c p3
255.74 491.96 0.43 c p3
255.88 493.15 0.43 c p3
256.03 493.54 0.43 c p3
256.18 492.16 0.43 c p3
256.32 493.34 0.43 c p3
256.47 492.75 0.43 c p3
256.61 493.34 0.43 c p3
256.76 493.15 0.43 c p3
256.90 493.94 0.43 c p3
257.05 494.33 0.43 c p3
257.20 493.34 0.43 c p3
257.34 493.34 0.43 c p3
257.49 494.13 0.43 c p3
257.63 493.15 0.43 c p3
257.78 493.34 0.43 c p3
257.92 493.94 0.43 c p3
258.07 494.93 0.43 c p3
258.21 494.93 0.43 c p3
258.36 492.35 0.43 c p3
258.51 494.53 0.43 c p3
258.65 495.29 0.43 c p3
258.80 495.09 0.43 c p3
258.94 493.94 0.43 c p3
259.09 496.28 0.43 c p3
259.23 495.29 0.43 c p3
259.38 496.47 0.43 c p3
259.52 494.33 0.43 c p3
259.67 496.87 0.43 c p3
259.82 495.68 0.43 c p3
259.96 495.49 0.43 c p3
260.11 495.68 0.43 c p3
260.25 496.67 0.43 c p3
260.40 495.88 0.43 c p3
260.54 495.88 0.43 c p3
260.69 495.09 0.43 c p3
260.83 496.08 0.43 c p3
260.98 497.07 0.43 c p3
261.13 495.68 0.43 c p3
261.27 495.88 0.43 c p3
261.42 497.86 0.43 c p3
261.56 496.87 0.43 c p3
261.71 496.28 0.43 c p3
261.85 497.07 0.43 c p3
262.00 497.46 0.43 c p3
262.15 497.27 0.43 c p3
262.29 495.09 0.43 c p3
262.44 496.87 0.43 c p3
262.58 499.05 0.43 c p3
262.73 497.86 0.43 c p3
262.87 497.07 0.43 c p3
263.02 497.66 0.43 c p3
263.16 498.85 0.43 c p3
263.31 496.47 0.43 c p3
263.46 497.27 0.43 c p3
263.60 497.46 0.43 c p3
263.75 497.46 0.43 c p3
263.89 498.06 0.43 c p3
264.04 497.66 0.43 c p3
264.18 498.85 0.43 c p3
264.33 499.05 0.43 c p3
264.47 498.06 0.43 c p3
264.62 498.45 0.43 c p3
264.77 498.65 0.43 c p3
264.91 497.46 0.43 c p3
265.06 498.45 0.43 c p3
265.20 499.24 0.43 c p3
265.35 500.59 0.43 c p3
265.49 498.65 0.43 c p3
265.64 497.66 0.43 c p3
265.78 498.25 0.43 c p3
265.93 500.23 0.43 c p3
266.08 498.25 0.43 c p3
266.22 498.45 0.43 c p3
266.37 499.05 0.43 c p3
266.51 499.24 0.43 c p3
266.66 499.84 0.43 c p3
266.80 499.84 0.43 c p3
266.95 499.84 0.43 c p3
267.10 499.84 0.43 c p3
267.24 498.45 0.43 c p3
267.39 500.23 0.43 c p3
267.53 500.03 0.43 c p3
267.68 500.03 0.43 c p3
267.82 499.84 0.43 c p3
267.97 500.79 0.43 c p3
268.11 500.59 0.43 c p3
268.26 499.24 0.43 c p3
268.41 499.84 0.43 c p3
268.55 501.19 0.43 c p3
268.70 500.59 0.43 c p3
268.84 499.84 0.43 c p3
268.99 500.79 0.43 c p3
269.13 500.99 0.43 c p3
269.28 500.99 0.43 c p3
269.42 500.99 0.43 c p3
269.57 500.59 0.43 c p3
269.72 502.57 0.43 c p3
269.86 500.03 0.43 c p3
270.01 501.39 0.43 c p3
270.15 500.99 0.43 c p3
270.30 501.19 0.43 c p3
270.44 501.39 0.43 c p3
270.59 500.79 0.43 c p3
270.73 501.19 0.43 c p3
270.88 500.23 0.43 c p3
271.03 501.39 0.43 c p3
271.17 501.39 0.43 c p3
271.32 501.78 0.43 c p3
271.46 501.78 0.43 c p3
271.61 502.57 0.43 c p3
271.75 502.77 0.43 c p3
271.90 500.23 0.43 c p3
272.05 501.39 0.43 c p3
272.19 502.18 0.43 c p3
272.34 500.79 0.43 c p3
272.48 501.19 0.43 c p3
272.63 501.98 0.43 c p3
272.77 502.57 0.43 c p3
272.92 502.77 0.43 c p3
273.06 501.39 0.43 c p3
273.21 502.37 0.43 c p3
273.36 501.58 0.43 c p3
273.50 502.77 0.43 c p3
273.65 501.58 0.43 c p3
273.79 503.56 0.43 c p3
273.94 502.97 0.43 c p3
274.08 502.77 0.43 c p3
274.23 502.18 0.43 c p3
274.37 502.18 0.43 c p3
274.52 502.57 0.43 c p3
274.67 501.98 0.43 c p3
274.81 501.98 0.43 c p3
274.96 502.57 0.43 c p3
275.10 503.17 0.43 c p3
275.25 503.76 0.43 c p3
275.39 502.77 0.43 c p3
275.54 504.35 0.43 c p3
275.68 503.36 0.43 c p3
275.83 501.58 0.43 c p3
275.98 501.78 0.43 c p3
276.12 503.56 0.43 c p3
276.27 503.17 0.43 c p3
276.41 501.39 0.43 c p3
276.56 502.57 0.43 c p3
276.70 503.56 0.43 c p3
276.85 502.57 0.43 c p3
277.00 501.98 0.43 c p3
277.14 504.95 0.43 c p3
277.29 503.56 0.43 c p3
277.43 501.39 0.43 c p3
277.58 502.18 0.43 c p3
277.72 503.17 0.43 c p3
277.87 505.54 0.43 c p3
278.01 502.77 0.43 c p3
278.16 503.17 0.43 c p3
278.31 503.56 0.43 c p3
278.45 503.96 0.43 c p3
278.60 503.56 0.43 c p3
278.74 503.76 0.43 c p3
278.89 504.55 0.43 c p3
279.03 503.76 0.43 c p3
279.18 502.37 0.43 c p3
279.32 504.55 0.43 c p3
279.47 504.75 0.43 c p3
279.62 503.17 0.43 c p3
279.76 503.76 0.43 c p3
279.91 503.36 0.43 c p3
280.05 505.14 0.43 c p3
280.20 503.17 0.43 c p3
280.34 503.76 0.43 c p3
280.49 504.55 0.43 c p3
280.63 504.75 0.43 c p3
280.78 502.97 0.43 c p3
280.93 504.15 0.43 c p3
281.07 505.90 0.43 c p3
281.22 503.96 0.43 c p3
281.36 504.55 0.43 c p3
281.51 505.54 0.43 c p3
281.65 505.14 0.43 c p3
281.80 503.96 0.43 c p3
281.95 505.54 0.43 c p3
282.09 504.55 0.43 c p3
282.24 505.14 0.43 c p3
282.38 504.75 0.43 c p3
282.53 504.15 0.43 c p3
282.67 505.14 0.43 c p3
282.82 505.54 0.43 c p3
282.96 504.95 0.43 c p3
283.11 504.75 0.43 c p3
283.26 505.34 0.43 c p3
283.40 505.54 0.43 c p3
283.55 505.34 0.43 c p3
283.69 504.35 0.43 c p3
283.84 505.34 0.43 c p3
283.98 506.10 0.43 c p3
284.13 504.35 0.43 c p3
284.27 505.54 0.43 c p3
284.42 505.90 0.43 c p3
284.57 505.54 0.43 c p3
284.71 503.96 0.43 c p3
284.86 504.95 0.43 c p3
285.00 504.75 0.43 c p3
285.15 505.54 0.43 c p3
285.29 504.35 0.43 c p3
285.44 504.95 0.43 c p3
285.58 505.90 0.43 c p3
285.73 505.14 0.43 c p3
285.88 504.35 0.43 c p3
286.02 505.54 0.43 c p3
286.17 505.34 0.43 c p3
286.31 504.75 0.43 c p3
286.46 504.55 0.43 c p3
286.60 505.70 0.43 c p3
286.75 505.90 0.43 c p3
286.89 505.54 0.43 c p3
287.04 505.34 0.43 c p3
287.19 506.30 0.43 c p3
287.33 504.35 0.43 c p3
287.48 504.55 0.43 c p3
287.62 507.88 0.43 c p3
287.77 505.70 0.43 c p3
287.91 505.14 0.43 c p3
288.06 505.90 0.43 c p3
288.21 507.48 0.43 c p3
288.35 505.14 0.43 c p3
288.50 505.54 0.43 c p3
288.64 506.69 0.43 c p3
288.79 506.30 0.43 c p3
288.93 506.10 0.43 c p3
289.08 506.10 0.43 c p3
289.22 505.14 0.43 c p3
289.37 506.30 0.43 c p3
289.52 506.69 0.43 c p3
289.66 505.70 0.43 c p3
289.81 507.09 0.43 c p3
289.95 507.09 0.43 c p3
290.10 506.50 0.43 c p3
290.24 505.90 0.43 c p3
290.39 506.50 0.43 c p3
290.53 507.88 0.43 c p3
290.68 505.90 0.43 c p3
290.83 505.90 0.43 c p3
290.97 507.48 0.43 c p3
291.12 505.90 0.43 c p3
291.26 506.10 0.43 c p3
291.41 507.29 0.43 c p3
291.55 506.50 0.43 c p3
291.70 506.89 0.43 c p3
291.84 505.90 0.43 c p3
291.99 507.29 0.43 c p3
292.14 507.88 0.43 c p3
292.28 506.69 0.43 c p3
292.43 505.34 0.43 c p3
292.57 507.48 0.43 c p3
292.72 507.29 0.43 c p3
292.86 505.34 0.43 c p3
293.01 505.70 0.43 c p3
293.16 506.89 0.43 c p3
293.30 507.29 0.43 c p3
293.45 507.09 0.43 c p3
293.59 506.69 0.43 c p3
293.74 506.89 0.43 c p3
293.88 506.30 0.43 c p3
294.03 506.10 0.43 c p3
294.17 508.08 0.43 c p3
294.32 506.89 0.43 c p3
294.47 506.89 0.43 c p3
294.61 506.50 0.43 c p3
294.76 508.28 0.43 c p3
294.90 506.89 0.43 c p3
295.05 507.48 0.43 c p3
295.19 507.68 0.43 c p3
295.34 506.69 0.43 c p3
295.48 507.48 0.43 c p3
295.63 506.69 0.43 c p3
295.78 507.09 0.43 c p3
295.92 507.09 0.43 c p3
296.07 507.29 0.43 c p3
296.21 507.29 0.43 c p3
296.36 506.30 0.43 c p3
296.50 507.09 0.43 c p3
296.65 506.50 0.43 c p3
296.79 507.09 0.43 c p3
296.94 507.68 0.43 c p3
297.09 507.68 0.43 c p3
297.23 507.09 0.43 c p3
297.38 507.48 0.43 c p3
297.52 507.29 0.43 c p3
297.67 506.89 0.43 c p3
297.81 507.09 0.43 c p3
297.96 506.50 0.43 c p3
298.11 507.48 0.43 c p3
298.25 507.09 0.43 c p3
298.40 507.88 0.43 c p3
298.54 507.68 0.43 c p3
298.69 506.89 0.43 c p3
298.83 507.88 0.43 c p3
298.98 506.89 0.43 c p3
299.12 507.29 0.43 c p3
299.27 506.30 0.43 c p3
299.42 507.88 0.43 c p3
299.56 506.69 0.43 c p3
299.71 506.69 0.43 c p3
299.85 507.88 0.43 c p3
300.00 507.09 0.43 c p3
300.14 507.68 0.43 c p3
300.29 507.88 0.43 c p3
300.43 506.69 0.43 c p3
300.58 507.68 0.43 c p3
300.73 508.08 0.43 c p3
300.87 507.48 0.43 c p3
301.02 507.29 0.43 c p3
301.16 507.68 0.43 c p3
301.31 508.08 0.43 c p3
301.45 507.68 0.43 c p3
301.60 507.88 0.43 c p3
301.74 509.26 0.43 c p3
301.89 507.68 0.43 c p3
302.04 507.48 0.43 c p3
302.18 507.88 0.43 c p3
302.33 507.68 0.43 c p3
302.47 507.68 0.43 c p3
302.62 507.09 0.43 c p3
302.76 509.26 0.43 c p3
302.91 508.28 0.43 c p3
303.06 508.47 0.43 c p3
303.20 508.28 0.43 c p3
303.35 507.68 0.43 c p3
303.49 507.09 0.43 c p3
303.64 508.08 0.43 c p3
303.78 507.48 0.43 c p3
303.93 507.68 0.43 c p3
304.07 508.28 0.43 c p3
304.22 508.47 0.43 c p3
304.37 507.68 0.43 c p3
304.51 508.47 0.43 c p3
304.66 507.88 0.43 c p3
304.80 507.68 0.43 c p3
304.95 507.48 0.43 c p3
305.09 508.47 0.43 c p3
305.24 509.07 0.43 c p3
305.38 508.08 0.43 c p3
305.53 509.07 0.43 c p3
305.68 507.29 0.43 c p3
305.82 507.29 0.43 c p3
305.97 508.08 0.43 c p3
306.11 507.88 0.43 c p3
306.26 508.87 0.43 c p3
306.40 508.87 0.43 c p3
306.55 509.07 0.43 c p3
306.69 507.68 0.43 c p3
306.84 508.47 0.43 c p3
306.99 506.69 0.43 c p3
307.13 508.08 0.43 c p3
307.28 508.08 0.43 c p3
307.42 509.26 0.43 c p3
307.57 508.47 0.43 c p3
307.71 507.48 0.43 c p3
307.86 508.28 0.43 c p3
308.01 506.50 0.43 c p3
308.15 508.28 0.43 c p3
308.30 508.47 0.43 c p3
308.44 508.08 0.43 c p3
308.59 507.88 0.43 c p3
308.73 507.48 0.43 c p3
308.88 508.87 0.43 c p3
309.02 508.67 0.43 c p3
309.17 507.68 0.43 c p3
309.32 508.67 0.43 c p3
309.46 509.66 0.43 c p3
309.61 508.08 0.43 c p3
309.75 507.88 0.43 c p3
309.90 508.28 0.43 c p3
310.04 507.88 0.43 c p3
310.19 507.88 0.43 c p3
310.33 507.68 0.43 c p3
310.48 509.07 0.43 c p3
310.63 508.87 0.43 c p3
310.77 507.29 0.43 c p3
310.92 508.28 0.43 c p3
311.06 507.68 0.43 c p3
311.21 507.09 0.43 c p3
311.35 508.47 0.43 c p3
311.50 507.88 0.43 c p3
311.64 508.67 0.43 c p3
311.79 509.26 0.43 c p3
311.94 508.87 0.43 c p3
312.08 508.87 0.43 c p3
312.23 507.88 0.43 c p3
312.37 508.47 0.43 c p3
312.52 508.28 0.43 c p3
312.66 507.68 0.43 c p3
312.81 509.86 0.43 c p3
312.96 509.66 0.43 c p3
313.10 507.29 0.43 c p3
313.25 508.67 0.43 c p3
313.39 507.88 0.43 c p3
313.54 508.28 0.43 c p3
313.68 508.28 0.43 c p3
313.83 508.47 0.43 c p3
313.97 509.26 0.43 c p3
314.12 508.67 0.43 c p3
314.27 508.87 0.43 c p3
314.41 508.67 0.43 c p3
314.56 508.47 0.43 c p3
314.70 509.66 0.43 c p3
314.85 508.28 0.43 c p3
314.99 508.28 0.43 c p3
315.14 508.87 0.43 c p3
315.28 508.47 0.43 c p3
315.43 509.07 0.43 c p3
315.58 508.28 0.43 c p3
315.72 508.87 0.43 c p3
315.87 507.88 0.43 c p3
316.01 507.68 0.43 c p3
316.16 508.87 0.43 c p3
316.30 508.28 0.43 c p3
316.45 509.46 0.43 c p3
316.59 508.47 0.43 c p3
316.74 508.47 0.43 c p3
316.89 509.46 0.43 c p3
317.03 509.07 0.43 c p3
317.18 508.08 0.43 c p3
317.32 509.66 0.43 c p3
317.47 510.06 0.43 c p3
317.61 509.07 0.43 c p3
317.76 510.25 0.43 c p3
317.91 508.67 0.43 c p3
318.05 509.07 0.43 c p3
318.20 509.86 0.43 c p3
318.34 507.68 0.43 c p3
318.49 509.07 0.43 c p3
318.63 508.47 0.43 c p3
318.78 507.29 0.43 c p3
318.92 507.68 0.43 c p3
319.07 509.46 0.43 c p3
319.22 509.26 0.43 c p3
319.36 508.28 0.43 c p3
319.51 510.25 0.43 c p3
319.65 509.07 0.43 c p3
319.80 508.67 0.43 c p3
319.94 508.87 0.43 c p3
320.09 508.47 0.43 c p3
320.23 508.87 0.43 c p3
320.38 509.86 0.43 c p3
320.53 510.45 0.43 c p3
320.67 508.87 0.43 c p3
320.82 509.07 0.43 c p3
320.96 509.86 0.43 c p3
321.11 509.26 0.43 c p3
321.25 509.07 0.43 c p3
321.40 507.88 0.43 c p3
321.54 508.08 0.43 c p3
321.69 507.48 0.43 c p3
321.84 509.26 0.43 c p3
321.98 509.86 0.43 c p3
322.13 508.87 0.43 c p3
322.27 508.87 0.43 c p3
322.42 509.46 0.43 c p3
322.56 507.09 0.43 c p3
322.71 508.47 0.43 c p3
322.85 508.87 0.43 c p3
323.00 509.26 0.43 c p3
323.15 508.87 0.43 c p3
323.29 510.06 0.43 c p3
323.44 509.66 0.43 c p3
323.58 508.67 0.43 c p3
323.73 508.47 0.43 c p3
323.87 508.67 0.43 c p3
324.02 509.86 0.43 c p3
324.17 509.86 0.43 c p3
324.31 508.67 0.43 c p3
324.46 508.67 0.43 c p3
324.60 508.47 0.43 c p3
324.75 509.07 0.43 c p3
324.89 509.26 0.43 c p3
325.04 510.06 0.43 c p3
325.18 508.87 0.43 c p3
325.33 509.26 0.43 c p3
325.48 509.86 0.43 c p3
325.62 508.67 0.43 c p3
325.77 508.47 0.43 c p3
325.91 508.28 0.43 c p3
326.06 509.26 0.43 c p3
326.20 509.66 0.43 c p3
326.35 508.47 0.43 c p3
326.49 510.06 0.43 c p3
326.64 509.86 0.43 c p3
326.79 509.86 0.43 c p3
326.93 508.67 0.43 c p3
327.08 509.07 0.43 c p3
327.22 509.66 0.43 c p3
327.37 510.25 0.43 c p3
327.51 509.26 0.43 c p3
327.66 509.26 0.43 c p3
327.80 509.46 0.43 c p3
327.95 509.26 0.43 c p3
328.10 509.46 0.43 c p3
328.24 509.66 0.43 c p3
328.39 509.07 0.43 c p3
328.53 509.07 0.43 c p3
328.68 508.87 0.43 c p3
328.82 509.66 0.43 c p3
328.97 509.46 0.43 c p3
329.12 507.48 0.43 c p3
329.26 509.46 0.43 c p3
329.41 509.07 0.43 c p3
329.55 507.88 0.43 c p3
329.70 509.07 0.43 c p3
329.84 509.66 0.43 c p3
329.99 508.87 0.43 c p3
330.13 508.67 0.43 c p3
330.28 509.26 0.43 c p3
330.43 508.87 0.43 c p3
330.57 509.86 0.43 c p3
330.72 508.67 0.43 c p3
330.86 508.67 0.43 c p3
331.01 509.86 0.43 c p3
331.15 510.06 0.43 c p3
331.30 509.86 0.43 c p3
331.44 510.85 0.43 c p3
331.59 509.66 0.43 c p3
331.74 509.07 0.43 c p3
331.88 510.25 0.43 c p3
332.03 509.66 0.43 c p3
332.17 509.66 0.43 c p3
332.32 510.65 0.43 c p3
332.46 509.66 0.43 c p3
332.61 509.86 0.43 c p3
332.75 509.66 0.43 c p3
332.90 509.66 0.43 c p3
333.05 509.86 0.43 c p3
333.19 509.26 0.43 c p3
333.34 508.47 0.43 c p3
333.48 509.07 0.43 c p3
333.63 509.86 0.43 c p3
333.77 509.66 0.43 c p3
333.92 508.67 0.43 c p3
334.07 509.26 0.43 c p3
334.21 508.47 0.43 c p3
334.36 509.07 0.43 c p3
334.50 510.45 0.43 c p3
334.65 510.06 0.43 c p3
334.79 510.06 0.43 c p3
334.94 509.26 0.43 c p3
335.08 510.06 0.43 c p3
335.23 509.26 0.43 c p3
335.38 510.45 0.43 c p3
335.52 508.67 0.43 c p3
335.67 509.07 0.43 c p3
335.81 510.06 0.43 c p3
335.96 509.86 0.43 c p3
336.10 508.67 0.43 c p3
336.25 508.67 0.43 c p3
336.39 509.26 0.43 c p3
336.54 509.86 0.43 c p3
336.69 509.66 0.43 c p3
336.83 509.86 0.43 c p3
336.98 509.86 0.43 c p3
337.12 509.26 0.43 c p3
337.27 510.65 0.43 c p3
337.41 509.46 0.43 c p3
337.56 509.07 0.43 c p3
337.70 509.66 0.43 c p3
337.85 509.86 0.43 c p3
338.00 510.45 0.43 c p3
338.14 510.06 0.43 c p3
338.29 509.66 0.43 c p3
338.43 509.66 0.43 c p3
338.58 508.67 0.43 c p3
338.72 509.66 0.43 c p3
338.87 510.65 0.43 c p3
339.02 508.87 0.43 c p3
339.16 510.06 0.43 c p3
339.31 509.07 0.43 c p3
339.45 509.07 0.43 c p3
339.60 510.06 0.43 c p3
339.74 509.46 0.43 c p3
339.89 508.47 0.43 c p3
340.03 509.66 0.43 c p3
340.18 509.26 0.43 c p3
340.33 509.86 0.43 c p3
340.47 509.66 0.43 c p3
340.62 508.67 0.43 c p3
340.76 509.26 0.43 c p3
340.91 509.26 0.43 c p3
341.05 508.67 0.43 c p3
341.20 509.46 0.43 c p3
341.34 510.25 0.43 c p3
341.49 510.45 0.43 c p3
341.64 509.26 0.43 c p3
341.78 509.86 0.43 c p3
341.93 511.21 0.43 c p3
342.07 509.07 0.43 c p3
342.22 509.26 0.43 c p3
342.36 509.66 0.43 c p3
342.51 510.06 0.43 c p3
342.65 509.07 0.43 c p3
342.80 510.06 0.43 c p3
342.95 509.66 0.43 c p3
343.09 508.28 0.43 c p3
343.24 509.07 0.43 c p3
343.38 509.66 0.43 c p3
343.53 509.86 0.43 c p3
343.67 509.66 0.43 c p3
343.82 510.45 0.43 c p3
343.97 509.66 0.43 c p3
344.11 511.01 0.43 c p3
344.26 509.46 0.43 c p3
344.40 509.07 0.43 c p3
344.55 509.46 0.43 c p3
344.69 510.06 0.43 c p3
344.84 509.66 0.43 c p3
344.98 510.06 0.43 c p3
345.13 510.06 0.43 c p3
345.28 510.25 0.43 c p3
345.42 510.06 0.43 c p3
345.57 510.25 0.43 c p3
345.71 509.86 0.43 c p3
345.86 510.85 0.43 c p3
346.00 509.86 0.43 c p3
346.15 510.45 0.43 c p3
346.29 510.65 0.43 c p3
346.44 508.67 0.43 c p3
346.59 509.86 0.43 c p3
346.73 509.07 0.43 c p3
346.88 509.66 0.43 c p3
347.02 510.45 0.43 c p3
347.17 509.86 0.43 c p3
347.31 509.46 0.43 c p3
347.46 509.26 0.43 c p3
347.60 509.46 0.43 c p3
347.75 508.87 0.43 c p3
347.90 508.67 0.43 c p3
348.04 509.26 0.43 c p3
348.19 510.06 0.43 c p3
348.33 510.45 0.43 c p3
348.48 510.06 0.43 c p3
348.62 510.06 0.43 c p3
348.77 509.86 0.43 c p3
348.92 510.25 0.43 c p3
349.06 508.87 0.43 c p3
349.21 508.67 0.43 c p3
349.35 509.66 0.43 c p3
349.50 509.07 0.43 c p3
349.64 511.41 0.43 c p3
349.79 510.45 0.43 c p3
349.93 509.86 0.43 c p3
350.08 509.66 0.43 c p3
350.23 509.46 0.43 c p3
350.37 508.87 0.43 c p3
350.52 509.66 0.43 c p3
350.66 510.45 0.43 c p3
350.81 510.06 0.43 c p3
350.95 509.26 0.43 c p3
351.10 509.07 0.43 c p3
351.24 510.25 0.43 c p3
351.39 508.67 0.43 c p3
351.54 509.46 0.43 c p3
351.68 510.45 0.43 c p3
351.83 510.65 0.43 c p3
351.97 510.65 0.43 c p3
352.12 509.86 0.43 c p3
352.26 510.45 0.43 c p3
352.41 510.06 0.43 c p3
352.55 509.26 0.43 c p3
352.70 509.46 0.43 c p3
352.85 509.66 0.43 c p3
352.99 511.41 0.43 c p3
353.14 510.45 0.43 c p3
353.28 510.06 0.43 c p3
353.43 509.66 0.43 c p3
353.57 509.07 0.43 c p3
353.72 510.25 0.43 c p3
353.86 511.41 0.43 c p3
354.01 509.86 0.43 c p3
354.16 509.26 0.43 c p3
354.30 508.87 0.43 c p3
354.45 509.07 0.43 c p3
354.59 508.47 0.43 c p3
354.74 509.46 0.43 c p3
354.88 508.47 0.43 c p3
355.03 510.25 0.43 c p3
355.18 510.25 0.43 c p3
355.32 510.25 0.43 c p3
355.47 509.86 0.43 c p3
355.61 508.47 0.43 c p3
355.76 509.86 0.43 c p3
355.90 509.66 0.43 c p3
356.05 509.26 0.43 c p3
356.19 510.06 0.43 c p3
356.34 509.07 0.43 c p3
356.49 510.25 0.43 c p3
356.63 509.66 0.43 c p3
356.78 509.46 0.43 c p3
356.92 510.06 0.43 c p3
357.07 510.06 0.43 c p3
357.21 509.66 0.43 c p3
357.36 509.86 0.43 c p3
357.50 509.86 0.43 c p3
357.65 510.85 0.43 c p3
357.80 510.85 0.43 c p3
357.94 508.87 0.43 c p3
358.09 508.87 0.43 c p3
358.23 510.06 0.43 c p3
358.38 509.86 0.43 c p3
358.52 510.45 0.43 c p3
358.67 510.25 0.43 c p3
358.81 509.86 0.43 c p3
358.96 510.06 0.43 c p3
359.11 509.86 0.43 c p3
359.25 509.66 0.43 c p3
359.40 508.67 0.43 c p3
359.54 509.66 0.43 c p3
359.69 509.46 0.43 c p3
359.83 510.25 0.43 c p3
359.98 510.06 0.43 c p3
360.13 509.26 0.43 c p3
360.27 509.46 0.43 c p3
360.42 510.25 0.43 c p3
360.56 510.85 0.43 c p3
360.71 509.07 0.43 c p3
360.85 509.07 0.43 c p3
361.00 509.66 0.43 c p3
361.14 510.85 0.43 c p3
361.29 510.65 0.43 c p3
361.44 510.25 0.43 c p3
361.58 509.66 0.43 c p3
361.73 509.86 0.43 c p3
361.87 509.26 0.43 c p3
362.02 511.21 0.43 c p3
362.16 511.01 0.43 c p3
362.31 511.41 0.43 c p3
362.45 509.26 0.43 c p3
362.60 509.86 0.43 c p3
362.75 510.25 0.43 c p3
362.89 509.07 0.43 c p3
363.04 510.25 0.43 c p3
363.18 509.26 0.43 c p3
363.33 512.00 0.43 c p3
363.47 509.46 0.43 c p3
363.62 510.85 0.43 c p3
363.76 510.06 0.43 c p3
363.91 509.46 0.43 c p3
364.06 510.25 0.43 c p3
364.20 509.26 0.43 c p3
364.35 510.45 0.43 c p3
364.49 509.66 0.43 c p3
364.64 510.45 0.43 c p3
364.78 510.45 0.43 c p3
364.93 509.07 0.43 c p3
365.08 508.87 0.43 c p3
365.22 509.46 0.43 c p3
365.37 510.45 0.43 c p3
365.51 509.26 0.43 c p3
365.66 510.06 0.43 c p3
365.80 511.21 0.43 c p3
365.95 509.86 0.43 c p3
366.09 509.07 0.43 c p3
366.24 509.07 0.43 c p3
366.39 510.25 0.43 c p3
366.53 509.86 0.43 c p3
366.68 509.07 0.43 c p3
366.82 510.65 0.43 c p3
366.97 510.25 0.43 c p3
367.11 509.46 0.43 c p3
367.26 509.86 0.43 c p3
367.40 510.85 0.43 c p3
367.55 510.45 0.43 c p3
367.70 509.07 0.43 c p3
367.84 509.66 0.43 c p3
367.99 510.25 0.43 c p3
368.13 510.45 0.43 c p3
368.28 509.66 0.43 c p3
368.42 509.46 0.43 c p3
368.57 509.07 0.43 c p3
368.71 509.26 0.43 c p3
368.86 510.65 0.43 c p3
369.01 510.25 0.43 c p3
369.15 509.86 0.43 c p3
369.30 510.65 0.43 c p3
369.44 510.25 0.43 c p3
369.59 510.25 0.43 c p3
369.73 510.65 0.43 c p3
369.88 510.06 0.43 c p3
370.03 510.85 0.43 c p3
370.17 509.26 0.43 c p3
370.32 510.65 0.43 c p3
370.46 509.86 0.43 c p3
370.61 510.25 0.43 c p3
370.75 509.26 0.43 c p3
370.90 509.46 0.43 c p3
371.04 511.01 0.43 c p3
371.19 509.26 0.43 c p3
371.34 509.07 0.43 c p3
371.48 510.06 0.43 c p3
371.63 509.46 0.43 c p3
371.77 510.06 0.43 c p3
371.92 509.26 0.43 c p3
372.06 509.26 0.43 c p3
372.21 510.65 0.43 c p3
372.35 510.45 0.43 c p3
372.50 510.45 0.43 c p3
372.65 510.85 0.43 c p3
372.79 509.07 0.43 c p3
372.94 511.01 0.43 c p3
373.08 510.45 0.43 c p3
373.23 510.65 0.43 c p3
373.37 511.60 0.43 c p3
373.52 509.66 0.43 c p3
373.66 511.41 0.43 c p3
373.81 510.06 0.43 c p3
373.96 510.25 0.43 c p3
374.10 510.25 0.43 c p3
374.25 510.65 0.43 c p3
374.39 509.46 0.43 c p3
374.54 509.46 0.43 c p3
374.68 510.25 0.43 c p3
374.83 511.01 0.43 c p3
374.98 509.46 0.43 c p3
375.12 510.45 0.43 c p3
375.27 510.85 0.43 c p3
375.41 510.85 0.43 c p3
375.56 510.65 0.43 c p3
375.70 510.06 0.43 c p3
375.85 509.66 0.43 c p3
375.99 509.66 0.43 c p3
376.14 510.45 0.43 c p3
376.29 510.45 0.43 c p3
376.43 510.45 0.43 c p3
376.58 509.66 0.43 c p3
376.72 510.06 0.43 c p3
376.87 510.06 0.43 c p3
377.01 510.65 0.43 c p3
377.16 510.06 0.43 c p3
377.30 510.06 0.43 c p3
377.45 510.45 0.43 c p3
377.60 509.86 0.43 c p3
377.74 511.01 0.43 c p3
377.89 510.06 0.43 c p3
378.03 510.85 0.43 c p3
378.18 510.25 0.43 c p3
378.32 509.66 0.43 c p3
378.47 508.67 0.43 c p3
378.61 509.07 0.43 c p3
378.76 510.65 0.43 c p3
378.91 510.25 0.43 c p3
379.05 510.25 0.43 c p3
379.20 511.21 0.43 c p3
379.34 510.85 0.43 c p3
379.49 509.26 0.43 c p3
379.63 510.06 0.43 c p3
379.78 510.65 0.43 c p3
379.93 510.45 0.43 c p3
380.07 510.45 0.43 c p3
380.22 510.25 0.43 c p3
380.36 510.06 0.43 c p3
380.51 509.86 0.43 c p3
380.65 510.25 0.43 c p3
380.80 511.41 0.43 c p3
380.94 510.65 0.43 c p3
381.09 512.00 0.43 c p3
381.24 510.06 0.43 c p3
381.38 510.25 0.43 c p3
381.53 511.01 0.43 c p3
381.67 511.21 0.43 c p3
381.82 510.65 0.43 c p3
381.96 510.45 0.43 c p3
382.11 509.46 0.43 c p3
382.25 510.65 0.43 c p3
382.40 510.25 0.43 c p3
0.00 0.00 432.00 576.00 cl
0 0 0 srgb
0.75 setlinewidth
[] 0 setdash
1 setlinecap
1 setlinejoin
10.00 setmiterlimit
np
236.96 345.60 m
145.59 0 l
o
np
236.96 345.60 m
0 -5.76 l
o
np
266.08 345.60 m
0 -5.76 l
o
np
295.19 345.60 m
0 -5.76 l
o
np
324.31 345.60 m
0 -5.76 l
o
np
353.43 345.60 m
0 -5.76 l
o
np
382.55 345.60 m
0 -5.76 l
o
/Font1 findfont 10 s
236.96 329.47 (0) .5 0 t
266.08 329.47 (500) .5 0 t
295.19 329.47 (1000) .5 0 t
353.43 329.47 (2000) .5 0 t
np
216.00 352.00 m
0 162.01 l
o
np
216.00 352.00 m
-5.76 0 l
o
np
216.00 379.00 m
-5.76 0 l
o
np
216.00 406.00 m
-5.76 0 l
o
np
216.00 433.01 m
-5.76 0 l
o
np
216.00 460.01 m
-5.76 0 l
o
np
216.00 487.01 m
-5.76 0 l
o
np
216.00 514.01 m
-5.76 0 l
o
209.09 348.41 (0.00) 1 0 t
209.09 375.41 (0.05) 1 0 t
209.09 402.41 (0.10) 1 0 t
209.09 429.42 (0.15) 1 0 t
209.09 456.42 (0.20) 1 0 t
209.09 483.42 (0.25) 1 0 t
209.09 510.42 (0.30) 1 0 t
np
216.00 345.60 m
172.80 0 l
0 172.80 l
-172.80 0 l
0 -172.80 l
o
0.00 0.00 432.00 576.00 cl
/Font1 findfont 10 s
0 0 0 srgb
302.40 313.34 (Time / ms \(total\)) .5 0 t
190.66 432.00 (U / V) .5 90 t
216.00 345.60 388.80 518.40 cl
0 0 0 srgb
0.38 setlinewidth
[ 1.13 1.88] 0 setdash
1 setlinecap
1 setlinejoin
10.00 setmiterlimit
np
222.40 345.60 m
0 172.80 l
o
np
234.19 345.60 m
0 172.80 l
o
np
238.27 345.60 m
0 172.80 l
o
np
337.85 345.60 m
0 172.80 l
o
86.40 57.60 388.80 288.00 cl
1 0 0 srgb
1.50 setlinewidth
[] 0 setdash
1 setlinecap
1 setlinejoin
10.00 setmiterlimit
np
97.60 279.47 m
1.41 -7.70 l
1.40 -7.42 l
1.41 -7.15 l
1.41 -6.88 l
1.41 -6.64 l
1.40 -6.39 l
1.41 -6.16 l
1.41 -5.94 l
1.40 -5.72 l
1.41 -5.51 l
1.41 -5.31 l
1.40 -5.12 l
1.41 -4.93 l
1.41 -4.75 l
1.41 -4.58 l
1.40 -4.41 l
1.41 -4.24 l
1.41 -4.10 l
1.40 -3.94 l
1.41 -3.81 l
1.41 -3.66 l
1.40 -3.53 l
1.41 -3.40 l
1.41 -3.27 l
1.41 -3.16 l
1.40 -3.04 l
1.41 -2.93 l
1.41 -2.83 l
1.40 -2.72 l
1.41 -2.62 l
1.41 -2.53 l
1.41 -2.43 l
1.40 -2.35 l
1.41 -2.26 l
1.41 -2.17 l
1.40 -2.10 l
1.41 -2.02 l
1.41 -1.95 l
1.40 -1.88 l
1.41 -1.81 l
1.41 -1.74 l
1.41 -1.68 l
1.40 -1.62 l
1.41 -1.55 l
1.41 -1.51 l
1.40 -1.44 l
1.41 -1.40 l
1.41 -1.34 l
1.40 -1.30 l
1.41 -1.24 l
1.41 -1.20 l
1.41 -1.16 l
1.40 -1.12 l
1.41 -1.07 l
1.41 -1.04 l
1.40 -1.00 l
1.41 -0.96 l
1.41 -0.93 l
1.41 -0.89 l
1.40 -0.86 l
1.41 -0.83 l
1.41 -0.80 l
1.40 -0.77 l
1.41 -0.74 l
1.41 -0.71 l
1.40 -0.69 l
1.41 -0.66 l
1.41 -0.64 l
1.41 -0.62 l
1.40 -0.59 l
1.41 -0.58 l
1.41 -0.55 l
1.40 -0.53 l
1.41 -0.51 l
1.41 -0.49 l
1.40 -0.48 l
1.41 -0.45 l
1.41 -0.44 l
1.41 -0.43 l
1.40 -0.41 l
1.41 -0.39 l
1.41 -0.38 l
1.40 -0.37 l
1.41 -0.35 l
1.41 -0.34 l
1.41 -0.33 l
1.40 -0.31 l
1.41 -0.31 l
1.41 -0.29 l
1.40 -0.28 l
1.41 -0.28 l
1.41 -0.26 l
1.40 -0.25 l
1.41 -0.24 l
1.41 -0.24 l
1.41 -0.22 l
1.40 -0.22 l
1.41 -0.21 l
1.41 -0.20 l
238.30 73.47 lineto
1.41 -0.19 l
1.41 -0.18 l
1.40 -0.17 l
1.41 -0.17 l
1.41 -0.16 l
1.41 -0.16 l
1.40 -0.15 l
1.41 -0.14 l
1.41 -0.14 l
1.40 -0.14 l
1.41 -0.12 l
1.41 -0.13 l
1.40 -0.12 l
1.41 -0.12 l
1.41 -0.11 l
1.41 -0.10 l
1.40 -0.11 l
1.41 -0.10 l
1.41 -0.09 l
1.40 -0.10 l
1.41 -0.09 l
1.41 -0.08 l
1.41 -0.08 l
1.40 -0.08 l
1.41 -0.08 l
1.41 -0.08 l
1.40 -0.07 l
1.41 -0.07 l
1.41 -0.06 l
1.40 -0.07 l
1.41 -0.06 l
1.41 -0.06 l
1.41 -0.05 l
1.40 -0.06 l
1.41 -0.05 l
1.41 -0.05 l
1.40 -0.05 l
1.41 -0.05 l
1.41 -0.05 l
1.40 -0.04 l
1.41 -0.04 l
1.41 -0.04 l
1.41 -0.04 l
1.40 -0.04 l
1.41 -0.04 l
1.41 -0.03 l
1.40 -0.04 l
1.41 -0.03 l
1.41 -0.03 l
1.41 -0.03 l
1.40 -0.03 l
1.41 -0.03 l
1.41 -0.03 l
1.40 -0.02 l
1.41 -0.03 l
1.41 -0.02 l
1.40 -0.02 l
1.41 -0.03 l
1.41 -0.02 l
1.41 -0.02 l
1.40 -0.02 l
1.41 -0.02 l
1.41 -0.02 l
1.40 -0.02 l
1.41 -0.01 l
1.41 -0.02 l
1.40 -0.02 l
1.41 -0.01 l
1.41 -0.02 l
1.41 -0.01 l
1.40 -0.02 l
1.41 -0.01 l
1.41 -0.01 l
1.40 -0.01 l
1.41 -0.02 l
1.41 -0.01 l
1.41 -0.01 l
1.40 -0.01 l
1.41 -0.01 l
1.41 -0.01 l
1.40 -0.01 l
1.41 -0.01 l
1.41 -0.01 l
1.40 -0.01 l
1.41 -0.01 l
1.41 0 l
1.41 -0.01 l
1.40 -0.01 l
1.41 -0.01 l
1.41 0 l
1.40 -0.01 l
1.41 -0.01 l
1.41 0 l
1.40 -0.01 l
1.41 0 l
1.41 -0.01 l
1.41 0 l
1.40 -0.01 l
1.41 0 l
o
0.00 0.00 432.00 576.00 cl
0 0 0 srgb
0.75 setlinewidth
[] 0 setdash
1 setlinecap
1 setlinejoin
10.00 setmiterlimit
np
97.60 57.60 m
280.00 0 l
o
np
97.60 57.60 m
0 -5.76 l
o
np
153.60 57.60 m
0 -5.76 l
o
np
209.60 57.60 m
0 -5.76 l
o
np
265.60 57.60 m
0 -5.76 l
o
np
321.60 57.60 m
0 -5.76 l
o
np
377.60 57.60 m
0 -5.76 l
o
/Font1 findfont 10 s
97.60 41.47 (0) .5 0 t
153.60 41.47 (500) .5 0 t
209.60 41.47 (1000) .5 0 t
265.60 41.47 (1500) .5 0 t
321.60 41.47 (2000) .5 0 t
377.60 41.47 (2500) .5 0 t
np
86.40 66.13 m
0 193.08 l
o
np
86.40 66.13 m
-5.76 0 l
o
np
86.40 98.31 m
-5.76 0 l
o
np
86.40 130.49 m
-5.76 0 l
o
np
86.40 162.67 m
-5.76 0 l
o
np
86.40 194.85 m
-5.76 0 l
o
np
86.40 227.03 m
-5.76 0 l
o
np
86.40 259.21 m
-5.76 0 l
o
79.49 62.54 (0.00) 1 0 t
79.49 94.72 (0.02) 1 0 t
79.49 126.90 (0.04) 1 0 t
79.49 159.08 (0.06) 1 0 t
79.49 191.26 (0.08) 1 0 t
79.49 223.44 (0.10) 1 0 t
79.49 255.62 (0.12) 1 0 t
np
86.40 57.60 m
302.40 0 l
0 230.40 l
-302.40 0 l
0 -230.40 l
o
0.00 0.00 432.00 576.00 cl
/Font1 findfont 10 s
0 0 0 srgb
237.60 13.82 (Time / ms \(after pulse\)) .5 0 t
49.54 172.80 (Absorbance A) .5 90 t
86.40 57.60 388.80 288.00 cl
/bg { 1 1 1 srgb } def
0 0 0 srgb
0.75 setlinewidth
[] 0 setdash
1 setlinecap
1 setlinejoin
10.00 setmiterlimit
100.40 269.50 0.65 c p3
100.68 270.67 0.65 c p3
100.96 264.84 0.65 c p3
101.24 264.84 0.65 c p3
101.52 262.52 0.65 c p3
101.80 253.31 0.65 c p3
102.08 252.17 0.65 c p3
102.36 268.33 0.65 c p3
102.64 257.90 0.65 c p3
102.92 247.81 0.65 c p3
103.20 254.45 0.65 c p3
103.48 255.60 0.65 c p3
103.76 242.16 0.65 c p3
104.04 242.16 0.65 c p3
104.32 248.75 0.65 c p3
104.60 245.55 0.65 c p3
104.88 239.92 0.65 c p3
105.16 246.68 0.65 c p3
105.44 239.92 0.65 c p3
105.72 242.16 0.65 c p3
106.00 241.04 0.65 c p3
106.28 229.90 0.65 c p3
106.56 238.79 0.65 c p3
106.84 236.56 0.65 c p3
107.12 229.90 0.65 c p3
107.40 229.90 0.65 c p3
107.68 235.45 0.65 c p3
107.96 229.90 0.65 c p3
108.24 225.49 0.65 c p3
108.52 224.39 0.65 c p3
108.80 223.29 0.65 c p3
109.08 220.02 0.65 c p3
109.36 222.20 0.65 c p3
109.64 221.11 0.65 c p3
109.92 222.20 0.65 c p3
110.20 212.61 0.65 c p3
110.48 212.61 0.65 c p3
110.76 216.94 0.65 c p3
111.04 218.93 0.65 c p3
111.32 213.69 0.65 c p3
111.60 204.03 0.65 c p3
111.88 212.61 0.65 c p3
112.16 216.94 0.65 c p3
112.44 202.97 0.65 c p3
112.72 211.53 0.65 c p3
113.00 204.03 0.65 c p3
113.28 218.02 0.65 c p3
113.56 206.17 0.65 c p3
113.84 200.85 0.65 c p3
114.12 209.38 0.65 c p3
114.40 210.46 0.65 c p3
114.68 199.79 0.65 c p3
114.96 200.85 0.65 c p3
115.24 200.85 0.65 c p3
115.52 199.79 0.65 c p3
115.80 193.46 0.65 c p3
116.08 198.73 0.65 c p3
116.36 200.85 0.65 c p3
116.64 192.42 0.65 c p3
116.92 193.46 0.65 c p3
117.20 193.46 0.65 c p3
117.48 195.57 0.65 c p3
117.76 194.51 0.65 c p3
118.04 185.29 0.65 c p3
118.32 186.33 0.65 c p3
118.60 191.37 0.65 c p3
118.88 186.33 0.65 c p3
119.16 186.33 0.65 c p3
119.44 193.46 0.65 c p3
119.72 187.37 0.65 c p3
120.00 182.19 0.65 c p3
120.28 176.02 0.65 c p3
120.56 189.45 0.65 c p3
120.84 184.26 0.65 c p3
121.12 176.02 0.65 c p3
121.40 181.16 0.65 c p3
121.68 177.05 0.65 c p3
121.96 182.19 0.65 c p3
122.24 171.94 0.65 c p3
122.52 176.02 0.65 c p3
122.80 177.05 0.65 c p3
123.08 185.29 0.65 c p3
123.36 169.91 0.65 c p3
123.64 171.94 0.65 c p3
123.92 173.98 0.65 c p3
124.20 181.16 0.65 c p3
124.48 168.90 0.65 c p3
124.76 168.90 0.65 c p3
125.04 170.92 0.65 c p3
125.32 176.02 0.65 c p3
125.60 167.88 0.65 c p3
125.88 163.85 0.65 c p3
126.16 166.87 0.65 c p3
126.44 163.85 0.65 c p3
126.72 162.84 0.65 c p3
127.00 161.00 0.65 c p3
127.28 163.85 0.65 c p3
127.56 163.85 0.65 c p3
127.84 166.87 0.65 c p3
128.12 165.86 0.65 c p3
128.40 160.00 0.65 c p3
128.68 158.00 0.65 c p3
128.96 154.03 0.65 c p3
129.24 162.84 0.65 c p3
129.52 159.01 0.65 c p3
129.80 159.01 0.65 c p3
130.08 154.03 0.65 c p3
130.36 159.01 0.65 c p3
130.64 153.04 0.65 c p3
130.92 154.03 0.65 c p3
131.20 157.01 0.65 c p3
131.48 159.01 0.65 c p3
131.76 157.01 0.65 c p3
132.04 146.14 0.65 c p3
132.32 145.16 0.65 c p3
132.60 154.03 0.65 c p3
132.88 148.10 0.65 c p3
133.16 144.18 0.65 c p3
133.44 151.06 0.65 c p3
133.72 156.01 0.65 c p3
134.00 151.06 0.65 c p3
134.28 145.16 0.65 c p3
134.56 143.20 0.65 c p3
134.84 150.07 0.65 c p3
135.12 144.18 0.65 c p3
135.40 147.12 0.65 c p3
135.68 144.18 0.65 c p3
135.96 145.16 0.65 c p3
136.24 141.26 0.65 c p3
136.52 139.31 0.65 c p3
136.80 144.18 0.65 c p3
137.08 144.18 0.65 c p3
137.36 140.28 0.65 c p3
137.64 145.16 0.65 c p3
137.92 144.18 0.65 c p3
138.20 141.26 0.65 c p3
138.48 136.40 0.65 c p3
138.76 136.40 0.65 c p3
139.04 149.09 0.65 c p3
139.32 138.34 0.65 c p3
139.60 134.63 0.65 c p3
139.88 135.60 0.65 c p3
140.16 141.26 0.65 c p3
140.44 129.83 0.65 c p3
140.72 134.63 0.65 c p3
141.00 128.87 0.65 c p3
141.28 139.31 0.65 c p3
141.56 126.96 0.65 c p3
141.84 132.71 0.65 c p3
142.12 133.67 0.65 c p3
142.40 132.71 0.65 c p3
142.68 127.91 0.65 c p3
142.96 131.74 0.65 c p3
143.24 131.74 0.65 c p3
143.52 135.60 0.65 c p3
143.80 130.78 0.65 c p3
144.08 126.01 0.65 c p3
144.36 132.71 0.65 c p3
144.64 131.74 0.65 c p3
144.92 122.20 0.65 c p3
145.20 126.96 0.65 c p3
145.48 129.83 0.65 c p3
145.76 126.01 0.65 c p3
146.04 124.10 0.65 c p3
146.32 125.05 0.65 c p3
146.60 135.60 0.65 c p3
146.88 126.96 0.65 c p3
147.16 116.54 0.65 c p3
147.44 122.20 0.65 c p3
147.72 126.01 0.65 c p3
148.00 123.15 0.65 c p3
148.28 117.48 0.65 c p3
148.56 128.87 0.65 c p3
148.84 125.05 0.65 c p3
149.12 124.10 0.65 c p3
149.40 124.10 0.65 c p3
149.68 121.26 0.65 c p3
149.96 123.15 0.65 c p3
150.24 117.48 0.65 c p3
150.52 116.54 0.65 c p3
150.80 121.26 0.65 c p3
151.08 119.37 0.65 c p3
151.36 118.42 0.65 c p3
151.64 124.10 0.65 c p3
151.92 119.37 0.65 c p3
152.20 115.60 0.65 c p3
152.48 109.22 0.65 c p3
152.76 118.42 0.65 c p3
153.04 123.15 0.65 c p3
153.32 120.31 0.65 c p3
153.60 110.93 0.65 c p3
153.88 120.31 0.65 c p3
154.16 119.37 0.65 c p3
154.44 116.54 0.65 c p3
154.72 115.60 0.65 c p3
155.00 112.79 0.65 c p3
155.28 112.79 0.65 c p3
155.56 112.79 0.65 c p3
155.84 112.79 0.65 c p3
156.12 119.37 0.65 c p3
156.40 110.93 0.65 c p3
156.68 111.86 0.65 c p3
156.96 111.86 0.65 c p3
157.24 112.79 0.65 c p3
157.52 108.29 0.65 c p3
157.80 109.22 0.65 c p3
158.08 115.60 0.65 c p3
158.36 112.79 0.65 c p3
158.64 106.43 0.65 c p3
158.92 109.22 0.65 c p3
159.20 112.79 0.65 c p3
159.48 108.29 0.65 c p3
159.76 107.36 0.65 c p3
160.04 107.36 0.65 c p3
160.32 107.36 0.65 c p3
160.60 109.22 0.65 c p3
160.88 99.98 0.65 c p3
161.16 111.86 0.65 c p3
161.44 105.51 0.65 c p3
161.72 107.36 0.65 c p3
162.00 106.43 0.65 c p3
162.28 105.51 0.65 c p3
162.56 108.29 0.65 c p3
162.84 106.43 0.65 c p3
163.12 110.93 0.65 c p3
163.40 105.51 0.65 c p3
163.68 105.51 0.65 c p3
163.96 103.66 0.65 c p3
164.24 103.66 0.65 c p3
164.52 99.98 0.65 c p3
164.80 99.06 0.65 c p3
165.08 110.93 0.65 c p3
165.36 105.51 0.65 c p3
165.64 101.82 0.65 c p3
165.92 108.29 0.65 c p3
166.20 106.43 0.65 c p3
166.48 102.74 0.65 c p3
166.76 99.98 0.65 c p3
167.04 99.06 0.65 c p3
167.32 105.51 0.65 c p3
167.60 100.90 0.65 c p3
167.88 104.58 0.65 c p3
168.16 99.06 0.65 c p3
168.44 104.58 0.65 c p3
168.72 95.41 0.65 c p3
169.00 98.15 0.65 c p3
169.28 99.06 0.65 c p3
169.56 101.82 0.65 c p3
169.84 101.82 0.65 c p3
170.12 99.98 0.65 c p3
170.40 102.74 0.65 c p3
170.68 102.74 0.65 c p3
170.96 99.98 0.65 c p3
171.24 97.23 0.65 c p3
171.52 94.50 0.65 c p3
171.80 99.06 0.65 c p3
172.08 91.77 0.65 c p3
172.36 96.32 0.65 c p3
172.64 104.58 0.65 c p3
172.92 103.66 0.65 c p3
173.20 95.41 0.65 c p3
173.48 97.23 0.65 c p3
173.76 105.51 0.65 c p3
174.04 99.98 0.65 c p3
174.32 95.41 0.65 c p3
174.60 99.98 0.65 c p3
174.88 102.74 0.65 c p3
175.16 89.05 0.65 c p3
175.44 95.41 0.65 c p3
175.72 105.51 0.65 c p3
176.00 101.82 0.65 c p3
176.28 97.23 0.65 c p3
176.56 86.35 0.65 c p3
176.84 99.06 0.65 c p3
177.12 97.23 0.65 c p3
177.40 95.41 0.65 c p3
177.68 93.58 0.65 c p3
177.96 95.41 0.65 c p3
178.24 94.50 0.65 c p3
178.52 90.86 0.65 c p3
178.80 94.50 0.65 c p3
179.08 100.90 0.65 c p3
179.36 90.86 0.65 c p3
179.64 89.96 0.65 c p3
179.92 97.23 0.65 c p3
180.20 94.50 0.65 c p3
180.48 96.32 0.65 c p3
180.76 88.15 0.65 c p3
181.04 97.23 0.65 c p3
181.32 94.50 0.65 c p3
181.60 90.86 0.65 c p3
181.88 89.96 0.65 c p3
182.16 98.15 0.65 c p3
182.44 92.68 0.65 c p3
182.72 84.70 0.65 c p3
183.00 93.58 0.65 c p3
183.28 90.86 0.65 c p3
183.56 86.35 0.65 c p3
183.84 88.15 0.65 c p3
184.12 93.58 0.65 c p3
184.40 86.35 0.65 c p3
184.68 90.86 0.65 c p3
184.96 88.15 0.65 c p3
185.24 89.96 0.65 c p3
185.52 92.68 0.65 c p3
185.80 88.15 0.65 c p3
186.08 86.35 0.65 c p3
186.36 89.05 0.65 c p3
186.64 89.96 0.65 c p3
186.92 87.25 0.65 c p3
187.20 86.35 0.65 c p3
187.48 87.25 0.65 c p3
187.76 91.77 0.65 c p3
188.04 87.25 0.65 c p3
188.32 83.80 0.65 c p3
188.60 91.77 0.65 c p3
188.88 86.35 0.65 c p3
189.16 84.70 0.65 c p3
189.44 86.35 0.65 c p3
189.72 93.58 0.65 c p3
190.00 89.05 0.65 c p3
190.28 89.96 0.65 c p3
190.56 86.35 0.65 c p3
190.84 91.77 0.65 c p3
191.12 89.05 0.65 c p3
191.40 84.70 0.65 c p3
191.68 88.15 0.65 c p3
191.96 91.77 0.65 c p3
192.24 86.35 0.65 c p3
192.52 87.25 0.65 c p3
192.80 89.96 0.65 c p3
193.08 90.86 0.65 c p3
193.36 85.60 0.65 c p3
193.64 84.70 0.65 c p3
193.92 86.35 0.65 c p3
194.20 87.25 0.65 c p3
194.48 82.91 0.65 c p3
194.76 91.77 0.65 c p3
195.04 90.86 0.65 c p3
195.32 75.78 0.65 c p3
195.60 85.60 0.65 c p3
195.88 88.15 0.65 c p3
196.16 84.70 0.65 c p3
196.44 77.55 0.65 c p3
196.72 88.15 0.65 c p3
197.00 86.35 0.65 c p3
197.28 81.12 0.65 c p3
197.56 82.91 0.65 c p3
197.84 83.80 0.65 c p3
198.12 83.80 0.65 c p3
198.40 88.15 0.65 c p3
198.68 82.91 0.65 c p3
198.96 81.12 0.65 c p3
199.24 85.60 0.65 c p3
199.52 79.33 0.65 c p3
199.80 79.33 0.65 c p3
200.08 82.01 0.65 c p3
200.36 84.70 0.65 c p3
200.64 82.01 0.65 c p3
200.92 75.78 0.65 c p3
201.20 84.70 0.65 c p3
201.48 84.70 0.65 c p3
201.76 77.55 0.65 c p3
202.04 84.70 0.65 c p3
202.32 83.80 0.65 c p3
202.60 78.44 0.65 c p3
202.88 82.01 0.65 c p3
203.16 80.22 0.65 c p3
203.44 84.70 0.65 c p3
203.72 78.44 0.65 c p3
204.00 75.78 0.65 c p3
204.28 81.12 0.65 c p3
204.56 87.25 0.65 c p3
204.84 77.55 0.65 c p3
205.12 78.44 0.65 c p3
205.40 87.25 0.65 c p3
205.68 85.60 0.65 c p3
205.96 80.22 0.65 c p3
206.24 78.44 0.65 c p3
206.52 79.33 0.65 c p3
206.80 81.12 0.65 c p3
207.08 80.22 0.65 c p3
207.36 82.91 0.65 c p3
207.64 83.80 0.65 c p3
207.92 74.89 0.65 c p3
208.20 80.22 0.65 c p3
208.48 80.22 0.65 c p3
208.76 82.01 0.65 c p3
209.04 74.00 0.65 c p3
209.32 80.22 0.65 c p3
209.60 77.55 0.65 c p3
209.88 76.66 0.65 c p3
210.16 81.12 0.65 c p3
210.44 77.55 0.65 c p3
210.72 81.12 0.65 c p3
211.00 79.33 0.65 c p3
211.28 79.33 0.65 c p3
211.56 78.44 0.65 c p3
211.84 78.44 0.65 c p3
212.12 82.91 0.65 c p3
212.40 79.33 0.65 c p3
212.68 82.01 0.65 c p3
212.96 79.33 0.65 c p3
213.24 76.66 0.65 c p3
213.52 76.66 0.65 c p3
213.80 79.33 0.65 c p3
214.08 77.55 0.65 c p3
214.36 78.44 0.65 c p3
214.64 80.22 0.65 c p3
214.92 79.33 0.65 c p3
215.20 82.01 0.65 c p3
215.48 77.55 0.65 c p3
215.76 79.33 0.65 c p3
216.04 75.78 0.65 c p3
216.32 76.66 0.65 c p3
216.60 80.22 0.65 c p3
216.88 75.78 0.65 c p3
217.16 80.22 0.65 c p3
217.44 78.44 0.65 c p3
217.72 82.91 0.65 c p3
218.00 75.78 0.65 c p3
218.28 81.12 0.65 c p3
218.56 81.12 0.65 c p3
218.84 75.78 0.65 c p3
219.12 79.33 0.65 c p3
219.40 76.66 0.65 c p3
219.68 75.78 0.65 c p3
219.96 81.12 0.65 c p3
220.24 76.66 0.65 c p3
220.52 74.89 0.65 c p3
220.80 77.55 0.65 c p3
221.08 78.44 0.65 c p3
221.36 76.66 0.65 c p3
221.64 74.89 0.65 c p3
221.92 76.66 0.65 c p3
222.20 75.78 0.65 c p3
222.48 69.60 0.65 c p3
222.76 76.66 0.65 c p3
223.04 77.55 0.65 c p3
223.32 75.78 0.65 c p3
223.60 76.66 0.65 c p3
223.88 76.66 0.65 c p3
224.16 79.33 0.65 c p3
224.44 69.60 0.65 c p3
224.72 74.00 0.65 c p3
225.00 73.12 0.65 c p3
225.28 74.00 0.65 c p3
225.56 76.66 0.65 c p3
225.84 79.33 0.65 c p3
226.12 74.89 0.65 c p3
226.40 77.55 0.65 c p3
226.68 76.66 0.65 c p3
226.96 74.00 0.65 c p3
227.24 73.12 0.65 c p3
227.52 76.66 0.65 c p3
227.80 73.12 0.65 c p3
228.08 75.78 0.65 c p3
228.36 76.66 0.65 c p3
228.64 77.55 0.65 c p3
228.92 73.12 0.65 c p3
229.20 70.48 0.65 c p3
229.48 74.89 0.65 c p3
229.76 70.48 0.65 c p3
230.04 78.44 0.65 c p3
230.32 78.44 0.65 c p3
230.60 74.89 0.65 c p3
230.88 75.78 0.65 c p3
231.16 71.36 0.65 c p3
231.44 71.36 0.65 c p3
231.72 70.48 0.65 c p3
232.00 76.66 0.65 c p3
232.28 73.12 0.65 c p3
232.56 81.12 0.65 c p3
232.84 74.89 0.65 c p3
233.12 74.89 0.65 c p3
233.40 69.60 0.65 c p3
233.68 73.12 0.65 c p3
233.96 77.55 0.65 c p3
234.24 74.00 0.65 c p3
234.52 82.01 0.65 c p3
234.80 74.00 0.65 c p3
235.08 73.12 0.65 c p3
235.36 74.89 0.65 c p3
235.64 75.78 0.65 c p3
235.92 77.55 0.65 c p3
236.20 71.36 0.65 c p3
236.48 72.24 0.65 c p3
236.76 76.66 0.65 c p3
237.04 72.24 0.65 c p3
237.32 67.84 0.65 c p3
237.60 74.89 0.65 c p3
237.88 75.78 0.65 c p3
238.16 74.00 0.65 c p3
238.44 75.78 0.65 c p3
238.72 75.78 0.65 c p3
239.00 76.66 0.65 c p3
239.28 70.48 0.65 c p3
239.56 71.36 0.65 c p3
239.84 78.44 0.65 c p3
240.12 74.00 0.65 c p3
240.40 76.66 0.65 c p3
240.68 79.33 0.65 c p3
240.96 73.12 0.65 c p3
241.24 75.78 0.65 c p3
241.52 72.24 0.65 c p3
241.80 69.60 0.65 c p3
242.08 71.36 0.65 c p3
242.36 71.36 0.65 c p3
242.64 75.78 0.65 c p3
242.92 73.12 0.65 c p3
243.20 74.00 0.65 c p3
243.48 76.66 0.65 c p3
243.76 66.97 0.65 c p3
244.04 67.84 0.65 c p3
244.32 78.44 0.65 c p3
244.60 72.24 0.65 c p3
244.88 75.78 0.65 c p3
245.16 74.00 0.65 c p3
245.44 74.00 0.65 c p3
245.72 73.12 0.65 c p3
246.00 69.60 0.65 c p3
246.28 72.24 0.65 c p3
246.56 71.36 0.65 c p3
246.84 72.24 0.65 c p3
247.12 73.12 0.65 c p3
247.40 67.84 0.65 c p3
247.68 74.00 0.65 c p3
247.96 74.00 0.65 c p3
248.24 71.36 0.65 c p3
248.52 73.12 0.65 c p3
248.80 70.48 0.65 c p3
249.08 74.00 0.65 c p3
249.36 71.36 0.65 c p3
249.64 75.78 0.65 c p3
249.92 76.66 0.65 c p3
250.20 71.36 0.65 c p3
250.48 74.00 0.65 c p3
250.76 68.72 0.65 c p3
251.04 73.12 0.65 c p3
251.32 73.12 0.65 c p3
251.60 68.72 0.65 c p3
251.88 70.48 0.65 c p3
252.16 74.89 0.65 c p3
252.44 67.84 0.65 c p3
252.72 66.09 0.65 c p3
253.00 70.48 0.65 c p3
253.28 65.22 0.65 c p3
253.56 72.24 0.65 c p3
253.84 70.48 0.65 c p3
254.12 66.97 0.65 c p3
254.40 76.66 0.65 c p3
254.68 70.48 0.65 c p3
254.96 73.12 0.65 c p3
255.24 78.44 0.65 c p3
255.52 76.66 0.65 c p3
255.80 68.72 0.65 c p3
256.08 69.60 0.65 c p3
256.36 74.00 0.65 c p3
256.64 65.22 0.65 c p3
256.92 70.48 0.65 c p3
257.20 72.24 0.65 c p3
257.48 71.36 0.65 c p3
257.76 73.12 0.65 c p3
258.04 71.36 0.65 c p3
258.32 66.97 0.65 c p3
258.60 64.34 0.65 c p3
258.88 71.36 0.65 c p3
259.16 70.48 0.65 c p3
259.44 66.97 0.65 c p3
259.72 69.60 0.65 c p3
260.00 70.48 0.65 c p3
260.28 75.78 0.65 c p3
260.56 74.89 0.65 c p3
260.84 77.55 0.65 c p3
261.12 69.60 0.65 c p3
261.40 66.97 0.65 c p3
261.68 71.36 0.65 c p3
261.96 71.36 0.65 c p3
262.24 68.72 0.65 c p3
262.52 79.33 0.65 c p3
262.80 73.12 0.65 c p3
263.08 71.36 0.65 c p3
263.36 69.60 0.65 c p3
263.64 71.36 0.65 c p3
263.92 66.09 0.65 c p3
264.20 67.84 0.65 c p3
264.48 72.24 0.65 c p3
264.76 73.12 0.65 c p3
265.04 72.24 0.65 c p3
265.32 66.97 0.65 c p3
265.60 66.97 0.65 c p3
265.88 72.24 0.65 c p3
266.16 72.24 0.65 c p3
266.44 73.12 0.65 c p3
266.72 70.48 0.65 c p3
267.00 69.60 0.65 c p3
267.28 66.09 0.65 c p3
267.56 71.36 0.65 c p3
267.84 69.60 0.65 c p3
268.12 66.97 0.65 c p3
268.40 72.24 0.65 c p3
268.68 73.12 0.65 c p3
268.96 74.00 0.65 c p3
269.24 69.60 0.65 c p3
269.52 67.84 0.65 c p3
269.80 73.12 0.65 c p3
270.08 66.09 0.65 c p3
270.36 66.97 0.65 c p3
270.64 66.97 0.65 c p3
270.92 72.24 0.65 c p3
271.20 70.48 0.65 c p3
271.48 67.84 0.65 c p3
271.76 65.22 0.65 c p3
272.04 69.60 0.65 c p3
272.32 69.60 0.65 c p3
272.60 68.72 0.65 c p3
272.88 69.60 0.65 c p3
273.16 68.72 0.65 c p3
273.44 67.84 0.65 c p3
273.72 70.48 0.65 c p3
274.00 70.48 0.65 c p3
274.28 71.36 0.65 c p3
274.56 67.84 0.65 c p3
274.84 68.72 0.65 c p3
275.12 77.55 0.65 c p3
275.40 68.72 0.65 c p3
275.68 70.48 0.65 c p3
275.96 75.78 0.65 c p3
276.24 70.48 0.65 c p3
276.52 67.84 0.65 c p3
276.80 71.36 0.65 c p3
277.08 72.24 0.65 c p3
277.36 69.60 0.65 c p3
277.64 71.36 0.65 c p3
277.92 66.97 0.65 c p3
278.20 72.24 0.65 c p3
278.48 72.24 0.65 c p3
278.76 66.97 0.65 c p3
279.04 66.09 0.65 c p3
279.32 66.97 0.65 c p3
279.60 62.60 0.65 c p3
279.88 67.84 0.65 c p3
280.16 70.48 0.65 c p3
280.44 65.22 0.65 c p3
280.72 67.84 0.65 c p3
281.00 67.84 0.65 c p3
281.28 63.47 0.65 c p3
281.56 67.84 0.65 c p3
281.84 66.97 0.65 c p3
282.12 67.84 0.65 c p3
282.40 67.84 0.65 c p3
282.68 66.97 0.65 c p3
282.96 69.60 0.65 c p3
283.24 73.12 0.65 c p3
283.52 70.48 0.65 c p3
283.80 66.97 0.65 c p3
284.08 67.84 0.65 c p3
284.36 72.24 0.65 c p3
284.64 69.60 0.65 c p3
284.92 73.12 0.65 c p3
285.20 70.48 0.65 c p3
285.48 64.34 0.65 c p3
285.76 66.09 0.65 c p3
286.04 66.09 0.65 c p3
286.32 69.60 0.65 c p3
286.60 66.09 0.65 c p3
286.88 69.60 0.65 c p3
287.16 64.34 0.65 c p3
287.44 72.24 0.65 c p3
287.72 70.48 0.65 c p3
288.00 66.09 0.65 c p3
288.28 66.97 0.65 c p3
288.56 72.24 0.65 c p3
288.84 72.24 0.65 c p3
289.12 69.60 0.65 c p3
289.40 66.97 0.65 c p3
289.68 67.84 0.65 c p3
289.96 66.97 0.65 c p3
290.24 66.97 0.65 c p3
290.52 69.60 0.65 c p3
290.80 63.47 0.65 c p3
291.08 68.72 0.65 c p3
291.36 70.48 0.65 c p3
291.64 67.84 0.65 c p3
291.92 66.97 0.65 c p3
216.00 201.60 367.20 247.68 cl
0 0 0 srgb
0.75 setlinewidth
[] 0 setdash
1 setlinecap
1 setlinejoin
10.00 setmiterlimit
221.60 229.87 0.43 c p1
221.80 232.57 0.43 c p1
222.01 228.03 0.43 c p1
222.21 229.50 0.43 c p1
222.42 228.56 0.43 c p1
222.62 220.52 0.43 c p1
222.83 220.78 0.43 c p1
223.03 238.86 0.43 c p1
223.24 229.52 0.43 c p1
223.44 220.52 0.43 c p1
223.65 228.77 0.43 c p1
223.85 231.33 0.43 c p1
224.06 218.85 0.43 c p1
224.26 220.21 0.43 c p1
224.47 228.36 0.43 c p1
224.67 226.40 0.43 c p1
224.87 221.93 0.43 c p1
225.08 230.22 0.43 c p1
225.28 224.56 0.43 c p1
225.49 228.18 0.43 c p1
225.69 228.31 0.43 c p1
225.90 218.11 0.43 c p1
226.10 228.56 0.43 c p1
226.31 227.52 0.43 c p1
226.51 221.91 0.43 c p1
226.72 223.16 0.43 c p1
226.92 230.11 0.43 c p1
227.13 225.62 0.43 c p1
227.33 222.30 0.43 c p1
227.54 222.37 0.43 c p1
227.74 222.45 0.43 c p1
227.95 220.26 0.43 c p1
228.15 223.70 0.43 c p1
228.35 223.74 0.43 c p1
228.56 226.04 0.43 c p1
228.76 217.31 0.43 c p1
228.97 218.46 0.43 c p1
229.17 224.06 0.43 c p1
229.38 227.24 0.43 c p1
229.58 222.97 0.43 c p1
229.79 214.13 0.43 c p1
229.99 224.08 0.43 c p1
230.20 229.64 0.43 c p1
230.40 216.33 0.43 c p1
230.61 226.24 0.43 c p1
230.81 219.59 0.43 c p1
231.02 235.07 0.43 c p1
231.22 223.92 0.43 c p1
231.42 219.48 0.43 c p1
231.63 229.32 0.43 c p1
231.83 231.47 0.43 c p1
232.04 221.50 0.43 c p1
232.24 223.61 0.43 c p1
232.45 224.63 0.43 c p1
232.65 224.54 0.43 c p1
232.86 219.02 0.43 c p1
233.06 225.44 0.43 c p1
233.27 228.61 0.43 c p1
233.47 220.89 0.43 c p1
233.68 222.94 0.43 c p1
233.88 223.90 0.43 c p1
234.09 227.03 0.43 c p1
234.29 226.89 0.43 c p1
234.49 218.32 0.43 c p1
234.70 220.33 0.43 c p1
234.90 226.45 0.43 c p1
235.11 222.18 0.43 c p1
235.31 223.09 0.43 c p1
235.52 231.35 0.43 c p1
235.72 225.97 0.43 c p1
235.93 221.53 0.43 c p1
236.13 216.05 0.43 c p1
236.34 230.78 0.43 c p1
236.54 226.30 0.43 c p1
236.75 218.68 0.43 c p1
236.95 224.83 0.43 c p1
237.16 221.45 0.43 c p1
237.36 227.60 0.43 c p1
237.56 217.88 0.43 c p1
237.77 222.92 0.43 c p1
237.97 224.81 0.43 c p1
238.18 234.13 0.43 c p1
238.38 219.09 0.43 c p1
238.59 222.00 0.43 c p1
238.79 224.91 0.43 c p1
239.00 233.10 0.43 c p1
239.20 221.26 0.43 c p1
239.41 222.05 0.43 c p1
239.61 224.92 0.43 c p1
239.82 230.95 0.43 c p1
240.02 223.34 0.43 c p1
240.23 219.94 0.43 c p1
240.43 223.82 0.43 c p1
240.64 221.46 0.43 c p1
240.84 221.17 0.43 c p1
241.04 220.02 0.43 c p1
241.25 223.69 0.43 c p1
241.45 224.42 0.43 c p1
241.66 228.26 0.43 c p1
241.86 227.94 0.43 c p1
242.07 222.62 0.43 c p1
242.27 221.27 0.43 c p1
242.48 217.87 0.43 c p1
242.68 227.66 0.43 c p1
242.89 224.40 0.43 c p1
243.09 225.09 0.43 c p1
243.30 220.64 0.43 c p1
243.50 226.46 0.43 c p1
243.71 220.98 0.43 c p1
243.91 222.67 0.43 c p1
244.11 226.41 0.43 c p1
244.32 229.13 0.43 c p1
244.52 227.72 0.43 c p1
244.73 217.17 0.43 c p1
244.93 216.81 0.43 c p1
245.14 226.59 0.43 c p1
245.34 221.12 0.43 c p1
245.55 217.71 0.43 c p1
245.75 225.42 0.43 c p1
245.96 231.15 0.43 c p1
246.16 226.66 0.43 c p1
246.37 221.19 0.43 c p1
246.57 219.79 0.43 c p1
246.78 227.47 0.43 c p1
246.98 222.00 0.43 c p1
247.18 225.62 0.43 c p1
247.39 223.18 0.43 c p1
247.59 224.78 0.43 c p1
247.80 221.34 0.43 c p1
248.00 219.91 0.43 c p1
248.21 225.51 0.43 c p1
248.41 226.07 0.43 c p1
248.62 222.62 0.43 c p1
248.82 228.21 0.43 c p1
249.03 227.76 0.43 c p1
249.23 225.30 0.43 c p1
249.44 220.84 0.43 c p1
249.64 221.39 0.43 c p1
249.85 235.00 0.43 c p1
250.05 224.46 0.43 c p1
250.25 221.17 0.43 c p1
250.46 222.70 0.43 c p1
250.66 229.05 0.43 c p1
250.87 217.79 0.43 c p1
251.07 223.26 0.43 c p1
251.28 217.84 0.43 c p1
251.48 229.11 0.43 c p1
251.69 216.88 0.43 c p1
251.89 223.31 0.43 c p1
252.10 224.80 0.43 c p1
252.30 224.30 0.43 c p1
252.51 219.86 0.43 c p1
252.71 224.29 0.43 c p1
252.92 224.77 0.43 c p1
253.12 229.23 0.43 c p1
253.33 224.74 0.43 c p1
253.53 220.29 0.43 c p1
253.73 227.67 0.43 c p1
253.94 227.14 0.43 c p1
254.14 217.77 0.43 c p1
254.35 223.13 0.43 c p1
254.55 226.54 0.43 c p1
254.76 223.06 0.43 c p1
254.96 221.55 0.43 c p1
255.17 222.97 0.43 c p1
255.37 234.28 0.43 c p1
255.58 225.82 0.43 c p1
255.78 215.52 0.43 c p1
255.99 221.79 0.43 c p1
256.19 226.14 0.43 c p1
256.40 223.62 0.43 c p1
256.60 218.20 0.43 c p1
256.80 230.36 0.43 c p1
257.01 226.84 0.43 c p1
257.21 226.28 0.43 c p1
257.42 226.69 0.43 c p1
257.62 224.17 0.43 c p1
257.83 226.52 0.43 c p1
258.03 221.08 0.43 c p1
258.24 220.51 0.43 c p1
258.44 225.77 0.43 c p1
258.65 224.22 0.43 c p1
258.85 223.63 0.43 c p1
259.06 229.87 0.43 c p1
259.26 225.38 0.43 c p1
259.47 221.88 0.43 c p1
259.67 215.68 0.43 c p1
259.87 225.54 0.43 c p1
260.08 230.79 0.43 c p1
260.28 228.23 0.43 c p1
260.49 218.93 0.43 c p1
260.69 228.97 0.43 c p1
260.90 228.36 0.43 c p1
261.10 225.80 0.43 c p1
261.31 225.19 0.43 c p1
261.51 222.65 0.43 c p1
261.72 223.00 0.43 c p1
261.92 223.35 0.43 c p1
262.13 223.70 0.43 c p1
262.33 230.82 0.43 c p1
262.54 222.46 0.43 c p1
262.74 223.76 0.43 c p1
262.95 224.10 0.43 c p1
263.15 225.40 0.43 c p1
263.35 221.09 0.43 c p1
263.56 222.37 0.43 c p1
263.76 229.28 0.43 c p1
263.97 226.71 0.43 c p1
264.17 220.48 0.43 c p1
264.38 223.67 0.43 c p1
264.58 227.67 0.43 c p1
264.79 223.34 0.43 c p1
264.99 222.70 0.43 c p1
265.20 223.01 0.43 c p1
265.40 223.32 0.43 c p1
265.61 225.54 0.43 c p1
265.81 216.32 0.43 c p1
266.02 228.87 0.43 c p1
266.22 222.62 0.43 c p1
266.42 224.83 0.43 c p1
266.63 224.16 0.43 c p1
266.83 223.50 0.43 c p1
267.04 226.66 0.43 c p1
267.24 225.04 0.43 c p1
267.45 229.96 0.43 c p1
267.65 224.65 0.43 c p1
267.86 224.94 0.43 c p1
268.06 223.31 0.43 c p1
268.27 223.59 0.43 c p1
268.47 220.07 0.43 c p1
268.68 219.40 0.43 c p1
268.88 231.90 0.43 c p1
269.09 226.59 0.43 c p1
269.29 223.05 0.43 c p1
269.49 229.99 0.43 c p1
269.70 228.34 0.43 c p1
269.90 224.79 0.43 c p1
270.11 222.21 0.43 c p1
270.31 221.52 0.43 c p1
270.52 228.42 0.43 c p1
270.72 223.92 0.43 c p1
270.93 227.97 0.43 c p1
271.13 222.53 0.43 c p1
271.34 228.47 0.43 c p1
271.54 219.26 0.43 c p1
271.75 222.33 0.43 c p1
271.95 223.52 0.43 c p1
272.16 226.60 0.43 c p1
272.36 226.84 0.43 c p1
272.56 225.18 0.43 c p1
272.77 228.26 0.43 c p1
272.97 228.50 0.43 c p1
273.18 225.89 0.43 c p1
273.38 223.28 0.43 c p1
273.59 220.69 0.43 c p1
273.79 225.63 0.43 c p1
274.00 218.34 0.43 c p1
274.20 223.25 0.43 c p1
274.41 231.99 0.43 c p1
274.61 231.26 0.43 c p1
274.82 222.97 0.43 c p1
275.02 225.07 0.43 c p1
275.23 233.82 0.43 c p1
275.43 228.34 0.43 c p1
275.64 223.84 0.43 c p1
275.84 228.76 0.43 c p1
276.04 231.82 0.43 c p1
276.25 217.92 0.43 c p1
276.45 224.67 0.43 c p1
276.66 235.29 0.43 c p1
276.86 231.69 0.43 c p1
277.07 227.17 0.43 c p1
277.27 216.15 0.43 c p1
277.48 229.45 0.43 c p1
277.68 227.76 0.43 c p1
277.89 226.08 0.43 c p1
278.09 224.40 0.43 c p1
278.30 226.47 0.43 c p1
278.50 225.72 0.43 c p1
278.71 222.17 0.43 c p1
278.91 226.10 0.43 c p1
279.11 232.89 0.43 c p1
279.32 222.73 0.43 c p1
279.52 221.98 0.43 c p1
279.73 229.66 0.43 c p1
279.93 227.03 0.43 c p1
280.14 229.09 0.43 c p1
280.34 220.85 0.43 c p1
280.55 230.39 0.43 c p1
280.75 227.74 0.43 c p1
280.96 224.17 0.43 c p1
281.16 223.41 0.43 c p1
281.37 232.03 0.43 c p1
281.57 226.56 0.43 c p1
281.78 218.51 0.43 c p1
281.98 227.84 0.43 c p1
282.18 225.20 0.43 c p1
282.39 220.71 0.43 c p1
282.59 222.74 0.43 c p1
282.80 228.50 0.43 c p1
283.00 221.21 0.43 c p1
283.21 226.02 0.43 c p1
283.41 223.39 0.43 c p1
283.62 225.41 0.43 c p1
283.82 228.37 0.43 c p1
284.03 223.86 0.43 c p1
284.23 222.16 0.43 c p1
284.44 225.11 0.43 c p1
284.64 226.19 0.43 c p1
284.85 223.55 0.43 c p1
285.05 222.78 0.43 c p1
285.25 223.85 0.43 c p1
285.46 228.66 0.43 c p1
285.66 224.15 0.43 c p1
285.87 220.75 0.43 c p1
286.07 229.11 0.43 c p1
286.28 223.66 0.43 c p1
286.48 222.11 0.43 c p1
286.69 223.95 0.43 c p1
286.89 231.55 0.43 c p1
287.10 227.02 0.43 c p1
287.30 228.09 0.43 c p1
287.51 224.51 0.43 c p1
287.71 230.24 0.43 c p1
287.92 227.57 0.43 c p1
288.12 223.22 0.43 c p1
288.33 226.91 0.43 c p1
288.53 230.78 0.43 c p1
288.73 225.32 0.43 c p1
288.94 226.38 0.43 c p1
289.14 229.30 0.43 c p1
289.35 230.37 0.43 c p1
289.55 225.07 0.43 c p1
289.76 224.27 0.43 c p1
289.96 226.10 0.43 c p1
290.17 227.15 0.43 c p1
290.37 222.80 0.43 c p1
290.58 232.06 0.43 c p1
290.78 231.25 0.43 c p1
290.99 215.82 0.43 c p1
291.19 226.07 0.43 c p1
291.40 228.82 0.43 c p1
291.60 225.38 0.43 c p1
291.80 218.13 0.43 c p1
292.01 229.18 0.43 c p1
292.21 227.44 0.43 c p1
292.42 222.16 0.43 c p1
292.62 224.12 0.43 c p1
292.83 225.16 0.43 c p1
293.03 225.27 0.43 c p1
293.24 229.87 0.43 c p1
293.44 224.57 0.43 c p1
293.65 222.84 0.43 c p1
293.85 227.57 0.43 c p1
294.06 221.22 0.43 c p1
294.26 221.33 0.43 c p1
294.47 224.20 0.43 c p1
294.67 227.07 0.43 c p1
294.87 224.41 0.43 c p1
295.08 218.09 0.43 c p1
295.28 227.39 0.43 c p1
295.49 227.50 0.43 c p1
295.69 220.23 0.43 c p1
295.90 227.70 0.43 c p1
296.10 226.88 0.43 c p1
296.31 221.45 0.43 c p1
296.51 225.23 0.43 c p1
296.72 223.49 0.43 c p1
296.92 228.20 0.43 c p1
297.13 221.85 0.43 c p1
297.33 219.20 0.43 c p1
297.54 224.80 0.43 c p1
297.74 231.22 0.43 c p1
297.95 221.32 0.43 c p1
298.15 222.33 0.43 c p1
298.35 231.50 0.43 c p1
298.56 229.89 0.43 c p1
298.76 224.45 0.43 c p1
298.97 222.70 0.43 c p1
299.17 223.71 0.43 c p1
299.38 225.64 0.43 c p1
299.58 224.81 0.43 c p1
299.79 227.66 0.43 c p1
299.99 228.68 0.43 c p1
300.20 219.58 0.43 c p1
300.40 225.16 0.43 c p1
300.61 225.25 0.43 c p1
300.81 227.17 0.43 c p1
301.02 219.01 0.43 c p1
301.22 225.50 0.43 c p1
301.42 222.83 0.43 c p1
301.63 222.00 0.43 c p1
301.83 226.67 0.43 c p1
302.04 223.08 0.43 c p1
302.24 226.84 0.43 c p1
302.45 225.08 0.43 c p1
302.65 225.16 0.43 c p1
302.86 224.32 0.43 c p1
303.06 224.40 0.43 c p1
303.27 229.08 0.43 c p1
303.47 225.48 0.43 c p1
303.68 228.31 0.43 c p1
303.88 225.63 0.43 c p1
304.09 222.95 0.43 c p1
304.29 223.03 0.43 c p1
304.49 225.86 0.43 c p1
304.70 224.09 0.43 c p1
304.90 225.09 0.43 c p1
305.11 227.00 0.43 c p1
305.31 226.15 0.43 c p1
305.52 228.98 0.43 c p1
305.72 224.46 0.43 c p1
305.93 226.37 0.43 c p1
306.13 222.77 0.43 c p1
306.34 223.76 0.43 c p1
306.54 227.50 0.43 c p1
306.75 222.98 0.43 c p1
306.95 227.63 0.43 c p1
307.16 225.87 0.43 c p1
307.36 230.54 0.43 c p1
307.56 223.25 0.43 c p1
307.77 228.82 0.43 c p1
307.97 228.89 0.43 c p1
308.18 223.45 0.43 c p1
308.38 227.18 0.43 c p1
308.59 224.50 0.43 c p1
308.79 223.65 0.43 c p1
309.00 229.22 0.43 c p1
309.20 224.69 0.43 c p1
309.41 222.93 0.43 c p1
309.61 225.73 0.43 c p1
309.82 226.71 0.43 c p1
310.02 224.94 0.43 c p1
310.23 223.17 0.43 c p1
310.43 225.06 0.43 c p1
310.64 224.21 0.43 c p1
310.84 217.90 0.43 c p1
311.04 225.24 0.43 c p1
311.25 226.21 0.43 c p1
311.45 224.44 0.43 c p1
311.66 225.41 0.43 c p1
311.86 225.47 0.43 c p1
312.07 228.28 0.43 c p1
312.27 218.30 0.43 c p1
312.48 222.90 0.43 c p1
312.68 222.05 0.43 c p1
312.89 223.01 0.43 c p1
313.09 225.81 0.43 c p1
313.30 228.61 0.43 c p1
313.50 224.09 0.43 c p1
313.71 226.89 0.43 c p1
313.91 226.02 0.43 c p1
314.11 223.34 0.43 c p1
314.32 222.48 0.43 c p1
314.52 226.18 0.43 c p1
314.73 222.58 0.43 c p1
314.93 225.37 0.43 c p1
315.14 226.34 0.43 c p1
315.34 227.30 0.43 c p1
315.55 222.79 0.43 c p1
315.75 220.11 0.43 c p1
315.96 224.71 0.43 c p1
316.16 220.21 0.43 c p1
316.37 228.47 0.43 c p1
316.57 228.52 0.43 c p1
316.78 224.91 0.43 c p1
316.98 225.87 0.43 c p1
317.18 221.36 0.43 c p1
317.39 221.41 0.43 c p1
317.59 220.55 0.43 c p1
317.80 226.97 0.43 c p1
318.00 223.36 0.43 c p1
318.21 231.65 0.43 c p1
318.41 225.28 0.43 c p1
318.62 225.33 0.43 c p1
318.82 219.91 0.43 c p1
319.03 223.59 0.43 c p1
319.23 228.20 0.43 c p1
319.44 224.59 0.43 c p1
319.64 232.88 0.43 c p1
319.85 224.67 0.43 c p1
320.05 223.81 0.43 c p1
320.25 225.67 0.43 c p1
320.46 226.63 0.43 c p1
320.66 228.50 0.43 c p1
320.87 222.16 0.43 c p1
321.07 223.11 0.43 c p1
321.28 227.71 0.43 c p1
321.48 223.19 0.43 c p1
321.69 218.70 0.43 c p1
321.89 226.00 0.43 c p1
322.10 226.96 0.43 c p1
322.30 225.17 0.43 c p1
322.51 227.03 0.43 c p1
322.71 227.07 0.43 c p1
322.92 228.03 0.43 c p1
323.12 221.69 0.43 c p1
323.33 222.63 0.43 c p1
323.53 229.97 0.43 c p1
323.73 225.44 0.43 c p1
323.94 228.22 0.43 c p1
324.14 231.00 0.43 c p1
324.35 224.64 0.43 c p1
324.55 227.41 0.43 c p1
324.76 223.80 0.43 c p1
324.96 221.11 0.43 c p1
325.17 222.96 0.43 c p1
325.37 223.00 0.43 c p1
325.58 227.59 0.43 c p1
325.78 224.89 0.43 c p1
325.99 225.83 0.43 c p1
326.19 228.61 0.43 c p1
326.40 218.65 0.43 c p1
326.60 219.58 0.43 c p1
326.80 230.54 0.43 c p1
327.01 224.18 0.43 c p1
327.21 227.86 0.43 c p1
327.42 226.07 0.43 c p1
327.62 226.10 0.43 c p1
327.83 225.22 0.43 c p1
328.03 221.62 0.43 c p1
328.24 224.38 0.43 c p1
328.44 223.50 0.43 c p1
328.65 224.44 0.43 c p1
328.85 225.38 0.43 c p1
329.06 219.97 0.43 c p1
329.26 226.35 0.43 c p1
329.47 226.38 0.43 c p1
329.67 223.68 0.43 c p1
329.87 225.53 0.43 c p1
330.08 222.84 0.43 c p1
330.28 226.50 0.43 c p1
330.49 223.80 0.43 c p1
330.69 228.39 0.43 c p1
330.90 229.33 0.43 c p1
331.10 223.89 0.43 c p1
331.31 226.65 0.43 c p1
331.51 221.23 0.43 c p1
331.72 225.79 0.43 c p1
331.92 225.82 0.43 c p1
332.13 221.31 0.43 c p1
332.33 223.15 0.43 c p1
332.54 227.73 0.43 c p1
332.74 220.49 0.43 c p1
332.95 218.71 0.43 c p1
333.15 223.26 0.43 c p1
333.35 217.86 0.43 c p1
333.56 225.13 0.43 c p1
333.76 223.34 0.43 c p1
333.97 219.75 0.43 c p1
334.17 229.77 0.43 c p1
334.38 223.42 0.43 c p1
334.58 226.17 0.43 c p1
334.79 231.68 0.43 c p1
334.99 229.87 0.43 c p1
335.20 221.70 0.43 c p1
335.40 222.63 0.43 c p1
335.61 227.20 0.43 c p1
335.81 218.17 0.43 c p1
336.02 223.61 0.43 c p1
336.22 225.45 0.43 c p1
336.42 224.57 0.43 c p1
336.63 226.41 0.43 c p1
336.83 224.61 0.43 c p1
337.04 220.11 0.43 c p1
337.24 217.43 0.43 c p1
337.45 224.68 0.43 c p1
337.65 223.80 0.43 c p1
337.86 220.20 0.43 c p1
338.06 222.94 0.43 c p1
338.27 223.87 0.43 c p1
338.47 229.35 0.43 c p1
338.68 228.46 0.43 c p1
338.88 231.22 0.43 c p1
339.09 223.05 0.43 c p1
339.29 220.36 0.43 c p1
339.49 224.90 0.43 c p1
339.70 224.92 0.43 c p1
339.90 222.23 0.43 c p1
340.11 233.19 0.43 c p1
340.31 226.80 0.43 c p1
340.52 225.01 0.43 c p1
340.72 223.21 0.43 c p1
340.93 225.05 0.43 c p1
341.13 219.64 0.43 c p1
341.34 221.46 0.43 c p1
341.54 226.02 0.43 c p1
341.75 226.94 0.43 c p1
341.95 226.05 0.43 c p1
342.16 220.64 0.43 c p1
342.36 220.66 0.43 c p1
342.56 226.11 0.43 c p1
342.77 226.13 0.43 c p1
342.97 227.06 0.43 c p1
343.18 224.35 0.43 c p1
343.38 223.46 0.43 c p1
343.59 219.87 0.43 c p1
343.79 225.31 0.43 c p1
344.00 223.52 0.43 c p1
344.20 220.82 0.43 c p1
344.41 226.28 0.43 c p1
344.61 227.20 0.43 c p1
344.82 228.13 0.43 c p1
345.02 223.61 0.43 c p1
345.23 221.81 0.43 c p1
345.43 227.27 0.43 c p1
345.64 220.04 0.43 c p1
345.84 220.96 0.43 c p1
346.04 220.98 0.43 c p1
346.25 226.43 0.43 c p1
346.45 224.63 0.43 c p1
346.66 221.93 0.43 c p1
346.86 219.24 0.43 c p1
347.07 223.77 0.43 c p1
347.27 223.79 0.43 c p1
347.48 222.90 0.43 c p1
347.68 223.82 0.43 c p1
347.89 222.93 0.43 c p1
348.09 222.04 0.43 c p1
348.30 224.78 0.43 c p1
348.50 224.79 0.43 c p1
348.71 225.71 0.43 c p1
348.91 222.10 0.43 c p1
349.11 223.02 0.43 c p1
349.32 232.14 0.43 c p1
349.52 223.05 0.43 c p1
349.73 224.88 0.43 c p1
349.93 230.36 0.43 c p1
350.14 224.91 0.43 c p1
350.34 222.21 0.43 c p1
350.55 225.85 0.43 c p1
350.75 226.77 0.43 c p1
350.96 224.06 0.43 c p1
351.16 225.89 0.43 c p1
351.37 221.37 0.43 c p1
351.57 226.82 0.43 c p1
351.78 226.84 0.43 c p1
351.98 221.42 0.43 c p1
352.18 220.53 0.43 c p1
352.39 221.44 0.43 c p1
352.59 216.96 0.43 c p1
352.80 222.37 0.43 c p1
353.00 225.10 0.43 c p1
353.21 219.69 0.43 c p1
353.41 222.41 0.43 c p1
353.62 222.42 0.43 c p1
353.82 217.93 0.43 c p1
354.03 222.45 0.43 c p1
354.23 221.56 0.43 c p1
354.44 222.47 0.43 c p1
354.64 222.49 0.43 c p1
354.85 221.59 0.43 c p1
355.05 224.32 0.43 c p1
355.25 227.96 0.43 c p1
355.46 225.25 0.43 c p1
355.66 221.64 0.43 c p1
355.87 222.56 0.43 c p1
356.07 227.10 0.43 c p1
356.28 224.39 0.43 c p1
356.48 228.03 0.43 c p1
356.69 225.32 0.43 c p1
356.89 219.01 0.43 c p1
357.10 220.82 0.43 c p1
357.30 220.83 0.43 c p1
357.51 224.46 0.43 c p1
357.71 220.85 0.43 c p1
357.92 224.48 0.43 c p1
358.12 219.08 0.43 c p1
358.33 227.22 0.43 c p1
358.53 225.42 0.43 c p1
358.73 220.91 0.43 c p1
358.94 221.82 0.43 c p1
359.14 227.27 0.43 c p1
359.35 227.28 0.43 c p1
359.55 224.56 0.43 c p1
359.76 221.86 0.43 c p1
359.96 222.77 0.43 c p1
360.17 221.88 0.43 c p1
360.37 221.89 0.43 c p1
360.58 224.61 0.43 c p1
360.78 218.31 0.43 c p1
360.99 223.73 0.43 c p1
361.19 225.55 0.43 c p1
361.40 222.84 0.43 c p1
361.60 221.95 0.43 c p1
0.00 0.00 432.00 576.00 cl
0 0 0 srgb
0.75 setlinewidth
[] 0 setdash
1 setlinecap
1 setlinejoin
10.00 setmiterlimit
np
219.55 201.60 m
122.81 0 l
o
np
219.55 201.60 m
0 -5.76 l
o
np
260.49 201.60 m
0 -5.76 l
o
np
301.42 201.60 m
0 -5.76 l
o
np
342.36 201.60 m
0 -5.76 l
o
/Font1 findfont 6 s
219.55 185.47 (0) .5 0 t
260.49 185.47 (500) .5 0 t
301.42 185.47 (1000) .5 0 t
342.36 185.47 (1500) .5 0 t
np
216.00 208.05 m
0 33.18 l
o
np
216.00 208.05 m
-5.76 0 l
o
np
216.00 216.35 m
-5.76 0 l
o
np
216.00 224.64 m
-5.76 0 l
o
np
216.00 232.93 m
-5.76 0 l
o
np
216.00 241.23 m
-5.76 0 l
o
209.09 205.90 (-0.010) 1 0 t
209.09 214.19 (-0.005) 1 0 t
209.09 222.49 (0.000) 1 0 t
209.09 230.78 (0.005) 1 0 t
209.09 239.07 (0.010) 1 0 t
np
216.00 201.60 m
151.20 0 l
0 46.08 l
-151.20 0 l
0 -46.08 l
o
0.00 0.00 432.00 576.00 cl
/Font1 findfont 9 s
0 0 0 srgb
291.60 262.88 (Residuals) .5 0 t
59.04 73.44 401.76 516.96 cl
ep
%%Trailer
%%Pages: 1
%%EOF
