%!PS-Adobe-3.0 EPSF-3.0
%%DocumentNeededResources: font Helvetica
%%+ font Helvetica-Bold
%%+ font Helvetica-Oblique
%%+ font Helvetica-BoldOblique
%%+ font Symbol
%%Title: R Graphics Output
%%Creator: R Software
%%Pages: (atend)
%%BoundingBox: 0 0 432 576
%%EndComments
%%BeginProlog
/bp  { gs sRGB gs } def
% begin .ps.prolog
/gs  { gsave } bind def
/gr  { grestore } bind def
/ep  { showpage gr gr } bind def
/m   { moveto } bind def
/l  { rlineto } bind def
/np  { newpath } bind def
/cp  { closepath } bind def
/f   { fill } bind def
/o   { stroke } bind def
/c   { newpath 0 360 arc } bind def
/r   { 4 2 roll moveto 1 copy 3 -1 roll exch 0 exch rlineto 0 rlineto -1 mul 0 exch rlineto closepath } bind def
/p1  { stroke } bind def
/p2  { gsave bg fill grestore newpath } bind def
/p3  { gsave bg fill grestore stroke } bind def
/p6  { gsave bg eofill grestore newpath } bind def
/p7  { gsave bg eofill grestore stroke } bind def
/t   { 5 -2 roll moveto gsave rotate
       1 index stringwidth pop
       mul neg 0 rmoveto show grestore } bind def
/ta  { 4 -2 roll moveto gsave rotate show } bind def
/tb  { 2 -1 roll 0 rmoveto show } bind def
/cl  { grestore gsave newpath 3 index 3 index moveto 1 index
       4 -1 roll lineto  exch 1 index lineto lineto
       closepath clip newpath } bind def
/rgb { setrgbcolor } bind def
/s   { scalefont setfont } bind def
% end   .ps.prolog
/sRGB { [ /CIEBasedABC
          << /DecodeLMN
               [ { dup 0.03928 le
                        {12.92321 div}
                        {0.055 add 1.055 div 2.4 exp }
                     ifelse
                 } bind dup dup
               ]
             /MatrixLMN [0.412457 0.212673 0.019334
                         0.357576 0.715152 0.119192
                         0.180437 0.072175 0.950301]
             /WhitePoint [0.9505 1.0 1.0890]
           >>
         ] setcolorspace } bind def
/srgb { setcolor } bind def
% begin encoding
/WinAnsiEncoding [
 /.notdef /.notdef /.notdef /.notdef /.notdef /.notdef /.notdef /.notdef
 /.notdef /.notdef /.notdef /.notdef /.notdef /.notdef /.notdef /.notdef
 /.notdef /.notdef /.notdef /.notdef /.notdef /.notdef /.notdef /.notdef
 /.notdef /.notdef /.notdef /.notdef /.notdef /.notdef /.notdef /.notdef
 /space /exclam /quotedbl /numbersign /dollar /percent /ampersand /quoteright
 /parenleft /parenright /asterisk /plus /comma /minus /period /slash
 /zero /one /two /three /four /five /six /seven
 /eight /nine /colon /semicolon /less /equal /greater /question
 /at /A /B /C /D /E /F /G
 /H /I /J /K /L /M /N /O
 /P /Q /R /S /T /U /V /W
 /X /Y /Z /bracketleft /backslash /bracketright /asciicircum /underscore
 /grave /a /b /c /d /e /f /g
 /h /i /j /k /l /m /n /o
 /p /q /r /s /t /u /v /w
 /x /y /z /braceleft /bar /braceright /asciitilde /.notdef
 /Euro /.notdef /quotesinglbase /florin /quotedblbase /ellipsis /dagger /daggerdbl
 /circumflex /perthousand /Scaron /guilsinglleft /OE /.notdef /Zcaron /.notdef
 /.notdef /quoteleft /quoteright /quotedblleft /quotedblright /bullet /endash /emdash
 /tilde /trademark /scaron /guilsinglright /oe /.notdef /zcaron /Ydieresis
 /space /exclamdown /cent /sterling /currency /yen /brokenbar /section
 /dieresis /copyright /ordfeminine /guillemotleft /logicalnot /hyphen /registered /macron
 /degree /plusminus /twosuperior /threesuperior /acute /mu /paragraph /periodcentered
 /cedilla /onesuperior /ordmasculine /guillemotright /onequarter /onehalf /threequarters /questiondown
 /Agrave /Aacute /Acircumflex /Atilde /Adieresis /Aring /AE /Ccedilla
 /Egrave /Eacute /Ecircumflex /Edieresis /Igrave /Iacute /Icircumflex /Idieresis
 /Eth /Ntilde /Ograve /Oacute /Ocircumflex /Otilde /Odieresis /multiply
 /Oslash /Ugrave /Uacute /Ucircumflex /Udieresis /Yacute /Thorn /germandbls
 /agrave /aacute /acircumflex /atilde /adieresis /aring /ae /ccedilla
 /egrave /eacute /ecircumflex /edieresis /igrave /iacute /icircumflex /idieresis
 /eth /ntilde /ograve /oacute /ocircumflex /otilde /odieresis /divide
 /oslash /ugrave /uacute /ucircumflex /udieresis /yacute /thorn /ydieresis
]
 def
% end encoding
%%IncludeResource: font Helvetica
/Helvetica findfont
dup length dict begin
  {1 index /FID ne {def} {pop pop} ifelse} forall
  /Encoding WinAnsiEncoding def
  currentdict
  end
/Font1 exch definefont pop
%%IncludeResource: font Helvetica-Bold
/Helvetica-Bold findfont
dup length dict begin
  {1 index /FID ne {def} {pop pop} ifelse} forall
  /Encoding WinAnsiEncoding def
  currentdict
  end
/Font2 exch definefont pop
%%IncludeResource: font Helvetica-Oblique
/Helvetica-Oblique findfont
dup length dict begin
  {1 index /FID ne {def} {pop pop} ifelse} forall
  /Encoding WinAnsiEncoding def
  currentdict
  end
/Font3 exch definefont pop
%%IncludeResource: font Helvetica-BoldOblique
/Helvetica-BoldOblique findfont
dup length dict begin
  {1 index /FID ne {def} {pop pop} ifelse} forall
  /Encoding WinAnsiEncoding def
  currentdict
  end
/Font4 exch definefont pop
%%IncludeResource: font Symbol
/Symbol findfont
dup length dict begin
  {1 index /FID ne {def} {pop pop} ifelse} forall
  currentdict
  end
/Font5 exch definefont pop
%%EndProlog
%%Page: 1 1
bp
/bg { 1 1 1 srgb } def
0.00 0.00 432.00 576.00 r p2
0.00 0.00 432.00 576.00 cl
0.00 0.00 432.00 576.00 cl
0.00 0.00 432.00 576.00 cl
/Font1 findfont 12 s
0 0 0 srgb
48.00 508.72 (PCP-ETH) 0 0 t
48.00 494.89 (Flash light photolysis) 0 0 t
/Font1 findfont 9 s
48.00 457.54 (File: T) 0 ta
-1.080 (emper) tb
-0.090 (ature_dependence_10_MSLM.dat) tb gr
48.00 334.87 (T) 0 ta
-1.080 (ue Mar 08 17:21:02 2022) tb gr
48.00 430.87 (Fit function:  a + b * e) 0 ta
-0.270 (xp\(-c * t\)) tb gr
48.00 420.50 (t-Inter) 0 ta
0.270 (v) tb
-0.225 (all: 15.000 ... 438.000 ms) tb gr
48.00 410.14 (P) 0 ta
-0.360 (ar) tb
-0.090 (ameters \(Standard de) tb
-0.270 (viation\):) tb gr
48.00 399.77 (  a = -0.00988 \(0.00028\)) 0 0 t
48.00 389.40 (  b = 0.14087 \(0.00083\)) 0 0 t
48.00 379.03 (  c = 1.108e+01 \(1.216e-01\) s^-1) 0 0 t
48.00 368.66 (  tau = 9.023e-02 \(9.898e-04\) s) 0 0 t
216.00 345.60 388.80 518.40 cl
0 0 0 srgb
0.75 setlinewidth
[] 0 setdash
1 setlinecap
1 setlinejoin
10.00 setmiterlimit
np
222.40 453.78 m
0.15 0.85 l
0.14 -0.71 l
0.15 -0.29 l
0.14 0.29 l
0.15 0.12 l
0.14 1.47 l
0.15 0.29 l
0.14 0 l
0.15 0 l
0.15 -1.88 l
0.14 0.71 l
0.15 1.03 l
0.14 -1.18 l
0.15 -0.44 l
0.14 0 l
0.15 0.30 l
0.14 -0.15 l
0.15 -0.85 l
0.15 0.29 l
0.14 1.59 l
0.15 -0.88 l
0.14 0.14 l
0.15 -0.44 l
0.14 1.03 l
0.15 -0.59 l
0.15 0.44 l
0.14 -0.58 l
0.15 0.88 l
0.14 -0.74 l
0.15 0.15 l
0.14 -0.15 l
0.15 0 l
0.14 0.88 l
0.15 0 l
0.15 -0.73 l
0.14 0 l
0.15 0.29 l
0.14 -0.44 l
0.15 -0.29 l
0.14 0.59 l
0.15 -0.15 l
0.14 -0.44 l
0.15 0.29 l
0.15 -0.29 l
0.14 0 l
0.15 0.15 l
0.14 0.73 l
0.15 -1.03 l
0.14 0.15 l
0.15 0.59 l
0.14 0.73 l
0.15 -0.44 l
0.15 -0.59 l
0.14 0.30 l
0.15 -0.15 l
0.14 0.15 l
0.15 -0.30 l
0.14 -0.70 l
0.15 1.44 l
0.15 -0.44 l
0.14 -0.74 l
0.15 1.18 l
0.14 0.29 l
0.15 -0.59 l
0.14 0.88 l
0.15 -0.58 l
0.14 0.44 l
0.15 0.87 l
0.15 -1.90 l
0.14 0.59 l
0.15 0.29 l
0.14 -0.88 l
0.15 0.73 l
0.14 0 l
0.15 -0.14 l
0.14 0.29 l
0.15 0.73 l
0.15 -0.29 l
0.14 -0.44 l
0.15 -0.29 l
0.14 0.14 l
0.15 0.30 l
0.14 -0.30 l
0.15 0.30 l
0.14 1.02 l
0.15 -1.76 l
0.15 1.03 l
0.14 -0.44 l
0.15 0.88 l
0.14 -0.44 l
0.15 -0.44 l
0.14 -0.15 l
0.15 -1.32 l
0.15 1.47 l
0.14 0.29 l
0.15 -0.29 l
0.14 -0.29 l
0.15 -0.59 l
0.14 -0.44 l
236.96 512.00 lineto
0.14 -87.51 l
0.15 1.19 l
0.15 1.00 l
0.14 -1.30 l
0.15 3.06 l
0.14 -0.44 l
0.15 0.44 l
0.14 1.17 l
0.15 -0.88 l
0.14 0.29 l
0.15 0.29 l
0.15 1.30 l
0.14 1.17 l
0.15 -0.15 l
0.14 1.03 l
0.15 -0.15 l
0.14 -1.02 l
0.15 1.61 l
0.14 0 l
0.15 -0.73 l
0.15 1.31 l
0.14 -0.14 l
0.15 -0.15 l
0.14 0.59 l
0.15 0.85 l
0.14 -0.44 l
0.15 0.59 l
0.15 -0.59 l
0.14 2.05 l
0.15 -1.17 l
0.14 0.59 l
0.15 -0.15 l
0.14 0.44 l
0.15 -0.44 l
0.14 0.73 l
0.15 -1.17 l
0.15 1.76 l
0.14 0.44 l
0.15 -0.15 l
0.14 0.59 l
0.15 -0.59 l
0.14 0.44 l
0.15 -0.29 l
0.14 0.58 l
0.15 0.42 l
0.15 0.88 l
0.14 -1.03 l
0.15 1.32 l
0.14 0.15 l
0.15 -0.44 l
0.14 -0.73 l
0.15 1.31 l
0.14 0.74 l
0.15 -0.74 l
0.15 0.30 l
0.14 0.44 l
0.15 0.29 l
0.14 -0.73 l
0.15 0 l
0.14 0.58 l
0.15 1.32 l
0.15 -0.58 l
0.14 -0.15 l
0.15 0.73 l
0.14 0.42 l
0.15 -0.42 l
0.14 -0.29 l
0.15 0 l
0.14 1.29 l
0.15 -0.58 l
0.15 0.58 l
0.14 0.59 l
0.15 -0.44 l
0.14 0.29 l
0.15 -0.29 l
0.14 -0.29 l
0.15 1.02 l
0.14 0.44 l
0.15 -0.44 l
0.15 0.29 l
0.14 1.18 l
0.15 0.43 l
0.14 -1.61 l
0.15 0 l
0.14 1.61 l
0.15 0.15 l
0.14 -0.29 l
0.15 0.14 l
0.15 0.42 l
0.14 0 l
0.15 -1.15 l
0.14 0.30 l
0.15 0.70 l
0.14 0.44 l
0.15 0.15 l
0.15 -1.15 l
0.14 0.71 l
0.15 0 l
0.14 -0.42 l
251.52 445.91 lineto
0.14 -0.14 l
0.15 0.85 l
0.14 0.30 l
0.15 -0.15 l
0.15 -0.59 l
0.14 1.47 l
0.15 0 l
0.14 -0.88 l
0.15 0.73 l
0.14 0.59 l
0.15 -0.44 l
0.14 0 l
0.15 1.02 l
0.15 0.30 l
0.14 -0.44 l
0.15 -0.30 l
0.14 0.59 l
0.15 0.15 l
0.14 0.14 l
0.15 0 l
0.14 -0.14 l
0.15 0.29 l
0.15 0.44 l
0.14 -1.76 l
0.15 0.44 l
0.14 0.88 l
0.15 -0.29 l
0.14 0.29 l
0.15 -0.29 l
0.14 0.14 l
0.15 2.03 l
0.15 -1.73 l
0.14 -0.88 l
0.15 1.17 l
0.14 0.85 l
0.15 -0.70 l
0.14 -0.44 l
0.15 1.00 l
0.15 0.14 l
0.14 -0.85 l
0.15 0.29 l
0.14 -0.58 l
0.15 0.85 l
0.14 0.44 l
0.15 0.29 l
0.14 0.59 l
0.15 -0.29 l
0.15 0.14 l
0.14 -0.73 l
0.15 1.03 l
0.14 -0.59 l
0.15 0.29 l
0.14 -1.17 l
0.15 1.17 l
0.14 1.03 l
0.15 -1.47 l
0.15 -0.44 l
0.14 0.15 l
0.15 1.46 l
0.14 -0.29 l
0.15 -1.02 l
0.14 0.29 l
0.15 0.15 l
0.14 -0.15 l
0.15 0.29 l
0.15 -0.88 l
0.14 1.61 l
0.15 -0.29 l
0.14 -0.58 l
0.15 1.17 l
0.14 0.88 l
0.15 -1.76 l
0.15 0.58 l
0.14 -0.43 l
0.15 1.17 l
0.14 -0.59 l
0.15 -0.29 l
0.14 0.58 l
0.15 0.30 l
0.14 -0.30 l
0.15 -1.46 l
0.15 1.61 l
0.14 0.59 l
0.15 0.58 l
0.14 -1.32 l
0.15 -0.14 l
0.14 1.73 l
0.15 -0.15 l
0.14 -1.29 l
0.15 0.44 l
0.15 0.44 l
0.14 0.29 l
0.15 -2.05 l
0.14 1.76 l
0.15 0 l
0.14 0.71 l
0.15 -1.88 l
0.14 -0.15 l
0.15 0.88 l
266.08 452.75 lineto
0.14 -0.59 l
0.15 1.88 l
0.14 0.30 l
0.15 -0.56 l
0.14 -0.30 l
0.15 -0.14 l
0.15 0.70 l
0.14 0.74 l
0.15 -1.44 l
0.14 0.70 l
0.15 0.59 l
0.14 -1.15 l
0.15 -0.29 l
0.14 -0.15 l
0.15 1.00 l
0.15 0.30 l
0.14 -0.71 l
0.15 0.15 l
0.14 0.56 l
0.15 0.58 l
0.14 -2.17 l
0.15 1.44 l
0.14 0.59 l
0.15 -1.59 l
0.15 0.85 l
0.14 -0.12 l
0.15 0.27 l
0.14 -0.15 l
0.15 -0.85 l
0.14 0.59 l
0.15 0.70 l
0.14 0.44 l
0.15 -1.00 l
0.15 0.56 l
0.14 0.15 l
0.15 -0.71 l
0.14 0.12 l
0.15 0.59 l
0.14 -0.44 l
0.15 0.88 l
0.15 -0.73 l
0.14 -1.15 l
0.15 2.03 l
0.14 -1.30 l
0.15 0.56 l
0.14 0.30 l
0.15 0.29 l
0.14 0.15 l
0.15 -0.59 l
0.15 0.59 l
0.14 0.29 l
0.15 -0.44 l
0.14 0 l
0.15 0 l
0.14 0.73 l
0.15 0 l
0.14 -1.46 l
0.15 -0.42 l
0.15 1.59 l
0.14 -0.73 l
0.15 -0.59 l
0.14 0.73 l
0.15 0.74 l
0.14 0 l
0.15 -0.44 l
0.14 0.29 l
0.15 0.44 l
0.15 -0.29 l
0.14 -0.44 l
0.15 0.44 l
0.14 0 l
0.15 -1.47 l
0.14 0.73 l
0.15 -0.44 l
0.15 0.30 l
0.14 1.46 l
0.15 -1.90 l
0.14 0.73 l
0.15 0.59 l
0.14 -0.59 l
0.15 -0.88 l
0.14 0.88 l
0.15 0.88 l
0.15 0 l
0.14 -0.88 l
0.15 -0.44 l
0.14 1.47 l
0.15 -1.03 l
0.14 0.44 l
0.15 0.73 l
0.14 -0.44 l
0.15 -0.14 l
0.15 -0.44 l
0.14 0 l
0.15 1.02 l
0.14 -0.58 l
0.15 0.44 l
0.14 -0.59 l
0.15 -0.15 l
280.63 455.66 lineto
0.15 -0.88 l
0.15 0.14 l
0.14 1.47 l
0.15 -0.44 l
0.14 -0.73 l
0.15 1.17 l
0.14 0.29 l
0.15 -0.58 l
0.15 -1.03 l
0.14 1.32 l
0.15 0.14 l
0.14 -1.02 l
0.15 -0.44 l
0.14 1.32 l
0.15 0.29 l
0.14 0.29 l
0.15 -2.05 l
0.15 0.88 l
0.14 0.73 l
0.15 0.59 l
0.14 -1.46 l
0.15 0.14 l
0.14 0.73 l
0.15 -0.43 l
0.14 -0.30 l
0.15 0 l
0.15 0.30 l
0.14 0.29 l
0.15 0.14 l
0.14 -0.29 l
0.15 0.59 l
0.14 -0.30 l
0.15 -0.43 l
0.14 0.29 l
0.15 -0.15 l
0.15 -0.29 l
0.14 0 l
0.15 0 l
0.14 0.73 l
0.15 -0.44 l
0.14 -0.73 l
0.15 0.88 l
0.14 0.29 l
0.15 -0.44 l
0.15 -0.58 l
0.14 0.44 l
0.15 1.31 l
0.14 -1.31 l
0.15 -0.15 l
0.14 0.88 l
0.15 0.44 l
0.15 -0.44 l
0.14 -1.47 l
0.15 1.17 l
0.14 0.30 l
0.15 0 l
0.14 -0.73 l
0.15 0.29 l
0.14 1.02 l
0.15 -0.14 l
0.15 -1.32 l
0.14 0.58 l
0.15 0.59 l
0.14 0.29 l
0.15 -0.73 l
0.14 0.15 l
0.15 0 l
0.14 0.73 l
0.15 -1.46 l
0.15 0.43 l
0.14 0.30 l
0.15 0.44 l
0.14 -1.61 l
0.15 1.17 l
0.14 0 l
0.15 0.29 l
0.14 -1.32 l
0.15 1.32 l
0.15 0.15 l
0.14 -0.59 l
0.15 -0.88 l
0.14 0.30 l
0.15 0.73 l
0.14 1.14 l
0.15 -1.58 l
0.15 0.29 l
0.14 1.03 l
0.15 -0.74 l
0.14 0.15 l
0.15 -0.29 l
0.14 -0.15 l
0.15 -0.44 l
0.14 -0.14 l
0.15 0.43 l
0.15 1.18 l
0.14 -0.30 l
0.15 -0.88 l
0.14 0 l
0.15 1.18 l
295.19 456.53 lineto
0.15 -0.73 l
0.14 1.32 l
0.15 0.73 l
0.15 0 l
0.14 -1.90 l
0.15 0.58 l
0.14 0.44 l
0.15 0.30 l
0.14 -1.91 l
0.15 1.76 l
0.14 0.44 l
0.15 0 l
0.15 -0.44 l
0.14 -0.44 l
0.15 1.03 l
0.14 -0.74 l
0.15 -0.87 l
0.14 0.58 l
0.15 0.88 l
0.15 0 l
0.14 -1.46 l
0.15 0.73 l
0.14 1.14 l
0.15 -0.85 l
0.14 -0.15 l
0.15 0.74 l
0.14 0.85 l
0.15 -1.44 l
0.15 -0.29 l
0.14 0.29 l
0.15 1.29 l
0.14 -1.44 l
0.15 -0.44 l
0.14 1.03 l
0.15 0.71 l
0.14 -0.42 l
0.15 -1.61 l
0.15 0.59 l
0.14 0.44 l
0.15 -0.15 l
0.14 -0.29 l
0.15 0.14 l
0.14 1.00 l
0.15 -0.70 l
0.14 -0.59 l
0.15 0.44 l
0.15 1.44 l
0.14 -1.00 l
0.15 -1.32 l
0.14 0.15 l
0.15 2.02 l
0.14 -1.44 l
0.15 0.30 l
0.15 -0.44 l
0.14 0.88 l
0.15 -1.03 l
0.14 -0.88 l
0.15 1.47 l
0.14 -0.30 l
0.15 0.30 l
0.14 -0.44 l
0.15 1.02 l
0.15 0.42 l
0.14 -0.56 l
0.15 -1.32 l
0.14 0.58 l
0.15 0.74 l
0.14 -0.74 l
0.15 0.74 l
0.14 0.26 l
0.15 0.59 l
0.15 -1.44 l
0.14 -0.29 l
0.15 1.44 l
0.14 -0.30 l
0.15 0.15 l
0.14 -0.27 l
0.15 0.27 l
0.14 0.59 l
0.15 -2.03 l
0.15 -0.15 l
0.14 1.32 l
0.15 0.27 l
0.14 0 l
0.15 0 l
0.14 0 l
0.15 -0.27 l
0.15 0.56 l
0.14 -1.29 l
0.15 0.85 l
0.14 0.74 l
0.15 -1.88 l
0.14 1.58 l
0.15 -0.85 l
0.14 0.85 l
0.15 -0.70 l
0.15 0 l
0.14 -0.15 l
0.15 -0.15 l
309.75 457.12 lineto
0.15 0.85 l
0.14 0.74 l
0.15 -0.59 l
0.14 -1.44 l
0.15 0.73 l
0.15 0.86 l
0.14 0 l
0.15 -0.56 l
0.14 0.85 l
0.15 -0.44 l
0.14 -0.27 l
0.15 -0.44 l
0.14 0.56 l
0.15 0.30 l
0.15 -0.86 l
0.14 0.15 l
0.15 0.41 l
0.14 -0.56 l
0.15 0.71 l
0.14 -0.71 l
0.15 0.86 l
0.15 -0.56 l
0.14 -0.74 l
0.15 0.59 l
0.14 0.56 l
0.15 -0.15 l
0.14 0.30 l
0.15 -0.30 l
0.14 0.74 l
0.15 -0.44 l
0.15 -0.42 l
0.14 0 l
0.15 0.86 l
0.14 -0.59 l
0.15 -0.15 l
0.14 -0.12 l
0.15 0.71 l
0.14 -0.44 l
0.15 -1.00 l
0.15 0.15 l
0.14 1.14 l
0.15 -0.14 l
0.14 -1.00 l
0.15 0.44 l
0.14 0.56 l
0.15 0.73 l
0.14 -1.44 l
0.15 0.41 l
0.15 0.15 l
0.14 0.88 l
0.15 -1.73 l
0.14 0.85 l
0.15 0.15 l
0.14 -0.42 l
0.15 -0.73 l
0.15 -0.15 l
0.14 1.44 l
0.15 -0.70 l
0.14 0.14 l
0.15 0.71 l
0.14 -0.44 l
0.15 -0.71 l
0.14 -0.14 l
0.15 1.14 l
0.15 0.74 l
0.14 -1.30 l
0.15 -0.88 l
0.14 1.74 l
0.15 0.29 l
0.14 -1.03 l
0.15 -0.56 l
0.14 1.00 l
0.15 -0.29 l
0.15 -0.27 l
0.14 0.12 l
0.15 0.88 l
0.14 -0.88 l
0.15 -0.12 l
0.14 0.56 l
0.15 -0.14 l
0.14 0.58 l
0.15 -1.29 l
0.15 0.56 l
0.14 0.44 l
0.15 0.59 l
0.14 -0.88 l
0.15 -0.86 l
0.14 0.56 l
0.15 1.18 l
0.14 -1.88 l
0.15 0.70 l
0.15 0.74 l
0.14 0 l
0.15 -1.00 l
0.14 -0.30 l
0.15 0.71 l
0.14 1.03 l
0.15 -1.44 l
0.15 -0.44 l
324.31 458.71 lineto
0.15 0.14 l
0.14 -0.73 l
0.15 -0.15 l
0.14 0.59 l
0.15 0.15 l
0.14 -0.59 l
0.15 -1.44 l
0.15 2.03 l
0.14 0 l
0.15 0 l
0.14 -0.44 l
0.15 0.73 l
0.14 -0.15 l
0.15 -0.44 l
0.14 -0.29 l
0.15 0.15 l
0.15 0.14 l
0.14 -0.44 l
0.15 0.59 l
0.14 -0.29 l
0.15 -0.15 l
0.14 -0.56 l
0.15 -0.73 l
0.14 1.02 l
0.15 1.00 l
0.15 -0.73 l
0.14 -0.41 l
0.15 0.70 l
0.14 0.74 l
0.15 -0.44 l
0.14 -0.30 l
0.15 0.15 l
0.15 0.59 l
0.14 0.14 l
0.15 -1.17 l
0.14 -1.00 l
0.15 1.44 l
0.14 -0.85 l
0.15 0 l
0.14 0.14 l
0.15 2.03 l
0.15 -1.91 l
0.14 0 l
0.15 0.88 l
0.14 -0.29 l
0.15 0.15 l
0.14 -0.59 l
0.15 0.15 l
0.14 0 l
0.15 0.44 l
0.15 -1.15 l
0.14 0.71 l
0.15 1.90 l
0.14 -1.46 l
0.15 -0.74 l
0.14 0.74 l
0.15 -0.30 l
0.14 -0.29 l
0.15 -0.15 l
0.15 0.59 l
0.14 0.29 l
0.15 -0.44 l
0.14 -0.70 l
0.15 0.14 l
0.14 1.44 l
0.15 -0.58 l
0.15 -0.44 l
0.14 0.29 l
0.15 0.44 l
0.14 0.44 l
0.15 -2.03 l
0.14 0.56 l
0.15 0.59 l
0.14 -0.29 l
0.15 -0.71 l
0.15 0.56 l
0.14 0.15 l
0.15 0.88 l
0.14 -0.88 l
0.15 -0.42 l
0.14 0.12 l
0.15 1.03 l
0.14 -0.15 l
0.15 -0.73 l
0.15 0.73 l
0.14 0.44 l
0.15 -0.58 l
0.14 -0.44 l
0.15 0.88 l
0.14 0 l
0.15 0.73 l
0.14 -1.61 l
0.15 0.58 l
0.15 -0.73 l
0.14 0.59 l
0.15 -0.59 l
0.14 -0.15 l
0.15 1.03 l
0.14 -0.88 l
338.87 457.97 lineto
0.15 0.44 l
0.14 -0.29 l
0.15 1.32 l
0.14 -1.47 l
0.15 0.44 l
0.14 0.44 l
0.15 -0.29 l
0.14 -0.29 l
0.15 0 l
0.15 0.44 l
0.14 -0.74 l
0.15 -0.26 l
0.14 0.85 l
0.15 1.03 l
0.14 -0.44 l
0.15 -1.59 l
0.14 1.59 l
0.15 0.14 l
0.15 -0.88 l
0.14 -0.70 l
0.15 1.00 l
0.14 0.29 l
0.15 -0.88 l
0.14 -0.15 l
0.15 0.15 l
0.14 0.73 l
0.15 -0.14 l
0.15 -0.74 l
0.14 0.88 l
0.15 -0.14 l
0.14 -0.30 l
0.15 0.15 l
0.14 0.15 l
0.15 0.58 l
0.15 -0.14 l
0.14 0 l
0.15 -1.44 l
0.14 0.85 l
0.15 1.03 l
0.14 -0.44 l
0.15 -1.18 l
0.14 0.15 l
0.15 1.03 l
0.15 0.88 l
0.14 -0.88 l
0.15 -0.74 l
0.14 0.88 l
0.15 -0.29 l
0.14 0.15 l
0.15 0 l
0.14 -0.15 l
0.15 0.29 l
0.15 0.88 l
0.14 -0.58 l
0.15 0.29 l
0.14 -0.44 l
0.15 -0.73 l
0.14 -1.15 l
0.15 1.59 l
0.14 0 l
0.15 -0.15 l
0.15 -0.15 l
0.14 -0.14 l
0.15 0.44 l
0.14 -0.59 l
0.15 -0.85 l
0.14 1.29 l
0.15 -0.15 l
0.15 1.18 l
0.14 -1.03 l
0.15 -0.44 l
0.14 0.15 l
0.15 -0.30 l
0.14 -0.14 l
0.15 -0.15 l
0.14 0.88 l
0.15 -0.29 l
0.15 -1.59 l
0.14 1.44 l
0.15 0.44 l
0.14 -0.44 l
0.15 -1.15 l
0.14 0.71 l
0.15 1.32 l
0.14 -1.17 l
0.15 0.58 l
0.15 -0.14 l
0.14 -0.44 l
0.15 0.29 l
0.14 -0.15 l
0.15 -0.70 l
0.14 1.58 l
0.15 -0.14 l
0.14 -0.44 l
0.15 -0.15 l
0.15 0.15 l
0.14 -0.30 l
0.15 -0.70 l
0.14 1.73 l
353.43 460.46 lineto
0.14 -1.31 l
0.15 -0.15 l
0.14 0.44 l
0.15 0.29 l
0.15 -0.73 l
0.14 -0.15 l
0.15 1.03 l
0.14 0.88 l
0.15 -1.61 l
0.14 0.73 l
0.15 0 l
0.15 0.44 l
0.14 -2.35 l
0.15 0.59 l
0.14 1.90 l
0.15 0.15 l
0.14 -1.17 l
0.15 -0.29 l
0.14 0.14 l
0.15 -0.73 l
0.15 0 l
0.14 -0.44 l
0.15 1.03 l
0.14 -0.59 l
0.15 0.73 l
0.14 -0.73 l
0.15 -0.15 l
0.14 0.44 l
0.15 -0.58 l
0.15 0.14 l
0.14 0.59 l
0.15 -0.44 l
0.14 0.15 l
0.15 0 l
0.14 0 l
0.15 -0.30 l
0.14 -0.14 l
0.15 -0.30 l
0.15 1.03 l
0.14 0.44 l
0.15 -0.44 l
0.14 -1.03 l
0.15 0.74 l
0.14 -0.15 l
0.15 -0.29 l
0.15 0.88 l
0.14 0.29 l
0.15 -0.15 l
0.14 -0.44 l
0.15 0 l
0.14 0.88 l
0.15 -0.73 l
0.14 0.44 l
0.15 -0.73 l
0.15 0.88 l
0.14 -0.30 l
0.15 -0.88 l
0.14 0.88 l
0.15 0.30 l
0.14 -0.88 l
0.15 -0.59 l
0.14 1.17 l
0.15 1.61 l
0.15 -1.31 l
0.14 -1.03 l
0.15 1.03 l
0.14 1.02 l
0.15 -0.73 l
0.14 -0.59 l
0.15 -0.14 l
0.14 1.46 l
0.15 -1.02 l
0.15 -1.62 l
0.14 0.59 l
0.15 1.17 l
0.14 -0.29 l
0.15 -0.44 l
0.14 -0.44 l
0.15 1.61 l
0.15 -0.58 l
0.14 -1.32 l
0.15 0.29 l
0.14 0.59 l
0.15 0 l
0.14 -0.15 l
0.15 -0.59 l
0.14 -0.14 l
0.15 0.29 l
0.15 -0.29 l
0.14 0 l
0.15 0.29 l
0.14 0.44 l
0.15 -0.44 l
0.14 0.29 l
0.15 0 l
0.14 1.32 l
0.15 -1.02 l
0.15 0.29 l
0.14 -0.29 l
currentpoint o m
367.99 459.15 lineto
0.14 -1.03 l
0.15 0.88 l
0.14 -0.29 l
0.15 -0.44 l
0.14 0.73 l
0.15 0 l
0.15 0 l
0.14 0.15 l
0.15 -0.74 l
0.14 0.74 l
0.15 -0.30 l
0.14 0.30 l
0.15 0.73 l
0.15 -0.73 l
0.14 0.44 l
0.15 0.58 l
0.14 -1.02 l
0.15 0.29 l
0.14 -0.59 l
0.15 0.15 l
0.14 0 l
0.15 -0.59 l
0.15 1.18 l
0.14 0.29 l
0.15 -1.17 l
0.14 0.14 l
0.15 1.32 l
0.14 -0.14 l
0.15 -1.03 l
0.14 0.59 l
0.15 1.31 l
0.15 -1.46 l
0.14 -0.44 l
0.15 1.03 l
0.14 -0.44 l
0.15 0.14 l
0.14 -0.88 l
0.15 0.15 l
0.14 -0.15 l
0.15 -0.29 l
0.15 0.73 l
0.14 -0.14 l
0.15 0.44 l
0.14 0.44 l
0.15 -1.62 l
0.14 1.03 l
0.15 0.29 l
0.15 -0.44 l
0.14 -0.88 l
0.15 0.30 l
0.14 0.44 l
0.15 0.58 l
0.14 -0.88 l
0.15 -0.29 l
0.14 0.29 l
0.15 0.15 l
0.15 -0.59 l
0.14 0 l
0.15 1.32 l
0.14 -0.44 l
0.15 -0.73 l
0.14 0.15 l
0.15 0.14 l
0.14 0.74 l
0.15 -1.18 l
0.15 1.03 l
0.14 0.59 l
0.15 0.29 l
0.14 -1.91 l
0.15 1.32 l
0.14 0.30 l
0.15 -0.44 l
0.14 0.29 l
0.15 -1.03 l
0.15 1.18 l
0.14 -0.59 l
0.15 -0.73 l
0.14 0.58 l
0.15 0.15 l
0.14 0.29 l
0.15 -0.73 l
0.15 0.59 l
0.14 0.44 l
0.15 -1.18 l
0.14 0.30 l
0.15 0.58 l
0.14 0.59 l
0.15 -0.29 l
0.14 -1.62 l
0.15 0.44 l
0.15 1.18 l
0.14 0.43 l
0.15 -2.19 l
0.14 0.73 l
0.15 1.32 l
0.14 -0.44 l
0.15 -1.61 l
0.14 1.90 l
0.15 -0.73 l
o
/bg { 1 1 1 srgb } def
222.40 453.78 0.43 c p3
222.55 454.63 0.43 c p3
222.69 453.92 0.43 c p3
222.84 453.63 0.43 c p3
222.98 453.92 0.43 c p3
223.13 454.04 0.43 c p3
223.27 455.51 0.43 c p3
223.42 455.80 0.43 c p3
223.56 455.80 0.43 c p3
223.71 455.80 0.43 c p3
223.86 453.92 0.43 c p3
224.00 454.63 0.43 c p3
224.15 455.66 0.43 c p3
224.29 454.48 0.43 c p3
224.44 454.04 0.43 c p3
224.58 454.04 0.43 c p3
224.73 454.34 0.43 c p3
224.87 454.19 0.43 c p3
225.02 453.34 0.43 c p3
225.17 453.63 0.43 c p3
225.31 455.22 0.43 c p3
225.46 454.34 0.43 c p3
225.60 454.48 0.43 c p3
225.75 454.04 0.43 c p3
225.89 455.07 0.43 c p3
226.04 454.48 0.43 c p3
226.19 454.92 0.43 c p3
226.33 454.34 0.43 c p3
226.48 455.22 0.43 c p3
226.62 454.48 0.43 c p3
226.77 454.63 0.43 c p3
226.91 454.48 0.43 c p3
227.06 454.48 0.43 c p3
227.20 455.36 0.43 c p3
227.35 455.36 0.43 c p3
227.50 454.63 0.43 c p3
227.64 454.63 0.43 c p3
227.79 454.92 0.43 c p3
227.93 454.48 0.43 c p3
228.08 454.19 0.43 c p3
228.22 454.78 0.43 c p3
228.37 454.63 0.43 c p3
228.51 454.19 0.43 c p3
228.66 454.48 0.43 c p3
228.81 454.19 0.43 c p3
228.95 454.19 0.43 c p3
229.10 454.34 0.43 c p3
229.24 455.07 0.43 c p3
229.39 454.04 0.43 c p3
229.53 454.19 0.43 c p3
229.68 454.78 0.43 c p3
229.82 455.51 0.43 c p3
229.97 455.07 0.43 c p3
230.12 454.48 0.43 c p3
230.26 454.78 0.43 c p3
230.41 454.63 0.43 c p3
230.55 454.78 0.43 c p3
230.70 454.48 0.43 c p3
230.84 453.78 0.43 c p3
230.99 455.22 0.43 c p3
231.14 454.78 0.43 c p3
231.28 454.04 0.43 c p3
231.43 455.22 0.43 c p3
231.57 455.51 0.43 c p3
231.72 454.92 0.43 c p3
231.86 455.80 0.43 c p3
232.01 455.22 0.43 c p3
232.15 455.66 0.43 c p3
232.30 456.53 0.43 c p3
232.45 454.63 0.43 c p3
232.59 455.22 0.43 c p3
232.74 455.51 0.43 c p3
232.88 454.63 0.43 c p3
233.03 455.36 0.43 c p3
233.17 455.36 0.43 c p3
233.32 455.22 0.43 c p3
233.46 455.51 0.43 c p3
233.61 456.24 0.43 c p3
233.76 455.95 0.43 c p3
233.90 455.51 0.43 c p3
234.05 455.22 0.43 c p3
234.19 455.36 0.43 c p3
234.34 455.66 0.43 c p3
234.48 455.36 0.43 c p3
234.63 455.66 0.43 c p3
234.77 456.68 0.43 c p3
234.92 454.92 0.43 c p3
235.07 455.95 0.43 c p3
235.21 455.51 0.43 c p3
235.36 456.39 0.43 c p3
235.50 455.95 0.43 c p3
235.65 455.51 0.43 c p3
235.79 455.36 0.43 c p3
235.94 454.04 0.43 c p3
236.09 455.51 0.43 c p3
236.23 455.80 0.43 c p3
236.38 455.51 0.43 c p3
236.52 455.22 0.43 c p3
236.67 454.63 0.43 c p3
236.81 454.19 0.43 c p3
236.96 512.00 0.43 c p3
237.10 424.49 0.43 c p3
237.25 425.68 0.43 c p3
237.40 426.68 0.43 c p3
237.54 425.38 0.43 c p3
237.69 428.44 0.43 c p3
237.83 428.00 0.43 c p3
237.98 428.44 0.43 c p3
238.12 429.61 0.43 c p3
238.27 428.73 0.43 c p3
238.41 429.02 0.43 c p3
238.56 429.31 0.43 c p3
238.71 430.61 0.43 c p3
238.85 431.78 0.43 c p3
239.00 431.63 0.43 c p3
239.14 432.66 0.43 c p3
239.29 432.51 0.43 c p3
239.43 431.49 0.43 c p3
239.58 433.10 0.43 c p3
239.72 433.10 0.43 c p3
239.87 432.37 0.43 c p3
240.02 433.68 0.43 c p3
240.16 433.54 0.43 c p3
240.31 433.39 0.43 c p3
240.45 433.98 0.43 c p3
240.60 434.83 0.43 c p3
240.74 434.39 0.43 c p3
240.89 434.98 0.43 c p3
241.04 434.39 0.43 c p3
241.18 436.44 0.43 c p3
241.33 435.27 0.43 c p3
241.47 435.86 0.43 c p3
241.62 435.71 0.43 c p3
241.76 436.15 0.43 c p3
241.91 435.71 0.43 c p3
242.05 436.44 0.43 c p3
242.20 435.27 0.43 c p3
242.35 437.03 0.43 c p3
242.49 437.47 0.43 c p3
242.64 437.32 0.43 c p3
242.78 437.91 0.43 c p3
242.93 437.32 0.43 c p3
243.07 437.76 0.43 c p3
243.22 437.47 0.43 c p3
243.36 438.05 0.43 c p3
243.51 438.47 0.43 c p3
243.66 439.35 0.43 c p3
243.80 438.32 0.43 c p3
243.95 439.64 0.43 c p3
244.09 439.79 0.43 c p3
244.24 439.35 0.43 c p3
244.38 438.62 0.43 c p3
244.53 439.93 0.43 c p3
244.67 440.67 0.43 c p3
244.82 439.93 0.43 c p3
244.97 440.23 0.43 c p3
245.11 440.67 0.43 c p3
245.26 440.96 0.43 c p3
245.40 440.23 0.43 c p3
245.55 440.23 0.43 c p3
245.69 440.81 0.43 c p3
245.84 442.13 0.43 c p3
245.99 441.55 0.43 c p3
246.13 441.40 0.43 c p3
246.28 442.13 0.43 c p3
246.42 442.55 0.43 c p3
246.57 442.13 0.43 c p3
246.71 441.84 0.43 c p3
246.86 441.84 0.43 c p3
247.00 443.13 0.43 c p3
247.15 442.55 0.43 c p3
247.30 443.13 0.43 c p3
247.44 443.72 0.43 c p3
247.59 443.28 0.43 c p3
247.73 443.57 0.43 c p3
247.88 443.28 0.43 c p3
248.02 442.99 0.43 c p3
248.17 444.01 0.43 c p3
248.31 444.45 0.43 c p3
248.46 444.01 0.43 c p3
248.61 444.30 0.43 c p3
248.75 445.48 0.43 c p3
248.90 445.91 0.43 c p3
249.04 444.30 0.43 c p3
249.19 444.30 0.43 c p3
249.33 445.91 0.43 c p3
249.48 446.06 0.43 c p3
249.62 445.77 0.43 c p3
249.77 445.91 0.43 c p3
249.92 446.33 0.43 c p3
250.06 446.33 0.43 c p3
250.21 445.18 0.43 c p3
250.35 445.48 0.43 c p3
250.50 446.18 0.43 c p3
250.64 446.62 0.43 c p3
250.79 446.77 0.43 c p3
250.94 445.62 0.43 c p3
251.08 446.33 0.43 c p3
251.23 446.33 0.43 c p3
251.37 445.91 0.43 c p3
251.52 445.91 0.43 c p3
251.66 445.77 0.43 c p3
251.81 446.62 0.43 c p3
251.95 446.92 0.43 c p3
252.10 446.77 0.43 c p3
252.25 446.18 0.43 c p3
252.39 447.65 0.43 c p3
252.54 447.65 0.43 c p3
252.68 446.77 0.43 c p3
252.83 447.50 0.43 c p3
252.97 448.09 0.43 c p3
253.12 447.65 0.43 c p3
253.26 447.65 0.43 c p3
253.41 448.67 0.43 c p3
253.56 448.97 0.43 c p3
253.70 448.53 0.43 c p3
253.85 448.23 0.43 c p3
253.99 448.82 0.43 c p3
254.14 448.97 0.43 c p3
254.28 449.11 0.43 c p3
254.43 449.11 0.43 c p3
254.57 448.97 0.43 c p3
254.72 449.26 0.43 c p3
254.87 449.70 0.43 c p3
255.01 447.94 0.43 c p3
255.16 448.38 0.43 c p3
255.30 449.26 0.43 c p3
255.45 448.97 0.43 c p3
255.59 449.26 0.43 c p3
255.74 448.97 0.43 c p3
255.88 449.11 0.43 c p3
256.03 451.14 0.43 c p3
256.18 449.41 0.43 c p3
256.32 448.53 0.43 c p3
256.47 449.70 0.43 c p3
256.61 450.55 0.43 c p3
256.76 449.85 0.43 c p3
256.90 449.41 0.43 c p3
257.05 450.41 0.43 c p3
257.20 450.55 0.43 c p3
257.34 449.70 0.43 c p3
257.49 449.99 0.43 c p3
257.63 449.41 0.43 c p3
257.78 450.26 0.43 c p3
257.92 450.70 0.43 c p3
258.07 450.99 0.43 c p3
258.21 451.58 0.43 c p3
258.36 451.29 0.43 c p3
258.51 451.43 0.43 c p3
258.65 450.70 0.43 c p3
258.80 451.73 0.43 c p3
258.94 451.14 0.43 c p3
259.09 451.43 0.43 c p3
259.23 450.26 0.43 c p3
259.38 451.43 0.43 c p3
259.52 452.46 0.43 c p3
259.67 450.99 0.43 c p3
259.82 450.55 0.43 c p3
259.96 450.70 0.43 c p3
260.11 452.16 0.43 c p3
260.25 451.87 0.43 c p3
260.40 450.85 0.43 c p3
260.54 451.14 0.43 c p3
260.69 451.29 0.43 c p3
260.83 451.14 0.43 c p3
260.98 451.43 0.43 c p3
261.13 450.55 0.43 c p3
261.27 452.16 0.43 c p3
261.42 451.87 0.43 c p3
261.56 451.29 0.43 c p3
261.71 452.46 0.43 c p3
261.85 453.34 0.43 c p3
262.00 451.58 0.43 c p3
262.15 452.16 0.43 c p3
262.29 451.73 0.43 c p3
262.44 452.90 0.43 c p3
262.58 452.31 0.43 c p3
262.73 452.02 0.43 c p3
262.87 452.60 0.43 c p3
263.02 452.90 0.43 c p3
263.16 452.60 0.43 c p3
263.31 451.14 0.43 c p3
263.46 452.75 0.43 c p3
263.60 453.34 0.43 c p3
263.75 453.92 0.43 c p3
263.89 452.60 0.43 c p3
264.04 452.46 0.43 c p3
264.18 454.19 0.43 c p3
264.33 454.04 0.43 c p3
264.47 452.75 0.43 c p3
264.62 453.19 0.43 c p3
264.77 453.63 0.43 c p3
264.91 453.92 0.43 c p3
265.06 451.87 0.43 c p3
265.20 453.63 0.43 c p3
265.35 453.63 0.43 c p3
265.49 454.34 0.43 c p3
265.64 452.46 0.43 c p3
265.78 452.31 0.43 c p3
265.93 453.19 0.43 c p3
266.08 452.75 0.43 c p3
266.22 452.16 0.43 c p3
266.37 454.04 0.43 c p3
266.51 454.34 0.43 c p3
266.66 453.78 0.43 c p3
266.80 453.48 0.43 c p3
266.95 453.34 0.43 c p3
267.10 454.04 0.43 c p3
267.24 454.78 0.43 c p3
267.39 453.34 0.43 c p3
267.53 454.04 0.43 c p3
267.68 454.63 0.43 c p3
267.82 453.48 0.43 c p3
267.97 453.19 0.43 c p3
268.11 453.04 0.43 c p3
268.26 454.04 0.43 c p3
268.41 454.34 0.43 c p3
268.55 453.63 0.43 c p3
268.70 453.78 0.43 c p3
268.84 454.34 0.43 c p3
268.99 454.92 0.43 c p3
269.13 452.75 0.43 c p3
269.28 454.19 0.43 c p3
269.42 454.78 0.43 c p3
269.57 453.19 0.43 c p3
269.72 454.04 0.43 c p3
269.86 453.92 0.43 c p3
270.01 454.19 0.43 c p3
270.15 454.04 0.43 c p3
270.30 453.19 0.43 c p3
270.44 453.78 0.43 c p3
270.59 454.48 0.43 c p3
270.73 454.92 0.43 c p3
270.88 453.92 0.43 c p3
271.03 454.48 0.43 c p3
271.17 454.63 0.43 c p3
271.32 453.92 0.43 c p3
271.46 454.04 0.43 c p3
271.61 454.63 0.43 c p3
271.75 454.19 0.43 c p3
271.90 455.07 0.43 c p3
272.05 454.34 0.43 c p3
272.19 453.19 0.43 c p3
272.34 455.22 0.43 c p3
272.48 453.92 0.43 c p3
272.63 454.48 0.43 c p3
272.77 454.78 0.43 c p3
272.92 455.07 0.43 c p3
273.06 455.22 0.43 c p3
273.21 454.63 0.43 c p3
273.36 455.22 0.43 c p3
273.50 455.51 0.43 c p3
273.65 455.07 0.43 c p3
273.79 455.07 0.43 c p3
273.94 455.07 0.43 c p3
274.08 455.80 0.43 c p3
274.23 455.80 0.43 c p3
274.37 454.34 0.43 c p3
274.52 453.92 0.43 c p3
274.67 455.51 0.43 c p3
274.81 454.78 0.43 c p3
274.96 454.19 0.43 c p3
275.10 454.92 0.43 c p3
275.25 455.66 0.43 c p3
275.39 455.66 0.43 c p3
275.54 455.22 0.43 c p3
275.68 455.51 0.43 c p3
275.83 455.95 0.43 c p3
275.98 455.66 0.43 c p3
276.12 455.22 0.43 c p3
276.27 455.66 0.43 c p3
276.41 455.66 0.43 c p3
276.56 454.19 0.43 c p3
276.70 454.92 0.43 c p3
276.85 454.48 0.43 c p3
277.00 454.78 0.43 c p3
277.14 456.24 0.43 c p3
277.29 454.34 0.43 c p3
277.43 455.07 0.43 c p3
277.58 455.66 0.43 c p3
277.72 455.07 0.43 c p3
277.87 454.19 0.43 c p3
278.01 455.07 0.43 c p3
278.16 455.95 0.43 c p3
278.31 455.95 0.43 c p3
278.45 455.07 0.43 c p3
278.60 454.63 0.43 c p3
278.74 456.10 0.43 c p3
278.89 455.07 0.43 c p3
279.03 455.51 0.43 c p3
279.18 456.24 0.43 c p3
279.32 455.80 0.43 c p3
279.47 455.66 0.43 c p3
279.62 455.22 0.43 c p3
279.76 455.22 0.43 c p3
279.91 456.24 0.43 c p3
280.05 455.66 0.43 c p3
280.20 456.10 0.43 c p3
280.34 455.51 0.43 c p3
280.49 455.36 0.43 c p3
280.63 455.66 0.43 c p3
280.78 454.78 0.43 c p3
280.93 454.92 0.43 c p3
281.07 456.39 0.43 c p3
281.22 455.95 0.43 c p3
281.36 455.22 0.43 c p3
281.51 456.39 0.43 c p3
281.65 456.68 0.43 c p3
281.80 456.10 0.43 c p3
281.95 455.07 0.43 c p3
282.09 456.39 0.43 c p3
282.24 456.53 0.43 c p3
282.38 455.51 0.43 c p3
282.53 455.07 0.43 c p3
282.67 456.39 0.43 c p3
282.82 456.68 0.43 c p3
282.96 456.97 0.43 c p3
283.11 454.92 0.43 c p3
283.26 455.80 0.43 c p3
283.40 456.53 0.43 c p3
283.55 457.12 0.43 c p3
283.69 455.66 0.43 c p3
283.84 455.80 0.43 c p3
283.98 456.53 0.43 c p3
284.13 456.10 0.43 c p3
284.27 455.80 0.43 c p3
284.42 455.80 0.43 c p3
284.57 456.10 0.43 c p3
284.71 456.39 0.43 c p3
284.86 456.53 0.43 c p3
285.00 456.24 0.43 c p3
285.15 456.83 0.43 c p3
285.29 456.53 0.43 c p3
285.44 456.10 0.43 c p3
285.58 456.39 0.43 c p3
285.73 456.24 0.43 c p3
285.88 455.95 0.43 c p3
286.02 455.95 0.43 c p3
286.17 455.95 0.43 c p3
286.31 456.68 0.43 c p3
286.46 456.24 0.43 c p3
286.60 455.51 0.43 c p3
286.75 456.39 0.43 c p3
286.89 456.68 0.43 c p3
287.04 456.24 0.43 c p3
287.19 455.66 0.43 c p3
287.33 456.10 0.43 c p3
287.48 457.41 0.43 c p3
287.62 456.10 0.43 c p3
287.77 455.95 0.43 c p3
287.91 456.83 0.43 c p3
288.06 457.27 0.43 c p3
288.21 456.83 0.43 c p3
288.35 455.36 0.43 c p3
288.50 456.53 0.43 c p3
288.64 456.83 0.43 c p3
288.79 456.83 0.43 c p3
288.93 456.10 0.43 c p3
289.08 456.39 0.43 c p3
289.22 457.41 0.43 c p3
289.37 457.27 0.43 c p3
289.52 455.95 0.43 c p3
289.66 456.53 0.43 c p3
289.81 457.12 0.43 c p3
289.95 457.41 0.43 c p3
290.10 456.68 0.43 c p3
290.24 456.83 0.43 c p3
290.39 456.83 0.43 c p3
290.53 457.56 0.43 c p3
290.68 456.10 0.43 c p3
290.83 456.53 0.43 c p3
290.97 456.83 0.43 c p3
291.12 457.27 0.43 c p3
291.26 455.66 0.43 c p3
291.41 456.83 0.43 c p3
291.55 456.83 0.43 c p3
291.70 457.12 0.43 c p3
291.84 455.80 0.43 c p3
291.99 457.12 0.43 c p3
292.14 457.27 0.43 c p3
292.28 456.68 0.43 c p3
292.43 455.80 0.43 c p3
292.57 456.10 0.43 c p3
292.72 456.83 0.43 c p3
292.86 457.97 0.43 c p3
293.01 456.39 0.43 c p3
293.16 456.68 0.43 c p3
293.30 457.71 0.43 c p3
293.45 456.97 0.43 c p3
293.59 457.12 0.43 c p3
293.74 456.83 0.43 c p3
293.88 456.68 0.43 c p3
294.03 456.24 0.43 c p3
294.17 456.10 0.43 c p3
294.32 456.53 0.43 c p3
294.47 457.71 0.43 c p3
294.61 457.41 0.43 c p3
294.76 456.53 0.43 c p3
294.90 456.53 0.43 c p3
295.05 457.71 0.43 c p3
295.19 456.53 0.43 c p3
295.34 455.80 0.43 c p3
295.48 457.12 0.43 c p3
295.63 457.85 0.43 c p3
295.78 457.85 0.43 c p3
295.92 455.95 0.43 c p3
296.07 456.53 0.43 c p3
296.21 456.97 0.43 c p3
296.36 457.27 0.43 c p3
296.50 455.36 0.43 c p3
296.65 457.12 0.43 c p3
296.79 457.56 0.43 c p3
296.94 457.56 0.43 c p3
297.09 457.12 0.43 c p3
297.23 456.68 0.43 c p3
297.38 457.71 0.43 c p3
297.52 456.97 0.43 c p3
297.67 456.10 0.43 c p3
297.81 456.68 0.43 c p3
297.96 457.56 0.43 c p3
298.11 457.56 0.43 c p3
298.25 456.10 0.43 c p3
298.40 456.83 0.43 c p3
298.54 457.97 0.43 c p3
298.69 457.12 0.43 c p3
298.83 456.97 0.43 c p3
298.98 457.71 0.43 c p3
299.12 458.56 0.43 c p3
299.27 457.12 0.43 c p3
299.42 456.83 0.43 c p3
299.56 457.12 0.43 c p3
299.71 458.41 0.43 c p3
299.85 456.97 0.43 c p3
300.00 456.53 0.43 c p3
300.14 457.56 0.43 c p3
300.29 458.27 0.43 c p3
300.43 457.85 0.43 c p3
300.58 456.24 0.43 c p3
300.73 456.83 0.43 c p3
300.87 457.27 0.43 c p3
301.02 457.12 0.43 c p3
301.16 456.83 0.43 c p3
301.31 456.97 0.43 c p3
301.45 457.97 0.43 c p3
301.60 457.27 0.43 c p3
301.74 456.68 0.43 c p3
301.89 457.12 0.43 c p3
302.04 458.56 0.43 c p3
302.18 457.56 0.43 c p3
302.33 456.24 0.43 c p3
302.47 456.39 0.43 c p3
302.62 458.41 0.43 c p3
302.76 456.97 0.43 c p3
302.91 457.27 0.43 c p3
303.06 456.83 0.43 c p3
303.20 457.71 0.43 c p3
303.35 456.68 0.43 c p3
303.49 455.80 0.43 c p3
303.64 457.27 0.43 c p3
303.78 456.97 0.43 c p3
303.93 457.27 0.43 c p3
304.07 456.83 0.43 c p3
304.22 457.85 0.43 c p3
304.37 458.27 0.43 c p3
304.51 457.71 0.43 c p3
304.66 456.39 0.43 c p3
304.80 456.97 0.43 c p3
304.95 457.71 0.43 c p3
305.09 456.97 0.43 c p3
305.24 457.71 0.43 c p3
305.38 457.97 0.43 c p3
305.53 458.56 0.43 c p3
305.68 457.12 0.43 c p3
305.82 456.83 0.43 c p3
305.97 458.27 0.43 c p3
306.11 457.97 0.43 c p3
306.26 458.12 0.43 c p3
306.40 457.85 0.43 c p3
306.55 458.12 0.43 c p3
306.69 458.71 0.43 c p3
306.84 456.68 0.43 c p3
306.99 456.53 0.43 c p3
307.13 457.85 0.43 c p3
307.28 458.12 0.43 c p3
307.42 458.12 0.43 c p3
307.57 458.12 0.43 c p3
307.71 458.12 0.43 c p3
307.86 457.85 0.43 c p3
308.01 458.41 0.43 c p3
308.15 457.12 0.43 c p3
308.30 457.97 0.43 c p3
308.44 458.71 0.43 c p3
308.59 456.83 0.43 c p3
308.73 458.41 0.43 c p3
308.88 457.56 0.43 c p3
309.02 458.41 0.43 c p3
309.17 457.71 0.43 c p3
309.32 457.71 0.43 c p3
309.46 457.56 0.43 c p3
309.61 457.41 0.43 c p3
309.75 457.12 0.43 c p3
309.90 457.97 0.43 c p3
310.04 458.71 0.43 c p3
310.19 458.12 0.43 c p3
310.33 456.68 0.43 c p3
310.48 457.41 0.43 c p3
310.63 458.27 0.43 c p3
310.77 458.27 0.43 c p3
310.92 457.71 0.43 c p3
311.06 458.56 0.43 c p3
311.21 458.12 0.43 c p3
311.35 457.85 0.43 c p3
311.50 457.41 0.43 c p3
311.64 457.97 0.43 c p3
311.79 458.27 0.43 c p3
311.94 457.41 0.43 c p3
312.08 457.56 0.43 c p3
312.23 457.97 0.43 c p3
312.37 457.41 0.43 c p3
312.52 458.12 0.43 c p3
312.66 457.41 0.43 c p3
312.81 458.27 0.43 c p3
312.96 457.71 0.43 c p3
313.10 456.97 0.43 c p3
313.25 457.56 0.43 c p3
313.39 458.12 0.43 c p3
313.54 457.97 0.43 c p3
313.68 458.27 0.43 c p3
313.83 457.97 0.43 c p3
313.97 458.71 0.43 c p3
314.12 458.27 0.43 c p3
314.27 457.85 0.43 c p3
314.41 457.85 0.43 c p3
314.56 458.71 0.43 c p3
314.70 458.12 0.43 c p3
314.85 457.97 0.43 c p3
314.99 457.85 0.43 c p3
315.14 458.56 0.43 c p3
315.28 458.12 0.43 c p3
315.43 457.12 0.43 c p3
315.58 457.27 0.43 c p3
315.72 458.41 0.43 c p3
315.87 458.27 0.43 c p3
316.01 457.27 0.43 c p3
316.16 457.71 0.43 c p3
316.30 458.27 0.43 c p3
316.45 459.00 0.43 c p3
316.59 457.56 0.43 c p3
316.74 457.97 0.43 c p3
316.89 458.12 0.43 c p3
317.03 459.00 0.43 c p3
317.18 457.27 0.43 c p3
317.32 458.12 0.43 c p3
317.47 458.27 0.43 c p3
317.61 457.85 0.43 c p3
317.76 457.12 0.43 c p3
317.91 456.97 0.43 c p3
318.05 458.41 0.43 c p3
318.20 457.71 0.43 c p3
318.34 457.85 0.43 c p3
318.49 458.56 0.43 c p3
318.63 458.12 0.43 c p3
318.78 457.41 0.43 c p3
318.92 457.27 0.43 c p3
319.07 458.41 0.43 c p3
319.22 459.15 0.43 c p3
319.36 457.85 0.43 c p3
319.51 456.97 0.43 c p3
319.65 458.71 0.43 c p3
319.80 459.00 0.43 c p3
319.94 457.97 0.43 c p3
320.09 457.41 0.43 c p3
320.23 458.41 0.43 c p3
320.38 458.12 0.43 c p3
320.53 457.85 0.43 c p3
320.67 457.97 0.43 c p3
320.82 458.85 0.43 c p3
320.96 457.97 0.43 c p3
321.11 457.85 0.43 c p3
321.25 458.41 0.43 c p3
321.40 458.27 0.43 c p3
321.54 458.85 0.43 c p3
321.69 457.56 0.43 c p3
321.84 458.12 0.43 c p3
321.98 458.56 0.43 c p3
322.13 459.15 0.43 c p3
322.27 458.27 0.43 c p3
322.42 457.41 0.43 c p3
322.56 457.97 0.43 c p3
322.71 459.15 0.43 c p3
322.85 457.27 0.43 c p3
323.00 457.97 0.43 c p3
323.15 458.71 0.43 c p3
323.29 458.71 0.43 c p3
323.44 457.71 0.43 c p3
323.58 457.41 0.43 c p3
323.73 458.12 0.43 c p3
323.87 459.15 0.43 c p3
324.02 457.71 0.43 c p3
324.17 457.27 0.43 c p3
324.31 458.71 0.43 c p3
324.46 458.85 0.43 c p3
324.60 458.12 0.43 c p3
324.75 457.97 0.43 c p3
324.89 458.56 0.43 c p3
325.04 458.71 0.43 c p3
325.18 458.12 0.43 c p3
325.33 456.68 0.43 c p3
325.48 458.71 0.43 c p3
325.62 458.71 0.43 c p3
325.77 458.71 0.43 c p3
325.91 458.27 0.43 c p3
326.06 459.00 0.43 c p3
326.20 458.85 0.43 c p3
326.35 458.41 0.43 c p3
326.49 458.12 0.43 c p3
326.64 458.27 0.43 c p3
326.79 458.41 0.43 c p3
326.93 457.97 0.43 c p3
327.08 458.56 0.43 c p3
327.22 458.27 0.43 c p3
327.37 458.12 0.43 c p3
327.51 457.56 0.43 c p3
327.66 456.83 0.43 c p3
327.80 457.85 0.43 c p3
327.95 458.85 0.43 c p3
328.10 458.12 0.43 c p3
328.24 457.71 0.43 c p3
328.39 458.41 0.43 c p3
328.53 459.15 0.43 c p3
328.68 458.71 0.43 c p3
328.82 458.41 0.43 c p3
328.97 458.56 0.43 c p3
329.12 459.15 0.43 c p3
329.26 459.29 0.43 c p3
329.41 458.12 0.43 c p3
329.55 457.12 0.43 c p3
329.70 458.56 0.43 c p3
329.84 457.71 0.43 c p3
329.99 457.71 0.43 c p3
330.13 457.85 0.43 c p3
330.28 459.88 0.43 c p3
330.43 457.97 0.43 c p3
330.57 457.97 0.43 c p3
330.72 458.85 0.43 c p3
330.86 458.56 0.43 c p3
331.01 458.71 0.43 c p3
331.15 458.12 0.43 c p3
331.30 458.27 0.43 c p3
331.44 458.27 0.43 c p3
331.59 458.71 0.43 c p3
331.74 457.56 0.43 c p3
331.88 458.27 0.43 c p3
332.03 460.17 0.43 c p3
332.17 458.71 0.43 c p3
332.32 457.97 0.43 c p3
332.46 458.71 0.43 c p3
332.61 458.41 0.43 c p3
332.75 458.12 0.43 c p3
332.90 457.97 0.43 c p3
333.05 458.56 0.43 c p3
333.19 458.85 0.43 c p3
333.34 458.41 0.43 c p3
333.48 457.71 0.43 c p3
333.63 457.85 0.43 c p3
333.77 459.29 0.43 c p3
333.92 458.71 0.43 c p3
334.07 458.27 0.43 c p3
334.21 458.56 0.43 c p3
334.36 459.00 0.43 c p3
334.50 459.44 0.43 c p3
334.65 457.41 0.43 c p3
334.79 457.97 0.43 c p3
334.94 458.56 0.43 c p3
335.08 458.27 0.43 c p3
335.23 457.56 0.43 c p3
335.38 458.12 0.43 c p3
335.52 458.27 0.43 c p3
335.67 459.15 0.43 c p3
335.81 458.27 0.43 c p3
335.96 457.85 0.43 c p3
336.10 457.97 0.43 c p3
336.25 459.00 0.43 c p3
336.39 458.85 0.43 c p3
336.54 458.12 0.43 c p3
336.69 458.85 0.43 c p3
336.83 459.29 0.43 c p3
336.98 458.71 0.43 c p3
337.12 458.27 0.43 c p3
337.27 459.15 0.43 c p3
337.41 459.15 0.43 c p3
337.56 459.88 0.43 c p3
337.70 458.27 0.43 c p3
337.85 458.85 0.43 c p3
338.00 458.12 0.43 c p3
338.14 458.71 0.43 c p3
338.29 458.12 0.43 c p3
338.43 457.97 0.43 c p3
338.58 459.00 0.43 c p3
338.72 458.12 0.43 c p3
338.87 457.97 0.43 c p3
339.02 458.41 0.43 c p3
339.16 458.12 0.43 c p3
339.31 459.44 0.43 c p3
339.45 457.97 0.43 c p3
339.60 458.41 0.43 c p3
339.74 458.85 0.43 c p3
339.89 458.56 0.43 c p3
340.03 458.27 0.43 c p3
340.18 458.27 0.43 c p3
340.33 458.71 0.43 c p3
340.47 457.97 0.43 c p3
340.62 457.71 0.43 c p3
340.76 458.56 0.43 c p3
340.91 459.59 0.43 c p3
341.05 459.15 0.43 c p3
341.20 457.56 0.43 c p3
341.34 459.15 0.43 c p3
341.49 459.29 0.43 c p3
341.64 458.41 0.43 c p3
341.78 457.71 0.43 c p3
341.93 458.71 0.43 c p3
342.07 459.00 0.43 c p3
342.22 458.12 0.43 c p3
342.36 457.97 0.43 c p3
342.51 458.12 0.43 c p3
342.65 458.85 0.43 c p3
342.80 458.71 0.43 c p3
342.95 457.97 0.43 c p3
343.09 458.85 0.43 c p3
343.24 458.71 0.43 c p3
343.38 458.41 0.43 c p3
343.53 458.56 0.43 c p3
343.67 458.71 0.43 c p3
343.82 459.29 0.43 c p3
343.97 459.15 0.43 c p3
344.11 459.15 0.43 c p3
344.26 457.71 0.43 c p3
344.40 458.56 0.43 c p3
344.55 459.59 0.43 c p3
344.69 459.15 0.43 c p3
344.84 457.97 0.43 c p3
344.98 458.12 0.43 c p3
345.13 459.15 0.43 c p3
345.28 460.03 0.43 c p3
345.42 459.15 0.43 c p3
345.57 458.41 0.43 c p3
345.71 459.29 0.43 c p3
345.86 459.00 0.43 c p3
346.00 459.15 0.43 c p3
346.15 459.15 0.43 c p3
346.29 459.00 0.43 c p3
346.44 459.29 0.43 c p3
346.59 460.17 0.43 c p3
346.73 459.59 0.43 c p3
346.88 459.88 0.43 c p3
347.02 459.44 0.43 c p3
347.17 458.71 0.43 c p3
347.31 457.56 0.43 c p3
347.46 459.15 0.43 c p3
347.60 459.15 0.43 c p3
347.75 459.00 0.43 c p3
347.90 458.85 0.43 c p3
348.04 458.71 0.43 c p3
348.19 459.15 0.43 c p3
348.33 458.56 0.43 c p3
348.48 457.71 0.43 c p3
348.62 459.00 0.43 c p3
348.77 458.85 0.43 c p3
348.92 460.03 0.43 c p3
349.06 459.00 0.43 c p3
349.21 458.56 0.43 c p3
349.35 458.71 0.43 c p3
349.50 458.41 0.43 c p3
349.64 458.27 0.43 c p3
349.79 458.12 0.43 c p3
349.93 459.00 0.43 c p3
350.08 458.71 0.43 c p3
350.23 457.12 0.43 c p3
350.37 458.56 0.43 c p3
350.52 459.00 0.43 c p3
350.66 458.56 0.43 c p3
350.81 457.41 0.43 c p3
350.95 458.12 0.43 c p3
351.10 459.44 0.43 c p3
351.24 458.27 0.43 c p3
351.39 458.85 0.43 c p3
351.54 458.71 0.43 c p3
351.68 458.27 0.43 c p3
351.83 458.56 0.43 c p3
351.97 458.41 0.43 c p3
352.12 457.71 0.43 c p3
352.26 459.29 0.43 c p3
352.41 459.15 0.43 c p3
352.55 458.71 0.43 c p3
352.70 458.56 0.43 c p3
352.85 458.71 0.43 c p3
352.99 458.41 0.43 c p3
353.14 457.71 0.43 c p3
353.28 459.44 0.43 c p3
353.43 460.46 0.43 c p3
353.57 459.15 0.43 c p3
353.72 459.00 0.43 c p3
353.86 459.44 0.43 c p3
354.01 459.73 0.43 c p3
354.16 459.00 0.43 c p3
354.30 458.85 0.43 c p3
354.45 459.88 0.43 c p3
354.59 460.76 0.43 c p3
354.74 459.15 0.43 c p3
354.88 459.88 0.43 c p3
355.03 459.88 0.43 c p3
355.18 460.32 0.43 c p3
355.32 457.97 0.43 c p3
355.47 458.56 0.43 c p3
355.61 460.46 0.43 c p3
355.76 460.61 0.43 c p3
355.90 459.44 0.43 c p3
356.05 459.15 0.43 c p3
356.19 459.29 0.43 c p3
356.34 458.56 0.43 c p3
356.49 458.56 0.43 c p3
356.63 458.12 0.43 c p3
356.78 459.15 0.43 c p3
356.92 458.56 0.43 c p3
357.07 459.29 0.43 c p3
357.21 458.56 0.43 c p3
357.36 458.41 0.43 c p3
357.50 458.85 0.43 c p3
357.65 458.27 0.43 c p3
357.80 458.41 0.43 c p3
357.94 459.00 0.43 c p3
358.09 458.56 0.43 c p3
358.23 458.71 0.43 c p3
358.38 458.71 0.43 c p3
358.52 458.71 0.43 c p3
358.67 458.41 0.43 c p3
358.81 458.27 0.43 c p3
358.96 457.97 0.43 c p3
359.11 459.00 0.43 c p3
359.25 459.44 0.43 c p3
359.40 459.00 0.43 c p3
359.54 457.97 0.43 c p3
359.69 458.71 0.43 c p3
359.83 458.56 0.43 c p3
359.98 458.27 0.43 c p3
360.13 459.15 0.43 c p3
360.27 459.44 0.43 c p3
360.42 459.29 0.43 c p3
360.56 458.85 0.43 c p3
360.71 458.85 0.43 c p3
360.85 459.73 0.43 c p3
361.00 459.00 0.43 c p3
361.14 459.44 0.43 c p3
361.29 458.71 0.43 c p3
361.44 459.59 0.43 c p3
361.58 459.29 0.43 c p3
361.73 458.41 0.43 c p3
361.87 459.29 0.43 c p3
362.02 459.59 0.43 c p3
362.16 458.71 0.43 c p3
362.31 458.12 0.43 c p3
362.45 459.29 0.43 c p3
362.60 460.90 0.43 c p3
362.75 459.59 0.43 c p3
362.89 458.56 0.43 c p3
363.04 459.59 0.43 c p3
363.18 460.61 0.43 c p3
363.33 459.88 0.43 c p3
363.47 459.29 0.43 c p3
363.62 459.15 0.43 c p3
363.76 460.61 0.43 c p3
363.91 459.59 0.43 c p3
364.06 457.97 0.43 c p3
364.20 458.56 0.43 c p3
364.35 459.73 0.43 c p3
364.49 459.44 0.43 c p3
364.64 459.00 0.43 c p3
364.78 458.56 0.43 c p3
364.93 460.17 0.43 c p3
365.08 459.59 0.43 c p3
365.22 458.27 0.43 c p3
365.37 458.56 0.43 c p3
365.51 459.15 0.43 c p3
365.66 459.15 0.43 c p3
365.80 459.00 0.43 c p3
365.95 458.41 0.43 c p3
366.09 458.27 0.43 c p3
366.24 458.56 0.43 c p3
366.39 458.27 0.43 c p3
366.53 458.27 0.43 c p3
366.68 458.56 0.43 c p3
366.82 459.00 0.43 c p3
366.97 458.56 0.43 c p3
367.11 458.85 0.43 c p3
367.26 458.85 0.43 c p3
367.40 460.17 0.43 c p3
367.55 459.15 0.43 c p3
367.70 459.44 0.43 c p3
367.84 459.15 0.43 c p3
367.99 459.15 0.43 c p3
368.13 458.12 0.43 c p3
368.28 459.00 0.43 c p3
368.42 458.71 0.43 c p3
368.57 458.27 0.43 c p3
368.71 459.00 0.43 c p3
368.86 459.00 0.43 c p3
369.01 459.00 0.43 c p3
369.15 459.15 0.43 c p3
369.30 458.41 0.43 c p3
369.44 459.15 0.43 c p3
369.59 458.85 0.43 c p3
369.73 459.15 0.43 c p3
369.88 459.88 0.43 c p3
370.03 459.15 0.43 c p3
370.17 459.59 0.43 c p3
370.32 460.17 0.43 c p3
370.46 459.15 0.43 c p3
370.61 459.44 0.43 c p3
370.75 458.85 0.43 c p3
370.90 459.00 0.43 c p3
371.04 459.00 0.43 c p3
371.19 458.41 0.43 c p3
371.34 459.59 0.43 c p3
371.48 459.88 0.43 c p3
371.63 458.71 0.43 c p3
371.77 458.85 0.43 c p3
371.92 460.17 0.43 c p3
372.06 460.03 0.43 c p3
372.21 459.00 0.43 c p3
372.35 459.59 0.43 c p3
372.50 460.90 0.43 c p3
372.65 459.44 0.43 c p3
372.79 459.00 0.43 c p3
372.94 460.03 0.43 c p3
373.08 459.59 0.43 c p3
373.23 459.73 0.43 c p3
373.37 458.85 0.43 c p3
373.52 459.00 0.43 c p3
373.66 458.85 0.43 c p3
373.81 458.56 0.43 c p3
373.96 459.29 0.43 c p3
374.10 459.15 0.43 c p3
374.25 459.59 0.43 c p3
374.39 460.03 0.43 c p3
374.54 458.41 0.43 c p3
374.68 459.44 0.43 c p3
374.83 459.73 0.43 c p3
374.98 459.29 0.43 c p3
375.12 458.41 0.43 c p3
375.27 458.71 0.43 c p3
375.41 459.15 0.43 c p3
375.56 459.73 0.43 c p3
375.70 458.85 0.43 c p3
375.85 458.56 0.43 c p3
375.99 458.85 0.43 c p3
376.14 459.00 0.43 c p3
376.29 458.41 0.43 c p3
376.43 458.41 0.43 c p3
376.58 459.73 0.43 c p3
376.72 459.29 0.43 c p3
376.87 458.56 0.43 c p3
377.01 458.71 0.43 c p3
377.16 458.85 0.43 c p3
377.30 459.59 0.43 c p3
377.45 458.41 0.43 c p3
377.60 459.44 0.43 c p3
377.74 460.03 0.43 c p3
377.89 460.32 0.43 c p3
378.03 458.41 0.43 c p3
378.18 459.73 0.43 c p3
378.32 460.03 0.43 c p3
378.47 459.59 0.43 c p3
378.61 459.88 0.43 c p3
378.76 458.85 0.43 c p3
378.91 460.03 0.43 c p3
379.05 459.44 0.43 c p3
379.20 458.71 0.43 c p3
379.34 459.29 0.43 c p3
379.49 459.44 0.43 c p3
379.63 459.73 0.43 c p3
379.78 459.00 0.43 c p3
379.93 459.59 0.43 c p3
380.07 460.03 0.43 c p3
380.22 458.85 0.43 c p3
380.36 459.15 0.43 c p3
380.51 459.73 0.43 c p3
380.65 460.32 0.43 c p3
380.80 460.03 0.43 c p3
380.94 458.41 0.43 c p3
381.09 458.85 0.43 c p3
381.24 460.03 0.43 c p3
381.38 460.46 0.43 c p3
381.53 458.27 0.43 c p3
381.67 459.00 0.43 c p3
381.82 460.32 0.43 c p3
381.96 459.88 0.43 c p3
382.11 458.27 0.43 c p3
382.25 460.17 0.43 c p3
382.40 459.44 0.43 c p3
0.00 0.00 432.00 576.00 cl
0 0 0 srgb
0.75 setlinewidth
[] 0 setdash
1 setlinecap
1 setlinejoin
10.00 setmiterlimit
np
236.96 345.60 m
145.59 0 l
o
np
236.96 345.60 m
0 -5.76 l
o
np
266.08 345.60 m
0 -5.76 l
o
np
295.19 345.60 m
0 -5.76 l
o
np
324.31 345.60 m
0 -5.76 l
o
np
353.43 345.60 m
0 -5.76 l
o
np
382.55 345.60 m
0 -5.76 l
o
/Font1 findfont 10 s
236.96 329.47 (0) .5 0 t
266.08 329.47 (200) .5 0 t
295.19 329.47 (400) .5 0 t
324.31 329.47 (600) .5 0 t
353.43 329.47 (800) .5 0 t
382.55 329.47 (1000) .5 0 t
np
216.00 352.00 m
0 159.99 l
o
np
216.00 352.00 m
-5.76 0 l
o
np
216.00 392.00 m
-5.76 0 l
o
np
216.00 431.99 m
-5.76 0 l
o
np
216.00 471.99 m
-5.76 0 l
o
np
216.00 511.99 m
-5.76 0 l
o
209.09 348.41 (0.0) 1 0 t
209.09 388.41 (0.1) 1 0 t
209.09 428.40 (0.2) 1 0 t
209.09 468.40 (0.3) 1 0 t
209.09 508.40 (0.4) 1 0 t
np
216.00 345.60 m
172.80 0 l
0 172.80 l
-172.80 0 l
0 -172.80 l
o
0.00 0.00 432.00 576.00 cl
/Font1 findfont 10 s
0 0 0 srgb
302.40 313.34 (Time / ms \(total\)) .5 0 t
190.66 432.00 (U / V) .5 90 t
216.00 345.60 388.80 518.40 cl
0 0 0 srgb
0.38 setlinewidth
[ 1.13 1.88] 0 setdash
1 setlinecap
1 setlinejoin
10.00 setmiterlimit
np
222.55 345.60 m
0 172.80 l
o
np
233.61 345.60 m
0 172.80 l
o
np
239.14 345.60 m
0 172.80 l
o
np
300.73 345.60 m
0 172.80 l
o
86.40 57.60 388.80 288.00 cl
1 0 0 srgb
1.50 setlinewidth
[] 0 setdash
1 setlinecap
1 setlinejoin
10.00 setmiterlimit
np
97.60 279.47 m
1.41 -11.56 l
1.40 -10.93 l
1.41 -10.34 l
1.41 -9.78 l
1.41 -9.25 l
1.40 -8.75 l
1.41 -8.27 l
1.41 -7.83 l
1.40 -7.40 l
1.41 -7.00 l
1.41 -6.62 l
1.40 -6.26 l
1.41 -5.93 l
1.41 -5.60 l
1.41 -5.30 l
1.40 -5.01 l
1.41 -4.74 l
1.41 -4.48 l
1.40 -4.25 l
1.41 -4.01 l
1.41 -3.79 l
1.40 -3.59 l
1.41 -3.39 l
1.41 -3.21 l
1.41 -3.04 l
1.40 -2.87 l
1.41 -2.72 l
1.41 -2.57 l
1.40 -2.43 l
1.41 -2.29 l
1.41 -2.18 l
1.41 -2.05 l
1.40 -1.95 l
1.41 -1.84 l
1.41 -1.74 l
1.40 -1.64 l
1.41 -1.56 l
1.41 -1.47 l
1.40 -1.39 l
1.41 -1.32 l
1.41 -1.25 l
1.41 -1.17 l
1.40 -1.12 l
1.41 -1.05 l
1.41 -1.00 l
1.40 -0.94 l
1.41 -0.89 l
1.41 -0.85 l
1.40 -0.79 l
1.41 -0.76 l
1.41 -0.71 l
1.41 -0.68 l
1.40 -0.63 l
1.41 -0.61 l
1.41 -0.57 l
1.40 -0.54 l
1.41 -0.51 l
1.41 -0.48 l
1.41 -0.46 l
1.40 -0.43 l
1.41 -0.41 l
1.41 -0.39 l
1.40 -0.36 l
1.41 -0.35 l
1.41 -0.33 l
1.40 -0.31 l
1.41 -0.29 l
1.41 -0.28 l
1.41 -0.26 l
1.40 -0.25 l
1.41 -0.23 l
1.41 -0.22 l
1.40 -0.21 l
1.41 -0.20 l
1.41 -0.19 l
1.40 -0.17 l
1.41 -0.17 l
1.41 -0.16 l
1.41 -0.15 l
1.40 -0.14 l
1.41 -0.14 l
1.41 -0.12 l
1.40 -0.12 l
1.41 -0.12 l
1.41 -0.10 l
1.41 -0.11 l
1.40 -0.09 l
1.41 -0.09 l
1.41 -0.09 l
1.40 -0.08 l
1.41 -0.08 l
1.41 -0.07 l
1.40 -0.07 l
1.41 -0.06 l
1.41 -0.07 l
1.41 -0.05 l
1.40 -0.06 l
1.41 -0.05 l
1.41 -0.05 l
238.30 66.94 lineto
1.41 -0.04 l
1.41 -0.04 l
1.40 -0.04 l
1.41 -0.04 l
1.41 -0.03 l
1.41 -0.04 l
1.40 -0.03 l
1.41 -0.03 l
1.41 -0.03 l
1.40 -0.02 l
1.41 -0.03 l
1.41 -0.02 l
1.40 -0.03 l
1.41 -0.02 l
1.41 -0.02 l
1.41 -0.02 l
1.40 -0.01 l
1.41 -0.02 l
1.41 -0.02 l
1.40 -0.01 l
1.41 -0.02 l
1.41 -0.01 l
1.41 -0.01 l
1.40 -0.02 l
1.41 -0.01 l
1.41 -0.01 l
1.40 -0.01 l
1.41 -0.01 l
1.41 -0.01 l
1.40 -0.01 l
1.41 -0.01 l
1.41 0 l
1.41 -0.01 l
1.40 -0.01 l
1.41 0 l
1.41 -0.01 l
1.40 -0.01 l
1.41 0 l
1.41 -0.01 l
1.40 0 l
1.41 -0.01 l
1.41 0 l
1.41 -0.01 l
1.40 0 l
1.41 0 l
1.41 -0.01 l
1.40 0 l
1.41 0 l
1.41 -0.01 l
1.41 0 l
1.40 0 l
1.41 -0.01 l
1.41 0 l
1.40 0 l
1.41 0 l
1.41 0 l
1.40 -0.01 l
1.41 0 l
1.41 0 l
1.41 0 l
1.40 0 l
1.41 0 l
1.41 -0.01 l
1.40 0 l
1.41 0 l
1.41 0 l
1.40 0 l
1.41 0 l
1.41 0 l
1.41 0 l
1.40 0 l
1.41 -0.01 l
1.41 0 l
1.40 0 l
1.41 0 l
1.41 0 l
1.41 0 l
1.40 0 l
1.41 0 l
1.41 0 l
1.40 0 l
1.41 0 l
1.41 0 l
1.40 0 l
1.41 0 l
1.41 0 l
1.41 0 l
1.40 0 l
1.41 0 l
1.41 0 l
1.40 0 l
1.41 -0.01 l
1.41 0 l
1.40 0 l
1.41 0 l
1.41 0 l
1.41 0 l
1.40 0 l
1.41 0 l
o
0.00 0.00 432.00 576.00 cl
0 0 0 srgb
0.75 setlinewidth
[] 0 setdash
1 setlinecap
1 setlinejoin
10.00 setmiterlimit
np
97.60 57.60 m
280.00 0 l
o
np
97.60 57.60 m
0 -5.76 l
o
np
153.60 57.60 m
0 -5.76 l
o
np
209.60 57.60 m
0 -5.76 l
o
np
265.60 57.60 m
0 -5.76 l
o
np
321.60 57.60 m
0 -5.76 l
o
np
377.60 57.60 m
0 -5.76 l
o
/Font1 findfont 10 s
97.60 41.47 (0) .5 0 t
153.60 41.47 (200) .5 0 t
209.60 41.47 (400) .5 0 t
265.60 41.47 (600) .5 0 t
321.60 41.47 (800) .5 0 t
377.60 41.47 (1000) .5 0 t
np
86.40 81.09 m
0 181.73 l
o
np
86.40 81.09 m
-5.76 0 l
o
np
86.40 111.38 m
-5.76 0 l
o
np
86.40 141.67 m
-5.76 0 l
o
np
86.40 171.95 m
-5.76 0 l
o
np
86.40 202.24 m
-5.76 0 l
o
np
86.40 232.53 m
-5.76 0 l
o
np
86.40 262.82 m
-5.76 0 l
o
79.49 77.50 (0.00) 1 0 t
79.49 107.79 (0.02) 1 0 t
79.49 138.08 (0.04) 1 0 t
79.49 168.36 (0.06) 1 0 t
79.49 198.65 (0.08) 1 0 t
79.49 228.94 (0.10) 1 0 t
79.49 259.23 (0.12) 1 0 t
np
86.40 57.60 m
302.40 0 l
0 230.40 l
-302.40 0 l
0 -230.40 l
o
0.00 0.00 432.00 576.00 cl
/Font1 findfont 10 s
0 0 0 srgb
237.60 13.82 (Time / ms \(after pulse\)) .5 0 t
49.54 172.80 (Absorbance A) .5 90 t
86.40 57.60 388.80 288.00 cl
/bg { 1 1 1 srgb } def
0 0 0 srgb
0.75 setlinewidth
[] 0 setdash
1 setlinecap
1 setlinejoin
10.00 setmiterlimit
102.08 240.33 0.65 c p3
102.36 241.52 0.65 c p3
102.64 249.95 0.65 c p3
102.92 236.75 0.65 c p3
103.20 236.75 0.65 c p3
103.48 242.72 0.65 c p3
103.76 232.02 0.65 c p3
104.04 233.20 0.65 c p3
104.32 234.38 0.65 c p3
104.60 229.66 0.65 c p3
104.88 222.84 0.65 c p3
105.16 226.34 0.65 c p3
105.44 221.68 0.65 c p3
105.72 226.34 0.65 c p3
106.00 210.17 0.65 c p3
106.28 219.36 0.65 c p3
106.56 214.75 0.65 c p3
106.84 215.90 0.65 c p3
107.12 212.46 0.65 c p3
107.40 215.90 0.65 c p3
107.68 210.17 0.65 c p3
107.96 219.36 0.65 c p3
108.24 205.63 0.65 c p3
108.52 202.23 0.65 c p3
108.80 203.36 0.65 c p3
109.08 198.86 0.65 c p3
109.36 203.36 0.65 c p3
109.64 199.98 0.65 c p3
109.92 202.23 0.65 c p3
110.20 197.74 0.65 c p3
110.48 194.58 0.65 c p3
110.76 187.93 0.65 c p3
111.04 195.69 0.65 c p3
111.32 185.72 0.65 c p3
111.60 184.63 0.65 c p3
111.88 187.93 0.65 c p3
112.16 193.47 0.65 c p3
112.44 183.53 0.65 c p3
112.72 178.08 0.65 c p3
113.00 183.53 0.65 c p3
113.28 181.34 0.65 c p3
113.56 178.08 0.65 c p3
113.84 175.90 0.65 c p3
114.12 181.34 0.65 c p3
114.40 181.34 0.65 c p3
114.68 176.99 0.65 c p3
114.96 167.30 0.65 c p3
115.24 171.59 0.65 c p3
115.52 172.66 0.65 c p3
115.80 167.30 0.65 c p3
116.08 164.28 0.65 c p3
116.36 167.30 0.65 c p3
116.64 169.44 0.65 c p3
116.92 169.44 0.65 c p3
117.20 160.04 0.65 c p3
117.48 164.28 0.65 c p3
117.76 160.04 0.65 c p3
118.04 155.82 0.65 c p3
118.32 158.98 0.65 c p3
118.60 156.87 0.65 c p3
118.88 158.98 0.65 c p3
119.16 161.09 0.65 c p3
119.44 153.72 0.65 c p3
119.72 150.59 0.65 c p3
120.00 153.72 0.65 c p3
120.28 151.63 0.65 c p3
120.56 143.33 0.65 c p3
120.84 140.25 0.65 c p3
121.12 151.63 0.65 c p3
121.40 151.63 0.65 c p3
121.68 140.25 0.65 c p3
121.96 139.22 0.65 c p3
122.24 141.28 0.65 c p3
122.52 140.25 0.65 c p3
122.80 137.35 0.65 c p3
123.08 137.35 0.65 c p3
123.36 145.40 0.65 c p3
123.64 143.33 0.65 c p3
123.92 138.37 0.65 c p3
124.20 135.31 0.65 c p3
124.48 134.29 0.65 c p3
124.76 142.30 0.65 c p3
125.04 137.35 0.65 c p3
125.32 137.35 0.65 c p3
125.60 140.25 0.65 c p3
125.88 140.25 0.65 c p3
126.16 141.28 0.65 c p3
126.44 135.31 0.65 c p3
126.72 133.28 0.65 c p3
127.00 134.29 0.65 c p3
127.28 138.37 0.65 c p3
127.56 128.22 0.65 c p3
127.84 128.22 0.65 c p3
128.12 134.29 0.65 c p3
128.40 129.23 0.65 c p3
128.68 125.21 0.65 c p3
128.96 128.22 0.65 c p3
129.24 128.22 0.65 c p3
129.52 121.21 0.65 c p3
129.80 119.22 0.65 c p3
130.08 122.21 0.65 c p3
130.36 124.21 0.65 c p3
130.64 120.21 0.65 c p3
130.92 119.22 0.65 c p3
131.20 118.23 0.65 c p3
131.48 118.23 0.65 c p3
131.76 119.22 0.65 c p3
132.04 117.24 0.65 c p3
132.32 114.27 0.65 c p3
132.60 126.21 0.65 c p3
132.88 123.21 0.65 c p3
133.16 117.24 0.65 c p3
133.44 119.22 0.65 c p3
133.72 117.24 0.65 c p3
134.00 119.22 0.65 c p3
134.28 118.23 0.65 c p3
134.56 104.65 0.65 c p3
134.84 116.24 0.65 c p3
135.12 122.21 0.65 c p3
135.40 114.27 0.65 c p3
135.68 108.54 0.65 c p3
135.96 113.29 0.65 c p3
136.24 116.24 0.65 c p3
136.52 109.52 0.65 c p3
136.80 108.54 0.65 c p3
137.08 114.27 0.65 c p3
137.36 112.30 0.65 c p3
137.64 116.24 0.65 c p3
137.92 110.50 0.65 c p3
138.20 107.57 0.65 c p3
138.48 105.62 0.65 c p3
138.76 101.74 0.65 c p3
139.04 103.67 0.65 c p3
139.32 102.70 0.65 c p3
139.60 107.57 0.65 c p3
139.88 100.77 0.65 c p3
140.16 104.65 0.65 c p3
140.44 102.70 0.65 c p3
140.72 110.50 0.65 c p3
141.00 102.70 0.65 c p3
141.28 95.96 0.65 c p3
141.56 105.62 0.65 c p3
141.84 108.54 0.65 c p3
142.12 107.57 0.65 c p3
142.40 97.88 0.65 c p3
142.68 99.80 0.65 c p3
142.96 106.59 0.65 c p3
143.24 104.65 0.65 c p3
143.52 103.67 0.65 c p3
143.80 104.65 0.65 c p3
144.08 102.70 0.65 c p3
144.36 108.54 0.65 c p3
144.64 97.88 0.65 c p3
144.92 99.80 0.65 c p3
145.20 103.67 0.65 c p3
145.48 95.96 0.65 c p3
145.76 90.23 0.65 c p3
146.04 101.74 0.65 c p3
146.32 97.88 0.65 c p3
146.60 100.77 0.65 c p3
146.88 93.09 0.65 c p3
147.16 96.92 0.65 c p3
147.44 98.84 0.65 c p3
147.72 95.00 0.65 c p3
148.00 93.09 0.65 c p3
148.28 95.00 0.65 c p3
148.56 104.65 0.65 c p3
148.84 94.04 0.65 c p3
149.12 90.23 0.65 c p3
149.40 86.43 0.65 c p3
149.68 95.00 0.65 c p3
149.96 95.96 0.65 c p3
150.24 84.71 0.65 c p3
150.52 85.65 0.65 c p3
150.80 94.04 0.65 c p3
151.08 91.18 0.65 c p3
151.36 88.33 0.65 c p3
151.64 86.43 0.65 c p3
151.92 99.80 0.65 c p3
152.20 88.33 0.65 c p3
152.48 88.33 0.65 c p3
152.76 83.76 0.65 c p3
153.04 95.96 0.65 c p3
153.32 96.92 0.65 c p3
153.60 91.18 0.65 c p3
153.88 94.04 0.65 c p3
154.16 97.88 0.65 c p3
154.44 85.65 0.65 c p3
154.72 83.76 0.65 c p3
155.00 87.38 0.65 c p3
155.28 89.28 0.65 c p3
155.56 90.23 0.65 c p3
155.84 85.65 0.65 c p3
156.12 80.94 0.65 c p3
156.40 90.23 0.65 c p3
156.68 85.65 0.65 c p3
156.96 81.88 0.65 c p3
157.24 89.28 0.65 c p3
157.52 91.18 0.65 c p3
157.80 92.13 0.65 c p3
158.08 85.65 0.65 c p3
158.36 83.76 0.65 c p3
158.64 88.33 0.65 c p3
158.92 87.38 0.65 c p3
159.20 83.76 0.65 c p3
159.48 80.01 0.65 c p3
159.76 94.04 0.65 c p3
160.04 84.71 0.65 c p3
160.32 80.94 0.65 c p3
160.60 91.18 0.65 c p3
160.88 85.65 0.65 c p3
161.16 86.43 0.65 c p3
161.44 84.71 0.65 c p3
161.72 85.65 0.65 c p3
162.00 91.18 0.65 c p3
162.28 87.38 0.65 c p3
162.56 82.82 0.65 c p3
162.84 80.01 0.65 c p3
163.12 86.43 0.65 c p3
163.40 82.82 0.65 c p3
163.68 81.88 0.65 c p3
163.96 86.43 0.65 c p3
164.24 85.65 0.65 c p3
164.52 81.88 0.65 c p3
164.80 84.71 0.65 c p3
165.08 79.07 0.65 c p3
165.36 83.76 0.65 c p3
165.64 91.18 0.65 c p3
165.92 78.14 0.65 c p3
166.20 86.43 0.65 c p3
166.48 82.82 0.65 c p3
166.76 80.94 0.65 c p3
167.04 79.07 0.65 c p3
167.32 78.14 0.65 c p3
167.60 81.88 0.65 c p3
167.88 78.14 0.65 c p3
168.16 76.27 0.65 c p3
168.44 79.07 0.65 c p3
168.72 79.07 0.65 c p3
169.00 79.07 0.65 c p3
169.28 74.42 0.65 c p3
169.56 74.42 0.65 c p3
169.84 83.76 0.65 c p3
170.12 86.43 0.65 c p3
170.40 76.27 0.65 c p3
170.68 80.94 0.65 c p3
170.96 84.71 0.65 c p3
171.24 80.01 0.65 c p3
171.52 75.35 0.65 c p3
171.80 75.35 0.65 c p3
172.08 78.14 0.65 c p3
172.36 76.27 0.65 c p3
172.64 73.49 0.65 c p3
172.92 75.35 0.65 c p3
173.20 78.14 0.65 c p3
173.48 75.35 0.65 c p3
173.76 75.35 0.65 c p3
174.04 84.71 0.65 c p3
174.32 80.01 0.65 c p3
174.60 82.82 0.65 c p3
174.88 80.94 0.65 c p3
175.16 71.64 0.65 c p3
175.44 83.76 0.65 c p3
175.72 79.07 0.65 c p3
176.00 75.35 0.65 c p3
176.28 79.07 0.65 c p3
176.56 84.71 0.65 c p3
176.84 79.07 0.65 c p3
177.12 73.49 0.65 c p3
177.40 73.49 0.65 c p3
177.68 79.07 0.65 c p3
177.96 81.88 0.65 c p3
178.24 72.56 0.65 c p3
178.52 79.07 0.65 c p3
178.80 76.27 0.65 c p3
179.08 71.64 0.65 c p3
179.36 74.42 0.65 c p3
179.64 75.35 0.65 c p3
179.92 78.14 0.65 c p3
180.20 78.14 0.65 c p3
180.48 71.64 0.65 c p3
180.76 75.35 0.65 c p3
181.04 72.56 0.65 c p3
181.32 76.27 0.65 c p3
181.60 77.21 0.65 c p3
181.88 75.35 0.65 c p3
182.16 80.94 0.65 c p3
182.44 80.01 0.65 c p3
182.72 70.72 0.65 c p3
183.00 73.49 0.65 c p3
183.28 78.14 0.65 c p3
183.56 70.72 0.65 c p3
183.84 68.87 0.65 c p3
184.12 72.56 0.65 c p3
184.40 79.07 0.65 c p3
184.68 70.72 0.65 c p3
184.96 69.79 0.65 c p3
185.24 76.27 0.65 c p3
185.52 79.07 0.65 c p3
185.80 70.72 0.65 c p3
186.08 68.87 0.65 c p3
186.36 67.03 0.65 c p3
186.64 80.01 0.65 c p3
186.92 74.42 0.65 c p3
187.20 69.79 0.65 c p3
187.48 66.12 0.65 c p3
187.76 75.35 0.65 c p3
188.04 74.42 0.65 c p3
188.32 69.79 0.65 c p3
188.60 72.56 0.65 c p3
188.88 74.42 0.65 c p3
189.16 74.42 0.65 c p3
189.44 72.56 0.65 c p3
189.72 70.72 0.65 c p3
190.00 69.79 0.65 c p3
190.28 71.64 0.65 c p3
190.56 67.95 0.65 c p3
190.84 69.79 0.65 c p3
191.12 72.56 0.65 c p3
191.40 70.72 0.65 c p3
191.68 71.64 0.65 c p3
191.96 73.49 0.65 c p3
192.24 73.49 0.65 c p3
192.52 73.49 0.65 c p3
192.80 68.87 0.65 c p3
193.08 71.64 0.65 c p3
193.36 76.27 0.65 c p3
193.64 70.72 0.65 c p3
193.92 68.87 0.65 c p3
194.20 71.64 0.65 c p3
194.48 75.35 0.65 c p3
194.76 72.56 0.65 c p3
195.04 64.29 0.65 c p3
195.32 72.56 0.65 c p3
195.60 73.49 0.65 c p3
195.88 67.95 0.65 c p3
196.16 65.20 0.65 c p3
196.44 67.95 0.65 c p3
196.72 77.21 0.65 c p3
197.00 69.79 0.65 c p3
197.28 67.95 0.65 c p3
197.56 67.95 0.65 c p3
197.84 72.56 0.65 c p3
198.12 70.72 0.65 c p3
198.40 64.29 0.65 c p3
198.68 65.20 0.65 c p3
198.96 73.49 0.65 c p3
199.24 69.79 0.65 c p3
199.52 66.12 0.65 c p3
199.80 64.29 0.65 c p3
200.08 68.87 0.65 c p3
200.36 67.95 0.65 c p3
200.64 67.95 0.65 c p3
200.92 63.37 0.65 c p3
201.20 72.56 0.65 c p3
201.48 69.79 0.65 c p3
201.76 67.95 0.65 c p3
202.04 65.20 0.65 c p3
202.32 75.35 0.65 c p3
202.60 67.95 0.65 c p3
202.88 67.95 0.65 c p3
203.16 66.12 0.65 c p3
203.44 74.42 0.65 c p3
203.72 66.12 0.65 c p3
204.00 65.20 0.65 c p3
204.28 68.87 0.65 c p3
204.56 74.42 0.65 c p3
204.84 72.56 0.65 c p3
205.12 67.95 0.65 c p3
205.40 60.79 0.65 c p3
205.68 70.72 0.65 c p3
205.96 68.87 0.65 c p3
206.24 62.46 0.65 c p3
206.52 67.03 0.65 c p3
206.80 66.12 0.65 c p3
207.08 67.95 0.65 c p3
207.36 68.87 0.65 c p3
207.64 71.64 0.65 c p3
207.92 72.56 0.65 c p3
208.20 69.79 0.65 c p3
208.48 62.46 0.65 c p3
208.76 64.29 0.65 c p3
209.04 69.79 0.65 c p3
209.32 69.79 0.65 c p3
209.60 62.46 0.65 c p3
209.88 69.79 0.65 c p3
210.16 74.42 0.65 c p3
210.44 66.12 0.65 c p3
210.72 61.55 0.65 c p3
211.00 61.55 0.65 c p3
211.28 73.49 0.65 c p3
211.56 69.79 0.65 c p3
211.84 67.03 0.65 c p3
212.12 65.20 0.65 c p3
212.40 77.21 0.65 c p3
212.68 66.12 0.65 c p3
212.96 63.37 0.65 c p3
213.24 63.37 0.65 c p3
213.52 66.12 0.65 c p3
213.80 68.87 0.65 c p3
214.08 62.46 0.65 c p3
214.36 67.03 0.65 c p3
214.64 72.56 0.65 c p3
214.92 68.87 0.65 c p3
215.20 63.37 0.65 c p3
215.48 63.37 0.65 c p3
215.76 72.56 0.65 c p3
216.04 67.95 0.65 c p3
216.32 60.79 0.65 c p3
216.60 66.12 0.65 c p3
216.88 67.03 0.65 c p3
217.16 62.46 0.65 c p3
217.44 57.16 0.65 c p3
217.72 66.12 0.65 c p3
218.00 67.95 0.65 c p3
218.28 66.12 0.65 c p3
218.56 58.07 0.65 c p3
218.84 67.03 0.65 c p3
219.12 69.79 0.65 c p3
219.40 63.37 0.65 c p3
219.68 58.98 0.65 c p3
219.96 61.55 0.65 c p3
220.24 71.64 0.65 c p3
220.52 67.95 0.65 c p3
216.00 201.60 367.20 247.68 cl
0 0 0 srgb
0.75 setlinewidth
[] 0 setdash
1 setlinecap
1 setlinejoin
10.00 setmiterlimit
221.60 219.19 0.43 c p1
221.93 223.04 0.43 c p1
222.26 235.69 0.43 c p1
222.59 221.95 0.43 c p1
222.92 224.28 0.43 c p1
223.25 233.85 0.43 c p1
223.59 223.07 0.43 c p1
223.92 226.76 0.43 c p1
224.25 230.42 0.43 c p1
224.58 226.87 0.43 c p1
224.91 220.72 0.43 c p1
225.24 227.14 0.43 c p1
225.57 223.58 0.43 c p1
225.90 231.37 0.43 c p1
226.23 213.73 0.43 c p1
226.56 226.99 0.43 c p1
226.90 223.41 0.43 c p1
227.23 226.82 0.43 c p1
227.56 224.61 0.43 c p1
227.89 230.77 0.43 c p1
228.22 225.73 0.43 c p1
228.55 238.86 0.43 c p1
228.88 224.01 0.43 c p1
229.21 221.76 0.43 c p1
229.54 225.00 0.43 c p1
229.87 221.35 0.43 c p1
230.21 228.66 0.43 c p1
230.54 226.34 0.43 c p1
230.87 230.86 0.43 c p1
231.20 227.15 0.43 c p1
231.53 225.03 0.43 c p1
231.86 218.64 0.43 c p1
232.19 229.81 0.43 c p1
232.52 219.34 0.43 c p1
232.85 219.67 0.43 c p1
233.18 225.34 0.43 c p1
233.51 233.72 0.43 c p1
233.85 223.22 0.43 c p1
234.18 218.16 0.43 c p1
234.51 226.39 0.43 c p1
234.84 225.28 0.43 c p1
235.17 222.84 0.43 c p1
235.50 221.72 0.43 c p1
235.83 229.85 0.43 c p1
236.16 231.34 0.43 c p1
236.49 227.51 0.43 c p1
236.82 217.15 0.43 c p1
237.16 223.83 0.43 c p1
237.49 226.56 0.43 c p1
237.82 221.43 0.43 c p1
238.15 219.15 0.43 c p1
238.48 224.21 0.43 c p1
238.81 228.18 0.43 c p1
239.14 229.53 0.43 c p1
239.47 219.40 0.43 c p1
239.80 225.89 0.43 c p1
240.13 222.02 0.43 c p1
240.47 218.18 0.43 c p1
240.80 223.30 0.43 c p1
241.13 222.00 0.43 c p1
241.46 225.82 0.43 c p1
241.79 229.63 0.43 c p1
242.12 221.86 0.43 c p1
242.45 219.25 0.43 c p1
242.78 224.26 0.43 c p1
243.11 222.90 0.43 c p1
243.44 213.95 0.43 c p1
243.77 211.35 0.43 c p1
244.11 226.36 0.43 c p1
244.44 227.49 0.43 c p1
244.77 214.74 0.43 c p1
245.10 214.59 0.43 c p1
245.43 218.18 0.43 c p1
245.76 218.01 0.43 c p1
246.09 215.55 0.43 c p1
246.42 216.60 0.43 c p1
246.75 227.46 0.43 c p1
247.08 225.98 0.43 c p1
247.42 220.95 0.43 c p1
247.75 218.23 0.43 c p1
248.08 217.99 0.43 c p1
248.41 228.75 0.43 c p1
248.74 223.69 0.43 c p1
249.07 224.65 0.43 c p1
249.40 229.15 0.43 c p1
249.73 230.09 0.43 c p1
250.06 232.28 0.43 c p1
250.39 225.93 0.43 c p1
250.73 224.37 0.43 c p1
251.06 226.51 0.43 c p1
251.39 232.38 0.43 c p1
251.72 220.89 0.43 c p1
252.05 221.77 0.43 c p1
252.38 230.03 0.43 c p1
252.71 224.72 0.43 c p1
253.04 220.66 0.43 c p1
253.37 225.17 0.43 c p1
253.70 226.00 0.43 c p1
254.03 218.27 0.43 c p1
254.37 216.66 0.43 c p1
254.70 221.10 0.43 c p1
255.03 224.33 0.43 c p1
255.36 220.25 0.43 c p1
255.69 219.81 0.43 c p1
256.02 219.37 0.43 c p1
256.35 220.12 0.43 c p1
256.68 222.08 0.43 c p1
257.01 220.41 0.43 c p1
257.34 217.53 0.43 c p1
257.68 232.81 0.43 c p1
258.01 229.86 0.43 c p1
258.34 223.29 0.43 c p1
258.67 226.41 0.43 c p1
259.00 224.69 0.43 c p1
259.33 227.79 0.43 c p1
259.66 227.26 0.43 c p1
259.99 211.37 0.43 c p1
260.32 226.18 0.43 c p1
260.65 234.11 0.43 c p1
260.99 225.08 0.43 c p1
261.32 218.74 0.43 c p1
261.65 225.16 0.43 c p1
261.98 229.39 0.43 c p1
262.31 221.82 0.43 c p1
262.64 221.24 0.43 c p1
262.97 228.83 0.43 c p1
263.30 227.02 0.43 c p1
263.63 232.43 0.43 c p1
263.96 226.01 0.43 c p1
264.30 223.02 0.43 c p1
264.63 221.22 0.43 c p1
264.96 217.05 0.43 c p1
265.29 219.97 0.43 c p1
265.62 219.35 0.43 c p1
265.95 225.83 0.43 c p1
266.28 218.08 0.43 c p1
266.61 223.35 0.43 c p1
266.94 221.51 0.43 c p1
267.27 231.54 0.43 c p1
267.60 222.56 0.43 c p1
267.94 214.85 0.43 c p1
268.27 227.13 0.43 c p1
268.60 231.21 0.43 c p1
268.93 230.51 0.43 c p1
269.26 219.19 0.43 c p1
269.59 222.03 0.43 c p1
269.92 230.78 0.43 c p1
270.25 228.89 0.43 c p1
270.58 228.17 0.43 c p1
270.91 229.82 0.43 c p1
271.25 227.91 0.43 c p1
271.58 235.49 0.43 c p1
271.91 222.94 0.43 c p1
272.24 225.73 0.43 c p1
272.57 230.89 0.43 c p1
272.90 221.92 0.43 c p1
273.23 215.36 0.43 c p1
273.56 229.82 0.43 c p1
273.89 225.54 0.43 c p1
274.22 229.48 0.43 c p1
274.56 220.52 0.43 c p1
274.89 225.60 0.43 c p1
275.22 228.35 0.43 c p1
275.55 224.06 0.43 c p1
275.88 222.13 0.43 c p1
276.21 224.85 0.43 c p1
276.54 237.00 0.43 c p1
276.87 224.45 0.43 c p1
277.20 220.18 0.43 c p1
277.53 215.93 0.43 c p1
277.86 226.73 0.43 c p1
278.20 228.27 0.43 c p1
278.53 214.91 0.43 c p1
278.86 216.42 0.43 c p1
279.19 227.00 0.43 c p1
279.52 223.86 0.43 c p1
279.85 220.73 0.43 c p1
280.18 218.77 0.43 c p1
280.51 235.40 0.43 c p1
280.84 221.75 0.43 c p1
281.17 222.08 0.43 c p1
281.51 216.84 0.43 c p1
281.84 232.03 0.43 c p1
282.17 233.52 0.43 c p1
282.50 226.84 0.43 c p1
282.83 230.64 0.43 c p1
283.16 235.62 0.43 c p1
283.49 221.02 0.43 c p1
283.82 219.02 0.43 c p1
284.15 223.74 0.43 c p1
284.48 226.34 0.43 c p1
284.82 227.79 0.43 c p1
285.15 222.50 0.43 c p1
285.48 217.05 0.43 c p1
285.81 228.65 0.43 c p1
286.14 223.35 0.43 c p1
286.47 219.03 0.43 c p1
286.80 228.32 0.43 c p1
287.13 230.91 0.43 c p1
287.46 232.34 0.43 c p1
287.79 224.70 0.43 c p1
288.12 222.66 0.43 c p1
288.46 228.49 0.43 c p1
288.79 227.59 0.43 c p1
289.12 223.43 0.43 c p1
289.45 219.10 0.43 c p1
289.78 236.46 0.43 c p1
290.11 225.32 0.43 c p1
290.44 220.98 0.43 c p1
290.77 233.70 0.43 c p1
291.10 227.19 0.43 c p1
291.43 228.38 0.43 c p1
291.77 226.51 0.43 c p1
292.10 227.88 0.43 c p1
292.43 234.85 0.43 c p1
292.76 230.45 0.43 c p1
293.09 225.11 0.43 c p1
293.42 221.90 0.43 c p1
293.75 229.95 0.43 c p1
294.08 225.76 0.43 c p1
294.41 224.83 0.43 c p1
294.74 230.59 0.43 c p1
295.08 229.83 0.43 c p1
295.41 225.45 0.43 c p1
295.74 229.09 0.43 c p1
296.07 222.43 0.43 c p1
296.40 228.34 0.43 c p1
296.73 237.58 0.43 c p1
297.06 221.88 0.43 c p1
297.39 232.18 0.43 c p1
297.72 227.97 0.43 c p1
298.05 225.87 0.43 c p1
298.38 223.77 0.43 c p1
298.72 222.81 0.43 c p1
299.05 227.56 0.43 c p1
299.38 223.17 0.43 c p1
299.71 221.08 0.43 c p1
300.04 224.67 0.43 c p1
300.37 224.84 0.43 c p1
300.70 225.01 0.43 c p1
301.03 219.51 0.43 c p1
301.36 219.67 0.43 c p1
301.69 231.24 0.43 c p1
302.03 234.66 0.43 c p1
302.36 222.43 0.43 c p1
302.69 228.29 0.43 c p1
303.02 233.03 0.43 c p1
303.35 227.46 0.43 c p1
303.68 221.93 0.43 c p1
304.01 222.09 0.43 c p1
304.34 225.64 0.43 c p1
304.67 223.52 0.43 c p1
305.00 220.27 0.43 c p1
305.34 222.68 0.43 c p1
305.67 226.23 0.43 c p1
306.00 222.97 0.43 c p1
306.33 223.11 0.43 c p1
306.66 234.67 0.43 c p1
306.99 229.08 0.43 c p1
307.32 232.65 0.43 c p1
307.65 230.49 0.43 c p1
307.98 219.28 0.43 c p1
308.31 234.20 0.43 c p1
308.64 228.61 0.43 c p1
308.98 224.20 0.43 c p1
309.31 228.87 0.43 c p1
309.64 235.86 0.43 c p1
309.97 229.12 0.43 c p1
310.30 222.44 0.43 c p1
310.63 222.56 0.43 c p1
310.96 229.49 0.43 c p1
311.29 233.04 0.43 c p1
311.62 221.79 0.43 c p1
311.95 229.85 0.43 c p1
312.29 226.56 0.43 c p1
312.62 221.02 0.43 c p1
312.95 224.52 0.43 c p1
313.28 225.76 0.43 c p1
313.61 229.28 0.43 c p1
313.94 229.39 0.43 c p1
314.27 221.57 0.43 c p1
314.60 226.20 0.43 c p1
314.93 222.92 0.43 c p1
315.26 227.55 0.43 c p1
315.60 228.79 0.43 c p1
315.93 226.62 0.43 c p1
316.26 233.55 0.43 c p1
316.59 232.51 0.43 c p1
316.92 221.28 0.43 c p1
317.25 224.76 0.43 c p1
317.58 230.53 0.43 c p1
317.91 221.57 0.43 c p1
318.24 219.42 0.43 c p1
318.57 224.01 0.43 c p1
318.90 232.05 0.43 c p1
319.24 221.95 0.43 c p1
319.57 220.91 0.43 c p1
319.90 228.91 0.43 c p1
320.23 232.41 0.43 c p1
320.56 222.31 0.43 c p1
320.89 220.15 0.43 c p1
321.22 217.99 0.43 c p1
321.55 233.90 0.43 c p1
321.88 227.16 0.43 c p1
322.21 221.61 0.43 c p1
322.55 217.21 0.43 c p1
322.88 228.54 0.43 c p1
323.21 227.49 0.43 c p1
323.54 221.93 0.43 c p1
323.87 225.39 0.43 c p1
324.20 227.73 0.43 c p1
324.53 227.81 0.43 c p1
324.86 225.62 0.43 c p1
325.19 223.45 0.43 c p1
325.52 222.39 0.43 c p1
325.86 224.72 0.43 c p1
326.19 220.30 0.43 c p1
326.52 222.61 0.43 c p1
326.85 226.06 0.43 c p1
327.18 223.88 0.43 c p1
327.51 225.08 0.43 c p1
327.84 227.40 0.43 c p1
328.17 227.47 0.43 c p1
328.50 227.54 0.43 c p1
328.83 221.98 0.43 c p1
329.17 225.42 0.43 c p1
329.50 231.13 0.43 c p1
329.83 224.42 0.43 c p1
330.16 222.24 0.43 c p1
330.49 225.67 0.43 c p1
330.82 230.26 0.43 c p1
331.15 226.92 0.43 c p1
331.48 216.90 0.43 c p1
331.81 227.05 0.43 c p1
332.14 228.23 0.43 c p1
332.47 221.54 0.43 c p1
332.81 218.25 0.43 c p1
333.14 221.66 0.43 c p1
333.47 233.00 0.43 c p1
333.80 224.02 0.43 c p1
334.13 221.83 0.43 c p1
334.46 221.89 0.43 c p1
334.79 227.56 0.43 c p1
335.12 225.36 0.43 c p1
335.45 217.58 0.43 c p1
335.78 218.75 0.43 c p1
336.12 228.90 0.43 c p1
336.45 224.45 0.43 c p1
336.78 220.02 0.43 c p1
337.11 217.84 0.43 c p1
337.44 223.48 0.43 c p1
337.77 222.41 0.43 c p1
338.10 222.46 0.43 c p1
338.43 216.92 0.43 c p1
338.76 228.18 0.43 c p1
339.09 224.84 0.43 c p1
339.43 222.65 0.43 c p1
339.76 219.34 0.43 c p1
340.09 231.75 0.43 c p1
340.42 222.79 0.43 c p1
340.75 222.83 0.43 c p1
341.08 220.64 0.43 c p1
341.41 230.80 0.43 c p1
341.74 220.73 0.43 c p1
342.07 219.65 0.43 c p1
342.40 224.17 0.43 c p1
342.73 230.97 0.43 c p1
343.07 228.75 0.43 c p1
343.40 223.17 0.43 c p1
343.73 214.48 0.43 c p1
344.06 226.62 0.43 c p1
344.39 224.41 0.43 c p1
344.72 216.64 0.43 c p1
345.05 222.25 0.43 c p1
345.38 221.17 0.43 c p1
345.71 223.45 0.43 c p1
346.04 224.61 0.43 c p1
346.38 228.02 0.43 c p1
346.71 229.18 0.43 c p1
347.04 225.84 0.43 c p1
347.37 216.94 0.43 c p1
347.70 219.20 0.43 c p1
348.03 225.95 0.43 c p1
348.36 225.98 0.43 c p1
348.69 217.08 0.43 c p1
349.02 226.05 0.43 c p1
349.35 231.72 0.43 c p1
349.69 221.64 0.43 c p1
350.02 216.10 0.43 c p1
350.35 216.13 0.43 c p1
350.68 230.72 0.43 c p1
351.01 226.25 0.43 c p1
351.34 222.92 0.43 c p1
351.67 220.71 0.43 c p1
352.00 235.38 0.43 c p1
352.33 221.89 0.43 c p1
352.66 218.57 0.43 c p1
352.99 218.60 0.43 c p1
353.33 221.98 0.43 c p1
353.66 225.37 0.43 c p1
353.99 217.58 0.43 c p1
354.32 223.18 0.43 c p1
354.65 229.95 0.43 c p1
354.98 225.48 0.43 c p1
355.31 218.80 0.43 c p1
355.64 218.83 0.43 c p1
355.97 230.06 0.43 c p1
356.30 224.47 0.43 c p1
356.64 215.76 0.43 c p1
356.97 222.28 0.43 c p1
357.30 223.43 0.43 c p1
357.63 217.88 0.43 c p1
357.96 211.45 0.43 c p1
358.29 222.38 0.43 c p1
358.62 224.65 0.43 c p1
358.95 222.43 0.43 c p1
359.28 212.65 0.43 c p1
359.61 223.60 0.43 c p1
359.95 226.98 0.43 c p1
360.28 219.18 0.43 c p1
360.61 213.85 0.43 c p1
360.94 217.00 0.43 c p1
361.27 229.33 0.43 c p1
361.60 224.86 0.43 c p1
0.00 0.00 432.00 576.00 cl
0 0 0 srgb
0.75 setlinewidth
[] 0 setdash
1 setlinecap
1 setlinejoin
10.00 setmiterlimit
np
216.30 201.60 m
132.39 0 l
o
np
216.30 201.60 m
0 -5.76 l
o
np
249.40 201.60 m
0 -5.76 l
o
np
282.50 201.60 m
0 -5.76 l
o
np
315.60 201.60 m
0 -5.76 l
o
np
348.69 201.60 m
0 -5.76 l
o
/Font1 findfont 6 s
216.30 185.47 (0) .5 0 t
249.40 185.47 (100) .5 0 t
282.50 185.47 (200) .5 0 t
315.60 185.47 (300) .5 0 t
348.69 185.47 (400) .5 0 t
np
216.00 206.18 m
0 36.92 l
o
np
216.00 206.18 m
-5.76 0 l
o
np
216.00 215.41 m
-5.76 0 l
o
np
216.00 224.64 m
-5.76 0 l
o
np
216.00 233.87 m
-5.76 0 l
o
np
216.00 243.10 m
-5.76 0 l
o
209.09 204.02 (-0.010) 1 0 t
209.09 213.25 (-0.005) 1 0 t
209.09 222.49 (0.000) 1 0 t
209.09 231.72 (0.005) 1 0 t
209.09 240.95 (0.010) 1 0 t
np
216.00 201.60 m
151.20 0 l
0 46.08 l
-151.20 0 l
0 -46.08 l
o
0.00 0.00 432.00 576.00 cl
/Font1 findfont 9 s
0 0 0 srgb
291.60 262.88 (Residuals) .5 0 t
59.04 73.44 401.76 516.96 cl
ep
%%Trailer
%%Pages: 1
%%EOF
