%!PS-Adobe-3.0 EPSF-3.0
%%DocumentNeededResources: font Helvetica
%%+ font Helvetica-Bold
%%+ font Helvetica-Oblique
%%+ font Helvetica-BoldOblique
%%+ font Symbol
%%Title: R Graphics Output
%%Creator: R Software
%%Pages: (atend)
%%BoundingBox: 0 0 432 576
%%EndComments
%%BeginProlog
/bp  { gs sRGB gs } def
% begin .ps.prolog
/gs  { gsave } bind def
/gr  { grestore } bind def
/ep  { showpage gr gr } bind def
/m   { moveto } bind def
/l  { rlineto } bind def
/np  { newpath } bind def
/cp  { closepath } bind def
/f   { fill } bind def
/o   { stroke } bind def
/c   { newpath 0 360 arc } bind def
/r   { 4 2 roll moveto 1 copy 3 -1 roll exch 0 exch rlineto 0 rlineto -1 mul 0 exch rlineto closepath } bind def
/p1  { stroke } bind def
/p2  { gsave bg fill grestore newpath } bind def
/p3  { gsave bg fill grestore stroke } bind def
/p6  { gsave bg eofill grestore newpath } bind def
/p7  { gsave bg eofill grestore stroke } bind def
/t   { 5 -2 roll moveto gsave rotate
       1 index stringwidth pop
       mul neg 0 rmoveto show grestore } bind def
/ta  { 4 -2 roll moveto gsave rotate show } bind def
/tb  { 2 -1 roll 0 rmoveto show } bind def
/cl  { grestore gsave newpath 3 index 3 index moveto 1 index
       4 -1 roll lineto  exch 1 index lineto lineto
       closepath clip newpath } bind def
/rgb { setrgbcolor } bind def
/s   { scalefont setfont } bind def
% end   .ps.prolog
/sRGB { [ /CIEBasedABC
          << /DecodeLMN
               [ { dup 0.03928 le
                        {12.92321 div}
                        {0.055 add 1.055 div 2.4 exp }
                     ifelse
                 } bind dup dup
               ]
             /MatrixLMN [0.412457 0.212673 0.019334
                         0.357576 0.715152 0.119192
                         0.180437 0.072175 0.950301]
             /WhitePoint [0.9505 1.0 1.0890]
           >>
         ] setcolorspace } bind def
/srgb { setcolor } bind def
% begin encoding
/WinAnsiEncoding [
 /.notdef /.notdef /.notdef /.notdef /.notdef /.notdef /.notdef /.notdef
 /.notdef /.notdef /.notdef /.notdef /.notdef /.notdef /.notdef /.notdef
 /.notdef /.notdef /.notdef /.notdef /.notdef /.notdef /.notdef /.notdef
 /.notdef /.notdef /.notdef /.notdef /.notdef /.notdef /.notdef /.notdef
 /space /exclam /quotedbl /numbersign /dollar /percent /ampersand /quoteright
 /parenleft /parenright /asterisk /plus /comma /minus /period /slash
 /zero /one /two /three /four /five /six /seven
 /eight /nine /colon /semicolon /less /equal /greater /question
 /at /A /B /C /D /E /F /G
 /H /I /J /K /L /M /N /O
 /P /Q /R /S /T /U /V /W
 /X /Y /Z /bracketleft /backslash /bracketright /asciicircum /underscore
 /grave /a /b /c /d /e /f /g
 /h /i /j /k /l /m /n /o
 /p /q /r /s /t /u /v /w
 /x /y /z /braceleft /bar /braceright /asciitilde /.notdef
 /Euro /.notdef /quotesinglbase /florin /quotedblbase /ellipsis /dagger /daggerdbl
 /circumflex /perthousand /Scaron /guilsinglleft /OE /.notdef /Zcaron /.notdef
 /.notdef /quoteleft /quoteright /quotedblleft /quotedblright /bullet /endash /emdash
 /tilde /trademark /scaron /guilsinglright /oe /.notdef /zcaron /Ydieresis
 /space /exclamdown /cent /sterling /currency /yen /brokenbar /section
 /dieresis /copyright /ordfeminine /guillemotleft /logicalnot /hyphen /registered /macron
 /degree /plusminus /twosuperior /threesuperior /acute /mu /paragraph /periodcentered
 /cedilla /onesuperior /ordmasculine /guillemotright /onequarter /onehalf /threequarters /questiondown
 /Agrave /Aacute /Acircumflex /Atilde /Adieresis /Aring /AE /Ccedilla
 /Egrave /Eacute /Ecircumflex /Edieresis /Igrave /Iacute /Icircumflex /Idieresis
 /Eth /Ntilde /Ograve /Oacute /Ocircumflex /Otilde /Odieresis /multiply
 /Oslash /Ugrave /Uacute /Ucircumflex /Udieresis /Yacute /Thorn /germandbls
 /agrave /aacute /acircumflex /atilde /adieresis /aring /ae /ccedilla
 /egrave /eacute /ecircumflex /edieresis /igrave /iacute /icircumflex /idieresis
 /eth /ntilde /ograve /oacute /ocircumflex /otilde /odieresis /divide
 /oslash /ugrave /uacute /ucircumflex /udieresis /yacute /thorn /ydieresis
]
 def
% end encoding
%%IncludeResource: font Helvetica
/Helvetica findfont
dup length dict begin
  {1 index /FID ne {def} {pop pop} ifelse} forall
  /Encoding WinAnsiEncoding def
  currentdict
  end
/Font1 exch definefont pop
%%IncludeResource: font Helvetica-Bold
/Helvetica-Bold findfont
dup length dict begin
  {1 index /FID ne {def} {pop pop} ifelse} forall
  /Encoding WinAnsiEncoding def
  currentdict
  end
/Font2 exch definefont pop
%%IncludeResource: font Helvetica-Oblique
/Helvetica-Oblique findfont
dup length dict begin
  {1 index /FID ne {def} {pop pop} ifelse} forall
  /Encoding WinAnsiEncoding def
  currentdict
  end
/Font3 exch definefont pop
%%IncludeResource: font Helvetica-BoldOblique
/Helvetica-BoldOblique findfont
dup length dict begin
  {1 index /FID ne {def} {pop pop} ifelse} forall
  /Encoding WinAnsiEncoding def
  currentdict
  end
/Font4 exch definefont pop
%%IncludeResource: font Symbol
/Symbol findfont
dup length dict begin
  {1 index /FID ne {def} {pop pop} ifelse} forall
  currentdict
  end
/Font5 exch definefont pop
%%EndProlog
%%Page: 1 1
bp
/bg { 1 1 1 srgb } def
0.00 0.00 432.00 576.00 r p2
0.00 0.00 432.00 576.00 cl
0.00 0.00 432.00 576.00 cl
0.00 0.00 432.00 576.00 cl
/Font1 findfont 12 s
0 0 0 srgb
48.00 508.72 (PCP-ETH) 0 0 t
48.00 494.89 (Flash light photolysis) 0 0 t
/Font1 findfont 9 s
48.00 457.54 (File: T) 0 ta
-1.080 (emper) tb
-0.090 (ature_dependence_3_MSLM.dat) tb gr
48.00 334.87 (T) 0 ta
-1.080 (ue Mar 08 17:13:41 2022) tb gr
48.00 430.87 (Fit function:  a + b * e) 0 ta
-0.270 (xp\(-c * t\)) tb gr
48.00 420.50 (t-Inter) 0 ta
0.270 (v) tb
-0.225 (all: 40.000 ... 1710.000 ms) tb gr
48.00 410.14 (P) 0 ta
-0.360 (ar) tb
-0.090 (ameters \(Standard de) tb
-0.270 (viation\):) tb gr
48.00 399.77 (  a = 0.01145 \(0.00018\)) 0 0 t
48.00 389.40 (  b = 0.12516 \(0.00046\)) 0 0 t
48.00 379.03 (  c = 2.767e+00 \(2.044e-02\) s^-1) 0 0 t
48.00 368.66 (  tau = 3.614e-01 \(2.669e-03\) s) 0 0 t
216.00 345.60 388.80 518.40 cl
0 0 0 srgb
0.75 setlinewidth
[] 0 setdash
1 setlinecap
1 setlinejoin
10.00 setmiterlimit
np
222.40 510.32 m
0.15 0.56 l
0.14 0 l
0.15 -0.94 l
0.14 0.94 l
0.15 -0.94 l
0.14 0 l
0.15 -0.19 l
0.14 0.57 l
0.15 1.68 l
0.15 -1.50 l
0.14 0.56 l
0.15 -0.18 l
0.14 0 l
0.15 -1.13 l
0.14 0.19 l
0.15 0.56 l
0.14 -1.12 l
0.15 0.75 l
0.15 -0.56 l
0.14 0.37 l
0.15 0.38 l
0.14 1.12 l
0.15 -1.12 l
0.14 -0.38 l
0.15 0.94 l
0.15 -0.19 l
0.14 -0.19 l
0.15 0.19 l
0.14 0.37 l
0.15 -1.12 l
0.14 0.56 l
0.15 -0.37 l
0.14 0.19 l
0.15 -0.19 l
0.15 -0.19 l
0.14 1.12 l
0.15 -1.12 l
0.14 0.19 l
0.15 -0.19 l
0.14 0.38 l
0.15 0.56 l
0.14 0.18 l
0.15 0.19 l
0.15 -1.31 l
0.14 -0.19 l
0.15 1.31 l
0.14 -0.93 l
0.15 0.93 l
0.14 -0.74 l
0.15 -0.19 l
0.14 0.37 l
0.15 0.75 l
0.15 -0.37 l
0.14 -1.31 l
0.15 1.49 l
0.14 0.57 l
0.15 -1.50 l
0.14 0.93 l
0.15 0 l
0.15 -0.56 l
0.14 -1.12 l
0.15 1.31 l
0.14 -0.94 l
0.15 1.50 l
0.14 -0.75 l
0.15 0.56 l
0.14 -1.12 l
0.15 0 l
0.15 1.31 l
0.14 -0.19 l
0.15 -0.56 l
0.14 1.31 l
0.15 -1.87 l
0.14 0.94 l
0.15 -0.94 l
0.14 0.94 l
0.15 0.37 l
0.15 -0.75 l
0.14 -0.93 l
0.15 1.68 l
0.14 -1.50 l
0.15 0.94 l
0.14 0 l
0.15 -0.19 l
0.14 0.19 l
0.15 -0.94 l
0.15 0.57 l
0.14 -0.94 l
0.15 0.94 l
0.14 -0.75 l
0.15 1.49 l
0.14 -0.37 l
0.15 -0.37 l
0.15 0.37 l
0.14 0.56 l
0.15 0 l
0.14 -2.62 l
0.15 2.43 l
0.14 0 l
236.96 463.24 lineto
0.14 0.92 l
0.15 0.20 l
0.15 2.81 l
0.14 -1.87 l
0.15 0 l
0.14 4.09 l
0.15 -2.22 l
0.14 -0.18 l
0.15 2.77 l
0.14 -2.24 l
0.15 2.43 l
0.15 -0.19 l
0.14 -0.37 l
0.15 2.24 l
0.14 0.38 l
0.15 -0.94 l
0.14 -0.37 l
0.15 1.31 l
0.14 0 l
0.15 -0.19 l
0.15 1.65 l
0.14 0.57 l
0.15 -0.94 l
0.14 1.31 l
0.15 -0.37 l
0.14 -0.57 l
0.15 0 l
0.15 0.57 l
0.14 -0.75 l
0.15 1.12 l
0.14 0.37 l
0.15 -0.37 l
0.14 -0.37 l
0.15 0.74 l
0.14 0.38 l
0.15 0.37 l
0.15 0.75 l
0.14 -1.12 l
0.15 1.12 l
0.14 0.38 l
0.15 -0.38 l
0.14 -0.19 l
0.15 1.28 l
0.14 0.19 l
0.15 -0.34 l
0.15 1.84 l
0.14 -1.31 l
0.15 0 l
0.14 1.12 l
0.15 -0.56 l
0.14 0.37 l
0.15 1.88 l
0.14 -2.81 l
0.15 2.62 l
0.15 -1.31 l
0.14 -0.38 l
0.15 0 l
0.14 0.19 l
0.15 0.19 l
0.14 0 l
0.15 -0.75 l
0.15 1.68 l
0.14 -0.37 l
0.15 0.37 l
0.14 0.75 l
0.15 -0.18 l
0.14 0.74 l
0.15 -0.37 l
0.14 -0.19 l
0.15 0.75 l
0.15 0.56 l
0.14 -0.37 l
0.15 1.28 l
0.14 0.18 l
0.15 -1.27 l
0.14 0.53 l
0.15 0.18 l
0.14 -0.18 l
0.15 1.12 l
0.15 -0.38 l
0.14 -0.37 l
0.15 1.31 l
0.14 -0.75 l
0.15 -0.19 l
0.14 0 l
0.15 -1.09 l
0.14 0.53 l
0.15 0.75 l
0.15 0.38 l
0.14 -1.47 l
0.15 2.40 l
0.14 -0.75 l
0.15 0.56 l
0.14 1.50 l
0.15 -0.56 l
0.15 0.75 l
0.14 -0.19 l
0.15 0.19 l
0.14 -1.31 l
251.52 486.70 lineto
0.14 0 l
0.15 0.56 l
0.14 -0.37 l
0.15 0.18 l
0.15 0.19 l
0.14 -0.93 l
0.15 1.28 l
0.14 -0.19 l
0.15 -0.35 l
0.14 -0.74 l
0.15 1.09 l
0.14 -1.28 l
0.15 0.56 l
0.15 0.91 l
0.14 -0.19 l
0.15 0.56 l
0.14 -0.72 l
0.15 0.72 l
0.14 0 l
0.15 -0.56 l
0.14 0.19 l
0.15 0 l
0.15 0 l
0.14 1.49 l
0.15 -0.75 l
0.14 -0.56 l
0.15 0.75 l
0.14 0.75 l
0.15 -0.56 l
0.14 0.93 l
0.15 -0.37 l
0.15 0.75 l
0.14 -0.19 l
0.15 0.75 l
0.14 0.19 l
0.15 0.18 l
0.14 -1.12 l
0.15 0.19 l
0.15 0.56 l
0.14 0.94 l
0.15 -0.19 l
0.14 -0.56 l
0.15 0.75 l
0.14 0 l
0.15 0.37 l
0.14 -0.37 l
0.15 -0.94 l
0.15 0.75 l
0.14 -0.38 l
0.15 0.94 l
0.14 -0.75 l
0.15 1.12 l
0.14 -0.93 l
0.15 -0.94 l
0.14 0.56 l
0.15 -0.18 l
0.15 0.56 l
0.14 0.75 l
0.15 0.53 l
0.14 -0.53 l
0.15 -0.75 l
0.14 -0.56 l
0.15 1.49 l
0.14 -0.37 l
0.15 0.37 l
0.15 -0.18 l
0.14 0.71 l
0.15 0 l
0.14 0.38 l
0.15 0 l
0.14 -0.38 l
0.15 0.38 l
0.15 0.94 l
0.14 0.56 l
0.15 -0.94 l
0.14 0.19 l
0.15 0.56 l
0.14 0.19 l
0.15 -1.13 l
0.14 0.57 l
0.15 0 l
0.15 0.74 l
0.14 -0.74 l
0.15 -0.38 l
0.14 0.38 l
0.15 -1.13 l
0.14 0 l
0.15 1.13 l
0.14 0.74 l
0.15 0.38 l
0.15 0 l
0.14 0.93 l
0.15 -1.12 l
0.14 -0.37 l
0.15 0.56 l
0.14 -0.94 l
0.15 0.75 l
0.14 1.12 l
0.15 0.38 l
266.08 496.18 lineto
0.14 1.28 l
0.15 -2.40 l
0.14 0.56 l
0.15 0 l
0.14 1.13 l
0.15 0 l
0.15 0.37 l
0.14 -0.19 l
0.15 0 l
0.14 0.38 l
0.15 -1.31 l
0.14 0.56 l
0.15 -1.50 l
0.14 1.50 l
0.15 0 l
0.15 -0.38 l
0.14 0.57 l
0.15 0.37 l
0.14 -1.31 l
0.15 0 l
0.14 0.56 l
0.15 0.56 l
0.14 0.19 l
0.15 1.09 l
0.15 0 l
0.14 -1.46 l
0.15 0.37 l
0.14 0.72 l
0.15 0 l
0.14 0.93 l
0.15 -1.12 l
0.14 0 l
0.15 0.75 l
0.15 0.19 l
0.14 -1.84 l
0.15 2.21 l
0.14 -0.37 l
0.15 -0.94 l
0.14 0.75 l
0.15 0.19 l
0.15 -0.94 l
0.14 0.56 l
0.15 0 l
0.14 -0.19 l
0.15 -0.18 l
0.14 -0.53 l
0.15 1.46 l
0.14 -0.93 l
0.15 0.75 l
0.15 -0.38 l
0.14 0.19 l
0.15 -0.94 l
0.14 0.75 l
0.15 0.94 l
0.14 -0.19 l
0.15 1.12 l
0.14 0.19 l
0.15 -0.19 l
0.15 -1.12 l
0.14 0.19 l
0.15 0.37 l
0.14 -0.37 l
0.15 0.56 l
0.14 0.56 l
0.15 -0.37 l
0.14 0.18 l
0.15 -0.37 l
0.15 0 l
0.14 0 l
0.15 -0.38 l
0.14 -0.18 l
0.15 -0.94 l
0.14 1.31 l
0.15 0 l
0.15 -0.56 l
0.14 -0.75 l
0.15 1.87 l
0.14 -0.75 l
0.15 0.38 l
0.14 1.31 l
0.15 -0.94 l
0.14 -0.18 l
0.15 0.93 l
0.15 -0.75 l
0.14 0.75 l
0.15 0 l
0.14 2.59 l
0.15 -1.46 l
0.14 -1.88 l
0.15 0.38 l
0.14 0.56 l
0.15 -1.12 l
0.15 2.24 l
0.14 -2.62 l
0.15 2.06 l
0.14 -0.75 l
0.15 -0.75 l
0.14 -0.18 l
0.15 0.93 l
280.63 501.39 lineto
0.15 -0.18 l
0.15 -0.75 l
0.14 0.93 l
0.15 0.19 l
0.14 0.19 l
0.15 -0.75 l
0.14 -0.38 l
0.15 2.78 l
0.15 -2.03 l
0.14 0 l
0.15 1.28 l
0.14 0.19 l
0.15 -0.72 l
0.14 -0.75 l
0.15 0.75 l
0.14 -0.37 l
0.15 -0.56 l
0.15 -0.19 l
0.14 0.19 l
0.15 -1.31 l
0.14 1.49 l
0.15 0.38 l
0.14 -0.56 l
0.15 0.56 l
0.14 0.19 l
0.15 -0.19 l
0.15 1.28 l
0.14 -0.91 l
0.15 -0.56 l
0.14 1.84 l
0.15 0.19 l
0.14 -2.59 l
0.15 2.59 l
0.14 -1.28 l
0.15 -0.56 l
0.15 0.56 l
0.14 -0.19 l
0.15 0 l
0.14 -1.12 l
0.15 0 l
0.14 0.37 l
0.15 1.28 l
0.14 -1.65 l
0.15 1.65 l
0.15 -1.28 l
0.14 0.19 l
0.15 1.09 l
0.14 -0.34 l
0.15 -0.56 l
0.14 0.56 l
0.15 0.72 l
0.15 0 l
0.14 0.93 l
0.15 -0.56 l
0.14 0 l
0.15 -0.37 l
0.14 -0.19 l
0.15 0.37 l
0.14 0.38 l
0.15 0.19 l
0.15 -1.13 l
0.14 -0.18 l
0.15 -0.16 l
0.14 0.34 l
0.15 0 l
0.14 -0.71 l
0.15 1.65 l
0.14 -1.47 l
0.15 0.53 l
0.15 1.31 l
0.14 -1.31 l
0.15 0.19 l
0.14 1.31 l
0.15 -0.37 l
0.14 -0.94 l
0.15 2.62 l
0.14 -1.68 l
0.15 -0.19 l
0.15 -0.75 l
0.14 0.75 l
0.15 -0.38 l
0.14 -0.18 l
0.15 1.68 l
0.14 -1.68 l
0.15 -0.38 l
0.15 0.19 l
0.14 -0.90 l
0.15 1.84 l
0.14 -0.94 l
0.15 0.75 l
0.14 -1.47 l
0.15 1.09 l
0.14 -0.37 l
0.15 0.75 l
0.15 0.93 l
0.14 -0.18 l
0.15 0.75 l
0.14 -1.31 l
0.15 0.56 l
295.19 504.92 lineto
0.15 -1.50 l
0.14 0.19 l
0.15 0.56 l
0.15 0.19 l
0.14 -0.56 l
0.15 -0.38 l
0.14 0.38 l
0.15 1.87 l
0.14 -1.31 l
0.15 0.37 l
0.14 -0.37 l
0.15 -0.56 l
0.15 0.74 l
0.14 -0.74 l
0.15 1.31 l
0.14 -1.31 l
0.15 0 l
0.14 0.93 l
0.15 -0.37 l
0.15 -1.13 l
0.14 0.19 l
0.15 -0.37 l
0.14 1.87 l
0.15 -1.50 l
0.14 0 l
0.15 0.38 l
0.14 0.93 l
0.15 0.19 l
0.15 0 l
0.14 -0.94 l
0.15 0.94 l
0.14 1.12 l
0.15 -0.37 l
0.14 -0.94 l
0.15 -0.75 l
0.14 -0.18 l
0.15 1.49 l
0.15 -0.75 l
0.14 -0.18 l
0.15 -0.38 l
0.14 -0.56 l
0.15 0.94 l
0.14 -0.19 l
0.15 0.19 l
0.14 -0.38 l
0.15 -0.18 l
0.15 0.56 l
0.14 0.75 l
0.15 0 l
0.14 -0.94 l
0.15 0.94 l
0.14 -1.13 l
0.15 -1.12 l
0.15 0.94 l
0.14 0.74 l
0.15 0 l
0.14 0.38 l
0.15 -0.94 l
0.14 0.94 l
0.15 0 l
0.14 0.56 l
0.15 -0.56 l
0.15 -0.38 l
0.14 0 l
0.15 -1.12 l
0.14 1.31 l
0.15 -0.56 l
0.14 0.75 l
0.15 -0.19 l
0.14 -1.87 l
0.15 2.81 l
0.15 -1.13 l
0.14 0.19 l
0.15 -0.37 l
0.14 -0.19 l
0.15 1.12 l
0.14 -1.68 l
0.15 0.75 l
0.14 0.75 l
0.15 0.18 l
0.15 -0.37 l
0.14 -1.12 l
0.15 2.24 l
0.14 -0.75 l
0.15 -1.68 l
0.14 0.37 l
0.15 0.19 l
0.15 1.87 l
0.14 -1.50 l
0.15 0.75 l
0.14 -0.75 l
0.15 0.57 l
0.14 -0.38 l
0.15 -0.75 l
0.14 0.94 l
0.15 -1.12 l
0.15 0.56 l
0.14 0.93 l
0.15 -0.37 l
309.75 505.11 lineto
0.15 0.56 l
0.14 0.18 l
0.15 -1.87 l
0.14 1.13 l
0.15 0.56 l
0.15 -1.69 l
0.14 0.94 l
0.15 0.37 l
0.14 -0.37 l
0.15 0.93 l
0.14 -1.49 l
0.15 2.06 l
0.14 -0.19 l
0.15 -1.87 l
0.15 1.31 l
0.14 -0.19 l
0.15 0.75 l
0.14 -1.31 l
0.15 0.56 l
0.14 0 l
0.15 0 l
0.15 -1.31 l
0.14 1.12 l
0.15 0.75 l
0.14 -1.50 l
0.15 0.75 l
0.14 -0.56 l
0.15 0.19 l
0.14 1.12 l
0.15 -0.37 l
0.15 -0.75 l
0.14 1.31 l
0.15 -0.94 l
0.14 -1.12 l
0.15 1.87 l
0.14 0.56 l
0.15 -1.31 l
0.14 0.75 l
0.15 -0.56 l
0.15 -0.56 l
0.14 -0.19 l
0.15 1.12 l
0.14 -1.12 l
0.15 0.19 l
0.14 0.19 l
0.15 0.37 l
0.14 -0.56 l
0.15 0.93 l
0.15 -0.18 l
0.14 -0.38 l
0.15 1.69 l
0.14 -1.31 l
0.15 -0.19 l
0.14 0.37 l
0.15 0.38 l
0.15 -1.12 l
0.14 1.12 l
0.15 -1.50 l
0.14 0.94 l
0.15 0.37 l
0.14 -0.75 l
0.15 1.31 l
0.14 -0.37 l
0.15 -0.56 l
0.15 -0.75 l
0.14 0.37 l
0.15 -0.93 l
0.14 2.43 l
0.15 -2.62 l
0.14 0.75 l
0.15 -0.19 l
0.14 0.38 l
0.15 0.37 l
0.15 0.19 l
0.14 -0.38 l
0.15 0.94 l
0.14 -0.19 l
0.15 -0.75 l
0.14 0.75 l
0.15 -0.75 l
0.14 0.19 l
0.15 0.94 l
0.15 -0.57 l
0.14 0.19 l
0.15 -0.56 l
0.14 -0.75 l
0.15 0 l
0.14 0.75 l
0.15 -0.19 l
0.14 -0.18 l
0.15 0.37 l
0.15 -1.12 l
0.14 2.24 l
0.15 -0.56 l
0.14 -0.56 l
0.15 -0.94 l
0.14 0.38 l
0.15 1.50 l
0.15 -0.75 l
324.31 505.85 lineto
0.15 0.75 l
0.14 -1.68 l
0.15 0.93 l
0.14 -0.37 l
0.15 0.75 l
0.14 -0.56 l
0.15 0.75 l
0.15 -0.94 l
0.14 -0.37 l
0.15 -0.19 l
0.14 0.75 l
0.15 0 l
0.14 0.56 l
0.15 -0.94 l
0.14 0 l
0.15 -0.37 l
0.15 0.93 l
0.14 -0.74 l
0.15 0.37 l
0.14 -0.94 l
0.15 1.13 l
0.14 -0.56 l
0.15 1.49 l
0.14 0.19 l
0.15 -1.87 l
0.15 0.19 l
0.14 0 l
0.15 0.74 l
0.14 0.19 l
0.15 0.94 l
0.14 -1.69 l
0.15 1.87 l
0.15 -1.87 l
0.14 -0.37 l
0.15 0.37 l
0.14 -0.18 l
0.15 -0.38 l
0.14 1.69 l
0.15 -1.50 l
0.14 1.68 l
0.15 -0.18 l
0.15 -0.38 l
0.14 -0.75 l
0.15 0 l
0.14 0.94 l
0.15 0.75 l
0.14 -2.06 l
0.15 -0.19 l
0.14 1.69 l
0.15 -1.88 l
0.15 0.57 l
0.14 0 l
0.15 -0.38 l
0.14 0.75 l
0.15 1.12 l
0.14 -1.12 l
0.15 0.56 l
0.14 0 l
0.15 -0.75 l
0.15 0.75 l
0.14 -0.56 l
0.15 0.19 l
0.14 0.93 l
0.15 -1.31 l
0.14 0.19 l
0.15 0.75 l
0.15 -1.12 l
0.14 -0.57 l
0.15 2.44 l
0.14 -0.94 l
0.15 -1.12 l
0.14 0.93 l
0.15 0.19 l
0.14 -0.19 l
0.15 0 l
0.15 -0.37 l
0.14 -0.37 l
0.15 0.74 l
0.14 0.38 l
0.15 -0.19 l
0.14 -0.56 l
0.15 -0.56 l
0.14 1.31 l
0.15 0 l
0.15 -1.12 l
0.14 1.12 l
0.15 -1.12 l
0.14 1.49 l
0.15 -0.18 l
0.14 -0.57 l
0.15 0.38 l
0.14 -0.75 l
0.15 0.94 l
0.15 -0.57 l
0.14 0 l
0.15 0 l
0.14 -0.37 l
0.15 0 l
0.14 0 l
338.87 505.85 lineto
0.15 0.57 l
0.14 0.18 l
0.15 0.19 l
0.14 -0.94 l
0.15 0.19 l
0.14 0.56 l
0.15 -0.93 l
0.14 0.37 l
0.15 -0.19 l
0.15 -0.93 l
0.14 1.87 l
0.15 -1.12 l
0.14 -0.19 l
0.15 0.75 l
0.14 -0.94 l
0.15 0.75 l
0.14 -0.37 l
0.15 0 l
0.15 1.68 l
0.14 -1.31 l
0.15 -0.19 l
0.14 0 l
0.15 -0.93 l
0.14 1.31 l
0.15 0 l
0.14 -0.38 l
0.15 -0.74 l
0.15 1.31 l
0.14 -1.13 l
0.15 0 l
0.14 -0.37 l
0.15 0.93 l
0.14 -0.37 l
0.15 0.19 l
0.15 0.37 l
0.14 0.75 l
0.15 -1.12 l
0.14 -0.19 l
0.15 1.12 l
0.14 -1.49 l
0.15 -0.38 l
0.14 0.94 l
0.15 0.56 l
0.15 -0.94 l
0.14 1.50 l
0.15 -0.75 l
0.14 -0.56 l
0.15 -0.19 l
0.14 0.94 l
0.15 -0.38 l
0.14 0 l
0.15 0 l
0.15 -0.18 l
0.14 0 l
0.15 0.18 l
0.14 0.19 l
0.15 -0.56 l
0.14 -0.56 l
0.15 0.93 l
0.14 -0.37 l
0.15 0 l
0.15 0.37 l
0.14 -0.18 l
0.15 0.93 l
0.14 -1.68 l
0.15 0.37 l
0.14 0.94 l
0.15 -0.94 l
0.15 0.56 l
0.14 1.50 l
0.15 -2.24 l
0.14 -0.19 l
0.15 1.68 l
0.14 -1.12 l
0.15 0.19 l
0.14 0.37 l
0.15 -0.19 l
0.15 0.19 l
0.14 0 l
0.15 -0.75 l
0.14 0.75 l
0.15 -0.75 l
0.14 0.19 l
0.15 0.56 l
0.14 -0.75 l
0.15 1.13 l
0.15 -1.13 l
0.14 -0.37 l
0.15 0.37 l
0.14 0.38 l
0.15 0.18 l
0.14 -1.68 l
0.15 1.50 l
0.14 -0.38 l
0.15 1.13 l
0.15 -1.31 l
0.14 0.18 l
0.15 0.75 l
0.14 -0.19 l
353.43 506.23 lineto
0.14 0.37 l
0.15 -1.12 l
0.14 0 l
0.15 -0.56 l
0.15 0 l
0.14 1.50 l
0.15 -1.31 l
0.14 0.56 l
0.15 0 l
0.14 -0.38 l
0.15 0.56 l
0.15 0 l
0.14 -0.37 l
0.15 0.56 l
0.14 -0.75 l
0.15 0 l
0.14 0.75 l
0.15 0.19 l
0.14 -1.12 l
0.15 -0.19 l
0.15 0.75 l
0.14 0.75 l
0.15 0.18 l
0.14 -0.56 l
0.15 -0.75 l
0.14 0.38 l
0.15 -0.94 l
0.14 0.38 l
0.15 1.12 l
0.15 0.37 l
0.14 -0.18 l
0.15 0.37 l
0.14 -1.50 l
0.15 0 l
0.14 0.38 l
0.15 0.93 l
0.14 -0.18 l
0.15 -0.75 l
0.15 0.18 l
0.14 0 l
0.15 -0.74 l
0.14 -0.19 l
0.15 0.19 l
0.14 0.18 l
0.15 0.56 l
0.15 0.38 l
0.14 -0.56 l
0.15 1.12 l
0.14 -0.56 l
0.15 -0.38 l
0.14 -0.18 l
0.15 -2.25 l
0.14 2.62 l
0.15 -0.56 l
0.15 -0.37 l
0.14 2.05 l
0.15 -0.37 l
0.14 -0.94 l
0.15 -0.56 l
0.14 0.94 l
0.15 -0.56 l
0.14 -0.38 l
0.15 0.94 l
0.15 0.37 l
0.14 -0.93 l
0.15 0.56 l
0.14 -1.50 l
0.15 0.94 l
0.14 -0.94 l
0.15 0.38 l
0.14 1.87 l
0.15 -0.19 l
0.15 -0.94 l
0.14 1.31 l
0.15 -1.68 l
0.14 1.50 l
0.15 -1.31 l
0.14 -1.50 l
0.15 2.25 l
0.15 0 l
0.14 -2.44 l
0.15 1.31 l
0.14 0.56 l
0.15 -0.37 l
0.14 0.19 l
0.15 -0.19 l
0.14 0.75 l
0.15 -0.56 l
0.15 0.75 l
0.14 0 l
0.15 -0.75 l
0.14 -1.13 l
0.15 0.75 l
0.14 1.13 l
0.15 0.37 l
0.14 -1.87 l
0.15 1.87 l
0.15 -2.06 l
0.14 0.75 l
currentpoint o m
367.99 505.29 lineto
0.14 1.50 l
0.15 -0.94 l
0.14 0.38 l
0.15 -1.12 l
0.14 0.93 l
0.15 -0.19 l
0.15 0 l
0.14 0.19 l
0.15 -0.75 l
0.14 0.38 l
0.15 -0.75 l
0.14 2.06 l
0.15 -0.19 l
0.15 -1.50 l
0.14 0 l
0.15 1.13 l
0.14 -0.19 l
0.15 -0.38 l
0.14 0 l
0.15 0.57 l
0.14 -1.50 l
0.15 0.19 l
0.15 0.93 l
0.14 -0.19 l
0.15 0.19 l
0.14 -0.37 l
0.15 1.12 l
0.14 -0.94 l
0.15 -0.37 l
0.14 0 l
0.15 0.75 l
0.15 0.19 l
0.14 -0.75 l
0.15 0.37 l
0.14 0.56 l
0.15 -0.56 l
0.14 -0.56 l
0.15 0.19 l
0.14 1.12 l
0.15 -0.94 l
0.15 -0.18 l
0.14 -0.19 l
0.15 0.75 l
0.14 1.12 l
0.15 -1.50 l
0.14 -1.12 l
0.15 1.69 l
0.15 -1.31 l
0.14 0.93 l
0.15 -0.19 l
0.14 0 l
0.15 0.19 l
0.14 -1.12 l
0.15 1.87 l
0.14 -0.75 l
0.15 -0.75 l
0.15 0.94 l
0.14 0 l
0.15 -1.31 l
0.14 1.31 l
0.15 -0.19 l
0.14 -0.56 l
0.15 1.50 l
0.14 -1.31 l
0.15 1.31 l
0.15 -0.38 l
0.14 -1.49 l
0.15 0.93 l
0.14 0.56 l
0.15 -0.75 l
0.14 0.94 l
0.15 -1.50 l
0.14 0.38 l
0.15 1.68 l
0.15 -1.31 l
0.14 -0.56 l
0.15 0.19 l
0.14 0.37 l
0.15 -0.56 l
0.14 0 l
0.15 -0.37 l
0.15 0.56 l
0.14 -0.19 l
0.15 -0.56 l
0.14 -0.19 l
0.15 1.12 l
0.14 0.19 l
0.15 1.31 l
0.14 -2.62 l
0.15 -0.19 l
0.15 1.31 l
0.14 -0.18 l
0.15 0.56 l
0.14 -0.56 l
0.15 0 l
0.14 -0.75 l
0.15 0.19 l
0.14 0.74 l
0.15 -0.56 l
o
/bg { 1 1 1 srgb } def
222.40 510.32 0.43 c p3
222.55 510.88 0.43 c p3
222.69 510.88 0.43 c p3
222.84 509.94 0.43 c p3
222.98 510.88 0.43 c p3
223.13 509.94 0.43 c p3
223.27 509.94 0.43 c p3
223.42 509.75 0.43 c p3
223.56 510.32 0.43 c p3
223.71 512.00 0.43 c p3
223.86 510.50 0.43 c p3
224.00 511.06 0.43 c p3
224.15 510.88 0.43 c p3
224.29 510.88 0.43 c p3
224.44 509.75 0.43 c p3
224.58 509.94 0.43 c p3
224.73 510.50 0.43 c p3
224.87 509.38 0.43 c p3
225.02 510.13 0.43 c p3
225.17 509.57 0.43 c p3
225.31 509.94 0.43 c p3
225.46 510.32 0.43 c p3
225.60 511.44 0.43 c p3
225.75 510.32 0.43 c p3
225.89 509.94 0.43 c p3
226.04 510.88 0.43 c p3
226.19 510.69 0.43 c p3
226.33 510.50 0.43 c p3
226.48 510.69 0.43 c p3
226.62 511.06 0.43 c p3
226.77 509.94 0.43 c p3
226.91 510.50 0.43 c p3
227.06 510.13 0.43 c p3
227.20 510.32 0.43 c p3
227.35 510.13 0.43 c p3
227.50 509.94 0.43 c p3
227.64 511.06 0.43 c p3
227.79 509.94 0.43 c p3
227.93 510.13 0.43 c p3
228.08 509.94 0.43 c p3
228.22 510.32 0.43 c p3
228.37 510.88 0.43 c p3
228.51 511.06 0.43 c p3
228.66 511.25 0.43 c p3
228.81 509.94 0.43 c p3
228.95 509.75 0.43 c p3
229.10 511.06 0.43 c p3
229.24 510.13 0.43 c p3
229.39 511.06 0.43 c p3
229.53 510.32 0.43 c p3
229.68 510.13 0.43 c p3
229.82 510.50 0.43 c p3
229.97 511.25 0.43 c p3
230.12 510.88 0.43 c p3
230.26 509.57 0.43 c p3
230.41 511.06 0.43 c p3
230.55 511.63 0.43 c p3
230.70 510.13 0.43 c p3
230.84 511.06 0.43 c p3
230.99 511.06 0.43 c p3
231.14 510.50 0.43 c p3
231.28 509.38 0.43 c p3
231.43 510.69 0.43 c p3
231.57 509.75 0.43 c p3
231.72 511.25 0.43 c p3
231.86 510.50 0.43 c p3
232.01 511.06 0.43 c p3
232.15 509.94 0.43 c p3
232.30 509.94 0.43 c p3
232.45 511.25 0.43 c p3
232.59 511.06 0.43 c p3
232.74 510.50 0.43 c p3
232.88 511.81 0.43 c p3
233.03 509.94 0.43 c p3
233.17 510.88 0.43 c p3
233.32 509.94 0.43 c p3
233.46 510.88 0.43 c p3
233.61 511.25 0.43 c p3
233.76 510.50 0.43 c p3
233.90 509.57 0.43 c p3
234.05 511.25 0.43 c p3
234.19 509.75 0.43 c p3
234.34 510.69 0.43 c p3
234.48 510.69 0.43 c p3
234.63 510.50 0.43 c p3
234.77 510.69 0.43 c p3
234.92 509.75 0.43 c p3
235.07 510.32 0.43 c p3
235.21 509.38 0.43 c p3
235.36 510.32 0.43 c p3
235.50 509.57 0.43 c p3
235.65 511.06 0.43 c p3
235.79 510.69 0.43 c p3
235.94 510.32 0.43 c p3
236.09 510.69 0.43 c p3
236.23 511.25 0.43 c p3
236.38 511.25 0.43 c p3
236.52 508.63 0.43 c p3
236.67 511.06 0.43 c p3
236.81 511.06 0.43 c p3
236.96 463.24 0.43 c p3
237.10 464.16 0.43 c p3
237.25 464.36 0.43 c p3
237.40 467.17 0.43 c p3
237.54 465.30 0.43 c p3
237.69 465.30 0.43 c p3
237.83 469.39 0.43 c p3
237.98 467.17 0.43 c p3
238.12 466.99 0.43 c p3
238.27 469.76 0.43 c p3
238.41 467.52 0.43 c p3
238.56 469.95 0.43 c p3
238.71 469.76 0.43 c p3
238.85 469.39 0.43 c p3
239.00 471.63 0.43 c p3
239.14 472.01 0.43 c p3
239.29 471.07 0.43 c p3
239.43 470.70 0.43 c p3
239.58 472.01 0.43 c p3
239.72 472.01 0.43 c p3
239.87 471.82 0.43 c p3
240.02 473.47 0.43 c p3
240.16 474.04 0.43 c p3
240.31 473.10 0.43 c p3
240.45 474.41 0.43 c p3
240.60 474.04 0.43 c p3
240.74 473.47 0.43 c p3
240.89 473.47 0.43 c p3
241.04 474.04 0.43 c p3
241.18 473.29 0.43 c p3
241.33 474.41 0.43 c p3
241.47 474.78 0.43 c p3
241.62 474.41 0.43 c p3
241.76 474.04 0.43 c p3
241.91 474.78 0.43 c p3
242.05 475.16 0.43 c p3
242.20 475.53 0.43 c p3
242.35 476.28 0.43 c p3
242.49 475.16 0.43 c p3
242.64 476.28 0.43 c p3
242.78 476.66 0.43 c p3
242.93 476.28 0.43 c p3
243.07 476.09 0.43 c p3
243.22 477.37 0.43 c p3
243.36 477.56 0.43 c p3
243.51 477.22 0.43 c p3
243.66 479.06 0.43 c p3
243.80 477.75 0.43 c p3
243.95 477.75 0.43 c p3
244.09 478.87 0.43 c p3
244.24 478.31 0.43 c p3
244.38 478.68 0.43 c p3
244.53 480.56 0.43 c p3
244.67 477.75 0.43 c p3
244.82 480.37 0.43 c p3
244.97 479.06 0.43 c p3
245.11 478.68 0.43 c p3
245.26 478.68 0.43 c p3
245.40 478.87 0.43 c p3
245.55 479.06 0.43 c p3
245.69 479.06 0.43 c p3
245.84 478.31 0.43 c p3
245.99 479.99 0.43 c p3
246.13 479.62 0.43 c p3
246.28 479.99 0.43 c p3
246.42 480.74 0.43 c p3
246.57 480.56 0.43 c p3
246.71 481.30 0.43 c p3
246.86 480.93 0.43 c p3
247.00 480.74 0.43 c p3
247.15 481.49 0.43 c p3
247.30 482.05 0.43 c p3
247.44 481.68 0.43 c p3
247.59 482.96 0.43 c p3
247.73 483.14 0.43 c p3
247.88 481.87 0.43 c p3
248.02 482.40 0.43 c p3
248.17 482.58 0.43 c p3
248.31 482.40 0.43 c p3
248.46 483.52 0.43 c p3
248.61 483.14 0.43 c p3
248.75 482.77 0.43 c p3
248.90 484.08 0.43 c p3
249.04 483.33 0.43 c p3
249.19 483.14 0.43 c p3
249.33 483.14 0.43 c p3
249.48 482.05 0.43 c p3
249.62 482.58 0.43 c p3
249.77 483.33 0.43 c p3
249.92 483.71 0.43 c p3
250.06 482.24 0.43 c p3
250.21 484.64 0.43 c p3
250.35 483.89 0.43 c p3
250.50 484.45 0.43 c p3
250.64 485.95 0.43 c p3
250.79 485.39 0.43 c p3
250.94 486.14 0.43 c p3
251.08 485.95 0.43 c p3
251.23 486.14 0.43 c p3
251.37 484.83 0.43 c p3
251.52 486.70 0.43 c p3
251.66 486.70 0.43 c p3
251.81 487.26 0.43 c p3
251.95 486.89 0.43 c p3
252.10 487.07 0.43 c p3
252.25 487.26 0.43 c p3
252.39 486.33 0.43 c p3
252.54 487.61 0.43 c p3
252.68 487.42 0.43 c p3
252.83 487.07 0.43 c p3
252.97 486.33 0.43 c p3
253.12 487.42 0.43 c p3
253.26 486.14 0.43 c p3
253.41 486.70 0.43 c p3
253.56 487.61 0.43 c p3
253.70 487.42 0.43 c p3
253.85 487.98 0.43 c p3
253.99 487.26 0.43 c p3
254.14 487.98 0.43 c p3
254.28 487.98 0.43 c p3
254.43 487.42 0.43 c p3
254.57 487.61 0.43 c p3
254.72 487.61 0.43 c p3
254.87 487.61 0.43 c p3
255.01 489.10 0.43 c p3
255.16 488.35 0.43 c p3
255.30 487.79 0.43 c p3
255.45 488.54 0.43 c p3
255.59 489.29 0.43 c p3
255.74 488.73 0.43 c p3
255.88 489.66 0.43 c p3
256.03 489.29 0.43 c p3
256.18 490.04 0.43 c p3
256.32 489.85 0.43 c p3
256.47 490.60 0.43 c p3
256.61 490.79 0.43 c p3
256.76 490.97 0.43 c p3
256.90 489.85 0.43 c p3
257.05 490.04 0.43 c p3
257.20 490.60 0.43 c p3
257.34 491.54 0.43 c p3
257.49 491.35 0.43 c p3
257.63 490.79 0.43 c p3
257.78 491.54 0.43 c p3
257.92 491.54 0.43 c p3
258.07 491.91 0.43 c p3
258.21 491.54 0.43 c p3
258.36 490.60 0.43 c p3
258.51 491.35 0.43 c p3
258.65 490.97 0.43 c p3
258.80 491.91 0.43 c p3
258.94 491.16 0.43 c p3
259.09 492.28 0.43 c p3
259.23 491.35 0.43 c p3
259.38 490.41 0.43 c p3
259.52 490.97 0.43 c p3
259.67 490.79 0.43 c p3
259.82 491.35 0.43 c p3
259.96 492.10 0.43 c p3
260.11 492.63 0.43 c p3
260.25 492.10 0.43 c p3
260.40 491.35 0.43 c p3
260.54 490.79 0.43 c p3
260.69 492.28 0.43 c p3
260.83 491.91 0.43 c p3
260.98 492.28 0.43 c p3
261.13 492.10 0.43 c p3
261.27 492.81 0.43 c p3
261.42 492.81 0.43 c p3
261.56 493.19 0.43 c p3
261.71 493.19 0.43 c p3
261.85 492.81 0.43 c p3
262.00 493.19 0.43 c p3
262.15 494.13 0.43 c p3
262.29 494.69 0.43 c p3
262.44 493.75 0.43 c p3
262.58 493.94 0.43 c p3
262.73 494.50 0.43 c p3
262.87 494.69 0.43 c p3
263.02 493.56 0.43 c p3
263.16 494.13 0.43 c p3
263.31 494.13 0.43 c p3
263.46 494.87 0.43 c p3
263.60 494.13 0.43 c p3
263.75 493.75 0.43 c p3
263.89 494.13 0.43 c p3
264.04 493.00 0.43 c p3
264.18 493.00 0.43 c p3
264.33 494.13 0.43 c p3
264.47 494.87 0.43 c p3
264.62 495.25 0.43 c p3
264.77 495.25 0.43 c p3
264.91 496.18 0.43 c p3
265.06 495.06 0.43 c p3
265.20 494.69 0.43 c p3
265.35 495.25 0.43 c p3
265.49 494.31 0.43 c p3
265.64 495.06 0.43 c p3
265.78 496.18 0.43 c p3
265.93 496.56 0.43 c p3
266.08 496.18 0.43 c p3
266.22 497.46 0.43 c p3
266.37 495.06 0.43 c p3
266.51 495.62 0.43 c p3
266.66 495.62 0.43 c p3
266.80 496.75 0.43 c p3
266.95 496.75 0.43 c p3
267.10 497.12 0.43 c p3
267.24 496.93 0.43 c p3
267.39 496.93 0.43 c p3
267.53 497.31 0.43 c p3
267.68 496.00 0.43 c p3
267.82 496.56 0.43 c p3
267.97 495.06 0.43 c p3
268.11 496.56 0.43 c p3
268.26 496.56 0.43 c p3
268.41 496.18 0.43 c p3
268.55 496.75 0.43 c p3
268.70 497.12 0.43 c p3
268.84 495.81 0.43 c p3
268.99 495.81 0.43 c p3
269.13 496.37 0.43 c p3
269.28 496.93 0.43 c p3
269.42 497.12 0.43 c p3
269.57 498.21 0.43 c p3
269.72 498.21 0.43 c p3
269.86 496.75 0.43 c p3
270.01 497.12 0.43 c p3
270.15 497.84 0.43 c p3
270.30 497.84 0.43 c p3
270.44 498.77 0.43 c p3
270.59 497.65 0.43 c p3
270.73 497.65 0.43 c p3
270.88 498.40 0.43 c p3
271.03 498.59 0.43 c p3
271.17 496.75 0.43 c p3
271.32 498.96 0.43 c p3
271.46 498.59 0.43 c p3
271.61 497.65 0.43 c p3
271.75 498.40 0.43 c p3
271.90 498.59 0.43 c p3
272.05 497.65 0.43 c p3
272.19 498.21 0.43 c p3
272.34 498.21 0.43 c p3
272.48 498.02 0.43 c p3
272.63 497.84 0.43 c p3
272.77 497.31 0.43 c p3
272.92 498.77 0.43 c p3
273.06 497.84 0.43 c p3
273.21 498.59 0.43 c p3
273.36 498.21 0.43 c p3
273.50 498.40 0.43 c p3
273.65 497.46 0.43 c p3
273.79 498.21 0.43 c p3
273.94 499.15 0.43 c p3
274.08 498.96 0.43 c p3
274.23 500.08 0.43 c p3
274.37 500.27 0.43 c p3
274.52 500.08 0.43 c p3
274.67 498.96 0.43 c p3
274.81 499.15 0.43 c p3
274.96 499.52 0.43 c p3
275.10 499.15 0.43 c p3
275.25 499.71 0.43 c p3
275.39 500.27 0.43 c p3
275.54 499.90 0.43 c p3
275.68 500.08 0.43 c p3
275.83 499.71 0.43 c p3
275.98 499.71 0.43 c p3
276.12 499.71 0.43 c p3
276.27 499.33 0.43 c p3
276.41 499.15 0.43 c p3
276.56 498.21 0.43 c p3
276.70 499.52 0.43 c p3
276.85 499.52 0.43 c p3
277.00 498.96 0.43 c p3
277.14 498.21 0.43 c p3
277.29 500.08 0.43 c p3
277.43 499.33 0.43 c p3
277.58 499.71 0.43 c p3
277.72 501.02 0.43 c p3
277.87 500.08 0.43 c p3
278.01 499.90 0.43 c p3
278.16 500.83 0.43 c p3
278.31 500.08 0.43 c p3
278.45 500.83 0.43 c p3
278.60 500.83 0.43 c p3
278.74 503.42 0.43 c p3
278.89 501.96 0.43 c p3
279.03 500.08 0.43 c p3
279.18 500.46 0.43 c p3
279.32 501.02 0.43 c p3
279.47 499.90 0.43 c p3
279.62 502.14 0.43 c p3
279.76 499.52 0.43 c p3
279.91 501.58 0.43 c p3
280.05 500.83 0.43 c p3
280.20 500.08 0.43 c p3
280.34 499.90 0.43 c p3
280.49 500.83 0.43 c p3
280.63 501.39 0.43 c p3
280.78 501.21 0.43 c p3
280.93 500.46 0.43 c p3
281.07 501.39 0.43 c p3
281.22 501.58 0.43 c p3
281.36 501.77 0.43 c p3
281.51 501.02 0.43 c p3
281.65 500.64 0.43 c p3
281.80 503.42 0.43 c p3
281.95 501.39 0.43 c p3
282.09 501.39 0.43 c p3
282.24 502.67 0.43 c p3
282.38 502.86 0.43 c p3
282.53 502.14 0.43 c p3
282.67 501.39 0.43 c p3
282.82 502.14 0.43 c p3
282.96 501.77 0.43 c p3
283.11 501.21 0.43 c p3
283.26 501.02 0.43 c p3
283.40 501.21 0.43 c p3
283.55 499.90 0.43 c p3
283.69 501.39 0.43 c p3
283.84 501.77 0.43 c p3
283.98 501.21 0.43 c p3
284.13 501.77 0.43 c p3
284.27 501.96 0.43 c p3
284.42 501.77 0.43 c p3
284.57 503.05 0.43 c p3
284.71 502.14 0.43 c p3
284.86 501.58 0.43 c p3
285.00 503.42 0.43 c p3
285.15 503.61 0.43 c p3
285.29 501.02 0.43 c p3
285.44 503.61 0.43 c p3
285.58 502.33 0.43 c p3
285.73 501.77 0.43 c p3
285.88 502.33 0.43 c p3
286.02 502.14 0.43 c p3
286.17 502.14 0.43 c p3
286.31 501.02 0.43 c p3
286.46 501.02 0.43 c p3
286.60 501.39 0.43 c p3
286.75 502.67 0.43 c p3
286.89 501.02 0.43 c p3
287.04 502.67 0.43 c p3
287.19 501.39 0.43 c p3
287.33 501.58 0.43 c p3
287.48 502.67 0.43 c p3
287.62 502.33 0.43 c p3
287.77 501.77 0.43 c p3
287.91 502.33 0.43 c p3
288.06 503.05 0.43 c p3
288.21 503.05 0.43 c p3
288.35 503.98 0.43 c p3
288.50 503.42 0.43 c p3
288.64 503.42 0.43 c p3
288.79 503.05 0.43 c p3
288.93 502.86 0.43 c p3
289.08 503.23 0.43 c p3
289.22 503.61 0.43 c p3
289.37 503.80 0.43 c p3
289.52 502.67 0.43 c p3
289.66 502.49 0.43 c p3
289.81 502.33 0.43 c p3
289.95 502.67 0.43 c p3
290.10 502.67 0.43 c p3
290.24 501.96 0.43 c p3
290.39 503.61 0.43 c p3
290.53 502.14 0.43 c p3
290.68 502.67 0.43 c p3
290.83 503.98 0.43 c p3
290.97 502.67 0.43 c p3
291.12 502.86 0.43 c p3
291.26 504.17 0.43 c p3
291.41 503.80 0.43 c p3
291.55 502.86 0.43 c p3
291.70 505.48 0.43 c p3
291.84 503.80 0.43 c p3
291.99 503.61 0.43 c p3
292.14 502.86 0.43 c p3
292.28 503.61 0.43 c p3
292.43 503.23 0.43 c p3
292.57 503.05 0.43 c p3
292.72 504.73 0.43 c p3
292.86 503.05 0.43 c p3
293.01 502.67 0.43 c p3
293.16 502.86 0.43 c p3
293.30 501.96 0.43 c p3
293.45 503.80 0.43 c p3
293.59 502.86 0.43 c p3
293.74 503.61 0.43 c p3
293.88 502.14 0.43 c p3
294.03 503.23 0.43 c p3
294.17 502.86 0.43 c p3
294.32 503.61 0.43 c p3
294.47 504.54 0.43 c p3
294.61 504.36 0.43 c p3
294.76 505.11 0.43 c p3
294.90 503.80 0.43 c p3
295.05 504.36 0.43 c p3
295.19 504.92 0.43 c p3
295.34 503.42 0.43 c p3
295.48 503.61 0.43 c p3
295.63 504.17 0.43 c p3
295.78 504.36 0.43 c p3
295.92 503.80 0.43 c p3
296.07 503.42 0.43 c p3
296.21 503.80 0.43 c p3
296.36 505.67 0.43 c p3
296.50 504.36 0.43 c p3
296.65 504.73 0.43 c p3
296.79 504.36 0.43 c p3
296.94 503.80 0.43 c p3
297.09 504.54 0.43 c p3
297.23 503.80 0.43 c p3
297.38 505.11 0.43 c p3
297.52 503.80 0.43 c p3
297.67 503.80 0.43 c p3
297.81 504.73 0.43 c p3
297.96 504.36 0.43 c p3
298.11 503.23 0.43 c p3
298.25 503.42 0.43 c p3
298.40 503.05 0.43 c p3
298.54 504.92 0.43 c p3
298.69 503.42 0.43 c p3
298.83 503.42 0.43 c p3
298.98 503.80 0.43 c p3
299.12 504.73 0.43 c p3
299.27 504.92 0.43 c p3
299.42 504.92 0.43 c p3
299.56 503.98 0.43 c p3
299.71 504.92 0.43 c p3
299.85 506.04 0.43 c p3
300.00 505.67 0.43 c p3
300.14 504.73 0.43 c p3
300.29 503.98 0.43 c p3
300.43 503.80 0.43 c p3
300.58 505.29 0.43 c p3
300.73 504.54 0.43 c p3
300.87 504.36 0.43 c p3
301.02 503.98 0.43 c p3
301.16 503.42 0.43 c p3
301.31 504.36 0.43 c p3
301.45 504.17 0.43 c p3
301.60 504.36 0.43 c p3
301.74 503.98 0.43 c p3
301.89 503.80 0.43 c p3
302.04 504.36 0.43 c p3
302.18 505.11 0.43 c p3
302.33 505.11 0.43 c p3
302.47 504.17 0.43 c p3
302.62 505.11 0.43 c p3
302.76 503.98 0.43 c p3
302.91 502.86 0.43 c p3
303.06 503.80 0.43 c p3
303.20 504.54 0.43 c p3
303.35 504.54 0.43 c p3
303.49 504.92 0.43 c p3
303.64 503.98 0.43 c p3
303.78 504.92 0.43 c p3
303.93 504.92 0.43 c p3
304.07 505.48 0.43 c p3
304.22 504.92 0.43 c p3
304.37 504.54 0.43 c p3
304.51 504.54 0.43 c p3
304.66 503.42 0.43 c p3
304.80 504.73 0.43 c p3
304.95 504.17 0.43 c p3
305.09 504.92 0.43 c p3
305.24 504.73 0.43 c p3
305.38 502.86 0.43 c p3
305.53 505.67 0.43 c p3
305.68 504.54 0.43 c p3
305.82 504.73 0.43 c p3
305.97 504.36 0.43 c p3
306.11 504.17 0.43 c p3
306.26 505.29 0.43 c p3
306.40 503.61 0.43 c p3
306.55 504.36 0.43 c p3
306.69 505.11 0.43 c p3
306.84 505.29 0.43 c p3
306.99 504.92 0.43 c p3
307.13 503.80 0.43 c p3
307.28 506.04 0.43 c p3
307.42 505.29 0.43 c p3
307.57 503.61 0.43 c p3
307.71 503.98 0.43 c p3
307.86 504.17 0.43 c p3
308.01 506.04 0.43 c p3
308.15 504.54 0.43 c p3
308.30 505.29 0.43 c p3
308.44 504.54 0.43 c p3
308.59 505.11 0.43 c p3
308.73 504.73 0.43 c p3
308.88 503.98 0.43 c p3
309.02 504.92 0.43 c p3
309.17 503.80 0.43 c p3
309.32 504.36 0.43 c p3
309.46 505.29 0.43 c p3
309.61 504.92 0.43 c p3
309.75 505.11 0.43 c p3
309.90 505.67 0.43 c p3
310.04 505.85 0.43 c p3
310.19 503.98 0.43 c p3
310.33 505.11 0.43 c p3
310.48 505.67 0.43 c p3
310.63 503.98 0.43 c p3
310.77 504.92 0.43 c p3
310.92 505.29 0.43 c p3
311.06 504.92 0.43 c p3
311.21 505.85 0.43 c p3
311.35 504.36 0.43 c p3
311.50 506.42 0.43 c p3
311.64 506.23 0.43 c p3
311.79 504.36 0.43 c p3
311.94 505.67 0.43 c p3
312.08 505.48 0.43 c p3
312.23 506.23 0.43 c p3
312.37 504.92 0.43 c p3
312.52 505.48 0.43 c p3
312.66 505.48 0.43 c p3
312.81 505.48 0.43 c p3
312.96 504.17 0.43 c p3
313.10 505.29 0.43 c p3
313.25 506.04 0.43 c p3
313.39 504.54 0.43 c p3
313.54 505.29 0.43 c p3
313.68 504.73 0.43 c p3
313.83 504.92 0.43 c p3
313.97 506.04 0.43 c p3
314.12 505.67 0.43 c p3
314.27 504.92 0.43 c p3
314.41 506.23 0.43 c p3
314.56 505.29 0.43 c p3
314.70 504.17 0.43 c p3
314.85 506.04 0.43 c p3
314.99 506.60 0.43 c p3
315.14 505.29 0.43 c p3
315.28 506.04 0.43 c p3
315.43 505.48 0.43 c p3
315.58 504.92 0.43 c p3
315.72 504.73 0.43 c p3
315.87 505.85 0.43 c p3
316.01 504.73 0.43 c p3
316.16 504.92 0.43 c p3
316.30 505.11 0.43 c p3
316.45 505.48 0.43 c p3
316.59 504.92 0.43 c p3
316.74 505.85 0.43 c p3
316.89 505.67 0.43 c p3
317.03 505.29 0.43 c p3
317.18 506.98 0.43 c p3
317.32 505.67 0.43 c p3
317.47 505.48 0.43 c p3
317.61 505.85 0.43 c p3
317.76 506.23 0.43 c p3
317.91 505.11 0.43 c p3
318.05 506.23 0.43 c p3
318.20 504.73 0.43 c p3
318.34 505.67 0.43 c p3
318.49 506.04 0.43 c p3
318.63 505.29 0.43 c p3
318.78 506.60 0.43 c p3
318.92 506.23 0.43 c p3
319.07 505.67 0.43 c p3
319.22 504.92 0.43 c p3
319.36 505.29 0.43 c p3
319.51 504.36 0.43 c p3
319.65 506.79 0.43 c p3
319.80 504.17 0.43 c p3
319.94 504.92 0.43 c p3
320.09 504.73 0.43 c p3
320.23 505.11 0.43 c p3
320.38 505.48 0.43 c p3
320.53 505.67 0.43 c p3
320.67 505.29 0.43 c p3
320.82 506.23 0.43 c p3
320.96 506.04 0.43 c p3
321.11 505.29 0.43 c p3
321.25 506.04 0.43 c p3
321.40 505.29 0.43 c p3
321.54 505.48 0.43 c p3
321.69 506.42 0.43 c p3
321.84 505.85 0.43 c p3
321.98 506.04 0.43 c p3
322.13 505.48 0.43 c p3
322.27 504.73 0.43 c p3
322.42 504.73 0.43 c p3
322.56 505.48 0.43 c p3
322.71 505.29 0.43 c p3
322.85 505.11 0.43 c p3
323.00 505.48 0.43 c p3
323.15 504.36 0.43 c p3
323.29 506.60 0.43 c p3
323.44 506.04 0.43 c p3
323.58 505.48 0.43 c p3
323.73 504.54 0.43 c p3
323.87 504.92 0.43 c p3
324.02 506.42 0.43 c p3
324.17 505.67 0.43 c p3
324.31 505.85 0.43 c p3
324.46 506.60 0.43 c p3
324.60 504.92 0.43 c p3
324.75 505.85 0.43 c p3
324.89 505.48 0.43 c p3
325.04 506.23 0.43 c p3
325.18 505.67 0.43 c p3
325.33 506.42 0.43 c p3
325.48 505.48 0.43 c p3
325.62 505.11 0.43 c p3
325.77 504.92 0.43 c p3
325.91 505.67 0.43 c p3
326.06 505.67 0.43 c p3
326.20 506.23 0.43 c p3
326.35 505.29 0.43 c p3
326.49 505.29 0.43 c p3
326.64 504.92 0.43 c p3
326.79 505.85 0.43 c p3
326.93 505.11 0.43 c p3
327.08 505.48 0.43 c p3
327.22 504.54 0.43 c p3
327.37 505.67 0.43 c p3
327.51 505.11 0.43 c p3
327.66 506.60 0.43 c p3
327.80 506.79 0.43 c p3
327.95 504.92 0.43 c p3
328.10 505.11 0.43 c p3
328.24 505.11 0.43 c p3
328.39 505.85 0.43 c p3
328.53 506.04 0.43 c p3
328.68 506.98 0.43 c p3
328.82 505.29 0.43 c p3
328.97 507.16 0.43 c p3
329.12 505.29 0.43 c p3
329.26 504.92 0.43 c p3
329.41 505.29 0.43 c p3
329.55 505.11 0.43 c p3
329.70 504.73 0.43 c p3
329.84 506.42 0.43 c p3
329.99 504.92 0.43 c p3
330.13 506.60 0.43 c p3
330.28 506.42 0.43 c p3
330.43 506.04 0.43 c p3
330.57 505.29 0.43 c p3
330.72 505.29 0.43 c p3
330.86 506.23 0.43 c p3
331.01 506.98 0.43 c p3
331.15 504.92 0.43 c p3
331.30 504.73 0.43 c p3
331.44 506.42 0.43 c p3
331.59 504.54 0.43 c p3
331.74 505.11 0.43 c p3
331.88 505.11 0.43 c p3
332.03 504.73 0.43 c p3
332.17 505.48 0.43 c p3
332.32 506.60 0.43 c p3
332.46 505.48 0.43 c p3
332.61 506.04 0.43 c p3
332.75 506.04 0.43 c p3
332.90 505.29 0.43 c p3
333.05 506.04 0.43 c p3
333.19 505.48 0.43 c p3
333.34 505.67 0.43 c p3
333.48 506.60 0.43 c p3
333.63 505.29 0.43 c p3
333.77 505.48 0.43 c p3
333.92 506.23 0.43 c p3
334.07 505.11 0.43 c p3
334.21 504.54 0.43 c p3
334.36 506.98 0.43 c p3
334.50 506.04 0.43 c p3
334.65 504.92 0.43 c p3
334.79 505.85 0.43 c p3
334.94 506.04 0.43 c p3
335.08 505.85 0.43 c p3
335.23 505.85 0.43 c p3
335.38 505.48 0.43 c p3
335.52 505.11 0.43 c p3
335.67 505.85 0.43 c p3
335.81 506.23 0.43 c p3
335.96 506.04 0.43 c p3
336.10 505.48 0.43 c p3
336.25 504.92 0.43 c p3
336.39 506.23 0.43 c p3
336.54 506.23 0.43 c p3
336.69 505.11 0.43 c p3
336.83 506.23 0.43 c p3
336.98 505.11 0.43 c p3
337.12 506.60 0.43 c p3
337.27 506.42 0.43 c p3
337.41 505.85 0.43 c p3
337.56 506.23 0.43 c p3
337.70 505.48 0.43 c p3
337.85 506.42 0.43 c p3
338.00 505.85 0.43 c p3
338.14 505.85 0.43 c p3
338.29 505.85 0.43 c p3
338.43 505.48 0.43 c p3
338.58 505.48 0.43 c p3
338.72 505.48 0.43 c p3
338.87 505.85 0.43 c p3
339.02 506.42 0.43 c p3
339.16 506.60 0.43 c p3
339.31 506.79 0.43 c p3
339.45 505.85 0.43 c p3
339.60 506.04 0.43 c p3
339.74 506.60 0.43 c p3
339.89 505.67 0.43 c p3
340.03 506.04 0.43 c p3
340.18 505.85 0.43 c p3
340.33 504.92 0.43 c p3
340.47 506.79 0.43 c p3
340.62 505.67 0.43 c p3
340.76 505.48 0.43 c p3
340.91 506.23 0.43 c p3
341.05 505.29 0.43 c p3
341.20 506.04 0.43 c p3
341.34 505.67 0.43 c p3
341.49 505.67 0.43 c p3
341.64 507.35 0.43 c p3
341.78 506.04 0.43 c p3
341.93 505.85 0.43 c p3
342.07 505.85 0.43 c p3
342.22 504.92 0.43 c p3
342.36 506.23 0.43 c p3
342.51 506.23 0.43 c p3
342.65 505.85 0.43 c p3
342.80 505.11 0.43 c p3
342.95 506.42 0.43 c p3
343.09 505.29 0.43 c p3
343.24 505.29 0.43 c p3
343.38 504.92 0.43 c p3
343.53 505.85 0.43 c p3
343.67 505.48 0.43 c p3
343.82 505.67 0.43 c p3
343.97 506.04 0.43 c p3
344.11 506.79 0.43 c p3
344.26 505.67 0.43 c p3
344.40 505.48 0.43 c p3
344.55 506.60 0.43 c p3
344.69 505.11 0.43 c p3
344.84 504.73 0.43 c p3
344.98 505.67 0.43 c p3
345.13 506.23 0.43 c p3
345.28 505.29 0.43 c p3
345.42 506.79 0.43 c p3
345.57 506.04 0.43 c p3
345.71 505.48 0.43 c p3
345.86 505.29 0.43 c p3
346.00 506.23 0.43 c p3
346.15 505.85 0.43 c p3
346.29 505.85 0.43 c p3
346.44 505.85 0.43 c p3
346.59 505.67 0.43 c p3
346.73 505.67 0.43 c p3
346.88 505.85 0.43 c p3
347.02 506.04 0.43 c p3
347.17 505.48 0.43 c p3
347.31 504.92 0.43 c p3
347.46 505.85 0.43 c p3
347.60 505.48 0.43 c p3
347.75 505.48 0.43 c p3
347.90 505.85 0.43 c p3
348.04 505.67 0.43 c p3
348.19 506.60 0.43 c p3
348.33 504.92 0.43 c p3
348.48 505.29 0.43 c p3
348.62 506.23 0.43 c p3
348.77 505.29 0.43 c p3
348.92 505.85 0.43 c p3
349.06 507.35 0.43 c p3
349.21 505.11 0.43 c p3
349.35 504.92 0.43 c p3
349.50 506.60 0.43 c p3
349.64 505.48 0.43 c p3
349.79 505.67 0.43 c p3
349.93 506.04 0.43 c p3
350.08 505.85 0.43 c p3
350.23 506.04 0.43 c p3
350.37 506.04 0.43 c p3
350.52 505.29 0.43 c p3
350.66 506.04 0.43 c p3
350.81 505.29 0.43 c p3
350.95 505.48 0.43 c p3
351.10 506.04 0.43 c p3
351.24 505.29 0.43 c p3
351.39 506.42 0.43 c p3
351.54 505.29 0.43 c p3
351.68 504.92 0.43 c p3
351.83 505.29 0.43 c p3
351.97 505.67 0.43 c p3
352.12 505.85 0.43 c p3
352.26 504.17 0.43 c p3
352.41 505.67 0.43 c p3
352.55 505.29 0.43 c p3
352.70 506.42 0.43 c p3
352.85 505.11 0.43 c p3
352.99 505.29 0.43 c p3
353.14 506.04 0.43 c p3
353.28 505.85 0.43 c p3
353.43 506.23 0.43 c p3
353.57 506.60 0.43 c p3
353.72 505.48 0.43 c p3
353.86 505.48 0.43 c p3
354.01 504.92 0.43 c p3
354.16 504.92 0.43 c p3
354.30 506.42 0.43 c p3
354.45 505.11 0.43 c p3
354.59 505.67 0.43 c p3
354.74 505.67 0.43 c p3
354.88 505.29 0.43 c p3
355.03 505.85 0.43 c p3
355.18 505.85 0.43 c p3
355.32 505.48 0.43 c p3
355.47 506.04 0.43 c p3
355.61 505.29 0.43 c p3
355.76 505.29 0.43 c p3
355.90 506.04 0.43 c p3
356.05 506.23 0.43 c p3
356.19 505.11 0.43 c p3
356.34 504.92 0.43 c p3
356.49 505.67 0.43 c p3
356.63 506.42 0.43 c p3
356.78 506.60 0.43 c p3
356.92 506.04 0.43 c p3
357.07 505.29 0.43 c p3
357.21 505.67 0.43 c p3
357.36 504.73 0.43 c p3
357.50 505.11 0.43 c p3
357.65 506.23 0.43 c p3
357.80 506.60 0.43 c p3
357.94 506.42 0.43 c p3
358.09 506.79 0.43 c p3
358.23 505.29 0.43 c p3
358.38 505.29 0.43 c p3
358.52 505.67 0.43 c p3
358.67 506.60 0.43 c p3
358.81 506.42 0.43 c p3
358.96 505.67 0.43 c p3
359.11 505.85 0.43 c p3
359.25 505.85 0.43 c p3
359.40 505.11 0.43 c p3
359.54 504.92 0.43 c p3
359.69 505.11 0.43 c p3
359.83 505.29 0.43 c p3
359.98 505.85 0.43 c p3
360.13 506.23 0.43 c p3
360.27 505.67 0.43 c p3
360.42 506.79 0.43 c p3
360.56 506.23 0.43 c p3
360.71 505.85 0.43 c p3
360.85 505.67 0.43 c p3
361.00 503.42 0.43 c p3
361.14 506.04 0.43 c p3
361.29 505.48 0.43 c p3
361.44 505.11 0.43 c p3
361.58 507.16 0.43 c p3
361.73 506.79 0.43 c p3
361.87 505.85 0.43 c p3
362.02 505.29 0.43 c p3
362.16 506.23 0.43 c p3
362.31 505.67 0.43 c p3
362.45 505.29 0.43 c p3
362.60 506.23 0.43 c p3
362.75 506.60 0.43 c p3
362.89 505.67 0.43 c p3
363.04 506.23 0.43 c p3
363.18 504.73 0.43 c p3
363.33 505.67 0.43 c p3
363.47 504.73 0.43 c p3
363.62 505.11 0.43 c p3
363.76 506.98 0.43 c p3
363.91 506.79 0.43 c p3
364.06 505.85 0.43 c p3
364.20 507.16 0.43 c p3
364.35 505.48 0.43 c p3
364.49 506.98 0.43 c p3
364.64 505.67 0.43 c p3
364.78 504.17 0.43 c p3
364.93 506.42 0.43 c p3
365.08 506.42 0.43 c p3
365.22 503.98 0.43 c p3
365.37 505.29 0.43 c p3
365.51 505.85 0.43 c p3
365.66 505.48 0.43 c p3
365.80 505.67 0.43 c p3
365.95 505.48 0.43 c p3
366.09 506.23 0.43 c p3
366.24 505.67 0.43 c p3
366.39 506.42 0.43 c p3
366.53 506.42 0.43 c p3
366.68 505.67 0.43 c p3
366.82 504.54 0.43 c p3
366.97 505.29 0.43 c p3
367.11 506.42 0.43 c p3
367.26 506.79 0.43 c p3
367.40 504.92 0.43 c p3
367.55 506.79 0.43 c p3
367.70 504.73 0.43 c p3
367.84 505.48 0.43 c p3
367.99 505.29 0.43 c p3
368.13 506.79 0.43 c p3
368.28 505.85 0.43 c p3
368.42 506.23 0.43 c p3
368.57 505.11 0.43 c p3
368.71 506.04 0.43 c p3
368.86 505.85 0.43 c p3
369.01 505.85 0.43 c p3
369.15 506.04 0.43 c p3
369.30 505.29 0.43 c p3
369.44 505.67 0.43 c p3
369.59 504.92 0.43 c p3
369.73 506.98 0.43 c p3
369.88 506.79 0.43 c p3
370.03 505.29 0.43 c p3
370.17 505.29 0.43 c p3
370.32 506.42 0.43 c p3
370.46 506.23 0.43 c p3
370.61 505.85 0.43 c p3
370.75 505.85 0.43 c p3
370.90 506.42 0.43 c p3
371.04 504.92 0.43 c p3
371.19 505.11 0.43 c p3
371.34 506.04 0.43 c p3
371.48 505.85 0.43 c p3
371.63 506.04 0.43 c p3
371.77 505.67 0.43 c p3
371.92 506.79 0.43 c p3
372.06 505.85 0.43 c p3
372.21 505.48 0.43 c p3
372.35 505.48 0.43 c p3
372.50 506.23 0.43 c p3
372.65 506.42 0.43 c p3
372.79 505.67 0.43 c p3
372.94 506.04 0.43 c p3
373.08 506.60 0.43 c p3
373.23 506.04 0.43 c p3
373.37 505.48 0.43 c p3
373.52 505.67 0.43 c p3
373.66 506.79 0.43 c p3
373.81 505.85 0.43 c p3
373.96 505.67 0.43 c p3
374.10 505.48 0.43 c p3
374.25 506.23 0.43 c p3
374.39 507.35 0.43 c p3
374.54 505.85 0.43 c p3
374.68 504.73 0.43 c p3
374.83 506.42 0.43 c p3
374.98 505.11 0.43 c p3
375.12 506.04 0.43 c p3
375.27 505.85 0.43 c p3
375.41 505.85 0.43 c p3
375.56 506.04 0.43 c p3
375.70 504.92 0.43 c p3
375.85 506.79 0.43 c p3
375.99 506.04 0.43 c p3
376.14 505.29 0.43 c p3
376.29 506.23 0.43 c p3
376.43 506.23 0.43 c p3
376.58 504.92 0.43 c p3
376.72 506.23 0.43 c p3
376.87 506.04 0.43 c p3
377.01 505.48 0.43 c p3
377.16 506.98 0.43 c p3
377.30 505.67 0.43 c p3
377.45 506.98 0.43 c p3
377.60 506.60 0.43 c p3
377.74 505.11 0.43 c p3
377.89 506.04 0.43 c p3
378.03 506.60 0.43 c p3
378.18 505.85 0.43 c p3
378.32 506.79 0.43 c p3
378.47 505.29 0.43 c p3
378.61 505.67 0.43 c p3
378.76 507.35 0.43 c p3
378.91 506.04 0.43 c p3
379.05 505.48 0.43 c p3
379.20 505.67 0.43 c p3
379.34 506.04 0.43 c p3
379.49 505.48 0.43 c p3
379.63 505.48 0.43 c p3
379.78 505.11 0.43 c p3
379.93 505.67 0.43 c p3
380.07 505.48 0.43 c p3
380.22 504.92 0.43 c p3
380.36 504.73 0.43 c p3
380.51 505.85 0.43 c p3
380.65 506.04 0.43 c p3
380.80 507.35 0.43 c p3
380.94 504.73 0.43 c p3
381.09 504.54 0.43 c p3
381.24 505.85 0.43 c p3
381.38 505.67 0.43 c p3
381.53 506.23 0.43 c p3
381.67 505.67 0.43 c p3
381.82 505.67 0.43 c p3
381.96 504.92 0.43 c p3
382.11 505.11 0.43 c p3
382.25 505.85 0.43 c p3
382.40 505.29 0.43 c p3
0.00 0.00 432.00 576.00 cl
0 0 0 srgb
0.75 setlinewidth
[] 0 setdash
1 setlinecap
1 setlinejoin
10.00 setmiterlimit
np
236.96 345.60 m
145.59 0 l
o
np
236.96 345.60 m
0 -5.76 l
o
np
266.08 345.60 m
0 -5.76 l
o
np
295.19 345.60 m
0 -5.76 l
o
np
324.31 345.60 m
0 -5.76 l
o
np
353.43 345.60 m
0 -5.76 l
o
np
382.55 345.60 m
0 -5.76 l
o
/Font1 findfont 10 s
236.96 329.47 (0) .5 0 t
266.08 329.47 (500) .5 0 t
295.19 329.47 (1000) .5 0 t
353.43 329.47 (2000) .5 0 t
np
216.00 352.00 m
0 153.33 l
o
np
216.00 352.00 m
-5.76 0 l
o
np
216.00 377.55 m
-5.76 0 l
o
np
216.00 403.11 m
-5.76 0 l
o
np
216.00 428.66 m
-5.76 0 l
o
np
216.00 454.22 m
-5.76 0 l
o
np
216.00 479.77 m
-5.76 0 l
o
np
216.00 505.33 m
-5.76 0 l
o
209.09 348.41 (0.00) 1 0 t
209.09 373.96 (0.05) 1 0 t
209.09 399.52 (0.10) 1 0 t
209.09 425.07 (0.15) 1 0 t
209.09 450.63 (0.20) 1 0 t
209.09 476.18 (0.25) 1 0 t
209.09 501.74 (0.30) 1 0 t
np
216.00 345.60 m
172.80 0 l
0 172.80 l
-172.80 0 l
0 -172.80 l
o
0.00 0.00 432.00 576.00 cl
/Font1 findfont 10 s
0 0 0 srgb
302.40 313.34 (Time / ms \(total\)) .5 0 t
190.66 432.00 (U / V) .5 90 t
216.00 345.60 388.80 518.40 cl
0 0 0 srgb
0.38 setlinewidth
[ 1.13 1.88] 0 setdash
1 setlinecap
1 setlinejoin
10.00 setmiterlimit
np
222.55 345.60 m
0 172.80 l
o
np
234.63 345.60 m
0 172.80 l
o
np
239.29 345.60 m
0 172.80 l
o
np
336.54 345.60 m
0 172.80 l
o
86.40 57.60 388.80 288.00 cl
1 0 0 srgb
1.50 setlinewidth
[] 0 setdash
1 setlinecap
1 setlinejoin
10.00 setmiterlimit
np
97.60 279.47 m
1.41 -6.68 l
1.40 -6.45 l
1.41 -6.23 l
1.41 -6.02 l
1.41 -5.81 l
1.40 -5.61 l
1.41 -5.42 l
1.41 -5.24 l
1.40 -5.05 l
1.41 -4.89 l
1.41 -4.71 l
1.40 -4.56 l
1.41 -4.40 l
1.41 -4.25 l
1.41 -4.10 l
1.40 -3.97 l
1.41 -3.83 l
1.41 -3.69 l
1.40 -3.58 l
1.41 -3.45 l
1.41 -3.33 l
1.40 -3.22 l
1.41 -3.10 l
1.41 -3.00 l
1.41 -2.90 l
1.40 -2.80 l
1.41 -2.71 l
1.41 -2.61 l
1.40 -2.52 l
1.41 -2.44 l
1.41 -2.35 l
1.41 -2.28 l
1.40 -2.19 l
1.41 -2.12 l
1.41 -2.05 l
1.40 -1.98 l
1.41 -1.91 l
1.41 -1.84 l
1.40 -1.79 l
1.41 -1.72 l
1.41 -1.66 l
1.41 -1.60 l
1.40 -1.56 l
1.41 -1.49 l
1.41 -1.45 l
1.40 -1.40 l
1.41 -1.35 l
1.41 -1.30 l
1.40 -1.26 l
1.41 -1.21 l
1.41 -1.18 l
1.41 -1.13 l
1.40 -1.10 l
1.41 -1.06 l
1.41 -1.02 l
1.40 -0.98 l
1.41 -0.96 l
1.41 -0.92 l
1.41 -0.89 l
1.40 -0.86 l
1.41 -0.82 l
1.41 -0.81 l
1.40 -0.77 l
1.41 -0.75 l
1.41 -0.72 l
1.40 -0.70 l
1.41 -0.67 l
1.41 -0.65 l
1.41 -0.63 l
1.40 -0.60 l
1.41 -0.59 l
1.41 -0.57 l
1.40 -0.54 l
1.41 -0.53 l
1.41 -0.51 l
1.40 -0.49 l
1.41 -0.48 l
1.41 -0.46 l
1.41 -0.44 l
1.40 -0.43 l
1.41 -0.41 l
1.41 -0.40 l
1.40 -0.39 l
1.41 -0.37 l
1.41 -0.36 l
1.41 -0.35 l
1.40 -0.33 l
1.41 -0.33 l
1.41 -0.31 l
1.40 -0.31 l
1.41 -0.29 l
1.41 -0.28 l
1.40 -0.27 l
1.41 -0.27 l
1.41 -0.25 l
1.41 -0.25 l
1.40 -0.23 l
1.41 -0.23 l
1.41 -0.22 l
238.30 90.06 lineto
1.41 -0.20 l
1.41 -0.20 l
1.40 -0.20 l
1.41 -0.18 l
1.41 -0.18 l
1.41 -0.18 l
1.40 -0.16 l
1.41 -0.16 l
1.41 -0.16 l
1.40 -0.15 l
1.41 -0.15 l
1.41 -0.14 l
1.40 -0.13 l
1.41 -0.14 l
1.41 -0.12 l
1.41 -0.13 l
1.40 -0.11 l
1.41 -0.12 l
1.41 -0.11 l
1.40 -0.11 l
1.41 -0.10 l
1.41 -0.10 l
1.41 -0.09 l
1.40 -0.10 l
1.41 -0.09 l
1.41 -0.08 l
1.40 -0.09 l
1.41 -0.08 l
1.41 -0.08 l
1.40 -0.07 l
1.41 -0.07 l
1.41 -0.07 l
1.41 -0.07 l
1.40 -0.07 l
1.41 -0.06 l
1.41 -0.06 l
1.40 -0.06 l
1.41 -0.06 l
1.41 -0.05 l
1.40 -0.06 l
1.41 -0.05 l
1.41 -0.05 l
1.41 -0.05 l
1.40 -0.04 l
1.41 -0.05 l
1.41 -0.04 l
1.40 -0.04 l
1.41 -0.04 l
1.41 -0.04 l
1.41 -0.04 l
1.40 -0.03 l
1.41 -0.04 l
1.41 -0.03 l
1.40 -0.04 l
1.41 -0.03 l
1.41 -0.03 l
1.40 -0.03 l
1.41 -0.03 l
1.41 -0.02 l
1.41 -0.03 l
1.40 -0.03 l
1.41 -0.02 l
1.41 -0.02 l
1.40 -0.03 l
1.41 -0.02 l
1.41 -0.02 l
1.40 -0.02 l
1.41 -0.02 l
1.41 -0.02 l
1.41 -0.02 l
1.40 -0.02 l
1.41 -0.02 l
1.41 -0.01 l
1.40 -0.02 l
1.41 -0.01 l
1.41 -0.02 l
1.41 -0.01 l
1.40 -0.02 l
1.41 -0.01 l
1.41 -0.02 l
1.40 -0.01 l
1.41 -0.01 l
1.41 -0.01 l
1.40 -0.01 l
1.41 -0.02 l
1.41 -0.01 l
1.41 -0.01 l
1.40 -0.01 l
1.41 -0.01 l
1.41 -0.01 l
1.40 0 l
1.41 -0.01 l
1.41 -0.01 l
1.40 -0.01 l
1.41 -0.01 l
1.41 -0.01 l
1.41 0 l
1.40 -0.01 l
1.41 -0.01 l
o
0.00 0.00 432.00 576.00 cl
0 0 0 srgb
0.75 setlinewidth
[] 0 setdash
1 setlinecap
1 setlinejoin
10.00 setmiterlimit
np
97.60 57.60 m
280.00 0 l
o
np
97.60 57.60 m
0 -5.76 l
o
np
153.60 57.60 m
0 -5.76 l
o
np
209.60 57.60 m
0 -5.76 l
o
np
265.60 57.60 m
0 -5.76 l
o
np
321.60 57.60 m
0 -5.76 l
o
np
377.60 57.60 m
0 -5.76 l
o
/Font1 findfont 10 s
97.60 41.47 (0) .5 0 t
153.60 41.47 (500) .5 0 t
209.60 41.47 (1000) .5 0 t
265.60 41.47 (1500) .5 0 t
321.60 41.47 (2000) .5 0 t
377.60 41.47 (2500) .5 0 t
np
86.40 66.13 m
0 218.63 l
o
np
86.40 66.13 m
-5.76 0 l
o
np
86.40 97.37 m
-5.76 0 l
o
np
86.40 128.60 m
-5.76 0 l
o
np
86.40 159.83 m
-5.76 0 l
o
np
86.40 191.06 m
-5.76 0 l
o
np
86.40 222.29 m
-5.76 0 l
o
np
86.40 253.52 m
-5.76 0 l
o
np
86.40 284.76 m
-5.76 0 l
o
79.49 62.54 (0.00) 1 0 t
79.49 93.78 (0.02) 1 0 t
79.49 125.01 (0.04) 1 0 t
79.49 156.24 (0.06) 1 0 t
79.49 187.47 (0.08) 1 0 t
79.49 218.70 (0.10) 1 0 t
79.49 249.93 (0.12) 1 0 t
79.49 281.17 (0.14) 1 0 t
np
86.40 57.60 m
302.40 0 l
0 230.40 l
-302.40 0 l
0 -230.40 l
o
0.00 0.00 432.00 576.00 cl
/Font1 findfont 10 s
0 0 0 srgb
237.60 13.82 (Time / ms \(after pulse\)) .5 0 t
49.54 172.80 (Absorbance A) .5 90 t
86.40 57.60 388.80 288.00 cl
/bg { 1 1 1 srgb } def
0 0 0 srgb
0.75 setlinewidth
[] 0 setdash
1 setlinecap
1 setlinejoin
10.00 setmiterlimit
102.36 260.09 0.65 c p3
102.64 262.22 0.65 c p3
102.92 254.78 0.65 c p3
103.20 254.78 0.65 c p3
103.48 255.84 0.65 c p3
103.76 246.54 0.65 c p3
104.04 243.41 0.65 c p3
104.32 248.63 0.65 c p3
104.60 241.34 0.65 c p3
104.88 243.41 0.65 c p3
105.16 246.54 0.65 c p3
105.44 246.54 0.65 c p3
105.72 243.41 0.65 c p3
106.00 247.59 0.65 c p3
106.28 241.34 0.65 c p3
106.56 239.27 0.65 c p3
106.84 241.34 0.65 c p3
107.12 243.41 0.65 c p3
107.40 239.27 0.65 c p3
107.68 237.20 0.65 c p3
107.96 235.14 0.65 c p3
108.24 231.05 0.65 c p3
108.52 237.20 0.65 c p3
108.80 231.05 0.65 c p3
109.08 229.01 0.65 c p3
109.36 231.05 0.65 c p3
109.64 232.07 0.65 c p3
109.92 225.11 0.65 c p3
110.20 224.10 0.65 c p3
110.48 225.96 0.65 c p3
110.76 216.06 0.65 c p3
111.04 223.09 0.65 c p3
111.32 223.09 0.65 c p3
111.60 217.06 0.65 c p3
111.88 220.07 0.65 c p3
112.16 218.06 0.65 c p3
112.44 208.12 0.65 c p3
112.72 223.09 0.65 c p3
113.00 209.11 0.65 c p3
113.28 216.06 0.65 c p3
113.56 218.06 0.65 c p3
113.84 218.06 0.65 c p3
114.12 217.06 0.65 c p3
114.40 216.06 0.65 c p3
114.68 216.06 0.65 c p3
114.96 220.07 0.65 c p3
115.24 211.09 0.65 c p3
115.52 213.07 0.65 c p3
115.80 211.09 0.65 c p3
116.08 207.13 0.65 c p3
116.36 208.12 0.65 c p3
116.64 204.18 0.65 c p3
116.92 206.14 0.65 c p3
117.20 207.13 0.65 c p3
117.48 203.20 0.65 c p3
117.76 200.26 0.65 c p3
118.04 202.22 0.65 c p3
118.32 195.56 0.65 c p3
118.60 194.59 0.65 c p3
118.88 201.24 0.65 c p3
119.16 198.48 0.65 c p3
119.44 197.50 0.65 c p3
119.72 198.48 0.65 c p3
120.00 192.66 0.65 c p3
120.28 194.59 0.65 c p3
120.56 196.53 0.65 c p3
120.84 189.77 0.65 c p3
121.12 193.63 0.65 c p3
121.40 194.59 0.65 c p3
121.68 194.59 0.65 c p3
121.96 200.26 0.65 c p3
122.24 197.50 0.65 c p3
122.52 193.63 0.65 c p3
122.80 191.70 0.65 c p3
123.08 199.29 0.65 c p3
123.36 186.89 0.65 c p3
123.64 190.73 0.65 c p3
123.92 187.85 0.65 c p3
124.20 180.23 0.65 c p3
124.48 183.08 0.65 c p3
124.76 179.28 0.65 c p3
125.04 180.23 0.65 c p3
125.32 179.28 0.65 c p3
125.60 185.94 0.65 c p3
125.88 176.45 0.65 c p3
126.16 176.45 0.65 c p3
126.44 173.63 0.65 c p3
126.72 175.51 0.65 c p3
127.00 174.57 0.65 c p3
127.28 173.63 0.65 c p3
127.56 178.34 0.65 c p3
127.84 171.91 0.65 c p3
128.12 172.84 0.65 c p3
128.40 174.57 0.65 c p3
128.68 178.34 0.65 c p3
128.96 172.84 0.65 c p3
129.24 179.28 0.65 c p3
129.52 176.45 0.65 c p3
129.80 171.91 0.65 c p3
130.08 172.84 0.65 c p3
130.36 170.04 0.65 c p3
130.64 173.63 0.65 c p3
130.92 170.04 0.65 c p3
131.20 170.04 0.65 c p3
131.48 172.84 0.65 c p3
131.76 171.91 0.65 c p3
132.04 171.91 0.65 c p3
132.32 171.91 0.65 c p3
132.60 164.46 0.65 c p3
132.88 168.17 0.65 c p3
133.16 170.97 0.65 c p3
133.44 167.24 0.65 c p3
133.72 163.53 0.65 c p3
134.00 166.32 0.65 c p3
134.28 161.69 0.65 c p3
134.56 163.53 0.65 c p3
134.84 159.85 0.65 c p3
135.12 160.77 0.65 c p3
135.40 157.09 0.65 c p3
135.68 156.18 0.65 c p3
135.96 155.26 0.65 c p3
136.24 160.77 0.65 c p3
136.52 159.85 0.65 c p3
136.80 157.09 0.65 c p3
137.08 152.53 0.65 c p3
137.36 153.44 0.65 c p3
137.64 156.18 0.65 c p3
137.92 152.53 0.65 c p3
138.20 152.53 0.65 c p3
138.48 150.71 0.65 c p3
138.76 152.53 0.65 c p3
139.04 157.09 0.65 c p3
139.32 153.44 0.65 c p3
139.60 155.26 0.65 c p3
139.88 150.71 0.65 c p3
140.16 154.35 0.65 c p3
140.44 148.90 0.65 c p3
140.72 153.44 0.65 c p3
141.00 158.01 0.65 c p3
141.28 155.26 0.65 c p3
141.56 156.18 0.65 c p3
141.84 153.44 0.65 c p3
142.12 149.81 0.65 c p3
142.40 147.24 0.65 c p3
142.68 149.81 0.65 c p3
142.96 153.44 0.65 c p3
143.24 156.18 0.65 c p3
143.52 148.90 0.65 c p3
143.80 150.71 0.65 c p3
144.08 148.90 0.65 c p3
144.36 149.81 0.65 c p3
144.64 146.34 0.65 c p3
144.92 146.34 0.65 c p3
145.20 144.54 0.65 c p3
145.48 144.54 0.65 c p3
145.76 146.34 0.65 c p3
146.04 144.54 0.65 c p3
146.32 140.06 0.65 c p3
146.60 137.39 0.65 c p3
146.88 141.85 0.65 c p3
147.16 140.96 0.65 c p3
147.44 138.28 0.65 c p3
147.72 137.39 0.65 c p3
148.00 142.75 0.65 c p3
148.28 140.06 0.65 c p3
148.56 140.06 0.65 c p3
148.84 136.50 0.65 c p3
149.12 140.06 0.65 c p3
149.40 141.85 0.65 c p3
149.68 140.06 0.65 c p3
149.96 145.44 0.65 c p3
150.24 145.44 0.65 c p3
150.52 140.06 0.65 c p3
150.80 136.50 0.65 c p3
151.08 134.72 0.65 c p3
151.36 134.72 0.65 c p3
151.64 130.31 0.65 c p3
151.92 135.61 0.65 c p3
152.20 137.39 0.65 c p3
152.48 134.72 0.65 c p3
152.76 139.17 0.65 c p3
153.04 135.61 0.65 c p3
153.32 130.31 0.65 c p3
153.60 128.55 0.65 c p3
153.88 130.31 0.65 c p3
154.16 124.32 0.65 c p3
154.44 135.61 0.65 c p3
154.72 132.95 0.65 c p3
155.00 132.95 0.65 c p3
155.28 127.67 0.65 c p3
155.56 127.67 0.65 c p3
155.84 125.92 0.65 c p3
156.12 126.79 0.65 c p3
156.40 126.79 0.65 c p3
156.68 125.05 0.65 c p3
156.96 131.19 0.65 c p3
157.24 128.55 0.65 c p3
157.52 135.61 0.65 c p3
157.80 128.55 0.65 c p3
158.08 128.55 0.65 c p3
158.36 130.31 0.65 c p3
158.64 127.67 0.65 c p3
158.92 125.92 0.65 c p3
159.20 132.07 0.65 c p3
159.48 132.07 0.65 c p3
159.76 129.43 0.65 c p3
160.04 126.79 0.65 c p3
160.32 125.92 0.65 c p3
160.60 120.83 0.65 c p3
160.88 120.83 0.65 c p3
161.16 127.67 0.65 c p3
161.44 125.92 0.65 c p3
161.72 122.57 0.65 c p3
162.00 122.57 0.65 c p3
162.28 118.24 0.65 c p3
162.56 123.44 0.65 c p3
162.84 123.44 0.65 c p3
163.12 119.97 0.65 c p3
163.40 119.10 0.65 c p3
163.68 127.67 0.65 c p3
163.96 117.37 0.65 c p3
164.24 119.10 0.65 c p3
164.52 123.44 0.65 c p3
164.80 119.97 0.65 c p3
165.08 119.10 0.65 c p3
165.36 123.44 0.65 c p3
165.64 120.83 0.65 c p3
165.92 120.83 0.65 c p3
166.20 121.71 0.65 c p3
166.48 122.57 0.65 c p3
166.76 125.05 0.65 c p3
167.04 118.24 0.65 c p3
167.32 122.57 0.65 c p3
167.60 119.10 0.65 c p3
167.88 120.83 0.65 c p3
168.16 119.97 0.65 c p3
168.44 124.32 0.65 c p3
168.72 120.83 0.65 c p3
169.00 116.51 0.65 c p3
169.28 117.37 0.65 c p3
169.56 112.21 0.65 c p3
169.84 111.35 0.65 c p3
170.12 112.21 0.65 c p3
170.40 117.37 0.65 c p3
170.68 116.51 0.65 c p3
170.96 114.79 0.65 c p3
171.24 116.51 0.65 c p3
171.52 113.93 0.65 c p3
171.80 111.35 0.65 c p3
172.08 113.07 0.65 c p3
172.36 112.21 0.65 c p3
172.64 113.93 0.65 c p3
172.92 113.93 0.65 c p3
173.20 113.93 0.65 c p3
173.48 115.65 0.65 c p3
173.76 116.51 0.65 c p3
174.04 120.83 0.65 c p3
174.32 114.79 0.65 c p3
174.60 114.79 0.65 c p3
174.88 117.37 0.65 c p3
175.16 120.83 0.65 c p3
175.44 112.21 0.65 c p3
175.72 115.65 0.65 c p3
176.00 113.93 0.65 c p3
176.28 107.94 0.65 c p3
176.56 112.21 0.65 c p3
176.84 113.07 0.65 c p3
177.12 108.79 0.65 c p3
177.40 112.21 0.65 c p3
177.68 108.79 0.65 c p3
177.96 108.79 0.65 c p3
178.24 97.09 0.65 c p3
178.52 103.69 0.65 c p3
178.80 112.21 0.65 c p3
179.08 110.50 0.65 c p3
179.36 107.94 0.65 c p3
179.64 113.07 0.65 c p3
179.92 102.85 0.65 c p3
180.20 114.79 0.65 c p3
180.48 105.38 0.65 c p3
180.76 108.79 0.65 c p3
181.04 112.21 0.65 c p3
181.32 113.07 0.65 c p3
181.60 108.79 0.65 c p3
181.88 106.24 0.65 c p3
182.16 107.09 0.65 c p3
182.44 110.50 0.65 c p3
182.72 106.24 0.65 c p3
183.00 105.38 0.65 c p3
183.28 104.54 0.65 c p3
183.56 107.94 0.65 c p3
183.84 109.64 0.65 c p3
184.12 97.09 0.65 c p3
184.40 106.24 0.65 c p3
184.68 106.24 0.65 c p3
184.96 100.45 0.65 c p3
185.24 99.61 0.65 c p3
185.52 102.85 0.65 c p3
185.80 106.24 0.65 c p3
186.08 102.85 0.65 c p3
186.36 104.54 0.65 c p3
186.64 107.09 0.65 c p3
186.92 107.94 0.65 c p3
187.20 107.09 0.65 c p3
187.48 113.07 0.65 c p3
187.76 106.24 0.65 c p3
188.04 104.54 0.65 c p3
188.32 107.09 0.65 c p3
188.60 104.54 0.65 c p3
188.88 103.69 0.65 c p3
189.16 104.54 0.65 c p3
189.44 98.77 0.65 c p3
189.72 102.85 0.65 c p3
190.00 105.38 0.65 c p3
190.28 97.09 0.65 c p3
190.56 96.25 0.65 c p3
190.84 107.94 0.65 c p3
191.12 96.25 0.65 c p3
191.40 102.00 0.65 c p3
191.68 104.54 0.65 c p3
191.96 102.00 0.65 c p3
192.24 102.85 0.65 c p3
192.52 102.85 0.65 c p3
192.80 107.94 0.65 c p3
193.08 107.94 0.65 c p3
193.36 106.24 0.65 c p3
193.64 100.45 0.65 c p3
193.92 107.94 0.65 c p3
194.20 100.45 0.65 c p3
194.48 106.24 0.65 c p3
194.76 105.38 0.65 c p3
195.04 100.45 0.65 c p3
195.32 102.00 0.65 c p3
195.60 104.54 0.65 c p3
195.88 102.00 0.65 c p3
196.16 98.77 0.65 c p3
196.44 98.77 0.65 c p3
196.72 94.58 0.65 c p3
197.00 97.09 0.65 c p3
197.28 97.09 0.65 c p3
197.56 98.77 0.65 c p3
197.84 99.61 0.65 c p3
198.12 97.93 0.65 c p3
198.40 96.25 0.65 c p3
198.68 95.42 0.65 c p3
198.96 100.45 0.65 c p3
199.24 101.30 0.65 c p3
199.52 102.00 0.65 c p3
199.80 100.45 0.65 c p3
200.08 100.45 0.65 c p3
200.36 103.69 0.65 c p3
200.64 96.25 0.65 c p3
200.92 102.85 0.65 c p3
201.20 100.45 0.65 c p3
201.48 94.58 0.65 c p3
201.76 100.45 0.65 c p3
202.04 99.61 0.65 c p3
202.32 93.75 0.65 c p3
202.60 95.42 0.65 c p3
202.88 99.61 0.65 c p3
203.16 87.93 0.65 c p3
203.44 95.42 0.65 c p3
203.72 96.25 0.65 c p3
204.00 99.61 0.65 c p3
204.28 96.25 0.65 c p3
204.56 97.93 0.65 c p3
204.84 98.77 0.65 c p3
205.12 91.25 0.65 c p3
205.40 98.77 0.65 c p3
205.68 100.45 0.65 c p3
205.96 99.61 0.65 c p3
206.24 103.69 0.65 c p3
206.52 95.42 0.65 c p3
206.80 99.61 0.65 c p3
207.08 96.25 0.65 c p3
207.36 102.85 0.65 c p3
207.64 97.93 0.65 c p3
207.92 99.61 0.65 c p3
208.20 96.25 0.65 c p3
208.48 92.08 0.65 c p3
208.76 92.91 0.65 c p3
209.04 89.59 0.65 c p3
209.32 95.42 0.65 c p3
209.60 92.91 0.65 c p3
209.88 90.42 0.65 c p3
210.16 97.09 0.65 c p3
210.44 96.25 0.65 c p3
210.72 93.75 0.65 c p3
211.00 92.91 0.65 c p3
211.28 95.42 0.65 c p3
211.56 97.09 0.65 c p3
211.84 95.42 0.65 c p3
212.12 87.11 0.65 c p3
212.40 92.91 0.65 c p3
212.68 91.25 0.65 c p3
212.96 92.91 0.65 c p3
213.24 95.42 0.65 c p3
213.52 92.08 0.65 c p3
213.80 95.42 0.65 c p3
214.08 89.59 0.65 c p3
214.36 95.42 0.65 c p3
214.64 95.42 0.65 c p3
214.92 91.25 0.65 c p3
215.20 92.91 0.65 c p3
215.48 97.93 0.65 c p3
215.76 97.09 0.65 c p3
216.04 98.77 0.65 c p3
216.32 90.42 0.65 c p3
216.60 97.09 0.65 c p3
216.88 97.09 0.65 c p3
217.16 95.42 0.65 c p3
217.44 91.25 0.65 c p3
217.72 90.42 0.65 c p3
218.00 90.42 0.65 c p3
218.28 94.58 0.65 c p3
218.56 90.42 0.65 c p3
218.84 85.46 0.65 c p3
219.12 87.11 0.65 c p3
219.40 91.25 0.65 c p3
219.68 94.58 0.65 c p3
219.96 95.42 0.65 c p3
220.24 88.76 0.65 c p3
220.52 92.08 0.65 c p3
220.80 92.91 0.65 c p3
221.08 94.58 0.65 c p3
221.36 97.09 0.65 c p3
221.64 92.91 0.65 c p3
221.92 93.75 0.65 c p3
222.20 92.91 0.65 c p3
222.48 94.58 0.65 c p3
222.76 95.42 0.65 c p3
223.04 92.91 0.65 c p3
223.32 89.59 0.65 c p3
223.60 89.59 0.65 c p3
223.88 93.75 0.65 c p3
224.16 89.59 0.65 c p3
224.44 94.58 0.65 c p3
224.72 99.61 0.65 c p3
225.00 95.42 0.65 c p3
225.28 92.08 0.65 c p3
225.56 92.08 0.65 c p3
225.84 90.42 0.65 c p3
226.12 94.58 0.65 c p3
226.40 90.42 0.65 c p3
226.68 90.42 0.65 c p3
226.96 87.93 0.65 c p3
227.24 90.42 0.65 c p3
227.52 92.08 0.65 c p3
227.80 92.08 0.65 c p3
228.08 97.09 0.65 c p3
228.36 91.25 0.65 c p3
228.64 93.75 0.65 c p3
228.92 90.42 0.65 c p3
229.20 91.25 0.65 c p3
229.48 99.61 0.65 c p3
229.76 87.11 0.65 c p3
230.04 92.08 0.65 c p3
230.32 91.25 0.65 c p3
230.60 92.91 0.65 c p3
230.88 93.75 0.65 c p3
231.16 88.76 0.65 c p3
231.44 96.25 0.65 c p3
231.72 92.91 0.65 c p3
232.00 89.59 0.65 c p3
232.28 88.76 0.65 c p3
232.56 90.42 0.65 c p3
232.84 95.42 0.65 c p3
233.12 85.46 0.65 c p3
233.40 88.76 0.65 c p3
233.68 96.25 0.65 c p3
233.96 94.58 0.65 c p3
234.24 93.75 0.65 c p3
234.52 85.46 0.65 c p3
234.80 92.08 0.65 c p3
235.08 88.76 0.65 c p3
235.36 92.08 0.65 c p3
235.64 89.59 0.65 c p3
235.92 91.25 0.65 c p3
236.20 94.58 0.65 c p3
236.48 90.42 0.65 c p3
236.76 95.42 0.65 c p3
237.04 92.91 0.65 c p3
237.32 88.76 0.65 c p3
237.60 90.42 0.65 c p3
237.88 89.59 0.65 c p3
238.16 87.11 0.65 c p3
238.44 86.28 0.65 c p3
238.72 94.58 0.65 c p3
239.00 89.59 0.65 c p3
239.28 87.11 0.65 c p3
239.56 94.58 0.65 c p3
239.84 90.42 0.65 c p3
240.12 88.76 0.65 c p3
240.40 90.42 0.65 c p3
240.68 86.28 0.65 c p3
240.96 92.91 0.65 c p3
241.24 83.81 0.65 c p3
241.52 84.63 0.65 c p3
241.80 92.91 0.65 c p3
242.08 87.11 0.65 c p3
242.36 87.93 0.65 c p3
242.64 84.63 0.65 c p3
242.92 90.42 0.65 c p3
243.20 87.93 0.65 c p3
243.48 87.93 0.65 c p3
243.76 87.93 0.65 c p3
244.04 93.75 0.65 c p3
244.32 88.76 0.65 c p3
244.60 85.46 0.65 c p3
244.88 92.08 0.65 c p3
245.16 88.76 0.65 c p3
245.44 91.25 0.65 c p3
245.72 90.42 0.65 c p3
246.00 85.46 0.65 c p3
246.28 87.11 0.65 c p3
246.56 90.42 0.65 c p3
246.84 84.63 0.65 c p3
247.12 88.76 0.65 c p3
247.40 93.75 0.65 c p3
247.68 85.46 0.65 c p3
247.96 82.99 0.65 c p3
248.24 88.76 0.65 c p3
248.52 85.46 0.65 c p3
248.80 87.93 0.65 c p3
249.08 90.42 0.65 c p3
249.36 91.25 0.65 c p3
249.64 86.28 0.65 c p3
249.92 91.25 0.65 c p3
250.20 90.42 0.65 c p3
250.48 89.59 0.65 c p3
250.76 87.93 0.65 c p3
251.04 90.42 0.65 c p3
251.32 86.28 0.65 c p3
251.60 87.11 0.65 c p3
251.88 88.76 0.65 c p3
252.16 81.35 0.65 c p3
252.44 87.11 0.65 c p3
252.72 87.93 0.65 c p3
253.00 86.28 0.65 c p3
253.28 84.63 0.65 c p3
253.56 89.59 0.65 c p3
253.84 84.63 0.65 c p3
254.12 91.25 0.65 c p3
254.40 87.11 0.65 c p3
254.68 85.46 0.65 c p3
254.96 88.76 0.65 c p3
255.24 82.99 0.65 c p3
255.52 84.63 0.65 c p3
255.80 87.11 0.65 c p3
256.08 90.42 0.65 c p3
256.36 88.76 0.65 c p3
256.64 92.91 0.65 c p3
256.92 82.17 0.65 c p3
257.20 93.75 0.65 c p3
257.48 90.42 0.65 c p3
257.76 91.25 0.65 c p3
258.04 89.59 0.65 c p3
258.32 87.93 0.65 c p3
258.60 87.11 0.65 c p3
258.88 88.76 0.65 c p3
259.16 84.63 0.65 c p3
259.44 85.46 0.65 c p3
259.72 88.76 0.65 c p3
260.00 85.46 0.65 c p3
260.28 88.76 0.65 c p3
260.56 87.93 0.65 c p3
260.84 83.81 0.65 c p3
261.12 86.28 0.65 c p3
261.40 85.46 0.65 c p3
261.68 87.93 0.65 c p3
261.96 91.25 0.65 c p3
262.24 91.25 0.65 c p3
262.52 87.93 0.65 c p3
262.80 88.76 0.65 c p3
263.08 89.59 0.65 c p3
263.36 87.93 0.65 c p3
263.64 92.91 0.65 c p3
263.92 82.99 0.65 c p3
264.20 85.46 0.65 c p3
264.48 87.93 0.65 c p3
264.76 92.08 0.65 c p3
265.04 90.42 0.65 c p3
265.32 83.81 0.65 c p3
265.60 87.11 0.65 c p3
265.88 86.28 0.65 c p3
266.16 82.99 0.65 c p3
266.44 90.42 0.65 c p3
266.72 86.28 0.65 c p3
267.00 87.93 0.65 c p3
267.28 84.63 0.65 c p3
267.56 87.11 0.65 c p3
267.84 83.81 0.65 c p3
268.12 87.93 0.65 c p3
268.40 89.59 0.65 c p3
268.68 90.42 0.65 c p3
268.96 87.11 0.65 c p3
269.24 87.11 0.65 c p3
269.52 84.63 0.65 c p3
269.80 88.76 0.65 c p3
270.08 88.76 0.65 c p3
270.36 90.42 0.65 c p3
270.64 86.28 0.65 c p3
270.92 89.59 0.65 c p3
271.20 87.93 0.65 c p3
271.48 92.08 0.65 c p3
271.76 87.11 0.65 c p3
272.04 89.59 0.65 c p3
272.32 82.99 0.65 c p3
272.60 82.17 0.65 c p3
272.88 90.42 0.65 c p3
273.16 89.59 0.65 c p3
273.44 89.59 0.65 c p3
273.72 86.28 0.65 c p3
274.00 85.46 0.65 c p3
274.28 81.35 0.65 c p3
274.56 88.76 0.65 c p3
274.84 80.53 0.65 c p3
275.12 88.76 0.65 c p3
275.40 90.42 0.65 c p3
275.68 88.76 0.65 c p3
275.96 89.59 0.65 c p3
276.24 91.25 0.65 c p3
276.52 83.81 0.65 c p3
276.80 90.42 0.65 c p3
277.08 82.99 0.65 c p3
277.36 83.81 0.65 c p3
277.64 85.46 0.65 c p3
277.92 88.76 0.65 c p3
278.20 88.76 0.65 c p3
278.48 84.63 0.65 c p3
278.76 81.35 0.65 c p3
279.04 90.42 0.65 c p3
279.32 91.25 0.65 c p3
279.60 83.81 0.65 c p3
279.88 92.08 0.65 c p3
280.16 89.59 0.65 c p3
280.44 89.59 0.65 c p3
280.72 91.25 0.65 c p3
281.00 87.93 0.65 c p3
281.28 82.99 0.65 c p3
281.56 87.93 0.65 c p3
281.84 85.46 0.65 c p3
282.12 85.46 0.65 c p3
282.40 88.76 0.65 c p3
282.68 85.46 0.65 c p3
282.96 87.93 0.65 c p3
283.24 87.11 0.65 c p3
283.52 82.99 0.65 c p3
283.80 88.76 0.65 c p3
284.08 87.93 0.65 c p3
284.36 84.63 0.65 c p3
284.64 89.59 0.65 c p3
284.92 92.08 0.65 c p3
285.20 81.35 0.65 c p3
285.48 85.46 0.65 c p3
285.76 90.42 0.65 c p3
286.04 86.28 0.65 c p3
286.32 85.46 0.65 c p3
286.60 86.28 0.65 c p3
286.88 86.28 0.65 c p3
287.16 87.93 0.65 c p3
287.44 89.59 0.65 c p3
287.72 86.28 0.65 c p3
288.00 84.63 0.65 c p3
288.28 85.46 0.65 c p3
288.56 87.93 0.65 c p3
288.84 90.42 0.65 c p3
289.12 84.63 0.65 c p3
289.40 84.63 0.65 c p3
216.00 201.60 367.20 247.68 cl
0 0 0 srgb
0.75 setlinewidth
[] 0 setdash
1 setlinecap
1 setlinejoin
10.00 setmiterlimit
221.60 227.06 0.43 c p1
221.81 230.55 0.43 c p1
222.02 224.00 0.43 c p1
222.23 225.23 0.43 c p1
222.44 227.57 0.43 c p1
222.65 219.06 0.43 c p1
222.86 216.99 0.43 c p1
223.07 223.66 0.43 c p1
223.28 217.22 0.43 c p1
223.49 220.58 0.43 c p1
223.70 225.03 0.43 c p1
223.91 226.20 0.43 c p1
224.11 224.09 0.43 c p1
224.32 229.62 0.43 c p1
224.53 224.22 0.43 c p1
224.74 223.19 0.43 c p1
224.95 226.49 0.43 c p1
225.16 229.78 0.43 c p1
225.37 226.56 0.43 c p1
225.58 225.50 0.43 c p1
225.79 224.45 0.43 c p1
226.00 221.25 0.43 c p1
226.21 228.78 0.43 c p1
226.42 223.41 0.43 c p1
226.63 222.34 0.43 c p1
226.84 225.54 0.43 c p1
227.05 227.67 0.43 c p1
227.26 221.43 0.43 c p1
227.47 221.42 0.43 c p1
227.68 224.39 0.43 c p1
227.89 215.06 0.43 c p1
228.10 223.44 0.43 c p1
228.31 224.45 0.43 c p1
228.52 219.14 0.43 c p1
228.73 223.29 0.43 c p1
228.94 222.18 0.43 c p1
229.14 212.75 0.43 c p1
229.35 229.41 0.43 c p1
229.56 215.73 0.43 c p1
229.77 223.98 0.43 c p1
229.98 227.04 0.43 c p1
230.19 227.99 0.43 c p1
230.40 227.88 0.43 c p1
230.61 227.77 0.43 c p1
230.82 228.70 0.43 c p1
231.03 233.83 0.43 c p1
231.24 225.34 0.43 c p1
231.45 228.33 0.43 c p1
231.66 227.16 0.43 c p1
231.87 223.91 0.43 c p1
232.08 225.84 0.43 c p1
232.29 222.61 0.43 c p1
232.50 225.55 0.43 c p1
232.71 227.45 0.43 c p1
232.92 224.20 0.43 c p1
233.13 222.00 0.43 c p1
233.34 224.90 0.43 c p1
233.55 218.78 0.43 c p1
233.76 218.61 0.43 c p1
233.97 226.41 0.43 c p1
234.17 224.35 0.43 c p1
234.38 224.16 0.43 c p1
234.59 226.00 0.43 c p1
234.80 220.73 0.43 c p1
235.01 223.56 0.43 c p1
235.22 226.40 0.43 c p1
235.43 220.12 0.43 c p1
235.64 224.95 0.43 c p1
235.85 226.75 0.43 c p1
236.06 227.54 0.43 c p1
236.27 234.25 0.43 c p1
236.48 232.14 0.43 c p1
236.69 228.84 0.43 c p1
236.90 227.59 0.43 c p1
237.11 236.29 0.43 c p1
237.32 224.07 0.43 c p1
237.53 228.83 0.43 c p1
237.74 226.56 0.43 c p1
237.95 219.31 0.43 c p1
238.16 223.02 0.43 c p1
238.37 219.78 0.43 c p1
238.58 221.49 0.43 c p1
238.79 221.21 0.43 c p1
239.00 228.89 0.43 c p1
239.20 219.66 0.43 c p1
239.41 220.36 0.43 c p1
239.62 218.11 0.43 c p1
239.83 220.77 0.43 c p1
240.04 220.47 0.43 c p1
240.25 220.17 0.43 c p1
240.46 225.78 0.43 c p1
240.67 219.72 0.43 c p1
240.88 221.37 0.43 c p1
241.09 223.84 0.43 c p1
241.30 228.44 0.43 c p1
241.51 223.35 0.43 c p1
241.72 230.74 0.43 c p1
241.93 228.42 0.43 c p1
242.14 224.30 0.43 c p1
242.35 225.92 0.43 c p1
242.56 223.62 0.43 c p1
242.77 228.00 0.43 c p1
242.98 224.87 0.43 c p1
243.19 225.49 0.43 c p1
243.40 229.04 0.43 c p1
243.61 228.67 0.43 c p1
243.82 229.28 0.43 c p1
244.03 229.88 0.43 c p1
244.23 222.68 0.43 c p1
244.44 227.16 0.43 c p1
244.65 230.68 0.43 c p1
244.86 227.36 0.43 c p1
245.07 224.06 0.43 c p1
245.28 227.55 0.43 c p1
245.49 223.28 0.43 c p1
245.70 225.78 0.43 c p1
245.91 222.49 0.43 c p1
246.12 224.01 0.43 c p1
246.33 220.73 0.43 c p1
246.54 220.32 0.43 c p1
246.75 219.92 0.43 c p1
246.96 226.22 0.43 c p1
247.17 225.80 0.43 c p1
247.38 223.46 0.43 c p1
247.59 219.22 0.43 c p1
247.80 220.70 0.43 c p1
248.01 224.10 0.43 c p1
248.22 220.80 0.43 c p1
248.43 221.32 0.43 c p1
248.64 219.94 0.43 c p1
248.85 222.35 0.43 c p1
249.06 227.65 0.43 c p1
249.26 224.33 0.43 c p1
249.47 226.74 0.43 c p1
249.68 222.47 0.43 c p1
249.89 226.78 0.43 c p1
250.10 221.57 0.43 c p1
250.31 226.81 0.43 c p1
250.52 232.08 0.43 c p1
250.73 229.69 0.43 c p1
250.94 231.12 0.43 c p1
251.15 228.73 0.43 c p1
251.36 225.40 0.43 c p1
251.57 223.19 0.43 c p1
251.78 226.34 0.43 c p1
251.99 230.61 0.43 c p1
252.20 233.93 0.43 c p1
252.41 226.77 0.43 c p1
252.62 229.12 0.43 c p1
252.83 227.67 0.43 c p1
253.04 229.07 0.43 c p1
253.25 225.89 0.43 c p1
253.46 226.33 0.43 c p1
253.67 224.88 0.43 c p1
253.88 225.31 0.43 c p1
254.09 227.63 0.43 c p1
254.29 226.18 0.43 c p1
254.50 221.91 0.43 c p1
254.71 219.53 0.43 c p1
254.92 224.63 0.43 c p1
255.13 224.11 0.43 c p1
255.34 221.72 0.43 c p1
255.55 221.20 0.43 c p1
255.76 227.22 0.43 c p1
255.97 224.81 0.43 c p1
256.18 225.22 0.43 c p1
256.39 221.89 0.43 c p1
256.60 226.01 0.43 c p1
256.81 228.28 0.43 c p1
257.02 226.80 0.43 c p1
257.23 232.83 0.43 c p1
257.44 233.21 0.43 c p1
257.65 227.96 0.43 c p1
257.86 224.61 0.43 c p1
258.07 223.14 0.43 c p1
258.28 223.51 0.43 c p1
258.49 219.26 0.43 c p1
258.70 225.18 0.43 c p1
258.91 227.42 0.43 c p1
259.11 224.99 0.43 c p1
259.32 230.01 0.43 c p1
259.53 226.64 0.43 c p1
259.74 221.45 0.43 c p1
259.95 219.96 0.43 c p1
260.16 222.16 0.43 c p1
260.37 216.24 0.43 c p1
260.58 228.41 0.43 c p1
260.79 225.98 0.43 c p1
261.00 226.32 0.43 c p1
261.21 221.13 0.43 c p1
261.42 221.47 0.43 c p1
261.63 219.97 0.43 c p1
261.84 221.23 0.43 c p1
262.05 221.56 0.43 c p1
262.26 220.06 0.43 c p1
262.47 226.82 0.43 c p1
262.68 224.38 0.43 c p1
262.89 232.10 0.43 c p1
263.10 225.02 0.43 c p1
263.31 225.34 0.43 c p1
263.52 227.50 0.43 c p1
263.73 225.05 0.43 c p1
263.94 223.53 0.43 c p1
264.14 230.28 0.43 c p1
264.35 230.59 0.43 c p1
264.56 228.13 0.43 c p1
264.77 225.68 0.43 c p1
264.98 225.06 0.43 c p1
265.19 220.04 0.43 c p1
265.40 220.33 0.43 c p1
265.61 227.79 0.43 c p1
265.82 226.25 0.43 c p1
266.03 223.04 0.43 c p1
266.24 223.32 0.43 c p1
266.45 219.07 0.43 c p1
266.66 224.81 0.43 c p1
266.87 225.09 0.43 c p1
267.08 221.73 0.43 c p1
267.29 221.11 0.43 c p1
267.50 230.36 0.43 c p1
267.71 219.85 0.43 c p1
267.92 221.93 0.43 c p1
268.13 226.75 0.43 c p1
268.34 223.38 0.43 c p1
268.55 222.74 0.43 c p1
268.76 227.56 0.43 c p1
268.97 225.09 0.43 c p1
269.17 225.35 0.43 c p1
269.38 226.52 0.43 c p1
269.59 227.69 0.43 c p1
269.80 230.54 0.43 c p1
270.01 223.66 0.43 c p1
270.22 228.46 0.43 c p1
270.43 225.07 0.43 c p1
270.64 227.14 0.43 c p1
270.85 226.48 0.43 c p1
271.06 231.28 0.43 c p1
271.27 227.88 0.43 c p1
271.48 223.59 0.43 c p1
271.69 224.74 0.43 c p1
271.90 219.57 0.43 c p1
272.11 218.91 0.43 c p1
272.32 220.05 0.43 c p1
272.53 225.69 0.43 c p1
272.74 225.02 0.43 c p1
272.95 223.45 0.43 c p1
273.16 225.48 0.43 c p1
273.37 223.01 0.43 c p1
273.58 220.54 0.43 c p1
273.79 222.56 0.43 c p1
274.00 221.88 0.43 c p1
274.20 223.91 0.43 c p1
274.41 224.13 0.43 c p1
274.62 224.35 0.43 c p1
274.83 226.37 0.43 c p1
275.04 227.48 0.43 c p1
275.25 232.23 0.43 c p1
275.46 226.11 0.43 c p1
275.67 226.32 0.43 c p1
275.88 229.24 0.43 c p1
276.09 233.08 0.43 c p1
276.30 224.25 0.43 c p1
276.51 228.06 0.43 c p1
276.72 226.46 0.43 c p1
276.93 220.39 0.43 c p1
277.14 225.07 0.43 c p1
277.35 226.16 0.43 c p1
277.56 221.88 0.43 c p1
277.77 225.66 0.43 c p1
277.98 222.28 0.43 c p1
278.19 222.47 0.43 c p1
278.40 210.42 0.43 c p1
278.61 217.52 0.43 c p1
278.82 226.63 0.43 c p1
279.03 225.03 0.43 c p1
279.23 222.54 0.43 c p1
279.44 228.10 0.43 c p1
279.65 217.58 0.43 c p1
279.86 230.27 0.43 c p1
280.07 220.61 0.43 c p1
280.28 224.35 0.43 c p1
280.49 228.11 0.43 c p1
280.70 229.19 0.43 c p1
280.91 224.89 0.43 c p1
281.12 222.39 0.43 c p1
281.33 223.46 0.43 c p1
281.54 227.21 0.43 c p1
281.75 222.92 0.43 c p1
281.96 222.20 0.43 c p1
282.17 221.48 0.43 c p1
282.38 225.21 0.43 c p1
282.59 227.17 0.43 c p1
282.80 214.19 0.43 c p1
283.01 223.93 0.43 c p1
283.22 224.10 0.43 c p1
283.43 218.21 0.43 c p1
283.64 217.49 0.43 c p1
283.85 221.04 0.43 c p1
284.06 224.75 0.43 c p1
284.26 221.36 0.43 c p1
284.47 223.29 0.43 c p1
284.68 226.11 0.43 c p1
284.89 227.16 0.43 c p1
285.10 226.43 0.43 c p1
285.31 232.84 0.43 c p1
285.52 225.84 0.43 c p1
285.73 224.22 0.43 c p1
285.94 227.04 0.43 c p1
286.15 224.52 0.43 c p1
286.36 223.78 0.43 c p1
286.57 224.82 0.43 c p1
286.78 218.92 0.43 c p1
286.99 223.34 0.43 c p1
287.20 226.14 0.43 c p1
287.41 217.60 0.43 c p1
287.62 216.87 0.43 c p1
287.83 229.24 0.43 c p1
288.04 217.15 0.43 c p1
288.25 223.31 0.43 c p1
288.46 226.10 0.43 c p1
288.67 223.58 0.43 c p1
288.88 224.61 0.43 c p1
289.09 224.74 0.43 c p1
289.29 230.21 0.43 c p1
289.50 230.34 0.43 c p1
289.71 228.69 0.43 c p1
289.92 222.77 0.43 c p1
290.13 230.74 0.43 c p1
290.34 223.03 0.43 c p1
290.55 229.22 0.43 c p1
290.76 228.46 0.43 c p1
290.97 223.42 0.43 c p1
291.18 225.17 0.43 c p1
291.39 227.95 0.43 c p1
291.60 225.42 0.43 c p1
291.81 222.16 0.43 c p1
292.02 222.29 0.43 c p1
292.23 218.02 0.43 c p1
292.44 220.77 0.43 c p1
292.65 220.89 0.43 c p1
292.86 222.77 0.43 c p1
293.07 223.77 0.43 c p1
293.28 222.13 0.43 c p1
293.49 220.49 0.43 c p1
293.70 219.73 0.43 c p1
293.91 225.12 0.43 c p1
294.11 226.12 0.43 c p1
294.32 226.97 0.43 c p1
294.53 225.46 0.43 c p1
294.74 225.58 0.43 c p1
294.95 229.08 0.43 c p1
295.16 221.40 0.43 c p1
295.37 228.42 0.43 c p1
295.58 226.02 0.43 c p1
295.79 219.98 0.43 c p1
296.00 226.24 0.43 c p1
296.21 225.47 0.43 c p1
296.42 219.43 0.43 c p1
296.63 221.29 0.43 c p1
296.84 225.78 0.43 c p1
297.05 213.66 0.43 c p1
297.26 221.60 0.43 c p1
297.47 222.58 0.43 c p1
297.68 226.20 0.43 c p1
297.89 222.78 0.43 c p1
298.10 224.64 0.43 c p1
298.31 225.62 0.43 c p1
298.52 217.84 0.43 c p1
298.73 225.82 0.43 c p1
298.94 227.68 0.43 c p1
299.14 226.90 0.43 c p1
299.35 231.27 0.43 c p1
299.56 222.70 0.43 c p1
299.77 227.19 0.43 c p1
299.98 223.76 0.43 c p1
300.19 230.76 0.43 c p1
300.40 225.71 0.43 c p1
300.61 227.56 0.43 c p1
300.82 224.14 0.43 c p1
301.03 219.86 0.43 c p1
301.24 220.82 0.43 c p1
301.45 217.43 0.43 c p1
301.66 223.63 0.43 c p1
301.87 221.09 0.43 c p1
302.08 218.57 0.43 c p1
302.29 225.64 0.43 c p1
302.50 224.86 0.43 c p1
302.71 222.32 0.43 c p1
302.92 221.53 0.43 c p1
303.13 224.24 0.43 c p1
303.34 226.08 0.43 c p1
303.55 224.41 0.43 c p1
303.76 215.79 0.43 c p1
303.97 221.95 0.43 c p1
304.17 220.29 0.43 c p1
304.38 222.12 0.43 c p1
304.59 224.82 0.43 c p1
304.80 221.41 0.43 c p1
305.01 224.98 0.43 c p1
305.22 218.96 0.43 c p1
305.43 225.14 0.43 c p1
305.64 225.22 0.43 c p1
305.85 220.93 0.43 c p1
306.06 222.75 0.43 c p1
306.27 228.09 0.43 c p1
306.48 227.28 0.43 c p1
306.69 229.12 0.43 c p1
306.90 220.45 0.43 c p1
307.11 227.51 0.43 c p1
307.32 227.58 0.43 c p1
307.53 225.91 0.43 c p1
307.74 221.62 0.43 c p1
307.95 220.82 0.43 c p1
308.16 220.89 0.43 c p1
308.37 225.32 0.43 c p1
308.58 221.04 0.43 c p1
308.79 215.91 0.43 c p1
309.00 217.71 0.43 c p1
309.20 222.12 0.43 c p1
309.41 225.68 0.43 c p1
309.62 226.62 0.43 c p1
309.83 219.72 0.43 c p1
310.04 223.26 0.43 c p1
310.25 224.20 0.43 c p1
310.46 226.02 0.43 c p1
310.67 228.71 0.43 c p1
310.88 224.40 0.43 c p1
311.09 225.34 0.43 c p1
311.30 224.53 0.43 c p1
311.51 226.35 0.43 c p1
311.72 227.29 0.43 c p1
311.93 224.73 0.43 c p1
312.14 221.31 0.43 c p1
312.35 221.37 0.43 c p1
312.56 225.79 0.43 c p1
312.77 221.50 0.43 c p1
312.98 226.79 0.43 c p1
313.19 232.12 0.43 c p1
313.40 227.79 0.43 c p1
313.61 224.35 0.43 c p1
313.82 224.41 0.43 c p1
314.03 222.73 0.43 c p1
314.23 227.15 0.43 c p1
314.44 222.85 0.43 c p1
314.65 222.91 0.43 c p1
314.86 220.36 0.43 c p1
315.07 223.02 0.43 c p1
315.28 224.82 0.43 c p1
315.49 224.88 0.43 c p1
315.70 230.18 0.43 c p1
315.91 224.12 0.43 c p1
316.12 226.79 0.43 c p1
316.33 223.36 0.43 c p1
316.54 224.29 0.43 c p1
316.75 233.10 0.43 c p1
316.96 220.06 0.43 c p1
317.17 225.32 0.43 c p1
317.38 224.50 0.43 c p1
317.59 226.30 0.43 c p1
317.80 227.22 0.43 c p1
318.01 222.05 0.43 c p1
318.22 229.95 0.43 c p1
318.43 226.51 0.43 c p1
318.64 223.08 0.43 c p1
318.85 222.26 0.43 c p1
319.06 224.05 0.43 c p1
319.26 229.33 0.43 c p1
319.47 218.95 0.43 c p1
319.68 222.46 0.43 c p1
319.89 230.36 0.43 c p1
320.10 228.66 0.43 c p1
320.31 227.83 0.43 c p1
320.52 219.20 0.43 c p1
320.73 226.18 0.43 c p1
320.94 222.75 0.43 c p1
321.15 226.28 0.43 c p1
321.36 223.71 0.43 c p1
321.57 225.50 0.43 c p1
321.78 229.04 0.43 c p1
321.99 224.72 0.43 c p1
322.20 230.00 0.43 c p1
322.41 227.42 0.43 c p1
322.62 223.12 0.43 c p1
322.83 224.90 0.43 c p1
323.04 224.08 0.43 c p1
323.25 221.52 0.43 c p1
323.46 220.70 0.43 c p1
323.67 229.44 0.43 c p1
323.88 224.25 0.43 c p1
324.09 221.70 0.43 c p1
324.29 229.57 0.43 c p1
324.50 225.25 0.43 c p1
324.71 223.55 0.43 c p1
324.92 225.33 0.43 c p1
325.13 221.04 0.43 c p1
325.34 228.03 0.43 c p1
325.55 218.54 0.43 c p1
325.76 219.44 0.43 c p1
325.97 228.15 0.43 c p1
326.18 222.11 0.43 c p1
326.39 223.01 0.43 c p1
326.60 219.60 0.43 c p1
326.81 225.70 0.43 c p1
327.02 223.13 0.43 c p1
327.23 223.17 0.43 c p1
327.44 223.21 0.43 c p1
327.65 229.33 0.43 c p1
327.86 224.15 0.43 c p1
328.07 220.73 0.43 c p1
328.28 227.70 0.43 c p1
328.49 224.26 0.43 c p1
328.70 226.91 0.43 c p1
328.91 226.07 0.43 c p1
329.11 220.91 0.43 c p1
329.32 222.68 0.43 c p1
329.53 226.18 0.43 c p1
329.74 220.16 0.43 c p1
329.95 224.51 0.43 c p1
330.16 229.77 0.43 c p1
330.37 221.12 0.43 c p1
330.58 218.58 0.43 c p1
330.79 224.65 0.43 c p1
331.00 221.23 0.43 c p1
331.21 223.86 0.43 c p1
331.42 226.49 0.43 c p1
331.63 227.40 0.43 c p1
331.84 222.22 0.43 c p1
332.05 227.46 0.43 c p1
332.26 226.63 0.43 c p1
332.47 225.79 0.43 c p1
332.68 224.09 0.43 c p1
332.89 226.72 0.43 c p1
333.10 222.42 0.43 c p1
333.31 223.32 0.43 c p1
333.52 225.08 0.43 c p1
333.73 217.35 0.43 c p1
333.94 223.41 0.43 c p1
334.14 224.31 0.43 c p1
334.35 222.61 0.43 c p1
334.56 220.91 0.43 c p1
334.77 226.13 0.43 c p1
334.98 220.97 0.43 c p1
335.19 227.93 0.43 c p1
335.40 223.62 0.43 c p1
335.61 221.92 0.43 c p1
335.82 225.41 0.43 c p1
336.03 219.40 0.43 c p1
336.24 221.15 0.43 c p1
336.45 223.77 0.43 c p1
336.66 227.26 0.43 c p1
336.87 225.55 0.43 c p1
337.08 229.93 0.43 c p1
337.29 218.70 0.43 c p1
337.50 230.86 0.43 c p1
337.71 227.40 0.43 c p1
337.92 228.30 0.43 c p1
338.13 226.59 0.43 c p1
338.34 224.88 0.43 c p1
338.55 224.04 0.43 c p1
338.76 225.80 0.43 c p1
338.97 221.50 0.43 c p1
339.17 222.39 0.43 c p1
339.38 225.88 0.43 c p1
339.59 222.44 0.43 c p1
339.80 225.93 0.43 c p1
340.01 225.09 0.43 c p1
340.22 220.79 0.43 c p1
340.43 223.41 0.43 c p1
340.64 222.57 0.43 c p1
340.85 225.19 0.43 c p1
341.06 228.68 0.43 c p1
341.27 228.71 0.43 c p1
341.48 225.26 0.43 c p1
341.69 226.15 0.43 c p1
341.90 227.04 0.43 c p1
342.11 225.33 0.43 c p1
342.32 230.57 0.43 c p1
342.53 220.20 0.43 c p1
342.74 222.81 0.43 c p1
342.95 225.42 0.43 c p1
343.16 229.79 0.43 c p1
343.37 228.07 0.43 c p1
343.58 221.17 0.43 c p1
343.79 224.65 0.43 c p1
344.00 223.81 0.43 c p1
344.20 220.38 0.43 c p1
344.41 228.18 0.43 c p1
344.62 223.87 0.43 c p1
344.83 225.62 0.43 c p1
345.04 222.19 0.43 c p1
345.25 224.80 0.43 c p1
345.46 221.37 0.43 c p1
345.67 225.71 0.43 c p1
345.88 227.46 0.43 c p1
346.09 228.35 0.43 c p1
346.30 224.91 0.43 c p1
346.51 224.93 0.43 c p1
346.72 222.36 0.43 c p1
346.93 226.70 0.43 c p1
347.14 226.72 0.43 c p1
347.35 228.48 0.43 c p1
347.56 224.16 0.43 c p1
347.77 227.64 0.43 c p1
347.98 225.93 0.43 c p1
348.19 230.29 0.43 c p1
348.40 225.10 0.43 c p1
348.61 227.72 0.43 c p1
348.82 220.83 0.43 c p1
349.03 219.99 0.43 c p1
349.23 228.65 0.43 c p1
349.44 227.80 0.43 c p1
349.65 227.82 0.43 c p1
349.86 224.37 0.43 c p1
350.07 223.52 0.43 c p1
350.28 219.24 0.43 c p1
350.49 227.02 0.43 c p1
350.70 218.42 0.43 c p1
350.91 227.06 0.43 c p1
351.12 228.81 0.43 c p1
351.33 227.09 0.43 c p1
351.54 227.98 0.43 c p1
351.75 229.73 0.43 c p1
351.96 221.96 0.43 c p1
352.17 228.90 0.43 c p1
352.38 221.13 0.43 c p1
352.59 222.01 0.43 c p1
352.80 223.75 0.43 c p1
353.01 227.23 0.43 c p1
353.22 227.24 0.43 c p1
353.43 222.94 0.43 c p1
353.64 219.51 0.43 c p1
353.85 229.03 0.43 c p1
354.06 229.91 0.43 c p1
354.26 222.14 0.43 c p1
354.47 230.82 0.43 c p1
354.68 228.22 0.43 c p1
354.89 228.24 0.43 c p1
355.10 229.99 0.43 c p1
355.31 226.53 0.43 c p1
355.52 221.37 0.43 c p1
355.73 226.56 0.43 c p1
355.94 223.99 0.43 c p1
356.15 224.00 0.43 c p1
356.36 227.48 0.43 c p1
356.57 224.03 0.43 c p1
356.78 226.64 0.43 c p1
356.99 225.79 0.43 c p1
357.20 221.49 0.43 c p1
357.41 227.55 0.43 c p1
357.62 226.70 0.43 c p1
357.83 223.25 0.43 c p1
358.04 228.46 0.43 c p1
358.25 231.08 0.43 c p1
358.46 219.86 0.43 c p1
358.67 224.17 0.43 c p1
358.88 229.38 0.43 c p1
359.09 225.06 0.43 c p1
359.29 224.21 0.43 c p1
359.50 225.09 0.43 c p1
359.71 225.10 0.43 c p1
359.92 226.85 0.43 c p1
360.13 228.59 0.43 c p1
360.34 225.14 0.43 c p1
360.55 223.43 0.43 c p1
360.76 224.30 0.43 c p1
360.97 226.91 0.43 c p1
361.18 229.53 0.43 c p1
361.39 223.48 0.43 c p1
361.60 223.49 0.43 c p1
0.00 0.00 432.00 576.00 cl
0 0 0 srgb
0.75 setlinewidth
[] 0 setdash
1 setlinecap
1 setlinejoin
10.00 setmiterlimit
np
218.04 201.60 m
125.75 0 l
o
np
218.04 201.60 m
0 -5.76 l
o
np
259.95 201.60 m
0 -5.76 l
o
np
301.87 201.60 m
0 -5.76 l
o
np
343.79 201.60 m
0 -5.76 l
o
/Font1 findfont 6 s
218.04 185.47 (0) .5 0 t
259.95 185.47 (500) .5 0 t
301.87 185.47 (1000) .5 0 t
343.79 185.47 (1500) .5 0 t
np
216.00 208.29 m
0 32.70 l
o
np
216.00 208.29 m
-5.76 0 l
o
np
216.00 216.46 m
-5.76 0 l
o
np
216.00 224.64 m
-5.76 0 l
o
np
216.00 232.82 m
-5.76 0 l
o
np
216.00 240.99 m
-5.76 0 l
o
209.09 206.13 (-0.010) 1 0 t
209.09 214.31 (-0.005) 1 0 t
209.09 222.49 (0.000) 1 0 t
209.09 230.66 (0.005) 1 0 t
209.09 238.84 (0.010) 1 0 t
np
216.00 201.60 m
151.20 0 l
0 46.08 l
-151.20 0 l
0 -46.08 l
o
0.00 0.00 432.00 576.00 cl
/Font1 findfont 9 s
0 0 0 srgb
291.60 262.88 (Residuals) .5 0 t
59.04 73.44 401.76 516.96 cl
ep
%%Trailer
%%Pages: 1
%%EOF
