%!PS-Adobe-3.0 EPSF-3.0
%%DocumentNeededResources: font Helvetica
%%+ font Helvetica-Bold
%%+ font Helvetica-Oblique
%%+ font Helvetica-BoldOblique
%%+ font Symbol
%%Title: R Graphics Output
%%Creator: R Software
%%Pages: (atend)
%%BoundingBox: 0 0 432 576
%%EndComments
%%BeginProlog
/bp  { gs sRGB gs } def
% begin .ps.prolog
/gs  { gsave } bind def
/gr  { grestore } bind def
/ep  { showpage gr gr } bind def
/m   { moveto } bind def
/l  { rlineto } bind def
/np  { newpath } bind def
/cp  { closepath } bind def
/f   { fill } bind def
/o   { stroke } bind def
/c   { newpath 0 360 arc } bind def
/r   { 4 2 roll moveto 1 copy 3 -1 roll exch 0 exch rlineto 0 rlineto -1 mul 0 exch rlineto closepath } bind def
/p1  { stroke } bind def
/p2  { gsave bg fill grestore newpath } bind def
/p3  { gsave bg fill grestore stroke } bind def
/p6  { gsave bg eofill grestore newpath } bind def
/p7  { gsave bg eofill grestore stroke } bind def
/t   { 5 -2 roll moveto gsave rotate
       1 index stringwidth pop
       mul neg 0 rmoveto show grestore } bind def
/ta  { 4 -2 roll moveto gsave rotate show } bind def
/tb  { 2 -1 roll 0 rmoveto show } bind def
/cl  { grestore gsave newpath 3 index 3 index moveto 1 index
       4 -1 roll lineto  exch 1 index lineto lineto
       closepath clip newpath } bind def
/rgb { setrgbcolor } bind def
/s   { scalefont setfont } bind def
% end   .ps.prolog
/sRGB { [ /CIEBasedABC
          << /DecodeLMN
               [ { dup 0.03928 le
                        {12.92321 div}
                        {0.055 add 1.055 div 2.4 exp }
                     ifelse
                 } bind dup dup
               ]
             /MatrixLMN [0.412457 0.212673 0.019334
                         0.357576 0.715152 0.119192
                         0.180437 0.072175 0.950301]
             /WhitePoint [0.9505 1.0 1.0890]
           >>
         ] setcolorspace } bind def
/srgb { setcolor } bind def
% begin encoding
/WinAnsiEncoding [
 /.notdef /.notdef /.notdef /.notdef /.notdef /.notdef /.notdef /.notdef
 /.notdef /.notdef /.notdef /.notdef /.notdef /.notdef /.notdef /.notdef
 /.notdef /.notdef /.notdef /.notdef /.notdef /.notdef /.notdef /.notdef
 /.notdef /.notdef /.notdef /.notdef /.notdef /.notdef /.notdef /.notdef
 /space /exclam /quotedbl /numbersign /dollar /percent /ampersand /quoteright
 /parenleft /parenright /asterisk /plus /comma /minus /period /slash
 /zero /one /two /three /four /five /six /seven
 /eight /nine /colon /semicolon /less /equal /greater /question
 /at /A /B /C /D /E /F /G
 /H /I /J /K /L /M /N /O
 /P /Q /R /S /T /U /V /W
 /X /Y /Z /bracketleft /backslash /bracketright /asciicircum /underscore
 /grave /a /b /c /d /e /f /g
 /h /i /j /k /l /m /n /o
 /p /q /r /s /t /u /v /w
 /x /y /z /braceleft /bar /braceright /asciitilde /.notdef
 /Euro /.notdef /quotesinglbase /florin /quotedblbase /ellipsis /dagger /daggerdbl
 /circumflex /perthousand /Scaron /guilsinglleft /OE /.notdef /Zcaron /.notdef
 /.notdef /quoteleft /quoteright /quotedblleft /quotedblright /bullet /endash /emdash
 /tilde /trademark /scaron /guilsinglright /oe /.notdef /zcaron /Ydieresis
 /space /exclamdown /cent /sterling /currency /yen /brokenbar /section
 /dieresis /copyright /ordfeminine /guillemotleft /logicalnot /hyphen /registered /macron
 /degree /plusminus /twosuperior /threesuperior /acute /mu /paragraph /periodcentered
 /cedilla /onesuperior /ordmasculine /guillemotright /onequarter /onehalf /threequarters /questiondown
 /Agrave /Aacute /Acircumflex /Atilde /Adieresis /Aring /AE /Ccedilla
 /Egrave /Eacute /Ecircumflex /Edieresis /Igrave /Iacute /Icircumflex /Idieresis
 /Eth /Ntilde /Ograve /Oacute /Ocircumflex /Otilde /Odieresis /multiply
 /Oslash /Ugrave /Uacute /Ucircumflex /Udieresis /Yacute /Thorn /germandbls
 /agrave /aacute /acircumflex /atilde /adieresis /aring /ae /ccedilla
 /egrave /eacute /ecircumflex /edieresis /igrave /iacute /icircumflex /idieresis
 /eth /ntilde /ograve /oacute /ocircumflex /otilde /odieresis /divide
 /oslash /ugrave /uacute /ucircumflex /udieresis /yacute /thorn /ydieresis
]
 def
% end encoding
%%IncludeResource: font Helvetica
/Helvetica findfont
dup length dict begin
  {1 index /FID ne {def} {pop pop} ifelse} forall
  /Encoding WinAnsiEncoding def
  currentdict
  end
/Font1 exch definefont pop
%%IncludeResource: font Helvetica-Bold
/Helvetica-Bold findfont
dup length dict begin
  {1 index /FID ne {def} {pop pop} ifelse} forall
  /Encoding WinAnsiEncoding def
  currentdict
  end
/Font2 exch definefont pop
%%IncludeResource: font Helvetica-Oblique
/Helvetica-Oblique findfont
dup length dict begin
  {1 index /FID ne {def} {pop pop} ifelse} forall
  /Encoding WinAnsiEncoding def
  currentdict
  end
/Font3 exch definefont pop
%%IncludeResource: font Helvetica-BoldOblique
/Helvetica-BoldOblique findfont
dup length dict begin
  {1 index /FID ne {def} {pop pop} ifelse} forall
  /Encoding WinAnsiEncoding def
  currentdict
  end
/Font4 exch definefont pop
%%IncludeResource: font Symbol
/Symbol findfont
dup length dict begin
  {1 index /FID ne {def} {pop pop} ifelse} forall
  currentdict
  end
/Font5 exch definefont pop
%%EndProlog
%%Page: 1 1
bp
/bg { 1 1 1 srgb } def
0.00 0.00 432.00 576.00 r p2
0.00 0.00 432.00 576.00 cl
0.00 0.00 432.00 576.00 cl
0.00 0.00 432.00 576.00 cl
/Font1 findfont 12 s
0 0 0 srgb
48.00 508.72 (PCP-ETH) 0 0 t
48.00 494.89 (Flash light photolysis) 0 0 t
/Font1 findfont 9 s
48.00 457.54 (File: T) 0 ta
-1.080 (emper) tb
-0.090 (ature_dependence_7_MSLM.dat) tb gr
48.00 334.87 (T) 0 ta
-1.080 (ue Mar 08 17:18:23 2022) tb gr
48.00 430.87 (Fit function:  a + b * e) 0 ta
-0.270 (xp\(-c * t\)) tb gr
48.00 420.50 (t-Inter) 0 ta
0.270 (v) tb
-0.225 (all: 16.500 ... 885.000 ms) tb gr
48.00 410.14 (P) 0 ta
-0.360 (ar) tb
-0.090 (ameters \(Standard de) tb
-0.270 (viation\):) tb gr
48.00 399.77 (  a = 0.01024 \(0.00019\)) 0 0 t
48.00 389.40 (  b = 0.13583 \(0.00064\)) 0 0 t
48.00 379.03 (  c = 6.504e+00 \(5.408e-02\) s^-1) 0 0 t
48.00 368.66 (  tau = 1.537e-01 \(1.278e-03\) s) 0 0 t
216.00 345.60 388.80 518.40 cl
0 0 0 srgb
0.75 setlinewidth
[] 0 setdash
1 setlinecap
1 setlinejoin
10.00 setmiterlimit
np
222.40 510.60 m
0.15 0.82 l
0.14 -0.62 l
0.15 0.41 l
0.14 0.38 l
0.15 0.41 l
0.14 -1.40 l
0.15 -0.62 l
0.14 1.03 l
0.15 0.20 l
0.15 -0.61 l
0.14 -0.41 l
0.15 0.82 l
0.14 -0.41 l
0.15 -2.47 l
0.14 0.21 l
0.15 -0.41 l
0.14 0.20 l
0.15 -0.61 l
0.15 -0.41 l
0.14 0.61 l
0.15 0.41 l
0.14 1.03 l
0.15 -0.41 l
0.14 0.41 l
0.15 -0.21 l
0.15 0.83 l
0.14 1.23 l
0.15 -0.82 l
0.14 0.20 l
0.15 0.41 l
0.14 0 l
0.15 -2.46 l
0.14 2.87 l
0.15 -0.41 l
0.15 0 l
0.14 -0.61 l
0.15 0.41 l
0.14 -0.21 l
0.15 -0.82 l
0.14 -0.41 l
0.15 0.20 l
0.14 -0.20 l
0.15 0.41 l
0.15 -1.23 l
0.14 0 l
0.15 1.23 l
0.14 -1.03 l
0.15 1.03 l
0.14 0 l
0.15 0.21 l
0.14 -0.62 l
0.15 -0.41 l
0.15 2.26 l
0.14 -0.41 l
0.15 0.99 l
0.14 -1.40 l
0.15 0.61 l
0.14 0.79 l
0.15 0.20 l
0.15 -0.20 l
0.14 0.41 l
0.15 -0.58 l
0.14 -1.03 l
0.15 0.62 l
0.14 -0.21 l
0.15 -0.20 l
0.14 -1.03 l
0.15 -1.64 l
0.15 0.82 l
0.14 -0.62 l
0.15 1.65 l
0.14 -1.03 l
0.15 -0.62 l
0.14 1.03 l
0.15 -0.82 l
0.14 1.02 l
0.15 0 l
0.15 0 l
0.14 1.44 l
0.15 -1.23 l
0.14 1.85 l
0.15 -0.41 l
0.14 0 l
0.15 0.99 l
0.14 -0.99 l
0.15 -0.62 l
0.15 1.61 l
0.14 -1.81 l
0.15 -0.41 l
0.14 1.23 l
0.15 0 l
0.14 -0.21 l
0.15 -1.64 l
0.15 1.03 l
0.14 0 l
0.15 -0.41 l
0.14 -0.42 l
0.15 -1.43 l
0.14 0.20 l
236.96 460.39 lineto
0.14 1.42 l
0.15 -0.60 l
0.15 1.61 l
0.14 4.31 l
0.15 -0.20 l
0.14 -0.21 l
0.15 -0.41 l
0.14 0.82 l
0.15 3.46 l
0.14 0.41 l
0.15 -3.49 l
0.15 -0.38 l
0.14 1.61 l
0.15 3.49 l
0.14 -1.44 l
0.15 0.21 l
0.14 0 l
0.15 0.20 l
0.14 2.84 l
0.15 -2.01 l
0.15 2.01 l
0.14 -2.01 l
0.15 0 l
0.14 0.99 l
0.15 0.61 l
0.14 -0.61 l
0.15 1.44 l
0.15 -1.03 l
0.14 2.46 l
0.15 -0.20 l
0.14 -0.21 l
0.15 0.41 l
0.14 -0.82 l
0.15 2.67 l
0.14 -1.44 l
0.15 2.06 l
0.15 0 l
0.14 0.58 l
0.15 -0.41 l
0.14 0 l
0.15 0.41 l
0.14 -0.21 l
0.15 -0.37 l
0.14 0.78 l
0.15 -1.19 l
0.15 2.63 l
0.14 -0.82 l
0.15 0.21 l
0.14 0.82 l
0.15 -2.06 l
0.14 1.44 l
0.15 0.62 l
0.14 -0.21 l
0.15 2.26 l
0.15 -1.64 l
0.14 1.85 l
0.15 0 l
0.14 0.61 l
0.15 0.99 l
0.14 -1.40 l
0.15 -0.20 l
0.15 0.99 l
0.14 0.41 l
0.15 -0.41 l
0.14 -0.79 l
0.15 0.79 l
0.14 0.20 l
0.15 -0.37 l
0.14 0.58 l
0.15 -0.58 l
0.15 0.37 l
0.14 -0.37 l
0.15 -0.62 l
0.14 1.61 l
0.15 -0.41 l
0.14 1.03 l
0.15 0.41 l
0.14 -1.24 l
0.15 1.65 l
0.15 0.41 l
0.14 0 l
0.15 1.02 l
0.14 -0.82 l
0.15 1.44 l
0.14 0.41 l
0.15 -0.82 l
0.14 1.81 l
0.15 -1.81 l
0.15 1.44 l
0.14 0 l
0.15 -0.62 l
0.14 0.21 l
0.15 -0.21 l
0.14 -0.82 l
0.15 2.02 l
0.15 -2.02 l
0.14 2.02 l
0.15 -1.20 l
0.14 0.62 l
251.52 490.78 lineto
0.14 -1.03 l
0.15 1.44 l
0.14 -2.02 l
0.15 2.43 l
0.15 -1.44 l
0.14 0.62 l
0.15 1.44 l
0.14 -0.41 l
0.15 -0.21 l
0.14 1.03 l
0.15 -0.62 l
0.14 0.62 l
0.15 1.03 l
0.15 -2.06 l
0.14 1.44 l
0.15 1.23 l
0.14 -1.64 l
0.15 1.85 l
0.14 -2.06 l
0.15 0.62 l
0.14 -0.41 l
0.15 -0.41 l
0.15 2.26 l
0.14 -2.26 l
0.15 2.46 l
0.14 -1.43 l
0.15 -0.21 l
0.14 1.23 l
0.15 -0.82 l
0.14 1.23 l
0.15 -1.23 l
0.15 0.21 l
0.14 1.23 l
0.15 -0.41 l
0.14 0.41 l
0.15 1.40 l
0.14 -2.22 l
0.15 2.02 l
0.15 -0.42 l
0.14 0.83 l
0.15 -1.24 l
0.14 0.21 l
0.15 1.44 l
0.14 0.20 l
0.15 -0.20 l
0.14 0.20 l
0.15 -2.43 l
0.15 1.61 l
0.14 -0.82 l
0.15 0.62 l
0.14 1.02 l
0.15 -1.64 l
0.14 0 l
0.15 1.03 l
0.14 -1.24 l
0.15 1.65 l
0.15 -0.21 l
0.14 0 l
0.15 0 l
0.14 -0.20 l
0.15 0.41 l
0.14 -0.62 l
0.15 1.64 l
0.14 -0.82 l
0.15 0.62 l
0.15 0.41 l
0.14 -0.62 l
0.15 1.44 l
0.14 0 l
0.15 -0.62 l
0.14 1.44 l
0.15 -1.64 l
0.15 1.85 l
0.14 -1.03 l
0.15 -1.03 l
0.14 2.47 l
0.15 -2.67 l
0.14 1.85 l
0.15 0.41 l
0.14 -0.41 l
0.15 0.61 l
0.15 -2.05 l
0.14 1.23 l
0.15 0.21 l
0.14 -0.41 l
0.15 1.02 l
0.14 -2.05 l
0.15 2.43 l
0.14 -1.81 l
0.15 1.64 l
0.15 -0.21 l
0.14 -0.20 l
0.15 0.78 l
0.14 -0.99 l
0.15 1.40 l
0.14 0.21 l
0.15 -0.21 l
0.14 -0.61 l
0.15 0.41 l
266.08 500.57 lineto
0.14 0.82 l
0.15 -2.63 l
0.14 1.81 l
0.15 0 l
0.14 0.20 l
0.15 2.06 l
0.15 -2.64 l
0.14 -1.02 l
0.15 1.81 l
0.14 -0.21 l
0.15 -0.20 l
0.14 1.23 l
0.15 -1.03 l
0.14 0.62 l
0.15 -0.99 l
0.15 2.02 l
0.14 -2.02 l
0.15 2.63 l
0.14 -1.02 l
0.15 0.41 l
0.14 -0.82 l
0.15 -0.42 l
0.14 1.65 l
0.15 -0.41 l
0.15 -0.21 l
0.14 -0.82 l
0.15 0.62 l
0.14 0.82 l
0.15 -1.65 l
0.14 0.62 l
0.15 2.05 l
0.14 -1.23 l
0.15 0.41 l
0.15 -0.20 l
0.14 -0.82 l
0.15 0 l
0.14 -0.21 l
0.15 1.64 l
0.14 -0.82 l
0.15 0 l
0.15 1.44 l
0.14 -1.85 l
0.15 1.03 l
0.14 -0.21 l
0.15 -0.41 l
0.14 1.03 l
0.15 0 l
0.14 0.20 l
0.15 0.62 l
0.15 -1.64 l
0.14 0.61 l
0.15 0.41 l
0.14 -1.43 l
0.15 1.85 l
0.14 -2.67 l
0.15 2.46 l
0.14 -1.03 l
0.15 -0.20 l
0.15 1.23 l
0.14 -1.03 l
0.15 -0.61 l
0.14 0.61 l
0.15 -0.82 l
0.14 1.85 l
0.15 -2.46 l
0.14 2.46 l
0.15 -0.41 l
0.15 -2.05 l
0.14 3.69 l
0.15 -2.26 l
0.14 0.62 l
0.15 0.41 l
0.14 -1.03 l
0.15 0.82 l
0.15 -0.20 l
0.14 -0.21 l
0.15 0.62 l
0.14 -1.64 l
0.15 2.67 l
0.14 -0.21 l
0.15 -2.26 l
0.14 1.65 l
0.15 -0.21 l
0.15 0.41 l
0.14 0.62 l
0.15 -1.65 l
0.14 0.62 l
0.15 0.82 l
0.14 0.62 l
0.15 0.20 l
0.14 -1.64 l
0.15 0.62 l
0.15 -0.83 l
0.14 0.62 l
0.15 1.44 l
0.14 -1.64 l
0.15 1.02 l
0.14 0.21 l
0.15 -1.03 l
280.63 505.70 lineto
0.15 -2.46 l
0.15 2.67 l
0.14 0 l
0.15 -2.47 l
0.14 3.05 l
0.15 -3.25 l
0.14 2.05 l
0.15 -1.23 l
0.15 -0.41 l
0.14 0.82 l
0.15 -0.41 l
0.14 1.03 l
0.15 0.41 l
0.14 -1.44 l
0.15 1.64 l
0.14 -0.20 l
0.15 0.20 l
0.15 -0.82 l
0.14 -0.61 l
0.15 1.02 l
0.14 -1.23 l
0.15 1.64 l
0.14 0.58 l
0.15 -1.81 l
0.14 1.03 l
0.15 -1.03 l
0.15 0.62 l
0.14 0 l
0.15 -1.85 l
0.14 3.25 l
0.15 -1.20 l
0.14 0.62 l
0.15 0.17 l
0.14 -2.23 l
0.15 1.24 l
0.15 0.41 l
0.14 -0.82 l
0.15 0.41 l
0.14 -0.21 l
0.15 1.40 l
0.14 -0.99 l
0.15 0.79 l
0.14 -1.20 l
0.15 0 l
0.15 1.40 l
0.14 -0.78 l
0.15 -1.23 l
0.14 1.43 l
0.15 0.38 l
0.14 -0.58 l
0.15 -0.21 l
0.15 -0.20 l
0.14 0.99 l
0.15 -1.20 l
0.14 1.20 l
0.15 -0.79 l
0.14 0.41 l
0.15 0.38 l
0.14 -0.99 l
0.15 0.99 l
0.15 -0.38 l
0.14 -1.02 l
0.15 1.60 l
0.14 -0.58 l
0.15 0.21 l
0.14 1.20 l
0.15 -2.64 l
0.14 2.43 l
0.15 -0.99 l
0.15 0.99 l
0.14 -0.20 l
0.15 -0.62 l
0.14 1.23 l
0.15 -0.61 l
0.14 -0.42 l
0.15 0.21 l
0.14 -1.40 l
0.15 0.61 l
0.15 1.61 l
0.14 -1.40 l
0.15 0 l
0.14 -0.82 l
0.15 1.19 l
0.14 -0.78 l
0.15 0 l
0.15 1.20 l
0.14 -2.64 l
0.15 2.22 l
0.14 -0.37 l
0.15 -0.41 l
0.14 1.20 l
0.15 -1.61 l
0.14 1.40 l
0.15 -0.21 l
0.15 -0.20 l
0.14 1.23 l
0.15 -2.22 l
0.14 1.81 l
0.15 -0.82 l
295.19 505.91 lineto
0.15 0.99 l
0.14 -0.99 l
0.15 0 l
0.15 1.61 l
0.14 -1.24 l
0.15 1.03 l
0.14 -1.40 l
0.15 2.63 l
0.14 -3.04 l
0.15 -0.82 l
0.14 1.60 l
0.15 0.83 l
0.15 -1.41 l
0.14 1.82 l
0.15 -1.61 l
0.14 0.37 l
0.15 0.62 l
0.14 -0.82 l
0.15 0.62 l
0.15 -1.82 l
0.14 1.03 l
0.15 0.17 l
0.14 0 l
0.15 1.23 l
0.14 -1.23 l
0.15 0.41 l
0.14 1.23 l
0.15 -2.02 l
0.15 1.20 l
0.14 -0.20 l
0.15 -1.00 l
0.14 1.82 l
0.15 -1.61 l
0.14 0.37 l
0.15 0.83 l
0.14 0 l
0.15 0 l
0.15 -0.83 l
0.14 1.24 l
0.15 -1.44 l
0.14 0.41 l
0.15 -0.41 l
0.14 -0.58 l
0.15 1.61 l
0.14 -0.83 l
0.15 0.21 l
0.15 0.21 l
0.14 -0.42 l
0.15 0.42 l
0.14 0 l
0.15 0.41 l
0.14 0 l
0.15 -1.61 l
0.15 0.78 l
0.14 1.24 l
0.15 -1.44 l
0.14 2.05 l
0.15 -1.64 l
0.14 1.85 l
0.15 -0.62 l
0.14 -1.81 l
0.15 1.20 l
0.15 -0.41 l
0.14 1.02 l
0.15 0 l
0.14 -3.04 l
0.15 2.02 l
0.14 -0.62 l
0.15 0.41 l
0.14 -0.79 l
0.15 0.58 l
0.15 0.83 l
0.14 -1.82 l
0.15 1.61 l
0.14 1.23 l
0.15 -2.22 l
0.14 0.99 l
0.15 0.21 l
0.14 0 l
0.15 0 l
0.15 -0.21 l
0.14 0.21 l
0.15 -0.62 l
0.14 -0.21 l
0.15 -0.20 l
0.14 0.82 l
0.15 -0.41 l
0.15 -0.99 l
0.14 2.22 l
0.15 -0.20 l
0.14 -1.44 l
0.15 1.03 l
0.14 -1.03 l
0.15 1.03 l
0.14 0.82 l
0.15 -3.25 l
0.15 2.84 l
0.14 -1.61 l
0.15 1.20 l
309.75 508.34 lineto
0.15 -1.64 l
0.14 -0.21 l
0.15 1.85 l
0.14 -1.23 l
0.15 1.64 l
0.15 -1.85 l
0.14 -0.20 l
0.15 1.43 l
0.14 -2.63 l
0.15 2.43 l
0.14 -2.23 l
0.15 2.64 l
0.14 -0.41 l
0.15 -1.03 l
0.15 0.41 l
0.14 -0.41 l
0.15 1.03 l
0.14 0.20 l
0.15 -1.85 l
0.14 1.85 l
0.15 -2.63 l
0.15 0.58 l
0.14 1.64 l
0.15 -1.23 l
0.14 2.26 l
0.15 -2.05 l
0.14 0.20 l
0.15 0.21 l
0.14 1.02 l
0.15 -0.61 l
0.15 -0.62 l
0.14 0.41 l
0.15 -0.20 l
0.14 -0.83 l
0.15 0.83 l
0.14 0 l
0.15 1.23 l
0.14 -1.03 l
0.15 -0.20 l
0.15 0.41 l
0.14 0.20 l
0.15 -0.61 l
0.14 0 l
0.15 -0.62 l
0.14 1.03 l
0.15 -1.44 l
0.14 0.82 l
0.15 0.62 l
0.15 -0.41 l
0.14 0 l
0.15 0.20 l
0.14 0.62 l
0.15 -0.21 l
0.14 -1.02 l
0.15 1.43 l
0.15 -1.85 l
0.14 1.65 l
0.15 -1.44 l
0.14 0.62 l
0.15 0 l
0.14 -1.03 l
0.15 1.44 l
0.14 0.41 l
0.15 -1.44 l
0.15 1.44 l
0.14 -1.44 l
0.15 0.82 l
0.14 1.23 l
0.15 -1.64 l
0.14 0.21 l
0.15 0.61 l
0.14 0 l
0.15 -0.61 l
0.15 -1.41 l
0.14 2.02 l
0.15 -1.23 l
0.14 0.62 l
0.15 -0.21 l
0.14 0.21 l
0.15 1.23 l
0.14 -1.23 l
0.15 -0.83 l
0.15 1.03 l
0.14 -1.23 l
0.15 0.41 l
0.14 0.41 l
0.15 0.82 l
0.14 -0.41 l
0.15 -0.41 l
0.14 1.44 l
0.15 -2.43 l
0.15 0.37 l
0.14 0.21 l
0.15 0.82 l
0.14 0.62 l
0.15 0.20 l
0.14 -1.43 l
0.15 -0.62 l
0.15 1.44 l
324.31 506.49 lineto
0.15 0.82 l
0.14 -1.03 l
0.15 -0.20 l
0.14 1.44 l
0.15 0.41 l
0.14 -0.82 l
0.15 -1.03 l
0.15 1.03 l
0.14 0.41 l
0.15 -0.62 l
0.14 1.44 l
0.15 -1.23 l
0.14 -0.83 l
0.15 1.03 l
0.14 -1.61 l
0.15 0.38 l
0.15 2.46 l
0.14 -1.84 l
0.15 1.84 l
0.14 -0.61 l
0.15 -1.23 l
0.14 1.02 l
0.15 -1.23 l
0.14 1.64 l
0.15 -1.64 l
0.15 0 l
0.14 1.23 l
0.15 -0.41 l
0.14 -0.20 l
0.15 0 l
0.14 -0.21 l
0.15 0.82 l
0.15 0 l
0.14 -0.61 l
0.15 0.41 l
0.14 -0.62 l
0.15 2.05 l
0.14 -0.61 l
0.15 -1.03 l
0.14 0.21 l
0.15 -2.02 l
0.15 3.04 l
0.14 -1.23 l
0.15 -0.20 l
0.14 0.41 l
0.15 -1.24 l
0.14 0.42 l
0.15 2.05 l
0.14 -2.05 l
0.15 1.64 l
0.15 -2.26 l
0.14 -0.17 l
0.15 0.58 l
0.14 -0.58 l
0.15 0.58 l
0.14 -0.21 l
0.15 1.24 l
0.14 -0.41 l
0.15 -0.62 l
0.15 2.87 l
0.14 -1.64 l
0.15 -0.41 l
0.14 0.21 l
0.15 -1.24 l
0.14 2.26 l
0.15 -0.61 l
0.15 -0.41 l
0.14 0.61 l
0.15 -0.41 l
0.14 -1.44 l
0.15 1.85 l
0.14 -1.23 l
0.15 0.41 l
0.14 0.21 l
0.15 -0.82 l
0.15 1.23 l
0.14 0 l
0.15 -1.23 l
0.14 1.23 l
0.15 -0.82 l
0.14 -1.03 l
0.15 0.82 l
0.14 0.62 l
0.15 -0.82 l
0.15 0 l
0.14 1.43 l
0.15 -1.85 l
0.14 0.62 l
0.15 1.23 l
0.14 -1.02 l
0.15 -0.83 l
0.14 -0.20 l
0.15 0.82 l
0.15 0.62 l
0.14 0.20 l
0.15 -0.82 l
0.14 0.82 l
0.15 -1.23 l
0.14 0.82 l
338.87 507.93 lineto
0.15 -1.23 l
0.14 0.82 l
0.15 0.20 l
0.14 -1.02 l
0.15 0.61 l
0.14 -1.23 l
0.15 1.44 l
0.14 -1.24 l
0.15 2.47 l
0.15 0 l
0.14 -2.67 l
0.15 1.23 l
0.14 0 l
0.15 0.82 l
0.14 -0.82 l
0.15 0.21 l
0.14 0 l
0.15 1.23 l
0.15 -1.03 l
0.14 -0.61 l
0.15 -0.21 l
0.14 0.21 l
0.15 0.61 l
0.14 -0.61 l
0.15 -0.41 l
0.14 0.82 l
0.15 0.20 l
0.15 -0.41 l
0.14 0.21 l
0.15 -0.62 l
0.14 1.03 l
0.15 0.61 l
0.14 -1.84 l
0.15 0.20 l
0.15 0.82 l
0.14 0 l
0.15 -0.41 l
0.14 -1.23 l
0.15 2.26 l
0.14 -0.21 l
0.15 -1.23 l
0.14 0.21 l
0.15 -0.21 l
0.15 -0.41 l
0.14 1.44 l
0.15 0.41 l
0.14 -1.64 l
0.15 1.84 l
0.14 -1.43 l
0.15 -0.62 l
0.14 1.64 l
0.15 -1.02 l
0.15 0.82 l
0.14 -0.82 l
0.15 0 l
0.14 1.02 l
0.15 -0.61 l
0.14 -0.62 l
0.15 0.62 l
0.14 -0.62 l
0.15 0 l
0.15 1.03 l
0.14 -2.02 l
0.15 2.02 l
0.14 -0.62 l
0.15 -1.03 l
0.14 1.85 l
0.15 -1.23 l
0.15 1.03 l
0.14 -0.41 l
0.15 -0.21 l
0.14 0 l
0.15 0.41 l
0.14 -0.61 l
0.15 0 l
0.14 -1.20 l
0.15 0.17 l
0.15 2.26 l
0.14 -1.64 l
0.15 0.61 l
0.14 0.62 l
0.15 -0.21 l
0.14 -0.61 l
0.15 0.41 l
0.14 0.20 l
0.15 0.41 l
0.15 0.21 l
0.14 -1.03 l
0.15 -0.20 l
0.14 0 l
0.15 0.82 l
0.14 1.02 l
0.15 -1.23 l
0.14 -0.61 l
0.15 1.43 l
0.15 -1.43 l
0.14 -0.41 l
0.15 0.61 l
0.14 -1.81 l
353.43 507.11 lineto
0.14 0.61 l
0.15 -0.61 l
0.14 0.20 l
0.15 -0.61 l
0.15 1.84 l
0.14 -1.23 l
0.15 0.21 l
0.14 0.61 l
0.15 -1.85 l
0.14 1.65 l
0.15 -1.23 l
0.15 0.61 l
0.14 -0.20 l
0.15 -0.21 l
0.14 0.21 l
0.15 0.82 l
0.14 -1.44 l
0.15 1.23 l
0.14 0.41 l
0.15 0.21 l
0.15 0 l
0.14 -0.21 l
0.15 0 l
0.14 -1.02 l
0.15 0.20 l
0.14 1.03 l
0.15 -0.41 l
0.14 -0.62 l
0.15 0 l
0.15 -1.23 l
0.14 0.82 l
0.15 0.62 l
0.14 1.02 l
0.15 -0.41 l
0.14 -0.41 l
0.15 1.03 l
0.14 -1.44 l
0.15 0.82 l
0.15 -1.64 l
0.14 1.23 l
0.15 -1.02 l
0.14 -0.21 l
0.15 1.23 l
0.14 -0.82 l
0.15 0.62 l
0.15 -0.41 l
0.14 0.20 l
0.15 0.41 l
0.14 0 l
0.15 -0.41 l
0.14 0 l
0.15 0.41 l
0.14 0.21 l
0.15 -1.23 l
0.15 0.41 l
0.14 0.82 l
0.15 -0.21 l
0.14 -0.82 l
0.15 0.21 l
0.14 0.41 l
0.15 0.61 l
0.14 -1.43 l
0.15 1.64 l
0.15 -0.62 l
0.14 -0.82 l
0.15 2.05 l
0.14 0 l
0.15 -0.20 l
0.14 -0.41 l
0.15 -0.21 l
0.14 -0.41 l
0.15 0.21 l
0.15 -0.62 l
0.14 -0.82 l
0.15 1.03 l
0.14 0.61 l
0.15 0.21 l
0.14 -0.82 l
0.15 -0.62 l
0.15 0.41 l
0.14 -1.40 l
0.15 0.99 l
0.14 0.21 l
0.15 0 l
0.14 0 l
0.15 1.02 l
0.14 -0.82 l
0.15 -1.03 l
0.15 1.65 l
0.14 -1.03 l
0.15 0.62 l
0.14 -0.21 l
0.15 -0.20 l
0.14 0.82 l
0.15 -0.62 l
0.14 0.62 l
0.15 -0.62 l
0.15 -0.41 l
0.14 1.44 l
currentpoint o m
367.99 508.13 lineto
0.14 -1.02 l
0.15 0.41 l
0.14 0.20 l
0.15 -0.20 l
0.14 0 l
0.15 -0.41 l
0.15 0.61 l
0.14 -1.23 l
0.15 0.41 l
0.14 1.03 l
0.15 0.20 l
0.14 -1.23 l
0.15 -0.20 l
0.15 2.66 l
0.14 -2.05 l
0.15 0.21 l
0.14 0.41 l
0.15 -0.62 l
0.14 -0.41 l
0.15 0.82 l
0.14 0 l
0.15 1.23 l
0.15 -0.20 l
0.14 0.41 l
0.15 -1.64 l
0.14 0.41 l
0.15 -0.21 l
0.14 0.21 l
0.15 -0.82 l
0.14 0.20 l
0.15 -0.41 l
0.15 1.64 l
0.14 -0.61 l
0.15 0 l
0.14 -0.21 l
0.15 -1.23 l
0.14 1.64 l
0.15 -1.02 l
0.14 0 l
0.15 1.23 l
0.15 -0.41 l
0.14 -0.62 l
0.15 0.62 l
0.14 0 l
0.15 -1.03 l
0.14 0.41 l
0.15 -0.41 l
0.15 1.64 l
0.14 -2.26 l
0.15 0.42 l
0.14 0.20 l
0.15 1.23 l
0.14 -0.20 l
0.15 -0.41 l
0.14 -0.41 l
0.15 0.20 l
0.15 -0.61 l
0.14 0.61 l
0.15 0.21 l
0.14 -0.21 l
0.15 -0.41 l
0.14 0.62 l
0.15 -0.62 l
0.14 -0.20 l
0.15 1.23 l
0.15 -0.62 l
0.14 0.82 l
0.15 0.21 l
0.14 -1.03 l
0.15 0.21 l
0.14 0.61 l
0.15 -0.61 l
0.14 -0.21 l
0.15 0.82 l
0.15 -1.43 l
0.14 1.64 l
0.15 -0.62 l
0.14 -0.41 l
0.15 0.21 l
0.14 0.61 l
0.15 0.21 l
0.15 1.44 l
0.14 -2.88 l
0.15 -0.82 l
0.14 1.03 l
0.15 -0.83 l
0.14 2.06 l
0.15 -0.21 l
0.14 -1.23 l
0.15 2.05 l
0.15 -1.64 l
0.14 0.41 l
0.15 1.03 l
0.14 -1.44 l
0.15 -0.20 l
0.14 -0.41 l
0.15 1.43 l
0.14 -0.20 l
0.15 -0.41 l
o
/bg { 1 1 1 srgb } def
222.40 510.60 0.43 c p3
222.55 511.42 0.43 c p3
222.69 510.80 0.43 c p3
222.84 511.21 0.43 c p3
222.98 511.59 0.43 c p3
223.13 512.00 0.43 c p3
223.27 510.60 0.43 c p3
223.42 509.98 0.43 c p3
223.56 511.01 0.43 c p3
223.71 511.21 0.43 c p3
223.86 510.60 0.43 c p3
224.00 510.19 0.43 c p3
224.15 511.01 0.43 c p3
224.29 510.60 0.43 c p3
224.44 508.13 0.43 c p3
224.58 508.34 0.43 c p3
224.73 507.93 0.43 c p3
224.87 508.13 0.43 c p3
225.02 507.52 0.43 c p3
225.17 507.11 0.43 c p3
225.31 507.72 0.43 c p3
225.46 508.13 0.43 c p3
225.60 509.16 0.43 c p3
225.75 508.75 0.43 c p3
225.89 509.16 0.43 c p3
226.04 508.95 0.43 c p3
226.19 509.78 0.43 c p3
226.33 511.01 0.43 c p3
226.48 510.19 0.43 c p3
226.62 510.39 0.43 c p3
226.77 510.80 0.43 c p3
226.91 510.80 0.43 c p3
227.06 508.34 0.43 c p3
227.20 511.21 0.43 c p3
227.35 510.80 0.43 c p3
227.50 510.80 0.43 c p3
227.64 510.19 0.43 c p3
227.79 510.60 0.43 c p3
227.93 510.39 0.43 c p3
228.08 509.57 0.43 c p3
228.22 509.16 0.43 c p3
228.37 509.36 0.43 c p3
228.51 509.16 0.43 c p3
228.66 509.57 0.43 c p3
228.81 508.34 0.43 c p3
228.95 508.34 0.43 c p3
229.10 509.57 0.43 c p3
229.24 508.54 0.43 c p3
229.39 509.57 0.43 c p3
229.53 509.57 0.43 c p3
229.68 509.78 0.43 c p3
229.82 509.16 0.43 c p3
229.97 508.75 0.43 c p3
230.12 511.01 0.43 c p3
230.26 510.60 0.43 c p3
230.41 511.59 0.43 c p3
230.55 510.19 0.43 c p3
230.70 510.80 0.43 c p3
230.84 511.59 0.43 c p3
230.99 511.79 0.43 c p3
231.14 511.59 0.43 c p3
231.28 512.00 0.43 c p3
231.43 511.42 0.43 c p3
231.57 510.39 0.43 c p3
231.72 511.01 0.43 c p3
231.86 510.80 0.43 c p3
232.01 510.60 0.43 c p3
232.15 509.57 0.43 c p3
232.30 507.93 0.43 c p3
232.45 508.75 0.43 c p3
232.59 508.13 0.43 c p3
232.74 509.78 0.43 c p3
232.88 508.75 0.43 c p3
233.03 508.13 0.43 c p3
233.17 509.16 0.43 c p3
233.32 508.34 0.43 c p3
233.46 509.36 0.43 c p3
233.61 509.36 0.43 c p3
233.76 509.36 0.43 c p3
233.90 510.80 0.43 c p3
234.05 509.57 0.43 c p3
234.19 511.42 0.43 c p3
234.34 511.01 0.43 c p3
234.48 511.01 0.43 c p3
234.63 512.00 0.43 c p3
234.77 511.01 0.43 c p3
234.92 510.39 0.43 c p3
235.07 512.00 0.43 c p3
235.21 510.19 0.43 c p3
235.36 509.78 0.43 c p3
235.50 511.01 0.43 c p3
235.65 511.01 0.43 c p3
235.79 510.80 0.43 c p3
235.94 509.16 0.43 c p3
236.09 510.19 0.43 c p3
236.23 510.19 0.43 c p3
236.38 509.78 0.43 c p3
236.52 509.36 0.43 c p3
236.67 507.93 0.43 c p3
236.81 508.13 0.43 c p3
236.96 460.39 0.43 c p3
237.10 461.81 0.43 c p3
237.25 461.21 0.43 c p3
237.40 462.82 0.43 c p3
237.54 467.13 0.43 c p3
237.69 466.93 0.43 c p3
237.83 466.72 0.43 c p3
237.98 466.31 0.43 c p3
238.12 467.13 0.43 c p3
238.27 470.59 0.43 c p3
238.41 471.00 0.43 c p3
238.56 467.51 0.43 c p3
238.71 467.13 0.43 c p3
238.85 468.74 0.43 c p3
239.00 472.23 0.43 c p3
239.14 470.79 0.43 c p3
239.29 471.00 0.43 c p3
239.43 471.00 0.43 c p3
239.58 471.20 0.43 c p3
239.72 474.04 0.43 c p3
239.87 472.03 0.43 c p3
240.02 474.04 0.43 c p3
240.16 472.03 0.43 c p3
240.31 472.03 0.43 c p3
240.45 473.02 0.43 c p3
240.60 473.63 0.43 c p3
240.74 473.02 0.43 c p3
240.89 474.46 0.43 c p3
241.04 473.43 0.43 c p3
241.18 475.89 0.43 c p3
241.33 475.69 0.43 c p3
241.47 475.48 0.43 c p3
241.62 475.89 0.43 c p3
241.76 475.07 0.43 c p3
241.91 477.74 0.43 c p3
242.05 476.30 0.43 c p3
242.20 478.36 0.43 c p3
242.35 478.36 0.43 c p3
242.49 478.94 0.43 c p3
242.64 478.53 0.43 c p3
242.78 478.53 0.43 c p3
242.93 478.94 0.43 c p3
243.07 478.73 0.43 c p3
243.22 478.36 0.43 c p3
243.36 479.14 0.43 c p3
243.51 477.95 0.43 c p3
243.66 480.58 0.43 c p3
243.80 479.76 0.43 c p3
243.95 479.97 0.43 c p3
244.09 480.79 0.43 c p3
244.24 478.73 0.43 c p3
244.38 480.17 0.43 c p3
244.53 480.79 0.43 c p3
244.67 480.58 0.43 c p3
244.82 482.84 0.43 c p3
244.97 481.20 0.43 c p3
245.11 483.05 0.43 c p3
245.26 483.05 0.43 c p3
245.40 483.66 0.43 c p3
245.55 484.65 0.43 c p3
245.69 483.25 0.43 c p3
245.84 483.05 0.43 c p3
245.99 484.04 0.43 c p3
246.13 484.45 0.43 c p3
246.28 484.04 0.43 c p3
246.42 483.25 0.43 c p3
246.57 484.04 0.43 c p3
246.71 484.24 0.43 c p3
246.86 483.87 0.43 c p3
247.00 484.45 0.43 c p3
247.15 483.87 0.43 c p3
247.30 484.24 0.43 c p3
247.44 483.87 0.43 c p3
247.59 483.25 0.43 c p3
247.73 484.86 0.43 c p3
247.88 484.45 0.43 c p3
248.02 485.48 0.43 c p3
248.17 485.89 0.43 c p3
248.31 484.65 0.43 c p3
248.46 486.30 0.43 c p3
248.61 486.71 0.43 c p3
248.75 486.71 0.43 c p3
248.90 487.73 0.43 c p3
249.04 486.91 0.43 c p3
249.19 488.35 0.43 c p3
249.33 488.76 0.43 c p3
249.48 487.94 0.43 c p3
249.62 489.75 0.43 c p3
249.77 487.94 0.43 c p3
249.92 489.38 0.43 c p3
250.06 489.38 0.43 c p3
250.21 488.76 0.43 c p3
250.35 488.97 0.43 c p3
250.50 488.76 0.43 c p3
250.64 487.94 0.43 c p3
250.79 489.96 0.43 c p3
250.94 487.94 0.43 c p3
251.08 489.96 0.43 c p3
251.23 488.76 0.43 c p3
251.37 489.38 0.43 c p3
251.52 490.78 0.43 c p3
251.66 489.75 0.43 c p3
251.81 491.19 0.43 c p3
251.95 489.17 0.43 c p3
252.10 491.60 0.43 c p3
252.25 490.16 0.43 c p3
252.39 490.78 0.43 c p3
252.54 492.22 0.43 c p3
252.68 491.81 0.43 c p3
252.83 491.60 0.43 c p3
252.97 492.63 0.43 c p3
253.12 492.01 0.43 c p3
253.26 492.63 0.43 c p3
253.41 493.66 0.43 c p3
253.56 491.60 0.43 c p3
253.70 493.04 0.43 c p3
253.85 494.27 0.43 c p3
253.99 492.63 0.43 c p3
254.14 494.48 0.43 c p3
254.28 492.42 0.43 c p3
254.43 493.04 0.43 c p3
254.57 492.63 0.43 c p3
254.72 492.22 0.43 c p3
254.87 494.48 0.43 c p3
255.01 492.22 0.43 c p3
255.16 494.68 0.43 c p3
255.30 493.25 0.43 c p3
255.45 493.04 0.43 c p3
255.59 494.27 0.43 c p3
255.74 493.45 0.43 c p3
255.88 494.68 0.43 c p3
256.03 493.45 0.43 c p3
256.18 493.66 0.43 c p3
256.32 494.89 0.43 c p3
256.47 494.48 0.43 c p3
256.61 494.89 0.43 c p3
256.76 496.29 0.43 c p3
256.90 494.07 0.43 c p3
257.05 496.09 0.43 c p3
257.20 495.67 0.43 c p3
257.34 496.50 0.43 c p3
257.49 495.26 0.43 c p3
257.63 495.47 0.43 c p3
257.78 496.91 0.43 c p3
257.92 497.11 0.43 c p3
258.07 496.91 0.43 c p3
258.21 497.11 0.43 c p3
258.36 494.68 0.43 c p3
258.51 496.29 0.43 c p3
258.65 495.47 0.43 c p3
258.80 496.09 0.43 c p3
258.94 497.11 0.43 c p3
259.09 495.47 0.43 c p3
259.23 495.47 0.43 c p3
259.38 496.50 0.43 c p3
259.52 495.26 0.43 c p3
259.67 496.91 0.43 c p3
259.82 496.70 0.43 c p3
259.96 496.70 0.43 c p3
260.11 496.70 0.43 c p3
260.25 496.50 0.43 c p3
260.40 496.91 0.43 c p3
260.54 496.29 0.43 c p3
260.69 497.93 0.43 c p3
260.83 497.11 0.43 c p3
260.98 497.73 0.43 c p3
261.13 498.14 0.43 c p3
261.27 497.52 0.43 c p3
261.42 498.96 0.43 c p3
261.56 498.96 0.43 c p3
261.71 498.34 0.43 c p3
261.85 499.78 0.43 c p3
262.00 498.14 0.43 c p3
262.15 499.99 0.43 c p3
262.29 498.96 0.43 c p3
262.44 497.93 0.43 c p3
262.58 500.40 0.43 c p3
262.73 497.73 0.43 c p3
262.87 499.58 0.43 c p3
263.02 499.99 0.43 c p3
263.16 499.58 0.43 c p3
263.31 500.19 0.43 c p3
263.46 498.14 0.43 c p3
263.60 499.37 0.43 c p3
263.75 499.58 0.43 c p3
263.89 499.17 0.43 c p3
264.04 500.19 0.43 c p3
264.18 498.14 0.43 c p3
264.33 500.57 0.43 c p3
264.47 498.76 0.43 c p3
264.62 500.40 0.43 c p3
264.77 500.19 0.43 c p3
264.91 499.99 0.43 c p3
265.06 500.77 0.43 c p3
265.20 499.78 0.43 c p3
265.35 501.18 0.43 c p3
265.49 501.39 0.43 c p3
265.64 501.18 0.43 c p3
265.78 500.57 0.43 c p3
265.93 500.98 0.43 c p3
266.08 500.57 0.43 c p3
266.22 501.39 0.43 c p3
266.37 498.76 0.43 c p3
266.51 500.57 0.43 c p3
266.66 500.57 0.43 c p3
266.80 500.77 0.43 c p3
266.95 502.83 0.43 c p3
267.10 500.19 0.43 c p3
267.24 499.17 0.43 c p3
267.39 500.98 0.43 c p3
267.53 500.77 0.43 c p3
267.68 500.57 0.43 c p3
267.82 501.80 0.43 c p3
267.97 500.77 0.43 c p3
268.11 501.39 0.43 c p3
268.26 500.40 0.43 c p3
268.41 502.42 0.43 c p3
268.55 500.40 0.43 c p3
268.70 503.03 0.43 c p3
268.84 502.01 0.43 c p3
268.99 502.42 0.43 c p3
269.13 501.60 0.43 c p3
269.28 501.18 0.43 c p3
269.42 502.83 0.43 c p3
269.57 502.42 0.43 c p3
269.72 502.21 0.43 c p3
269.86 501.39 0.43 c p3
270.01 502.01 0.43 c p3
270.15 502.83 0.43 c p3
270.30 501.18 0.43 c p3
270.44 501.80 0.43 c p3
270.59 503.85 0.43 c p3
270.73 502.62 0.43 c p3
270.88 503.03 0.43 c p3
271.03 502.83 0.43 c p3
271.17 502.01 0.43 c p3
271.32 502.01 0.43 c p3
271.46 501.80 0.43 c p3
271.61 503.44 0.43 c p3
271.75 502.62 0.43 c p3
271.90 502.62 0.43 c p3
272.05 504.06 0.43 c p3
272.19 502.21 0.43 c p3
272.34 503.24 0.43 c p3
272.48 503.03 0.43 c p3
272.63 502.62 0.43 c p3
272.77 503.65 0.43 c p3
272.92 503.65 0.43 c p3
273.06 503.85 0.43 c p3
273.21 504.47 0.43 c p3
273.36 502.83 0.43 c p3
273.50 503.44 0.43 c p3
273.65 503.85 0.43 c p3
273.79 502.42 0.43 c p3
273.94 504.27 0.43 c p3
274.08 501.60 0.43 c p3
274.23 504.06 0.43 c p3
274.37 503.03 0.43 c p3
274.52 502.83 0.43 c p3
274.67 504.06 0.43 c p3
274.81 503.03 0.43 c p3
274.96 502.42 0.43 c p3
275.10 503.03 0.43 c p3
275.25 502.21 0.43 c p3
275.39 504.06 0.43 c p3
275.54 501.60 0.43 c p3
275.68 504.06 0.43 c p3
275.83 503.65 0.43 c p3
275.98 501.60 0.43 c p3
276.12 505.29 0.43 c p3
276.27 503.03 0.43 c p3
276.41 503.65 0.43 c p3
276.56 504.06 0.43 c p3
276.70 503.03 0.43 c p3
276.85 503.85 0.43 c p3
277.00 503.65 0.43 c p3
277.14 503.44 0.43 c p3
277.29 504.06 0.43 c p3
277.43 502.42 0.43 c p3
277.58 505.09 0.43 c p3
277.72 504.88 0.43 c p3
277.87 502.62 0.43 c p3
278.01 504.27 0.43 c p3
278.16 504.06 0.43 c p3
278.31 504.47 0.43 c p3
278.45 505.09 0.43 c p3
278.60 503.44 0.43 c p3
278.74 504.06 0.43 c p3
278.89 504.88 0.43 c p3
279.03 505.50 0.43 c p3
279.18 505.70 0.43 c p3
279.32 504.06 0.43 c p3
279.47 504.68 0.43 c p3
279.62 503.85 0.43 c p3
279.76 504.47 0.43 c p3
279.91 505.91 0.43 c p3
280.05 504.27 0.43 c p3
280.20 505.29 0.43 c p3
280.34 505.50 0.43 c p3
280.49 504.47 0.43 c p3
280.63 505.70 0.43 c p3
280.78 503.24 0.43 c p3
280.93 505.91 0.43 c p3
281.07 505.91 0.43 c p3
281.22 503.44 0.43 c p3
281.36 506.49 0.43 c p3
281.51 503.24 0.43 c p3
281.65 505.29 0.43 c p3
281.80 504.06 0.43 c p3
281.95 503.65 0.43 c p3
282.09 504.47 0.43 c p3
282.24 504.06 0.43 c p3
282.38 505.09 0.43 c p3
282.53 505.50 0.43 c p3
282.67 504.06 0.43 c p3
282.82 505.70 0.43 c p3
282.96 505.50 0.43 c p3
283.11 505.70 0.43 c p3
283.26 504.88 0.43 c p3
283.40 504.27 0.43 c p3
283.55 505.29 0.43 c p3
283.69 504.06 0.43 c p3
283.84 505.70 0.43 c p3
283.98 506.28 0.43 c p3
284.13 504.47 0.43 c p3
284.27 505.50 0.43 c p3
284.42 504.47 0.43 c p3
284.57 505.09 0.43 c p3
284.71 505.09 0.43 c p3
284.86 503.24 0.43 c p3
285.00 506.49 0.43 c p3
285.15 505.29 0.43 c p3
285.29 505.91 0.43 c p3
285.44 506.08 0.43 c p3
285.58 503.85 0.43 c p3
285.73 505.09 0.43 c p3
285.88 505.50 0.43 c p3
286.02 504.68 0.43 c p3
286.17 505.09 0.43 c p3
286.31 504.88 0.43 c p3
286.46 506.28 0.43 c p3
286.60 505.29 0.43 c p3
286.75 506.08 0.43 c p3
286.89 504.88 0.43 c p3
287.04 504.88 0.43 c p3
287.19 506.28 0.43 c p3
287.33 505.50 0.43 c p3
287.48 504.27 0.43 c p3
287.62 505.70 0.43 c p3
287.77 506.08 0.43 c p3
287.91 505.50 0.43 c p3
288.06 505.29 0.43 c p3
288.21 505.09 0.43 c p3
288.35 506.08 0.43 c p3
288.50 504.88 0.43 c p3
288.64 506.08 0.43 c p3
288.79 505.29 0.43 c p3
288.93 505.70 0.43 c p3
289.08 506.08 0.43 c p3
289.22 505.09 0.43 c p3
289.37 506.08 0.43 c p3
289.52 505.70 0.43 c p3
289.66 504.68 0.43 c p3
289.81 506.28 0.43 c p3
289.95 505.70 0.43 c p3
290.10 505.91 0.43 c p3
290.24 507.11 0.43 c p3
290.39 504.47 0.43 c p3
290.53 506.90 0.43 c p3
290.68 505.91 0.43 c p3
290.83 506.90 0.43 c p3
290.97 506.70 0.43 c p3
291.12 506.08 0.43 c p3
291.26 507.31 0.43 c p3
291.41 506.70 0.43 c p3
291.55 506.28 0.43 c p3
291.70 506.49 0.43 c p3
291.84 505.09 0.43 c p3
291.99 505.70 0.43 c p3
292.14 507.31 0.43 c p3
292.28 505.91 0.43 c p3
292.43 505.91 0.43 c p3
292.57 505.09 0.43 c p3
292.72 506.28 0.43 c p3
292.86 505.50 0.43 c p3
293.01 505.50 0.43 c p3
293.16 506.70 0.43 c p3
293.30 504.06 0.43 c p3
293.45 506.28 0.43 c p3
293.59 505.91 0.43 c p3
293.74 505.50 0.43 c p3
293.88 506.70 0.43 c p3
294.03 505.09 0.43 c p3
294.17 506.49 0.43 c p3
294.32 506.28 0.43 c p3
294.47 506.08 0.43 c p3
294.61 507.31 0.43 c p3
294.76 505.09 0.43 c p3
294.90 506.90 0.43 c p3
295.05 506.08 0.43 c p3
295.19 505.91 0.43 c p3
295.34 506.90 0.43 c p3
295.48 505.91 0.43 c p3
295.63 505.91 0.43 c p3
295.78 507.52 0.43 c p3
295.92 506.28 0.43 c p3
296.07 507.31 0.43 c p3
296.21 505.91 0.43 c p3
296.36 508.54 0.43 c p3
296.50 505.50 0.43 c p3
296.65 504.68 0.43 c p3
296.79 506.28 0.43 c p3
296.94 507.11 0.43 c p3
297.09 505.70 0.43 c p3
297.23 507.52 0.43 c p3
297.38 505.91 0.43 c p3
297.52 506.28 0.43 c p3
297.67 506.90 0.43 c p3
297.81 506.08 0.43 c p3
297.96 506.70 0.43 c p3
298.11 504.88 0.43 c p3
298.25 505.91 0.43 c p3
298.40 506.08 0.43 c p3
298.54 506.08 0.43 c p3
298.69 507.31 0.43 c p3
298.83 506.08 0.43 c p3
298.98 506.49 0.43 c p3
299.12 507.72 0.43 c p3
299.27 505.70 0.43 c p3
299.42 506.90 0.43 c p3
299.56 506.70 0.43 c p3
299.71 505.70 0.43 c p3
299.85 507.52 0.43 c p3
300.00 505.91 0.43 c p3
300.14 506.28 0.43 c p3
300.29 507.11 0.43 c p3
300.43 507.11 0.43 c p3
300.58 507.11 0.43 c p3
300.73 506.28 0.43 c p3
300.87 507.52 0.43 c p3
301.02 506.08 0.43 c p3
301.16 506.49 0.43 c p3
301.31 506.08 0.43 c p3
301.45 505.50 0.43 c p3
301.60 507.11 0.43 c p3
301.74 506.28 0.43 c p3
301.89 506.49 0.43 c p3
302.04 506.70 0.43 c p3
302.18 506.28 0.43 c p3
302.33 506.70 0.43 c p3
302.47 506.70 0.43 c p3
302.62 507.11 0.43 c p3
302.76 507.11 0.43 c p3
302.91 505.50 0.43 c p3
303.06 506.28 0.43 c p3
303.20 507.52 0.43 c p3
303.35 506.08 0.43 c p3
303.49 508.13 0.43 c p3
303.64 506.49 0.43 c p3
303.78 508.34 0.43 c p3
303.93 507.72 0.43 c p3
304.07 505.91 0.43 c p3
304.22 507.11 0.43 c p3
304.37 506.70 0.43 c p3
304.51 507.72 0.43 c p3
304.66 507.72 0.43 c p3
304.80 504.68 0.43 c p3
304.95 506.70 0.43 c p3
305.09 506.08 0.43 c p3
305.24 506.49 0.43 c p3
305.38 505.70 0.43 c p3
305.53 506.28 0.43 c p3
305.68 507.11 0.43 c p3
305.82 505.29 0.43 c p3
305.97 506.90 0.43 c p3
306.11 508.13 0.43 c p3
306.26 505.91 0.43 c p3
306.40 506.90 0.43 c p3
306.55 507.11 0.43 c p3
306.69 507.11 0.43 c p3
306.84 507.11 0.43 c p3
306.99 506.90 0.43 c p3
307.13 507.11 0.43 c p3
307.28 506.49 0.43 c p3
307.42 506.28 0.43 c p3
307.57 506.08 0.43 c p3
307.71 506.90 0.43 c p3
307.86 506.49 0.43 c p3
308.01 505.50 0.43 c p3
308.15 507.72 0.43 c p3
308.30 507.52 0.43 c p3
308.44 506.08 0.43 c p3
308.59 507.11 0.43 c p3
308.73 506.08 0.43 c p3
308.88 507.11 0.43 c p3
309.02 507.93 0.43 c p3
309.17 504.68 0.43 c p3
309.32 507.52 0.43 c p3
309.46 505.91 0.43 c p3
309.61 507.11 0.43 c p3
309.75 508.34 0.43 c p3
309.90 506.70 0.43 c p3
310.04 506.49 0.43 c p3
310.19 508.34 0.43 c p3
310.33 507.11 0.43 c p3
310.48 508.75 0.43 c p3
310.63 506.90 0.43 c p3
310.77 506.70 0.43 c p3
310.92 508.13 0.43 c p3
311.06 505.50 0.43 c p3
311.21 507.93 0.43 c p3
311.35 505.70 0.43 c p3
311.50 508.34 0.43 c p3
311.64 507.93 0.43 c p3
311.79 506.90 0.43 c p3
311.94 507.31 0.43 c p3
312.08 506.90 0.43 c p3
312.23 507.93 0.43 c p3
312.37 508.13 0.43 c p3
312.52 506.28 0.43 c p3
312.66 508.13 0.43 c p3
312.81 505.50 0.43 c p3
312.96 506.08 0.43 c p3
313.10 507.72 0.43 c p3
313.25 506.49 0.43 c p3
313.39 508.75 0.43 c p3
313.54 506.70 0.43 c p3
313.68 506.90 0.43 c p3
313.83 507.11 0.43 c p3
313.97 508.13 0.43 c p3
314.12 507.52 0.43 c p3
314.27 506.90 0.43 c p3
314.41 507.31 0.43 c p3
314.56 507.11 0.43 c p3
314.70 506.28 0.43 c p3
314.85 507.11 0.43 c p3
314.99 507.11 0.43 c p3
315.14 508.34 0.43 c p3
315.28 507.31 0.43 c p3
315.43 507.11 0.43 c p3
315.58 507.52 0.43 c p3
315.72 507.72 0.43 c p3
315.87 507.11 0.43 c p3
316.01 507.11 0.43 c p3
316.16 506.49 0.43 c p3
316.30 507.52 0.43 c p3
316.45 506.08 0.43 c p3
316.59 506.90 0.43 c p3
316.74 507.52 0.43 c p3
316.89 507.11 0.43 c p3
317.03 507.11 0.43 c p3
317.18 507.31 0.43 c p3
317.32 507.93 0.43 c p3
317.47 507.72 0.43 c p3
317.61 506.70 0.43 c p3
317.76 508.13 0.43 c p3
317.91 506.28 0.43 c p3
318.05 507.93 0.43 c p3
318.20 506.49 0.43 c p3
318.34 507.11 0.43 c p3
318.49 507.11 0.43 c p3
318.63 506.08 0.43 c p3
318.78 507.52 0.43 c p3
318.92 507.93 0.43 c p3
319.07 506.49 0.43 c p3
319.22 507.93 0.43 c p3
319.36 506.49 0.43 c p3
319.51 507.31 0.43 c p3
319.65 508.54 0.43 c p3
319.80 506.90 0.43 c p3
319.94 507.11 0.43 c p3
320.09 507.72 0.43 c p3
320.23 507.72 0.43 c p3
320.38 507.11 0.43 c p3
320.53 505.70 0.43 c p3
320.67 507.72 0.43 c p3
320.82 506.49 0.43 c p3
320.96 507.11 0.43 c p3
321.11 506.90 0.43 c p3
321.25 507.11 0.43 c p3
321.40 508.34 0.43 c p3
321.54 507.11 0.43 c p3
321.69 506.28 0.43 c p3
321.84 507.31 0.43 c p3
321.98 506.08 0.43 c p3
322.13 506.49 0.43 c p3
322.27 506.90 0.43 c p3
322.42 507.72 0.43 c p3
322.56 507.31 0.43 c p3
322.71 506.90 0.43 c p3
322.85 508.34 0.43 c p3
323.00 505.91 0.43 c p3
323.15 506.28 0.43 c p3
323.29 506.49 0.43 c p3
323.44 507.31 0.43 c p3
323.58 507.93 0.43 c p3
323.73 508.13 0.43 c p3
323.87 506.70 0.43 c p3
324.02 506.08 0.43 c p3
324.17 507.52 0.43 c p3
324.31 506.49 0.43 c p3
324.46 507.31 0.43 c p3
324.60 506.28 0.43 c p3
324.75 506.08 0.43 c p3
324.89 507.52 0.43 c p3
325.04 507.93 0.43 c p3
325.18 507.11 0.43 c p3
325.33 506.08 0.43 c p3
325.48 507.11 0.43 c p3
325.62 507.52 0.43 c p3
325.77 506.90 0.43 c p3
325.91 508.34 0.43 c p3
326.06 507.11 0.43 c p3
326.20 506.28 0.43 c p3
326.35 507.31 0.43 c p3
326.49 505.70 0.43 c p3
326.64 506.08 0.43 c p3
326.79 508.54 0.43 c p3
326.93 506.70 0.43 c p3
327.08 508.54 0.43 c p3
327.22 507.93 0.43 c p3
327.37 506.70 0.43 c p3
327.51 507.72 0.43 c p3
327.66 506.49 0.43 c p3
327.80 508.13 0.43 c p3
327.95 506.49 0.43 c p3
328.10 506.49 0.43 c p3
328.24 507.72 0.43 c p3
328.39 507.31 0.43 c p3
328.53 507.11 0.43 c p3
328.68 507.11 0.43 c p3
328.82 506.90 0.43 c p3
328.97 507.72 0.43 c p3
329.12 507.72 0.43 c p3
329.26 507.11 0.43 c p3
329.41 507.52 0.43 c p3
329.55 506.90 0.43 c p3
329.70 508.95 0.43 c p3
329.84 508.34 0.43 c p3
329.99 507.31 0.43 c p3
330.13 507.52 0.43 c p3
330.28 505.50 0.43 c p3
330.43 508.54 0.43 c p3
330.57 507.31 0.43 c p3
330.72 507.11 0.43 c p3
330.86 507.52 0.43 c p3
331.01 506.28 0.43 c p3
331.15 506.70 0.43 c p3
331.30 508.75 0.43 c p3
331.44 506.70 0.43 c p3
331.59 508.34 0.43 c p3
331.74 506.08 0.43 c p3
331.88 505.91 0.43 c p3
332.03 506.49 0.43 c p3
332.17 505.91 0.43 c p3
332.32 506.49 0.43 c p3
332.46 506.28 0.43 c p3
332.61 507.52 0.43 c p3
332.75 507.11 0.43 c p3
332.90 506.49 0.43 c p3
333.05 509.36 0.43 c p3
333.19 507.72 0.43 c p3
333.34 507.31 0.43 c p3
333.48 507.52 0.43 c p3
333.63 506.28 0.43 c p3
333.77 508.54 0.43 c p3
333.92 507.93 0.43 c p3
334.07 507.52 0.43 c p3
334.21 508.13 0.43 c p3
334.36 507.72 0.43 c p3
334.50 506.28 0.43 c p3
334.65 508.13 0.43 c p3
334.79 506.90 0.43 c p3
334.94 507.31 0.43 c p3
335.08 507.52 0.43 c p3
335.23 506.70 0.43 c p3
335.38 507.93 0.43 c p3
335.52 507.93 0.43 c p3
335.67 506.70 0.43 c p3
335.81 507.93 0.43 c p3
335.96 507.11 0.43 c p3
336.10 506.08 0.43 c p3
336.25 506.90 0.43 c p3
336.39 507.52 0.43 c p3
336.54 506.70 0.43 c p3
336.69 506.70 0.43 c p3
336.83 508.13 0.43 c p3
336.98 506.28 0.43 c p3
337.12 506.90 0.43 c p3
337.27 508.13 0.43 c p3
337.41 507.11 0.43 c p3
337.56 506.28 0.43 c p3
337.70 506.08 0.43 c p3
337.85 506.90 0.43 c p3
338.00 507.52 0.43 c p3
338.14 507.72 0.43 c p3
338.29 506.90 0.43 c p3
338.43 507.72 0.43 c p3
338.58 506.49 0.43 c p3
338.72 507.31 0.43 c p3
338.87 507.93 0.43 c p3
339.02 506.70 0.43 c p3
339.16 507.52 0.43 c p3
339.31 507.72 0.43 c p3
339.45 506.70 0.43 c p3
339.60 507.31 0.43 c p3
339.74 506.08 0.43 c p3
339.89 507.52 0.43 c p3
340.03 506.28 0.43 c p3
340.18 508.75 0.43 c p3
340.33 508.75 0.43 c p3
340.47 506.08 0.43 c p3
340.62 507.31 0.43 c p3
340.76 507.31 0.43 c p3
340.91 508.13 0.43 c p3
341.05 507.31 0.43 c p3
341.20 507.52 0.43 c p3
341.34 507.52 0.43 c p3
341.49 508.75 0.43 c p3
341.64 507.72 0.43 c p3
341.78 507.11 0.43 c p3
341.93 506.90 0.43 c p3
342.07 507.11 0.43 c p3
342.22 507.72 0.43 c p3
342.36 507.11 0.43 c p3
342.51 506.70 0.43 c p3
342.65 507.52 0.43 c p3
342.80 507.72 0.43 c p3
342.95 507.31 0.43 c p3
343.09 507.52 0.43 c p3
343.24 506.90 0.43 c p3
343.38 507.93 0.43 c p3
343.53 508.54 0.43 c p3
343.67 506.70 0.43 c p3
343.82 506.90 0.43 c p3
343.97 507.72 0.43 c p3
344.11 507.72 0.43 c p3
344.26 507.31 0.43 c p3
344.40 506.08 0.43 c p3
344.55 508.34 0.43 c p3
344.69 508.13 0.43 c p3
344.84 506.90 0.43 c p3
344.98 507.11 0.43 c p3
345.13 506.90 0.43 c p3
345.28 506.49 0.43 c p3
345.42 507.93 0.43 c p3
345.57 508.34 0.43 c p3
345.71 506.70 0.43 c p3
345.86 508.54 0.43 c p3
346.00 507.11 0.43 c p3
346.15 506.49 0.43 c p3
346.29 508.13 0.43 c p3
346.44 507.11 0.43 c p3
346.59 507.93 0.43 c p3
346.73 507.11 0.43 c p3
346.88 507.11 0.43 c p3
347.02 508.13 0.43 c p3
347.17 507.52 0.43 c p3
347.31 506.90 0.43 c p3
347.46 507.52 0.43 c p3
347.60 506.90 0.43 c p3
347.75 506.90 0.43 c p3
347.90 507.93 0.43 c p3
348.04 505.91 0.43 c p3
348.19 507.93 0.43 c p3
348.33 507.31 0.43 c p3
348.48 506.28 0.43 c p3
348.62 508.13 0.43 c p3
348.77 506.90 0.43 c p3
348.92 507.93 0.43 c p3
349.06 507.52 0.43 c p3
349.21 507.31 0.43 c p3
349.35 507.31 0.43 c p3
349.50 507.72 0.43 c p3
349.64 507.11 0.43 c p3
349.79 507.11 0.43 c p3
349.93 505.91 0.43 c p3
350.08 506.08 0.43 c p3
350.23 508.34 0.43 c p3
350.37 506.70 0.43 c p3
350.52 507.31 0.43 c p3
350.66 507.93 0.43 c p3
350.81 507.72 0.43 c p3
350.95 507.11 0.43 c p3
351.10 507.52 0.43 c p3
351.24 507.72 0.43 c p3
351.39 508.13 0.43 c p3
351.54 508.34 0.43 c p3
351.68 507.31 0.43 c p3
351.83 507.11 0.43 c p3
351.97 507.11 0.43 c p3
352.12 507.93 0.43 c p3
352.26 508.95 0.43 c p3
352.41 507.72 0.43 c p3
352.55 507.11 0.43 c p3
352.70 508.54 0.43 c p3
352.85 507.11 0.43 c p3
352.99 506.70 0.43 c p3
353.14 507.31 0.43 c p3
353.28 505.50 0.43 c p3
353.43 507.11 0.43 c p3
353.57 507.72 0.43 c p3
353.72 507.11 0.43 c p3
353.86 507.31 0.43 c p3
354.01 506.70 0.43 c p3
354.16 508.54 0.43 c p3
354.30 507.31 0.43 c p3
354.45 507.52 0.43 c p3
354.59 508.13 0.43 c p3
354.74 506.28 0.43 c p3
354.88 507.93 0.43 c p3
355.03 506.70 0.43 c p3
355.18 507.31 0.43 c p3
355.32 507.11 0.43 c p3
355.47 506.90 0.43 c p3
355.61 507.11 0.43 c p3
355.76 507.93 0.43 c p3
355.90 506.49 0.43 c p3
356.05 507.72 0.43 c p3
356.19 508.13 0.43 c p3
356.34 508.34 0.43 c p3
356.49 508.34 0.43 c p3
356.63 508.13 0.43 c p3
356.78 508.13 0.43 c p3
356.92 507.11 0.43 c p3
357.07 507.31 0.43 c p3
357.21 508.34 0.43 c p3
357.36 507.93 0.43 c p3
357.50 507.31 0.43 c p3
357.65 507.31 0.43 c p3
357.80 506.08 0.43 c p3
357.94 506.90 0.43 c p3
358.09 507.52 0.43 c p3
358.23 508.54 0.43 c p3
358.38 508.13 0.43 c p3
358.52 507.72 0.43 c p3
358.67 508.75 0.43 c p3
358.81 507.31 0.43 c p3
358.96 508.13 0.43 c p3
359.11 506.49 0.43 c p3
359.25 507.72 0.43 c p3
359.40 506.70 0.43 c p3
359.54 506.49 0.43 c p3
359.69 507.72 0.43 c p3
359.83 506.90 0.43 c p3
359.98 507.52 0.43 c p3
360.13 507.11 0.43 c p3
360.27 507.31 0.43 c p3
360.42 507.72 0.43 c p3
360.56 507.72 0.43 c p3
360.71 507.31 0.43 c p3
360.85 507.31 0.43 c p3
361.00 507.72 0.43 c p3
361.14 507.93 0.43 c p3
361.29 506.70 0.43 c p3
361.44 507.11 0.43 c p3
361.58 507.93 0.43 c p3
361.73 507.72 0.43 c p3
361.87 506.90 0.43 c p3
362.02 507.11 0.43 c p3
362.16 507.52 0.43 c p3
362.31 508.13 0.43 c p3
362.45 506.70 0.43 c p3
362.60 508.34 0.43 c p3
362.75 507.72 0.43 c p3
362.89 506.90 0.43 c p3
363.04 508.95 0.43 c p3
363.18 508.95 0.43 c p3
363.33 508.75 0.43 c p3
363.47 508.34 0.43 c p3
363.62 508.13 0.43 c p3
363.76 507.72 0.43 c p3
363.91 507.93 0.43 c p3
364.06 507.31 0.43 c p3
364.20 506.49 0.43 c p3
364.35 507.52 0.43 c p3
364.49 508.13 0.43 c p3
364.64 508.34 0.43 c p3
364.78 507.52 0.43 c p3
364.93 506.90 0.43 c p3
365.08 507.31 0.43 c p3
365.22 505.91 0.43 c p3
365.37 506.90 0.43 c p3
365.51 507.11 0.43 c p3
365.66 507.11 0.43 c p3
365.80 507.11 0.43 c p3
365.95 508.13 0.43 c p3
366.09 507.31 0.43 c p3
366.24 506.28 0.43 c p3
366.39 507.93 0.43 c p3
366.53 506.90 0.43 c p3
366.68 507.52 0.43 c p3
366.82 507.31 0.43 c p3
366.97 507.11 0.43 c p3
367.11 507.93 0.43 c p3
367.26 507.31 0.43 c p3
367.40 507.93 0.43 c p3
367.55 507.31 0.43 c p3
367.70 506.90 0.43 c p3
367.84 508.34 0.43 c p3
367.99 508.13 0.43 c p3
368.13 507.11 0.43 c p3
368.28 507.52 0.43 c p3
368.42 507.72 0.43 c p3
368.57 507.52 0.43 c p3
368.71 507.52 0.43 c p3
368.86 507.11 0.43 c p3
369.01 507.72 0.43 c p3
369.15 506.49 0.43 c p3
369.30 506.90 0.43 c p3
369.44 507.93 0.43 c p3
369.59 508.13 0.43 c p3
369.73 506.90 0.43 c p3
369.88 506.70 0.43 c p3
370.03 509.36 0.43 c p3
370.17 507.31 0.43 c p3
370.32 507.52 0.43 c p3
370.46 507.93 0.43 c p3
370.61 507.31 0.43 c p3
370.75 506.90 0.43 c p3
370.90 507.72 0.43 c p3
371.04 507.72 0.43 c p3
371.19 508.95 0.43 c p3
371.34 508.75 0.43 c p3
371.48 509.16 0.43 c p3
371.63 507.52 0.43 c p3
371.77 507.93 0.43 c p3
371.92 507.72 0.43 c p3
372.06 507.93 0.43 c p3
372.21 507.11 0.43 c p3
372.35 507.31 0.43 c p3
372.50 506.90 0.43 c p3
372.65 508.54 0.43 c p3
372.79 507.93 0.43 c p3
372.94 507.93 0.43 c p3
373.08 507.72 0.43 c p3
373.23 506.49 0.43 c p3
373.37 508.13 0.43 c p3
373.52 507.11 0.43 c p3
373.66 507.11 0.43 c p3
373.81 508.34 0.43 c p3
373.96 507.93 0.43 c p3
374.10 507.31 0.43 c p3
374.25 507.93 0.43 c p3
374.39 507.93 0.43 c p3
374.54 506.90 0.43 c p3
374.68 507.31 0.43 c p3
374.83 506.90 0.43 c p3
374.98 508.54 0.43 c p3
375.12 506.28 0.43 c p3
375.27 506.70 0.43 c p3
375.41 506.90 0.43 c p3
375.56 508.13 0.43 c p3
375.70 507.93 0.43 c p3
375.85 507.52 0.43 c p3
375.99 507.11 0.43 c p3
376.14 507.31 0.43 c p3
376.29 506.70 0.43 c p3
376.43 507.31 0.43 c p3
376.58 507.52 0.43 c p3
376.72 507.31 0.43 c p3
376.87 506.90 0.43 c p3
377.01 507.52 0.43 c p3
377.16 506.90 0.43 c p3
377.30 506.70 0.43 c p3
377.45 507.93 0.43 c p3
377.60 507.31 0.43 c p3
377.74 508.13 0.43 c p3
377.89 508.34 0.43 c p3
378.03 507.31 0.43 c p3
378.18 507.52 0.43 c p3
378.32 508.13 0.43 c p3
378.47 507.52 0.43 c p3
378.61 507.31 0.43 c p3
378.76 508.13 0.43 c p3
378.91 506.70 0.43 c p3
379.05 508.34 0.43 c p3
379.20 507.72 0.43 c p3
379.34 507.31 0.43 c p3
379.49 507.52 0.43 c p3
379.63 508.13 0.43 c p3
379.78 508.34 0.43 c p3
379.93 509.78 0.43 c p3
380.07 506.90 0.43 c p3
380.22 506.08 0.43 c p3
380.36 507.11 0.43 c p3
380.51 506.28 0.43 c p3
380.65 508.34 0.43 c p3
380.80 508.13 0.43 c p3
380.94 506.90 0.43 c p3
381.09 508.95 0.43 c p3
381.24 507.31 0.43 c p3
381.38 507.72 0.43 c p3
381.53 508.75 0.43 c p3
381.67 507.31 0.43 c p3
381.82 507.11 0.43 c p3
381.96 506.70 0.43 c p3
382.11 508.13 0.43 c p3
382.25 507.93 0.43 c p3
382.40 507.52 0.43 c p3
0.00 0.00 432.00 576.00 cl
0 0 0 srgb
0.75 setlinewidth
[] 0 setdash
1 setlinecap
1 setlinejoin
10.00 setmiterlimit
np
236.96 345.60 m
145.59 0 l
o
np
236.96 345.60 m
0 -5.76 l
o
np
285.49 345.60 m
0 -5.76 l
o
np
334.02 345.60 m
0 -5.76 l
o
np
382.55 345.60 m
0 -5.76 l
o
/Font1 findfont 10 s
236.96 329.47 (0) .5 0 t
285.49 329.47 (500) .5 0 t
334.02 329.47 (1000) .5 0 t
382.55 329.47 (1500) .5 0 t
np
216.00 352.00 m
0 140.18 l
o
np
216.00 352.00 m
-5.76 0 l
o
np
216.00 380.04 m
-5.76 0 l
o
np
216.00 408.07 m
-5.76 0 l
o
np
216.00 436.11 m
-5.76 0 l
o
np
216.00 464.14 m
-5.76 0 l
o
np
216.00 492.18 m
-5.76 0 l
o
209.09 348.41 (0.00) 1 0 t
209.09 376.45 (0.05) 1 0 t
209.09 404.48 (0.10) 1 0 t
209.09 432.52 (0.15) 1 0 t
209.09 460.55 (0.20) 1 0 t
209.09 488.59 (0.25) 1 0 t
np
216.00 345.60 m
172.80 0 l
0 172.80 l
-172.80 0 l
0 -172.80 l
o
0.00 0.00 432.00 576.00 cl
/Font1 findfont 10 s
0 0 0 srgb
302.40 313.34 (Time / ms \(total\)) .5 0 t
190.66 432.00 (U / V) .5 90 t
216.00 345.60 388.80 518.40 cl
0 0 0 srgb
0.38 setlinewidth
[ 1.13 1.88] 0 setdash
1 setlinecap
1 setlinejoin
10.00 setmiterlimit
np
222.55 345.60 m
0 172.80 l
o
np
224.00 345.60 m
0 172.80 l
o
np
238.56 345.60 m
0 172.80 l
o
np
322.85 345.60 m
0 172.80 l
o
86.40 57.60 388.80 288.00 cl
1 0 0 srgb
1.50 setlinewidth
[] 0 setdash
1 setlinecap
1 setlinejoin
10.00 setmiterlimit
np
97.60 279.47 m
1.41 -9.49 l
1.40 -9.04 l
1.41 -8.61 l
1.41 -8.19 l
1.41 -7.80 l
1.40 -7.43 l
1.41 -7.07 l
1.41 -6.74 l
1.40 -6.41 l
1.41 -6.10 l
1.41 -5.82 l
1.40 -5.53 l
1.41 -5.27 l
1.41 -5.02 l
1.41 -4.78 l
1.40 -4.55 l
1.41 -4.33 l
1.41 -4.12 l
1.40 -3.93 l
1.41 -3.74 l
1.41 -3.56 l
1.40 -3.39 l
1.41 -3.23 l
1.41 -3.07 l
1.41 -2.92 l
1.40 -2.79 l
1.41 -2.65 l
1.41 -2.53 l
1.40 -2.40 l
1.41 -2.29 l
1.41 -2.19 l
1.41 -2.07 l
1.40 -1.98 l
1.41 -1.88 l
1.41 -1.79 l
1.40 -1.71 l
1.41 -1.62 l
1.41 -1.55 l
1.40 -1.47 l
1.41 -1.41 l
1.41 -1.33 l
1.41 -1.27 l
1.40 -1.21 l
1.41 -1.16 l
1.41 -1.09 l
1.40 -1.05 l
1.41 -0.99 l
1.41 -0.95 l
1.40 -0.90 l
1.41 -0.86 l
1.41 -0.82 l
1.41 -0.78 l
1.40 -0.74 l
1.41 -0.71 l
1.41 -0.67 l
1.40 -0.64 l
1.41 -0.61 l
1.41 -0.58 l
1.41 -0.55 l
1.40 -0.53 l
1.41 -0.50 l
1.41 -0.48 l
1.40 -0.45 l
1.41 -0.43 l
1.41 -0.41 l
1.40 -0.40 l
1.41 -0.37 l
1.41 -0.36 l
1.41 -0.33 l
1.40 -0.33 l
1.41 -0.30 l
1.41 -0.30 l
1.40 -0.27 l
1.41 -0.27 l
1.41 -0.25 l
1.40 -0.24 l
1.41 -0.23 l
1.41 -0.22 l
1.41 -0.20 l
1.40 -0.20 l
1.41 -0.19 l
1.41 -0.18 l
1.40 -0.17 l
1.41 -0.16 l
1.41 -0.15 l
1.41 -0.15 l
1.40 -0.14 l
1.41 -0.14 l
1.41 -0.12 l
1.40 -0.12 l
1.41 -0.12 l
1.41 -0.11 l
1.40 -0.10 l
1.41 -0.10 l
1.41 -0.10 l
1.41 -0.09 l
1.40 -0.08 l
1.41 -0.08 l
1.41 -0.08 l
238.30 82.56 lineto
1.41 -0.07 l
1.41 -0.06 l
1.40 -0.07 l
1.41 -0.06 l
1.41 -0.06 l
1.41 -0.05 l
1.40 -0.05 l
1.41 -0.05 l
1.41 -0.05 l
1.40 -0.05 l
1.41 -0.04 l
1.41 -0.04 l
1.40 -0.04 l
1.41 -0.04 l
1.41 -0.03 l
1.41 -0.04 l
1.40 -0.03 l
1.41 -0.03 l
1.41 -0.03 l
1.40 -0.03 l
1.41 -0.02 l
1.41 -0.03 l
1.41 -0.02 l
1.40 -0.02 l
1.41 -0.03 l
1.41 -0.02 l
1.40 -0.02 l
1.41 -0.02 l
1.41 -0.01 l
1.40 -0.02 l
1.41 -0.02 l
1.41 -0.01 l
1.41 -0.02 l
1.40 -0.01 l
1.41 -0.01 l
1.41 -0.02 l
1.40 -0.01 l
1.41 -0.01 l
1.41 -0.01 l
1.40 -0.01 l
1.41 -0.01 l
1.41 -0.01 l
1.41 -0.01 l
1.40 -0.01 l
1.41 -0.01 l
1.41 0 l
1.40 -0.01 l
1.41 -0.01 l
1.41 -0.01 l
1.41 0 l
1.40 -0.01 l
1.41 0 l
1.41 -0.01 l
1.40 0 l
1.41 -0.01 l
1.41 0 l
1.40 -0.01 l
1.41 0 l
1.41 -0.01 l
1.41 0 l
1.40 0 l
1.41 -0.01 l
1.41 0 l
1.40 0 l
1.41 -0.01 l
1.41 0 l
1.40 0 l
1.41 -0.01 l
1.41 0 l
1.41 0 l
1.40 0 l
1.41 -0.01 l
1.41 0 l
1.40 0 l
1.41 0 l
1.41 0 l
1.41 0 l
1.40 -0.01 l
1.41 0 l
1.41 0 l
1.40 0 l
1.41 0 l
1.41 0 l
1.40 0 l
1.41 -0.01 l
1.41 0 l
1.41 0 l
1.40 0 l
1.41 0 l
1.41 0 l
1.40 0 l
1.41 0 l
1.41 0 l
1.40 0 l
1.41 0 l
1.41 -0.01 l
1.41 0 l
1.40 0 l
1.41 0 l
o
0.00 0.00 432.00 576.00 cl
0 0 0 srgb
0.75 setlinewidth
[] 0 setdash
1 setlinecap
1 setlinejoin
10.00 setmiterlimit
np
97.60 57.60 m
280.00 0 l
o
np
97.60 57.60 m
0 -5.76 l
o
np
190.93 57.60 m
0 -5.76 l
o
np
284.27 57.60 m
0 -5.76 l
o
np
377.60 57.60 m
0 -5.76 l
o
/Font1 findfont 10 s
97.60 41.47 (0) .5 0 t
190.93 41.47 (500) .5 0 t
284.27 41.47 (1000) .5 0 t
377.60 41.47 (1500) .5 0 t
np
86.40 66.13 m
0 219.07 l
o
np
86.40 66.13 m
-5.76 0 l
o
np
86.40 139.16 m
-5.76 0 l
o
np
86.40 212.18 m
-5.76 0 l
o
np
86.40 285.20 m
-5.76 0 l
o
79.49 62.54 (0.00) 1 0 t
79.49 135.57 (0.05) 1 0 t
79.49 208.59 (0.10) 1 0 t
79.49 281.61 (0.15) 1 0 t
np
86.40 57.60 m
302.40 0 l
0 230.40 l
-302.40 0 l
0 -230.40 l
o
0.00 0.00 432.00 576.00 cl
/Font1 findfont 10 s
0 0 0 srgb
237.60 13.82 (Time / ms \(after pulse\)) .5 0 t
49.54 172.80 (Absorbance A) .5 90 t
86.40 57.60 388.80 288.00 cl
/bg { 1 1 1 srgb } def
0 0 0 srgb
0.75 setlinewidth
[] 0 setdash
1 setlinecap
1 setlinejoin
10.00 setmiterlimit
100.96 268.68 0.65 c p3
101.24 270.75 0.65 c p3
101.52 261.95 0.65 c p3
101.80 243.26 0.65 c p3
102.08 250.89 0.65 c p3
102.36 249.79 0.65 c p3
102.64 249.79 0.65 c p3
102.92 248.70 0.65 c p3
103.20 233.76 0.65 c p3
103.48 244.35 0.65 c p3
103.76 233.76 0.65 c p3
104.04 244.35 0.65 c p3
104.32 244.35 0.65 c p3
104.60 239.12 0.65 c p3
104.88 235.90 0.65 c p3
105.16 239.12 0.65 c p3
105.44 231.63 0.65 c p3
105.72 236.97 0.65 c p3
106.00 224.23 0.65 c p3
106.28 225.28 0.65 c p3
106.56 226.34 0.65 c p3
106.84 224.23 0.65 c p3
107.12 228.45 0.65 c p3
107.40 214.84 0.65 c p3
107.68 222.13 0.65 c p3
107.96 211.74 0.65 c p3
108.24 211.74 0.65 c p3
108.52 208.83 0.65 c p3
108.80 210.88 0.65 c p3
109.08 210.88 0.65 c p3
109.36 208.83 0.65 c p3
109.64 209.85 0.65 c p3
109.92 211.74 0.65 c p3
110.20 207.80 0.65 c p3
110.48 213.81 0.65 c p3
110.76 200.67 0.65 c p3
111.04 204.74 0.65 c p3
111.32 203.72 0.65 c p3
111.60 199.66 0.65 c p3
111.88 209.85 0.65 c p3
112.16 202.70 0.65 c p3
112.44 199.66 0.65 c p3
112.72 200.67 0.65 c p3
113.00 189.62 0.65 c p3
113.28 197.64 0.65 c p3
113.56 188.63 0.65 c p3
113.84 188.63 0.65 c p3
114.12 185.66 0.65 c p3
114.40 180.89 0.65 c p3
114.68 187.64 0.65 c p3
114.96 188.63 0.65 c p3
115.24 183.84 0.65 c p3
115.52 181.87 0.65 c p3
115.80 183.84 0.65 c p3
116.08 187.64 0.65 c p3
116.36 183.84 0.65 c p3
116.64 182.86 0.65 c p3
116.92 184.67 0.65 c p3
117.20 181.87 0.65 c p3
117.48 184.67 0.65 c p3
117.76 182.86 0.65 c p3
118.04 184.67 0.65 c p3
118.32 187.64 0.65 c p3
118.60 179.91 0.65 c p3
118.88 181.87 0.65 c p3
119.16 176.98 0.65 c p3
119.44 175.03 0.65 c p3
119.72 180.89 0.65 c p3
120.00 173.09 0.65 c p3
120.28 171.15 0.65 c p3
120.56 171.15 0.65 c p3
120.84 166.33 0.65 c p3
121.12 170.18 0.65 c p3
121.40 163.46 0.65 c p3
121.68 161.55 0.65 c p3
121.96 165.37 0.65 c p3
122.24 156.97 0.65 c p3
122.52 165.37 0.65 c p3
122.80 158.70 0.65 c p3
123.08 158.70 0.65 c p3
123.36 161.55 0.65 c p3
123.64 160.60 0.65 c p3
123.92 161.55 0.65 c p3
124.20 165.37 0.65 c p3
124.48 156.02 0.65 c p3
124.76 165.37 0.65 c p3
125.04 156.02 0.65 c p3
125.32 161.55 0.65 c p3
125.60 158.70 0.65 c p3
125.88 152.26 0.65 c p3
126.16 156.97 0.65 c p3
126.44 150.38 0.65 c p3
126.72 159.65 0.65 c p3
127.00 148.51 0.65 c p3
127.28 155.08 0.65 c p3
127.56 152.26 0.65 c p3
127.84 145.72 0.65 c p3
128.12 147.58 0.65 c p3
128.40 148.51 0.65 c p3
128.68 143.87 0.65 c p3
128.96 146.65 0.65 c p3
129.24 143.87 0.65 c p3
129.52 139.25 0.65 c p3
129.80 148.51 0.65 c p3
130.08 142.01 0.65 c p3
130.36 136.50 0.65 c p3
130.64 143.87 0.65 c p3
130.92 135.58 0.65 c p3
131.20 144.79 0.65 c p3
131.48 142.01 0.65 c p3
131.76 143.87 0.65 c p3
132.04 145.72 0.65 c p3
132.32 135.58 0.65 c p3
132.60 145.72 0.65 c p3
132.88 134.67 0.65 c p3
133.16 141.09 0.65 c p3
133.44 142.01 0.65 c p3
133.72 136.50 0.65 c p3
134.00 140.17 0.65 c p3
134.28 134.67 0.65 c p3
134.56 140.17 0.65 c p3
134.84 139.25 0.65 c p3
135.12 133.76 0.65 c p3
135.40 135.58 0.65 c p3
135.68 133.76 0.65 c p3
135.96 127.56 0.65 c p3
136.24 137.41 0.65 c p3
136.52 128.46 0.65 c p3
136.80 130.27 0.65 c p3
137.08 126.66 0.65 c p3
137.36 132.09 0.65 c p3
137.64 131.18 0.65 c p3
137.92 124.86 0.65 c p3
138.20 123.96 0.65 c p3
138.48 124.86 0.65 c p3
138.76 123.96 0.65 c p3
139.04 134.67 0.65 c p3
139.32 127.56 0.65 c p3
139.60 131.18 0.65 c p3
139.88 128.46 0.65 c p3
140.16 123.96 0.65 c p3
140.44 131.18 0.65 c p3
140.72 131.18 0.65 c p3
141.00 126.66 0.65 c p3
141.28 132.09 0.65 c p3
141.56 124.86 0.65 c p3
141.84 125.76 0.65 c p3
142.12 125.76 0.65 c p3
142.40 125.76 0.65 c p3
142.68 126.66 0.65 c p3
142.96 124.86 0.65 c p3
143.24 127.56 0.65 c p3
143.52 120.38 0.65 c p3
143.80 123.96 0.65 c p3
144.08 121.27 0.65 c p3
144.36 119.49 0.65 c p3
144.64 122.17 0.65 c p3
144.92 115.93 0.65 c p3
145.20 115.93 0.65 c p3
145.48 118.60 0.65 c p3
145.76 112.40 0.65 c p3
146.04 119.49 0.65 c p3
146.32 111.52 0.65 c p3
146.60 115.93 0.65 c p3
146.88 120.38 0.65 c p3
147.16 109.76 0.65 c p3
147.44 121.27 0.65 c p3
147.72 113.28 0.65 c p3
148.00 111.52 0.65 c p3
148.28 113.28 0.65 c p3
148.56 110.64 0.65 c p3
148.84 119.49 0.65 c p3
149.12 114.16 0.65 c p3
149.40 113.28 0.65 c p3
149.68 115.05 0.65 c p3
149.96 110.64 0.65 c p3
150.24 119.49 0.65 c p3
150.52 109.03 0.65 c p3
150.80 116.82 0.65 c p3
151.08 109.76 0.65 c p3
151.36 110.64 0.65 c p3
151.64 111.52 0.65 c p3
151.92 108.15 0.65 c p3
152.20 112.40 0.65 c p3
152.48 106.40 0.65 c p3
152.76 105.53 0.65 c p3
153.04 106.40 0.65 c p3
153.32 109.03 0.65 c p3
153.60 107.28 0.65 c p3
153.88 109.03 0.65 c p3
154.16 105.53 0.65 c p3
154.44 116.82 0.65 c p3
154.72 109.03 0.65 c p3
155.00 109.03 0.65 c p3
155.28 108.15 0.65 c p3
155.56 99.46 0.65 c p3
155.84 110.64 0.65 c p3
156.12 115.05 0.65 c p3
156.40 107.28 0.65 c p3
156.68 108.15 0.65 c p3
156.96 109.03 0.65 c p3
157.24 103.79 0.65 c p3
157.52 108.15 0.65 c p3
157.80 105.53 0.65 c p3
158.08 109.76 0.65 c p3
158.36 101.19 0.65 c p3
158.64 109.76 0.65 c p3
158.92 98.60 0.65 c p3
159.20 102.92 0.65 c p3
159.48 101.19 0.65 c p3
159.76 104.66 0.65 c p3
160.04 106.40 0.65 c p3
160.32 99.46 0.65 c p3
160.60 101.19 0.65 c p3
160.88 102.05 0.65 c p3
161.16 105.53 0.65 c p3
161.44 102.92 0.65 c p3
161.72 99.46 0.65 c p3
162.00 106.40 0.65 c p3
162.28 103.79 0.65 c p3
162.56 95.15 0.65 c p3
162.84 100.32 0.65 c p3
163.12 98.60 0.65 c p3
163.40 99.46 0.65 c p3
163.68 102.92 0.65 c p3
163.96 102.92 0.65 c p3
164.24 103.79 0.65 c p3
164.52 96.87 0.65 c p3
164.80 100.32 0.65 c p3
165.08 100.32 0.65 c p3
165.36 94.30 0.65 c p3
165.64 102.05 0.65 c p3
165.92 97.73 0.65 c p3
166.20 98.60 0.65 c p3
166.48 100.32 0.65 c p3
166.76 96.01 0.65 c p3
167.04 96.01 0.65 c p3
167.32 95.15 0.65 c p3
167.60 92.59 0.65 c p3
167.88 99.46 0.65 c p3
168.16 96.87 0.65 c p3
168.44 95.15 0.65 c p3
168.72 101.19 0.65 c p3
169.00 93.44 0.65 c p3
169.28 104.66 0.65 c p3
169.56 94.30 0.65 c p3
169.84 98.60 0.65 c p3
170.12 99.46 0.65 c p3
170.40 94.30 0.65 c p3
170.68 98.60 0.65 c p3
170.96 101.19 0.65 c p3
171.24 98.60 0.65 c p3
171.52 102.05 0.65 c p3
171.80 94.30 0.65 c p3
172.08 104.66 0.65 c p3
172.36 94.30 0.65 c p3
172.64 96.01 0.65 c p3
172.92 104.66 0.65 c p3
173.20 89.18 0.65 c p3
173.48 98.60 0.65 c p3
173.76 96.01 0.65 c p3
174.04 94.30 0.65 c p3
174.32 98.60 0.65 c p3
174.60 95.15 0.65 c p3
174.88 96.01 0.65 c p3
175.16 96.87 0.65 c p3
175.44 94.30 0.65 c p3
175.72 101.19 0.65 c p3
176.00 90.03 0.65 c p3
176.28 90.88 0.65 c p3
176.56 100.32 0.65 c p3
176.84 93.44 0.65 c p3
177.12 94.30 0.65 c p3
177.40 92.59 0.65 c p3
177.68 90.03 0.65 c p3
177.96 96.87 0.65 c p3
178.24 94.30 0.65 c p3
178.52 90.88 0.65 c p3
178.80 88.33 0.65 c p3
179.08 87.48 0.65 c p3
179.36 94.30 0.65 c p3
179.64 91.73 0.65 c p3
179.92 95.15 0.65 c p3
180.20 92.59 0.65 c p3
180.48 86.64 0.65 c p3
180.76 93.44 0.65 c p3
181.04 89.18 0.65 c p3
181.32 88.33 0.65 c p3
181.60 92.59 0.65 c p3
181.88 87.48 0.65 c p3
182.16 97.73 0.65 c p3
182.44 86.64 0.65 c p3
182.72 86.64 0.65 c p3
183.00 96.87 0.65 c p3
183.28 84.24 0.65 c p3
183.56 97.73 0.65 c p3
183.84 89.18 0.65 c p3
184.12 94.30 0.65 c p3
184.40 96.01 0.65 c p3
184.68 92.59 0.65 c p3
184.96 94.30 0.65 c p3
185.24 90.03 0.65 c p3
185.52 88.33 0.65 c p3
185.80 94.30 0.65 c p3
186.08 87.48 0.65 c p3
186.36 88.33 0.65 c p3
186.64 87.48 0.65 c p3
186.92 90.88 0.65 c p3
187.20 93.44 0.65 c p3
187.48 89.18 0.65 c p3
187.76 94.30 0.65 c p3
188.04 87.48 0.65 c p3
188.32 85.08 0.65 c p3
188.60 92.59 0.65 c p3
188.88 88.33 0.65 c p3
189.16 92.59 0.65 c p3
189.44 90.03 0.65 c p3
189.72 90.03 0.65 c p3
190.00 97.73 0.65 c p3
190.28 84.24 0.65 c p3
190.56 89.18 0.65 c p3
190.84 86.64 0.65 c p3
191.12 85.93 0.65 c p3
191.40 95.15 0.65 c p3
191.68 90.03 0.65 c p3
191.96 88.33 0.65 c p3
192.24 91.73 0.65 c p3
192.52 90.03 0.65 c p3
192.80 90.88 0.65 c p3
193.08 85.08 0.65 c p3
193.36 89.18 0.65 c p3
193.64 85.93 0.65 c p3
193.92 90.88 0.65 c p3
194.20 90.88 0.65 c p3
194.48 85.08 0.65 c p3
194.76 88.33 0.65 c p3
195.04 93.44 0.65 c p3
195.32 87.48 0.65 c p3
195.60 85.93 0.65 c p3
195.88 88.33 0.65 c p3
196.16 89.18 0.65 c p3
196.44 90.03 0.65 c p3
196.72 85.93 0.65 c p3
197.00 90.88 0.65 c p3
197.28 85.93 0.65 c p3
197.56 89.18 0.65 c p3
197.84 87.48 0.65 c p3
198.12 85.93 0.65 c p3
198.40 90.03 0.65 c p3
198.68 85.93 0.65 c p3
198.96 87.48 0.65 c p3
199.24 91.73 0.65 c p3
199.52 85.08 0.65 c p3
199.80 87.48 0.65 c p3
200.08 86.64 0.65 c p3
200.36 81.72 0.65 c p3
200.64 92.59 0.65 c p3
200.92 82.56 0.65 c p3
201.20 86.64 0.65 c p3
201.48 82.56 0.65 c p3
201.76 83.40 0.65 c p3
202.04 85.93 0.65 c p3
202.32 80.88 0.65 c p3
202.60 83.40 0.65 c p3
202.88 85.08 0.65 c p3
203.16 84.24 0.65 c p3
203.44 90.03 0.65 c p3
203.72 87.48 0.65 c p3
204.00 80.88 0.65 c p3
204.28 86.64 0.65 c p3
204.56 86.64 0.65 c p3
204.84 90.03 0.65 c p3
205.12 85.08 0.65 c p3
205.40 88.33 0.65 c p3
205.68 88.33 0.65 c p3
205.96 83.40 0.65 c p3
206.24 94.30 0.65 c p3
206.52 85.08 0.65 c p3
206.80 86.64 0.65 c p3
207.08 88.33 0.65 c p3
207.36 83.40 0.65 c p3
207.64 90.03 0.65 c p3
207.92 84.24 0.65 c p3
208.20 85.08 0.65 c p3
208.48 85.93 0.65 c p3
208.76 80.88 0.65 c p3
209.04 90.03 0.65 c p3
209.32 82.56 0.65 c p3
209.60 85.93 0.65 c p3
209.88 86.64 0.65 c p3
210.16 82.56 0.65 c p3
210.44 86.64 0.65 c p3
210.72 86.64 0.65 c p3
211.00 80.04 0.65 c p3
211.28 85.08 0.65 c p3
211.56 80.88 0.65 c p3
211.84 86.64 0.65 c p3
212.12 75.87 0.65 c p3
212.40 88.33 0.65 c p3
212.68 91.73 0.65 c p3
212.96 85.08 0.65 c p3
213.24 81.72 0.65 c p3
213.52 87.48 0.65 c p3
213.80 80.04 0.65 c p3
214.08 86.64 0.65 c p3
214.36 85.08 0.65 c p3
214.64 82.56 0.65 c p3
214.92 85.93 0.65 c p3
215.20 83.40 0.65 c p3
215.48 90.88 0.65 c p3
215.76 86.64 0.65 c p3
216.04 85.93 0.65 c p3
216.32 85.93 0.65 c p3
216.60 80.88 0.65 c p3
216.88 85.93 0.65 c p3
217.16 84.24 0.65 c p3
217.44 79.20 0.65 c p3
217.72 87.48 0.65 c p3
218.00 82.56 0.65 c p3
218.28 83.40 0.65 c p3
218.56 87.48 0.65 c p3
218.84 80.04 0.65 c p3
219.12 86.64 0.65 c p3
219.40 85.08 0.65 c p3
219.68 81.72 0.65 c p3
219.96 81.72 0.65 c p3
220.24 81.72 0.65 c p3
220.52 85.08 0.65 c p3
220.80 80.04 0.65 c p3
221.08 85.93 0.65 c p3
221.36 84.24 0.65 c p3
221.64 85.93 0.65 c p3
221.92 88.33 0.65 c p3
222.20 81.72 0.65 c p3
222.48 85.08 0.65 c p3
222.76 84.24 0.65 c p3
223.04 83.40 0.65 c p3
223.32 85.08 0.65 c p3
223.60 83.40 0.65 c p3
223.88 83.40 0.65 c p3
224.16 81.72 0.65 c p3
224.44 81.72 0.65 c p3
224.72 88.33 0.65 c p3
225.00 85.08 0.65 c p3
225.28 80.04 0.65 c p3
225.56 85.93 0.65 c p3
225.84 77.53 0.65 c p3
226.12 84.24 0.65 c p3
226.40 76.70 0.65 c p3
226.68 79.20 0.65 c p3
226.96 86.64 0.65 c p3
227.24 81.72 0.65 c p3
227.52 83.40 0.65 c p3
227.80 79.20 0.65 c p3
228.08 79.20 0.65 c p3
228.36 91.73 0.65 c p3
228.64 83.40 0.65 c p3
228.92 85.93 0.65 c p3
229.20 84.24 0.65 c p3
229.48 87.48 0.65 c p3
229.76 85.08 0.65 c p3
230.04 81.72 0.65 c p3
230.32 89.18 0.65 c p3
230.60 82.56 0.65 c p3
230.88 77.53 0.65 c p3
231.16 86.64 0.65 c p3
231.44 82.56 0.65 c p3
231.72 81.72 0.65 c p3
232.00 81.72 0.65 c p3
232.28 81.72 0.65 c p3
232.56 82.56 0.65 c p3
232.84 81.72 0.65 c p3
233.12 84.24 0.65 c p3
233.40 85.08 0.65 c p3
233.68 85.93 0.65 c p3
233.96 82.56 0.65 c p3
234.24 84.24 0.65 c p3
234.52 88.33 0.65 c p3
234.80 79.20 0.65 c p3
235.08 80.04 0.65 c p3
235.36 85.93 0.65 c p3
235.64 81.72 0.65 c p3
235.92 85.93 0.65 c p3
236.20 81.72 0.65 c p3
236.48 78.37 0.65 c p3
236.76 91.73 0.65 c p3
237.04 80.04 0.65 c p3
237.32 86.64 0.65 c p3
237.60 81.72 0.65 c p3
237.88 76.70 0.65 c p3
238.16 83.40 0.65 c p3
238.44 84.24 0.65 c p3
238.72 76.70 0.65 c p3
239.00 81.72 0.65 c p3
239.28 75.03 0.65 c p3
239.56 82.56 0.65 c p3
239.84 83.40 0.65 c p3
240.12 77.53 0.65 c p3
240.40 88.33 0.65 c p3
240.68 78.37 0.65 c p3
240.96 87.48 0.65 c p3
241.24 76.70 0.65 c p3
241.52 78.37 0.65 c p3
241.80 82.56 0.65 c p3
242.08 80.88 0.65 c p3
242.36 82.56 0.65 c p3
242.64 78.37 0.65 c p3
242.92 77.53 0.65 c p3
243.20 85.08 0.65 c p3
243.48 77.53 0.65 c p3
243.76 88.33 0.65 c p3
244.04 85.93 0.65 c p3
244.32 79.20 0.65 c p3
244.60 84.24 0.65 c p3
244.88 75.03 0.65 c p3
245.16 83.40 0.65 c p3
245.44 82.56 0.65 c p3
245.72 81.72 0.65 c p3
246.00 77.53 0.65 c p3
246.28 80.04 0.65 c p3
246.56 82.56 0.65 c p3
246.84 80.88 0.65 c p3
247.12 81.72 0.65 c p3
247.40 85.08 0.65 c p3
247.68 81.72 0.65 c p3
247.96 81.72 0.65 c p3
248.24 76.70 0.65 c p3
248.52 80.88 0.65 c p3
248.80 81.72 0.65 c p3
249.08 80.04 0.65 c p3
249.36 79.20 0.65 c p3
249.64 81.72 0.65 c p3
249.92 81.72 0.65 c p3
250.20 84.24 0.65 c p3
250.48 80.04 0.65 c p3
250.76 85.93 0.65 c p3
251.04 82.56 0.65 c p3
251.32 80.04 0.65 c p3
251.60 81.72 0.65 c p3
251.88 81.72 0.65 c p3
252.16 80.88 0.65 c p3
252.44 78.37 0.65 c p3
252.72 79.20 0.65 c p3
253.00 83.40 0.65 c p3
253.28 77.53 0.65 c p3
253.56 85.08 0.65 c p3
253.84 78.37 0.65 c p3
254.12 84.24 0.65 c p3
254.40 81.72 0.65 c p3
254.68 81.72 0.65 c p3
254.96 85.93 0.65 c p3
255.24 80.04 0.65 c p3
255.52 78.37 0.65 c p3
255.80 84.24 0.65 c p3
256.08 78.37 0.65 c p3
256.36 84.24 0.65 c p3
256.64 80.88 0.65 c p3
256.92 75.87 0.65 c p3
257.20 82.56 0.65 c p3
257.48 81.72 0.65 c p3
257.76 79.20 0.65 c p3
258.04 79.20 0.65 c p3
258.32 81.72 0.65 c p3
258.60 87.48 0.65 c p3
258.88 79.20 0.65 c p3
259.16 84.24 0.65 c p3
259.44 81.72 0.65 c p3
259.72 82.56 0.65 c p3
260.00 81.72 0.65 c p3
260.28 76.70 0.65 c p3
260.56 81.72 0.65 c p3
260.84 85.08 0.65 c p3
261.12 80.88 0.65 c p3
261.40 85.93 0.65 c p3
261.68 84.24 0.65 c p3
261.96 82.56 0.65 c p3
262.24 79.20 0.65 c p3
262.52 80.88 0.65 c p3
262.80 82.56 0.65 c p3
263.08 76.70 0.65 c p3
216.00 201.60 367.20 247.68 cl
0 0 0 srgb
0.75 setlinewidth
[] 0 setdash
1 setlinecap
1 setlinejoin
10.00 setmiterlimit
221.60 235.25 0.43 c p1
221.84 238.86 0.43 c p1
222.08 232.09 0.43 c p1
222.33 215.87 0.43 c p1
222.57 224.73 0.43 c p1
222.81 225.26 0.43 c p1
223.05 226.81 0.43 c p1
223.29 227.31 0.43 c p1
223.53 214.59 0.43 c p1
223.78 226.19 0.43 c p1
224.02 217.60 0.43 c p1
224.26 229.17 0.43 c p1
224.50 230.64 0.43 c p1
224.74 227.11 0.43 c p1
224.99 225.48 0.43 c p1
225.23 229.98 0.43 c p1
225.47 224.25 0.43 c p1
225.71 230.74 0.43 c p1
225.95 219.97 0.43 c p1
226.19 222.34 0.43 c p1
226.44 224.70 0.43 c p1
226.68 224.04 0.43 c p1
226.92 229.40 0.43 c p1
227.16 217.73 0.43 c p1
227.40 226.00 0.43 c p1
227.64 217.38 0.43 c p1
227.89 218.66 0.43 c p1
228.13 217.15 0.43 c p1
228.37 220.36 0.43 c p1
228.61 221.60 0.43 c p1
228.85 220.88 0.43 c p1
229.10 223.07 0.43 c p1
229.34 226.08 0.43 c p1
229.58 223.52 0.43 c p1
229.82 230.43 0.43 c p1
230.06 219.08 0.43 c p1
230.30 224.12 0.43 c p1
230.55 224.29 0.43 c p1
230.79 221.56 0.43 c p1
231.03 232.41 0.43 c p1
231.27 226.71 0.43 c p1
231.51 224.91 0.43 c p1
231.76 226.97 0.43 c p1
232.00 217.52 0.43 c p1
232.24 226.24 0.43 c p1
232.48 218.71 0.43 c p1
232.72 219.76 0.43 c p1
232.96 217.97 0.43 c p1
233.21 214.46 0.43 c p1
233.45 221.92 0.43 c p1
233.69 223.88 0.43 c p1
233.93 220.32 0.43 c p1
234.17 219.43 0.43 c p1
234.42 222.29 0.43 c p1
234.66 226.88 0.43 c p1
234.90 224.23 0.43 c p1
235.14 224.25 0.43 c p1
235.38 226.92 0.43 c p1
235.62 225.19 0.43 c p1
235.87 228.78 0.43 c p1
236.11 227.98 0.43 c p1
236.35 230.61 0.43 c p1
236.59 234.35 0.43 c p1
236.83 227.87 0.43 c p1
237.07 230.63 0.43 c p1
237.32 226.83 0.43 c p1
237.56 225.84 0.43 c p1
237.80 232.29 0.43 c p1
238.04 225.69 0.43 c p1
238.28 224.69 0.43 c p1
238.53 225.52 0.43 c p1
238.77 221.75 0.43 c p1
239.01 226.24 0.43 c p1
239.25 220.64 0.43 c p1
239.49 219.62 0.43 c p1
239.73 224.06 0.43 c p1
239.98 216.83 0.43 c p1
240.22 225.63 0.43 c p1
240.46 220.03 0.43 c p1
240.70 220.80 0.43 c p1
240.94 224.27 0.43 c p1
241.19 224.11 0.43 c p1
241.43 225.76 0.43 c p1
241.67 230.14 0.43 c p1
241.91 221.95 0.43 c p1
242.15 231.59 0.43 c p1
242.39 223.38 0.43 c p1
242.64 229.36 0.43 c p1
242.88 227.34 0.43 c p1
243.12 221.89 0.43 c p1
243.36 227.06 0.43 c p1
243.60 221.46 0.43 c p1
243.85 230.98 0.43 c p1
244.09 221.02 0.43 c p1
244.33 227.94 0.43 c p1
244.57 225.90 0.43 c p1
244.81 220.32 0.43 c p1
245.05 222.73 0.43 c p1
245.30 224.25 0.43 c p1
245.54 220.45 0.43 c p1
245.78 223.73 0.43 c p1
246.02 221.69 0.43 c p1
246.26 217.90 0.43 c p1
246.51 227.33 0.43 c p1
246.75 221.73 0.43 c p1
246.99 217.07 0.43 c p1
247.23 224.68 0.43 c p1
247.47 217.36 0.43 c p1
247.71 226.72 0.43 c p1
247.96 224.64 0.43 c p1
248.20 226.97 0.43 c p1
248.44 229.30 0.43 c p1
248.68 220.18 0.43 c p1
248.92 230.40 0.43 c p1
249.16 220.40 0.43 c p1
249.41 227.06 0.43 c p1
249.65 228.48 0.43 c p1
249.89 223.74 0.43 c p1
250.13 227.77 0.43 c p1
250.37 223.04 0.43 c p1
250.62 228.79 0.43 c p1
250.86 228.42 0.43 c p1
251.10 223.69 0.43 c p1
251.34 225.93 0.43 c p1
251.58 224.67 0.43 c p1
251.82 219.25 0.43 c p1
252.07 229.13 0.43 c p1
252.31 221.07 0.43 c p1
252.55 223.27 0.43 c p1
252.79 220.29 0.43 c p1
253.03 225.94 0.43 c p1
253.28 225.53 0.43 c p1
253.52 219.96 0.43 c p1
253.76 219.55 0.43 c p1
254.00 220.85 0.43 c p1
254.24 220.44 0.43 c p1
254.48 231.09 0.43 c p1
254.73 224.74 0.43 c p1
254.97 228.63 0.43 c p1
255.21 226.46 0.43 c p1
255.45 222.59 0.43 c p1
255.69 229.89 0.43 c p1
255.94 230.30 0.43 c p1
256.18 226.40 0.43 c p1
256.42 231.98 0.43 c p1
256.66 225.49 0.43 c p1
256.90 226.74 0.43 c p1
257.14 227.13 0.43 c p1
257.39 227.52 0.43 c p1
257.63 228.77 0.43 c p1
257.87 227.43 0.43 c p1
258.11 230.39 0.43 c p1
258.35 223.91 0.43 c p1
258.59 227.70 0.43 c p1
258.84 225.50 0.43 c p1
259.08 224.17 0.43 c p1
259.32 227.08 0.43 c p1
259.56 221.49 0.43 c p1
259.80 221.85 0.43 c p1
260.05 224.74 0.43 c p1
260.29 219.17 0.43 c p1
260.53 226.28 0.43 c p1
260.77 219.01 0.43 c p1
261.01 223.56 0.43 c p1
261.25 228.13 0.43 c p1
261.50 218.33 0.43 c p1
261.74 229.64 0.43 c p1
261.98 222.34 0.43 c p1
262.22 220.98 0.43 c p1
262.46 222.98 0.43 c p1
262.71 220.78 0.43 c p1
262.95 229.53 0.43 c p1
263.19 224.76 0.43 c p1
263.43 224.22 0.43 c p1
263.67 226.21 0.43 c p1
263.91 222.30 0.43 c p1
264.16 231.04 0.43 c p1
264.40 221.36 0.43 c p1
264.64 229.08 0.43 c p1
264.88 222.63 0.43 c p1
265.12 223.75 0.43 c p1
265.37 224.87 0.43 c p1
265.61 221.95 0.43 c p1
265.85 226.27 0.43 c p1
266.09 220.83 0.43 c p1
266.33 220.27 0.43 c p1
266.57 221.37 0.43 c p1
266.82 224.14 0.43 c p1
267.06 222.73 0.43 c p1
267.30 224.66 0.43 c p1
267.54 221.58 0.43 c p1
267.78 232.61 0.43 c p1
268.02 225.43 0.43 c p1
268.27 225.68 0.43 c p1
268.51 225.09 0.43 c p1
268.75 217.05 0.43 c p1
268.99 227.95 0.43 c p1
269.23 232.40 0.43 c p1
269.48 225.23 0.43 c p1
269.72 226.30 0.43 c p1
269.96 227.37 0.43 c p1
270.20 222.61 0.43 c p1
270.44 227.00 0.43 c p1
270.68 224.72 0.43 c p1
270.93 228.98 0.43 c p1
271.17 221.03 0.43 c p1
271.41 229.43 0.43 c p1
271.65 219.00 0.43 c p1
271.89 223.34 0.43 c p1
272.14 221.90 0.43 c p1
272.38 225.43 0.43 c p1
272.62 227.30 0.43 c p1
272.86 220.89 0.43 c p1
273.10 222.74 0.43 c p1
273.34 223.77 0.43 c p1
273.59 227.29 0.43 c p1
273.83 225.00 0.43 c p1
274.07 221.90 0.43 c p1
274.31 228.72 0.43 c p1
274.55 226.42 0.43 c p1
274.80 218.38 0.43 c p1
275.04 223.50 0.43 c p1
275.28 222.04 0.43 c p1
275.52 223.05 0.43 c p1
275.76 226.54 0.43 c p1
276.00 226.72 0.43 c p1
276.25 227.73 0.43 c p1
276.49 221.32 0.43 c p1
276.73 224.78 0.43 c p1
276.97 224.96 0.43 c p1
277.21 219.39 0.43 c p1
277.45 226.96 0.43 c p1
277.70 223.01 0.43 c p1
277.94 224.00 0.43 c p1
278.18 225.82 0.43 c p1
278.42 221.88 0.43 c p1
278.66 222.04 0.43 c p1
278.91 221.39 0.43 c p1
279.15 219.10 0.43 c p1
279.39 225.81 0.43 c p1
279.63 223.50 0.43 c p1
279.87 222.02 0.43 c p1
280.11 227.93 0.43 c p1
280.36 220.70 0.43 c p1
280.60 231.55 0.43 c p1
280.84 221.82 0.43 c p1
281.08 226.07 0.43 c p1
281.32 227.04 0.43 c p1
281.57 222.27 0.43 c p1
281.81 226.51 0.43 c p1
282.05 229.12 0.43 c p1
282.29 226.79 0.43 c p1
282.53 230.23 0.43 c p1
282.77 222.98 0.43 c p1
283.02 233.00 0.43 c p1
283.26 223.25 0.43 c p1
283.50 225.02 0.43 c p1
283.74 233.40 0.43 c p1
283.98 218.77 0.43 c p1
284.23 227.89 0.43 c p1
284.47 225.55 0.43 c p1
284.71 224.05 0.43 c p1
284.95 228.27 0.43 c p1
285.19 225.12 0.43 c p1
285.43 226.06 0.43 c p1
285.68 227.01 0.43 c p1
285.92 224.68 0.43 c p1
286.16 231.37 0.43 c p1
286.40 220.85 0.43 c p1
286.64 221.78 0.43 c p1
286.88 230.90 0.43 c p1
287.13 224.46 0.43 c p1
287.37 225.39 0.43 c p1
287.61 223.87 0.43 c p1
287.85 221.55 0.43 c p1
288.09 228.19 0.43 c p1
288.34 225.84 0.43 c p1
288.58 222.70 0.43 c p1
288.82 220.37 0.43 c p1
289.06 219.67 0.43 c p1
289.30 226.28 0.43 c p1
289.54 223.94 0.43 c p1
289.79 227.31 0.43 c p1
290.03 224.96 0.43 c p1
290.27 219.39 0.43 c p1
290.51 225.98 0.43 c p1
290.75 222.02 0.43 c p1
291.00 221.31 0.43 c p1
291.24 225.47 0.43 c p1
291.48 220.70 0.43 c p1
291.72 230.57 0.43 c p1
291.96 220.09 0.43 c p1
292.20 220.18 0.43 c p1
292.45 230.04 0.43 c p1
292.69 218.09 0.43 c p1
292.93 231.05 0.43 c p1
293.17 222.98 0.43 c p1
293.41 227.95 0.43 c p1
293.66 229.68 0.43 c p1
293.90 226.50 0.43 c p1
294.14 228.22 0.43 c p1
294.38 224.24 0.43 c p1
294.62 222.70 0.43 c p1
294.86 228.48 0.43 c p1
295.11 222.07 0.43 c p1
295.35 222.96 0.43 c p1
295.59 222.23 0.43 c p1
295.83 225.56 0.43 c p1
296.07 228.08 0.43 c p1
296.32 224.10 0.43 c p1
296.56 229.06 0.43 c p1
296.80 222.64 0.43 c p1
297.04 220.43 0.43 c p1
297.28 227.66 0.43 c p1
297.52 223.68 0.43 c p1
297.77 227.82 0.43 c p1
298.01 225.45 0.43 c p1
298.25 225.53 0.43 c p1
298.49 232.95 0.43 c p1
298.73 220.16 0.43 c p1
298.97 224.94 0.43 c p1
299.22 222.58 0.43 c p1
299.46 221.98 0.43 c p1
299.70 230.85 0.43 c p1
299.94 226.03 0.43 c p1
300.18 224.48 0.43 c p1
300.43 227.79 0.43 c p1
300.67 226.24 0.43 c p1
300.91 227.12 0.43 c p1
301.15 221.66 0.43 c p1
301.39 225.63 0.43 c p1
301.63 222.59 0.43 c p1
301.88 227.38 0.43 c p1
302.12 227.44 0.43 c p1
302.36 221.98 0.43 c p1
302.60 225.14 0.43 c p1
302.84 230.07 0.43 c p1
303.09 224.45 0.43 c p1
303.33 223.03 0.43 c p1
303.57 225.38 0.43 c p1
303.81 226.25 0.43 c p1
304.05 227.12 0.43 c p1
304.29 223.27 0.43 c p1
304.54 228.05 0.43 c p1
304.78 223.39 0.43 c p1
305.02 226.54 0.43 c p1
305.26 224.98 0.43 c p1
305.50 223.56 0.43 c p1
305.75 227.52 0.43 c p1
305.99 223.67 0.43 c p1
306.23 225.20 0.43 c p1
306.47 229.31 0.43 c p1
306.71 223.02 0.43 c p1
306.95 225.36 0.43 c p1
307.20 224.61 0.43 c p1
307.44 219.97 0.43 c p1
307.68 230.38 0.43 c p1
307.92 220.87 0.43 c p1
308.16 224.81 0.43 c p1
308.40 220.97 0.43 c p1
308.65 221.82 0.43 c p1
308.89 224.28 0.43 c p1
309.13 219.51 0.43 c p1
309.37 221.97 0.43 c p1
309.61 223.62 0.43 c p1
309.86 222.86 0.43 c p1
310.10 228.43 0.43 c p1
310.34 226.05 0.43 c p1
310.58 219.79 0.43 c p1
310.82 225.33 0.43 c p1
311.06 225.37 0.43 c p1
311.31 228.65 0.43 c p1
311.55 223.98 0.43 c p1
311.79 227.12 0.43 c p1
312.03 227.16 0.43 c p1
312.27 222.51 0.43 c p1
312.52 232.94 0.43 c p1
312.76 224.20 0.43 c p1
313.00 225.72 0.43 c p1
313.24 227.37 0.43 c p1
313.48 222.71 0.43 c p1
313.72 229.07 0.43 c p1
313.97 223.59 0.43 c p1
314.21 224.44 0.43 c p1
314.45 225.28 0.43 c p1
314.69 220.50 0.43 c p1
314.93 229.27 0.43 c p1
315.18 222.18 0.43 c p1
315.42 225.43 0.43 c p1
315.66 226.14 0.43 c p1
315.90 222.29 0.43 c p1
316.14 226.22 0.43 c p1
316.38 226.25 0.43 c p1
316.63 220.00 0.43 c p1
316.87 224.85 0.43 c p1
317.11 220.87 0.43 c p1
317.35 226.39 0.43 c p1
317.59 216.16 0.43 c p1
317.83 228.08 0.43 c p1
318.08 231.36 0.43 c p1
318.32 225.05 0.43 c p1
318.56 221.87 0.43 c p1
318.80 227.40 0.43 c p1
319.04 220.34 0.43 c p1
319.29 226.66 0.43 c p1
319.53 225.21 0.43 c p1
319.77 222.83 0.43 c p1
320.01 226.08 0.43 c p1
320.25 223.70 0.43 c p1
320.49 230.86 0.43 c p1
320.74 226.85 0.43 c p1
320.98 226.20 0.43 c p1
321.22 226.23 0.43 c p1
321.46 221.44 0.43 c p1
321.70 226.29 0.43 c p1
321.95 224.71 0.43 c p1
322.19 219.93 0.43 c p1
322.43 227.86 0.43 c p1
322.67 223.19 0.43 c p1
322.91 224.02 0.43 c p1
323.15 227.94 0.43 c p1
323.40 220.87 0.43 c p1
323.64 227.19 0.43 c p1
323.88 225.73 0.43 c p1
324.12 222.55 0.43 c p1
324.36 222.57 0.43 c p1
324.61 222.60 0.43 c p1
324.85 225.84 0.43 c p1
325.09 221.05 0.43 c p1
325.33 226.69 0.43 c p1
325.57 225.11 0.43 c p1
325.81 226.74 0.43 c p1
326.06 229.06 0.43 c p1
326.30 222.77 0.43 c p1
326.54 226.01 0.43 c p1
326.78 225.23 0.43 c p1
327.02 224.45 0.43 c p1
327.26 226.08 0.43 c p1
327.51 224.50 0.43 c p1
327.75 224.52 0.43 c p1
327.99 222.94 0.43 c p1
328.23 222.96 0.43 c p1
328.47 229.29 0.43 c p1
328.72 226.21 0.43 c p1
328.96 221.43 0.43 c p1
329.20 227.06 0.43 c p1
329.44 219.08 0.43 c p1
329.68 225.50 0.43 c p1
329.92 218.32 0.43 c p1
330.17 220.73 0.43 c p1
330.41 227.84 0.43 c p1
330.65 223.17 0.43 c p1
330.89 224.80 0.43 c p1
331.13 220.81 0.43 c p1
331.38 220.83 0.43 c p1
331.62 232.80 0.43 c p1
331.86 224.87 0.43 c p1
332.10 227.30 0.43 c p1
332.34 225.71 0.43 c p1
332.58 228.82 0.43 c p1
332.83 226.56 0.43 c p1
333.07 223.36 0.43 c p1
333.31 230.50 0.43 c p1
333.55 224.20 0.43 c p1
333.79 219.43 0.43 c p1
334.04 228.13 0.43 c p1
334.28 224.25 0.43 c p1
334.52 223.47 0.43 c p1
334.76 223.49 0.43 c p1
335.00 223.50 0.43 c p1
335.24 224.32 0.43 c p1
335.49 223.54 0.43 c p1
335.73 225.96 0.43 c p1
335.97 226.78 0.43 c p1
336.21 227.60 0.43 c p1
336.45 224.40 0.43 c p1
336.69 226.03 0.43 c p1
336.94 229.94 0.43 c p1
337.18 221.25 0.43 c p1
337.42 222.07 0.43 c p1
337.66 227.70 0.43 c p1
337.90 223.69 0.43 c p1
338.15 227.73 0.43 c p1
338.39 223.72 0.43 c p1
338.63 220.54 0.43 c p1
338.87 233.31 0.43 c p1
339.11 222.17 0.43 c p1
339.35 228.47 0.43 c p1
339.60 223.80 0.43 c p1
339.84 219.03 0.43 c p1
340.08 225.43 0.43 c p1
340.32 226.25 0.43 c p1
340.56 219.07 0.43 c p1
340.81 223.86 0.43 c p1
341.05 217.50 0.43 c p1
341.29 224.69 0.43 c p1
341.53 225.51 0.43 c p1
341.77 219.93 0.43 c p1
342.01 230.24 0.43 c p1
342.26 220.75 0.43 c p1
342.50 229.45 0.43 c p1
342.74 219.18 0.43 c p1
342.98 220.79 0.43 c p1
343.22 224.79 0.43 c p1
343.47 223.20 0.43 c p1
343.71 224.82 0.43 c p1
343.95 220.83 0.43 c p1
344.19 220.05 0.43 c p1
344.43 227.26 0.43 c p1
344.67 220.07 0.43 c p1
344.92 230.38 0.43 c p1
345.16 228.10 0.43 c p1
345.40 221.70 0.43 c p1
345.64 226.52 0.43 c p1
345.88 217.75 0.43 c p1
346.13 225.73 0.43 c p1
346.37 224.94 0.43 c p1
346.61 224.15 0.43 c p1
346.85 220.17 0.43 c p1
347.09 222.57 0.43 c p1
347.33 224.98 0.43 c p1
347.58 223.39 0.43 c p1
347.82 224.20 0.43 c p1
348.06 227.42 0.43 c p1
348.30 224.22 0.43 c p1
348.54 224.23 0.43 c p1
348.78 219.46 0.43 c p1
349.03 223.45 0.43 c p1
349.27 224.26 0.43 c p1
349.51 222.67 0.43 c p1
349.75 221.88 0.43 c p1
349.99 224.29 0.43 c p1
350.24 224.30 0.43 c p1
350.48 226.72 0.43 c p1
350.72 222.72 0.43 c p1
350.96 228.34 0.43 c p1
351.20 225.14 0.43 c p1
351.44 222.74 0.43 c p1
351.69 224.35 0.43 c p1
351.93 224.36 0.43 c p1
352.17 223.57 0.43 c p1
352.41 221.18 0.43 c p1
352.65 221.99 0.43 c p1
352.90 226.00 0.43 c p1
353.14 220.41 0.43 c p1
353.38 227.62 0.43 c p1
353.62 221.22 0.43 c p1
353.86 226.83 0.43 c p1
354.10 224.43 0.43 c p1
354.35 224.44 0.43 c p1
354.59 228.47 0.43 c p1
354.83 222.86 0.43 c p1
355.07 221.27 0.43 c p1
355.31 226.88 0.43 c p1
355.56 221.28 0.43 c p1
355.80 226.90 0.43 c p1
356.04 223.69 0.43 c p1
356.28 218.92 0.43 c p1
356.52 225.31 0.43 c p1
356.76 224.52 0.43 c p1
357.01 222.13 0.43 c p1
357.25 222.13 0.43 c p1
357.49 224.54 0.43 c p1
357.73 230.04 0.43 c p1
357.97 222.15 0.43 c p1
358.21 226.96 0.43 c p1
358.46 224.56 0.43 c p1
358.70 225.37 0.43 c p1
358.94 224.58 0.43 c p1
359.18 219.80 0.43 c p1
359.42 224.59 0.43 c p1
359.67 227.81 0.43 c p1
359.91 223.80 0.43 c p1
360.15 228.62 0.43 c p1
360.39 227.02 0.43 c p1
360.63 225.42 0.43 c p1
360.87 222.23 0.43 c p1
361.12 223.83 0.43 c p1
361.36 225.44 0.43 c p1
361.60 219.86 0.43 c p1
0.00 0.00 432.00 576.00 cl
0 0 0 srgb
0.75 setlinewidth
[] 0 setdash
1 setlinecap
1 setlinejoin
10.00 setmiterlimit
np
218.70 201.60 m
128.96 0 l
o
np
218.70 201.60 m
0 -5.76 l
o
np
250.94 201.60 m
0 -5.76 l
o
np
283.18 201.60 m
0 -5.76 l
o
np
315.42 201.60 m
0 -5.76 l
o
np
347.66 201.60 m
0 -5.76 l
o
/Font1 findfont 6 s
218.70 185.47 (0) .5 0 t
250.94 185.47 (200) .5 0 t
283.18 185.47 (400) .5 0 t
315.42 185.47 (600) .5 0 t
347.66 185.47 (800) .5 0 t
np
216.00 203.75 m
0 41.78 l
o
np
216.00 203.75 m
-5.76 0 l
o
np
216.00 210.71 m
-5.76 0 l
o
np
216.00 217.68 m
-5.76 0 l
o
np
216.00 224.64 m
-5.76 0 l
o
np
216.00 231.60 m
-5.76 0 l
o
np
216.00 238.57 m
-5.76 0 l
o
np
216.00 245.53 m
-5.76 0 l
o
209.09 201.59 (-0.015) 1 0 t
209.09 208.56 (-0.010) 1 0 t
209.09 215.52 (-0.005) 1 0 t
209.09 222.49 (0.000) 1 0 t
209.09 229.45 (0.005) 1 0 t
209.09 236.41 (0.010) 1 0 t
209.09 243.38 (0.015) 1 0 t
np
216.00 201.60 m
151.20 0 l
0 46.08 l
-151.20 0 l
0 -46.08 l
o
0.00 0.00 432.00 576.00 cl
/Font1 findfont 9 s
0 0 0 srgb
291.60 262.88 (Residuals) .5 0 t
59.04 73.44 401.76 516.96 cl
ep
%%Trailer
%%Pages: 1
%%EOF
